<?xml version="1.0" encoding="UTF-8" standalone="no"?>
<!-- Created with Inkscape (http://www.inkscape.org/) -->

<svg
   xmlns:dc="http://purl.org/dc/elements/1.1/"
   xmlns:cc="http://creativecommons.org/ns#"
   xmlns:rdf="http://www.w3.org/1999/02/22-rdf-syntax-ns#"
   xmlns:svg="http://www.w3.org/2000/svg"
   xmlns="http://www.w3.org/2000/svg"
   xmlns:xlink="http://www.w3.org/1999/xlink"
   xmlns:sodipodi="http://sodipodi.sourceforge.net/DTD/sodipodi-0.dtd"
   xmlns:inkscape="http://www.inkscape.org/namespaces/inkscape"
   id="svg2"
   version="1.1"
   inkscape:version="0.92.3 (2405546, 2018-03-11)"
   width="2481"
   height="3503"
   sodipodi:docname="E27P04.svg">
  <metadata
     id="metadata8">
    <rdf:RDF>
      <cc:Work
         rdf:about="">
        <dc:format>image/svg+xml</dc:format>
        <dc:type
           rdf:resource="http://purl.org/dc/dcmitype/StillImage" />
        <dc:title />
      </cc:Work>
    </rdf:RDF>
  </metadata>
  <defs
     id="defs6">
    <filter
       style="color-interpolation-filters:sRGB;"
       id="filter4375-4-1-1-1-9"
       inkscape:label="Roughen">
      <feFlood
         id="feFlood4377-7-9-0-8-1"
         flood-opacity="1"
         flood-color="rgb(0,0,0)"
         result="flood" />
      <feComposite
         id="feComposite4379-3-8-8-2-77"
         in2="SourceGraphic"
         in="flood"
         operator="in"
         result="composite1" />
      <feMorphology
         id="feMorphology4393-1-0-49-8-9"
         operator="dilate"
         radius="4"
         result="result3" />
      <feComposite
         id="feComposite4385-9-5-7-0-8"
         in2="result3"
         in="SourceGraphic"
         operator="over"
         result="fbSourceGraphic" />
      <feColorMatrix
         result="fbSourceGraphicAlpha"
         in="fbSourceGraphic"
         values="0 0 0 -1 0 0 0 0 -1 0 0 0 0 -1 0 0 0 0 1 0"
         id="feColorMatrix333" />
      <feTurbulence
         id="feTurbulence335"
         type="fractalNoise"
         numOctaves="5"
         seed="1"
         baseFrequency="0.013 0.013"
         result="turbulence"
         in="fbSourceGraphic" />
      <feDisplacementMap
         in2="turbulence"
         id="feDisplacementMap337"
         in="fbSourceGraphic"
         scale="6.6"
         yChannelSelector="G"
         xChannelSelector="R"
         result="fbSourceGraphic" />
      <feColorMatrix
         result="fbSourceGraphicAlpha"
         in="fbSourceGraphic"
         values="0 0 0 -1 0 0 0 0 -1 0 0 0 0 -1 0 0 0 0 1 0"
         id="feColorMatrix435" />
      <feTurbulence
         id="feTurbulence437"
         type="fractalNoise"
         numOctaves="5"
         seed="27"
         baseFrequency="0.001 0.4414"
         result="turbulence"
         in="fbSourceGraphic" />
      <feDisplacementMap
         in2="turbulence"
         id="feDisplacementMap439"
         in="fbSourceGraphic"
         scale="4.27461"
         yChannelSelector="G"
         xChannelSelector="R" />
    </filter>
    <filter
       style="color-interpolation-filters:sRGB"
       id="filter4375-4-1-1-1-9-7"
       inkscape:label="deevad outline effect">
      <feFlood
         id="feFlood4377-7-9-0-8-1-4"
         flood-opacity="1"
         flood-color="rgb(0,0,0)"
         result="flood" />
      <feComposite
         id="feComposite4379-3-8-8-2-77-7"
         in2="SourceGraphic"
         in="flood"
         operator="in"
         result="composite1" />
      <feMorphology
         id="feMorphology4393-1-0-49-8-9-3"
         operator="dilate"
         radius="4"
         result="result3" />
      <feComposite
         id="feComposite4385-9-5-7-0-8-0"
         in2="result3"
         in="SourceGraphic"
         operator="over"
         result="composite2" />
    </filter>
    <filter
       style="color-interpolation-filters:sRGB"
       id="filter4375-4-1-1-1-9-7-7"
       inkscape:label="deevad outline effect">
      <feFlood
         id="feFlood4377-7-9-0-8-1-4-8"
         flood-opacity="1"
         flood-color="rgb(0,0,0)"
         result="flood" />
      <feComposite
         id="feComposite4379-3-8-8-2-77-7-8"
         in2="SourceGraphic"
         in="flood"
         operator="in"
         result="composite1" />
      <feMorphology
         id="feMorphology4393-1-0-49-8-9-3-9"
         operator="dilate"
         radius="4"
         result="result3" />
      <feComposite
         id="feComposite4385-9-5-7-0-8-0-0"
         in2="result3"
         in="SourceGraphic"
         operator="over"
         result="composite2" />
    </filter>
    <filter
       style="color-interpolation-filters:sRGB"
       id="filter4375-4-1-1-1-9-7-7-0"
       inkscape:label="deevad outline effect">
      <feFlood
         id="feFlood4377-7-9-0-8-1-4-8-3"
         flood-opacity="1"
         flood-color="rgb(0,0,0)"
         result="flood" />
      <feComposite
         id="feComposite4379-3-8-8-2-77-7-8-1"
         in2="SourceGraphic"
         in="flood"
         operator="in"
         result="composite1" />
      <feMorphology
         id="feMorphology4393-1-0-49-8-9-3-9-0"
         operator="dilate"
         radius="4"
         result="result3" />
      <feComposite
         id="feComposite4385-9-5-7-0-8-0-0-3"
         in2="result3"
         in="SourceGraphic"
         operator="over"
         result="composite2" />
    </filter>
    <filter
       style="color-interpolation-filters:sRGB"
       id="filter4375-4-1-1-1-9-7-7-0-3"
       inkscape:label="deevad outline effect">
      <feFlood
         id="feFlood4377-7-9-0-8-1-4-8-3-2"
         flood-opacity="1"
         flood-color="rgb(0,0,0)"
         result="flood" />
      <feComposite
         id="feComposite4379-3-8-8-2-77-7-8-1-2"
         in2="SourceGraphic"
         in="flood"
         operator="in"
         result="composite1" />
      <feMorphology
         id="feMorphology4393-1-0-49-8-9-3-9-0-1"
         operator="dilate"
         radius="4"
         result="result3" />
      <feComposite
         id="feComposite4385-9-5-7-0-8-0-0-3-5"
         in2="result3"
         in="SourceGraphic"
         operator="over"
         result="composite2" />
    </filter>
    <filter
       style="color-interpolation-filters:sRGB"
       id="filter4375-4-1-1-1-9-7-7-0-3-7"
       inkscape:label="deevad outline effect">
      <feFlood
         id="feFlood4377-7-9-0-8-1-4-8-3-2-4"
         flood-opacity="1"
         flood-color="rgb(0,0,0)"
         result="flood" />
      <feComposite
         id="feComposite4379-3-8-8-2-77-7-8-1-2-6"
         in2="SourceGraphic"
         in="flood"
         operator="in"
         result="composite1" />
      <feMorphology
         id="feMorphology4393-1-0-49-8-9-3-9-0-1-4"
         operator="dilate"
         radius="4"
         result="result3" />
      <feComposite
         id="feComposite4385-9-5-7-0-8-0-0-3-5-9"
         in2="result3"
         in="SourceGraphic"
         operator="over"
         result="composite2" />
    </filter>
    <filter
       style="color-interpolation-filters:sRGB"
       id="filter4375-4-1-1-1-9-7-7-0-1"
       inkscape:label="deevad outline effect">
      <feFlood
         id="feFlood4377-7-9-0-8-1-4-8-3-23"
         flood-opacity="1"
         flood-color="rgb(0,0,0)"
         result="flood" />
      <feComposite
         id="feComposite4379-3-8-8-2-77-7-8-1-1"
         in2="SourceGraphic"
         in="flood"
         operator="in"
         result="composite1" />
      <feMorphology
         id="feMorphology4393-1-0-49-8-9-3-9-0-8"
         operator="dilate"
         radius="4"
         result="result3" />
      <feComposite
         id="feComposite4385-9-5-7-0-8-0-0-3-1"
         in2="result3"
         in="SourceGraphic"
         operator="over"
         result="composite2" />
    </filter>
    <filter
       style="color-interpolation-filters:sRGB"
       id="filter4375-4-1-1-1-9-7-7-3"
       inkscape:label="deevad outline effect">
      <feFlood
         id="feFlood4377-7-9-0-8-1-4-8-8"
         flood-opacity="1"
         flood-color="rgb(0,0,0)"
         result="flood" />
      <feComposite
         id="feComposite4379-3-8-8-2-77-7-8-9"
         in2="SourceGraphic"
         in="flood"
         operator="in"
         result="composite1" />
      <feMorphology
         id="feMorphology4393-1-0-49-8-9-3-9-2"
         operator="dilate"
         radius="4"
         result="result3" />
      <feComposite
         id="feComposite4385-9-5-7-0-8-0-0-4"
         in2="result3"
         in="SourceGraphic"
         operator="over"
         result="composite2" />
    </filter>
    <filter
       style="color-interpolation-filters:sRGB"
       id="filter4375-4-1-1-1-9-7-5"
       inkscape:label="deevad outline effect">
      <feFlood
         id="feFlood4377-7-9-0-8-1-4-1"
         flood-opacity="1"
         flood-color="rgb(0,0,0)"
         result="flood" />
      <feComposite
         id="feComposite4379-3-8-8-2-77-7-0"
         in2="SourceGraphic"
         in="flood"
         operator="in"
         result="composite1" />
      <feMorphology
         id="feMorphology4393-1-0-49-8-9-3-0"
         operator="dilate"
         radius="4"
         result="result3" />
      <feComposite
         id="feComposite4385-9-5-7-0-8-0-1"
         in2="result3"
         in="SourceGraphic"
         operator="over"
         result="composite2" />
    </filter>
    <filter
       style="color-interpolation-filters:sRGB"
       id="filter4375-4-1-1-1-9-3"
       inkscape:label="deevad outline effect">
      <feFlood
         id="feFlood4377-7-9-0-8-1-3"
         flood-opacity="1"
         flood-color="rgb(0,0,0)"
         result="flood" />
      <feComposite
         id="feComposite4379-3-8-8-2-77-0"
         in2="SourceGraphic"
         in="flood"
         operator="in"
         result="composite1" />
      <feMorphology
         id="feMorphology4393-1-0-49-8-9-0"
         operator="dilate"
         radius="3"
         result="result3" />
      <feComposite
         id="feComposite4385-9-5-7-0-8-02"
         in2="result3"
         in="SourceGraphic"
         operator="over"
         result="composite2" />
    </filter>
    <filter
       style="color-interpolation-filters:sRGB"
       id="filter4375-4-1-1-1-9-6"
       inkscape:label="Roughen">
      <feFlood
         id="feFlood4377-7-9-0-8-1-0"
         flood-opacity="1"
         flood-color="rgb(0,0,0)"
         result="flood" />
      <feComposite
         id="feComposite4379-3-8-8-2-77-6"
         in2="SourceGraphic"
         in="flood"
         operator="in"
         result="composite1" />
      <feMorphology
         id="feMorphology4393-1-0-49-8-9-2"
         operator="dilate"
         radius="4"
         result="result3" />
      <feComposite
         id="feComposite4385-9-5-7-0-8-6"
         in2="result3"
         in="SourceGraphic"
         operator="over"
         result="fbSourceGraphic" />
      <feColorMatrix
         result="fbSourceGraphicAlpha"
         in="fbSourceGraphic"
         values="0 0 0 -1 0 0 0 0 -1 0 0 0 0 -1 0 0 0 0 1 0"
         id="feColorMatrix333-1" />
      <feTurbulence
         id="feTurbulence335-8"
         type="fractalNoise"
         numOctaves="5"
         seed="1"
         baseFrequency="0.013 0.013"
         result="turbulence" />
      <feDisplacementMap
         in2="turbulence"
         id="feDisplacementMap337-7"
         in="fbSourceGraphic"
         scale="6.6"
         yChannelSelector="G"
         xChannelSelector="R"
         result="fbSourceGraphic" />
      <feColorMatrix
         result="fbSourceGraphicAlpha"
         in="fbSourceGraphic"
         values="0 0 0 -1 0 0 0 0 -1 0 0 0 0 -1 0 0 0 0 1 0"
         id="feColorMatrix435-9" />
      <feTurbulence
         id="feTurbulence437-2"
         type="fractalNoise"
         numOctaves="5"
         seed="27"
         baseFrequency="0.001 0.4414"
         result="turbulence" />
      <feDisplacementMap
         in2="turbulence"
         id="feDisplacementMap439-0"
         in="fbSourceGraphic"
         scale="4.27461"
         yChannelSelector="G"
         xChannelSelector="R" />
    </filter>
    <filter
       style="color-interpolation-filters:sRGB"
       id="filter4375-4-1-1-1-9-5"
       inkscape:label="Roughen">
      <feFlood
         id="feFlood4377-7-9-0-8-1-9"
         flood-opacity="1"
         flood-color="rgb(0,0,0)"
         result="flood" />
      <feComposite
         id="feComposite4379-3-8-8-2-77-2"
         in2="SourceGraphic"
         in="flood"
         operator="in"
         result="composite1" />
      <feMorphology
         id="feMorphology4393-1-0-49-8-9-28"
         operator="dilate"
         radius="4"
         result="result3" />
      <feComposite
         id="feComposite4385-9-5-7-0-8-9"
         in2="result3"
         in="SourceGraphic"
         operator="over"
         result="fbSourceGraphic" />
      <feColorMatrix
         result="fbSourceGraphicAlpha"
         in="fbSourceGraphic"
         values="0 0 0 -1 0 0 0 0 -1 0 0 0 0 -1 0 0 0 0 1 0"
         id="feColorMatrix333-7" />
      <feTurbulence
         id="feTurbulence335-3"
         type="fractalNoise"
         numOctaves="5"
         seed="1"
         baseFrequency="0.013 0.013"
         result="turbulence" />
      <feDisplacementMap
         in2="turbulence"
         id="feDisplacementMap337-6"
         in="fbSourceGraphic"
         scale="6.6"
         yChannelSelector="G"
         xChannelSelector="R"
         result="fbSourceGraphic" />
      <feColorMatrix
         result="fbSourceGraphicAlpha"
         in="fbSourceGraphic"
         values="0 0 0 -1 0 0 0 0 -1 0 0 0 0 -1 0 0 0 0 1 0"
         id="feColorMatrix435-1" />
      <feTurbulence
         id="feTurbulence437-29"
         type="fractalNoise"
         numOctaves="5"
         seed="27"
         baseFrequency="0.001 0.4414"
         result="turbulence" />
      <feDisplacementMap
         in2="turbulence"
         id="feDisplacementMap439-3"
         in="fbSourceGraphic"
         scale="4.27461"
         yChannelSelector="G"
         xChannelSelector="R" />
    </filter>
    <filter
       style="color-interpolation-filters:sRGB"
       id="filter4375-4-1-1-1-9-78"
       inkscape:label="Roughen">
      <feFlood
         id="feFlood4377-7-9-0-8-1-45"
         flood-opacity="1"
         flood-color="rgb(0,0,0)"
         result="flood" />
      <feComposite
         id="feComposite4379-3-8-8-2-77-03"
         in2="SourceGraphic"
         in="flood"
         operator="in"
         result="composite1" />
      <feMorphology
         id="feMorphology4393-1-0-49-8-9-6"
         operator="dilate"
         radius="4"
         result="result3" />
      <feComposite
         id="feComposite4385-9-5-7-0-8-1"
         in2="result3"
         in="SourceGraphic"
         operator="over"
         result="fbSourceGraphic" />
      <feColorMatrix
         result="fbSourceGraphicAlpha"
         in="fbSourceGraphic"
         values="0 0 0 -1 0 0 0 0 -1 0 0 0 0 -1 0 0 0 0 1 0"
         id="feColorMatrix333-0" />
      <feTurbulence
         id="feTurbulence335-6"
         type="fractalNoise"
         numOctaves="5"
         seed="1"
         baseFrequency="0.013 0.013"
         result="turbulence" />
      <feDisplacementMap
         in2="turbulence"
         id="feDisplacementMap337-3"
         in="fbSourceGraphic"
         scale="6.6"
         yChannelSelector="G"
         xChannelSelector="R"
         result="fbSourceGraphic" />
      <feColorMatrix
         result="fbSourceGraphicAlpha"
         in="fbSourceGraphic"
         values="0 0 0 -1 0 0 0 0 -1 0 0 0 0 -1 0 0 0 0 1 0"
         id="feColorMatrix435-2" />
      <feTurbulence
         id="feTurbulence437-0"
         type="fractalNoise"
         numOctaves="5"
         seed="27"
         baseFrequency="0.001 0.4414"
         result="turbulence" />
      <feDisplacementMap
         in2="turbulence"
         id="feDisplacementMap439-6"
         in="fbSourceGraphic"
         scale="4.27461"
         yChannelSelector="G"
         xChannelSelector="R" />
    </filter>
    <filter
       style="color-interpolation-filters:sRGB"
       id="filter4375-4-1-1-1-9-4"
       inkscape:label="Roughen">
      <feFlood
         id="feFlood4377-7-9-0-8-1-7"
         flood-opacity="1"
         flood-color="rgb(0,0,0)"
         result="flood" />
      <feComposite
         id="feComposite4379-3-8-8-2-77-65"
         in2="SourceGraphic"
         in="flood"
         operator="in"
         result="composite1" />
      <feMorphology
         id="feMorphology4393-1-0-49-8-9-69"
         operator="dilate"
         radius="4"
         result="result3" />
      <feComposite
         id="feComposite4385-9-5-7-0-8-3"
         in2="result3"
         in="SourceGraphic"
         operator="over"
         result="fbSourceGraphic" />
      <feColorMatrix
         result="fbSourceGraphicAlpha"
         in="fbSourceGraphic"
         values="0 0 0 -1 0 0 0 0 -1 0 0 0 0 -1 0 0 0 0 1 0"
         id="feColorMatrix333-74" />
      <feTurbulence
         id="feTurbulence335-5"
         type="fractalNoise"
         numOctaves="5"
         seed="1"
         baseFrequency="0.013 0.013"
         result="turbulence" />
      <feDisplacementMap
         in2="turbulence"
         id="feDisplacementMap337-2"
         in="fbSourceGraphic"
         scale="6.6"
         yChannelSelector="G"
         xChannelSelector="R"
         result="fbSourceGraphic" />
      <feColorMatrix
         result="fbSourceGraphicAlpha"
         in="fbSourceGraphic"
         values="0 0 0 -1 0 0 0 0 -1 0 0 0 0 -1 0 0 0 0 1 0"
         id="feColorMatrix435-5" />
      <feTurbulence
         id="feTurbulence437-4"
         type="fractalNoise"
         numOctaves="5"
         seed="27"
         baseFrequency="0.001 0.4414"
         result="turbulence" />
      <feDisplacementMap
         in2="turbulence"
         id="feDisplacementMap439-7"
         in="fbSourceGraphic"
         scale="4.27461"
         yChannelSelector="G"
         xChannelSelector="R" />
    </filter>
    <filter
       style="color-interpolation-filters:sRGB"
       id="filter4375-4-1-1-1-9-30"
       inkscape:label="Roughen">
      <feFlood
         id="feFlood4377-7-9-0-8-1-78"
         flood-opacity="1"
         flood-color="rgb(0,0,0)"
         result="flood" />
      <feComposite
         id="feComposite4379-3-8-8-2-77-68"
         in2="SourceGraphic"
         in="flood"
         operator="in"
         result="composite1" />
      <feMorphology
         id="feMorphology4393-1-0-49-8-9-8"
         operator="dilate"
         radius="4"
         result="result3" />
      <feComposite
         id="feComposite4385-9-5-7-0-8-4"
         in2="result3"
         in="SourceGraphic"
         operator="over"
         result="fbSourceGraphic" />
      <feColorMatrix
         result="fbSourceGraphicAlpha"
         in="fbSourceGraphic"
         values="0 0 0 -1 0 0 0 0 -1 0 0 0 0 -1 0 0 0 0 1 0"
         id="feColorMatrix333-3" />
      <feTurbulence
         id="feTurbulence335-1"
         type="fractalNoise"
         numOctaves="5"
         seed="1"
         baseFrequency="0.013 0.013"
         result="turbulence" />
      <feDisplacementMap
         in2="turbulence"
         id="feDisplacementMap337-4"
         in="fbSourceGraphic"
         scale="6.6"
         yChannelSelector="G"
         xChannelSelector="R"
         result="fbSourceGraphic" />
      <feColorMatrix
         result="fbSourceGraphicAlpha"
         in="fbSourceGraphic"
         values="0 0 0 -1 0 0 0 0 -1 0 0 0 0 -1 0 0 0 0 1 0"
         id="feColorMatrix435-92" />
      <feTurbulence
         id="feTurbulence437-06"
         type="fractalNoise"
         numOctaves="5"
         seed="27"
         baseFrequency="0.001 0.4414"
         result="turbulence" />
      <feDisplacementMap
         in2="turbulence"
         id="feDisplacementMap439-8"
         in="fbSourceGraphic"
         scale="4.27461"
         yChannelSelector="G"
         xChannelSelector="R" />
    </filter>
    <filter
       style="color-interpolation-filters:sRGB"
       id="filter4375-4-1-1-1-9-30-6"
       inkscape:label="Roughen">
      <feFlood
         id="feFlood4377-7-9-0-8-1-78-4"
         flood-opacity="1"
         flood-color="rgb(0,0,0)"
         result="flood" />
      <feComposite
         id="feComposite4379-3-8-8-2-77-68-9"
         in2="SourceGraphic"
         in="flood"
         operator="in"
         result="composite1" />
      <feMorphology
         id="feMorphology4393-1-0-49-8-9-8-5"
         operator="dilate"
         radius="4"
         result="result3" />
      <feComposite
         id="feComposite4385-9-5-7-0-8-4-0"
         in2="result3"
         in="SourceGraphic"
         operator="over"
         result="fbSourceGraphic" />
      <feColorMatrix
         result="fbSourceGraphicAlpha"
         in="fbSourceGraphic"
         values="0 0 0 -1 0 0 0 0 -1 0 0 0 0 -1 0 0 0 0 1 0"
         id="feColorMatrix333-3-4" />
      <feTurbulence
         id="feTurbulence335-1-8"
         type="fractalNoise"
         numOctaves="5"
         seed="1"
         baseFrequency="0.013 0.013"
         result="turbulence" />
      <feDisplacementMap
         in2="turbulence"
         id="feDisplacementMap337-4-7"
         in="fbSourceGraphic"
         scale="6.6"
         yChannelSelector="G"
         xChannelSelector="R"
         result="fbSourceGraphic" />
      <feColorMatrix
         result="fbSourceGraphicAlpha"
         in="fbSourceGraphic"
         values="0 0 0 -1 0 0 0 0 -1 0 0 0 0 -1 0 0 0 0 1 0"
         id="feColorMatrix435-92-1" />
      <feTurbulence
         id="feTurbulence437-06-7"
         type="fractalNoise"
         numOctaves="5"
         seed="27"
         baseFrequency="0.001 0.4414"
         result="turbulence" />
      <feDisplacementMap
         in2="turbulence"
         id="feDisplacementMap439-8-2"
         in="fbSourceGraphic"
         scale="4.27461"
         yChannelSelector="G"
         xChannelSelector="R" />
    </filter>
    <filter
       style="color-interpolation-filters:sRGB"
       id="filter4375-4-1-1-1-9-30-2"
       inkscape:label="Roughen">
      <feFlood
         id="feFlood4377-7-9-0-8-1-78-6"
         flood-opacity="1"
         flood-color="rgb(0,0,0)"
         result="flood" />
      <feComposite
         id="feComposite4379-3-8-8-2-77-68-1"
         in2="SourceGraphic"
         in="flood"
         operator="in"
         result="composite1" />
      <feMorphology
         id="feMorphology4393-1-0-49-8-9-8-0"
         operator="dilate"
         radius="4"
         result="result3" />
      <feComposite
         id="feComposite4385-9-5-7-0-8-4-6"
         in2="result3"
         in="SourceGraphic"
         operator="over"
         result="fbSourceGraphic" />
      <feColorMatrix
         result="fbSourceGraphicAlpha"
         in="fbSourceGraphic"
         values="0 0 0 -1 0 0 0 0 -1 0 0 0 0 -1 0 0 0 0 1 0"
         id="feColorMatrix333-3-1" />
      <feTurbulence
         id="feTurbulence335-1-5"
         type="fractalNoise"
         numOctaves="5"
         seed="1"
         baseFrequency="0.013 0.013"
         result="turbulence" />
      <feDisplacementMap
         in2="turbulence"
         id="feDisplacementMap337-4-9"
         in="fbSourceGraphic"
         scale="6.6"
         yChannelSelector="G"
         xChannelSelector="R"
         result="fbSourceGraphic" />
      <feColorMatrix
         result="fbSourceGraphicAlpha"
         in="fbSourceGraphic"
         values="0 0 0 -1 0 0 0 0 -1 0 0 0 0 -1 0 0 0 0 1 0"
         id="feColorMatrix435-92-4" />
      <feTurbulence
         id="feTurbulence437-06-9"
         type="fractalNoise"
         numOctaves="5"
         seed="27"
         baseFrequency="0.001 0.4414"
         result="turbulence" />
      <feDisplacementMap
         in2="turbulence"
         id="feDisplacementMap439-8-0"
         in="fbSourceGraphic"
         scale="4.27461"
         yChannelSelector="G"
         xChannelSelector="R" />
    </filter>
    <filter
       style="color-interpolation-filters:sRGB"
       id="filter4375-4-1-1-1-9-30-2-7"
       inkscape:label="Roughen">
      <feFlood
         id="feFlood4377-7-9-0-8-1-78-6-7"
         flood-opacity="1"
         flood-color="rgb(0,0,0)"
         result="flood" />
      <feComposite
         id="feComposite4379-3-8-8-2-77-68-1-1"
         in2="SourceGraphic"
         in="flood"
         operator="in"
         result="composite1" />
      <feMorphology
         id="feMorphology4393-1-0-49-8-9-8-0-1"
         operator="dilate"
         radius="4"
         result="result3" />
      <feComposite
         id="feComposite4385-9-5-7-0-8-4-6-5"
         in2="result3"
         in="SourceGraphic"
         operator="over"
         result="fbSourceGraphic" />
      <feColorMatrix
         result="fbSourceGraphicAlpha"
         in="fbSourceGraphic"
         values="0 0 0 -1 0 0 0 0 -1 0 0 0 0 -1 0 0 0 0 1 0"
         id="feColorMatrix333-3-1-9" />
      <feTurbulence
         id="feTurbulence335-1-5-7"
         type="fractalNoise"
         numOctaves="5"
         seed="1"
         baseFrequency="0.013 0.013"
         result="turbulence" />
      <feDisplacementMap
         in2="turbulence"
         id="feDisplacementMap337-4-9-7"
         in="fbSourceGraphic"
         scale="6.6"
         yChannelSelector="G"
         xChannelSelector="R"
         result="fbSourceGraphic" />
      <feColorMatrix
         result="fbSourceGraphicAlpha"
         in="fbSourceGraphic"
         values="0 0 0 -1 0 0 0 0 -1 0 0 0 0 -1 0 0 0 0 1 0"
         id="feColorMatrix435-92-4-6" />
      <feTurbulence
         id="feTurbulence437-06-9-7"
         type="fractalNoise"
         numOctaves="5"
         seed="27"
         baseFrequency="0.001 0.4414"
         result="turbulence" />
      <feDisplacementMap
         in2="turbulence"
         id="feDisplacementMap439-8-0-3"
         in="fbSourceGraphic"
         scale="4.27461"
         yChannelSelector="G"
         xChannelSelector="R" />
    </filter>
    <filter
       style="color-interpolation-filters:sRGB"
       id="filter4375-4-1-1-1-9-30-2-7-6"
       inkscape:label="Roughen">
      <feFlood
         id="feFlood4377-7-9-0-8-1-78-6-7-3"
         flood-opacity="1"
         flood-color="rgb(0,0,0)"
         result="flood" />
      <feComposite
         id="feComposite4379-3-8-8-2-77-68-1-1-9"
         in2="SourceGraphic"
         in="flood"
         operator="in"
         result="composite1" />
      <feMorphology
         id="feMorphology4393-1-0-49-8-9-8-0-1-4"
         operator="dilate"
         radius="4"
         result="result3" />
      <feComposite
         id="feComposite4385-9-5-7-0-8-4-6-5-8"
         in2="result3"
         in="SourceGraphic"
         operator="over"
         result="fbSourceGraphic" />
      <feColorMatrix
         result="fbSourceGraphicAlpha"
         in="fbSourceGraphic"
         values="0 0 0 -1 0 0 0 0 -1 0 0 0 0 -1 0 0 0 0 1 0"
         id="feColorMatrix333-3-1-9-1" />
      <feTurbulence
         id="feTurbulence335-1-5-7-2"
         type="fractalNoise"
         numOctaves="5"
         seed="1"
         baseFrequency="0.013 0.013"
         result="turbulence" />
      <feDisplacementMap
         in2="turbulence"
         id="feDisplacementMap337-4-9-7-9"
         in="fbSourceGraphic"
         scale="6.6"
         yChannelSelector="G"
         xChannelSelector="R"
         result="fbSourceGraphic" />
      <feColorMatrix
         result="fbSourceGraphicAlpha"
         in="fbSourceGraphic"
         values="0 0 0 -1 0 0 0 0 -1 0 0 0 0 -1 0 0 0 0 1 0"
         id="feColorMatrix435-92-4-6-3" />
      <feTurbulence
         id="feTurbulence437-06-9-7-9"
         type="fractalNoise"
         numOctaves="5"
         seed="27"
         baseFrequency="0.001 0.4414"
         result="turbulence" />
      <feDisplacementMap
         in2="turbulence"
         id="feDisplacementMap439-8-0-3-0"
         in="fbSourceGraphic"
         scale="4.27461"
         yChannelSelector="G"
         xChannelSelector="R" />
    </filter>
    <filter
       style="color-interpolation-filters:sRGB"
       id="filter4375-4-1-1-1-9-30-2-7-6-5"
       inkscape:label="Roughen">
      <feFlood
         id="feFlood4377-7-9-0-8-1-78-6-7-3-0"
         flood-opacity="1"
         flood-color="rgb(0,0,0)"
         result="flood" />
      <feComposite
         id="feComposite4379-3-8-8-2-77-68-1-1-9-9"
         in2="SourceGraphic"
         in="flood"
         operator="in"
         result="composite1" />
      <feMorphology
         id="feMorphology4393-1-0-49-8-9-8-0-1-4-6"
         operator="dilate"
         radius="4"
         result="result3" />
      <feComposite
         id="feComposite4385-9-5-7-0-8-4-6-5-8-3"
         in2="result3"
         in="SourceGraphic"
         operator="over"
         result="fbSourceGraphic" />
      <feColorMatrix
         result="fbSourceGraphicAlpha"
         in="fbSourceGraphic"
         values="0 0 0 -1 0 0 0 0 -1 0 0 0 0 -1 0 0 0 0 1 0"
         id="feColorMatrix333-3-1-9-1-8" />
      <feTurbulence
         id="feTurbulence335-1-5-7-2-5"
         type="fractalNoise"
         numOctaves="5"
         seed="1"
         baseFrequency="0.013 0.013"
         result="turbulence" />
      <feDisplacementMap
         in2="turbulence"
         id="feDisplacementMap337-4-9-7-9-6"
         in="fbSourceGraphic"
         scale="6.6"
         yChannelSelector="G"
         xChannelSelector="R"
         result="fbSourceGraphic" />
      <feColorMatrix
         result="fbSourceGraphicAlpha"
         in="fbSourceGraphic"
         values="0 0 0 -1 0 0 0 0 -1 0 0 0 0 -1 0 0 0 0 1 0"
         id="feColorMatrix435-92-4-6-3-1" />
      <feTurbulence
         id="feTurbulence437-06-9-7-9-1"
         type="fractalNoise"
         numOctaves="5"
         seed="27"
         baseFrequency="0.001 0.4414"
         result="turbulence" />
      <feDisplacementMap
         in2="turbulence"
         id="feDisplacementMap439-8-0-3-0-5"
         in="fbSourceGraphic"
         scale="4.27461"
         yChannelSelector="G"
         xChannelSelector="R" />
    </filter>
    <filter
       style="color-interpolation-filters:sRGB"
       id="filter4375-4-1-1-1-9-30-2-7-9"
       inkscape:label="Roughen">
      <feFlood
         id="feFlood4377-7-9-0-8-1-78-6-7-8"
         flood-opacity="1"
         flood-color="rgb(0,0,0)"
         result="flood" />
      <feComposite
         id="feComposite4379-3-8-8-2-77-68-1-1-4"
         in2="SourceGraphic"
         in="flood"
         operator="in"
         result="composite1" />
      <feMorphology
         id="feMorphology4393-1-0-49-8-9-8-0-1-8"
         operator="dilate"
         radius="4"
         result="result3" />
      <feComposite
         id="feComposite4385-9-5-7-0-8-4-6-5-1"
         in2="result3"
         in="SourceGraphic"
         operator="over"
         result="fbSourceGraphic" />
      <feColorMatrix
         result="fbSourceGraphicAlpha"
         in="fbSourceGraphic"
         values="0 0 0 -1 0 0 0 0 -1 0 0 0 0 -1 0 0 0 0 1 0"
         id="feColorMatrix333-3-1-9-0" />
      <feTurbulence
         id="feTurbulence335-1-5-7-3"
         type="fractalNoise"
         numOctaves="5"
         seed="1"
         baseFrequency="0.013 0.013"
         result="turbulence" />
      <feDisplacementMap
         in2="turbulence"
         id="feDisplacementMap337-4-9-7-0"
         in="fbSourceGraphic"
         scale="6.6"
         yChannelSelector="G"
         xChannelSelector="R"
         result="fbSourceGraphic" />
      <feColorMatrix
         result="fbSourceGraphicAlpha"
         in="fbSourceGraphic"
         values="0 0 0 -1 0 0 0 0 -1 0 0 0 0 -1 0 0 0 0 1 0"
         id="feColorMatrix435-92-4-6-4" />
      <feTurbulence
         id="feTurbulence437-06-9-7-4"
         type="fractalNoise"
         numOctaves="5"
         seed="27"
         baseFrequency="0.001 0.4414"
         result="turbulence" />
      <feDisplacementMap
         in2="turbulence"
         id="feDisplacementMap439-8-0-3-4"
         in="fbSourceGraphic"
         scale="4.27461"
         yChannelSelector="G"
         xChannelSelector="R" />
    </filter>
    <filter
       style="color-interpolation-filters:sRGB"
       id="filter4375-4-1-1-1-9-30-2-4"
       inkscape:label="Roughen">
      <feFlood
         id="feFlood4377-7-9-0-8-1-78-6-76"
         flood-opacity="1"
         flood-color="rgb(0,0,0)"
         result="flood" />
      <feComposite
         id="feComposite4379-3-8-8-2-77-68-1-3"
         in2="SourceGraphic"
         in="flood"
         operator="in"
         result="composite1" />
      <feMorphology
         id="feMorphology4393-1-0-49-8-9-8-0-17"
         operator="dilate"
         radius="4"
         result="result3" />
      <feComposite
         id="feComposite4385-9-5-7-0-8-4-6-59"
         in2="result3"
         in="SourceGraphic"
         operator="over"
         result="fbSourceGraphic" />
      <feColorMatrix
         result="fbSourceGraphicAlpha"
         in="fbSourceGraphic"
         values="0 0 0 -1 0 0 0 0 -1 0 0 0 0 -1 0 0 0 0 1 0"
         id="feColorMatrix333-3-1-6" />
      <feTurbulence
         id="feTurbulence335-1-5-2"
         type="fractalNoise"
         numOctaves="5"
         seed="1"
         baseFrequency="0.013 0.013"
         result="turbulence" />
      <feDisplacementMap
         in2="turbulence"
         id="feDisplacementMap337-4-9-1"
         in="fbSourceGraphic"
         scale="6.6"
         yChannelSelector="G"
         xChannelSelector="R"
         result="fbSourceGraphic" />
      <feColorMatrix
         result="fbSourceGraphicAlpha"
         in="fbSourceGraphic"
         values="0 0 0 -1 0 0 0 0 -1 0 0 0 0 -1 0 0 0 0 1 0"
         id="feColorMatrix435-92-4-7" />
      <feTurbulence
         id="feTurbulence437-06-9-8"
         type="fractalNoise"
         numOctaves="5"
         seed="27"
         baseFrequency="0.001 0.4414"
         result="turbulence" />
      <feDisplacementMap
         in2="turbulence"
         id="feDisplacementMap439-8-0-5"
         in="fbSourceGraphic"
         scale="4.27461"
         yChannelSelector="G"
         xChannelSelector="R" />
    </filter>
    <filter
       style="color-interpolation-filters:sRGB"
       id="filter4375-4-1-1-1-9-30-7"
       inkscape:label="Roughen">
      <feFlood
         id="feFlood4377-7-9-0-8-1-78-41"
         flood-opacity="1"
         flood-color="rgb(0,0,0)"
         result="flood" />
      <feComposite
         id="feComposite4379-3-8-8-2-77-68-8"
         in2="SourceGraphic"
         in="flood"
         operator="in"
         result="composite1" />
      <feMorphology
         id="feMorphology4393-1-0-49-8-9-8-59"
         operator="dilate"
         radius="4"
         result="result3" />
      <feComposite
         id="feComposite4385-9-5-7-0-8-4-7"
         in2="result3"
         in="SourceGraphic"
         operator="over"
         result="fbSourceGraphic" />
      <feColorMatrix
         result="fbSourceGraphicAlpha"
         in="fbSourceGraphic"
         values="0 0 0 -1 0 0 0 0 -1 0 0 0 0 -1 0 0 0 0 1 0"
         id="feColorMatrix333-3-5" />
      <feTurbulence
         id="feTurbulence335-1-3"
         type="fractalNoise"
         numOctaves="5"
         seed="1"
         baseFrequency="0.013 0.013"
         result="turbulence" />
      <feDisplacementMap
         in2="turbulence"
         id="feDisplacementMap337-4-8"
         in="fbSourceGraphic"
         scale="6.6"
         yChannelSelector="G"
         xChannelSelector="R"
         result="fbSourceGraphic" />
      <feColorMatrix
         result="fbSourceGraphicAlpha"
         in="fbSourceGraphic"
         values="0 0 0 -1 0 0 0 0 -1 0 0 0 0 -1 0 0 0 0 1 0"
         id="feColorMatrix435-92-8" />
      <feTurbulence
         id="feTurbulence437-06-3"
         type="fractalNoise"
         numOctaves="5"
         seed="27"
         baseFrequency="0.001 0.4414"
         result="turbulence" />
      <feDisplacementMap
         in2="turbulence"
         id="feDisplacementMap439-8-1"
         in="fbSourceGraphic"
         scale="4.27461"
         yChannelSelector="G"
         xChannelSelector="R" />
    </filter>
    <filter
       style="color-interpolation-filters:sRGB"
       id="filter4375-4-1-1-1-9-8"
       inkscape:label="Roughen">
      <feFlood
         id="feFlood4377-7-9-0-8-1-96"
         flood-opacity="1"
         flood-color="rgb(0,0,0)"
         result="flood" />
      <feComposite
         id="feComposite4379-3-8-8-2-77-4"
         in2="SourceGraphic"
         in="flood"
         operator="in"
         result="composite1" />
      <feMorphology
         id="feMorphology4393-1-0-49-8-9-33"
         operator="dilate"
         radius="4"
         result="result3" />
      <feComposite
         id="feComposite4385-9-5-7-0-8-38"
         in2="result3"
         in="SourceGraphic"
         operator="over"
         result="fbSourceGraphic" />
      <feColorMatrix
         result="fbSourceGraphicAlpha"
         in="fbSourceGraphic"
         values="0 0 0 -1 0 0 0 0 -1 0 0 0 0 -1 0 0 0 0 1 0"
         id="feColorMatrix333-6" />
      <feTurbulence
         id="feTurbulence335-0"
         type="fractalNoise"
         numOctaves="5"
         seed="1"
         baseFrequency="0.013 0.013"
         result="turbulence" />
      <feDisplacementMap
         in2="turbulence"
         id="feDisplacementMap337-48"
         in="fbSourceGraphic"
         scale="6.6"
         yChannelSelector="G"
         xChannelSelector="R"
         result="fbSourceGraphic" />
      <feColorMatrix
         result="fbSourceGraphicAlpha"
         in="fbSourceGraphic"
         values="0 0 0 -1 0 0 0 0 -1 0 0 0 0 -1 0 0 0 0 1 0"
         id="feColorMatrix435-8" />
      <feTurbulence
         id="feTurbulence437-8"
         type="fractalNoise"
         numOctaves="5"
         seed="27"
         baseFrequency="0.001 0.4414"
         result="turbulence" />
      <feDisplacementMap
         in2="turbulence"
         id="feDisplacementMap439-9"
         in="fbSourceGraphic"
         scale="4.27461"
         yChannelSelector="G"
         xChannelSelector="R" />
    </filter>
  </defs>
  <sodipodi:namedview
     pagecolor="#ffffff"
     bordercolor="#666666"
     borderopacity="1"
     objecttolerance="10"
     gridtolerance="10"
     guidetolerance="10"
     inkscape:pageopacity="0"
     inkscape:pageshadow="2"
     inkscape:window-width="1856"
     inkscape:window-height="1151"
     id="namedview4"
     showgrid="false"
     inkscape:zoom="0.55931516"
     inkscape:cx="1309.2253"
     inkscape:cy="898.74275"
     inkscape:window-x="64"
     inkscape:window-y="0"
     inkscape:window-maximized="1"
     inkscape:current-layer="layer1" />
  <g
     inkscape:groupmode="layer"
     id="layer2"
     inkscape:label="artwork"
     sodipodi:insensitive="true">
    <image
       sodipodi:absref="/home/fici/Desktop/P&amp;C/all/sl/../gfx_Pepper-and-Carrot_by-David-Revoy_E27P04.png"
       xlink:href="../gfx_Pepper-and-Carrot_by-David-Revoy_E27P04.png"
       y="0"
       x="0"
       id="image10"
       height="3503"
       width="2481" />
  </g>
  <g
     inkscape:groupmode="layer"
     id="layer3"
     inkscape:label="speechbubbles">
    <path
       style="fill:#ffffff;fill-rule:evenodd;stroke:none;stroke-width:0.91260558px;stroke-linecap:butt;stroke-linejoin:miter;stroke-opacity:1"
       d="m 909.05555,189.14731 c -0.90016,-36.25043 23.40413,-52.36173 28.80509,-56.38956 5.40095,-4.02782 13.50238,-3.02087 19.80349,-7.0487 6.30112,-4.02783 36.90652,-11.07652 56.70997,-11.07652 19.8036,0 44.1079,5.03479 50.4089,4.02783 6.3012,-1.00696 60.3107,-4.02783 73.8131,-1.00696 13.5024,3.02087 64.8114,4.02782 78.3138,11.07653 13.5023,7.04869 30.6054,32.2226 30.6054,41.28521 0,9.06261 4.5008,36.25044 -3.6006,45.31305 -8.1015,9.0626 -4.5008,12.08348 -18.0032,21.14609 -60.6644,27.34549 -76.6609,31.84897 -101.718,38.26434 -27.0048,9.0626 -47.7084,9.06261 -63.011,8.05565 -15.3028,-1.00695 -67.51202,-5.03478 -90.91615,-19.13217 -23.40414,-14.0974 -58.51032,-22.15305 -61.2108,-74.51479 z"
       id="path1279"
       inkscape:connector-curvature="0"
       sodipodi:nodetypes="cssscscssccssc" />
    <path
       style="fill:#ffffff;fill-rule:evenodd;stroke:none;stroke-width:0.99999994px;stroke-linecap:butt;stroke-linejoin:miter;stroke-opacity:1"
       d="m 1084.0614,311.56549 c 5.4041,-41.54799 20.5356,-49.85759 44.3136,-57.1285 23.778,-7.27089 109.1627,-11.4257 134.0216,-9.34829 24.8588,2.0774 96.1928,13.5031 112.4051,19.73529 16.2123,6.23221 43.2328,18.6966 38.9095,46.7415 -4.3233,28.0449 -12.9698,62.32199 -48.6368,73.74769 -35.6671,11.4257 -101.597,12.4644 -137.2641,11.4257 -35.667,-1.03871 -86.4655,-10.387 -117.8092,-36.3545 -31.3438,-25.9675 -25.9397,-48.81889 -25.9397,-48.81889 z"
       id="path1281"
       inkscape:connector-curvature="0" />
    <path
       style="fill:#ffffff;fill-rule:evenodd;stroke:none;stroke-width:1px;stroke-linecap:butt;stroke-linejoin:miter;stroke-opacity:1"
       d="m 1101.3545,305.93749 c 0,0 -38.9095,7.56573 -51.8793,10.80819 -12.9698,3.24246 -65.92994,18.37392 -72.41485,57.2834 41.07115,-39.9903 71.33405,-37.82866 95.11205,-37.82866 23.778,0 67.0108,5.40409 67.0108,5.40409 l -3.2425,-23.77801 z"
       id="path1283"
       inkscape:connector-curvature="0" />
    <path
       style="fill:#ffffff;fill-rule:evenodd;stroke:none;stroke-width:1px;stroke-linecap:butt;stroke-linejoin:miter;stroke-opacity:1"
       d="m 1973.0303,153.86655 c 4.9247,-32.11042 29.5477,-42.8139 47.2764,-46.02493 17.7287,-3.21105 75.8393,-3.21105 91.5981,9.63312 15.7587,12.84417 20.6833,36.39181 14.7738,43.88425 -5.9096,7.49242 -13.7889,29.96972 -35.4572,31.04006 -21.6685,1.07035 -67.9599,5.35174 -86.6735,-6.42207 -18.7136,-11.77383 -33.4874,-14.98487 -31.5176,-32.11043 z"
       id="path1285"
       inkscape:connector-curvature="0" />
    <path
       style="fill:#ffffff;fill-rule:evenodd;stroke:none;stroke-width:1.09306729px;stroke-linecap:butt;stroke-linejoin:miter;stroke-opacity:1"
       d="m 2020.5936,214.75465 c 0,-28.69542 83.4328,-63.32781 137.9422,-62.33831 54.5095,0.9895 113.4685,15.83195 124.5931,35.62189 11.1243,19.78994 25.586,30.6744 6.6745,50.46434 -18.9114,19.78994 -112.3562,20.77943 -141.2794,20.77943 -28.9235,0 -92.3323,-5.93698 -106.794,-18.80044 -14.4617,-12.86346 -21.1364,-25.72691 -21.1364,-25.72691 z"
       id="path1287"
       inkscape:connector-curvature="0" />
    <path
       style="fill:#ffffff;fill-rule:evenodd;stroke:none;stroke-width:0.93771499px;stroke-linecap:butt;stroke-linejoin:miter;stroke-opacity:1"
       d="m 2043.9365,267.99446 c 33.4715,-28.05459 51.2012,-26.7749 87.2473,-29.48986 36.0461,-2.71496 125.0519,-8.82891 160.2398,-1.58902 35.1879,7.2399 68.6594,15.38477 77.2418,25.33963 8.5824,9.95486 29.1802,38.91444 29.1802,51.58426 0,12.66981 12.0153,54.29921 -10.2989,81.44882 -22.3143,27.14961 -44.6286,47.05932 -84.966,46.15433 -40.3373,-0.90498 -96.1231,0 -122.7286,0.90499 -26.6054,0.90499 -108.1385,-10.85985 -122.7285,-34.3895 -14.5901,-23.52966 -35.1879,-58.82415 -31.755,-78.73387 3.433,-19.90971 18.5679,-61.22978 18.5679,-61.22978 z"
       id="path1289"
       inkscape:connector-curvature="0"
       sodipodi:nodetypes="csssssssscc" />
    <path
       style="fill:#ffffff;fill-rule:evenodd;stroke:none;stroke-width:1px;stroke-linecap:butt;stroke-linejoin:miter;stroke-opacity:1"
       d="m 2095.849,420.31633 c -15.0375,31.95465 -23.494,42.02103 -30.0729,48.59993 -6.5789,6.5789 -37.5958,15.30937 -55.4528,16.24921 39.4734,-14.09764 47.932,-23.49607 51.6913,-36.65386 3.7594,-13.1578 11.2781,-51.69134 11.2781,-51.69134 l 26.3156,20.67653 z"
       id="path1291"
       inkscape:connector-curvature="0"
       sodipodi:nodetypes="csccccc" />
    <path
       style="fill:#ffffff;fill-rule:evenodd;stroke:none;stroke-width:0.94676507px;stroke-linecap:butt;stroke-linejoin:miter;stroke-opacity:1"
       d="m 1904.0873,1053.6074 -41.7221,37.6385 71.0822,-17.0269 -77.2632,47.4963 74.1727,-18.8193 -66.4464,34.0539 86.5348,-8.9615 -74.1728,24.1961 40.1769,-2.6884 -29.36,8.9615 83.4444,9.8577 -64.9012,4.4808 60.2654,12.5461 -58.7201,2.6886 89.6253,46.6 -123.6211,-8.9616 29.3601,17.027 -44.8128,-9.8577 21.6337,22.4039 -46.3579,-17.9231 9.2716,18.8192 -23.179,-11.65 1.5452,25.0924 -33.9957,-21.5077 3.0905,23.3 -43.2674,-25.0924 1.5453,21.5078 -21.6337,-22.4039 -9.2716,25.0923 -32.4505,-25.0923 3.0904,20.6116 -23.179,-24.1962 -1.5451,52.8731 -46.358,-61.8347 -7.7264,19.7154 -10.8168,-23.3 -18.5432,22.4038 -9.2715,-21.5077 -16.998,11.6501 -13.9074,-10.7539 -15.4526,14.3385 -4.6357,-15.2347 -10.8168,14.3385 -4.6359,-14.3385 -21.6337,24.1963 -6.1811,-13.4424 -24.7242,25.0924 -3.0905,-10.7539 -40.1768,48.3924 v -60.9386 l -50.9938,38.5347 6.1811,-20.6116 -27.8148,20.6116 9.3257,-32.6454 -39.7579,19.4705 17.6701,-24.0819 -75.9817,14.859 34.4568,-38.9408 -43.2919,7.6856 0.8835,-45.0894 22.9713,-7.1733 -18.5538,2.0495 45.9425,-19.4704 -60.0786,3.5867 56.5446,-25.1066 -53.894,-4.6114 46.8259,-15.8838 -53.8941,-17.9333 72.4478,-8.7105 -60.9623,-22.5447 v -14.859 z"
       id="path1293"
       inkscape:connector-curvature="0" />
    <path
       style="fill:#ffffff;fill-rule:evenodd;stroke:none;stroke-width:1px;stroke-linecap:butt;stroke-linejoin:miter;stroke-opacity:1"
       d="m 1657.2147,1232.2787 c 0,0 19.6141,33.5074 29.4212,50.6698 9.807,17.1623 21.2486,35.1419 27.7866,61.2941 -5.7208,-34.3247 -5.7208,-49.0353 -5.7208,-49.0353 0,0 26.4905,38.6087 30.8163,90.9145 2.2228,26.8777 -11.2021,67.6329 -21.8265,92.1505 17.1624,-24.5176 28.604,-44.1318 28.604,-44.1318 0,0 -0.8591,74.46 -22.1078,111.2364 -21.2486,36.7765 -31.0138,80.0012 -96.3941,102.8843 80.0909,-28.6039 94.6224,-64.6026 111.9236,-99.3249 24.4829,-49.1353 40.5245,-142.0849 41.3417,-172.3233 -14.7106,32.6901 -20.6507,41.3215 -20.6507,41.3215 0,0 8.7704,-25.4739 -3.4884,-75.3264 -12.2589,-49.8526 -51.4871,-113.5984 -60.4769,-121.771 -8.9898,-8.1725 -39.2282,11.4416 -39.2282,11.4416 z"
       id="path1295"
       inkscape:connector-curvature="0"
       sodipodi:nodetypes="ccccsccccsccccc" />
    <path
       style="fill:#ffffff;fill-rule:evenodd;stroke:none;stroke-width:1.11098933px;stroke-linecap:butt;stroke-linejoin:miter;stroke-opacity:1"
       d="m 2001.3572,1136.8849 c 4.8846,-33.0604 25.6446,-49.5905 53.7315,-53.1327 28.087,-3.5423 148.9828,-1.1807 164.8582,7.0844 15.8751,8.2649 48.8468,27.1566 34.1927,66.1206 -14.6542,38.9639 -65.9433,33.0603 -91.5878,33.0603 -25.6447,0 -123.3383,3.5423 -139.2135,-11.8073 -15.8752,-15.3494 -20.7598,-3.5421 -21.9811,-41.3253 z"
       id="path1297"
       inkscape:connector-curvature="0" />
    <path
       style="fill:#ffffff;fill-rule:evenodd;stroke:none;stroke-width:1.11403716px;stroke-linecap:butt;stroke-linejoin:miter;stroke-opacity:1"
       d="m 2224.3254,1161.2322 c 50.7985,5.3655 81.0615,13.4137 96.1929,29.5103 15.1315,16.0967 34.5862,26.8277 31.3438,64.3864 -3.2425,37.5586 2.1616,60.362 -10.8082,76.4588 -12.9698,16.0965 -12.9698,29.5103 -39.9903,36.2172 -27.0205,6.7069 -161.042,9.3896 -175.0927,9.3896 -14.0506,0 -148.0722,1.3413 -159.9612,-1.3413 -11.889,-2.6827 -50.7985,-28.169 -58.3642,-52.3139 -7.5658,-24.1449 -14.0507,-54.9966 -8.6466,-72.4346 5.4041,-17.438 30.263,-57.6794 47.5561,-63.045 17.2931,-5.3654 49.7176,-17.4379 75.6573,-17.4379 25.9396,0 148.0722,-6.7069 148.0722,-6.7069 z"
       id="path1299"
       inkscape:connector-curvature="0" />
    <path
       style="fill:#ffffff;fill-rule:evenodd;stroke:none;stroke-width:0.88562518px;stroke-linecap:butt;stroke-linejoin:miter;stroke-opacity:1"
       d="m 1874.4873,1394.5385 c 19.4547,-22.0408 71.334,-28.8226 89.708,-30.518 18.3739,-1.6954 215.8166,2.8464 229.8672,0.3032 14.0507,-2.5432 117.8093,0 134.0216,6.7818 16.2122,6.7817 44.3135,29.6702 44.3135,48.32 0,18.6499 -6.4849,57.645 -20.5355,72.0564 -14.0507,14.4112 -22.6972,33.9088 -51.8793,38.1474 -29.1821,4.2386 -121.0518,3.3909 -121.0518,3.3909 0,0 -74.5765,5.0862 -91.8696,5.9339 -17.2931,0.8477 -119.9709,6.7819 -139.4256,0 -19.4548,-6.7816 -78.5526,-53.7095 -81.7951,-75.7502 -3.2424,-22.0408 -5.4041,-46.6247 8.6466,-68.6654 z"
       id="path1301"
       inkscape:connector-curvature="0"
       sodipodi:nodetypes="ccccscscsccc" />
    <path
       style="fill:#ffffff;fill-rule:evenodd;stroke:none;stroke-width:1px;stroke-linecap:butt;stroke-linejoin:miter;stroke-opacity:1"
       d="m 2013.1428,1503.015 c 0,0 15.9773,25.3757 20.6765,41.3531 1.8798,49.8116 -24.4358,62.0296 -23.496,75.1874 0.9399,21.6163 8.4586,31.9546 31.9546,49.8116 -30.0749,-14.0976 -49.8116,-25.3757 -50.7515,-46.9921 -0.9398,-21.6164 17.857,-48.8718 16.9172,-58.2702 -0.9398,-9.3985 -4.6992,-33.8344 -21.6164,-51.6914 -16.9171,-17.857 26.3156,-9.3984 26.3156,-9.3984 z"
       id="path1303"
       inkscape:connector-curvature="0"
       sodipodi:nodetypes="cccccccc" />
    <path
       style="fill:#ffffff;fill-rule:evenodd;stroke:none;stroke-width:1px;stroke-linecap:butt;stroke-linejoin:miter;stroke-opacity:1"
       d="m 487.63278,3119.8792 c -35.66703,-49.7177 -65.92996,-99.4354 -78.89979,-134.0216 19.45474,8.6466 34.58621,6.4849 44.31358,23.778 -7.56573,-51.8793 -62.6875,-153.4763 -82.14224,-189.1433 27.02047,67.0108 56.20258,129.6983 60.52586,150.2339 -27.02047,-15.1315 -44.31358,-15.1315 -63.76832,-15.1315 14.05065,29.1821 56.20259,139.4256 57.28341,168.6078 1.08081,29.1821 62.6875,-4.3233 62.6875,-4.3233 z"
       id="path1305"
       inkscape:connector-curvature="0" />
    <path
       style="fill:#ffffff;fill-rule:evenodd;stroke:none;stroke-width:0.9970594px;stroke-linecap:butt;stroke-linejoin:miter;stroke-opacity:1"
       d="m 408.03889,3107.3415 1.33033,-15.7131 c 0,0 9.3123,20.9506 21.28524,23.5696 11.97297,2.6188 77.15906,-24.4426 109.08696,-63.7253 -10.64264,34.918 -3.99101,41.0285 3.99097,41.0285 7.98197,0 39.90985,-13.9671 39.90985,-13.9671 l -3.99098,327.3559 c 0,0 -329.92146,-3.4919 -364.51001,-3.4919 46.56152,-25.3154 42.57051,-54.9957 45.23115,-70.7088 -21.28524,9.6025 -37.24918,14.8402 -54.54344,20.0779 33.2582,-18.3319 39.90986,-41.9016 47.89182,-49.7581 -29.26723,8.7294 -54.54346,13.0942 -75.82871,18.3319 49.22216,-29.6802 53.21314,-54.9958 59.86477,-71.5818 -26.60656,5.2377 -54.54347,24.4425 -47.89183,19.2048 18.62459,-17.4589 29.26724,-40.1556 33.25821,-56.7416 3.99101,-16.5861 -10.64262,-48.8852 -29.2672,-68.9631 23.94591,12.2213 29.2672,15.713 39.90983,27.0615 -21.28525,-35.7908 -14.6336,-63.7253 -50.55248,-102.135 42.57051,20.0778 82.48038,37.5368 98.44432,53.2498 -5.32133,-30.5533 -18.62459,-38.4097 -33.25823,-48.8852 29.26723,12.2214 59.8648,26.1885 73.16808,43.6476 0,-14.8402 1.33033,-29.6803 1.33033,-29.6803 l 30.59756,30.5532 -2.66066,-17.459 30.59753,23.5696 7.982,-19.2049 z"
       id="path1307"
       inkscape:connector-curvature="0" />
    <path
       style="fill:#ffffff;fill-rule:evenodd;stroke:none;stroke-width:0.97247821px;stroke-linecap:butt;stroke-linejoin:miter;stroke-opacity:1"
       d="m 1177.4209,2361.9794 35.2642,-34.8024 2.3509,31.0736 16.4565,-21.13 17.632,47.2318 14.1056,-48.4748 15.2811,29.8306 5.8773,-26.1017 23.5095,38.5312 1.1753,-37.2883 15.2812,18.6441 5.8773,-21.13 25.8603,28.5877 -2.3509,-38.5312 28.2112,6.2147 -10.5793,-22.373 39.9659,7.4577 -24.6848,-22.373 36.4395,2.4859 -38.7904,-22.3729 34.0885,-23.6159 -50.545,4.9717 36.4394,-44.7459 -62.2997,32.3165 16.4565,-22.3729 -36.4394,17.4012 11.7546,-31.0736 -25.8602,-3.7288 -16.4567,28.5876 -1.1754,-18.6441 -17.632,23.6159 -7.0528,-26.1018 -9.4038,24.8589 -10.5792,-42.26 -18.8074,38.5311 -5.8774,-24.8588 -7.0528,24.8588 -31.7376,-32.3164 4.7019,41.017 -25.8604,-24.8588 5.8773,32.3165 -36.4393,-2.4859 28.2112,32.3165 -39.966,27.3447 47.0187,-3.7288 -9.4037,16.1582 24.6847,-6.2147 -27.0356,65.8759 z"
       id="path1309"
       inkscape:connector-curvature="0" />
    <path
       style="fill:#ffffff;fill-rule:evenodd;stroke:none;stroke-width:1px;stroke-linecap:butt;stroke-linejoin:miter;stroke-opacity:1"
       d="m 1429.2,2266.8133 39.9903,-58.3642 -8.6466,69.1724 12.9699,-4.3233 -3.2425,8.6466 71.3341,-61.6067 -32.4246,70.2532 21.6164,-2.1616 -23.7781,16.2123 34.5863,11.889 -8.5862,12.3886 60.4655,5.9853 -68.0916,16.2123 43.2327,25.9396 -56.2026,-1.0808 48.6369,42.152 -87.5463,-24.8589 7.5657,11.889 -31.3438,-11.889 12.9699,58.3642 -35.6671,-52.9601 -19.4547,22.6972 v -17.2931 l -25.9397,33.5054 3.2425,-50.7985 -28.1013,10.8082 12.9698,-22.6972 -56.9591,-7.6738 47.2318,-12.8618 -49.7177,-25.6694 42.1905,-9.3689 -23.5464,-6.7894 39.986,-17.7761 0.8149,-22.5384 24.8589,16.2123 -6.4849,-23.778 19.4547,16.2122 -27.0205,-57.2834 37.8287,48.6369 v -18.3739 z"
       id="path1311"
       inkscape:connector-curvature="0"
       sodipodi:nodetypes="ccccccccccccccccccccccccccccccccccccccccc" />
    <path
       style="fill:#ffffff;fill-rule:evenodd;stroke:none;stroke-width:1.05787432px;stroke-linecap:butt;stroke-linejoin:miter;stroke-opacity:1"
       d="m 1981.6324,2311.3236 64.5973,-72.3495 -17.6175,65.6711 61.0738,-58.9927 -29.3623,51.2012 75.1678,-61.2189 -32.886,80.1411 31.7115,-23.3745 -15.2685,27.8268 42.2819,-11.1307 -31.7114,35.6182 h 75.1677 l -75.1677,35.6183 61.0738,11.1307 -61.0738,13.3568 50.5033,38.9575 -65.7718,-17.8092 31.7114,43.4097 -51.6779,-23.3744 8.2215,82.3671 -99.8322,-81.2541 -5.8725,60.1058 -36.4094,-61.2188 -32.8858,50.0881 1.1744,-45.6358 -56.3758,77.9148 3.5235,-90.1586 -75.1677,101.2893 24.6644,-20.0353 1.1745,17.8092 -24.6644,42.2967 25.8389,-21.1484 1.1744,13.3568 -46.9797,100.1763 28.1878,-90.1586 -24.6644,31.1659 -4.698,-27.8267 18.7919,-30.0528 -18.7919,12.2437 -4.6979,-21.1484 41.1073,-95.7239 c 0,0 -66.9462,91.2716 -65.7718,86.8194 1.1745,-4.4523 16.4429,-94.611 16.4429,-94.611 l -55.2013,120.2116 -1.1745,-119.0984 -51.6778,97.95 2.349,-82.3671 -109.8791,60.8559 40.5838,-82.0042 -124.4966,62.3319 66.9463,-55.6535 -99.8322,45.6359 92.7852,-75.6888 -88.0873,6.6784 75.1679,-20.0353 -95.1343,-33.392 112.7516,-8.9046 -52.8522,-44.5227 85.7382,13.3568 -67.0041,-69.5172 101.0644,59.4995 -38.7583,-61.2188 83.3892,52.3143 -20.6621,-48.3158 66.4675,49.4288 -18.7919,-53.1309 56.3758,44.2263 -11.745,-42.2966 62.2483,56.7666 -3.5234,-56.7666 37.5839,33.3921 7.0469,-48.9751 25.8389,58.9927 43.4564,-63.4449 3.5234,76.8018 41.1074,-75.6888 1.1745,71.2365 44.631,-60.1058 z"
       id="path1313"
       inkscape:connector-curvature="0"
       sodipodi:nodetypes="ccccccccccccccccccccccccccccccccccccccccccccccccccccccccccccccccccccccccccccccc" />
  </g>
  <g
     inkscape:groupmode="layer"
     id="layer1"
     inkscape:label="txt">
    <text
       xml:space="preserve"
       style="font-style:normal;font-variant:normal;font-weight:normal;font-stretch:normal;line-height:0%;font-family:Lavi;-inkscape-font-specification:Lavi;text-align:center;letter-spacing:0px;word-spacing:0px;text-anchor:middle;fill:#000000;fill-opacity:1;stroke:none"
       x="1077.4482"
       y="183.28159"
       id="text4246"><tspan
         sodipodi:role="line"
         style="font-size:45px;line-height:1.20000005"
         x="1077.4482"
         y="183.28159"
         id="tspan18">Torej, kako</tspan><tspan
         sodipodi:role="line"
         style="font-size:45px;line-height:1.20000005"
         x="1077.4482"
         y="237.28159"
         id="tspan302">se vama zdi?</tspan></text>
    <text
       xml:space="preserve"
       style="font-style:normal;font-variant:normal;font-weight:normal;font-stretch:normal;line-height:0%;font-family:Lavi;-inkscape-font-specification:Lavi;text-align:center;letter-spacing:0px;word-spacing:0px;text-anchor:middle;fill:#000000;fill-opacity:1;stroke:none"
       x="1255.3488"
       y="306.83704"
       id="text4246-3"><tspan
         sodipodi:role="line"
         style="font-size:45px;line-height:1.20000005"
         x="1255.3488"
         y="306.83704"
         id="tspan43">Ga želita</tspan><tspan
         sodipodi:role="line"
         style="font-size:45px;line-height:1.20000005"
         x="1255.3488"
         y="360.83704"
         id="tspan306">preizkusiti?</tspan></text>
    <text
       xml:space="preserve"
       style="font-style:normal;font-variant:normal;font-weight:normal;font-stretch:normal;line-height:0%;font-family:Lavi;-inkscape-font-specification:Lavi;text-align:center;letter-spacing:0px;word-spacing:0px;text-anchor:middle;fill:#000000;fill-opacity:1;stroke:none"
       x="2057.5549"
       y="163.66296"
       id="text4246-3-5"><tspan
         sodipodi:role="line"
         style="font-size:45px;line-height:1.20000005"
         x="2057.5549"
         y="163.66296"
         id="tspan43-5">Bah.</tspan></text>
    <text
       xml:space="preserve"
       style="font-style:normal;font-variant:normal;font-weight:normal;font-stretch:normal;line-height:0%;font-family:Lavi;-inkscape-font-specification:Lavi;text-align:center;letter-spacing:0px;word-spacing:0px;text-anchor:middle;fill:#000000;fill-opacity:1;stroke:none"
       x="2164.9832"
       y="221.85013"
       id="text4246-3-5-6"><tspan
         sodipodi:role="line"
         style="font-size:45px;line-height:1.20000005"
         x="2164.9832"
         y="221.85013"
         id="tspan43-5-2">Ni potrebe.</tspan></text>
    <text
       xml:space="preserve"
       style="font-style:normal;font-variant:normal;font-weight:normal;font-stretch:normal;line-height:0%;font-family:Lavi;-inkscape-font-specification:Lavi;text-align:center;letter-spacing:0px;word-spacing:0px;text-anchor:middle;fill:#000000;fill-opacity:1;stroke:none"
       x="2212.2634"
       y="307.60706"
       id="text4246-3-5-6-9"><tspan
         sodipodi:role="line"
         style="font-size:45px;line-height:1.20000005"
         x="2212.2634"
         y="307.60706"
         id="tspan43-5-2-1">Nimam nobenih</tspan><tspan
         sodipodi:role="line"
         style="font-size:45px;line-height:1.20000005"
         x="2212.2634"
         y="361.60706"
         id="tspan104">psiholoških</tspan><tspan
         sodipodi:role="line"
         style="font-size:45px;line-height:1.20000005"
         x="2212.2634"
         y="415.60706"
         id="tspan106">težav.</tspan></text>
    <text
       xml:space="preserve"
       style="font-style:normal;font-variant:normal;font-weight:normal;font-stretch:normal;line-height:0%;font-family:Lavi;-inkscape-font-specification:Lavi;letter-spacing:0px;word-spacing:0px;fill:#000000;fill-opacity:1;stroke:#000000;stroke-width:0;stroke-linecap:square;stroke-miterlimit:4;stroke-dasharray:none;stroke-opacity:1;filter:url(#filter4375-4-1-1-1-9)"
       x="787.65729"
       y="1584.5073"
       id="text4580"
       transform="matrix(1.9961585,-1.2383071,0.76605423,2.8718732,-1978.5524,-2151.5208)"><tspan
         sodipodi:role="line"
         id="tspan4582"
         x="787.65729"
         y="1584.5073"
         style="font-style:normal;font-variant:normal;font-weight:normal;font-stretch:normal;font-size:70px;line-height:1.25;font-family:ComicSpice;-inkscape-font-specification:ComicSpice;fill:#ffffff;stroke-width:0;stroke-linecap:square;stroke-miterlimit:4;stroke-dasharray:none">B</tspan></text>
    <text
       xml:space="preserve"
       style="font-style:normal;font-variant:normal;font-weight:normal;font-stretch:normal;font-size:14.12435627px;line-height:0%;font-family:Lavi;-inkscape-font-specification:Lavi;text-align:center;letter-spacing:0px;word-spacing:0px;text-anchor:middle;fill:#000000;fill-opacity:1;stroke:none;stroke-width:0.98461956"
       x="1688.7373"
       y="1128.6158"
       id="text4246-3-5-6-9-8"
       transform="matrix(0.98767149,0,-0.08972861,1.0124824,0,0)"><tspan
         sodipodi:role="line"
         style="font-style:normal;font-variant:normal;font-weight:bold;font-stretch:normal;font-size:52.96633911px;line-height:1.20000005;font-family:Lavi;-inkscape-font-specification:'Lavi Bold';stroke-width:0.98461956"
         x="1688.7373"
         y="1128.6158"
         id="tspan327">HEJ, KAJ JE NAROBE S</tspan><tspan
         sodipodi:role="line"
         style="font-style:normal;font-variant:normal;font-weight:bold;font-stretch:normal;font-size:52.96633911px;line-height:1.20000005;font-family:Lavi;-inkscape-font-specification:'Lavi Bold';stroke-width:0.98461956"
         x="1688.7373"
         y="1192.1754"
         id="tspan315">TVOJIM ROBOTOM?!</tspan></text>
    <text
       xml:space="preserve"
       style="font-style:normal;font-variant:normal;font-weight:normal;font-stretch:normal;font-size:13.70881462px;line-height:0%;font-family:Lavi;-inkscape-font-specification:Lavi;text-align:center;letter-spacing:0px;word-spacing:0px;text-anchor:middle;fill:#000000;fill-opacity:1;stroke:none;stroke-width:1"
       x="2304.5737"
       y="1155.7852"
       id="text4246-8"
       transform="skewX(-8.8849091)"><tspan
         sodipodi:role="line"
         style="font-style:normal;font-variant:normal;font-weight:bold;font-stretch:normal;font-size:51.40805435px;line-height:1.20000005;font-family:Lavi;-inkscape-font-specification:'Lavi Bold';stroke-width:0.87534922"
         x="2304.5737"
         y="1155.7852"
         id="tspan4252-0">Oprosti!</tspan></text>
    <text
       xml:space="preserve"
       style="font-style:normal;font-variant:normal;font-weight:normal;font-stretch:normal;line-height:0%;font-family:Lavi;-inkscape-font-specification:Lavi;text-align:center;letter-spacing:0px;word-spacing:0px;text-anchor:middle;fill:#000000;fill-opacity:1;stroke:none"
       x="2129.293"
       y="1242.1946"
       id="text4246-86"><tspan
         sodipodi:role="line"
         style="font-size:45px;line-height:1.20000005"
         x="2129.293"
         y="1242.1946"
         id="tspan1017">Še vedno ima to</tspan><tspan
         sodipodi:role="line"
         style="font-size:45px;line-height:1.20000005"
         x="2129.293"
         y="1296.1946"
         id="tspan301">napako, ki je kar ne</tspan><tspan
         sodipodi:role="line"
         style="font-size:45px;line-height:1.20000005"
         x="2129.293"
         y="1350.1946"
         id="tspan303">uspem rešiti.</tspan></text>
    <text
       xml:space="preserve"
       style="font-style:normal;font-variant:normal;font-weight:normal;font-stretch:normal;line-height:0%;font-family:Lavi;-inkscape-font-specification:Lavi;text-align:center;letter-spacing:0px;word-spacing:0px;text-anchor:middle;fill:#000000;fill-opacity:1;stroke:none"
       x="2114.9485"
       y="1439.9081"
       id="text4246-86-3"><tspan
         sodipodi:role="line"
         style="font-size:45px;line-height:1.20000005"
         x="2114.9485"
         y="1439.9081"
         id="tspan1044">Sproži električni šok</tspan><tspan
         sodipodi:role="line"
         style="font-size:45px;line-height:1.20000005"
         x="2114.9485"
         y="1493.9081"
         id="tspan313">takoj ko zazna<tspan
   style="font-style:normal;font-variant:normal;font-weight:bold;font-stretch:normal;font-family:Lavi;-inkscape-font-specification:'Lavi Bold'"
   id="tspan1046"> laž</tspan>.</tspan></text>
    <text
       xml:space="preserve"
       style="font-style:normal;font-variant:normal;font-weight:normal;font-stretch:normal;font-size:19.15724564px;line-height:0%;font-family:Lavi;-inkscape-font-specification:Lavi;text-align:center;letter-spacing:0px;word-spacing:0px;text-anchor:middle;fill:#000000;fill-opacity:1;stroke:none;stroke-width:0.99999994"
       x="423.26831"
       y="3197.5618"
       id="text4246-86-3-3"><tspan
         sodipodi:role="line"
         style="font-size:71.83966827px;line-height:1.20000005;stroke-width:0.99999994"
         x="423.26831"
         y="3197.5618"
         id="tspan1044-3"><tspan
           style="font-style:normal;font-variant:normal;font-weight:bold;font-stretch:normal;font-family:Lavi;-inkscape-font-specification:'Lavi Bold';stroke-width:0.99999994"
           id="tspan1046-9">Laž?!</tspan></tspan></text>
    <text
       xml:space="preserve"
       style="font-style:normal;font-variant:normal;font-weight:normal;font-stretch:normal;line-height:0%;font-family:Lavi;-inkscape-font-specification:Lavi;text-align:center;letter-spacing:0px;word-spacing:0px;text-anchor:middle;fill:#000000;fill-opacity:1;stroke:none"
       x="414.86426"
       y="3268.0664"
       id="text4246-86-3-2"><tspan
         sodipodi:role="line"
         style="font-style:normal;font-variant:normal;font-weight:normal;font-stretch:normal;font-size:45px;line-height:1.20000005;font-family:Lavi;-inkscape-font-specification:Lavi"
         x="421.89551"
         y="3268.0664"
         id="tspan321">Ampak jaz se v </tspan><tspan
         sodipodi:role="line"
         style="font-style:normal;font-variant:normal;font-weight:bold;font-stretch:normal;font-size:45px;line-height:1.20000005;font-family:Lavi;-inkscape-font-specification:'Lavi Bold'"
         x="421.89551"
         y="3322.0664"
         id="tspan339">ŽIVLJENJU<tspan
   style="font-weight:normal"
   id="tspan341"> </tspan></tspan><tspan
         sodipodi:role="line"
         style="font-style:normal;font-variant:normal;font-weight:bold;font-stretch:normal;font-size:45px;line-height:1.20000005;font-family:Lavi;-inkscape-font-specification:'Lavi Bold'"
         x="414.86426"
         y="3376.0664"
         id="tspan333"><tspan
   style="font-weight:normal"
   id="tspan343">nisem zlagala</tspan>!</tspan></text>
    <text
       xml:space="preserve"
       style="font-style:normal;font-variant:normal;font-weight:normal;font-stretch:normal;font-size:14.11471462px;line-height:0%;font-family:Lavi;-inkscape-font-specification:Lavi;text-align:center;letter-spacing:14.30004215px;word-spacing:0px;text-anchor:middle;fill:#000000;fill-opacity:1;stroke:none;stroke-width:1"
       x="1342.3297"
       y="2190.1516"
       id="text4246-6"
       transform="scale(0.94973823,1.0529217)"><tspan
         sodipodi:role="line"
         style="font-style:normal;font-variant:normal;font-weight:bold;font-stretch:normal;font-size:52.9301796px;line-height:1.20000005;font-family:Lavi;-inkscape-font-specification:'Lavi Bold';letter-spacing:0.90000004px;stroke-width:1"
         x="1342.7797"
         y="2190.1516"
         id="tspan4252-00">TO...</tspan></text>
    <text
       xml:space="preserve"
       style="font-style:normal;font-variant:normal;font-weight:normal;font-stretch:normal;font-size:14.11471462px;line-height:0%;font-family:Lavi;-inkscape-font-specification:Lavi;text-align:center;letter-spacing:14.30004215px;word-spacing:0px;text-anchor:middle;fill:#000000;fill-opacity:1;stroke:none;stroke-width:1"
       x="1546.0917"
       y="2235.2505"
       id="text4246-6-6"
       transform="scale(0.94973823,1.0529217)"><tspan
         sodipodi:role="line"
         style="font-style:normal;font-variant:normal;font-weight:bold;font-stretch:normal;font-size:52.9301796px;line-height:1.20000005;font-family:Lavi;-inkscape-font-specification:'Lavi Bold';letter-spacing:0.90000004px;stroke-width:1"
         x="1546.5416"
         y="2235.2505"
         id="tspan4252-00-4">NI...</tspan></text>
    <text
       xml:space="preserve"
       style="font-style:normal;font-variant:normal;font-weight:normal;font-stretch:normal;font-size:28.73172379px;line-height:0%;font-family:Lavi;-inkscape-font-specification:Lavi;text-align:center;letter-spacing:29.10897446px;word-spacing:0px;text-anchor:middle;fill:#000000;fill-opacity:1;stroke:none;stroke-width:1"
       x="2451.8801"
       y="2293.6201"
       id="text4246-6-6-3"
       transform="matrix(0.94427779,0,-0.21829887,1.0590104,0,0)"><tspan
         sodipodi:role="line"
         style="font-style:normal;font-variant:normal;font-weight:bold;font-stretch:normal;font-size:107.74396515px;line-height:1.20000005;font-family:Lavi;-inkscape-font-specification:'Lavi Bold';letter-spacing:4px;stroke-width:1"
         x="2453.8801"
         y="2293.6201"
         id="tspan4252-00-4-7">SMEŠNO!!!</tspan></text>
    <text
       xml:space="preserve"
       style="font-style:normal;font-variant:normal;font-weight:normal;font-stretch:normal;line-height:0%;font-family:Lavi;-inkscape-font-specification:Lavi;letter-spacing:0px;word-spacing:0px;fill:#000000;fill-opacity:1;stroke:#000000;stroke-width:0;stroke-linecap:square;stroke-miterlimit:4;stroke-dasharray:none;stroke-opacity:1;filter:url(#filter4375-4-1-1-1-9-30)"
       x="787.65729"
       y="1584.5073"
       id="text4580-9"
       transform="matrix(1.7586503,-1.0976669,0.6749071,2.5457016,-1569.1013,-1763.5608)"><tspan
         sodipodi:role="line"
         id="tspan4582-26"
         x="787.65729"
         y="1584.5073"
         style="font-style:normal;font-variant:normal;font-weight:normal;font-stretch:normal;font-size:70px;line-height:1.25;font-family:ComicSpice;-inkscape-font-specification:ComicSpice;fill:#ffffff;stroke-width:0;stroke-linecap:square;stroke-miterlimit:4;stroke-dasharray:none">Z</tspan></text>
    <text
       xml:space="preserve"
       style="font-style:normal;font-variant:normal;font-weight:normal;font-stretch:normal;line-height:0%;font-family:Lavi;-inkscape-font-specification:Lavi;letter-spacing:0px;word-spacing:0px;fill:#000000;fill-opacity:1;stroke:#000000;stroke-width:0;stroke-linecap:square;stroke-miterlimit:4;stroke-dasharray:none;stroke-opacity:1;filter:url(#filter4375-4-1-1-1-9-30-2)"
       x="787.65729"
       y="1584.5073"
       id="text4580-9-9"
       transform="matrix(1.6622025,-0.96543648,0.55706103,2.3678143,-1232.867,-1600.8627)"><tspan
         sodipodi:role="line"
         id="tspan4582-26-1"
         x="787.65729"
         y="1584.5073"
         style="font-style:normal;font-variant:normal;font-weight:normal;font-stretch:normal;font-size:70px;line-height:1.25;font-family:ComicSpice;-inkscape-font-specification:ComicSpice;fill:#ffffff;stroke-width:0;stroke-linecap:square;stroke-miterlimit:4;stroke-dasharray:none">Z</tspan></text>
    <text
       xml:space="preserve"
       style="font-style:normal;font-variant:normal;font-weight:normal;font-stretch:normal;line-height:0%;font-family:Lavi;-inkscape-font-specification:Lavi;letter-spacing:0px;word-spacing:0px;fill:#000000;fill-opacity:1;stroke:#000000;stroke-width:0;stroke-linecap:square;stroke-miterlimit:4;stroke-dasharray:none;stroke-opacity:1;filter:url(#filter4375-4-1-1-1-9-30-2-7)"
       x="787.65729"
       y="1584.5073"
       id="text4580-9-9-6"
       transform="matrix(1.3746712,-0.82287768,0.46069944,2.0181768,-783.34869,-1169.7907)"><tspan
         sodipodi:role="line"
         id="tspan4582-26-1-5"
         x="787.65729"
         y="1584.5073"
         style="font-style:normal;font-variant:normal;font-weight:normal;font-stretch:normal;font-size:70px;line-height:1.25;font-family:ComicSpice;-inkscape-font-specification:ComicSpice;fill:#ffffff;stroke-width:0;stroke-linecap:square;stroke-miterlimit:4;stroke-dasharray:none">Z</tspan></text>
    <text
       xml:space="preserve"
       style="font-style:normal;font-variant:normal;font-weight:normal;font-stretch:normal;line-height:0%;font-family:Lavi;-inkscape-font-specification:Lavi;letter-spacing:0px;word-spacing:0px;fill:#000000;fill-opacity:1;stroke:#000000;stroke-width:0;stroke-linecap:square;stroke-miterlimit:4;stroke-dasharray:none;stroke-opacity:1;filter:url(#filter4375-4-1-1-1-9-30-2-7-6)"
       x="787.65729"
       y="1584.5073"
       id="text4580-9-9-6-8"
       transform="matrix(2.1233219,-0.81577513,0.10530771,3.0634554,-746.91041,-2877.5859)"><tspan
         sodipodi:role="line"
         id="tspan4582-26-1-5-8"
         x="787.65729"
         y="1584.5073"
         style="font-style:normal;font-variant:normal;font-weight:normal;font-stretch:normal;font-size:70px;line-height:1.25;font-family:ComicSpice;-inkscape-font-specification:ComicSpice;fill:#ffffff;stroke-width:0;stroke-linecap:square;stroke-miterlimit:4;stroke-dasharray:none">!</tspan></text>
    <text
       xml:space="preserve"
       style="font-style:normal;font-variant:normal;font-weight:normal;font-stretch:normal;line-height:0%;font-family:Lavi;-inkscape-font-specification:Lavi;letter-spacing:0px;word-spacing:0px;fill:#000000;fill-opacity:1;stroke:#000000;stroke-width:0;stroke-linecap:square;stroke-miterlimit:4;stroke-dasharray:none;stroke-opacity:1;filter:url(#filter4375-4-1-1-1-9-8)"
       x="787.65729"
       y="1584.5073"
       id="text4580-7"
       transform="matrix(1.9224395,-1.4310448,0.73776351,3.3188691,-1995.2245,-850.01132)"><tspan
         sodipodi:role="line"
         id="tspan4582-7"
         x="787.65729"
         y="1584.5073"
         style="font-style:normal;font-variant:normal;font-weight:normal;font-stretch:normal;font-size:70px;line-height:1.25;font-family:ComicSpice;-inkscape-font-specification:ComicSpice;fill:#ffffff;stroke-width:0;stroke-linecap:square;stroke-miterlimit:4;stroke-dasharray:none">B</tspan></text>
    <text
       xml:space="preserve"
       style="font-style:normal;font-variant:normal;font-weight:normal;font-stretch:normal;line-height:0%;font-family:Lavi;-inkscape-font-specification:Lavi;letter-spacing:0px;word-spacing:0px;fill:#000000;fill-opacity:1;stroke:#000000;stroke-width:0;stroke-linecap:square;stroke-miterlimit:4;stroke-dasharray:none;stroke-opacity:1;filter:url(#filter4375-4-1-1-1-9-30-7)"
       x="787.65729"
       y="1584.5073"
       id="text4580-9-6"
       transform="matrix(1.6087036,-1.2327207,0.61736291,2.8589175,-1475.7106,-301.79045)"><tspan
         sodipodi:role="line"
         id="tspan4582-26-4"
         x="787.65729"
         y="1584.5073"
         style="font-style:normal;font-variant:normal;font-weight:normal;font-stretch:normal;font-size:70px;line-height:1.25;font-family:ComicSpice;-inkscape-font-specification:ComicSpice;fill:#ffffff;stroke-width:0;stroke-linecap:square;stroke-miterlimit:4;stroke-dasharray:none">Z</tspan></text>
    <text
       xml:space="preserve"
       style="font-style:normal;font-variant:normal;font-weight:normal;font-stretch:normal;line-height:0%;font-family:Lavi;-inkscape-font-specification:Lavi;letter-spacing:0px;word-spacing:0px;fill:#000000;fill-opacity:1;stroke:#000000;stroke-width:0;stroke-linecap:square;stroke-miterlimit:4;stroke-dasharray:none;stroke-opacity:1;filter:url(#filter4375-4-1-1-1-9-30-2-4)"
       x="787.65729"
       y="1584.5073"
       id="text4580-9-9-3"
       transform="matrix(1.6396407,-1.0718548,0.54949979,2.6288142,-1318.4506,-88.149743)"><tspan
         sodipodi:role="line"
         id="tspan4582-26-1-0"
         x="787.65729"
         y="1584.5073"
         style="font-style:normal;font-variant:normal;font-weight:normal;font-stretch:normal;font-size:70px;line-height:1.25;font-family:ComicSpice;-inkscape-font-specification:ComicSpice;fill:#ffffff;stroke-width:0;stroke-linecap:square;stroke-miterlimit:4;stroke-dasharray:none">Z</tspan></text>
    <text
       xml:space="preserve"
       style="font-style:normal;font-variant:normal;font-weight:normal;font-stretch:normal;line-height:0%;font-family:Lavi;-inkscape-font-specification:Lavi;letter-spacing:0px;word-spacing:0px;fill:#000000;fill-opacity:1;stroke:#000000;stroke-width:0;stroke-linecap:square;stroke-miterlimit:4;stroke-dasharray:none;stroke-opacity:1;filter:url(#filter4375-4-1-1-1-9-30-2-7-9)"
       x="787.65729"
       y="1584.5073"
       id="text4580-9-9-6-3"
       transform="matrix(1.4531363,-0.90596787,0.48699577,2.2219625,-1000.5802,415.11356)"><tspan
         sodipodi:role="line"
         id="tspan4582-26-1-5-0"
         x="787.65729"
         y="1584.5073"
         style="font-style:normal;font-variant:normal;font-weight:normal;font-stretch:normal;font-size:70px;line-height:1.25;font-family:ComicSpice;-inkscape-font-specification:ComicSpice;fill:#ffffff;stroke-width:0;stroke-linecap:square;stroke-miterlimit:4;stroke-dasharray:none">Z</tspan></text>
    <text
       xml:space="preserve"
       style="font-style:normal;font-variant:normal;font-weight:normal;font-stretch:normal;line-height:0%;font-family:Lavi;-inkscape-font-specification:Lavi;letter-spacing:0px;word-spacing:0px;fill:#000000;fill-opacity:1;stroke:#000000;stroke-width:0;stroke-linecap:square;stroke-miterlimit:4;stroke-dasharray:none;stroke-opacity:1;filter:url(#filter4375-4-1-1-1-9-30-2-7-6-5)"
       x="787.65729"
       y="1584.5073"
       id="text4580-9-9-6-8-9"
       transform="matrix(2.1233219,-0.81577513,0.10530771,3.0634554,-858.9342,-1039.2157)"><tspan
         sodipodi:role="line"
         id="tspan4582-26-1-5-8-2"
         x="787.65729"
         y="1584.5073"
         style="font-style:normal;font-variant:normal;font-weight:normal;font-stretch:normal;font-size:70px;line-height:1.25;font-family:ComicSpice;-inkscape-font-specification:ComicSpice;fill:#ffffff;stroke-width:0;stroke-linecap:square;stroke-miterlimit:4;stroke-dasharray:none">!</tspan></text>
  </g>
</svg>
