<?xml version="1.0" encoding="UTF-8" standalone="no"?>
<!-- Created with Inkscape (http://www.inkscape.org/) -->

<svg
   xmlns:dc="http://purl.org/dc/elements/1.1/"
   xmlns:cc="http://creativecommons.org/ns#"
   xmlns:rdf="http://www.w3.org/1999/02/22-rdf-syntax-ns#"
   xmlns:svg="http://www.w3.org/2000/svg"
   xmlns="http://www.w3.org/2000/svg"
   xmlns:xlink="http://www.w3.org/1999/xlink"
   xmlns:sodipodi="http://sodipodi.sourceforge.net/DTD/sodipodi-0.dtd"
   xmlns:inkscape="http://www.inkscape.org/namespaces/inkscape"
   id="svg2"
   version="1.1"
   inkscape:version="0.92.2 (5c3e80d, 2017-08-06)"
   width="2481"
   height="3503"
   sodipodi:docname="E27P06.svg"
   inkscape:export-filename="E:\Users\jamesmichael\Downloads\Compressed\eps\ep27_Coriander-s-Invention_lang-pack\lang\ph\E27P06.png"
   inkscape:export-xdpi="96"
   inkscape:export-ydpi="96">
  <metadata
     id="metadata8">
    <rdf:RDF>
      <cc:Work
         rdf:about="">
        <dc:format>image/svg+xml</dc:format>
        <dc:type
           rdf:resource="http://purl.org/dc/dcmitype/StillImage" />
        <dc:title />
      </cc:Work>
    </rdf:RDF>
  </metadata>
  <defs
     id="defs6">
    <filter
       style="color-interpolation-filters:sRGB"
       id="filter4375-4-1-1-1-9"
       inkscape:label="deevad outline effect">
      <feFlood
         id="feFlood4377-7-9-0-8-1"
         flood-opacity="1"
         flood-color="rgb(0,0,0)"
         result="flood" />
      <feComposite
         id="feComposite4379-3-8-8-2-77"
         in2="SourceGraphic"
         in="flood"
         operator="in"
         result="composite1" />
      <feMorphology
         id="feMorphology4393-1-0-49-8-9"
         operator="dilate"
         radius="4"
         result="result3" />
      <feComposite
         id="feComposite4385-9-5-7-0-8"
         in2="result3"
         in="SourceGraphic"
         operator="over"
         result="composite2" />
    </filter>
    <filter
       style="color-interpolation-filters:sRGB"
       id="filter4375-4-1-1-1-9-7-7-0-3"
       inkscape:label="deevad outline effect">
      <feFlood
         id="feFlood4377-7-9-0-8-1-4-8-3-2"
         flood-opacity="1"
         flood-color="rgb(0,0,0)"
         result="flood" />
      <feComposite
         id="feComposite4379-3-8-8-2-77-7-8-1-2"
         in2="SourceGraphic"
         in="flood"
         operator="in"
         result="composite1" />
      <feMorphology
         id="feMorphology4393-1-0-49-8-9-3-9-0-1"
         operator="dilate"
         radius="4"
         result="result3" />
      <feComposite
         id="feComposite4385-9-5-7-0-8-0-0-3-5"
         in2="result3"
         in="SourceGraphic"
         operator="over"
         result="composite2" />
    </filter>
    <filter
       style="color-interpolation-filters:sRGB"
       id="filter4375-4-1-1-1-9-7-7-0"
       inkscape:label="deevad outline effect">
      <feFlood
         id="feFlood4377-7-9-0-8-1-4-8-3"
         flood-opacity="1"
         flood-color="rgb(0,0,0)"
         result="flood" />
      <feComposite
         id="feComposite4379-3-8-8-2-77-7-8-1"
         in2="SourceGraphic"
         in="flood"
         operator="in"
         result="composite1" />
      <feMorphology
         id="feMorphology4393-1-0-49-8-9-3-9-0"
         operator="dilate"
         radius="4"
         result="result3" />
      <feComposite
         id="feComposite4385-9-5-7-0-8-0-0-3"
         in2="result3"
         in="SourceGraphic"
         operator="over"
         result="composite2" />
    </filter>
    <filter
       style="color-interpolation-filters:sRGB"
       id="filter4375-4-1-1-1-9-7-7"
       inkscape:label="deevad outline effect">
      <feFlood
         id="feFlood4377-7-9-0-8-1-4-8"
         flood-opacity="1"
         flood-color="rgb(0,0,0)"
         result="flood" />
      <feComposite
         id="feComposite4379-3-8-8-2-77-7-8"
         in2="SourceGraphic"
         in="flood"
         operator="in"
         result="composite1" />
      <feMorphology
         id="feMorphology4393-1-0-49-8-9-3-9"
         operator="dilate"
         radius="4"
         result="result3" />
      <feComposite
         id="feComposite4385-9-5-7-0-8-0-0"
         in2="result3"
         in="SourceGraphic"
         operator="over"
         result="composite2" />
    </filter>
    <filter
       style="color-interpolation-filters:sRGB"
       id="filter4375-4-1-1-1-9-7"
       inkscape:label="deevad outline effect">
      <feFlood
         id="feFlood4377-7-9-0-8-1-4"
         flood-opacity="1"
         flood-color="rgb(0,0,0)"
         result="flood" />
      <feComposite
         id="feComposite4379-3-8-8-2-77-7"
         in2="SourceGraphic"
         in="flood"
         operator="in"
         result="composite1" />
      <feMorphology
         id="feMorphology4393-1-0-49-8-9-3"
         operator="dilate"
         radius="4"
         result="result3" />
      <feComposite
         id="feComposite4385-9-5-7-0-8-0"
         in2="result3"
         in="SourceGraphic"
         operator="over"
         result="composite2" />
    </filter>
    <filter
       style="color-interpolation-filters:sRGB"
       id="filter4375-4-1-1-1-9-75"
       inkscape:label="deevad outline effect">
      <feFlood
         id="feFlood4377-7-9-0-8-1-3"
         flood-opacity="1"
         flood-color="rgb(0,0,0)"
         result="flood" />
      <feComposite
         id="feComposite4379-3-8-8-2-77-5"
         in2="SourceGraphic"
         in="flood"
         operator="in"
         result="composite1" />
      <feMorphology
         id="feMorphology4393-1-0-49-8-9-6"
         operator="dilate"
         radius="4"
         result="result3" />
      <feComposite
         id="feComposite4385-9-5-7-0-8-2"
         in2="result3"
         in="SourceGraphic"
         operator="over"
         result="composite2" />
    </filter>
    <linearGradient
       gradientTransform="matrix(0.9620232,0,0,1.1282469,-764.28464,-38.250005)"
       inkscape:collect="always"
       xlink:href="#linearGradient964"
       id="linearGradient966"
       x1="483.93088"
       y1="252.79726"
       x2="521.5141"
       y2="254.66634"
       gradientUnits="userSpaceOnUse" />
    <linearGradient
       inkscape:collect="always"
       id="linearGradient964">
      <stop
         style="stop-color:#918a6f;stop-opacity:1;"
         offset="0"
         id="stop960" />
      <stop
         style="stop-color:#c2bb9f;stop-opacity:1"
         offset="1"
         id="stop962" />
    </linearGradient>
    <radialGradient
       inkscape:collect="always"
       xlink:href="#linearGradient928"
       id="radialGradient932"
       cx="322.14978"
       cy="230.87151"
       fx="322.14978"
       fy="230.87151"
       r="182.11266"
       gradientTransform="matrix(1.0760297,-0.00865386,0.00801478,1.3707011,-845.99625,-48.45967)"
       gradientUnits="userSpaceOnUse" />
    <linearGradient
       inkscape:collect="always"
       id="linearGradient928">
      <stop
         style="stop-color:#f3efe0;stop-opacity:1"
         offset="0"
         id="stop924" />
      <stop
         style="stop-color:#d9cc9d;stop-opacity:1"
         offset="1"
         id="stop926" />
    </linearGradient>
    <filter
       style="color-interpolation-filters:sRGB"
       id="filter4375-4-1-1-1-9-30-2-7-6"
       inkscape:label="Roughen">
      <feFlood
         id="feFlood4377-7-9-0-8-1-78-6-7-3"
         flood-opacity="1"
         flood-color="rgb(0,0,0)"
         result="flood" />
      <feComposite
         id="feComposite4379-3-8-8-2-77-68-1-1-9"
         in2="SourceGraphic"
         in="flood"
         operator="in"
         result="composite1" />
      <feMorphology
         id="feMorphology4393-1-0-49-8-9-8-0-1-4"
         operator="dilate"
         radius="4"
         result="result3" />
      <feComposite
         id="feComposite4385-9-5-7-0-8-4-6-5-8"
         in2="result3"
         in="SourceGraphic"
         operator="over"
         result="fbSourceGraphic" />
      <feColorMatrix
         result="fbSourceGraphicAlpha"
         in="fbSourceGraphic"
         values="0 0 0 -1 0 0 0 0 -1 0 0 0 0 -1 0 0 0 0 1 0"
         id="feColorMatrix333-3-1-9-1" />
      <feTurbulence
         id="feTurbulence335-1-5-7-2"
         type="fractalNoise"
         numOctaves="5"
         seed="1"
         baseFrequency="0.013 0.013"
         result="turbulence" />
      <feDisplacementMap
         in2="turbulence"
         id="feDisplacementMap337-4-9-7-9"
         in="fbSourceGraphic"
         scale="6.6"
         yChannelSelector="G"
         xChannelSelector="R"
         result="fbSourceGraphic" />
      <feColorMatrix
         result="fbSourceGraphicAlpha"
         in="fbSourceGraphic"
         values="0 0 0 -1 0 0 0 0 -1 0 0 0 0 -1 0 0 0 0 1 0"
         id="feColorMatrix435-92-4-6-3" />
      <feTurbulence
         id="feTurbulence437-06-9-7-9"
         type="fractalNoise"
         numOctaves="5"
         seed="27"
         baseFrequency="0.001 0.4414"
         result="turbulence" />
      <feDisplacementMap
         in2="turbulence"
         id="feDisplacementMap439-8-0-3-0"
         in="fbSourceGraphic"
         scale="4.27461"
         yChannelSelector="G"
         xChannelSelector="R" />
    </filter>
    <filter
       style="color-interpolation-filters:sRGB"
       id="filter4375-4-1-1-1-9-30-2-7"
       inkscape:label="Roughen">
      <feFlood
         id="feFlood4377-7-9-0-8-1-78-6-7"
         flood-opacity="1"
         flood-color="rgb(0,0,0)"
         result="flood" />
      <feComposite
         id="feComposite4379-3-8-8-2-77-68-1-1"
         in2="SourceGraphic"
         in="flood"
         operator="in"
         result="composite1" />
      <feMorphology
         id="feMorphology4393-1-0-49-8-9-8-0-1"
         operator="dilate"
         radius="4"
         result="result3" />
      <feComposite
         id="feComposite4385-9-5-7-0-8-4-6-5"
         in2="result3"
         in="SourceGraphic"
         operator="over"
         result="fbSourceGraphic" />
      <feColorMatrix
         result="fbSourceGraphicAlpha"
         in="fbSourceGraphic"
         values="0 0 0 -1 0 0 0 0 -1 0 0 0 0 -1 0 0 0 0 1 0"
         id="feColorMatrix333-3-1-9" />
      <feTurbulence
         id="feTurbulence335-1-5-7"
         type="fractalNoise"
         numOctaves="5"
         seed="1"
         baseFrequency="0.013 0.013"
         result="turbulence" />
      <feDisplacementMap
         in2="turbulence"
         id="feDisplacementMap337-4-9-7"
         in="fbSourceGraphic"
         scale="6.6"
         yChannelSelector="G"
         xChannelSelector="R"
         result="fbSourceGraphic" />
      <feColorMatrix
         result="fbSourceGraphicAlpha"
         in="fbSourceGraphic"
         values="0 0 0 -1 0 0 0 0 -1 0 0 0 0 -1 0 0 0 0 1 0"
         id="feColorMatrix435-92-4-6" />
      <feTurbulence
         id="feTurbulence437-06-9-7"
         type="fractalNoise"
         numOctaves="5"
         seed="27"
         baseFrequency="0.001 0.4414"
         result="turbulence" />
      <feDisplacementMap
         in2="turbulence"
         id="feDisplacementMap439-8-0-3"
         in="fbSourceGraphic"
         scale="4.27461"
         yChannelSelector="G"
         xChannelSelector="R" />
    </filter>
    <filter
       style="color-interpolation-filters:sRGB"
       id="filter4375-4-1-1-1-9-30-2"
       inkscape:label="Roughen">
      <feFlood
         id="feFlood4377-7-9-0-8-1-78-6"
         flood-opacity="1"
         flood-color="rgb(0,0,0)"
         result="flood" />
      <feComposite
         id="feComposite4379-3-8-8-2-77-68-1"
         in2="SourceGraphic"
         in="flood"
         operator="in"
         result="composite1" />
      <feMorphology
         id="feMorphology4393-1-0-49-8-9-8-0"
         operator="dilate"
         radius="4"
         result="result3" />
      <feComposite
         id="feComposite4385-9-5-7-0-8-4-6"
         in2="result3"
         in="SourceGraphic"
         operator="over"
         result="fbSourceGraphic" />
      <feColorMatrix
         result="fbSourceGraphicAlpha"
         in="fbSourceGraphic"
         values="0 0 0 -1 0 0 0 0 -1 0 0 0 0 -1 0 0 0 0 1 0"
         id="feColorMatrix333-3-1" />
      <feTurbulence
         id="feTurbulence335-1-5"
         type="fractalNoise"
         numOctaves="5"
         seed="1"
         baseFrequency="0.013 0.013"
         result="turbulence" />
      <feDisplacementMap
         in2="turbulence"
         id="feDisplacementMap337-4-9"
         in="fbSourceGraphic"
         scale="6.6"
         yChannelSelector="G"
         xChannelSelector="R"
         result="fbSourceGraphic" />
      <feColorMatrix
         result="fbSourceGraphicAlpha"
         in="fbSourceGraphic"
         values="0 0 0 -1 0 0 0 0 -1 0 0 0 0 -1 0 0 0 0 1 0"
         id="feColorMatrix435-92-4" />
      <feTurbulence
         id="feTurbulence437-06-9"
         type="fractalNoise"
         numOctaves="5"
         seed="27"
         baseFrequency="0.001 0.4414"
         result="turbulence" />
      <feDisplacementMap
         in2="turbulence"
         id="feDisplacementMap439-8-0"
         in="fbSourceGraphic"
         scale="4.27461"
         yChannelSelector="G"
         xChannelSelector="R" />
    </filter>
    <filter
       style="color-interpolation-filters:sRGB"
       id="filter4375-4-1-1-1-9-30"
       inkscape:label="Roughen">
      <feFlood
         id="feFlood4377-7-9-0-8-1-78"
         flood-opacity="1"
         flood-color="rgb(0,0,0)"
         result="flood" />
      <feComposite
         id="feComposite4379-3-8-8-2-77-68"
         in2="SourceGraphic"
         in="flood"
         operator="in"
         result="composite1" />
      <feMorphology
         id="feMorphology4393-1-0-49-8-9-8"
         operator="dilate"
         radius="4"
         result="result3" />
      <feComposite
         id="feComposite4385-9-5-7-0-8-4"
         in2="result3"
         in="SourceGraphic"
         operator="over"
         result="fbSourceGraphic" />
      <feColorMatrix
         result="fbSourceGraphicAlpha"
         in="fbSourceGraphic"
         values="0 0 0 -1 0 0 0 0 -1 0 0 0 0 -1 0 0 0 0 1 0"
         id="feColorMatrix333-3" />
      <feTurbulence
         id="feTurbulence335-1"
         type="fractalNoise"
         numOctaves="5"
         seed="1"
         baseFrequency="0.013 0.013"
         result="turbulence" />
      <feDisplacementMap
         in2="turbulence"
         id="feDisplacementMap337-4"
         in="fbSourceGraphic"
         scale="6.6"
         yChannelSelector="G"
         xChannelSelector="R"
         result="fbSourceGraphic" />
      <feColorMatrix
         result="fbSourceGraphicAlpha"
         in="fbSourceGraphic"
         values="0 0 0 -1 0 0 0 0 -1 0 0 0 0 -1 0 0 0 0 1 0"
         id="feColorMatrix435-92" />
      <feTurbulence
         id="feTurbulence437-06"
         type="fractalNoise"
         numOctaves="5"
         seed="27"
         baseFrequency="0.001 0.4414"
         result="turbulence" />
      <feDisplacementMap
         in2="turbulence"
         id="feDisplacementMap439-8"
         in="fbSourceGraphic"
         scale="4.27461"
         yChannelSelector="G"
         xChannelSelector="R" />
    </filter>
    <filter
       style="color-interpolation-filters:sRGB"
       id="filter4375-4-1-1-1-9-3"
       inkscape:label="Roughen">
      <feFlood
         id="feFlood4377-7-9-0-8-1-6"
         flood-opacity="1"
         flood-color="rgb(0,0,0)"
         result="flood" />
      <feComposite
         id="feComposite4379-3-8-8-2-77-75"
         in2="SourceGraphic"
         in="flood"
         operator="in"
         result="composite1" />
      <feMorphology
         id="feMorphology4393-1-0-49-8-9-35"
         operator="dilate"
         radius="4"
         result="result3" />
      <feComposite
         id="feComposite4385-9-5-7-0-8-6"
         in2="result3"
         in="SourceGraphic"
         operator="over"
         result="fbSourceGraphic" />
      <feColorMatrix
         result="fbSourceGraphicAlpha"
         in="fbSourceGraphic"
         values="0 0 0 -1 0 0 0 0 -1 0 0 0 0 -1 0 0 0 0 1 0"
         id="feColorMatrix333" />
      <feTurbulence
         id="feTurbulence335"
         type="fractalNoise"
         numOctaves="5"
         seed="1"
         baseFrequency="0.013 0.013"
         result="turbulence" />
      <feDisplacementMap
         in2="turbulence"
         id="feDisplacementMap337"
         in="fbSourceGraphic"
         scale="6.6"
         yChannelSelector="G"
         xChannelSelector="R"
         result="fbSourceGraphic" />
      <feColorMatrix
         result="fbSourceGraphicAlpha"
         in="fbSourceGraphic"
         values="0 0 0 -1 0 0 0 0 -1 0 0 0 0 -1 0 0 0 0 1 0"
         id="feColorMatrix435" />
      <feTurbulence
         id="feTurbulence437"
         type="fractalNoise"
         numOctaves="5"
         seed="27"
         baseFrequency="0.001 0.4414"
         result="turbulence" />
      <feDisplacementMap
         in2="turbulence"
         id="feDisplacementMap439"
         in="fbSourceGraphic"
         scale="4.27461"
         yChannelSelector="G"
         xChannelSelector="R" />
    </filter>
    <filter
       inkscape:collect="always"
       style="color-interpolation-filters:sRGB"
       id="filter4210-3"
       x="-0.0015578248"
       width="1.0031157"
       y="-0.0045528179"
       height="1.0091056">
      <feGaussianBlur
         inkscape:collect="always"
         stdDeviation="0.2079876"
         id="feGaussianBlur4212-9" />
    </filter>
    <filter
       inkscape:collect="always"
       style="color-interpolation-filters:sRGB"
       id="filter4210"
       x="-0.0015578248"
       width="1.0031157"
       y="-0.0045528179"
       height="1.0091056">
      <feGaussianBlur
         inkscape:collect="always"
         stdDeviation="0.2079876"
         id="feGaussianBlur4212" />
    </filter>
  </defs>
  <sodipodi:namedview
     pagecolor="#ffffff"
     bordercolor="#666666"
     borderopacity="1"
     objecttolerance="10"
     gridtolerance="10"
     guidetolerance="10"
     inkscape:pageopacity="0"
     inkscape:pageshadow="2"
     inkscape:window-width="1920"
     inkscape:window-height="1025"
     id="namedview4"
     showgrid="false"
     inkscape:zoom="0.25455844"
     inkscape:cx="1103.5283"
     inkscape:cy="1058.6273"
     inkscape:window-x="1920"
     inkscape:window-y="26"
     inkscape:window-maximized="1"
     inkscape:current-layer="layer1"
     inkscape:snap-global="false" />
  <g
     inkscape:groupmode="layer"
     id="layer2"
     inkscape:label="artwork"
     sodipodi:insensitive="true">
    <image
       sodipodi:absref="E:\Users\jamesmichael\Downloads\Compressed\eps\ep27_Coriander-s-Invention_lang-pack\lang\ph\../gfx_Pepper-and-Carrot_by-David-Revoy_E27P06.png"
       xlink:href="../gfx_Pepper-and-Carrot_by-David-Revoy_E27P06.png"
       width="2481"
       height="3503"
       id="image10"
       x="0"
       y="0" />
  </g>
  <g
     inkscape:groupmode="layer"
     id="layer3"
     inkscape:label="speechbubbles">
    <path
       style="fill:#ffffff;fill-rule:evenodd;stroke:none;stroke-width:1.19876182px;stroke-linecap:butt;stroke-linejoin:miter;stroke-opacity:1"
       d="m 150.75225,268.34659 c 0,-109.76971 9.21719,-159.34311 21.50673,-184.129836 12.28955,-24.786701 55.303,-42.491486 75.78559,-31.868616 20.48259,10.622871 39.94106,-7.081913 48.1341,-7.081913 8.19303,0 52.23061,3.540957 69.64081,17.704784 17.41021,14.163828 31.74803,-7.081913 40.9652,7.081914 9.21716,14.163831 34.8204,120.392597 34.8204,169.966017 0,49.5734 -11.26542,194.75268 -24.57912,215.99845 -13.31368,21.24574 -58.37539,53.11438 -80.90624,53.11438 -22.53083,0 -58.37537,0 -92.17165,-14.16385 -33.79628,-14.16383 -63.49605,-28.32766 -76.80974,-84.983 -13.31369,-56.65533 -15.36194,-70.81917 -16.38608,-141.63833 z"
       id="path1055"
       inkscape:connector-curvature="0" />
    <path
       style="fill:#ffffff;fill-rule:evenodd;stroke:none;stroke-width:1px;stroke-linecap:butt;stroke-linejoin:miter;stroke-opacity:1"
       d="m 331.00243,306.49609 c 0,0 -11.34439,15.12497 -17.23952,40.59312 -5.89513,25.46814 -7.35913,39.49755 -2.53393,61.15161 3.67951,16.51251 22.29674,57.72327 31.08248,67.32511 -23.57697,-24.17146 -47.44853,-51.19112 -54.87711,-89.33367 -3.46351,-17.78368 11.1671,-71.13643 15.72728,-83.70363 4.56019,-12.56722 27.8408,3.96746 27.8408,3.96746 z"
       id="path1057"
       inkscape:connector-curvature="0"
       sodipodi:nodetypes="csscssc" />
    <g
       transform="matrix(1.2234333,0,0,0.88633082,784.16145,-4.1908013)"
       id="g975">
      <path
         inkscape:connector-curvature="0"
         id="path101"
         d="m 524.22751,191.63146 c -3.54348,-0.0348 -7.29462,0.1157 -11.15995,0.53804 0,0 -30.0934,62.27058 -34.39246,76.5103 11.46417,0 17.19658,2.58826 28.66075,3.88278 11.46419,1.29452 32.95953,-2.58907 41.55766,-3.23633 8.59813,-0.64726 15.76193,2.58904 44.42238,0 -2.86603,0.64726 -12.18043,-6.47148 -16.47949,-9.06051 -4.29907,-2.58904 -2.86564,-7.7685 -5.73169,-13.59384 -7.1651,4.53081 -12.18133,-3e-5 -15.76388,-3.23633 -3.58256,-3.2363 0,-6.73429 0,-6.73429 l 12.77953,-8.85507 c -3.1956,-18.67125 -9.78598,-23.87711 1.97813,-29.67315 l 19.34646,-0.64645 10.74778,-5.82622 -16.48174,0.64645 c -12.78626,1.01278 -21.80405,1.84038 -32.66837,1.29495 0,0 -11.46004,-1.8597 -26.81511,-2.01033 z m 14.40511,17.99219 c 0,0 11.92148,1.46891 13.54683,3.42659 1.62535,1.95768 4.33226,0.4895 6.4994,1.95776 2.16714,1.46826 4.87786,9.7878 2.71073,10.76663 -2.16714,0.97885 -5.41927,3.42554 -7.58642,2.44669 -2.16713,-0.97883 -4.87568,-5.87327 -4.87568,-5.87327 -0.54179,-4.40479 0,-6.85113 0,-6.85113 z"
         style="fill:url(#linearGradient966);fill-opacity:1;fill-rule:evenodd;stroke:none;stroke-width:0.99999994px;stroke-linecap:butt;stroke-linejoin:miter;stroke-opacity:1"
         sodipodi:nodetypes="cccsscscccccccccccssccccc" />
      <path
         inkscape:connector-curvature="0"
         id="path958"
         d="m 479.1379,267.64029 c 0,0 8.1984,-5.23752 15.06909,-6.63932 6.87069,-1.40181 24.66762,-6.18478 30.68906,-7.94356 6.02146,-1.75878 6.02146,-1.75878 6.02146,-1.75878 l -4.64731,-30.01543 -8.70287,-22.89613 -30.68908,2.80361 -5.49655,49.06313 z"
         style="fill:#6c6753;fill-rule:evenodd;stroke:#6c6753;stroke-width:1px;stroke-linecap:butt;stroke-linejoin:miter;stroke-opacity:1" />
      <path
         inkscape:connector-curvature="0"
         id="path99"
         d="m 541.89921,152.34375 c -0.14714,0.0194 -0.29648,0.0584 -0.44937,0.11719 -4.89222,1.87969 -40.11706,-0.93945 -46.96617,3.75976 -6.84911,4.69921 -102.98621,-0.94062 -119.61976,-2.82031 -16.63354,-1.87968 -98.82297,7.8e-4 -112.52117,2.82031 -13.69822,2.81953 -48.9227,6.57969 -91.97424,2.82032 l 2.93411,9.39843 0.98007,7.51758 -3.91418,7.51953 h 2.93411 l 15.65675,5.63867 v 8.45899 l -6.85034,6.57812 -10.76248,1.88086 c 0,16.44857 -8.57201,31.59947 -15.89192,50.34227 18.59043,-1.87969 21.76302,-3.75937 44.26723,-4.69922 22.50421,-0.93984 93.93032,10.33789 108.60698,10.33789 14.67666,0 46.9658,-2.81915 67.51312,-5.63867 20.54732,-2.81953 105.92276,1.14917 116.68564,0.20932 10.76288,-0.93985 24.46114,-7.51873 39.1378,-4.69921 l 10.76249,-41.15316 c 0,-4.69921 4.89223,-6.58008 4.89223,-6.58008 l -4.89223,-9.39843 c 0,0 3.91378,-12.21799 4.89223,-18.79688 0.94786,-6.37331 -0.85928,-24.21344 -5.4209,-23.61328 z m -352.27346,74.98942 c 1.88302,0.02 3.3984,0.6712 3.61122,2.30664 0.48646,3.73815 2.43327,8.87803 -0.97194,11.68164 -3.40522,2.80361 -12.16143,-0.46687 -12.16143,-2.33594 0,-1.86907 2.43188,-9.3457 2.43188,-9.3457 1.64181,-1.31419 4.66925,-2.33231 7.09027,-2.30664 z"
         style="fill:url(#radialGradient932);fill-opacity:1;fill-rule:evenodd;stroke:none;stroke-width:0.99999994px;stroke-linecap:butt;stroke-linejoin:miter;stroke-opacity:1"
         sodipodi:nodetypes="ccsssccccccccccsssscccccccccscc" />
      <path
         inkscape:connector-curvature="0"
         id="path111"
         d="m 515.27248,172.97336 c 7.29689,-4.20541 14.59379,-4.20541 16.05316,0.93454 1.45939,5.13994 4.8646,8.87808 0.48646,10.74716 -4.37813,1.86907 -10.7021,9.81262 -13.62086,4.20541 -2.91876,-5.60722 -9.72919,-8.41082 -8.75627,-9.81263 0.97291,-1.4018 5.83751,-6.07448 5.83751,-6.07448 z"
         style="opacity:0.53299997;vector-effect:none;fill:#cbc29a;fill-opacity:1;fill-rule:evenodd;stroke:none;stroke-width:0.99999994px;stroke-linecap:butt;stroke-linejoin:miter;stroke-miterlimit:4;stroke-dasharray:none;stroke-dashoffset:0;stroke-opacity:1" />
      <path
         inkscape:connector-curvature="0"
         id="path113"
         d="m 508.02036,204.75351 c 4.8646,-2.80361 8.75627,0 8.75627,3.27087 0,3.27088 2.4323,6.54175 -2.91875,6.54175 -5.35106,0 -9.72919,0.46727 -9.72919,-3.27087 0,-3.73814 3.89167,-6.54175 3.89167,-6.54175 z"
         style="opacity:0.53299997;vector-effect:none;fill:#cbc29a;fill-opacity:1;fill-rule:evenodd;stroke:none;stroke-width:0.99999994px;stroke-linecap:butt;stroke-linejoin:miter;stroke-miterlimit:4;stroke-dasharray:none;stroke-dashoffset:0;stroke-opacity:1" />
      <path
         inkscape:connector-curvature="0"
         id="path115"
         d="m 487.65472,226.68348 c 3.40522,-6.07449 6.81043,-4.67268 6.81043,-4.67268 l 4.37813,4.67268 -5.35104,5.60721 z"
         style="opacity:0.53299997;vector-effect:none;fill:#cbc29a;fill-opacity:1;fill-rule:evenodd;stroke:none;stroke-width:0.99999994px;stroke-linecap:butt;stroke-linejoin:miter;stroke-miterlimit:4;stroke-dasharray:none;stroke-dashoffset:0;stroke-opacity:1" />
    </g>
    <path
       style="fill:#ffffff;fill-rule:evenodd;stroke:none;stroke-width:1.39470434px;stroke-linecap:butt;stroke-linejoin:miter;stroke-opacity:1"
       d="m 176.85272,1262.5826 c 19.2425,-59.9262 39.7011,-76.9642 140.2664,-83.4627 58.17719,-3.7594 118.4859,7.8245 128.94053,119.9775 10.45464,112.1529 11.11989,209.8636 -15.01671,256.8115 -26.1366,46.9476 -80.59572,39.5101 -115.66626,45.7407 -33.10636,-2.6081 -102.78819,-6.376 -121.95503,-53.3237 -19.16683,-46.9479 -37.47821,-178.8069 -16.56893,-285.7433 z"
       id="path1095"
       inkscape:connector-curvature="0"
       sodipodi:nodetypes="csscccc" />
    <path
       style="fill:#ffffff;fill-rule:evenodd;stroke:none;stroke-width:1.39007103px;stroke-linecap:butt;stroke-linejoin:miter;stroke-opacity:1"
       d="m 2290.006,1350.5117 c 15.2374,15.5846 37.1,40.9094 39.7499,68.1821 2.6501,27.2729 16.5625,77.9226 11.9251,122.728 -4.6375,44.8054 -17.8875,89.6109 -30.4749,114.9357 -12.5876,25.3248 -36.4376,44.8053 -51.6751,48.7014 -15.2375,3.8963 -54.325,-23.3766 -65.5874,-15.5844 -11.2626,7.7921 -52.3375,11.6883 -72.875,-7.7922 -20.5375,-19.4808 -43.7251,-91.5591 -47.0376,-136.3643 -3.3124,-44.8056 11.2625,-134.4164 13.9125,-157.793 2.6501,-23.3769 13.9125,-31.1691 13.9125,-31.1691 31.4442,-13.3719 141.816,-25.9514 188.15,-5.8442 z"
       id="path1099"
       inkscape:connector-curvature="0"
       sodipodi:nodetypes="ccccccccccc" />
    <path
       style="fill:#ffffff;fill-rule:evenodd;stroke:none;stroke-width:1.09716415px;stroke-linecap:butt;stroke-linejoin:miter;stroke-opacity:1"
       d="m 2196.1541,1223.9553 c 4.4839,19.8471 4.5058,52.6019 3.4079,64.0714 -1.0978,11.4696 -8.6823,61.3578 -14.4792,66.5432 -53.1964,52.3722 -150.8645,44.7301 -161.9585,-40.123 -2.8423,-23.4665 -8.716,-31.3217 -3.7392,-72.7944 4.9768,-41.4728 10.3405,-52.9301 15.936,-58.6434 45.5875,-29.4936 142.9559,-32.1802 160.833,40.9462 z"
       id="path1101"
       inkscape:connector-curvature="0"
       sodipodi:nodetypes="ccccccc" />
    <path
       style="fill:#ffffff;fill-rule:evenodd;stroke:none;stroke-width:1px;stroke-linecap:butt;stroke-linejoin:miter;stroke-opacity:1"
       d="m 2213.2998,1681.3531 c -21.3196,-32.6901 -31.2688,-43.35 -49.7459,-55.4311 -18.477,-12.0812 -45.482,-11.3705 -78.8828,-5.6853 54.7205,-1.4213 65.3804,11.3705 73.9082,17.7664 8.5279,6.3959 29.1369,31.2689 35.5328,50.4566 6.3959,19.1877 19.1877,-7.1066 19.1877,-7.1066 z"
       id="path1103"
       inkscape:connector-curvature="0" />
    <rect
       style="opacity:1;fill:#000000;fill-opacity:1;fill-rule:nonzero;stroke:#ffffff;stroke-width:3;stroke-linecap:round;stroke-miterlimit:4;stroke-dasharray:none;stroke-opacity:1"
       id="rect5188"
       width="271.97244"
       height="318.40677"
       x="731.89331"
       y="2032.58"
       rx="0"
       ry="0" />
    <rect
       style="opacity:1;fill:#000000;fill-opacity:1;fill-rule:nonzero;stroke:#ffffff;stroke-width:3;stroke-linecap:round;stroke-miterlimit:4;stroke-dasharray:none;stroke-opacity:1"
       id="rect5190"
       width="174.68149"
       height="108.34674"
       x="601.435"
       y="1964.0341" />
    <rect
       style="opacity:1;fill:#000000;fill-opacity:1;fill-rule:nonzero;stroke:#ffffff;stroke-width:3;stroke-linecap:round;stroke-miterlimit:4;stroke-dasharray:none;stroke-opacity:1"
       id="rect5192"
       width="229.96043"
       height="285.23938"
       x="245.43855"
       y="-2054.6919"
       transform="scale(1,-1)" />
    <path
       style="fill:#000000;fill-opacity:1;stroke:#ffffff;stroke-width:3;stroke-linecap:butt;stroke-linejoin:miter;stroke-miterlimit:4;stroke-dasharray:none;stroke-opacity:1"
       d="m 949.98907,2358.8026 30.11709,48.8087 7.60594,-19.7954 29.1301,26.797 -31.67956,-52.7662 -8.38751,19.0798 z"
       id="path5194"
       inkscape:connector-curvature="0"
       sodipodi:nodetypes="ccccccc" />
    <path
       sodipodi:nodetypes="ccccccc"
       inkscape:connector-curvature="0"
       id="path5196"
       d="m 646.79007,1939.87 44.7944,-35.816 0.4956,21.2005 36.4527,-15.4223 -47.5984,39.0162 -1.4725,-20.7899 z"
       style="fill:#000000;fill-opacity:1;stroke:#ffffff;stroke-width:3;stroke-linecap:butt;stroke-linejoin:miter;stroke-miterlimit:4;stroke-dasharray:none;stroke-opacity:1" />
    <path
       style="fill:#000000;fill-opacity:1;stroke:#ffffff;stroke-width:3;stroke-linecap:butt;stroke-linejoin:miter;stroke-miterlimit:4;stroke-dasharray:none;stroke-opacity:1"
       d="m 151.49067,1940.9756 44.7944,-35.816 0.4956,21.2005 36.4527,-15.4223 -47.5984,39.0162 -1.4725,-20.7899 z"
       id="path5198"
       inkscape:connector-curvature="0"
       sodipodi:nodetypes="ccccccc" />
    <path
       inkscape:connector-curvature="0"
       id="path5240"
       d="m 179.23295,904.87623 c 0,-29.25332 3.45948,-42.46449 8.07211,-49.07009 1.45674,-2.75291 3.41363,-5.19125 5.76596,-7.32871 3.04621,-2.76797 6.75556,-5.03137 10.90065,-6.81993 23.72188,-10.23575 61.71489,-4.92005 71.35782,10.37402 3.45947,3.77462 13.06913,32.08429 13.06913,45.29547 0,13.21117 -4.22825,51.90104 -9.22527,57.56298 -4.99702,5.66193 -21.91001,14.15483 -30.3665,14.15483 -8.4565,0 -21.91001,0 -34.59476,-3.77462 -12.68474,-3.77462 -23.83194,-7.54924 -28.82896,-22.64773 -21.64815,11.36947 -22.18151,-19.98598 -20.39422,-28.61218 1.45411,9.093 24.57462,36.35694 16.10602,9.76353 -0.47133,-4.27049 -1.71543,-11.70194 -1.86198,-18.89757 z"
       style="fill:#ffffff;fill-rule:evenodd;stroke:none;stroke-width:0.37912783px;stroke-linecap:butt;stroke-linejoin:miter;stroke-opacity:1"
       sodipodi:nodetypes="ccsscsssscccc" />
  </g>
  <g
     inkscape:groupmode="layer"
     id="layer1"
     inkscape:label="txt"
     style="display:inline">
    <text
       xml:space="preserve"
       style="font-style:normal;font-variant:normal;font-weight:normal;font-stretch:normal;line-height:0%;font-family:Lavi;-inkscape-font-specification:Lavi;text-align:center;letter-spacing:0px;word-spacing:0px;text-anchor:middle;fill:#000000;fill-opacity:1;stroke:none"
       x="294.07062"
       y="169.29959"
       id="text4246"><tspan
         sodipodi:role="line"
         style="font-size:45px;line-height:1.20000005"
         x="301.98077"
         y="169.29959"
         id="tspan762">Hindi mo </tspan><tspan
         sodipodi:role="line"
         style="font-size:45px;line-height:1.20000005"
         x="301.98077"
         y="223.29959"
         id="tspan5222">ba naisip </tspan><tspan
         sodipodi:role="line"
         style="font-size:45px;line-height:1.20000005"
         x="301.98077"
         y="277.29959"
         id="tspan5106">kung gano </tspan><tspan
         sodipodi:role="line"
         style="font-size:45px;line-height:1.20000005"
         x="301.98077"
         y="331.29959"
         id="tspan5224">kagandang </tspan><tspan
         sodipodi:role="line"
         style="font-size:45px;line-height:1.20000005"
         x="301.98077"
         y="385.29959"
         id="tspan5108">tong &quot;glitch&quot; </tspan><tspan
         sodipodi:role="line"
         style="font-size:45px;line-height:1.20000005"
         x="294.07062"
         y="439.29959"
         id="tspan5228">na to?</tspan></text>
    <text
       xml:space="preserve"
       style="font-style:normal;font-variant:normal;font-weight:normal;font-stretch:normal;line-height:0%;font-family:Lavi;-inkscape-font-specification:Lavi;letter-spacing:0px;word-spacing:0px;fill:#000000;fill-opacity:1;stroke:#000000;stroke-width:0.99236238;stroke-miterlimit:4;stroke-dasharray:none;stroke-opacity:1;filter:url(#filter4375-4-1-1-1-9)"
       x="787.65729"
       y="1584.5073"
       id="text4580"
       transform="matrix(0.77821249,-0.28959874,-0.30299683,1.0489343,541.49337,-699.9517)"><tspan
         sodipodi:role="line"
         id="tspan4582"
         x="787.65729"
         y="1584.5073"
         style="font-size:70px;line-height:1.25;fill:#ffffff"><tspan
           style="font-size:80.40014648px"
           id="tspan4617">Ting!</tspan></tspan></text>
    <text
       xml:space="preserve"
       style="font-style:normal;font-variant:normal;font-weight:normal;font-stretch:normal;line-height:1.20000005;font-family:Lavi;-inkscape-font-specification:Lavi;text-align:center;letter-spacing:0px;word-spacing:0px;text-anchor:middle;fill:#000000;fill-opacity:1;stroke:none"
       x="1235.1575"
       y="190.64888"
       id="text4246-3"><tspan
         sodipodi:role="line"
         style="font-style:italic;font-variant:normal;font-weight:normal;font-stretch:normal;font-size:45px;line-height:1.20000005;font-family:Fondamento;-inkscape-font-specification:'Fondamento Italic'"
         x="1235.1575"
         y="190.64888"
         id="tspan18">Nang Kinagabihan...</tspan></text>
    <text
       xml:space="preserve"
       style="font-style:normal;font-variant:normal;font-weight:normal;font-stretch:normal;line-height:0%;font-family:Lavi;-inkscape-font-specification:Lavi;text-align:center;letter-spacing:0px;word-spacing:0px;text-anchor:middle;fill:#000000;fill-opacity:1;stroke:none"
       x="315.82831"
       y="1299.7415"
       id="text4246-2"><tspan
         sodipodi:role="line"
         style="font-size:45px;line-height:1.20000005"
         x="323.73846"
         y="1299.7415"
         id="tspan939">Pepper! </tspan><tspan
         sodipodi:role="line"
         style="font-size:45px;line-height:1.20000005"
         x="323.73846"
         y="1353.7415"
         id="tspan5120">Anggaling </tspan><tspan
         sodipodi:role="line"
         style="font-size:45px;line-height:1.20000005"
         x="323.73846"
         y="1407.7415"
         id="tspan5122">talaga </tspan><tspan
         sodipodi:role="line"
         style="font-size:45px;line-height:1.20000005"
         x="323.73846"
         y="1461.7415"
         id="tspan5124">ng naisip </tspan><tspan
         sodipodi:role="line"
         style="font-size:45px;line-height:1.20000005"
         x="315.82831"
         y="1515.7415"
         id="tspan5126">mo!</tspan></text>
    <text
       xml:space="preserve"
       style="font-style:normal;font-variant:normal;font-weight:normal;font-stretch:normal;line-height:0%;font-family:Lavi;-inkscape-font-specification:Lavi;text-align:center;letter-spacing:0px;word-spacing:0px;text-anchor:middle;fill:#000000;fill-opacity:1;stroke:none"
       x="2105.697"
       y="1272.3203"
       id="text4246-2-0"><tspan
         sodipodi:role="line"
         style="font-size:45px;line-height:0.80000001"
         x="2113.6072"
         y="1272.3203"
         id="tspan939-3">Hindi </tspan><tspan
         sodipodi:role="line"
         style="font-size:45px;line-height:1.20000005"
         x="2113.6072"
         y="1317.3203"
         id="tspan5200"><tspan
   style="line-height:0.80000001"
   id="tspan5202">no!</tspan> </tspan></text>
    <text
       xml:space="preserve"
       style="font-style:normal;font-variant:normal;font-weight:normal;font-stretch:normal;line-height:0%;font-family:Lavi;-inkscape-font-specification:Lavi;text-align:center;letter-spacing:0px;word-spacing:0px;text-anchor:middle;fill:#000000;fill-opacity:1;stroke:none"
       x="2211.6648"
       y="1442.5256"
       id="text4246-2-0-6"><tspan
         sodipodi:role="line"
         style="font-size:45px;line-height:1.20000005"
         x="2219.575"
         y="1442.5256"
         id="tspan982">ikaw </tspan><tspan
         sodipodi:role="line"
         style="font-size:45px;line-height:1.20000005"
         x="2219.575"
         y="1496.5256"
         id="tspan5210">kaya ang </tspan><tspan
         sodipodi:role="line"
         style="font-size:45px;line-height:1.20000005"
         x="2219.575"
         y="1550.5256"
         id="tspan5214">gumawa </tspan><tspan
         sodipodi:role="line"
         style="font-size:45px;line-height:1.20000005"
         x="2211.6648"
         y="1604.5256"
         id="tspan5133">niyan!♥</tspan></text>
    <text
       xml:space="preserve"
       style="font-style:normal;font-variant:normal;font-weight:normal;font-stretch:normal;line-height:0%;font-family:Lavi;-inkscape-font-specification:Lavi;text-align:center;letter-spacing:0px;word-spacing:0px;text-anchor:middle;fill:#ffffff;fill-opacity:1;stroke:none"
       x="365.0235"
       y="1913.8632"
       id="text4246-3-3-2"><tspan
         sodipodi:role="line"
         style="font-style:normal;font-variant:normal;font-weight:normal;font-stretch:normal;font-size:32px;line-height:1.39999998;font-family:'Press Start 2P';-inkscape-font-specification:'Press Start 2P';fill:#ffffff;fill-opacity:1"
         x="365.0235"
         y="1913.8632"
         id="tspan144">Next,</tspan><tspan
         sodipodi:role="line"
         style="font-style:normal;font-variant:normal;font-weight:normal;font-stretch:normal;font-size:32px;line-height:1.39999998;font-family:'Press Start 2P';-inkscape-font-specification:'Press Start 2P';fill:#ffffff;fill-opacity:1"
         x="365.0235"
         y="1958.6632"
         id="tspan998">please.</tspan></text>
    <text
       xml:space="preserve"
       style="font-style:normal;font-variant:normal;font-weight:normal;font-stretch:normal;line-height:0%;font-family:Lavi;-inkscape-font-specification:Lavi;text-align:center;letter-spacing:0px;word-spacing:0px;text-anchor:middle;fill:#ffffff;fill-opacity:1;stroke:none"
       x="687.38"
       y="2033.3851"
       id="text4246-3-3-2-6"><tspan
         sodipodi:role="line"
         style="font-style:normal;font-variant:normal;font-weight:normal;font-stretch:normal;font-size:32px;line-height:1.39999998;font-family:'Press Start 2P';-inkscape-font-specification:'Press Start 2P';fill:#ffffff;fill-opacity:1"
         x="687.38"
         y="2033.3851"
         id="tspan998-6">Hello,</tspan></text>
    <text
       xml:space="preserve"
       style="font-style:normal;font-variant:normal;font-weight:normal;font-stretch:normal;line-height:0%;font-family:Lavi;-inkscape-font-specification:Lavi;text-align:center;letter-spacing:0px;word-spacing:0px;text-anchor:middle;fill:#ffffff;fill-opacity:1;stroke:none"
       x="865.64337"
       y="2120.6433"
       id="text4246-3-3-2-6-1"><tspan
         sodipodi:role="line"
         style="font-style:normal;font-variant:normal;font-weight:normal;font-stretch:normal;font-size:32px;line-height:1.39999998;font-family:'Press Start 2P';-inkscape-font-specification:'Press Start 2P';fill:#ffffff;fill-opacity:1"
         x="871.26837"
         y="2120.6433"
         id="tspan128">Nagpaplano </tspan><tspan
         sodipodi:role="line"
         style="font-style:normal;font-variant:normal;font-weight:normal;font-stretch:normal;font-size:32px;line-height:1.39999998;font-family:'Press Start 2P';-inkscape-font-specification:'Press Start 2P';fill:#ffffff;fill-opacity:1"
         x="871.26837"
         y="2165.4434"
         id="tspan5144">ka ba ng </tspan><tspan
         sodipodi:role="line"
         style="font-style:normal;font-variant:normal;font-weight:normal;font-stretch:normal;font-size:32px;line-height:1.39999998;font-family:'Press Start 2P';-inkscape-font-specification:'Press Start 2P';fill:#ffffff;fill-opacity:1"
         x="871.26837"
         y="2210.2434"
         id="tspan5146">pagpatay </tspan><tspan
         sodipodi:role="line"
         style="font-style:normal;font-variant:normal;font-weight:normal;font-stretch:normal;font-size:32px;line-height:1.39999998;font-family:'Press Start 2P';-inkscape-font-specification:'Press Start 2P';fill:#ffffff;fill-opacity:1"
         x="871.26837"
         y="2255.0432"
         id="tspan5148">ngayong </tspan><tspan
         sodipodi:role="line"
         style="font-style:normal;font-variant:normal;font-weight:normal;font-stretch:normal;font-size:32px;line-height:1.39999998;font-family:'Press Start 2P';-inkscape-font-specification:'Press Start 2P';fill:#ffffff;fill-opacity:1"
         x="865.64337"
         y="2299.8433"
         id="tspan5150">gabi?</tspan></text>
    <text
       xml:space="preserve"
       style="font-style:normal;font-variant:normal;font-weight:normal;font-stretch:normal;font-size:43.85733414px;line-height:0%;font-family:Lavi;-inkscape-font-specification:'Lavi, Normal';font-variant-ligatures:normal;font-variant-caps:normal;font-variant-numeric:normal;font-feature-settings:normal;text-align:end;letter-spacing:0px;word-spacing:0px;writing-mode:lr-tb;text-anchor:end;display:inline;fill:#241c1c;fill-opacity:1;stroke:#000000;stroke-width:0.82200003;stroke-miterlimit:4;stroke-dasharray:none;stroke-opacity:1"
       x="3583.2522"
       y="3328.6948"
       id="text4213"
       transform="matrix(0.96049651,0,-0.32716292,1.0411282,0,0)"><tspan
         sodipodi:role="line"
         id="tspan3562"
         x="3583.2522"
         y="3328.6948"
         style="font-style:normal;font-variant:normal;font-weight:normal;font-stretch:normal;font-size:43.85733414px;line-height:1.25;font-family:Lavi;-inkscape-font-specification:'Lavi, Normal';font-variant-ligatures:normal;font-variant-caps:normal;font-variant-numeric:normal;font-feature-settings:normal;text-align:end;writing-mode:lr-tb;text-anchor:end;stroke-width:0.82200003">ITUTULOY...</tspan></text>
    <text
       xml:space="preserve"
       style="font-style:normal;font-variant:normal;font-weight:normal;font-stretch:normal;line-height:0%;font-family:Lavi;-inkscape-font-specification:Lavi;letter-spacing:0px;word-spacing:0px;fill:#000000;fill-opacity:1;stroke:#000000;stroke-width:0;stroke-linecap:square;stroke-miterlimit:4;stroke-dasharray:none;stroke-opacity:1;filter:url(#filter4375-4-1-1-1-9-3)"
       x="787.65729"
       y="1584.5073"
       id="text4580-2"
       transform="matrix(1.1613654,-0.69321719,0.44569052,1.6077045,-156.83333,-1430.875)"><tspan
         sodipodi:role="line"
         id="tspan4582-9"
         x="787.65729"
         y="1584.5073"
         style="font-style:normal;font-variant:normal;font-weight:normal;font-stretch:normal;font-size:70px;line-height:1.25;font-family:ComicSpice;-inkscape-font-specification:ComicSpice;fill:#ffffff;stroke-width:0;stroke-linecap:square;stroke-miterlimit:4;stroke-dasharray:none">B</tspan></text>
    <text
       xml:space="preserve"
       style="font-style:normal;font-variant:normal;font-weight:normal;font-stretch:normal;line-height:0%;font-family:Lavi;-inkscape-font-specification:Lavi;letter-spacing:0px;word-spacing:0px;fill:#000000;fill-opacity:1;stroke:#000000;stroke-width:0;stroke-linecap:square;stroke-miterlimit:4;stroke-dasharray:none;stroke-opacity:1;filter:url(#filter4375-4-1-1-1-9-30)"
       x="787.65729"
       y="1584.5073"
       id="text4580-9-1"
       transform="matrix(1.0231831,-0.61448535,0.39266108,1.4251102,81.385407,-1213.691)"><tspan
         sodipodi:role="line"
         id="tspan4582-26"
         x="787.65729"
         y="1584.5073"
         style="font-style:normal;font-variant:normal;font-weight:normal;font-stretch:normal;font-size:70px;line-height:1.25;font-family:ComicSpice;-inkscape-font-specification:ComicSpice;fill:#ffffff;stroke-width:0;stroke-linecap:square;stroke-miterlimit:4;stroke-dasharray:none">Z</tspan></text>
    <text
       xml:space="preserve"
       style="font-style:normal;font-variant:normal;font-weight:normal;font-stretch:normal;line-height:0%;font-family:Lavi;-inkscape-font-specification:Lavi;letter-spacing:0px;word-spacing:0px;fill:#000000;fill-opacity:1;stroke:#000000;stroke-width:0;stroke-linecap:square;stroke-miterlimit:4;stroke-dasharray:none;stroke-opacity:1;filter:url(#filter4375-4-1-1-1-9-30-2)"
       x="787.65729"
       y="1584.5073"
       id="text4580-9-9"
       transform="matrix(0.96706972,-0.54046136,0.32409822,1.325527,277.0066,-1122.6108)"><tspan
         sodipodi:role="line"
         id="tspan4582-26-1"
         x="787.65729"
         y="1584.5073"
         style="font-style:normal;font-variant:normal;font-weight:normal;font-stretch:normal;font-size:70px;line-height:1.25;font-family:ComicSpice;-inkscape-font-specification:ComicSpice;fill:#ffffff;stroke-width:0;stroke-linecap:square;stroke-miterlimit:4;stroke-dasharray:none">Z</tspan></text>
    <text
       xml:space="preserve"
       style="font-style:normal;font-variant:normal;font-weight:normal;font-stretch:normal;line-height:0%;font-family:Lavi;-inkscape-font-specification:Lavi;letter-spacing:0px;word-spacing:0px;fill:#000000;fill-opacity:1;stroke:#000000;stroke-width:0;stroke-linecap:square;stroke-miterlimit:4;stroke-dasharray:none;stroke-opacity:1;filter:url(#filter4375-4-1-1-1-9-30-2-7)"
       x="787.65729"
       y="1584.5073"
       id="text4580-9-9-6"
       transform="matrix(0.79978398,-0.46065546,0.26803503,1.1297963,538.53638,-881.29232)"><tspan
         sodipodi:role="line"
         id="tspan4582-26-1-5"
         x="787.65729"
         y="1584.5073"
         style="font-style:normal;font-variant:normal;font-weight:normal;font-stretch:normal;font-size:70px;line-height:1.25;font-family:ComicSpice;-inkscape-font-specification:ComicSpice;fill:#ffffff;stroke-width:0;stroke-linecap:square;stroke-miterlimit:4;stroke-dasharray:none">Z</tspan></text>
    <text
       xml:space="preserve"
       style="font-style:normal;font-variant:normal;font-weight:normal;font-stretch:normal;line-height:0%;font-family:Lavi;-inkscape-font-specification:Lavi;letter-spacing:0px;word-spacing:0px;fill:#000000;fill-opacity:1;stroke:#000000;stroke-width:0;stroke-linecap:square;stroke-miterlimit:4;stroke-dasharray:none;stroke-opacity:1;filter:url(#filter4375-4-1-1-1-9-30-2-7-6)"
       x="787.65729"
       y="1584.5073"
       id="text4580-9-9-6-8"
       transform="matrix(1.2353491,-0.45667938,0.06126805,1.7149541,559.73632,-1837.3338)"><tspan
         sodipodi:role="line"
         id="tspan4582-26-1-5-8"
         x="787.65729"
         y="1584.5073"
         style="font-style:normal;font-variant:normal;font-weight:normal;font-stretch:normal;font-size:70px;line-height:1.25;font-family:ComicSpice;-inkscape-font-specification:ComicSpice;fill:#ffffff;stroke-width:0;stroke-linecap:square;stroke-miterlimit:4;stroke-dasharray:none">!</tspan></text>
    <text
       xml:space="preserve"
       style="font-style:normal;font-variant:normal;font-weight:normal;font-stretch:normal;line-height:0%;font-family:Lavi;-inkscape-font-specification:Lavi;text-align:center;letter-spacing:0px;word-spacing:0px;text-anchor:middle;display:inline;opacity:0.6;fill:#c9bbb2;fill-opacity:1;stroke:#c9bbb2;stroke-width:2.68153024;stroke-miterlimit:4;stroke-dasharray:none;stroke-opacity:1;filter:url(#filter4210)"
       x="1174.0292"
       y="1085.962"
       id="text4246-5-9"
       transform="matrix(0.39472776,-0.057929,-0.00190438,0.58651497,1500.0933,-166.85702)"><tspan
         sodipodi:role="line"
         style="font-style:normal;font-variant:normal;font-weight:normal;font-stretch:normal;font-size:45.00812149px;line-height:1;font-family:Fondamento;-inkscape-font-specification:Fondamento;fill:#c9bbb2;fill-opacity:1;stroke:#c9bbb2;stroke-width:2.68153024;stroke-miterlimit:4;stroke-dasharray:none;stroke-opacity:1"
         x="1174.0292"
         y="1085.962"
         id="tspan111-7">Ang</tspan><tspan
         sodipodi:role="line"
         style="font-style:normal;font-variant:normal;font-weight:normal;font-stretch:normal;font-size:45.00812149px;line-height:1;font-family:Fondamento;-inkscape-font-specification:Fondamento;fill:#c9bbb2;fill-opacity:1;stroke:#c9bbb2;stroke-width:2.68153024;stroke-miterlimit:4;stroke-dasharray:none;stroke-opacity:1"
         x="1174.0292"
         y="1130.9702"
         id="tspan754-5">CORONACION</tspan><tspan
         sodipodi:role="line"
         style="font-style:normal;font-variant:normal;font-weight:normal;font-stretch:normal;font-size:45.00812149px;line-height:1;font-family:Fondamento;-inkscape-font-specification:Fondamento;fill:#c9bbb2;fill-opacity:1;stroke:#c9bbb2;stroke-width:2.68153024;stroke-miterlimit:4;stroke-dasharray:none;stroke-opacity:1"
         x="1174.0292"
         y="1175.9783"
         id="tspan5220">ng KAMAHALAN</tspan></text>
    <text
       xml:space="preserve"
       style="font-style:normal;font-variant:normal;font-weight:normal;font-stretch:normal;line-height:0%;font-family:Lavi;-inkscape-font-specification:Lavi;text-align:center;letter-spacing:0px;word-spacing:0px;text-anchor:middle;display:inline;opacity:0.6;fill:#fff6d5;fill-opacity:1;stroke:#fff6d5;stroke-width:2.70249391;stroke-miterlimit:4;stroke-dasharray:none;filter:url(#filter4210-3)"
       x="1174.0292"
       y="1085.962"
       id="text4246-5-9-4"
       transform="matrix(0.51278087,-0.03586668,-0.01317943,0.74688801,1369.9321,-59.005938)"><tspan
         sodipodi:role="line"
         style="font-style:normal;font-variant:normal;font-weight:normal;font-stretch:normal;font-size:45.00812149px;line-height:1;font-family:Fondamento;-inkscape-font-specification:Fondamento;fill:#fff6d5;stroke:#fff6d5;stroke-width:2.70249391;stroke-miterlimit:4;stroke-dasharray:none;stroke-opacity:1"
         x="1174.0292"
         y="1085.962"
         id="tspan115-8">REINA</tspan><tspan
         sodipodi:role="line"
         style="font-style:normal;font-variant:normal;font-weight:normal;font-stretch:normal;font-size:45.00812149px;line-height:1;font-family:Fondamento;-inkscape-font-specification:Fondamento;fill:#fff6d5;stroke:#fff6d5;stroke-width:2.70249391;stroke-miterlimit:4;stroke-dasharray:none;stroke-opacity:1"
         x="1174.0292"
         y="1130.9702"
         id="tspan121-0">CORIANDER</tspan></text>
    <flowRoot
       xml:space="preserve"
       id="flowRoot5110"
       style="font-style:normal;font-variant:normal;font-weight:normal;font-stretch:normal;font-size:40px;line-height:1.25;font-family:Lavi;-inkscape-font-specification:Lavi;letter-spacing:0px;word-spacing:0px;fill:#000000;fill-opacity:1;stroke:none"
       transform="translate(-16.120281,241.73441)"><flowRegion
         id="flowRegion5112"
         style="font-style:normal;font-variant:normal;font-weight:normal;font-stretch:normal;font-family:Lavi;-inkscape-font-specification:Lavi"><rect
           id="rect5114"
           width="143.72527"
           height="72.968216"
           x="223.32697"
           y="643.97266"
           style="font-style:normal;font-variant:normal;font-weight:normal;font-stretch:normal;font-family:Lavi;-inkscape-font-specification:Lavi" /></flowRegion><flowPara
         id="flowPara5116">ha?</flowPara></flowRoot>  </g>
  <g
     inkscape:label="txt copy 1"
     id="g5099"
     inkscape:groupmode="layer"
     sodipodi:insensitive="true">
    <text
       id="text5011"
       y="365.53201"
       x="2857.7903"
       style="font-style:normal;font-variant:normal;font-weight:normal;font-stretch:normal;line-height:0%;font-family:Lavi;-inkscape-font-specification:Lavi;text-align:center;letter-spacing:0px;word-spacing:0px;text-anchor:middle;fill:#000000;fill-opacity:1;stroke:none"
       xml:space="preserve"><tspan
         id="tspan5005"
         y="365.53201"
         x="2857.7903"
         style="font-size:45px;line-height:1.20000005"
         sodipodi:role="line">I have an idea</tspan><tspan
         id="tspan5007"
         y="419.53201"
         x="2857.7903"
         style="font-size:45px;line-height:1.20000005"
         sodipodi:role="line">on how we could</tspan><tspan
         id="tspan5009"
         y="473.53201"
         x="2857.7903"
         style="font-size:45px;line-height:1.20000005"
         sodipodi:role="line">use this bug.</tspan></text>
    <text
       id="text5021"
       y="211.50249"
       x="2889.1892"
       style="font-style:normal;font-variant:normal;font-weight:normal;font-stretch:normal;line-height:1.20000005;font-family:Lavi;-inkscape-font-specification:Lavi;text-align:center;letter-spacing:0px;word-spacing:0px;text-anchor:middle;fill:#000000;fill-opacity:1;stroke:none"
       xml:space="preserve"><tspan
         id="tspan5019"
         y="211.50249"
         x="2889.1892"
         style="font-style:italic;font-variant:normal;font-weight:normal;font-stretch:normal;font-size:45px;line-height:1.20000005;font-family:Fondamento;-inkscape-font-specification:'Fondamento Italic'"
         sodipodi:role="line">Nang Kinagabihan...</tspan></text>
    <text
       id="text5027"
       y="615.82312"
       x="2871.624"
       style="font-style:normal;font-variant:normal;font-weight:normal;font-stretch:normal;line-height:0%;font-family:Lavi;-inkscape-font-specification:Lavi;text-align:center;letter-spacing:0px;word-spacing:0px;text-anchor:middle;fill:#000000;fill-opacity:1;stroke:none"
       xml:space="preserve"><tspan
         id="tspan5023"
         y="615.82312"
         x="2871.624"
         style="font-size:45px;line-height:1.20000005"
         sodipodi:role="line">Pepper, you're</tspan><tspan
         id="tspan5025"
         y="669.82312"
         x="2871.624"
         style="font-size:45px;line-height:1.20000005"
         sodipodi:role="line">a genius!</tspan></text>
    <text
       id="text5031"
       y="817.56848"
       x="2844.8833"
       style="font-style:normal;font-variant:normal;font-weight:normal;font-stretch:normal;line-height:0%;font-family:Lavi;-inkscape-font-specification:Lavi;text-align:center;letter-spacing:0px;word-spacing:0px;text-anchor:middle;fill:#000000;fill-opacity:1;stroke:none"
       xml:space="preserve"><tspan
         id="tspan5029"
         y="817.56848"
         x="2844.8833"
         style="font-size:45px;line-height:1.20000005"
         sodipodi:role="line">No, you are.</tspan></text>
    <text
       id="text5039"
       y="970.10388"
       x="2816.1011"
       style="font-style:normal;font-variant:normal;font-weight:normal;font-stretch:normal;line-height:0%;font-family:Lavi;-inkscape-font-specification:Lavi;text-align:center;letter-spacing:0px;word-spacing:0px;text-anchor:middle;fill:#000000;fill-opacity:1;stroke:none"
       xml:space="preserve"><tspan
         id="tspan5035"
         y="970.10388"
         x="2816.1011"
         style="font-size:45px;line-height:1.20000005"
         sodipodi:role="line">It's <tspan
   id="tspan5033"
   style="font-style:normal;font-variant:normal;font-weight:bold;font-stretch:normal;font-family:Lavi;-inkscape-font-specification:'Lavi Bold'">your</tspan></tspan><tspan
         id="tspan5037"
         y="1024.1039"
         x="2816.1011"
         style="font-size:45px;line-height:1.20000005"
         sodipodi:role="line">invention!</tspan></text>
    <text
       id="text5045"
       y="1153.3326"
       x="2778.4058"
       style="font-style:normal;font-variant:normal;font-weight:normal;font-stretch:normal;line-height:0%;font-family:Lavi;-inkscape-font-specification:Lavi;text-align:center;letter-spacing:0px;word-spacing:0px;text-anchor:middle;fill:#000000;fill-opacity:1;stroke:none"
       xml:space="preserve"><tspan
         id="tspan5041"
         y="1153.3326"
         x="2778.4058"
         style="font-style:normal;font-variant:normal;font-weight:normal;font-stretch:normal;font-size:32px;line-height:1.39999998;font-family:'Press Start 2P';-inkscape-font-specification:'Press Start 2P'"
         sodipodi:role="line">Next,</tspan><tspan
         id="tspan5043"
         y="1198.1327"
         x="2778.4058"
         style="font-style:normal;font-variant:normal;font-weight:normal;font-stretch:normal;font-size:32px;line-height:1.39999998;font-family:'Press Start 2P';-inkscape-font-specification:'Press Start 2P'"
         sodipodi:role="line">please.</tspan></text>
    <text
       id="text5049"
       y="1334.1989"
       x="2766.6401"
       style="font-style:normal;font-variant:normal;font-weight:normal;font-stretch:normal;line-height:0%;font-family:Lavi;-inkscape-font-specification:Lavi;text-align:center;letter-spacing:0px;word-spacing:0px;text-anchor:middle;fill:#000000;fill-opacity:1;stroke:none"
       xml:space="preserve"><tspan
         id="tspan5047"
         y="1334.1989"
         x="2766.6401"
         style="font-style:normal;font-variant:normal;font-weight:normal;font-stretch:normal;font-size:32px;line-height:1.39999998;font-family:'Press Start 2P';-inkscape-font-specification:'Press Start 2P'"
         sodipodi:role="line">Hello,</tspan></text>
    <text
       id="text5059"
       y="1463.2338"
       x="2829.7964"
       style="font-style:normal;font-variant:normal;font-weight:normal;font-stretch:normal;line-height:0%;font-family:Lavi;-inkscape-font-specification:Lavi;text-align:center;letter-spacing:0px;word-spacing:0px;text-anchor:middle;fill:#000000;fill-opacity:1;stroke:none"
       xml:space="preserve"><tspan
         id="tspan5051"
         y="1463.2338"
         x="2835.4214"
         style="font-style:normal;font-variant:normal;font-weight:normal;font-stretch:normal;font-size:32px;line-height:1.39999998;font-family:'Press Start 2P';-inkscape-font-specification:'Press Start 2P'"
         sodipodi:role="line">are you </tspan><tspan
         id="tspan5053"
         y="1508.0338"
         x="2829.7964"
         style="font-style:normal;font-variant:normal;font-weight:normal;font-stretch:normal;font-size:32px;line-height:1.39999998;font-family:'Press Start 2P';-inkscape-font-specification:'Press Start 2P'"
         sodipodi:role="line">planning an</tspan><tspan
         id="tspan5055"
         y="1552.8337"
         x="2829.7964"
         style="font-style:normal;font-variant:normal;font-weight:normal;font-stretch:normal;font-size:32px;line-height:1.39999998;font-family:'Press Start 2P';-inkscape-font-specification:'Press Start 2P'"
         sodipodi:role="line">assassination</tspan><tspan
         id="tspan5057"
         y="1597.6338"
         x="2829.7964"
         style="font-style:normal;font-variant:normal;font-weight:normal;font-stretch:normal;font-size:32px;line-height:1.39999998;font-family:'Press Start 2P';-inkscape-font-specification:'Press Start 2P'"
         sodipodi:role="line"> tonight?</tspan></text>
    <text
       transform="matrix(0.96049651,0,-0.32716292,1.0411282,0,0)"
       id="text5063"
       y="1675.1633"
       x="3643.3997"
       style="font-style:normal;font-variant:normal;font-weight:normal;font-stretch:normal;font-size:43.85733414px;line-height:0%;font-family:Lavi;-inkscape-font-specification:'Lavi, Normal';font-variant-ligatures:normal;font-variant-caps:normal;font-variant-numeric:normal;font-feature-settings:normal;text-align:end;letter-spacing:0px;word-spacing:0px;writing-mode:lr-tb;text-anchor:end;display:inline;fill:#241c1c;fill-opacity:1;stroke:#000000;stroke-width:0.82200003;stroke-miterlimit:4;stroke-dasharray:none;stroke-opacity:1"
       xml:space="preserve"><tspan
         style="font-style:normal;font-variant:normal;font-weight:normal;font-stretch:normal;font-size:43.85733414px;line-height:1.25;font-family:Lavi;-inkscape-font-specification:'Lavi, Normal';font-variant-ligatures:normal;font-variant-caps:normal;font-variant-numeric:normal;font-feature-settings:normal;text-align:end;writing-mode:lr-tb;text-anchor:end;stroke-width:0.82200003"
         y="1675.1633"
         x="3643.3997"
         id="tspan5061"
         sodipodi:role="line">ITUTULOY...</tspan></text>
  </g>
  <g
     inkscape:label="txt copy"
     id="g5003"
     inkscape:groupmode="layer"
     style="display:none">
    <text
       id="text4915"
       y="191.83766"
       x="337.02747"
       style="font-style:normal;font-variant:normal;font-weight:normal;font-stretch:normal;line-height:0%;font-family:Lavi;-inkscape-font-specification:Lavi;text-align:center;letter-spacing:0px;word-spacing:0px;text-anchor:middle;fill:#000000;fill-opacity:1;stroke:none"
       xml:space="preserve"><tspan
         id="tspan4909"
         y="191.83766"
         x="337.02747"
         style="font-size:45px;line-height:1.20000005"
         sodipodi:role="line">I have an idea</tspan><tspan
         id="tspan4911"
         y="245.83766"
         x="337.02747"
         style="font-size:45px;line-height:1.20000005"
         sodipodi:role="line">on how we could</tspan><tspan
         id="tspan4913"
         y="299.83768"
         x="337.02747"
         style="font-size:45px;line-height:1.20000005"
         sodipodi:role="line">use this bug.</tspan></text>
    <text
       transform="matrix(0.77821249,-0.28959874,-0.30299683,1.0489343,541.49337,-699.9517)"
       id="text4921"
       y="1584.5073"
       x="787.65729"
       style="font-style:normal;font-variant:normal;font-weight:normal;font-stretch:normal;line-height:0%;font-family:Lavi;-inkscape-font-specification:Lavi;letter-spacing:0px;word-spacing:0px;fill:#000000;fill-opacity:1;stroke:#000000;stroke-width:0.99236238;stroke-miterlimit:4;stroke-dasharray:none;stroke-opacity:1;filter:url(#filter4375-4-1-1-1-9)"
       xml:space="preserve"><tspan
         style="font-size:70px;line-height:1.25;fill:#ffffff"
         y="1584.5073"
         x="787.65729"
         id="tspan4919"
         sodipodi:role="line"><tspan
           id="tspan4917"
           style="font-size:80.40014648px">Ting!</tspan></tspan></text>
    <text
       id="text4925"
       y="190.64888"
       x="1235.1575"
       style="font-style:normal;font-variant:normal;font-weight:normal;font-stretch:normal;line-height:1.20000005;font-family:Lavi;-inkscape-font-specification:Lavi;text-align:center;letter-spacing:0px;word-spacing:0px;text-anchor:middle;fill:#000000;fill-opacity:1;stroke:none"
       xml:space="preserve"><tspan
         id="tspan4923"
         y="190.64888"
         x="1235.1575"
         style="font-style:italic;font-variant:normal;font-weight:normal;font-stretch:normal;font-size:45px;line-height:1.20000005;font-family:Fondamento;-inkscape-font-specification:'Fondamento Italic'"
         sodipodi:role="line">Nang Kinagabihan...</tspan></text>
    <text
       id="text4931"
       y="1215.2815"
       x="352.16574"
       style="font-style:normal;font-variant:normal;font-weight:normal;font-stretch:normal;line-height:0%;font-family:Lavi;-inkscape-font-specification:Lavi;text-align:center;letter-spacing:0px;word-spacing:0px;text-anchor:middle;fill:#000000;fill-opacity:1;stroke:none"
       xml:space="preserve"><tspan
         id="tspan4927"
         y="1215.2815"
         x="352.16574"
         style="font-size:45px;line-height:1.20000005"
         sodipodi:role="line">Pepper, you're</tspan><tspan
         id="tspan4929"
         y="1269.2815"
         x="352.16574"
         style="font-size:45px;line-height:1.20000005"
         sodipodi:role="line">a genius!</tspan></text>
    <text
       id="text4935"
       y="1472.6672"
       x="2129.0879"
       style="font-style:normal;font-variant:normal;font-weight:normal;font-stretch:normal;line-height:0%;font-family:Lavi;-inkscape-font-specification:Lavi;text-align:center;letter-spacing:0px;word-spacing:0px;text-anchor:middle;fill:#000000;fill-opacity:1;stroke:none"
       xml:space="preserve"><tspan
         id="tspan4933"
         y="1472.6672"
         x="2129.0879"
         style="font-size:45px;line-height:1.20000005"
         sodipodi:role="line">No, you are.</tspan></text>
    <text
       id="text4943"
       y="1558.3052"
       x="2158.4167"
       style="font-style:normal;font-variant:normal;font-weight:normal;font-stretch:normal;line-height:0%;font-family:Lavi;-inkscape-font-specification:Lavi;text-align:center;letter-spacing:0px;word-spacing:0px;text-anchor:middle;fill:#000000;fill-opacity:1;stroke:none"
       xml:space="preserve"><tspan
         id="tspan4939"
         y="1558.3052"
         x="2158.4167"
         style="font-size:45px;line-height:1.20000005"
         sodipodi:role="line">It's <tspan
   id="tspan4937"
   style="font-style:normal;font-variant:normal;font-weight:bold;font-stretch:normal;font-family:Lavi;-inkscape-font-specification:'Lavi Bold'">your</tspan></tspan><tspan
         id="tspan4941"
         y="1612.3052"
         x="2158.4167"
         style="font-size:45px;line-height:1.20000005"
         sodipodi:role="line">invention!</tspan></text>
    <text
       id="text4949"
       y="1944.8193"
       x="758.60962"
       style="font-style:normal;font-variant:normal;font-weight:normal;font-stretch:normal;line-height:0%;font-family:Lavi;-inkscape-font-specification:Lavi;text-align:center;letter-spacing:0px;word-spacing:0px;text-anchor:middle;fill:#000000;fill-opacity:1;stroke:none"
       xml:space="preserve"><tspan
         id="tspan4945"
         y="1944.8193"
         x="758.60962"
         style="font-style:normal;font-variant:normal;font-weight:normal;font-stretch:normal;font-size:32px;line-height:1.39999998;font-family:'Press Start 2P';-inkscape-font-specification:'Press Start 2P'"
         sodipodi:role="line">Next,</tspan><tspan
         id="tspan4947"
         y="1989.6194"
         x="758.60962"
         style="font-style:normal;font-variant:normal;font-weight:normal;font-stretch:normal;font-size:32px;line-height:1.39999998;font-family:'Press Start 2P';-inkscape-font-specification:'Press Start 2P'"
         sodipodi:role="line">please.</tspan></text>
    <text
       id="text4953"
       y="2079.8193"
       x="862.06146"
       style="font-style:normal;font-variant:normal;font-weight:normal;font-stretch:normal;line-height:0%;font-family:Lavi;-inkscape-font-specification:Lavi;text-align:center;letter-spacing:0px;word-spacing:0px;text-anchor:middle;fill:#000000;fill-opacity:1;stroke:none"
       xml:space="preserve"><tspan
         id="tspan4951"
         y="2079.8193"
         x="862.06146"
         style="font-style:normal;font-variant:normal;font-weight:normal;font-stretch:normal;font-size:32px;line-height:1.39999998;font-family:'Press Start 2P';-inkscape-font-specification:'Press Start 2P'"
         sodipodi:role="line">Hello,</tspan></text>
    <text
       id="text4963"
       y="2171.5"
       x="916.5"
       style="font-style:normal;font-variant:normal;font-weight:normal;font-stretch:normal;line-height:0%;font-family:Lavi;-inkscape-font-specification:Lavi;text-align:center;letter-spacing:0px;word-spacing:0px;text-anchor:middle;fill:#000000;fill-opacity:1;stroke:none"
       xml:space="preserve"><tspan
         id="tspan4955"
         y="2171.5"
         x="922.125"
         style="font-style:normal;font-variant:normal;font-weight:normal;font-stretch:normal;font-size:32px;line-height:1.39999998;font-family:'Press Start 2P';-inkscape-font-specification:'Press Start 2P'"
         sodipodi:role="line">are you </tspan><tspan
         id="tspan4957"
         y="2216.3"
         x="916.5"
         style="font-style:normal;font-variant:normal;font-weight:normal;font-stretch:normal;font-size:32px;line-height:1.39999998;font-family:'Press Start 2P';-inkscape-font-specification:'Press Start 2P'"
         sodipodi:role="line">planning an</tspan><tspan
         id="tspan4959"
         y="2261.1001"
         x="916.5"
         style="font-style:normal;font-variant:normal;font-weight:normal;font-stretch:normal;font-size:32px;line-height:1.39999998;font-family:'Press Start 2P';-inkscape-font-specification:'Press Start 2P'"
         sodipodi:role="line">assassination</tspan><tspan
         id="tspan4961"
         y="2305.8999"
         x="916.5"
         style="font-style:normal;font-variant:normal;font-weight:normal;font-stretch:normal;font-size:32px;line-height:1.39999998;font-family:'Press Start 2P';-inkscape-font-specification:'Press Start 2P'"
         sodipodi:role="line"> tonight?</tspan></text>
    <text
       transform="matrix(0.96049651,0,-0.32716292,1.0411282,0,0)"
       id="text4967"
       y="3328.6948"
       x="3583.2522"
       style="font-style:normal;font-variant:normal;font-weight:normal;font-stretch:normal;font-size:43.85733414px;line-height:0%;font-family:Lavi;-inkscape-font-specification:'Lavi, Normal';font-variant-ligatures:normal;font-variant-caps:normal;font-variant-numeric:normal;font-feature-settings:normal;text-align:end;letter-spacing:0px;word-spacing:0px;writing-mode:lr-tb;text-anchor:end;display:inline;fill:#241c1c;fill-opacity:1;stroke:#000000;stroke-width:0.82200003;stroke-miterlimit:4;stroke-dasharray:none;stroke-opacity:1"
       xml:space="preserve"><tspan
         style="font-style:normal;font-variant:normal;font-weight:normal;font-stretch:normal;font-size:43.85733414px;line-height:1.25;font-family:Lavi;-inkscape-font-specification:'Lavi, Normal';font-variant-ligatures:normal;font-variant-caps:normal;font-variant-numeric:normal;font-feature-settings:normal;text-align:end;writing-mode:lr-tb;text-anchor:end;stroke-width:0.82200003"
         y="3328.6948"
         x="3583.2522"
         id="tspan4965"
         sodipodi:role="line">ITUTULOY...</tspan></text>
    <text
       transform="matrix(1.1613654,-0.69321719,0.44569052,1.6077045,-156.83333,-1430.875)"
       id="text4971"
       y="1584.5073"
       x="787.65729"
       style="font-style:normal;font-variant:normal;font-weight:normal;font-stretch:normal;line-height:0%;font-family:Lavi;-inkscape-font-specification:Lavi;letter-spacing:0px;word-spacing:0px;fill:#000000;fill-opacity:1;stroke:#000000;stroke-width:0;stroke-linecap:square;stroke-miterlimit:4;stroke-dasharray:none;stroke-opacity:1;filter:url(#filter4375-4-1-1-1-9-3)"
       xml:space="preserve"><tspan
         style="font-style:normal;font-variant:normal;font-weight:normal;font-stretch:normal;font-size:70px;line-height:1.25;font-family:ComicSpice;-inkscape-font-specification:ComicSpice;fill:#ffffff;stroke-width:0;stroke-linecap:square;stroke-miterlimit:4;stroke-dasharray:none"
         y="1584.5073"
         x="787.65729"
         id="tspan4969"
         sodipodi:role="line">B</tspan></text>
    <text
       transform="matrix(1.0231831,-0.61448535,0.39266108,1.4251102,81.385407,-1213.691)"
       id="text4975"
       y="1584.5073"
       x="787.65729"
       style="font-style:normal;font-variant:normal;font-weight:normal;font-stretch:normal;line-height:0%;font-family:Lavi;-inkscape-font-specification:Lavi;letter-spacing:0px;word-spacing:0px;fill:#000000;fill-opacity:1;stroke:#000000;stroke-width:0;stroke-linecap:square;stroke-miterlimit:4;stroke-dasharray:none;stroke-opacity:1;filter:url(#filter4375-4-1-1-1-9-30)"
       xml:space="preserve"><tspan
         style="font-style:normal;font-variant:normal;font-weight:normal;font-stretch:normal;font-size:70px;line-height:1.25;font-family:ComicSpice;-inkscape-font-specification:ComicSpice;fill:#ffffff;stroke-width:0;stroke-linecap:square;stroke-miterlimit:4;stroke-dasharray:none"
         y="1584.5073"
         x="787.65729"
         id="tspan4973"
         sodipodi:role="line">Z</tspan></text>
    <text
       transform="matrix(0.96706972,-0.54046136,0.32409822,1.325527,277.0066,-1122.6108)"
       id="text4979"
       y="1584.5073"
       x="787.65729"
       style="font-style:normal;font-variant:normal;font-weight:normal;font-stretch:normal;line-height:0%;font-family:Lavi;-inkscape-font-specification:Lavi;letter-spacing:0px;word-spacing:0px;fill:#000000;fill-opacity:1;stroke:#000000;stroke-width:0;stroke-linecap:square;stroke-miterlimit:4;stroke-dasharray:none;stroke-opacity:1;filter:url(#filter4375-4-1-1-1-9-30-2)"
       xml:space="preserve"><tspan
         style="font-style:normal;font-variant:normal;font-weight:normal;font-stretch:normal;font-size:70px;line-height:1.25;font-family:ComicSpice;-inkscape-font-specification:ComicSpice;fill:#ffffff;stroke-width:0;stroke-linecap:square;stroke-miterlimit:4;stroke-dasharray:none"
         y="1584.5073"
         x="787.65729"
         id="tspan4977"
         sodipodi:role="line">Z</tspan></text>
    <text
       transform="matrix(0.79978398,-0.46065546,0.26803503,1.1297963,538.53638,-881.29232)"
       id="text4983"
       y="1584.5073"
       x="787.65729"
       style="font-style:normal;font-variant:normal;font-weight:normal;font-stretch:normal;line-height:0%;font-family:Lavi;-inkscape-font-specification:Lavi;letter-spacing:0px;word-spacing:0px;fill:#000000;fill-opacity:1;stroke:#000000;stroke-width:0;stroke-linecap:square;stroke-miterlimit:4;stroke-dasharray:none;stroke-opacity:1;filter:url(#filter4375-4-1-1-1-9-30-2-7)"
       xml:space="preserve"><tspan
         style="font-style:normal;font-variant:normal;font-weight:normal;font-stretch:normal;font-size:70px;line-height:1.25;font-family:ComicSpice;-inkscape-font-specification:ComicSpice;fill:#ffffff;stroke-width:0;stroke-linecap:square;stroke-miterlimit:4;stroke-dasharray:none"
         y="1584.5073"
         x="787.65729"
         id="tspan4981"
         sodipodi:role="line">Z</tspan></text>
    <text
       transform="matrix(1.2353491,-0.45667938,0.06126805,1.7149541,559.73632,-1837.3338)"
       id="text4987"
       y="1584.5073"
       x="787.65729"
       style="font-style:normal;font-variant:normal;font-weight:normal;font-stretch:normal;line-height:0%;font-family:Lavi;-inkscape-font-specification:Lavi;letter-spacing:0px;word-spacing:0px;fill:#000000;fill-opacity:1;stroke:#000000;stroke-width:0;stroke-linecap:square;stroke-miterlimit:4;stroke-dasharray:none;stroke-opacity:1;filter:url(#filter4375-4-1-1-1-9-30-2-7-6)"
       xml:space="preserve"><tspan
         style="font-style:normal;font-variant:normal;font-weight:normal;font-stretch:normal;font-size:70px;line-height:1.25;font-family:ComicSpice;-inkscape-font-specification:ComicSpice;fill:#ffffff;stroke-width:0;stroke-linecap:square;stroke-miterlimit:4;stroke-dasharray:none"
         y="1584.5073"
         x="787.65729"
         id="tspan4985"
         sodipodi:role="line">!</tspan></text>
    <text
       transform="matrix(0.43806884,-0.0642896,-0.00211348,0.65091426,1449.4618,-231.63771)"
       id="text4995"
       y="1085.962"
       x="1174.0292"
       style="font-style:normal;font-variant:normal;font-weight:normal;font-stretch:normal;line-height:0%;font-family:Lavi;-inkscape-font-specification:Lavi;text-align:center;letter-spacing:0px;word-spacing:0px;text-anchor:middle;display:inline;opacity:0.6;fill:#c9bbb2;fill-opacity:1;stroke:#c9bbb2;stroke-width:2.68153024;stroke-miterlimit:4;stroke-dasharray:none;stroke-opacity:1;filter:url(#filter4210)"
       xml:space="preserve"><tspan
         id="tspan4989"
         y="1085.962"
         x="1174.0292"
         style="font-style:normal;font-variant:normal;font-weight:normal;font-stretch:normal;font-size:45.00812149px;line-height:1;font-family:Fondamento;-inkscape-font-specification:Fondamento;fill:#c9bbb2;fill-opacity:1;stroke:#c9bbb2;stroke-width:2.68153024;stroke-miterlimit:4;stroke-dasharray:none;stroke-opacity:1"
         sodipodi:role="line">HER</tspan><tspan
         id="tspan4991"
         y="1130.9702"
         x="1174.0292"
         style="font-style:normal;font-variant:normal;font-weight:normal;font-stretch:normal;font-size:45.00812149px;line-height:1;font-family:Fondamento;-inkscape-font-specification:Fondamento;fill:#c9bbb2;fill-opacity:1;stroke:#c9bbb2;stroke-width:2.68153024;stroke-miterlimit:4;stroke-dasharray:none;stroke-opacity:1"
         sodipodi:role="line">MAJESTY'S</tspan><tspan
         id="tspan4993"
         y="1175.9783"
         x="1174.0292"
         style="font-style:normal;font-variant:normal;font-weight:normal;font-stretch:normal;font-size:45.00812149px;line-height:1;font-family:Fondamento;-inkscape-font-specification:Fondamento;fill:#c9bbb2;fill-opacity:1;stroke:#c9bbb2;stroke-width:2.68153024;stroke-miterlimit:4;stroke-dasharray:none;stroke-opacity:1"
         sodipodi:role="line">CORONATION</tspan></text>
    <text
       transform="matrix(0.51278087,-0.03586668,-0.01317943,0.74688801,1369.9321,-59.005938)"
       id="text5001"
       y="1085.962"
       x="1174.0292"
       style="font-style:normal;font-variant:normal;font-weight:normal;font-stretch:normal;line-height:0%;font-family:Lavi;-inkscape-font-specification:Lavi;text-align:center;letter-spacing:0px;word-spacing:0px;text-anchor:middle;display:inline;opacity:0.6;fill:#fff6d5;fill-opacity:1;stroke:#fff6d5;stroke-width:2.70249391;stroke-miterlimit:4;stroke-dasharray:none;filter:url(#filter4210-3)"
       xml:space="preserve"><tspan
         id="tspan4997"
         y="1085.962"
         x="1174.0292"
         style="font-style:normal;font-variant:normal;font-weight:normal;font-stretch:normal;font-size:45.00812149px;line-height:1;font-family:Fondamento;-inkscape-font-specification:Fondamento;fill:#fff6d5;stroke:#fff6d5;stroke-width:2.70249391;stroke-miterlimit:4;stroke-dasharray:none;stroke-opacity:1"
         sodipodi:role="line">QUEEN</tspan><tspan
         id="tspan4999"
         y="1130.9702"
         x="1174.0292"
         style="font-style:normal;font-variant:normal;font-weight:normal;font-stretch:normal;font-size:45.00812149px;line-height:1;font-family:Fondamento;-inkscape-font-specification:Fondamento;fill:#fff6d5;stroke:#fff6d5;stroke-width:2.70249391;stroke-miterlimit:4;stroke-dasharray:none;stroke-opacity:1"
         sodipodi:role="line">CORIANDER</tspan></text>
  </g>
</svg>
