<?xml version="1.0" encoding="UTF-8" standalone="no"?>
<!-- Created with Inkscape (http://www.inkscape.org/) -->

<svg
   id="svg2"
   version="1.1"
   inkscape:version="1.1.1 (3bf5ae0d25, 2021-09-20, custom)"
   width="2481"
   height="3503"
   sodipodi:docname="E36P15.svg"
   xmlns:inkscape="http://www.inkscape.org/namespaces/inkscape"
   xmlns:sodipodi="http://sodipodi.sourceforge.net/DTD/sodipodi-0.dtd"
   xmlns:xlink="http://www.w3.org/1999/xlink"
   xmlns="http://www.w3.org/2000/svg"
   xmlns:svg="http://www.w3.org/2000/svg"
   xmlns:rdf="http://www.w3.org/1999/02/22-rdf-syntax-ns#"
   xmlns:cc="http://creativecommons.org/ns#"
   xmlns:dc="http://purl.org/dc/elements/1.1/">
  <metadata
     id="metadata8">
    <rdf:RDF>
      <cc:Work
         rdf:about="">
        <dc:format>image/svg+xml</dc:format>
        <dc:type
           rdf:resource="http://purl.org/dc/dcmitype/StillImage" />
      </cc:Work>
    </rdf:RDF>
  </metadata>
  <defs
     id="defs6" />
  <sodipodi:namedview
     pagecolor="#1e1e1e"
     bordercolor="#111111"
     borderopacity="1"
     objecttolerance="10"
     gridtolerance="10"
     guidetolerance="10"
     inkscape:pageopacity="0"
     inkscape:pageshadow="2"
     inkscape:window-width="1888"
     inkscape:window-height="1146"
     id="namedview4"
     showgrid="false"
     inkscape:zoom="0.47584683"
     inkscape:cx="1231.4887"
     inkscape:cy="1879.8066"
     inkscape:window-x="32"
     inkscape:window-y="0"
     inkscape:window-maximized="1"
     inkscape:current-layer="layer1"
     inkscape:pagecheckerboard="0"
     inkscape:snap-global="false" />
  <g
     inkscape:groupmode="layer"
     id="layer2"
     inkscape:label="artwork"
     sodipodi:insensitive="true">
    <image
       xlink:href="../gfx_Pepper-and-Carrot_by-David-Revoy_E36P15.png"
       y="0"
       x="0"
       id="image10"
       height="3503"
       width="2481" />
  </g>
  <g
     inkscape:groupmode="layer"
     id="layer3"
     inkscape:label="speechbubbles"
     style="display:inline">
    <path
       sodipodi:nodetypes="zssssz"
       inkscape:connector-curvature="0"
       id="path4040-4-9-3"
       d="m 307.58152,1095.7409 c -31.05024,0.4967 -62.40264,7.4519 -90.03715,23.2978 -13.92859,8.7858 -26.06038,22.0107 -31.84382,38.6421 -5.34489,19.2331 -5.8887,40.4924 0.58417,59.4854 7.39855,20.1699 24.23977,35.5594 43.46212,40.759 17.6827,5.1853 36.12768,2.8076 54.15703,2.1517 14.80492,-0.7229 29.65794,-1.0122 44.44371,0.2808 30.06819,1.2074 60.17835,-0.7076 90.07955,-4.1379 13.5836,-1.9898 27.38006,-6.7775 37.72513,-16.9816 11.90494,-11.6681 17.87683,-29.1673 18.72445,-46.3471 1.02434,-15.5661 -1.21533,-31.9952 -9.26363,-45.1903 -7.32458,-11.8157 -18.58176,-19.5883 -29.29486,-27.2862 -15.77207,-11.0037 -33.60848,-18.9852 -52.33794,-20.9941 -24.09389,-3.3734 -48.43162,-3.4548 -72.68179,-3.6856 -1.23898,0 -2.47797,0 -3.71697,0.01 z"
       style="color:#000000;display:inline;overflow:visible;visibility:visible;fill:#ffffff;fill-opacity:1;fill-rule:nonzero;stroke:none;stroke-width:0.885422px;marker:none;enable-background:accumulate" />
    <path
       sodipodi:nodetypes="zssssz"
       inkscape:connector-curvature="0"
       id="path4040-4-9-3-0"
       d="m 1069.6476,1090.0718 c -53.9258,0.6452 -108.85823,5.7225 -159.61585,27.2362 -16.80385,7.1074 -32.58782,21.0634 -37.63698,40.8274 -6.14304,23.5475 3.35097,49.2855 19.62456,64.9858 14.44118,14.2208 33.40189,20.8677 51.78215,26.1281 33.62519,8.7248 68.33022,10.0899 102.70612,11.6213 73.9486,2.5795 147.8854,-2.5414 221.5955,-8.6252 30.7224,-2.8393 62.456,-9.1366 88.6271,-28.2133 23.5829,-19.2428 32.0314,-59.0686 16.2263,-86.9357 -10.767,-19.0725 -29.9827,-30.425 -49.5919,-34.4716 -31.3426,-7.0561 -63.464,-7.8082 -95.3192,-9.3 -38.4243,-1.5299 -76.8742,-2.1286 -115.3149,-2.9692 -14.3598,-0.2288 -28.7214,-0.3939 -43.0829,-0.2838 z"
       style="color:#000000;display:inline;overflow:visible;visibility:visible;fill:#ffffff;fill-opacity:1;fill-rule:nonzero;stroke:none;stroke-width:1.22935px;marker:none;enable-background:accumulate" />
    <path
       sodipodi:nodetypes="zssssz"
       inkscape:connector-curvature="0"
       id="path4040-4-9-3-0-9"
       d="m 1506.7015,1131.2738 c -43.8418,0.906 -88.5288,7.6078 -126.832,25.0706 -22.7144,11.0788 -35.0051,32.4039 -34.9005,53.0364 -1.1291,25.0185 10.9462,51.1319 35.7853,67.3774 22.2129,14.1571 50.6347,20.1782 78.3368,23.7986 37.8431,4.6733 76.2337,5.7211 114.4819,6.0001 49.5338,-0.041 99.263,-2.6589 147.8842,-10.3626 28.2717,-5.612 55.8841,-17.0821 73.2923,-35.9584 18.9228,-20.9651 24.5129,-49.9364 10.6471,-73.6148 -11.9271,-20.9757 -37.7313,-36.3168 -66.3286,-40.5148 -41.708,-8.5157 -84.9938,-9.3675 -127.7427,-11.7287 -34.8162,-1.9079 -69.7143,-3.2564 -104.6238,-3.1038 z"
       style="color:#000000;display:inline;overflow:visible;visibility:visible;fill:#ffffff;fill-opacity:1;fill-rule:nonzero;stroke:none;stroke-width:1.19075px;marker:none;enable-background:accumulate" />
    <path
       style="fill:#ffffff;fill-rule:evenodd;stroke:none;stroke-width:0.974021px;stroke-linecap:butt;stroke-linejoin:miter;stroke-opacity:1"
       d="m 301.33843,1240.1318 c -39.17781,0.8784 -78.57526,-0.2682 -117.50125,4.2836 -12.39729,1.6342 -24.31718,5.7546 -34.35552,12.1291 -19.59662,12.0615 -32.6203,31.2571 -35.35412,51.5708 -3.06796,17.1735 -2.77027,34.9901 2.76346,51.7912 5.21242,13.996 16.86281,26.3832 32.47538,33.0376 17.44561,7.9949 37.19574,11.1675 56.51928,14.1763 37.32015,5.3329 75.32663,5.8753 113.0818,5.1205 26.90106,-0.7154 53.6641,-3.3031 80.53205,-4.5014 24.74114,-1.3479 49.76308,-3.6042 73.18238,-10.8702 11.2746,-3.2988 23.18864,-7.1546 30.90231,-15.2347 8.70601,-9.4543 11.12985,-21.7177 12.27814,-33.3419 1.76024,-20.0022 -0.53424,-40.3548 -7.57932,-59.5404 -2.92627,-7.5667 -6.50691,-15.1191 -12.13817,-21.5589 -7.81991,-7.8136 -19.4646,-11.842 -30.90889,-14.389 -28.04662,-7.8205 -57.84814,-8.5722 -87.08823,-9.7567 -25.59124,-1.1469 -51.15728,-3.1814 -76.8093,-2.9159 z"
       id="path4430-0"
       inkscape:connector-curvature="0"
       sodipodi:nodetypes="cccc" />
    <path
       style="fill:#ffffff;fill-rule:evenodd;stroke:none;stroke-width:0.914223px;stroke-linecap:butt;stroke-linejoin:miter;stroke-opacity:1"
       d="m 486.57288,1577.4452 c 28.81918,-66.6247 20.74358,-99.1008 19.77331,-112.4088 -16.52174,10.815 -24.86604,14.1576 -24.65914,13.2895 3.00972,-12.6265 -35.44872,-115.6984 -44.45394,-112.059 l 18.96701,-39.5995 c 16.57291,47.9099 30.322,74.2909 38.66556,123.6461 0,0 15.80065,-9.8432 23.58886,-12.9706 2.56416,11.9254 27.41455,66.0411 -31.88166,140.1023 z"
       id="path891"
       inkscape:connector-curvature="0"
       sodipodi:nodetypes="ccsccccc" />
    <path
       id="path889"
       style="fill:#ffffff;fill-rule:evenodd;stroke:none;stroke-width:0.97878px;stroke-linecap:butt;stroke-linejoin:miter;stroke-opacity:1"
       d="m 2283.9781,1086.6983 c -49.1087,0.191 -98.2206,0.2192 -147.3306,0.3415 -42.4463,0.078 -84.8926,0.1542 -127.339,0.2312 -7.3011,5.0831 -12.5927,12.2326 -18.0167,19.0181 -17.2657,23.4034 -26.6704,51.1909 -32.362,79.0702 -5.9926,30.3282 -7.2641,61.8654 -0.5503,92.1868 3.7798,15.9255 11.3506,31.6004 24.4263,42.4814 11.5885,9.9648 26.4582,15.8841 41.6917,18.4683 21.2617,4.5432 42.9688,6.74 64.6081,8.8836 35.2993,2.6405 70.7215,3.07 106.0908,4.299 27.8629,-0.085 55.234,-6.0122 82.0929,-12.5734 15.0334,-3.9737 30.0132,-8.9806 43.1747,-17.128 14.0367,-10.2197 22.193,-26.297 25.3558,-42.6174 8.3337,-34.0834 10.3529,-69.7818 3.9393,-104.3281 -3.5449,-20.1472 -9.3351,-40.1837 -19.5681,-58.218 -6.8392,-11.461 -16.4041,-22.2887 -29.5317,-27.2593 -5.2999,-1.9657 -10.997,-2.9434 -16.6812,-2.8559 z" />
    <path
       style="display:inline;fill:#ffffff;stroke:none;stroke-width:0.912419"
       d="m 2022.9691,1509.2828 c -33.153,-32.8759 -38.8858,-123.5948 0.3904,-163.0573 23.1728,-23.2827 35.5381,-37.608 35.5381,-37.608 l -25.8875,-19.1211 c -94.4367,86.4289 -50.0669,186.6132 -10.041,219.7864 z"
       id="path3063-1-0"
       inkscape:connector-curvature="0"
       sodipodi:nodetypes="csccc" />
    <path
       style="fill:#ffffff;fill-rule:evenodd;stroke:none;stroke-width:0.837038px;stroke-linecap:butt;stroke-linejoin:miter;stroke-opacity:1"
       d="m 1443.9833,2276.9601 c -28.453,0.7209 -57.2865,4.937 -84.1672,19.2532 -12.7875,7.0214 -25.0184,18.3438 -32.5287,35.3158 -7.2463,22.3935 -6.7059,50.2724 2.4842,71.3356 5.0617,11.7074 12.6846,20.6304 21.0891,26.8936 11.4914,8.7274 24.1484,13.6364 36.8072,17.2869 21.0859,5.6417 42.5998,6.802 63.9957,6.7593 28.0748,-0.385 56.1586,-3.784 83.8216,-10.8037 17.6303,-5.4436 35.5042,-12.741 50.444,-27.9402 7.4258,-10.8078 10.4709,-26.0628 12.3426,-40.6829 3.0686,-23.8316 -3.2785,-50.3014 -16.9416,-64.7079 -9.6684,-9.7548 -21.2561,-14.134 -32.5037,-18.3647 -18.6541,-6.2869 -37.7705,-8.7888 -56.7786,-11.6675 -15.9814,-1.983 -32.027,-2.7925 -48.0646,-2.6775 z"
       id="path4430-0-7"
       inkscape:connector-curvature="0"
       sodipodi:nodetypes="cccc" />
    <path
       style="display:inline;fill:#ffffff;fill-rule:evenodd;stroke:none;stroke-width:0.86137px;stroke-linecap:butt;stroke-linejoin:miter;stroke-opacity:1"
       d="m 1113.5821,2911.097 c -37.7543,1.3946 -76.5598,8.1038 -108.5817,24.8569 -24.08833,13.6091 -35.80909,37.5782 -33.46507,59.7582 0.93105,22.2704 14.76069,44.5358 39.44347,56.3873 23.3884,11.4398 51.0278,16.6276 78.4005,19.7193 40.2679,4.2026 81.744,5.9098 122.1298,-0.7233 24.7712,-4.2368 49.6527,-11.1201 69.6884,-23.6991 12.6478,-7.8526 22.35,-18.5318 26.8665,-30.5061 8.7761,-20.9579 8.6606,-44.391 -2.9493,-64.2618 -9.7127,-15.2862 -29.0646,-26.109 -50.5822,-29.84 -31.3289,-7.075 -64.1977,-9.2587 -96.7568,-11.3972 -14.694,-0.6482 -29.448,-0.7613 -44.1936,-0.2942 z"
       id="path4430-0-7-3"
       inkscape:connector-curvature="0"
       sodipodi:nodetypes="cccc" />
    <path
       style="color:#000000;display:inline;overflow:visible;visibility:visible;fill:#ffffff;fill-opacity:1;fill-rule:nonzero;stroke:none;stroke-width:0.933879px;marker:none;enable-background:accumulate"
       d="m 1510.6073,2424.7097 c 95.8683,30.7313 27.8183,159.8015 -2.9543,189.2123 50.4373,-43.5579 100.0481,-123.5802 33.0541,-217.2104 -31.2156,-43.6267 -19.8493,18.5629 -19.8493,18.5629 z"
       id="path4035-4"
       inkscape:connector-curvature="0"
       sodipodi:nodetypes="ccscc" />
    <path
       style="color:#000000;display:inline;overflow:visible;visibility:visible;fill:#ffffff;fill-opacity:1;fill-rule:nonzero;stroke:none;stroke-width:1.27064px;marker:none;enable-background:accumulate"
       d="m 1057.061,2128.2838 c -57.86188,1.1386 -115.86399,1.5049 -173.27347,5.6148 -33.907,2.8715 -68.14872,8.5107 -97.18452,27.2658 -20.53751,13.7513 -38.46125,35.1237 -45.18535,64.5081 -4.17428,18.8453 -1.45806,41.0494 7.3059,60.0686 10.33868,23.3748 28.89228,42.0236 48.82437,47.9176 26.10752,9.7642 52.4671,11.8924 78.68587,17.6247 83.2494,13.7529 165.1492,9.8 246.3904,5.1756 31.5807,-2.0289 63.4933,-4.5011 92.7606,-16.0431 20.2663,-8.5577 39.3947,-23.552 48.6735,-48.1782 12.6527,-35.1006 2.2111,-85.8121 -25.5226,-114.2118 -21.1011,-21.4432 -46.8294,-30.3328 -71.3416,-37.1903 -36.8801,-9.7175 -73.8146,-12.8158 -110.1331,-12.5518 z"
       id="path4546-6-5-5"
       inkscape:connector-curvature="0"
       sodipodi:nodetypes="cssssc" />
    <path
       style="color:#000000;display:inline;overflow:visible;visibility:visible;fill:#ffffff;fill-opacity:1;fill-rule:nonzero;stroke:none;stroke-width:0.511885px;marker:none;enable-background:accumulate"
       d="m 1198.7358,2292.3553 c -58.4517,90.8359 85.6046,288.3485 132.7428,310.3129 -51.7175,-3.6213 -215.024,-222.6528 -167.3541,-289.5926 16.3894,-23.014 93.063,-111.5562 34.6113,-20.7203 z"
       id="path4480-6"
       inkscape:connector-curvature="0"
       sodipodi:nodetypes="zcsz" />
    <path
       style="fill:#ffffff;stroke:none;stroke-width:1.22863"
       d="m 1132.3337,2836.1319 c 6.9881,13.1882 16.9513,18.3851 13.6567,35.0595 -18.6808,32.3624 -3.398,71.476 20.2436,84.4218 3.4934,10.3144 -10.2432,41.0229 -10.2432,41.0229 -31.6711,-50.3948 -47.4892,-83.1315 -25.5958,-126.3842 3.8504,-6.927 -8.3872,-14.7062 -12.2361,-26.3855 -3.8491,-11.6793 -4.7084,-20.1125 -0.097,-40.9935 3.9527,-17.898 39.9891,-41.3608 39.9891,-41.3608 -27.433,31.2471 -35.5926,52.7621 -25.7173,74.6198 z"
       id="path3023-4"
       inkscape:connector-curvature="0"
       sodipodi:nodetypes="cccccsscc" />
    <path
       style="color:#000000;display:inline;overflow:visible;visibility:visible;fill:#ffffff;fill-opacity:1;fill-rule:nonzero;stroke:none;stroke-width:1.24837px;marker:none;enable-background:accumulate"
       d="m 1380.3027,1450.8419 c 65.8497,-28.0462 78.4621,-86.1375 90.2102,-126.6975 16.6063,-57.3342 1.8435,-63.2522 1.8435,-63.2522 l 29.8886,-4.9473 c 11.5377,-2.8141 4.798,161.6465 -121.9423,194.897 z"
       id="path3072-1-3"
       inkscape:connector-curvature="0"
       sodipodi:nodetypes="csccc" />
  </g>
  <g
     inkscape:groupmode="layer"
     id="layer1"
     inkscape:label="txt"
     style="display:inline">
    <text
       id="text4246-4-2-7"
       y="1168.6454"
       x="326.61557"
       style="font-style:normal;font-variant:normal;font-weight:normal;font-stretch:normal;line-height:0%;font-family:Lavi;-inkscape-font-specification:Lavi;text-align:center;letter-spacing:0px;word-spacing:0px;text-anchor:middle;fill:#000000;fill-opacity:1;stroke:none"
       xml:space="preserve"><tspan
         y="1168.6454"
         x="326.61557"
         style="font-size:45px;line-height:1.25"
         sodipodi:role="line"
         id="tspan895">Hoh, kaj</tspan><tspan
         y="1224.8954"
         x="326.61557"
         style="font-size:45px;line-height:1.25"
         sodipodi:role="line"
         id="tspan25842">je pa to?</tspan></text>
    <text
       id="text4246-4-2-7-3"
       y="1315.0507"
       x="326.63736"
       style="font-style:normal;font-variant:normal;font-weight:normal;font-stretch:normal;line-height:0%;font-family:Lavi;-inkscape-font-specification:Lavi;text-align:center;letter-spacing:0px;word-spacing:0px;text-anchor:middle;fill:#000000;fill-opacity:1;stroke:none"
       xml:space="preserve"><tspan
         y="1315.0507"
         x="326.63736"
         style="font-size:45px;line-height:1.25"
         sodipodi:role="line"
         id="tspan899">Nekateri se celo </tspan><tspan
         y="1371.3007"
         x="326.63736"
         style="font-size:45px;line-height:1.25"
         sodipodi:role="line"
         id="tspan904"><tspan
           style="font-weight:bold"
           id="tspan906">poljubljajo...?!</tspan></tspan></text>
    <text
       id="text4246-4-2-7-3-6"
       y="1162.8011"
       x="1130.8794"
       style="font-style:normal;font-variant:normal;font-weight:normal;font-stretch:normal;line-height:0%;font-family:Lavi;-inkscape-font-specification:Lavi;text-align:center;letter-spacing:0px;word-spacing:0px;text-anchor:middle;fill:#000000;fill-opacity:1;stroke:none"
       xml:space="preserve"><tspan
         y="1162.8011"
         x="1130.8794"
         style="font-size:45px;line-height:1.25"
         sodipodi:role="line"
         id="tspan1242">Ehm... To je pa kar</tspan><tspan
         y="1219.0511"
         x="1130.8794"
         style="font-size:45px;line-height:1.25"
         sodipodi:role="line"
         id="tspan17166">veliko novih parov!</tspan></text>
    <text
       id="text4246-4-2-7-3-6-3"
       y="1208.4537"
       x="1589.0795"
       style="font-style:normal;font-variant:normal;font-weight:normal;font-stretch:normal;line-height:0%;font-family:Lavi;-inkscape-font-specification:Lavi;text-align:center;letter-spacing:0px;word-spacing:0px;text-anchor:middle;fill:#000000;fill-opacity:1;stroke:none"
       xml:space="preserve"><tspan
         y="1208.4537"
         x="1589.0795"
         style="font-size:45px;line-height:1.25"
         sodipodi:role="line"
         id="tspan44730">Je bilo to namerno, </tspan><tspan
         y="1264.7037"
         x="1589.0795"
         style="font-size:45px;line-height:1.25"
         sodipodi:role="line"
         id="tspan1516">Pepper?</tspan></text>
    <text
       id="text4246-4-2-7-3-6-3-6"
       y="1144.2382"
       x="2152.9924"
       style="font-style:normal;font-variant:normal;font-weight:normal;font-stretch:normal;line-height:0%;font-family:Lavi;-inkscape-font-specification:Lavi;text-align:center;letter-spacing:0px;word-spacing:0px;text-anchor:middle;fill:#000000;fill-opacity:1;stroke:none"
       xml:space="preserve"><tspan
         y="1144.2382"
         x="2152.9924"
         style="font-size:45px;line-height:1.25"
         sodipodi:role="line"
         id="tspan4047">Oh, ne! Mislim</tspan><tspan
         y="1200.4882"
         x="2152.9924"
         style="font-size:45px;line-height:1.25"
         sodipodi:role="line"
         id="tspan35485">da je zmajeva Rea</tspan><tspan
         y="1256.7382"
         x="2152.9924"
         style="font-size:45px;line-height:1.25"
         sodipodi:role="line"
         id="tspan35487">ojačala ljubezen v</tspan><tspan
         y="1312.9882"
         x="2152.9924"
         style="font-size:45px;line-height:1.25"
         sodipodi:role="line"
         id="tspan37885">mojem uroku.</tspan></text>
    <text
       id="text4246-4-2-7-3-6-3-6-1"
       y="2205.0718"
       x="1008.8738"
       style="font-style:normal;font-variant:normal;font-weight:normal;font-stretch:normal;line-height:0%;font-family:Lavi;-inkscape-font-specification:Lavi;text-align:center;letter-spacing:0px;word-spacing:0px;text-anchor:middle;fill:#000000;fill-opacity:1;stroke:none"
       xml:space="preserve"><tspan
         y="2205.0718"
         x="1008.8738"
         style="font-size:45px;line-height:1.25"
         sodipodi:role="line"
         id="tspan61997">Haha, ta bitka se bo</tspan><tspan
         y="2261.3218"
         x="1008.8738"
         style="font-size:45px;line-height:1.25"
         sodipodi:role="line"
         id="tspan68449">zagotovo zapisala v</tspan><tspan
         y="2317.5718"
         x="1008.8738"
         style="font-size:45px;line-height:1.25"
         sodipodi:role="line"
         id="tspan65093">zgodovinske knjige.</tspan></text>
    <text
       id="text4246-4-2-7-3-6-3-6-1-3"
       y="2346.5227"
       x="1457.3495"
       style="font-style:normal;font-variant:normal;font-weight:normal;font-stretch:normal;line-height:0%;font-family:Lavi;-inkscape-font-specification:Lavi;text-align:center;letter-spacing:0px;word-spacing:0px;text-anchor:middle;fill:#000000;fill-opacity:1;stroke:none"
       xml:space="preserve"><tspan
         y="2346.5227"
         x="1457.3495"
         style="font-size:45px;line-height:1.25"
         sodipodi:role="line"
         id="tspan83228-9">Hee-hee,</tspan></text>
    <text
       id="text4246-4-2-7-3-6-3-6-1-3-2"
       y="2401.8772"
       x="1461.7375"
       style="font-style:normal;font-variant:normal;font-weight:normal;font-stretch:normal;line-height:0%;font-family:Lavi;-inkscape-font-specification:Lavi;text-align:center;letter-spacing:0px;word-spacing:0px;text-anchor:middle;fill:#000000;fill-opacity:1;stroke:none"
       xml:space="preserve"><tspan
         y="2401.8772"
         x="1461.7375"
         style="font-size:45px;line-height:1.25"
         sodipodi:role="line"
         id="tspan83228-9-2">zagotovo!</tspan></text>
    <text
       id="text4246-4-2-7-3-6-3-6-1-3-2-8"
       y="2984.354"
       x="1141.8977"
       style="font-style:normal;font-variant:normal;font-weight:normal;font-stretch:normal;font-size:42px;line-height:0%;font-family:Lavi;-inkscape-font-specification:Lavi;text-align:center;letter-spacing:0px;word-spacing:0px;text-anchor:middle;fill:#000000;fill-opacity:1;stroke:none"
       xml:space="preserve"><tspan
         y="2984.354"
         x="1141.8977"
         style="font-size:42px;line-height:1.25"
         sodipodi:role="line"
         id="tspan4500">Ooohh, kakšna</tspan><tspan
         y="3036.854"
         x="1141.8977"
         style="font-size:42px;line-height:1.25"
         sodipodi:role="line"
         id="tspan50763">sramota!</tspan></text>
    <text
       transform="matrix(0.85852879,0,-0.29243083,1.1647833,0,0)"
       id="text4213-7"
       y="2982.4719"
       x="2454.0139"
       style="font-style:normal;font-variant:normal;font-weight:normal;font-stretch:normal;font-size:10.7631px;line-height:0%;font-family:Lavi;-inkscape-font-specification:Lavi;text-align:center;letter-spacing:0px;word-spacing:0px;text-anchor:middle;display:inline;fill:#d97041;fill-opacity:1;stroke:#000000;stroke-width:0;stroke-miterlimit:4;stroke-dasharray:none;stroke-opacity:1"
       xml:space="preserve"><tspan
         style="font-style:normal;font-variant:normal;font-weight:bold;font-stretch:normal;font-size:64.7408px;line-height:1.25;font-family:Lavi;-inkscape-font-specification:'Lavi Bold';fill:#d97041;fill-opacity:1;stroke:none;stroke-width:0;stroke-miterlimit:4;stroke-dasharray:none"
         y="2982.4719"
         x="2454.0139"
         id="tspan3562-5"
         sodipodi:role="line">- KONEC -</tspan></text>
  </g>
</svg>
