<?xml version="1.0" encoding="UTF-8" standalone="no"?>
<!-- Created with Inkscape (http://www.inkscape.org/) -->

<svg
   id="svg2"
   version="1.1"
   inkscape:version="1.1.1 (3bf5ae0d25, 2021-09-20, custom)"
   width="2481"
   height="3503"
   sodipodi:docname="E36P07.svg"
   xmlns:inkscape="http://www.inkscape.org/namespaces/inkscape"
   xmlns:sodipodi="http://sodipodi.sourceforge.net/DTD/sodipodi-0.dtd"
   xmlns:xlink="http://www.w3.org/1999/xlink"
   xmlns="http://www.w3.org/2000/svg"
   xmlns:svg="http://www.w3.org/2000/svg"
   xmlns:rdf="http://www.w3.org/1999/02/22-rdf-syntax-ns#"
   xmlns:cc="http://creativecommons.org/ns#"
   xmlns:dc="http://purl.org/dc/elements/1.1/">
  <metadata
     id="metadata8">
    <rdf:RDF>
      <cc:Work
         rdf:about="">
        <dc:format>image/svg+xml</dc:format>
        <dc:type
           rdf:resource="http://purl.org/dc/dcmitype/StillImage" />
        <dc:title />
      </cc:Work>
    </rdf:RDF>
  </metadata>
  <defs
     id="defs6" />
  <sodipodi:namedview
     pagecolor="#1e1e1e"
     bordercolor="#111111"
     borderopacity="1"
     objecttolerance="10"
     gridtolerance="10"
     guidetolerance="10"
     inkscape:pageopacity="0"
     inkscape:pageshadow="2"
     inkscape:window-width="1888"
     inkscape:window-height="1146"
     id="namedview4"
     showgrid="false"
     inkscape:zoom="0.52900001"
     inkscape:cx="1221.172"
     inkscape:cy="2566.1625"
     inkscape:window-x="32"
     inkscape:window-y="0"
     inkscape:window-maximized="1"
     inkscape:current-layer="layer1"
     inkscape:pagecheckerboard="0"
     inkscape:snap-global="false" />
  <g
     inkscape:groupmode="layer"
     id="layer2"
     inkscape:label="artwork"
     sodipodi:insensitive="true">
    <image
       xlink:href="../gfx_Pepper-and-Carrot_by-David-Revoy_E36P07.png"
       y="0"
       x="0"
       id="image10"
       height="3503"
       width="2481" />
  </g>
  <g
     inkscape:groupmode="layer"
     id="layer3"
     inkscape:label="speechbubbles"
     style="display:inline">
    <path
       style="color:#000000;display:inline;overflow:visible;visibility:visible;fill:#ffffff;fill-opacity:1;fill-rule:nonzero;stroke:none;stroke-width:0.857662px;marker:none;enable-background:accumulate"
       d="m 1367.3533,2318.8925 c -35.4286,0.8018 -70.864,6.8862 -104.683,18.9966 -24.5795,10.984 -42.0224,38.8377 -44.3568,68.5783 -2.1303,21.346 -0.6347,43.1288 3.7633,63.9932 3.7112,16.6421 9.3638,33.0511 18.3703,46.931 13.1095,16.3243 32.1692,23.4892 50.1967,29.9134 60.9443,21.3971 126.8393,19.7064 188.4191,2.6121 18.3095,-5.3432 36.7497,-11.3268 53.431,-21.6293 18.3472,-14.3699 28.25,-39.498 29.8348,-64.2687 2.8917,-22.7842 5.6248,-46.8885 -1.6223,-69.0233 -8.2846,-23.9069 -26.6411,-41.2985 -46.3494,-52.6729 -30.5242,-17.4751 -65.2356,-21.5732 -98.9372,-22.4745 -16.02,-0.4268 -32.0393,-1.1072 -48.0665,-0.9559 z"
       id="path4546-6-3"
       inkscape:connector-curvature="0"
       sodipodi:nodetypes="cssssssc" />
    <path
       style="color:#000000;display:inline;overflow:visible;visibility:visible;fill:#ffffff;fill-opacity:1;fill-rule:nonzero;stroke:none;stroke-width:1.01805px;marker:none;enable-background:accumulate"
       d="m 1277.0045,3127.8059 c -47.2648,0.9639 -95.1443,8.6094 -138.4064,27.9702 -18.2804,8.196 -34.6386,21.8541 -42.634,39.9088 -17.9111,36.6498 -13.7543,82.6404 12.2025,114.3752 10.3111,12.8137 27.1493,18.9132 43.5114,20.9452 35.166,6.2902 70.7364,10.9559 106.5786,12.1437 48.6755,2.2208 97.4596,1.303 146.1943,0.5023 25.5721,-0.6411 51.2907,-3.0542 76.0315,-9.8122 14.5735,-3.4363 30.0467,-7.1495 41.3683,-17.2692 12.9087,-12.2812 18.2011,-29.885 19.7168,-46.7417 3.1074,-32.7273 -5.7655,-66.9142 -27.1704,-92.6467 -13.7544,-16.0658 -33.334,-26.5607 -53.7937,-32.9059 -31.0351,-9.9668 -63.9469,-12.9684 -96.5012,-15.2065 -28.9747,-1.7027 -58.0581,-1.6825 -87.0977,-1.2632 z"
       id="path3330-0"
       inkscape:connector-curvature="0"
       sodipodi:nodetypes="zsssssz" />
    <path
       style="color:#000000;display:inline;overflow:visible;visibility:visible;fill:#ffffff;fill-opacity:1;fill-rule:nonzero;stroke:none;stroke-width:1px;marker:none;enable-background:accumulate"
       d="m 1415.0769,2516.9442 c 13.078,48.3092 -10.2417,132.5122 -94.8507,157.2445 61.4826,-42.714 67.542,-99.1938 51.107,-143.1634 -14.1878,-37.9586 -18.9368,-56.3084 -18.9368,-56.3084 z"
       id="path4440-3"
       inkscape:connector-curvature="0"
       sodipodi:nodetypes="ccscc" />
    <path
       style="color:#000000;display:inline;overflow:visible;visibility:visible;fill:#ffffff;fill-opacity:1;fill-rule:nonzero;stroke:none;stroke-width:1.05023px;marker:none;enable-background:accumulate"
       d="m 1880.5202,3245.1068 c 2.2085,-31.7629 12.1073,-31.4913 46.1902,-2.7607 -8.9937,-56.6463 36.7658,-59.3247 79.4131,-65.0705 -4.8912,-15.916 -11.6693,-38.2895 36.129,-53.5443 -45.7166,-2.1974 -47.656,-17.2553 -33.086,-32.6716 -34.0385,7.3462 -58.3861,14.6762 -18.1274,-19.5049 -37.997,19.4188 -60.9707,29.4286 -46.6405,-20.4338 -14.3883,6.7868 -58.5903,35.1678 -78.7695,-25.9462 -0.638,33.2488 -57.184,60.6052 -84.9534,17.683 14.0583,35.7635 3.0629,71.3915 -53.6329,48.0907 54.4907,39.0305 2.2272,39.6552 -13.9489,42.9402 45.9271,5.3047 36.7135,17.4578 4.9221,37.6185 94.5952,3.1469 42.5371,23.176 43.0006,36.7345 57.5862,-12.4701 53.8853,12.8638 62.1299,31.6447 54.8403,-57.2852 38.1795,-47.0534 57.3737,5.2204 z"
       id="path3549-3-1"
       inkscape:connector-curvature="0"
       sodipodi:nodetypes="ccccccccccccccc" />
    <path
       style="fill:#ffffff;fill-rule:evenodd;stroke:none;stroke-width:1.11948px;stroke-linecap:butt;stroke-linejoin:miter;stroke-opacity:1"
       d="m 1981.0852,3154.4734 c -62.4399,1.4958 -124.646,7.6601 -186.989,11.0582 -27.4778,3.4894 -54.5911,15.4687 -73.6114,36.3607 -9.6898,12.5813 -14.4502,28.1143 -19.1981,43.1256 -8.9914,31.8272 -3.3566,68.1326 16.6156,94.5285 8.8065,11.7114 20.8494,20.8903 34.5643,25.7151 14.8135,5.3349 30.3448,8.2008 45.7727,11.001 17.5922,3.0503 35.3345,5.0967 53.1324,6.3715 40.8933,3.3098 81.9894,5.4051 122.9906,2.981 26.6774,-1.4559 53.3789,-2.3778 80.0904,-2.8462 13.3524,-0.4874 26.8301,0.085 40.0213,-2.4647 29.1268,-5.1726 56.7123,-20.7052 75.1809,-44.4439 10.6196,-13.4528 17.8705,-30.1533 18.0669,-47.6082 0.733,-19.4045 -3.1988,-38.7004 -8.9499,-57.1037 -8.6407,-24.3273 -26.1082,-46.1707 -49.7576,-56.4789 -19.9756,-8.7608 -41.8269,-11.0038 -63.0619,-14.6861 -28.0876,-4.1191 -56.496,-5.9044 -84.8672,-5.5099 z"
       id="path1289"
       inkscape:connector-curvature="0"
       sodipodi:nodetypes="csssssssscc" />
    <path
       style="color:#000000;display:inline;overflow:visible;visibility:visible;fill:#ffffff;fill-opacity:1;fill-rule:nonzero;stroke:none;stroke-width:1.35068px;marker:none;enable-background:accumulate"
       d="m 456.07843,3178.3461 c 9.93701,-15.2948 51.84249,-13.2985 66.67315,-8.8438 -28.091,-20.2401 -25.24344,-31.1953 17.0363,-29.5557 -65.31221,-37.6508 -8.5234,-28.2088 4.13218,-35.4235 -53.54285,-15.4528 -26.59544,-27.2125 -14.55737,-40.1001 -63.49948,-5.5458 -39.18266,-25.8031 -39.06548,-43.4742 -6.70191,7.7618 -36.30182,30.6558 -33.3938,2.7654 -46.29512,23.1348 -99.68601,36.2037 -96.28017,-10.4783 -20.67962,21.9701 -39.15099,30.479 -33.39391,2.7653 -47.77588,32.8282 -83.41383,16.7937 -119.72351,3.5382 -11.71632,10.1245 -15.56539,26.8076 -47.18055,20.3017 2.78705,11.1849 -9.29226,17.7561 -34.58725,20.2115 31.62487,9.1464 36.56583,16.3708 -25.2622,18.7855 46.05025,4.3877 88.86682,9.2622 30.74262,29.6889 16.89506,1.9557 60.51721,-15.4784 32.03823,43.4614 32.31722,-17.0164 65.20039,-25.2072 97.79937,18.4447 21.74474,-18.7712 55.43898,-26.2298 65.34717,0.1768 6.74506,-10.3819 28.20038,-12.7755 45.94164,-11.8575 6.14389,4.8286 12.25634,11.2082 18.38648,19.4168 14.57897,-15.0441 34.28362,-24.4177 65.3471,0.1769 z"
       id="path3549-3-7-5"
       inkscape:connector-curvature="0"
       sodipodi:nodetypes="cccccccccccccccccccc" />
    <path
       style="color:#000000;display:inline;overflow:visible;visibility:visible;fill:#ffffff;fill-opacity:1;fill-rule:nonzero;stroke:none;stroke-width:1.04204px;marker:none;enable-background:accumulate"
       d="m 367.15199,3119.1259 c -57.07353,0.8869 -114.81826,12.1999 -166.39331,39.3464 -32.90774,20.281 -50.27564,63.0309 -47.32658,103.0838 0.94057,24.5664 6.96859,51.6174 25.90465,67.3162 20.7036,17.0439 45.92368,26.2094 70.95105,32.7563 52.06484,12.5958 105.76184,9.9362 158.73028,10.478 47.18316,-0.1388 94.52787,1.4082 141.54607,-3.7365 21.94665,-2.4792 44.74721,-7.8495 62.107,-23.5242 20.7489,-17.5376 34.35852,-44.8883 35.00327,-73.5141 3.53366,-49.5273 -24.04848,-100.9155 -67.50372,-118.8182 -45.96658,-21.6058 -96.62659,-25.4501 -145.89222,-30.7378 -22.32638,-1.9162 -44.72659,-2.9936 -67.12649,-2.6499 z"
       id="path3970-3"
       inkscape:connector-curvature="0"
       sodipodi:nodetypes="cccscsc" />
    <path
       style="color:#000000;display:inline;overflow:visible;visibility:visible;fill:#ffffff;fill-opacity:1;fill-rule:nonzero;stroke:none;stroke-width:1.35295px;marker:none;enable-background:accumulate"
       d="m 655.60209,3020.9694 c 36.37209,56.4559 22.81983,82.4225 15.3529,101.9191 -8.64995,-2.3738 -25.16043,-4.9757 -25.16043,-4.9757 0,0 -35.04306,58.5581 -44.82978,72.5197 -9.78688,13.9616 -38.13341,-23.0686 -38.13341,-23.0686 0,0 68.63867,-58.196 66.88456,-75.5935 13.71733,3.6481 17.96983,3.6232 26.02992,4.8839 8.53279,-9.9614 11.95899,-55.362 -0.14376,-75.6849 z"
       id="path4456-8"
       inkscape:connector-curvature="0"
       sodipodi:nodetypes="cccscccc" />
    <path
       style="color:#000000;display:inline;overflow:visible;visibility:visible;fill:#ffffff;fill-opacity:1;fill-rule:nonzero;stroke:none;stroke-width:0.979134px;marker:none;enable-background:accumulate"
       d="m 1297.7668,3140.6966 c 37.0189,-51.8094 10.4316,-107.7029 -22.8129,-123.0094 56.1643,10.3304 79.8618,67.0698 67.3523,120.7861 -6.1858,26.5623 -44.5394,2.2233 -44.5394,2.2233 z"
       id="path5010-4"
       inkscape:connector-curvature="0"
       sodipodi:nodetypes="ccsc"
       inkscape:transform-center-x="-17.477815"
       inkscape:transform-center-y="-10.798976" />
    <path
       style="color:#000000;display:inline;overflow:visible;visibility:visible;fill:#ffffff;fill-opacity:1;fill-rule:nonzero;stroke:none;stroke-width:1.49141px;marker:none;enable-background:accumulate"
       d="m 1912.7642,3104.2315 c -3.1414,-3.557 32.154,-46.7146 32.154,-46.7146 0,0 1.8091,-18.6763 2.2497,-22.5415 7.8248,-6.4155 25.8113,-4.3144 25.8113,-4.3144 l -34.365,-47.8529 16.512,38.7245 -25.6669,-0.2625 -0.1009,31.7053 c -10.1565,5.7069 -22.8946,9.8614 -42.2141,10.0585 z"
       id="path4448"
       inkscape:connector-curvature="0"
       sodipodi:nodetypes="cccccccccc" />
  </g>
  <g
     inkscape:groupmode="layer"
     id="layer1"
     inkscape:label="txt"
     style="display:inline">
    <text
       xml:space="preserve"
       style="font-style:normal;font-variant:normal;font-weight:normal;font-stretch:normal;font-size:14.5146px;line-height:0%;font-family:Lavi;-inkscape-font-specification:Lavi;text-align:center;letter-spacing:0px;word-spacing:0px;text-anchor:middle;fill:#000000;fill-opacity:1;stroke:none;stroke-width:1.20955"
       x="336.33972"
       y="3110.5491"
       id="text4246-3-3"><tspan
         sodipodi:role="line"
         x="336.33972"
         y="3110.5491"
         id="tspan852"
         style="font-style:normal;font-variant:normal;font-weight:bold;font-stretch:normal;font-size:54.4298px;line-height:1.25;font-family:Lavi;-inkscape-font-specification:'Lavi Bold';stroke-width:1.20955">Načelnik!</tspan></text>
    <text
       xml:space="preserve"
       style="font-style:normal;font-variant:normal;font-weight:normal;font-stretch:normal;line-height:0%;font-family:Lavi;-inkscape-font-specification:Lavi;text-align:center;letter-spacing:0px;word-spacing:0px;text-anchor:middle;fill:#000000;fill-opacity:1;stroke:none"
       x="399.66684"
       y="3215.0632"
       id="text4246-3-5-9"><tspan
         sodipodi:role="line"
         style="font-size:45px;line-height:1.25"
         x="399.66684"
         y="3215.0632"
         id="tspan2137">Ali lahko potrdite</tspan><tspan
         sodipodi:role="line"
         style="font-size:45px;line-height:1.25"
         x="399.66684"
         y="3271.3132"
         id="tspan14734">da ta tempel pripada</tspan><tspan
         sodipodi:role="line"
         style="font-size:45px;line-height:1.25"
         x="399.66684"
         y="3327.5632"
         id="tspan35386">tisti čarovnici?</tspan></text>
    <text
       xml:space="preserve"
       style="font-style:normal;font-variant:normal;font-weight:normal;font-stretch:normal;line-height:0%;font-family:Lavi;-inkscape-font-specification:Lavi;text-align:center;letter-spacing:0px;word-spacing:0px;text-anchor:middle;fill:#000000;fill-opacity:1;stroke:none"
       x="1399.2664"
       y="2396.1011"
       id="text4246-3-5-9-3"><tspan
         sodipodi:role="line"
         style="font-size:45px;line-height:1.25"
         x="1399.2664"
         y="2396.1011"
         id="tspan3395">Z največjo</tspan><tspan
         sodipodi:role="line"
         style="font-size:45px;line-height:1.25"
         x="1399.2664"
         y="2452.3511"
         id="tspan26976">verjetnostjo,</tspan><tspan
         sodipodi:role="line"
         style="font-size:45px;line-height:1.25"
         x="1399.2664"
         y="2508.6011"
         id="tspan30186">gospod!</tspan></text>
    <text
       xml:space="preserve"
       style="font-style:normal;font-variant:normal;font-weight:normal;font-stretch:normal;line-height:0%;font-family:Lavi;-inkscape-font-specification:Lavi;text-align:center;letter-spacing:0px;word-spacing:0px;text-anchor:middle;fill:#000000;fill-opacity:1;stroke:none"
       x="1315.9973"
       y="3223.4473"
       id="text4246-3-5-9-3-3-6"><tspan
         sodipodi:role="line"
         style="font-size:45px;line-height:1.25"
         x="1315.9973"
         y="3223.4473"
         id="tspan8050">Več naših vohunov</tspan><tspan
         sodipodi:role="line"
         style="font-size:45px;line-height:1.25"
         x="1315.9973"
         y="3279.6973"
         id="tspan23037">jo je tukaj opazilo.</tspan></text>
    <text
       xml:space="preserve"
       style="font-style:normal;font-variant:normal;font-weight:normal;font-stretch:normal;line-height:0%;font-family:Lavi;-inkscape-font-specification:Lavi;text-align:center;letter-spacing:0px;word-spacing:0px;text-anchor:middle;fill:#000000;fill-opacity:1;stroke:none"
       x="1883.0886"
       y="3134.877"
       id="text4246-3-3-7"><tspan
         sodipodi:role="line"
         style="font-style:normal;font-variant:normal;font-weight:bold;font-stretch:normal;font-size:45px;line-height:1.25;font-family:Lavi;-inkscape-font-specification:'Lavi Bold'"
         x="1883.0886"
         y="3134.877"
         id="tspan67-0">GRrrr...</tspan><tspan
         sodipodi:role="line"
         x="1883.0886"
         y="3153.384"
         id="tspan852-9" /></text>
    <text
       xml:space="preserve"
       style="font-style:normal;font-variant:normal;font-weight:normal;font-stretch:normal;line-height:0%;font-family:Lavi;-inkscape-font-specification:Lavi;text-align:center;letter-spacing:0px;word-spacing:0px;text-anchor:middle;fill:#000000;fill-opacity:1;stroke:none"
       x="1939.5736"
       y="3224.498"
       id="text4246-3-5-9-3-3-6-3"><tspan
         sodipodi:role="line"
         style="font-size:45px;line-height:1.25;fill:#000000"
         x="1939.5736"
         y="3224.498"
         id="tspan9960">Torej <tspan
   style="font-style:normal;font-variant:normal;font-weight:bold;font-stretch:normal;font-family:Lavi;-inkscape-font-specification:'Lavi Bold'"
   id="tspan62583">grožnja</tspan></tspan><tspan
         sodipodi:role="line"
         style="font-size:45px;line-height:1.25;fill:#000000"
         x="1939.5736"
         y="3280.748"
         id="tspan37147">naših <tspan
   style="font-style:normal;font-variant:normal;font-weight:bold;font-stretch:normal;font-family:Lavi;-inkscape-font-specification:'Lavi Bold'"
   id="tspan66225">vojnih veščin in</tspan></tspan><tspan
         sodipodi:role="line"
         style="font-size:45px;line-height:1.25;fill:#000000"
         x="1939.5736"
         y="3336.998"
         id="tspan37149"><tspan
   style="font-style:normal;font-variant:normal;font-weight:bold;font-stretch:normal;font-family:Lavi;-inkscape-font-specification:'Lavi Bold'"
   id="tspan66227">tradicije</tspan> živi tukaj!</tspan></text>
  </g>
</svg>
