<?xml version="1.0" encoding="UTF-8" standalone="no"?>
<!-- Created with Inkscape (http://www.inkscape.org/) -->

<svg
   xmlns:dc="http://purl.org/dc/elements/1.1/"
   xmlns:cc="http://creativecommons.org/ns#"
   xmlns:rdf="http://www.w3.org/1999/02/22-rdf-syntax-ns#"
   xmlns:svg="http://www.w3.org/2000/svg"
   xmlns="http://www.w3.org/2000/svg"
   xmlns:xlink="http://www.w3.org/1999/xlink"
   xmlns:sodipodi="http://sodipodi.sourceforge.net/DTD/sodipodi-0.dtd"
   xmlns:inkscape="http://www.inkscape.org/namespaces/inkscape"
   id="svg2"
   version="1.1"
   inkscape:version="0.92.3 (2405546, 2018-03-11)"
   width="2481"
   height="3503"
   sodipodi:docname="E26P04.svg">
  <metadata
     id="metadata8">
    <rdf:RDF>
      <cc:Work
         rdf:about="">
        <dc:format>image/svg+xml</dc:format>
        <dc:type
           rdf:resource="http://purl.org/dc/dcmitype/StillImage" />
        <dc:title></dc:title>
      </cc:Work>
    </rdf:RDF>
  </metadata>
  <defs
     id="defs6" />
  <sodipodi:namedview
     pagecolor="#ffffff"
     bordercolor="#666666"
     borderopacity="1"
     objecttolerance="10"
     gridtolerance="10"
     guidetolerance="10"
     inkscape:pageopacity="0"
     inkscape:pageshadow="2"
     inkscape:window-width="1920"
     inkscape:window-height="1033"
     id="namedview4"
     showgrid="false"
     inkscape:zoom="0.42773946"
     inkscape:cx="1280.3567"
     inkscape:cy="1398.0474"
     inkscape:window-x="0"
     inkscape:window-y="47"
     inkscape:window-maximized="0"
     inkscape:current-layer="layer3" />
  <g
     inkscape:groupmode="layer"
     id="layer2"
     inkscape:label="artwork"
     sodipodi:insensitive="true">
    <image
       sodipodi:absref="C:\Users\ruden\Desktop\ep26_Books-Are-Great_lang-pack\lang\ru\../gfx_Pepper-and-Carrot_by-David-Revoy_E26P04.png"
       xlink:href="../gfx_Pepper-and-Carrot_by-David-Revoy_E26P04.png"
       width="2481"
       height="3503"
       id="image10"
       x="0"
       y="0" />
  </g>
  <g
     inkscape:groupmode="layer"
     id="layer3"
     inkscape:label="speechbubbles">
    <path
       style="color:#000000;display:inline;overflow:visible;visibility:visible;fill:#ffffff;fill-opacity:1;fill-rule:nonzero;stroke:none;stroke-width:1.94898546px;marker:none;enable-background:accumulate"
       d="m 77.729558,1506.9232 c -5.203345,-67.4656 -3.584614,-126.5765 5.07845,-182.4591 5.380075,-34.7051 174.476322,-42.9783 232.850102,-36.6628 49.82002,5.3902 162.77122,20.0737 187.06565,68.4983 24.29455,48.4244 27.97666,123.5623 23.41598,170.8309 -4.56055,47.2686 -10.10107,57.3541 -55.60984,97.2147 -23.25795,20.3713 -158.58687,32.6947 -213.03592,35.7285 -56.14206,3.132 -134.3364,0.576 -162.01309,-31.0665 -28.05877,-32.079 -12.548133,-54.6183 -17.751332,-122.084 z"
       id="path3373"
       inkscape:connector-curvature="0"
       sodipodi:nodetypes="zsssssssz" />
    <path
       style="color:#000000;display:inline;overflow:visible;visibility:visible;fill:#ffffff;fill-opacity:1;fill-rule:nonzero;stroke:none;stroke-width:0.95470774;marker:none;enable-background:accumulate"
       d="M 369.79142,809.84364 C 305.75829,762.35821 198.20492,558.84155 249.43665,362.79562 266.81502,310.92732 307.36394,84.8784 238.16093,303.5743 c -69.203,218.6959 9.34385,417.00687 131.63049,506.26934 z"
       id="path3010"
       inkscape:connector-curvature="0"
       sodipodi:nodetypes="cczc" />
    <path
       style="color:#000000;display:inline;overflow:visible;visibility:visible;fill:#ffffff;fill-opacity:1;fill-rule:nonzero;stroke:none;stroke-width:0.92846394px;marker:none;enable-background:accumulate"
       d="m 760.75243,1017.8265 c -22.47857,-11.219 -27.79905,-26.61133 -25.55111,-33.02225 2.24784,-6.41084 22.47847,-39.26666 47.20477,-43.27347 24.72641,-4.00682 88.79012,-8.81495 103.40117,-4.80813 14.6111,4.00673 56.19637,30.45171 56.19637,44.07478 0,13.62316 -7.86752,40.06807 -30.34602,48.08167 -22.47851,8.0136 -123.93104,0.7406 -150.90518,-11.0526 z"
       id="path3349"
       inkscape:connector-curvature="0"
       sodipodi:nodetypes="ccscssc" />
    <path
       style="color:#000000;display:inline;overflow:visible;visibility:visible;fill:#ffffff;fill-opacity:1;fill-rule:nonzero;stroke:none;stroke-width:0.62015647px;marker:none;enable-background:accumulate"
       d="m 803.72501,1037.9825 c 14.66913,-19.5487 138.49336,-40.76767 182.01312,-0.4818 43.51977,40.2859 14.94867,97.3247 -10.02177,112.7065 -24.97033,15.3818 -94.89002,19.2165 -129.81217,10.3485 -46.32344,-11.7632 -59.65064,-32.8926 -61.35574,-73.2471 -0.6959,-16.4701 4.50736,-29.7772 19.17656,-49.3261 z"
       id="path4040"
       inkscape:connector-curvature="0"
       sodipodi:nodetypes="zssssz" />
    <path
       style="color:#000000;display:inline;overflow:visible;visibility:visible;fill:#ffffff;fill-opacity:1;fill-rule:nonzero;stroke:none;stroke-width:0.9220413px;marker:none;enable-background:accumulate"
       d="m 1556.6491,1184.577 c -4.6607,-31.4449 7.7677,-114.9705 103.3121,-108.0919 95.5443,6.8785 111.08,46.1846 113.4103,57.9765 2.3304,11.7918 22.5267,78.6124 -52.0444,96.3003 -74.5713,17.6877 -141.3745,-0.9828 -164.678,-46.1849 z"
       id="path3525"
       inkscape:connector-curvature="0" />
    <path
       style="color:#000000;display:inline;overflow:visible;visibility:visible;fill:#ffffff;fill-opacity:1;fill-rule:nonzero;stroke:none;stroke-width:1px;marker:none;enable-background:accumulate"
       d="m 938.35118,1086.2126 c 69.98612,31.0197 98.42482,29.5718 151.73632,-4.4587 -31.1182,24.6589 -43.6342,55.9553 -145.08715,33.1222 -40.4073,-9.0941 -6.64917,-28.6635 -6.64917,-28.6635 z"
       id="path4480"
       inkscape:connector-curvature="0"
       sodipodi:nodetypes="ccsc" />
    <path
       style="color:#000000;display:inline;overflow:visible;visibility:visible;fill:#ffffff;fill-opacity:1;fill-rule:nonzero;stroke:none;stroke-width:1px;marker:none;enable-background:accumulate"
       d="m 1496.1025,1128.3709 c 34.6297,22.4436 48.151,28.3727 87.526,0.3521 39.375,-28.0207 48.7701,-12.382 48.7701,-12.382 l -12.8989,31.2148 c 0,0 -87.8568,53.5997 -123.3972,-19.1849 z"
       id="path3072"
       inkscape:connector-curvature="0" />
    <path
       style="color:#000000;display:inline;overflow:visible;visibility:visible;fill:#ffffff;fill-opacity:1;fill-rule:nonzero;stroke:none;stroke-width:0.56317943px;marker:none;enable-background:accumulate"
       d="m 1953.9884,191.80298 c -0.5062,-16.03868 4.038,-22.03592 25.2985,-32.51013 21.2608,-10.47421 41.4291,-5.35377 60.6529,-3.21776 22.1036,2.45601 45.6622,6.26913 53.2553,18.05267 7.5931,11.78347 13.6675,16.36595 11.1364,27.49483 -2.531,11.12881 -5.062,22.91235 -14.1737,26.84016 -9.1117,3.92787 -73.906,9.16494 -84.5364,6.5464 -10.6304,-2.61853 -27.8413,-3.2732 -36.9529,-11.12888 -9.2375,-7.96404 -14.1739,-16.03861 -14.6801,-32.07729 z"
       id="path3373-0"
       inkscape:connector-curvature="0"
       sodipodi:nodetypes="zsssssssz" />
    <path
       style="color:#000000;display:inline;overflow:visible;visibility:visible;fill:#ffffff;fill-opacity:1;fill-rule:nonzero;stroke:none;stroke-width:0.82400072px;marker:none;enable-background:accumulate"
       d="m 1921.5783,265.93393 c 1.9893,-37.57311 27.1869,-45.85192 53.7108,-47.76243 26.5239,-1.9105 37.1335,3.82101 44.4276,5.09462 7.2941,1.27369 75.5931,-3.821 84.8764,-2.5473 9.2834,1.27369 53.0479,18.46814 51.0585,48.39922 -1.9892,29.93108 -31.8286,42.66771 -62.3311,44.57821 -30.5025,1.91051 -92.8336,0 -108.0848,3.821 -15.2513,3.82101 -59.0158,-2.5473 -63.6574,-51.5834 z"
       id="path5034"
       inkscape:connector-curvature="0" />
    <path
       style="color:#000000;display:inline;overflow:visible;visibility:visible;fill:#ffffff;fill-opacity:1;fill-rule:nonzero;stroke:none;stroke-width:1px;marker:none;enable-background:accumulate"
       d="m 2014.1421,464.34286 c -57.0243,-41.23372 -60.4397,-86.77108 -49.5441,-144.9504 10.8956,-58.17932 39.6811,-24.31559 39.6811,-24.31559 0,0 -65.1914,100.00192 9.863,169.26599 z"
       id="path5002"
       inkscape:connector-curvature="0"
       sodipodi:nodetypes="cscc" />
    <path
       style="color:#000000;display:inline;overflow:visible;visibility:visible;fill:#ffffff;fill-opacity:1;fill-rule:nonzero;stroke:none;stroke-width:0.69339293px;marker:none;enable-background:accumulate"
       d="m 1700.4388,2240.0456 c 1.7714,11.0868 -18.3353,57.9938 -100.9284,54.3434 -82.593,-3.6505 -102.3484,-32.3457 -102.2365,-47.2417 0.1118,-14.8961 19.48,-38.8672 31.4837,-43.1415 12.0036,-4.2743 47.2364,-13.765 79.4003,-9.3758 35.7974,4.8849 67.316,10.8244 79.967,23.645 12.6509,12.8205 10.8519,18.8596 12.3139,21.7706 z"
       id="path3365"
       inkscape:connector-curvature="0"
       sodipodi:nodetypes="ccccscc" />
    <path
       style="color:#000000;display:inline;overflow:visible;visibility:visible;fill:#ffffff;fill-opacity:1;fill-rule:nonzero;stroke:none;stroke-width:1.50715446px;marker:none;enable-background:accumulate"
       d="m 1467.4131,2309.4063 c 35.4382,-65.1491 229.7192,-65.3935 289.4258,-36.497 59.7063,28.8961 68.3393,64.2591 70.6337,81.6125 2.2943,17.3533 -7.1694,118.76 -38.6291,134.2363 -31.4597,15.4759 -120.4264,22.5595 -151.4111,22.2827 -30.9849,-0.2768 -129.593,-11.1873 -153.927,-34.4652 -23.2781,-22.2681 -51.5305,-102.0204 -16.0923,-167.1693 z"
       id="path3330"
       inkscape:connector-curvature="0"
       sodipodi:nodetypes="zsssssz" />
    <path
       style="color:#000000;display:inline;overflow:visible;visibility:visible;fill:#ffffff;fill-opacity:1;fill-rule:nonzero;stroke:none;stroke-width:1.07720649px;marker:none;enable-background:accumulate"
       d="m 1664.135,2448.2545 c -69.9893,51.1328 8.9085,162.5856 132.4832,191.8362 -158.9941,-19.5502 -214.8639,-129.8242 -184.2863,-182.6082 -12.1609,-26.4834 51.8031,-9.228 51.8031,-9.228 z"
       id="path4008"
       inkscape:connector-curvature="0"
       sodipodi:nodetypes="cccc" />
    <path
       style="color:#000000;display:inline;overflow:visible;visibility:visible;fill:#ffffff;fill-opacity:1;fill-rule:nonzero;stroke:none;stroke-width:0.92337912px;marker:none;enable-background:accumulate"
       d="M 91.805509,69.839589 C 118.1593,44.819976 351.91785,57.851953 407.96113,125.92711 464.00427,194.00223 406.70535,286.4242 365.87638,303.1038 325.04754,319.78343 170.58392,330.08958 120.32725,309.42951 53.662925,282.02438 38.98534,238.1613 45.525484,179.35037 48.194771,155.34755 65.45156,94.859486 91.805509,69.839589 Z"
       id="path4040-0"
       inkscape:connector-curvature="0"
       sodipodi:nodetypes="zssssz" />
    <path
       style="color:#000000;display:inline;overflow:visible;visibility:visible;fill:#ffffff;fill-opacity:1;fill-rule:nonzero;stroke:none;stroke-width:1.31624353px;marker:none;enable-background:accumulate"
       d="m 439.87684,468.55748 c 4.06309,22.56052 -27.2505,120.08167 -172.70425,118.8051 -145.45375,-1.27676 -182.62914,-58.53066 -183.709075,-89.02936 -1.0801,-30.49886 30.901265,-81.01756 51.629025,-90.66695 20.72762,-9.64922 81.82907,-31.71839 138.72683,-25.1469 63.32539,7.31362 119.22219,17.10676 142.55253,42.40015 23.33015,25.29305 20.68633,37.78918 23.50494,43.63796 z"
       id="path3365-6"
       inkscape:connector-curvature="0"
       sodipodi:nodetypes="ccccscc" />
    <path
       style="color:#000000;display:inline;overflow:visible;visibility:visible;fill:#ffffff;fill-opacity:1;fill-rule:nonzero;stroke:none;stroke-width:1.17923069px;marker:none;enable-background:accumulate"
       d="m 421.00062,1204.9587 c -82.04637,41.839 -98.69807,91.9551 -101.02486,156.986 -2.32681,65.0308 42.64616,29.4851 42.64616,29.4851 0,0 -53.69551,-114.8291 58.3787,-186.4711 z"
       id="path5002-1"
       inkscape:connector-curvature="0"
       sodipodi:nodetypes="cscc" />
  </g>
  <g
     inkscape:groupmode="layer"
     id="layer1"
     inkscape:label="txt">
    <text
       xml:space="preserve"
       style="font-style:normal;font-variant:normal;font-weight:normal;font-stretch:normal;font-size:9.62365437px;line-height:0%;font-family:Lavi;-inkscape-font-specification:Lavi;text-align:center;letter-spacing:0px;word-spacing:0px;text-anchor:middle;fill:#000000;fill-opacity:1;stroke:none;stroke-width:0.80197126"
       x="-16.985275"
       y="2121.0466"
       id="text4246-5-5-8"
       transform="matrix(0.90354167,-0.46833278,0.47503417,0.86053134,0,0)"><tspan
         sodipodi:role="line"
         style="font-style:italic;font-variant:normal;font-weight:normal;font-stretch:normal;font-size:36.08870697px;line-height:1.25;font-family:Lavi;-inkscape-font-specification:'Lavi Italic';text-align:start;text-anchor:start;fill:#ffffff;fill-opacity:1;stroke-width:0.80197126"
         x="-16.985275"
         y="2121.0466"
         id="tspan478-2">щекочу</tspan></text>
    <text
       xml:space="preserve"
       style="font-style:normal;font-variant:normal;font-weight:normal;font-stretch:normal;font-size:9.62365437px;line-height:0%;font-family:Lavi;-inkscape-font-specification:Lavi;text-align:center;letter-spacing:0px;word-spacing:0px;text-anchor:middle;fill:#000000;fill-opacity:1;stroke:none;stroke-width:0.80197126"
       x="14.073515"
       y="2075.9685"
       id="text4246-5-5-8-3"
       transform="matrix(0.90354167,-0.46833278,0.47503417,0.86053134,0,0)"
       inkscape:transform-center-x="-64.107832"
       inkscape:transform-center-y="11.506534"><tspan
         sodipodi:role="line"
         style="font-style:italic;font-variant:normal;font-weight:normal;font-stretch:normal;font-size:36.08870697px;line-height:1.25;font-family:Lavi;-inkscape-font-specification:'Lavi Italic';text-align:start;text-anchor:start;fill:#ffffff;fill-opacity:1;stroke-width:0.80197126"
         x="14.073515"
         y="2075.9685"
         id="tspan478-2-7">щекочу</tspan></text>
    <flowRoot
       xml:space="preserve"
       id="flowRoot73"
       style="fill:black;fill-opacity:1;stroke:none;font-family:Neucha;font-style:normal;font-weight:normal;font-size:45px;line-height:1.25;letter-spacing:0px;word-spacing:0px;-inkscape-font-specification:'Neucha, Normal';font-stretch:normal;font-variant:normal;text-anchor:middle;text-align:center;writing-mode:lr;font-variant-ligatures:normal;font-variant-caps:normal;font-variant-numeric:normal;font-feature-settings:normal"><flowRegion
         id="flowRegion75"><rect
           id="rect77"
           width="294.57184"
           height="222.09781"
           x="114.55572"
           y="101.39661" /></flowRegion><flowPara
         id="flowPara79" /></flowRoot>    <flowRoot
       xml:space="preserve"
       id="flowRoot81"
       style="font-style:normal;font-variant:normal;font-weight:normal;font-stretch:normal;font-size:45px;line-height:1.25;font-family:Neucha;-inkscape-font-specification:'Neucha, Normal';font-variant-ligatures:normal;font-variant-caps:normal;font-variant-numeric:normal;font-feature-settings:normal;text-align:center;letter-spacing:0px;word-spacing:0px;writing-mode:lr-tb;text-anchor:middle;fill:#000000;fill-opacity:1;stroke:none"
       transform="translate(-21.040846)"><flowRegion
         id="flowRegion83"><rect
           id="rect85"
           width="282.88248"
           height="180.01613"
           x="114.55572"
           y="115.42384" /></flowRegion><flowPara
         id="flowPara87"
         style="font-size:46.66666794px">&quot;На пути подберите перо.&quot;</flowPara></flowRoot>    <flowRoot
       xml:space="preserve"
       id="flowRoot89"
       style="font-style:normal;font-variant:normal;font-weight:normal;font-stretch:normal;font-size:45px;line-height:1.25;font-family:Neucha;-inkscape-font-specification:'Neucha, Normal';font-variant-ligatures:normal;font-variant-caps:normal;font-variant-numeric:normal;font-feature-settings:normal;text-align:center;letter-spacing:0px;word-spacing:0px;writing-mode:lr-tb;text-anchor:middle;fill:#000000;fill-opacity:1;stroke:none"
       transform="translate(-9.351487,16.365102)"><flowRegion
         id="flowRegion91"><rect
           id="rect93"
           width="315.6127"
           height="175.34038"
           x="114.55572"
           y="407.65781" /></flowRegion><flowPara
         id="flowPara95"
         style="font-size:46.66666667px">А в перьях тут нет недостатка!</flowPara></flowRoot>    <flowRoot
       xml:space="preserve"
       id="flowRoot97"
       style="font-style:normal;font-variant:normal;font-weight:normal;font-stretch:normal;font-size:45px;line-height:1.25;font-family:Neucha;-inkscape-font-specification:'Neucha, Normal';font-variant-ligatures:normal;font-variant-caps:normal;font-variant-numeric:normal;font-feature-settings:normal;text-align:center;letter-spacing:0px;word-spacing:0px;writing-mode:lr-tb;text-anchor:middle;fill:#000000;fill-opacity:1;stroke:none"
       transform="translate(-11.689359,9.3514867)"><flowRegion
         id="flowRegion99"><rect
           id="rect101"
           width="399.77606"
           height="306.2612"
           x="100.52849"
           y="1310.0763" /></flowRegion><flowPara
         id="flowPara103"
         style="font-size:46.66666794px">&quot;Сейчас вы уже  должны достигнуть зала Стража, поскольку пошли кратчайшим путём.&quot;</flowPara></flowRoot>    <flowRoot
       xml:space="preserve"
       id="flowRoot105"
       style="font-style:normal;font-variant:normal;font-weight:normal;font-stretch:normal;font-size:45px;line-height:1.25;font-family:Neucha;-inkscape-font-specification:'Neucha, Normal';font-variant-ligatures:normal;font-variant-caps:normal;font-variant-numeric:normal;font-feature-settings:normal;text-align:center;letter-spacing:0px;word-spacing:0px;writing-mode:lr-tb;text-anchor:middle;fill:#000000;fill-opacity:1;stroke:none"><flowRegion
         id="flowRegion107"><rect
           id="rect109"
           width="184.69186"
           height="67.798279"
           x="750.45685"
           y="959.39551" /></flowRegion><flowPara
         id="flowPara111"
         style="font-size:46.66666667px">Хмм...</flowPara></flowRoot>    <flowRoot
       xml:space="preserve"
       id="flowRoot113"
       style="font-style:normal;font-variant:normal;font-weight:normal;font-stretch:normal;font-size:45px;line-height:1.25;font-family:Neucha;-inkscape-font-specification:'Neucha, Normal';font-variant-ligatures:normal;font-variant-caps:normal;font-variant-numeric:normal;font-feature-settings:normal;text-align:center;letter-spacing:0px;word-spacing:0px;writing-mode:lr-tb;text-anchor:middle;fill:#000000;fill-opacity:1;stroke:none"><flowRegion
         id="flowRegion115"><rect
           id="rect117"
           width="180.519"
           height="120.13213"
           x="803.72504"
           y="1037.9825" /></flowRegion><flowPara
         id="flowPara119"
         style="font-size:46.66666667px">Большой босс?!?</flowPara></flowRoot>    <flowRoot
       xml:space="preserve"
       id="flowRoot121"
       style="font-style:normal;font-variant:normal;font-weight:normal;font-stretch:normal;font-size:45px;line-height:1.25;font-family:Neucha;-inkscape-font-specification:'Neucha, Normal';font-variant-ligatures:normal;font-variant-caps:normal;font-variant-numeric:normal;font-feature-settings:normal;text-align:center;letter-spacing:0px;word-spacing:0px;writing-mode:lr-tb;text-anchor:middle;fill:#000000;fill-opacity:1;stroke:none"
       transform="translate(-9.351487,9.351487)"><flowRegion
         id="flowRegion123"><rect
           id="rect125"
           width="201.05698"
           height="168.32677"
           x="1571.0498"
           y="1087.9785" /></flowRegion><flowPara
         id="flowPara127"
         style="font-size:46.66666667px">Где</flowPara><flowPara
         id="flowPara129"
         style="font-size:46.66666667px">же он?</flowPara></flowRoot>    <flowRoot
       xml:space="preserve"
       id="flowRoot131"
       style="fill:black;fill-opacity:1;stroke:none;font-family:Neucha;font-style:normal;font-weight:normal;font-size:45px;line-height:1.25;letter-spacing:0px;word-spacing:0px;-inkscape-font-specification:'Neucha, Normal';font-stretch:normal;font-variant:normal;text-anchor:middle;text-align:center;writing-mode:lr;font-variant-ligatures:normal;font-variant-caps:normal;font-variant-numeric:normal;font-feature-settings:normal"><flowRegion
         id="flowRegion133"><rect
           id="rect135"
           width="236.12505"
           height="88.839127"
           x="1917.0548"
           y="148.15404" /></flowRegion><flowPara
         id="flowPara137" /></flowRoot>    <flowRoot
       xml:space="preserve"
       id="flowRoot141"
       style="font-style:normal;font-variant:normal;font-weight:normal;font-stretch:normal;font-size:45px;line-height:1.25;font-family:Neucha;-inkscape-font-specification:'Neucha, Normal';font-variant-ligatures:normal;font-variant-caps:normal;font-variant-numeric:normal;font-feature-settings:normal;text-align:center;letter-spacing:0px;word-spacing:0px;writing-mode:lr-tb;text-anchor:middle;fill:#000000;fill-opacity:1;stroke:none"
       transform="translate(-4.6757435,14.027231)"><flowRegion
         id="flowRegion143"><rect
           id="rect145"
           width="215.0842"
           height="79.48764"
           x="1926.4064"
           y="157.50552" /></flowRegion><flowPara
         id="flowPara147"
         style="font-size:46.66666794px">Ага...</flowPara></flowRoot>    <flowRoot
       xml:space="preserve"
       id="flowRoot149"
       style="font-style:normal;font-variant:normal;font-weight:normal;font-stretch:normal;font-size:45px;line-height:1.25;font-family:Neucha;-inkscape-font-specification:'Neucha, Normal';font-variant-ligatures:normal;font-variant-caps:normal;font-variant-numeric:normal;font-feature-settings:normal;text-align:center;letter-spacing:0px;word-spacing:0px;writing-mode:lr-tb;text-anchor:middle;fill:#000000;fill-opacity:1;stroke:none"
       transform="translate(-16.365102,-9.351487)"><flowRegion
         id="flowRegion151"><rect
           id="rect153"
           width="327.30203"
           height="98.190613"
           x="1889.0004"
           y="246.34465" /></flowRegion><flowPara
         id="flowPara155"
         style="font-size:46.66666794px">Попался!</flowPara></flowRoot>    <flowRoot
       xml:space="preserve"
       id="flowRoot157"
       style="font-style:normal;font-variant:normal;font-weight:normal;font-stretch:normal;font-size:45px;line-height:1.25;font-family:Neucha;-inkscape-font-specification:'Neucha, Normal';font-variant-ligatures:normal;font-variant-caps:normal;font-variant-numeric:normal;font-feature-settings:normal;text-align:center;letter-spacing:0px;word-spacing:0px;writing-mode:lr-tb;text-anchor:middle;fill:#000000;fill-opacity:1;stroke:none"
       transform="translate(7.0136153,23.378718)"><flowRegion
         id="flowRegion159"><rect
           id="rect161"
           width="222.09781"
           height="77.149765"
           x="1479.8728"
           y="2193.7917" /></flowRegion><flowPara
         id="flowPara163"
         style="font-size:46.66666667px">Пффф..!</flowPara></flowRoot>    <flowRoot
       xml:space="preserve"
       id="flowRoot165"
       style="font-style:normal;font-variant:normal;font-weight:normal;font-stretch:normal;font-size:45px;line-height:1.25;font-family:Neucha;-inkscape-font-specification:'Neucha, Normal';font-variant-ligatures:normal;font-variant-caps:normal;font-variant-numeric:normal;font-feature-settings:normal;text-align:center;letter-spacing:0px;word-spacing:0px;writing-mode:lr-tb;text-anchor:middle;fill:#000000;fill-opacity:1;stroke:none"
       transform="translate(2.3378718,16.365102)"><flowRegion
         id="flowRegion167"><rect
           id="rect169"
           width="369.38373"
           height="217.42207"
           x="1451.8184"
           y="2282.6309" /></flowRegion><flowPara
         id="flowPara171"
         style="font-size:46.66666667px">Слишком легко, когда знаешь уязвимое место!</flowPara></flowRoot>  </g>
</svg>
