<?xml version="1.0" encoding="UTF-8" standalone="no"?>
<!-- Created with Inkscape (http://www.inkscape.org/) -->

<svg
   xmlns:dc="http://purl.org/dc/elements/1.1/"
   xmlns:cc="http://creativecommons.org/ns#"
   xmlns:rdf="http://www.w3.org/1999/02/22-rdf-syntax-ns#"
   xmlns:svg="http://www.w3.org/2000/svg"
   xmlns="http://www.w3.org/2000/svg"
   xmlns:xlink="http://www.w3.org/1999/xlink"
   xmlns:sodipodi="http://sodipodi.sourceforge.net/DTD/sodipodi-0.dtd"
   xmlns:inkscape="http://www.inkscape.org/namespaces/inkscape"
   id="svg2"
   version="1.1"
   inkscape:version="0.92.3 (2405546, 2018-03-11)"
   width="2481"
   height="3503"
   sodipodi:docname="E26P02.svg">
  <metadata
     id="metadata8">
    <rdf:RDF>
      <cc:Work
         rdf:about="">
        <dc:format>image/svg+xml</dc:format>
        <dc:type
           rdf:resource="http://purl.org/dc/dcmitype/StillImage" />
        <dc:title />
      </cc:Work>
    </rdf:RDF>
  </metadata>
  <defs
     id="defs6">
    <filter
       style="color-interpolation-filters:sRGB"
       id="filter4375-4-1-1-15-1-3"
       inkscape:label="deevad outline effect">
      <feFlood
         id="feFlood4377-7-9-0-4-4-4"
         flood-opacity="1"
         flood-color="rgb(0,0,0)"
         result="flood" />
      <feComposite
         id="feComposite4379-3-8-8-6-0-7"
         in2="SourceGraphic"
         in="flood"
         operator="in"
         result="composite1" />
      <feMorphology
         id="feMorphology4393-1-0-49-8-2-7"
         operator="dilate"
         radius="0.69999999999999996"
         result="result3" />
      <feComposite
         id="feComposite4385-9-5-7-2-1-2"
         in2="result3"
         in="SourceGraphic"
         operator="over"
         result="composite2" />
    </filter>
    <filter
       style="color-interpolation-filters:sRGB"
       id="filter4375-4-1-1-15-1-3-0"
       inkscape:label="deevad outline effect">
      <feFlood
         id="feFlood4377-7-9-0-4-4-4-0"
         flood-opacity="1"
         flood-color="rgb(0,0,0)"
         result="flood" />
      <feComposite
         id="feComposite4379-3-8-8-6-0-7-3"
         in2="SourceGraphic"
         in="flood"
         operator="in"
         result="composite1" />
      <feMorphology
         id="feMorphology4393-1-0-49-8-2-7-4"
         operator="dilate"
         radius="0.90000000000000002"
         result="result3" />
      <feComposite
         id="feComposite4385-9-5-7-2-1-2-6"
         in2="result3"
         in="SourceGraphic"
         operator="over"
         result="composite2" />
    </filter>
  </defs>
  <sodipodi:namedview
     pagecolor="#ffffff"
     bordercolor="#666666"
     borderopacity="1"
     objecttolerance="10"
     gridtolerance="10"
     guidetolerance="10"
     inkscape:pageopacity="0"
     inkscape:pageshadow="2"
     inkscape:window-width="1920"
     inkscape:window-height="1033"
     id="namedview4"
     showgrid="false"
     inkscape:zoom="0.37593704"
     inkscape:cx="2106.2677"
     inkscape:cy="953.96193"
     inkscape:window-x="-7"
     inkscape:window-y="4"
     inkscape:window-maximized="0"
     inkscape:current-layer="layer1"
     inkscape:snap-global="false"
     borderlayer="true"
     inkscape:showpageshadow="false" />
  <g
     inkscape:groupmode="layer"
     id="layer2"
     inkscape:label="artwork"
     sodipodi:insensitive="true">
    <image
       sodipodi:absref="C:\Users\ruden\Desktop\ep26_Books-Are-Great_lang-pack\lang\ru\../gfx_Pepper-and-Carrot_by-David-Revoy_E26P02.png"
       xlink:href="../gfx_Pepper-and-Carrot_by-David-Revoy_E26P02.png"
       y="0"
       x="0"
       id="image10"
       height="3503"
       width="2481" />
  </g>
  <g
     inkscape:groupmode="layer"
     id="layer3"
     inkscape:label="speechbubbles">
    <path
       style="color:#000000;display:inline;overflow:visible;visibility:visible;fill:#ffffff;fill-opacity:1;fill-rule:nonzero;stroke:none;stroke-width:1.29816473px;marker:none;enable-background:accumulate"
       d="M 76.470802,661.00169 C 70.59599,637.97962 80.157676,533.58483 216.22301,524.31738 c 136.06544,-9.26747 176.35034,74.87042 180.16778,106.31448 3.81745,31.44388 -3.48963,66.53509 -34.07622,91.14313 -27.2372,22.1727 -56.99345,22.6164 -103.5579,29.5048 -53.71887,8.8109 -137.8831,-5.0701 -162.017464,-29.5142 -24.134249,-24.44404 -11.251254,-19.55635 -20.268404,-60.7639 z"
       id="path3365-3"
       inkscape:connector-curvature="0"
       sodipodi:nodetypes="cssccsc" />
    <path
       style="color:#000000;display:inline;overflow:visible;visibility:visible;fill:#ffffff;fill-opacity:1;fill-rule:nonzero;stroke:none;stroke-width:1.63566649px;marker:none;enable-background:accumulate"
       d="M 181.80721,311.01848 C 194.59145,543.14637 235.94745,787.00744 378.6466,837.81258 276.65833,787.36708 219.49009,550.6603 218.48358,327.373 218.27015,280.02456 199.72673,307.82462 199.72673,307.82462 Z"
       id="path4440"
       inkscape:connector-curvature="0"
       sodipodi:nodetypes="ccscc" />
    <path
       style="fill:#ffffff;stroke:none;stroke-width:1.64498878"
       d="m 1120.891,90.084595 c 34.5123,-1.888132 201.2968,-10.835785 198.7027,171.262685 -3.2503,228.17472 -4.8879,332.44307 -183.4904,328.93767 C 944.2743,586.51996 982.88297,448.90354 981.38091,276.46115 980.05115,123.79654 1028.2815,95.603268 1120.891,90.084595 Z"
       id="path3280-8"
       inkscape:connector-curvature="0"
       sodipodi:nodetypes="csssc" />
    <path
       style="color:#000000;display:inline;overflow:visible;visibility:visible;fill:#ffffff;fill-opacity:1;fill-rule:nonzero;stroke:none;stroke-width:1.45930743px;marker:none;enable-background:accumulate"
       d="m 1243.8585,818.35327 c -52.2412,-10.38957 -90.1219,-52.2826 -82.2673,-117.43179 7.8551,-73.36812 7.6985,-80.57712 7.6985,-80.57712 l -55.1615,2.38205 c 0,0 3.3492,196.86393 129.7303,195.62686 z"
       id="path3072"
       inkscape:connector-curvature="0"
       inkscape:transform-center-x="-3.4248275"
       inkscape:transform-center-y="27.464172"
       sodipodi:nodetypes="ccccc" />
    <path
       style="fill:#ffffff;fill-rule:evenodd;stroke:none;stroke-width:1.16250026px;stroke-linecap:butt;stroke-linejoin:miter;stroke-opacity:1"
       d="m 983.05067,591.49962 c 29.14283,3.4952 58.14533,-1.8493 34.58443,-54.4718 22.8659,18.642 60.4906,38.2355 87.1567,-6.633 7.6374,56.8613 56.4713,24.3712 80.6153,-0.5503 -36.0124,59.1974 68.6181,43.42073 83.6768,11.85058 -10.8684,34.40947 30.8257,33.73186 58.6021,35.27366 -58.7582,59.3702 -58.9773,102.36486 -35.8244,124.72626 -57.7455,-16.5442 -43.7796,16.9775 -50.6768,35.9333 -62.7499,-54.69404 -96.1522,-42.16952 -114.0225,7.1867 -14.8853,-21.7218 -19.5576,-66.617 -74.4313,2.3955 20.1784,-59.5777 -6.271,-53.3242 -49.0929,-23.9554 6.7111,-20.293 46.5984,-51.1514 -20.58743,-47.9112 41.96553,-19.2915 50.76593,-45.4244 0,-83.8443 z"
       id="path4584"
       inkscape:connector-curvature="0"
       sodipodi:nodetypes="ccccccccccccc" />
    <path
       style="fill:#ffffff;fill-opacity:1;stroke:none;stroke-width:1.88949561"
       d="m 2025.0395,209.61523 c -4.4678,-59.44873 25.1659,-89.02168 52.1475,-103.03065 34.1953,-17.754389 312.5013,-37.542152 342.2687,12.22036 27.4148,45.82971 15.2677,130.0876 -66.593,171.70895 -81.8607,41.6212 -218.4804,18.82333 -241.7363,11.25595 -23.2559,-7.56755 -81.4359,-27.83095 -86.0869,-92.15461 z"
       id="path3659-8"
       inkscape:connector-curvature="0"
       sodipodi:nodetypes="cssssc" />
    <path
       style="fill:#ffffff;stroke:none;stroke-width:1.12429571"
       d="m 2187.8594,352.9469 c -0.8756,-41.87209 25.2691,-51.27448 51.8008,-57.16805 26.5317,-5.89345 108.9888,0.63901 102.9316,51.8773 -6.0571,51.23841 -45.9531,58.33952 -78.9162,56.07445 -32.9632,-2.2652 -71.0332,-11.10871 -75.8162,-50.7837 z"
       id="path3938"
       inkscape:connector-curvature="0"
       sodipodi:nodetypes="csssc" />
    <path
       style="color:#000000;display:inline;overflow:visible;visibility:visible;fill:#ffffff;fill-opacity:1;fill-rule:nonzero;stroke:none;stroke-width:1px;marker:none;enable-background:accumulate"
       d="m 2155.8807,413.81052 c 41.2209,-1.94348 55.6641,-5.00539 71.331,-50.72285 15.6671,-45.71761 32.4158,-38.48457 32.4158,-38.48457 l 7.7097,32.88324 c 0,0 -40.1576,94.75832 -111.4565,56.32418 z"
       id="path3072-5"
       inkscape:connector-curvature="0" />
    <path
       style="color:#000000;display:inline;overflow:visible;visibility:visible;fill:#ffffff;fill-opacity:1;fill-rule:nonzero;stroke:none;stroke-width:1.28308702px;marker:none;enable-background:accumulate"
       d="m 1911.42,979.55164 c 0.3388,-60.13948 46.5865,-133.68118 258.1206,-141.33583 412.7394,-14.93559 279.7012,140.17789 277.9753,178.94869 -1.7255,38.7704 -65.3899,116.0256 -96.4519,125.7182 -31.0621,9.6928 -112.1682,32.9548 -163.9384,25.2009 -51.7697,-7.7542 -151.0578,-12.2039 -233.6632,-67.6901 -58.816,-52.054 -43.6445,-87.8633 -42.0424,-120.84186 z"
       id="path3365-5"
       inkscape:connector-curvature="0"
       sodipodi:nodetypes="csccccc" />
    <path
       style="fill:#ffffff;stroke:none;stroke-width:1"
       d="m 2198.814,1073.9531 c -28.3487,40.1842 -21.9808,80.5701 -11.3851,96.8521 10.5958,16.2818 -14.1224,62.2852 -32.5966,66.3613 42.1318,-2.545 63.2033,-58.0225 57.8284,-106.2564 -1.5781,-14.1607 13.8192,-31.6694 32.5349,-30.4271 17.298,1.1482 33.3984,-19.3288 33.3984,-19.3288 z"
       id="path3276"
       inkscape:connector-curvature="0"
       sodipodi:nodetypes="cscsscc" />
    <path
       style="fill:#ffffff;stroke:none;stroke-width:1.08154464"
       d="m 61.731833,2233.8541 c -1.177496,-117.0147 19.956453,-178.5016 267.912257,-174.5571 347.0702,5.5212 371.83302,79.9025 375.30259,217.1782 4.75055,187.9586 -204.80081,155.929 -372.25919,157.3727 -288.977293,2.4914 -262.770393,-80.1685 -270.955657,-199.9938 z"
       id="path3280-8-0"
       inkscape:connector-curvature="0"
       sodipodi:nodetypes="csssc" />
    <path
       style="fill:#ffffff;stroke:none;stroke-width:1"
       d="m 716.99413,2551.2037 c 2.69935,99.6845 -9.0448,137.2658 -176.23628,149.1922 -231.39279,16.5062 -252.31922,-67.3541 -254.4242,-184.3389 -2.27111,-126.2186 108.41564,-115.1005 216.04067,-129.5056 191.68546,-25.6565 207.19012,62.5863 214.61981,164.6523 z"
       id="path3280-8-0-3"
       inkscape:connector-curvature="0"
       sodipodi:nodetypes="csssc" />
    <path
       style="color:#000000;display:inline;overflow:visible;visibility:visible;fill:#ffffff;fill-opacity:1;fill-rule:nonzero;stroke:none;stroke-width:0.88925171px;marker:none;enable-background:accumulate"
       d="m 1712.9355,2875.7202 c -18.527,-28.0828 -23.6752,-100.8786 138.4578,-91.2876 126.0584,5.8632 163.5671,25.4483 167.8967,58.9426 4.3297,33.4945 13.8505,65.2853 -87.0944,70.1405 -92.421,2.4962 -188.5141,0.7349 -219.2601,-37.7955 z"
       id="path3525"
       inkscape:connector-curvature="0"
       sodipodi:nodetypes="cczcc" />
    <path
       style="color:#000000;display:inline;overflow:visible;visibility:visible;fill:#ffffff;fill-opacity:1;fill-rule:nonzero;stroke:none;stroke-width:0.932679px;marker:none;enable-background:accumulate"
       d="m 788.59271,2654.0243 c -38.61235,13.1991 -53.23313,15.8331 -88.53084,-16.7571 -35.29767,-32.5903 -47.30824,-20.5196 -47.30824,-20.5196 l 8.02128,30.2663 c 0,0 80.19331,64.7861 127.8178,7.0104 z"
       id="path3072-6"
       inkscape:connector-curvature="0" />
    <path
       style="color:#000000;display:inline;overflow:visible;visibility:visible;fill:#ffffff;fill-opacity:1;fill-rule:nonzero;stroke:none;stroke-width:1px;marker:none;enable-background:accumulate"
       d="m 1885.9302,2880.543 c -8.5379,-41.2674 -44.7927,-105.1616 -72.2125,-139.41 -35.1182,-43.864 -72.8214,-53.3837 -92.0424,-60.2184 -19.2212,-6.8347 -32.1844,10.3588 -49.896,10.3433 -15.217,-0.013 -25.6847,-6.7896 -32.7226,-18.2648 9.7927,27.8644 34.0049,32.1826 44.6949,29.5469 10.6902,-2.6357 26.8117,-12.6559 45.0036,-2.5829 24.2118,13.4064 47.6718,29.1496 76.3935,72.336 25.957,39.0295 44.3792,76.7753 41.8276,91.0824 -2.5517,14.3073 38.9539,17.1675 38.9539,17.1675 z"
       id="path4562"
       inkscape:connector-curvature="0"
       sodipodi:nodetypes="cssscssssc" />
  </g>
  <g
     inkscape:groupmode="layer"
     id="layer1"
     inkscape:label="txt">
    <path
       style="color:#000000;display:inline;overflow:visible;visibility:visible;fill:#ffffff;fill-opacity:1;fill-rule:nonzero;stroke:none;stroke-width:1.5984813px;marker:none;enable-background:accumulate"
       d="M 41.454985,223.83761 C 38.316318,198.32096 68.731677,122.57436 261.1241,121.59234 c 252.6032,-1.28935 237.86108,127.29606 223.75215,165.07141 -12.05792,32.28407 -38.67964,50.18148 -79.4869,74.39116 -40.80725,24.20966 -156.53702,27.13228 -203.6176,20.32808 C 154.6915,374.57843 96.382172,373.23668 58.074128,329.06748 30.866508,297.69708 44.593665,230.64198 41.454985,223.83761 Z"
       id="path3365"
       inkscape:connector-curvature="0"
       sodipodi:nodetypes="csszcsc" />
    <text
       xml:space="preserve"
       style="color:#000000;font-style:normal;font-variant:normal;font-weight:normal;font-stretch:normal;font-size:12.00003719px;line-height:0.01%;font-family:Lavi;-inkscape-font-specification:'Lavi, Normal';font-variant-ligatures:normal;font-variant-caps:normal;font-variant-numeric:normal;font-feature-settings:normal;text-align:start;letter-spacing:0.00204969px;word-spacing:0px;writing-mode:lr-tb;text-anchor:start;display:inline;overflow:visible;visibility:visible;fill:#ffffff;fill-opacity:1;fill-rule:nonzero;stroke:#ffffff;stroke-width:0.0836072;stroke-linecap:butt;stroke-linejoin:miter;stroke-miterlimit:4;stroke-dasharray:none;stroke-dashoffset:0;stroke-opacity:1;marker:none;filter:url(#filter4375-4-1-1-15-1-3);enable-background:accumulate"
       x="1125.3203"
       y="1091.2349"
       id="text1702"
       transform="matrix(5.7002708,-3.8236609,4.4936667,6.6234627,-10757.229,-1056.1997)"><tspan
         sodipodi:role="line"
         id="tspan1032"
         x="1125.3203"
         y="1091.2349"
         style="font-style:normal;font-variant:normal;font-weight:bold;font-stretch:normal;font-family:Lavi;-inkscape-font-specification:'Lavi Bold';font-size:12.59218772px">прыг</tspan></text>
    <text
       xml:space="preserve"
       style="color:#000000;font-style:normal;font-variant:normal;font-weight:normal;font-stretch:normal;font-size:12.00003719px;line-height:0.01%;font-family:Lavi;-inkscape-font-specification:'Lavi, Normal';font-variant-ligatures:normal;font-variant-caps:normal;font-variant-numeric:normal;font-feature-settings:normal;text-align:start;letter-spacing:0.00204969px;word-spacing:0px;writing-mode:lr-tb;text-anchor:start;display:inline;overflow:visible;visibility:visible;fill:#ffffff;fill-opacity:1;fill-rule:nonzero;stroke:#ffffff;stroke-width:0.12600572;stroke-linecap:butt;stroke-linejoin:miter;stroke-miterlimit:4;stroke-dasharray:none;stroke-dashoffset:0;stroke-opacity:1;marker:none;filter:url(#filter4375-4-1-1-15-1-3-0);enable-background:accumulate"
       x="1125.3203"
       y="1091.2349"
       id="text1702-6"
       transform="matrix(3.1869294,3.2574207,-3.7023322,3.8125721,2175.23,-6084.2675)"><tspan
         sodipodi:role="line"
         id="tspan1032-0"
         x="1125.3203"
         y="1091.2349"
         style="font-style:normal;font-variant:normal;font-weight:bold;font-stretch:normal;font-family:Lavi;-inkscape-font-specification:'Lavi Bold';stroke-width:0.12600572;stroke-miterlimit:4;stroke-dasharray:none;font-size:14.9039018px">прыг</tspan></text>
    <flowRoot
       xml:space="preserve"
       id="flowRoot1141"
       style="fill:black;stroke:none;stroke-opacity:1;stroke-width:1px;stroke-linejoin:miter;stroke-linecap:butt;fill-opacity:1;font-family:Lavi;font-style:normal;font-weight:normal;font-size:0.66666667px;line-height:0%;letter-spacing:0px;word-spacing:0px;-inkscape-font-specification:Lavi;font-stretch:normal;font-variant:normal;text-anchor:middle;text-align:center;writing-mode:lr"><flowRegion
         id="flowRegion1143"><rect
           id="rect1145"
           width="37.375"
           height="11.5"
           x="1802.6249"
           y="2272.5" /></flowRegion><flowPara
         id="flowPara1147" /></flowRoot>    <text
       xml:space="preserve"
       style="color:#000000;font-style:normal;font-variant:normal;font-weight:normal;font-stretch:normal;font-size:11.10639572px;line-height:0.01%;font-family:Arial;-inkscape-font-specification:Arial;letter-spacing:0.89570737px;word-spacing:0px;display:inline;overflow:visible;visibility:visible;fill:#e69d76;fill-opacity:1;fill-rule:nonzero;stroke:#e99f77;stroke-width:4.05566978;stroke-opacity:1;marker:none;enable-background:accumulate"
       x="610.2511"
       y="601.31281"
       id="text1711"
       transform="matrix(0.78576578,-0.49307246,0.54549744,0.93034115,0,0)"><tspan
         sodipodi:role="line"
         x="610.2511"
         y="601.31281"
         id="tspan1709"
         style="letter-spacing:0.89570737px;word-spacing:0px;fill:#ffffff;fill-opacity:1;stroke:#ffffff;stroke-width:4.05566978;stroke-opacity:1;font-size:79.99999984px">Пуф!</tspan></text>
    <flowRoot
       xml:space="preserve"
       id="flowRoot100"
       style="fill:black;fill-opacity:1;stroke:none;font-family:Neucha;font-style:normal;font-weight:normal;font-size:45px;line-height:1.25;letter-spacing:0px;word-spacing:0px;-inkscape-font-specification:'Neucha, Normal';font-stretch:normal;font-variant:normal;text-anchor:middle;text-align:center;writing-mode:lr;font-variant-ligatures:normal;font-variant-caps:normal;font-variant-numeric:normal;font-feature-settings:normal"><flowRegion
         id="flowRegion102"><rect
           id="rect104"
           width="278.37589"
           height="423.20657"
           x="1008.1721"
           y="138.03752" /></flowRegion><flowPara
         id="flowPara106" /></flowRoot>    <flowRoot
       xml:space="preserve"
       id="flowRoot108"
       style="font-style:normal;font-variant:normal;font-weight:normal;font-stretch:normal;font-size:46.66666794px;line-height:1.25;font-family:Neucha;-inkscape-font-specification:'Neucha, Normal';font-variant-ligatures:normal;font-variant-caps:normal;font-variant-numeric:normal;font-feature-settings:normal;text-align:center;letter-spacing:0px;word-spacing:0px;writing-mode:lr-tb;text-anchor:middle;fill:#000000;fill-opacity:1;stroke:none"><flowRegion
         id="flowRegion110"><rect
           id="rect112"
           width="295.30414"
           height="419.44473"
           x="995.00568"
           y="143.68028" /></flowRegion><flowPara
         id="flowPara114">Автор даже советует оставить</flowPara><flowPara
         id="flowPara116"> шляпу, чтобы проще было выбраться!</flowPara></flowRoot>    <flowRoot
       xml:space="preserve"
       id="flowRoot118"
       style="font-style:normal;font-variant:normal;font-weight:normal;font-stretch:normal;font-size:46.66666794px;line-height:1.25;font-family:Neucha;-inkscape-font-specification:'Neucha, Normal';font-variant-ligatures:normal;font-variant-caps:normal;font-variant-numeric:normal;font-feature-settings:normal;text-align:center;letter-spacing:0px;word-spacing:0px;writing-mode:lr-tb;text-anchor:middle;fill:#000000;fill-opacity:1;stroke:none"
       transform="translate(-7.9800596,7.9800596)"><flowRegion
         id="flowRegion120"><rect
           id="rect122"
           width="252.04303"
           height="154.23529"
           x="1021.3385"
           y="551.83948" /></flowRegion><flowPara
         id="flowPara124">Книги так хороши!</flowPara></flowRoot>    <flowRoot
       xml:space="preserve"
       id="flowRoot126"
       style="fill:black;fill-opacity:1;stroke:none;font-family:Neucha;font-style:normal;font-weight:normal;font-size:46.66666667px;line-height:1.25;letter-spacing:0px;word-spacing:0px;-inkscape-font-specification:'Neucha, Normal';font-stretch:normal;font-variant:normal;text-anchor:middle;text-align:center;writing-mode:lr;font-variant-ligatures:normal;font-variant-caps:normal;font-variant-numeric:normal;font-feature-settings:normal"><flowRegion
         id="flowRegion128"><rect
           id="rect130"
           width="327.27975"
           height="189.97273"
           x="109.09325"
           y="149.32303" /></flowRegion><flowPara
         id="flowPara132" /></flowRoot>    <flowRoot
       xml:space="preserve"
       id="flowRoot134"
       style="font-style:normal;font-variant:normal;font-weight:normal;font-stretch:normal;font-size:46.66666794px;line-height:1.25;font-family:Neucha;-inkscape-font-specification:'Neucha, Normal';font-variant-ligatures:normal;font-variant-caps:normal;font-variant-numeric:normal;font-feature-settings:normal;text-align:center;letter-spacing:0px;word-spacing:0px;writing-mode:lr-tb;text-anchor:middle;fill:#000000;fill-opacity:1;stroke:none"
       transform="translate(-6.6500502,49.210368)"><flowRegion
         id="flowRegion136"><rect
           id="rect138"
           width="371.07275"
           height="271.32205"
           x="99.750748"
           y="134.08482"
           ry="0" /></flowRegion><flowPara
         style="font-size:46.66666794px;line-height:28.08189011px"
         id="flowPara142">а потом</flowPara><flowPara
         style="font-size:46.66666794px;line-height:28.08189011px"
         id="flowPara242"> накроете шляпой...</flowPara></flowRoot>    <flowRoot
       xml:space="preserve"
       id="flowRoot144"
       style="font-style:normal;font-variant:normal;font-weight:normal;font-stretch:normal;font-size:46.66666794px;line-height:1.25;font-family:Neucha;-inkscape-font-specification:'Neucha, Normal';font-variant-ligatures:normal;font-variant-caps:normal;font-variant-numeric:normal;font-feature-settings:normal;text-align:center;letter-spacing:0px;word-spacing:0px;writing-mode:lr-tb;text-anchor:middle;fill:#000000;fill-opacity:1;stroke:none"><flowRegion
         id="flowRegion146"><rect
           id="rect148"
           width="258.02194"
           height="194.18146"
           x="111.72083"
           y="557.02795" /></flowRegion><flowPara
         id="flowPara150">дверь откроется сама!</flowPara></flowRoot>    <flowRoot
       xml:space="preserve"
       id="flowRoot152"
       style="font-style:normal;font-variant:normal;font-weight:normal;font-stretch:normal;font-size:46.66666794px;line-height:1.25;font-family:Neucha;-inkscape-font-specification:'Neucha, Normal';font-variant-ligatures:normal;font-variant-caps:normal;font-variant-numeric:normal;font-feature-settings:normal;text-align:center;letter-spacing:0px;word-spacing:0px;writing-mode:lr-tb;text-anchor:middle;fill:#000000;fill-opacity:1;stroke:none"
       transform="translate(-5.3200398,13.300099)"><flowRegion
         id="flowRegion154"><rect
           id="rect156"
           width="321.8624"
           height="196.84148"
           x="2060.1853"
           y="99.504562" /></flowRegion><flowPara
         id="flowPara158">&quot;Спрыгните с первого же балкона.&quot;</flowPara></flowRoot>    <flowRoot
       xml:space="preserve"
       id="flowRoot160"
       style="fill:black;fill-opacity:1;stroke:none;font-family:Neucha;font-style:normal;font-weight:normal;font-size:46.66666667px;line-height:1.25;letter-spacing:0px;word-spacing:0px;-inkscape-font-specification:'Neucha, Normal';font-stretch:normal;font-variant:normal;text-anchor:middle;text-align:center;writing-mode:lr;font-variant-ligatures:normal;font-variant-caps:normal;font-variant-numeric:normal;font-feature-settings:normal"><flowRegion
         id="flowRegion162"><rect
           id="rect164"
           width="430.92322"
           height="243.39182"
           x="1955.1146"
           y="897.5105" /></flowRegion><flowPara
         id="flowPara166" /></flowRoot>    <flowRoot
       xml:space="preserve"
       id="flowRoot178"
       style="font-style:normal;font-variant:normal;font-weight:normal;font-stretch:normal;font-size:46.66666794px;line-height:1.25;font-family:Neucha;-inkscape-font-specification:'Neucha, Normal';font-variant-ligatures:normal;font-variant-caps:normal;font-variant-numeric:normal;font-feature-settings:normal;text-align:center;letter-spacing:0px;word-spacing:0px;writing-mode:lr-tb;text-anchor:middle;fill:#000000;fill-opacity:1;stroke:none"
       transform="translate(2.6600199,2.6600199)"><flowRegion
         id="flowRegion180"><rect
           id="rect182"
           width="140.98105"
           height="77.140579"
           x="2199.8364"
           y="317.62619" /></flowRegion><flowPara
         id="flowPara184">OK!</flowPara></flowRoot>    <flowRoot
       xml:space="preserve"
       id="flowRoot186"
       style="fill:black;fill-opacity:1;stroke:none;font-family:Neucha;font-style:normal;font-weight:normal;font-size:46.66666667px;line-height:1.25;letter-spacing:0px;word-spacing:0px;-inkscape-font-specification:'Neucha, Normal';font-stretch:normal;font-variant:normal;text-anchor:middle;text-align:center;writing-mode:lr;font-variant-ligatures:normal;font-variant-caps:normal;font-variant-numeric:normal;font-feature-settings:normal"><flowRegion
         id="flowRegion188"><rect
           id="rect190"
           width="563.92419"
           height="327.18243"
           x="107.7308"
           y="2094.5195" /></flowRegion><flowPara
         id="flowPara192" /></flowRoot>    <flowRoot
       xml:space="preserve"
       id="flowRoot198"
       style="fill:black;fill-opacity:1;stroke:none;font-family:Neucha;font-style:normal;font-weight:normal;font-size:46.66666667px;line-height:1.25;letter-spacing:0px;word-spacing:0px;-inkscape-font-specification:'Neucha, Normal';font-stretch:normal;font-variant:normal;text-anchor:middle;text-align:center;writing-mode:lr;font-variant-ligatures:normal;font-variant-caps:normal;font-variant-numeric:normal;font-feature-settings:normal"><flowRegion
         id="flowRegion200"><rect
           id="rect202"
           width="606.48456"
           height="308.56232"
           x="98.420738"
           y="2098.5095" /></flowRegion><flowPara
         id="flowPara204" /></flowRoot>    <flowRoot
       xml:space="preserve"
       id="flowRoot206"
       style="font-style:normal;font-variant:normal;font-weight:normal;font-stretch:normal;font-size:46.66666794px;line-height:1.25;font-family:Neucha;-inkscape-font-specification:'Neucha, Normal';font-variant-ligatures:normal;font-variant-caps:normal;font-variant-numeric:normal;font-feature-settings:normal;text-align:center;letter-spacing:0px;word-spacing:0px;writing-mode:lr-tb;text-anchor:middle;fill:#000000;fill-opacity:1;stroke:none"
       transform="translate(-18.620139)"><flowRegion
         id="flowRegion208"><rect
           id="rect210"
           width="559.93414"
           height="363.09256"
           x="101.08076"
           y="2066.5894" /></flowRegion><flowPara
         id="flowPara212">&quot;Без опаски</flowPara><flowPara
         id="flowPara214"> наслаждайтесь уютом  светящейся паутины - это фотосинтезирующие пауки и они питаются отражённым светом.&quot;</flowPara></flowRoot>    <flowRoot
       xml:space="preserve"
       id="flowRoot216"
       style="fill:black;fill-opacity:1;stroke:none;font-family:Neucha;font-style:normal;font-weight:normal;font-size:46.66666667px;line-height:1.25;letter-spacing:0px;word-spacing:0px;-inkscape-font-specification:'Neucha, Normal';font-stretch:normal;font-variant:normal;text-anchor:middle;text-align:center;writing-mode:lr;font-variant-ligatures:normal;font-variant-caps:normal;font-variant-numeric:normal;font-feature-settings:normal"><flowRegion
         id="flowRegion218"><rect
           id="rect220"
           width="360.43271"
           height="268.66202"
           x="337.82254"
           y="2411.0618" /></flowRegion><flowPara
         id="flowPara222" /></flowRoot>    <flowRoot
       xml:space="preserve"
       id="flowRoot224"
       style="font-style:normal;font-variant:normal;font-weight:normal;font-stretch:normal;font-size:46.66666794px;line-height:1.25;font-family:Neucha;-inkscape-font-specification:'Neucha, Normal';font-variant-ligatures:normal;font-variant-caps:normal;font-variant-numeric:normal;font-feature-settings:normal;text-align:center;letter-spacing:0px;word-spacing:0px;writing-mode:lr-tb;text-anchor:middle;fill:#000000;fill-opacity:1;stroke:none"
       transform="translate(2.6600199,10.64008)"><flowRegion
         id="flowRegion226"><rect
           id="rect228"
           width="414.9631"
           height="272.65204"
           x="296.59222"
           y="2416.3818" /></flowRegion><flowPara
         id="flowPara230">&quot;Я советую  вам недолго вздремнуть, чтобы полностью восстановить силы.&quot;</flowPara></flowRoot>    <flowRoot
       xml:space="preserve"
       id="flowRoot232"
       style="font-style:normal;font-variant:normal;font-weight:normal;font-stretch:normal;font-size:46.66666794px;line-height:1.25;font-family:Neucha;-inkscape-font-specification:'Neucha, Normal';font-variant-ligatures:normal;font-variant-caps:normal;font-variant-numeric:normal;font-feature-settings:normal;text-align:center;letter-spacing:0px;word-spacing:0px;writing-mode:lr-tb;text-anchor:middle;fill:#000000;fill-opacity:1;stroke:none"
       transform="translate(-13.3001,34.580258)"><flowRegion
         id="flowRegion234"><rect
           id="rect236"
           width="303.24228"
           height="151.62114"
           x="1717.0428"
           y="2795.4348" /></flowRegion><flowPara
         id="flowPara238">Обожаю книги!</flowPara></flowRoot>    <flowRoot
       xml:space="preserve"
       id="flowRoot259"
       style="font-style:normal;font-variant:normal;font-weight:normal;font-stretch:normal;font-size:46.66666794px;line-height:1.25;font-family:Neucha;-inkscape-font-specification:'Neucha, Normal';font-variant-ligatures:normal;font-variant-caps:normal;font-variant-numeric:normal;font-feature-settings:normal;text-align:center;letter-spacing:0px;word-spacing:0px;writing-mode:lr-tb;text-anchor:middle;fill:#000000;fill-opacity:1;stroke:none"><flowRegion
         id="flowRegion261"><rect
           id="rect263"
           width="452.20337"
           height="313.88235"
           x="1928.5144"
           y="877.56036" /></flowRegion><flowPara
         id="flowPara265">Возможно, вы почувствуете ощущение падения. так и должно быть. это кратчайший путь.</flowPara></flowRoot>  </g>
  <g
     inkscape:groupmode="layer"
     id="layer4"
     inkscape:label="notes"
     style="display:inline"
     sodipodi:insensitive="true">
    <path
       style="color:#000000;clip-rule:nonzero;display:inline;overflow:visible;visibility:visible;opacity:0.481;isolation:auto;mix-blend-mode:normal;color-interpolation:sRGB;color-interpolation-filters:linearRGB;solid-color:#000000;solid-opacity:1;fill:#ffe680;fill-opacity:1;fill-rule:nonzero;stroke:#565656;stroke-width:1.20000005;stroke-linecap:butt;stroke-linejoin:miter;stroke-miterlimit:4;stroke-dasharray:none;stroke-dashoffset:0;stroke-opacity:1;marker:none;color-rendering:auto;image-rendering:auto;shape-rendering:auto;text-rendering:auto;enable-background:accumulate"
       d="M 1803.0237,-298.37057 H 846.35615 v 253.040394 h 289.92535 v 10 h -15.6308 l 26.9824,30.9825 26.9804,-30.9825 h -16.6171 v -10 h 645.0273 z"
       id="rect4191-6"
       inkscape:connector-curvature="0"
       sodipodi:nodetypes="cccccccccccc" />
    <flowRoot
       xml:space="preserve"
       id="flowRoot4212-7"
       style="font-style:normal;font-variant:normal;font-weight:normal;font-stretch:normal;line-height:0.01%;font-family:Lavi;-inkscape-font-specification:'Lavi, Normal';text-align:center;letter-spacing:0px;word-spacing:0px;writing-mode:lr-tb;text-anchor:middle;display:inline;opacity:0.68900003;fill:#000000;fill-opacity:1;stroke:none;stroke-width:0.79958946px;stroke-linecap:butt;stroke-linejoin:miter;stroke-opacity:1"
       transform="matrix(1.2506418,0,0,1.2506418,1218.2001,-1598.9961)"><flowRegion
         id="flowRegion4214-5"
         style="stroke-width:0.79958946px"><rect
           id="rect4216-3"
           width="718.88867"
           height="174.37697"
           x="-275.14545"
           y="1061.6674"
           style="stroke-width:0.79958946px" /></flowRegion><flowPara
         id="flowPara4564"
         style="font-size:25.3241539px;line-height:1.25;stroke-width:0.79958946px">This “they” means one person, without specifying their gender.</flowPara><flowPara
         style="font-size:25.3241539px;line-height:1.25;stroke-width:0.79958946px"
         id="flowPara936">If possible, please try to do the same in your language</flowPara><flowPara
         style="font-size:25.3241539px;line-height:1.25;stroke-width:0.79958946px"
         id="flowPara934">(suggestion: if your language doesn't have genderless pronouns, maybe you can translate as “the author”).</flowPara><flowPara
         style="font-size:25.3241539px;line-height:1.25;stroke-width:0.79958946px"
         id="flowPara920">If that doesn't really work well, assume the author is a woman.</flowPara></flowRoot>  </g>
</svg>
