<?xml version="1.0" encoding="UTF-8" standalone="no"?>
<!-- Created with Inkscape (http://www.inkscape.org/) -->

<svg
   xmlns:dc="http://purl.org/dc/elements/1.1/"
   xmlns:cc="http://creativecommons.org/ns#"
   xmlns:rdf="http://www.w3.org/1999/02/22-rdf-syntax-ns#"
   xmlns:svg="http://www.w3.org/2000/svg"
   xmlns="http://www.w3.org/2000/svg"
   xmlns:xlink="http://www.w3.org/1999/xlink"
   xmlns:sodipodi="http://sodipodi.sourceforge.net/DTD/sodipodi-0.dtd"
   xmlns:inkscape="http://www.inkscape.org/namespaces/inkscape"
   id="svg2"
   version="1.1"
   inkscape:version="0.92.2 (5c3e80d, 2017-08-06)"
   width="2481"
   height="3503"
   sodipodi:docname="Pepper-and-Carrot_by-David-Revoy_E18P05.svg"
   inkscape:export-filename="E:\Users\jamesmichael\Downloads\Compressed\eps\peppercarrot_ep18_translation-master\peppercarrot_ep18_translation-master\ph\Pepper-and-Carrot_by-David-Revoy_E18P05.png"
   inkscape:export-xdpi="98.181801"
   inkscape:export-ydpi="98.181801">
  <metadata
     id="metadata8">
    <rdf:RDF>
      <cc:Work
         rdf:about="">
        <dc:format>image/svg+xml</dc:format>
        <dc:type
           rdf:resource="http://purl.org/dc/dcmitype/StillImage" />
        <dc:title />
      </cc:Work>
    </rdf:RDF>
  </metadata>
  <defs
     id="defs6">
    <filter
       inkscape:collect="always"
       style="color-interpolation-filters:sRGB"
       id="filter5236-4-16"
       x="-0.0089085409"
       width="1.0178171"
       y="-0.027928527"
       height="1.0558571">
      <feGaussianBlur
         inkscape:collect="always"
         stdDeviation="0.49168068"
         id="feGaussianBlur5238-0-4" />
    </filter>
    <filter
       inkscape:collect="always"
       style="color-interpolation-filters:sRGB"
       id="filter4876"
       x="-0.014623354"
       width="1.0292467"
       y="-0.01017471"
       height="1.0203494">
      <feGaussianBlur
         inkscape:collect="always"
         stdDeviation="2.0351364"
         id="feGaussianBlur4878" />
    </filter>
    <filter
       inkscape:collect="always"
       style="color-interpolation-filters:sRGB"
       id="filter5049"
       x="-0.016615603"
       width="1.0332312"
       y="-0.0093912347"
       height="1.0187825">
      <feGaussianBlur
         inkscape:collect="always"
         stdDeviation="2.1221564"
         id="feGaussianBlur5051" />
    </filter>
    <filter
       inkscape:collect="always"
       style="color-interpolation-filters:sRGB"
       id="filter5053"
       x="-0.013754037"
       width="1.0275081"
       y="-0.010642743"
       height="1.0212855">
      <feGaussianBlur
         inkscape:collect="always"
         stdDeviation="1.7349957"
         id="feGaussianBlur5055" />
    </filter>
  </defs>
  <sodipodi:namedview
     pagecolor="#ffffff"
     bordercolor="#666666"
     borderopacity="1"
     objecttolerance="10"
     gridtolerance="10"
     guidetolerance="10"
     inkscape:pageopacity="0"
     inkscape:pageshadow="2"
     inkscape:window-width="1366"
     inkscape:window-height="705"
     id="namedview4"
     showgrid="false"
     inkscape:zoom="0.19751632"
     inkscape:cx="430.33426"
     inkscape:cy="836.41677"
     inkscape:window-x="-8"
     inkscape:window-y="-8"
     inkscape:window-maximized="1"
     inkscape:current-layer="layer9" />
  <g
     inkscape:groupmode="layer"
     id="layer2"
     inkscape:label="artwork"
     sodipodi:insensitive="true">
    <image
       sodipodi:absref="E:\Users\jamesmichael\Downloads\Compressed\eps\peppercarrot_ep18_translation-master\peppercarrot_ep18_translation-master\ph\../gfx_Pepper-and-Carrot_by-David-Revoy_E18P05.png"
       xlink:href="../gfx_Pepper-and-Carrot_by-David-Revoy_E18P05.png"
       width="2481"
       height="3503"
       id="image10"
       x="0"
       y="0" />
  </g>
  <g
     inkscape:groupmode="layer"
     id="layer4"
     inkscape:label="translatornotes"
     sodipodi:insensitive="true"
     style="display:inline">
    <path
       style="color:#000000;clip-rule:nonzero;display:inline;overflow:visible;visibility:visible;opacity:0.481;isolation:auto;mix-blend-mode:normal;color-interpolation:sRGB;color-interpolation-filters:linearRGB;solid-color:#000000;solid-opacity:1;fill:#ffe680;fill-opacity:1;fill-rule:nonzero;stroke:#565656;stroke-width:1.20000005;stroke-linecap:butt;stroke-linejoin:miter;stroke-miterlimit:4;stroke-dasharray:none;stroke-dashoffset:0;stroke-opacity:1;marker:none;color-rendering:auto;image-rendering:auto;shape-rendering:auto;text-rendering:auto;enable-background:accumulate"
       d="m 2768.2152,1693.1697 0,-189.0352 -203.8301,0 0,90.9805 -10,0 0,-15.6308 -30.9824,26.9824 30.9824,26.9804 0,-16.6171 10,0 0,76.3398 203.8301,0 z"
       id="rect4191-6"
       inkscape:connector-curvature="0" />
    <flowRoot
       xml:space="preserve"
       id="flowRoot4212-7"
       style="font-style:normal;font-variant:normal;font-weight:normal;font-stretch:normal;line-height:0.01%;font-family:Lavi;-inkscape-font-specification:'Lavi, Normal';text-align:center;letter-spacing:0px;word-spacing:0px;writing-mode:lr-tb;text-anchor:middle;display:inline;opacity:0.481;fill:#000000;fill-opacity:1;stroke:none;stroke-width:1px;stroke-linecap:butt;stroke-linejoin:miter;stroke-opacity:1"
       transform="translate(2798.6164,523.09268)"><flowRegion
         id="flowRegion4214-5"><rect
           id="rect4216-3"
           width="291.95547"
           height="247.52747"
           x="-275.14545"
           y="1061.6674" /></flowRegion><flowPara
         id="flowPara4206"
         style="font-size:25.3241539px;line-height:1.25">on the door</flowPara></flowRoot>  </g>
  <g
     inkscape:groupmode="layer"
     id="layer3"
     inkscape:label="speechbubbles">
    <g
       id="g4836"
       style="fill:#241c1c">
      <path
         sodipodi:nodetypes="cscscssscc"
         inkscape:connector-curvature="0"
         id="path4538"
         d="m 149.83599,78.54239 c 19.01177,4.15475 28.48905,-0.875416 45.84396,22.38879 17.35489,23.2642 16.32671,43.89449 13.01819,54.12416 24.47845,-4.58916 49.20423,-28.5595 58.71282,-40.47664 9.50869,-11.9172 15.32853,52.83988 15.32853,52.83988 0,0 -56.6292,24.74211 -86.75378,15.31922 C 165.8613,173.31496 176.93708,130.9104 168.21479,113.58928 159.49254,96.268248 137.95906,103.42587 127.35302,90.763858 116.74694,78.101757 92.867066,34.274501 92.867066,34.274501 123.56999,59.569859 126.89438,73.365136 149.83599,78.54239 Z"
         style="color:#000000;display:inline;overflow:visible;visibility:visible;fill:#241c1c;fill-opacity:1;fill-rule:nonzero;stroke:none;stroke-width:1px;marker:none;enable-background:accumulate" />
      <path
         sodipodi:nodetypes="zsssssz"
         inkscape:connector-curvature="0"
         id="path3330-3"
         d="m 121.43463,133.8613 c 28.05695,-32.83804 171.60949,-13.94175 224.32071,-15.8077 61.10599,-2.16312 75.37939,22.13888 79.14341,47.42318 1.32435,8.89648 -3.5424,49.00393 -29.51991,56.90787 -25.97745,7.90385 -100.36741,11.85578 -126.34497,11.85578 -25.97743,0 -89.65983,2.25052 -124.55125,-15.4116 -33.43815,-16.92645 -51.105065,-52.12958 -23.04799,-84.96753 z"
         style="color:#000000;clip-rule:nonzero;display:inline;overflow:visible;visibility:visible;opacity:1;isolation:auto;mix-blend-mode:normal;color-interpolation:sRGB;color-interpolation-filters:linearRGB;solid-color:#000000;solid-opacity:1;fill:#241c1c;fill-opacity:1;fill-rule:evenodd;stroke:none;stroke-width:1px;stroke-linecap:butt;stroke-linejoin:miter;stroke-miterlimit:4;stroke-dasharray:none;stroke-dashoffset:0;stroke-opacity:1;marker:none;color-rendering:auto;image-rendering:auto;shape-rendering:auto;text-rendering:auto;enable-background:accumulate" />
    </g>
    <path
       style="color:#000000;clip-rule:nonzero;display:inline;overflow:visible;visibility:visible;opacity:0.49;isolation:auto;mix-blend-mode:normal;color-interpolation:sRGB;color-interpolation-filters:linearRGB;solid-color:#000000;solid-opacity:1;fill:#280b0b;fill-opacity:1;fill-rule:evenodd;stroke:none;stroke-width:1.29868519px;stroke-linecap:butt;stroke-linejoin:miter;stroke-miterlimit:4;stroke-dasharray:none;stroke-dashoffset:0;stroke-opacity:1;marker:none;color-rendering:auto;image-rendering:auto;shape-rendering:auto;text-rendering:auto;enable-background:accumulate;filter:url(#filter4876)"
       clip-path="none"
       d="M 510.13281 386.10547 C 516.08808 418.82047 524.45454 446.56284 534.68359 465.54688 C 563.95605 519.87344 619.09645 523.16148 651.98242 522.75781 C 651.93962 521.19736 652.02935 520.09076 651.8457 518.19922 C 651.64793 516.1622 651.35059 513.9517 650.91797 511.60938 C 650.48535 509.26705 649.91741 506.79261 649.17578 504.22656 C 648.43415 501.66052 647.51934 499.00311 646.39453 496.29492 C 645.26972 493.58673 643.93371 490.82735 642.35156 488.05859 C 641.56049 486.67421 640.63472 485.34536 639.5918 484.06836 C 638.54888 482.79136 637.38936 481.56693 636.13477 480.39453 C 634.88017 479.22213 633.52961 478.10183 632.10352 477.03125 C 630.67742 475.96067 629.17657 474.94029 627.61914 473.96875 C 624.50429 472.02567 621.16672 470.2765 617.76758 468.71289 C 614.36843 467.14928 610.90699 465.77084 607.54492 464.56445 C 604.18286 463.35807 600.91962 462.32454 597.91602 461.45312 C 594.91241 460.58171 592.16753 459.87315 589.84375 459.31445 C 585.19619 458.19706 582.23047 457.68164 582.23047 457.68164 C 582.23047 457.68164 581.99252 456.13924 582.4375 453.41992 C 582.65999 452.06026 583.05383 450.40619 583.73242 448.50391 C 584.41102 446.60162 585.37563 444.4511 586.74023 442.09766 C 588.10484 439.74421 589.86987 437.18775 592.15039 434.47461 C 594.43091 431.76147 597.226 428.89152 600.65234 425.91016 C 602.36551 424.41948 604.23656 422.90191 606.2793 421.36133 C 608.32203 419.82074 610.53647 418.25679 612.9375 416.67773 C 615.33853 415.09868 617.92677 413.50453 620.71484 411.89844 C 623.50292 410.29234 626.49146 408.67444 629.69531 407.05273 C 632.89916 405.43103 635.84747 403.82527 638.55859 402.23633 C 641.26972 400.64738 643.74267 399.0754 645.99414 397.52539 C 648.24561 395.97538 650.27668 394.4463 652.10156 392.94141 C 653.92644 391.43651 655.54521 389.95555 656.97656 388.50195 C 658.40791 387.04835 659.65177 385.62268 660.72266 384.22656 C 661.79354 382.83044 662.69206 381.46528 663.43555 380.13281 C 664.17903 378.80035 664.76765 377.50091 665.2168 376.23828 C 665.66595 374.97565 665.97618 373.74911 666.16406 372.5625 C 666.35194 371.37589 666.41728 370.22941 666.37695 369.125 C 666.33663 368.02059 666.19055 366.95744 665.95508 365.94141 C 665.71961 364.92537 665.39364 363.95663 664.99609 363.03516 C 664.59855 362.11368 664.12812 361.24066 663.60156 360.41992 C 662.54845 358.77844 661.27117 357.34402 659.90039 356.14258 C 658.52961 354.94113 657.06651 353.97173 655.64258 353.25977 C 654.21865 352.5478 652.84282 352.04327 651.42383 351.74414 C 650.00484 351.44502 648.54138 351.35216 646.93945 351.46094 C 645.33753 351.56971 643.59774 351.88085 641.625 352.39258 C 639.65226 352.9043 637.44745 353.61566 634.91602 354.52539 C 629.85314 356.34486 623.48548 358.95605 615.06055 362.33789 C 606.63561 365.71973 596.15332 369.87269 582.86328 374.77734 C 576.21826 377.22967 569.94806 379.21767 564.06445 380.81836 C 558.18084 382.41905 552.68446 383.63232 547.58203 384.53711 C 542.4796 385.4419 537.77217 386.03771 533.4707 386.40234 C 529.16924 386.76698 525.27369 386.90064 521.79297 386.88086 C 518.31224 386.86108 515.24568 386.6879 512.60547 386.43945 C 511.62148 386.34686 510.99817 386.21498 510.13281 386.10547 z "
       id="path4951" />
    <path
       style="color:#000000;clip-rule:nonzero;display:inline;overflow:visible;visibility:visible;opacity:1;isolation:auto;mix-blend-mode:normal;color-interpolation:sRGB;color-interpolation-filters:linearRGB;solid-color:#000000;solid-opacity:1;fill:#280b0b;fill-opacity:1;fill-rule:evenodd;stroke:none;stroke-width:1.29868519px;stroke-linecap:butt;stroke-linejoin:miter;stroke-miterlimit:4;stroke-dasharray:none;stroke-dashoffset:0;stroke-opacity:1;marker:none;color-rendering:auto;image-rendering:auto;shape-rendering:auto;text-rendering:auto;enable-background:accumulate;filter:url(#filter4876)"
       clip-path="none"
       d="M 510.13281 386.10547 C 510.99817 386.21498 511.62148 386.34686 512.60547 386.43945 C 515.24568 386.6879 518.31224 386.86108 521.79297 386.88086 C 525.27369 386.90064 529.16924 386.76698 533.4707 386.40234 C 537.77217 386.03771 542.4796 385.4419 547.58203 384.53711 C 552.68446 383.63232 558.18084 382.41905 564.06445 380.81836 C 569.94806 379.21767 576.21826 377.22967 582.86328 374.77734 C 596.15332 369.87269 606.63561 365.71973 615.06055 362.33789 C 623.48548 358.95605 629.85314 356.34486 634.91602 354.52539 C 637.44745 353.61566 639.65226 352.9043 641.625 352.39258 C 643.59774 351.88085 645.33753 351.56971 646.93945 351.46094 C 648.54138 351.35216 650.00484 351.44502 651.42383 351.74414 C 652.84282 352.04327 654.21865 352.5478 655.64258 353.25977 C 657.06651 353.97173 658.52961 354.94113 659.90039 356.14258 C 661.27117 357.34402 662.54845 358.77844 663.60156 360.41992 C 664.12812 361.24066 664.59855 362.11368 664.99609 363.03516 C 665.39364 363.95663 665.71961 364.92537 665.95508 365.94141 C 666.19055 366.95744 666.33663 368.02059 666.37695 369.125 C 666.41728 370.22941 666.35194 371.37589 666.16406 372.5625 C 665.97618 373.74911 665.66595 374.97565 665.2168 376.23828 C 664.76765 377.50091 664.17903 378.80035 663.43555 380.13281 C 662.69206 381.46528 661.79354 382.83044 660.72266 384.22656 C 659.65177 385.62268 658.40791 387.04835 656.97656 388.50195 C 655.54521 389.95555 653.92644 391.43651 652.10156 392.94141 C 650.27668 394.4463 648.24561 395.97538 645.99414 397.52539 C 643.74267 399.0754 641.26972 400.64738 638.55859 402.23633 C 635.84747 403.82527 632.89916 405.43103 629.69531 407.05273 C 626.49146 408.67444 623.50292 410.29234 620.71484 411.89844 C 617.92677 413.50453 615.33853 415.09868 612.9375 416.67773 C 610.53647 418.25679 608.32203 419.82074 606.2793 421.36133 C 604.23656 422.90191 602.36551 424.41948 600.65234 425.91016 C 597.226 428.89152 594.43091 431.76147 592.15039 434.47461 C 589.86987 437.18775 588.10484 439.74421 586.74023 442.09766 C 585.37563 444.4511 584.41102 446.60162 583.73242 448.50391 C 583.05383 450.40619 582.65999 452.06026 582.4375 453.41992 C 581.99252 456.13924 582.23047 457.68164 582.23047 457.68164 C 582.23047 457.68164 585.19619 458.19706 589.84375 459.31445 C 592.16753 459.87315 594.91241 460.58171 597.91602 461.45312 C 600.91962 462.32454 604.18286 463.35807 607.54492 464.56445 C 610.90699 465.77084 614.36843 467.14928 617.76758 468.71289 C 621.16672 470.2765 624.50429 472.02567 627.61914 473.96875 C 629.17657 474.94029 630.67742 475.96067 632.10352 477.03125 C 633.52961 478.10183 634.88017 479.22213 636.13477 480.39453 C 637.38936 481.56693 638.54888 482.79136 639.5918 484.06836 C 640.63472 485.34536 641.56049 486.67421 642.35156 488.05859 C 643.93371 490.82735 645.26972 493.58673 646.39453 496.29492 C 647.51934 499.00311 648.43415 501.66052 649.17578 504.22656 C 649.91741 506.79261 650.48535 509.26705 650.91797 511.60938 C 651.35059 513.9517 651.64793 516.1622 651.8457 518.19922 C 652.02935 520.09076 651.93962 521.19736 651.98242 522.75781 C 658.61327 522.67642 664.65837 522.50977 669.05273 522.50977 C 695.2412 522.50977 752.5989 548.96613 805.23047 468.68555 C 839.87268 415.84466 834.36641 277.89181 833.03125 245.00977 C 829.23668 151.55702 812.89122 85.080299 753.24609 69.730469 C 700.21934 56.083899 543.64609 3.4483931 515.36133 124.82031 C 495.65939 209.3622 496.46261 311.00886 510.13281 386.10547 z "
       id="path3330" />
    <path
       style="fill:#f2f8d1;fill-opacity:1;stroke:none"
       d="m 675.49407,1094.846 c 44.1075,-14.3226 72.1707,-30.6052 65.1591,-41.0159 -7.0116,-10.4109 -11.8375,-28.9595 -6.4103,-38.5496 5.4268,-9.5898 10.9353,-17.47757 21.7728,-25.42417 10.8372,-7.9467 8.1846,-29.28405 11.2244,-38.31225 2.7876,-8.27931 12.035,-37.41081 12.035,-37.41081 0,0 31.6318,21.01552 36.8399,30.87861 5.2083,9.86278 9.0467,-3.48364 9.2974,1.40877 0.2504,4.89273 -6.4319,18.99083 -15.7526,28.58128 -9.3205,9.5904 -18.115,22.3759 -26.8066,29.03057 -8.6921,6.6547 -29.2803,18.8108 -26.9204,28.4 2.3598,9.5892 5.7127,26.0601 -2.4937,38.4078 -11.4029,17.1574 -77.945,24.0057 -77.945,24.0057 z"
       id="path3023-2"
       inkscape:connector-curvature="0"
       sodipodi:nodetypes="csssscssssssc" />
    <path
       style="color:#000000;display:inline;overflow:visible;visibility:visible;fill:#280b0b;fill-opacity:1;fill-rule:evenodd;stroke:none;stroke-width:1.13200414px;marker:none;enable-background:accumulate;filter:url(#filter5049)"
       d="m 949.96857,645.78212 c 76.09003,45.2357 61.00303,291.09709 44.2132,374.95898 -21.1051,105.4166 -42.3855,111.6861 -96.4364,132.3921 -19.0099,7.2825 -126.2339,15.0396 -159.3607,-40.3635 -50.3292,-84.1734 -34.8631,-196.85499 -34.8631,-238.73819 0,-41.8829 -11.4306,-156.46439 29.4949,-212.71899 39.2208,-53.91171 140.8623,-60.76611 216.9521,-15.5304 z"
       id="path3330-5"
       inkscape:connector-curvature="0"
       sodipodi:nodetypes="zsssssz" />
    <g
       id="g4840"
       style="fill:#2b1100;filter:url(#filter5053)"
       transform="matrix(1,0,0,1.0679106,343.9645,-769.56217)">
      <path
         sodipodi:nodetypes="sssssccscs"
         inkscape:connector-curvature="0"
         id="path3330-5-2"
         d="m 1711.3444,974.32909 c 24.4491,-96.60277 173.5109,-85.21955 219.3466,-74.35792 51.5564,12.21728 65.686,85.64602 68.966,160.02713 1.154,26.1717 5.9121,135.9718 -24.0322,178.029 -45.4941,63.8972 -95.0729,42.8404 -117.7099,42.8404 -22.6369,0 -100.4451,14.1143 -130.8498,-37.8442 -5.0189,-4.8109 -2.404,-8.5582 10.1518,-17.5892 37.0862,-15.5801 45.5269,-24.8168 46.4445,-33.793 1.211,-11.8456 -33.0085,-18.2099 -77.8431,-19.0126 -11.3209,-58.9263 -11.4007,-131.4188 5.5261,-198.29961 z"
         style="color:#000000;clip-rule:nonzero;display:inline;overflow:visible;visibility:visible;opacity:1;isolation:auto;mix-blend-mode:normal;color-interpolation:sRGB;color-interpolation-filters:linearRGB;solid-color:#000000;solid-opacity:1;fill:#2b1100;fill-opacity:1;fill-rule:evenodd;stroke:none;stroke-width:1.08108938px;stroke-linecap:butt;stroke-linejoin:miter;stroke-miterlimit:4;stroke-dasharray:none;stroke-dashoffset:0;stroke-opacity:1;marker:none;color-rendering:auto;image-rendering:auto;shape-rendering:auto;text-rendering:auto;enable-background:accumulate" />
    </g>
    <path
       style="color:#000000;clip-rule:nonzero;display:inline;overflow:visible;visibility:visible;opacity:1;isolation:auto;mix-blend-mode:normal;color-interpolation:sRGB;color-interpolation-filters:linearRGB;solid-color:#000000;solid-opacity:1;fill:#f2f8d1;fill-opacity:1;fill-rule:evenodd;stroke:none;stroke-width:1.37961471px;stroke-linecap:butt;stroke-linejoin:miter;stroke-miterlimit:4;stroke-dasharray:none;stroke-dashoffset:0;stroke-opacity:1;marker:none;color-rendering:auto;image-rendering:auto;shape-rendering:auto;text-rendering:auto;enable-background:accumulate"
       d="m 205.38197,1339.6752 c 19.09869,-43.6786 124.8209,-34.0141 160.62613,-29.1033 40.274,5.5241 51.31149,38.7248 53.87372,72.3558 0.90151,11.8337 4.61834,61.4789 -18.77306,80.495 -35.53836,28.8908 -74.26759,19.3704 -91.9508,19.3704 -17.68311,0 -66.97886,2.9931 -90.72984,-20.4995 -22.76171,-22.5141 -32.14485,-78.94 -13.04615,-122.6184 z"
       id="path3330-5-2-0"
       inkscape:connector-curvature="0"
       sodipodi:nodetypes="zsssssz" />
    <path
       style="color:#000000;clip-rule:nonzero;display:inline;overflow:visible;visibility:visible;opacity:1;isolation:auto;mix-blend-mode:normal;color-interpolation:sRGB;color-interpolation-filters:linearRGB;solid-color:#000000;solid-opacity:1;fill:#f2f8d1;fill-opacity:1;fill-rule:evenodd;stroke:none;stroke-width:1.21517146px;stroke-linecap:butt;stroke-linejoin:miter;stroke-miterlimit:4;stroke-dasharray:none;stroke-dashoffset:0;stroke-opacity:1;marker:none;color-rendering:auto;image-rendering:auto;shape-rendering:auto;text-rendering:auto;enable-background:accumulate"
       d="m 697.2602,1339.7301 c 15.26767,-52.3576 99.78292,-40.7727 128.40594,-34.8859 32.19538,6.6215 41.01883,46.4193 43.06711,86.7328 0.72067,14.1848 3.69195,73.6948 -15.00735,96.4895 -28.40968,34.6315 -59.37015,23.219 -73.50627,23.219 -14.13603,0 -53.54348,3.5882 -72.53021,-24.5726 -18.19591,-26.9876 -25.69687,-94.6252 -10.42922,-146.9828 z"
       id="path3330-5-2-0-8"
       inkscape:connector-curvature="0"
       sodipodi:nodetypes="zsssssz" />
    <path
       style="color:#000000;clip-rule:nonzero;display:inline;overflow:visible;visibility:visible;opacity:1;isolation:auto;mix-blend-mode:normal;color-interpolation:sRGB;color-interpolation-filters:linearRGB;solid-color:#000000;solid-opacity:1;fill:#f2f8d1;fill-opacity:1;fill-rule:evenodd;stroke:none;stroke-width:0.89946949px;stroke-linecap:butt;stroke-linejoin:miter;stroke-miterlimit:4;stroke-dasharray:none;stroke-dashoffset:0;stroke-opacity:1;marker:none;color-rendering:auto;image-rendering:auto;shape-rendering:auto;text-rendering:auto;enable-background:accumulate"
       d="m 787.18105,1520.2158 c 14.50176,-71.1344 94.7773,-55.395 121.96447,-47.3969 30.58028,8.9963 38.96112,63.0667 40.90665,117.8376 0.6845,19.272 3.50672,100.1241 -14.25452,131.0932 -26.98451,47.0513 -55.49686,46.5704 -68.92383,46.5704 -13.4269,0 -51.75247,-10.149 -69.78674,-48.4088 -17.2831,-36.6664 -24.40779,-128.5609 -9.90603,-199.6955 z"
       id="path3330-5-2-0-8-2"
       inkscape:connector-curvature="0"
       sodipodi:nodetypes="zsssssz" />
  </g>
  <g
     inkscape:groupmode="layer"
     id="layer1"
     inkscape:label="txt">
    <g
       inkscape:groupmode="layer"
       id="layer7"
       inkscape:label="frame01">
      <text
         xml:space="preserve"
         style="font-style:normal;font-variant:normal;font-weight:normal;font-stretch:normal;line-height:0%;font-family:Lavi;-inkscape-font-specification:Lavi;text-align:center;letter-spacing:0px;word-spacing:0px;text-anchor:middle;fill:#ffb380;fill-opacity:1;stroke:#b17d62;stroke-width:0.96724564;stroke-opacity:1;"
         x="275.07883"
         y="175.99283"
         id="text4246-7"
         transform="scale(0.96629729,1.0348782)"><tspan
           sodipodi:role="line"
           style="font-size:43.52605057px;line-height:1.25;fill:#ffb380;fill-opacity:1;stroke:#b17d62;stroke-width:0.96724564;stroke-opacity:1;"
           x="275.07883"
           y="175.99283"
           id="tspan4272">Ahem...</tspan></text>
      <text
         xml:space="preserve"
         style="font-style:normal;font-variant:normal;font-weight:normal;font-stretch:normal;line-height:0%;font-family:Lavi;-inkscape-font-specification:Lavi;text-align:center;letter-spacing:0px;word-spacing:0px;text-anchor:middle;fill:#ffb380;fill-opacity:1;stroke:none"
         x="671.06268"
         y="178.44331"
         id="text4246-7-7"><tspan
           sodipodi:role="line"
           style="font-size:45px;line-height:1.25;fill:#ffb380;fill-opacity:1;stroke:none"
           x="678.97284"
           y="178.44331"
           id="tspan4798">kung </tspan><tspan
           sodipodi:role="line"
           style="font-size:45px;line-height:1.25;fill:#ffb380;fill-opacity:1;stroke:none"
           x="671.06268"
           y="234.69331"
           id="tspan4808">gusto ninyo,</tspan><tspan
           sodipodi:role="line"
           style="font-size:45px;line-height:1.25;fill:#ffb380;fill-opacity:1;stroke:none"
           x="678.97284"
           y="290.9433"
           id="tspan3617">kami na ang </tspan><tspan
           sodipodi:role="line"
           style="font-size:45px;line-height:1.25;fill:#ffb380;fill-opacity:1;stroke:none"
           x="678.97284"
           y="347.1933"
           id="tspan4802">bahala sa </tspan><tspan
           sodipodi:role="line"
           style="font-size:45px;line-height:1.25;fill:#ffb380;fill-opacity:1;stroke:none"
           x="671.06268"
           y="403.4433"
           id="tspan4804">kanya</tspan><tspan
           sodipodi:role="line"
           style="font-size:45px;line-height:1.25;fill:#ffb380;fill-opacity:1;stroke:none"
           x="671.06268"
           y="459.6933"
           id="tspan4806">...</tspan></text>
    </g>
    <g
       inkscape:groupmode="layer"
       id="layer8"
       inkscape:label="frame02">
      <text
         xml:space="preserve"
         style="font-style:normal;font-variant:normal;font-weight:normal;font-stretch:normal;line-height:0%;font-family:Lavi;-inkscape-font-specification:Lavi;text-align:center;letter-spacing:0px;word-spacing:0px;text-anchor:middle;fill:#ffb380;fill-opacity:1;stroke:none"
         x="861.38434"
         y="775.98181"
         id="text4246-7-7-6"><tspan
           sodipodi:role="line"
           style="font-size:45px;line-height:1.25;fill:#ffb380;fill-opacity:1;stroke:none"
           x="869.29449"
           y="775.98181"
           id="tspan4812">Nagkataong </tspan><tspan
           sodipodi:role="line"
           style="font-size:45px;line-height:1.25;fill:#ffb380;fill-opacity:1;stroke:none"
           x="869.29449"
           y="832.23181"
           id="tspan4828">naghahanap </tspan><tspan
           sodipodi:role="line"
           style="font-size:45px;line-height:1.25;fill:#ffb380;fill-opacity:1;stroke:none"
           x="869.29449"
           y="888.48181"
           id="tspan3626">kami ng </tspan><tspan
           sodipodi:role="line"
           style="font-size:45px;line-height:1.25;fill:#ffb380;fill-opacity:1;stroke:none"
           x="861.38434"
           y="944.73181"
           id="tspan4832">magiging</tspan><tspan
           sodipodi:role="line"
           style="font-size:45px;line-height:1.25;fill:#ffb380;fill-opacity:1;stroke:none"
           x="869.29449"
           y="1000.9818"
           id="tspan4830">estudyante </tspan><tspan
           sodipodi:role="line"
           style="font-size:45px;line-height:1.25;fill:#ffb380;fill-opacity:1;stroke:none"
           x="861.38434"
           y="1057.2318"
           id="tspan4814">ng Chaosah</tspan><tspan
           sodipodi:role="line"
           style="font-size:45px;line-height:1.25;fill:#ffb380;fill-opacity:1;stroke:none"
           x="861.38434"
           y="1113.4818"
           id="tspan4816">...</tspan></text>
      <text
         xml:space="preserve"
         style="font-style:normal;font-variant:normal;font-weight:normal;font-stretch:normal;line-height:0%;font-family:Lavi;-inkscape-font-specification:Lavi;text-align:center;letter-spacing:0px;word-spacing:0px;text-anchor:middle;fill:#ffb380;fill-opacity:1;stroke:none"
         x="2195.4255"
         y="312.41138"
         id="text4246-7-7-6-0"><tspan
           sodipodi:role="line"
           style="font-size:45px;line-height:1.25;fill:#ffb380;fill-opacity:1;stroke:none"
           x="2195.4255"
           y="312.41138"
           id="tspan3635">Mukhang</tspan><tspan
           sodipodi:role="line"
           style="font-size:45px;line-height:1.25;fill:#ffb380;fill-opacity:1;stroke:none"
           x="2203.3357"
           y="368.66138"
           id="tspan5028">tumPAK </tspan><tspan
           sodipodi:role="line"
           style="font-size:45px;line-height:1.25;fill:#ffb380;fill-opacity:1;stroke:none"
           x="2203.3357"
           y="424.91138"
           id="tspan5030">na tumPAK </tspan><tspan
           sodipodi:role="line"
           style="font-size:45px;line-height:1.25;fill:#ffb380;fill-opacity:1;stroke:none"
           x="2203.3357"
           y="481.16138"
           id="tspan5037">ang isang </tspan><tspan
           sodipodi:role="line"
           style="font-size:45px;line-height:1.25;fill:#ffb380;fill-opacity:1;stroke:none"
           x="2203.3357"
           y="537.41138"
           id="tspan5039">yon... </tspan></text>
      <text
         xml:space="preserve"
         style="font-style:normal;font-variant:normal;font-weight:normal;font-stretch:normal;line-height:0%;font-family:Lavi;-inkscape-font-specification:Lavi;text-align:center;letter-spacing:0px;word-spacing:0px;text-anchor:middle;fill:#ffffff;fill-opacity:1;stroke:none"
         x="2113.7134"
         y="2706.7129"
         id="text4246-7-7-6-0-0"
         transform="skewX(-25.869161)"><tspan
           sodipodi:role="line"
           style="font-size:45px;line-height:1.25;fill:#ffffff;fill-opacity:1;stroke:none"
           x="2113.7134"
           y="2706.7129"
           id="tspan3635-1">... hikbi</tspan></text>
      <text
         xml:space="preserve"
         style="font-style:normal;font-variant:normal;font-weight:normal;font-stretch:normal;line-height:0%;font-family:Lavi;-inkscape-font-specification:Lavi;text-align:center;letter-spacing:0px;word-spacing:0px;text-anchor:middle;fill:#ffffff;fill-opacity:1;stroke:none"
         x="2868.0149"
         y="3276.5823"
         id="text4246-7-7-6-0-0-0"
         transform="skewX(-21.202625)"><tspan
           sodipodi:role="line"
           style="font-size:45px;line-height:1.25;fill:#ffffff;fill-opacity:1;stroke:none"
           x="2868.0149"
           y="3276.5823"
           id="tspan3635-1-4">... hikbi hikbi</tspan></text>
      <text
         xml:space="preserve"
         style="font-style:normal;font-variant:normal;font-weight:normal;font-stretch:normal;line-height:0%;font-family:Lavi;-inkscape-font-specification:Lavi;text-align:center;letter-spacing:0px;word-spacing:0px;text-anchor:middle;fill:#ffffff;fill-opacity:1;stroke:none"
         x="2055.3691"
         y="2953.9758"
         id="text4246-7-7-6-0-0-0-6"
         transform="skewX(-21.202625)"><tspan
           sodipodi:role="line"
           style="font-size:45px;line-height:1.25;fill:#ffffff;fill-opacity:1;stroke:none"
           x="2055.3691"
           y="2953.9758"
           id="tspan3635-1-4-5">... hikbi</tspan></text>
    </g>
    <g
       inkscape:groupmode="layer"
       id="layer9"
       inkscape:label="frame03">
      <text
         xml:space="preserve"
         style="font-style:normal;font-variant:normal;font-weight:normal;font-stretch:normal;line-height:0%;font-family:Lavi;-inkscape-font-specification:Lavi;text-align:center;letter-spacing:0px;word-spacing:0px;text-anchor:middle;fill:#501616;fill-opacity:1;stroke:none;"
         x="305.50323"
         y="1403.3246"
         id="text4246-7-7-6-0-6"><tspan
           sodipodi:role="line"
           style="font-size:33.24675751px;line-height:1.25;fill:#501616;fill-opacity:1;stroke:none;"
           x="305.50323"
           y="1403.3246"
           id="tspan4332-1">Cayenne?!</tspan></text>
      <text
         xml:space="preserve"
         style="font-style:normal;font-variant:normal;font-weight:normal;font-stretch:normal;line-height:0%;font-family:Lavi;-inkscape-font-specification:Lavi;text-align:center;letter-spacing:0px;word-spacing:0px;text-anchor:middle;fill:#501616;fill-opacity:1;stroke:none;"
         x="780.6156"
         y="1420.691"
         id="text4246-7-7-6-0-6-7"><tspan
           sodipodi:role="line"
           style="font-size:31.45743942px;line-height:1.25;fill:#501616;fill-opacity:1;stroke:none;"
           x="786.1452"
           y="1420.691"
           id="tspan4332-1-9">Thyme?! </tspan><tspan
           sodipodi:role="line"
           style="font-size:31.45743942px;line-height:1.25;fill:#501616;fill-opacity:1;stroke:none;"
           x="780.6156"
           y="1460.0128"
           id="tspan5020">Cumin?!</tspan></text>
      <text
         xml:space="preserve"
         style="font-style:normal;font-variant:normal;font-weight:normal;font-stretch:normal;line-height:0%;font-family:Lavi;-inkscape-font-specification:Lavi;text-align:center;letter-spacing:0px;word-spacing:0px;text-anchor:middle;fill:#280b0b;fill-opacity:1;stroke:none;"
         x="869.13727"
         y="1551.0753"
         id="text4246-7-7-6-0-6-7-0"><tspan
           sodipodi:role="line"
           style="font-size:31.45743942px;line-height:1.25;fill:#280b0b;fill-opacity:1;stroke:none;"
           x="874.66687"
           y="1551.0753"
           id="tspan3639">Ang </tspan><tspan
           sodipodi:role="line"
           style="font-size:31.45743942px;line-height:1.25;fill:#280b0b;fill-opacity:1;stroke:none;"
           x="874.66687"
           y="1590.3971"
           id="tspan5026">akala </tspan><tspan
           sodipodi:role="line"
           style="font-size:31.45743942px;line-height:1.25;fill:#280b0b;fill-opacity:1;stroke:none;"
           x="869.13727"
           y="1629.7189"
           id="tspan5022">ko...</tspan><tspan
           sodipodi:role="line"
           style="font-size:31.45743942px;line-height:1.25;fill:#280b0b;fill-opacity:1;stroke:none;"
           x="874.66687"
           y="1669.0408"
           id="tspan4492">... </tspan><tspan
           sodipodi:role="line"
           style="font-size:31.45743942px;line-height:1.25;fill:#280b0b;fill-opacity:1;stroke:none;"
           x="869.13727"
           y="1708.3625"
           id="tspan5024">imposible!</tspan></text>
      <text
         id="text4178-6-5-9-0-7-0-4"
         style="font-style:normal;font-variant:normal;font-weight:normal;font-stretch:normal;line-height:0%;font-family:Lavi;-inkscape-font-specification:Lavi;text-align:center;letter-spacing:0px;word-spacing:0px;text-anchor:middle;display:inline;opacity:0.63300003;fill:#b26b42;fill-opacity:1;stroke:#794230;stroke-width:3.56912017;stroke-miterlimit:4;stroke-dasharray:none;stroke-opacity:1;filter:url(#filter5236-4-16)"
         xml:space="preserve"
         y="3129.8394"
         x="1318.7137"
         transform="matrix(0.78456513,-0.04671298,-0.13510029,0.9324606,1024.7357,-1237.7417)"><tspan
           y="3129.8394"
           x="1320.59"
           style="font-style:normal;font-variant:normal;font-weight:normal;font-stretch:normal;font-size:40.67671585px;line-height:1.25;font-family:Fondamento;-inkscape-font-specification:Fondamento;letter-spacing:3.7524426px;fill:#b26b42;fill-opacity:1;stroke:#794230;stroke-width:3.56912017;stroke-miterlimit:4;stroke-dasharray:none;stroke-opacity:1"
           sodipodi:role="line"
           id="tspan4725">KUSINA</tspan></text>
    </g>
  </g>
</svg>
