<?xml version="1.0" encoding="UTF-8" standalone="no"?>
<!-- Created with Inkscape (http://www.inkscape.org/) -->

<svg
   id="svg2"
   version="1.1"
   inkscape:version="1.1.1 (3bf5ae0d25, 2021-09-20, custom)"
   width="2481"
   height="3503"
   sodipodi:docname="E31P01.svg"
   xmlns:inkscape="http://www.inkscape.org/namespaces/inkscape"
   xmlns:sodipodi="http://sodipodi.sourceforge.net/DTD/sodipodi-0.dtd"
   xmlns:xlink="http://www.w3.org/1999/xlink"
   xmlns="http://www.w3.org/2000/svg"
   xmlns:svg="http://www.w3.org/2000/svg"
   xmlns:rdf="http://www.w3.org/1999/02/22-rdf-syntax-ns#"
   xmlns:cc="http://creativecommons.org/ns#"
   xmlns:dc="http://purl.org/dc/elements/1.1/">
  <metadata
     id="metadata8">
    <rdf:RDF>
      <cc:Work
         rdf:about="">
        <dc:format>image/svg+xml</dc:format>
        <dc:type
           rdf:resource="http://purl.org/dc/dcmitype/StillImage" />
        <dc:title />
      </cc:Work>
    </rdf:RDF>
  </metadata>
  <defs
     id="defs6">
    <filter
       style="color-interpolation-filters:sRGB"
       id="filter4375-4-1-1-1-9-5-8-3-4"
       inkscape:label="Drop Shadow"
       x="0"
       y="0"
       width="1.015127"
       height="1.0802466">
      <feFlood
         id="feFlood4377-7-9-0-8-1-7-3-6"
         flood-opacity="1"
         flood-color="rgb(240,109,14)"
         result="flood" />
      <feComposite
         id="feComposite4379-3-8-8-2-77-4-1-7"
         in2="SourceGraphic"
         in="flood"
         operator="in"
         result="composite1" />
      <feMorphology
         id="feMorphology4393-1-0-49-8-9-3-0-5"
         operator="dilate"
         radius="6.2000000000000002"
         result="result3" />
      <feComposite
         id="feComposite4385-9-5-7-0-8-8-7-3"
         in2="result3"
         in="SourceGraphic"
         operator="over"
         result="fbSourceGraphic" />
      <feColorMatrix
         result="fbSourceGraphicAlpha"
         in="fbSourceGraphic"
         values="0 0 0 -1 0 0 0 0 -1 0 0 0 0 -1 0 0 0 0 1 0"
         id="feColorMatrix4544-5" />
      <feTurbulence
         id="feTurbulence4546-6"
         type="fractalNoise"
         numOctaves="3"
         seed="37"
         baseFrequency="0.129 0.0050000000000000001"
         result="turbulence" />
      <feDisplacementMap
         id="feDisplacementMap4548-2"
         in2="turbulence"
         in="fbSourceGraphic"
         scale="6.6"
         yChannelSelector="G"
         xChannelSelector="R"
         result="fbSourceGraphic" />
      <feColorMatrix
         result="fbSourceGraphicAlpha"
         in="fbSourceGraphic"
         values="0 0 0 -1 0 0 0 0 -1 0 0 0 0 -1 0 0 0 0 1 0"
         id="feColorMatrix4670-9-3" />
      <feFlood
         id="feFlood4672-1-0"
         flood-opacity="0.40999999999999998"
         flood-color="rgb(0,0,0)"
         result="flood"
         in="fbSourceGraphic" />
      <feComposite
         id="feComposite4674-2-3"
         in2="fbSourceGraphic"
         in="flood"
         operator="in"
         result="composite1" />
      <feGaussianBlur
         id="feGaussianBlur4676-7"
         in="composite1"
         stdDeviation="0"
         result="blur" />
      <feOffset
         id="feOffset4678-0-0"
         dx="6"
         dy="6"
         result="offset" />
      <feComposite
         id="feComposite4680-9"
         in2="offset"
         in="fbSourceGraphic"
         operator="over"
         result="composite2" />
    </filter>
    <filter
       style="color-interpolation-filters:sRGB"
       id="filter4375-4-1-1-1-9-5-8-3-4-3"
       inkscape:label="Drop Shadow"
       x="0"
       y="0"
       width="1.0150315"
       height="1.0857718">
      <feFlood
         id="feFlood4377-7-9-0-8-1-7-3-6-6"
         flood-opacity="1"
         flood-color="rgb(240,109,14)"
         result="flood" />
      <feComposite
         id="feComposite4379-3-8-8-2-77-4-1-7-7"
         in2="SourceGraphic"
         in="flood"
         operator="in"
         result="composite1" />
      <feMorphology
         id="feMorphology4393-1-0-49-8-9-3-0-5-5"
         operator="dilate"
         radius="6.2000000000000002"
         result="result3" />
      <feComposite
         id="feComposite4385-9-5-7-0-8-8-7-3-3"
         in2="result3"
         in="SourceGraphic"
         operator="over"
         result="fbSourceGraphic" />
      <feColorMatrix
         result="fbSourceGraphicAlpha"
         in="fbSourceGraphic"
         values="0 0 0 -1 0 0 0 0 -1 0 0 0 0 -1 0 0 0 0 1 0"
         id="feColorMatrix4544-5-5" />
      <feTurbulence
         id="feTurbulence4546-6-6"
         type="fractalNoise"
         numOctaves="3"
         seed="37"
         baseFrequency="0.129 0.0050000000000000001"
         result="turbulence" />
      <feDisplacementMap
         id="feDisplacementMap4548-2-2"
         in2="turbulence"
         in="fbSourceGraphic"
         scale="6.6"
         yChannelSelector="G"
         xChannelSelector="R"
         result="fbSourceGraphic" />
      <feColorMatrix
         result="fbSourceGraphicAlpha"
         in="fbSourceGraphic"
         values="0 0 0 -1 0 0 0 0 -1 0 0 0 0 -1 0 0 0 0 1 0"
         id="feColorMatrix4670-9-3-9" />
      <feFlood
         id="feFlood4672-1-0-1"
         flood-opacity="0.40999999999999998"
         flood-color="rgb(0,0,0)"
         result="flood"
         in="fbSourceGraphic" />
      <feComposite
         id="feComposite4674-2-3-2"
         in2="fbSourceGraphic"
         in="flood"
         operator="in"
         result="composite1" />
      <feGaussianBlur
         id="feGaussianBlur4676-7-7"
         in="composite1"
         stdDeviation="0"
         result="blur" />
      <feOffset
         id="feOffset4678-0-0-0"
         dx="6"
         dy="6"
         result="offset" />
      <feComposite
         id="feComposite4680-9-9"
         in2="offset"
         in="fbSourceGraphic"
         operator="over"
         result="composite2" />
    </filter>
    <filter
       style="color-interpolation-filters:sRGB"
       id="filter4375-4-1-1-1-9-6-9-2-1-5-4"
       inkscape:label="deevad outline effect">
      <feFlood
         id="feFlood4377-7-9-0-8-1-0-2-2-06-5-3"
         flood-opacity="1"
         flood-color="rgb(0,0,0)"
         result="flood" />
      <feComposite
         id="feComposite4379-3-8-8-2-77-6-0-8-3-8-64"
         in2="SourceGraphic"
         in="flood"
         operator="in"
         result="composite1" />
      <feMorphology
         id="feMorphology4393-1-0-49-8-9-2-2-9-2-7-3"
         operator="dilate"
         radius="4"
         result="result3" />
      <feComposite
         id="feComposite4385-9-5-7-0-8-6-3-7-0-1-1"
         in2="result3"
         in="SourceGraphic"
         operator="over"
         result="composite2" />
    </filter>
    <filter
       style="color-interpolation-filters:sRGB"
       id="filter5561-7-8"
       inkscape:label="Roughen">
      <feFlood
         id="feFlood5563-4-9"
         flood-opacity="1"
         flood-color="rgb(162,21,39)"
         result="flood" />
      <feComposite
         id="feComposite5565-6-3-4"
         in2="SourceGraphic"
         in="flood"
         operator="in"
         result="composite1" />
      <feMorphology
         id="feMorphology5567-3-48"
         operator="dilate"
         radius="5.5"
         result="result3" />
      <feComposite
         id="feComposite5569-6-6-8"
         in2="result3"
         in="SourceGraphic"
         operator="over"
         result="fbSourceGraphic" />
      <feColorMatrix
         result="fbSourceGraphicAlpha"
         in="fbSourceGraphic"
         values="0 0 0 -1 0 0 0 0 -1 0 0 0 0 -1 0 0 0 0 1 0"
         id="feColorMatrix4681-5" />
      <feTurbulence
         id="feTurbulence4683-3"
         type="fractalNoise"
         numOctaves="1"
         seed="33"
         baseFrequency="0.001 0.0199"
         result="turbulence" />
      <feDisplacementMap
         id="feDisplacementMap4685-0"
         in2="turbulence"
         in="fbSourceGraphic"
         scale="37.8"
         yChannelSelector="G"
         xChannelSelector="R" />
    </filter>
    <filter
       style="color-interpolation-filters:sRGB"
       id="filter5561"
       inkscape:label="deevad outline effect"
       x="-0.0046852065"
       y="-0.010442303"
       width="1.0093704"
       height="1.0208846">
      <feFlood
         id="feFlood5563"
         flood-opacity="1"
         flood-color="rgb(0,0,0)"
         result="flood" />
      <feComposite
         id="feComposite5565"
         in2="SourceGraphic"
         in="flood"
         operator="in"
         result="composite1" />
      <feMorphology
         id="feMorphology5567"
         operator="dilate"
         radius="1.8999999999999999 6.0999999999999996"
         result="result3" />
      <feComposite
         id="feComposite5569"
         in2="result3"
         in="SourceGraphic"
         operator="over"
         result="composite2" />
    </filter>
    <filter
       style="color-interpolation-filters:sRGB"
       id="filter4375-4-1-1-1-9-5-8-3-4-6"
       inkscape:label="Drop Shadow"
       x="0"
       y="0"
       width="1.0308065"
       height="1.0778893">
      <feFlood
         id="feFlood4377-7-9-0-8-1-7-3-6-1"
         flood-opacity="1"
         flood-color="rgb(240,109,14)"
         result="flood" />
      <feComposite
         id="feComposite4379-3-8-8-2-77-4-1-7-8"
         in2="SourceGraphic"
         in="flood"
         operator="in"
         result="composite1" />
      <feMorphology
         id="feMorphology4393-1-0-49-8-9-3-0-5-7"
         operator="dilate"
         radius="6.2000000000000002"
         result="result3" />
      <feComposite
         id="feComposite4385-9-5-7-0-8-8-7-3-9"
         in2="result3"
         in="SourceGraphic"
         operator="over"
         result="fbSourceGraphic" />
      <feColorMatrix
         result="fbSourceGraphicAlpha"
         in="fbSourceGraphic"
         values="0 0 0 -1 0 0 0 0 -1 0 0 0 0 -1 0 0 0 0 1 0"
         id="feColorMatrix4544-5-2" />
      <feTurbulence
         id="feTurbulence4546-6-0"
         type="fractalNoise"
         numOctaves="3"
         seed="37"
         baseFrequency="0.129 0.0050000000000000001"
         result="turbulence" />
      <feDisplacementMap
         id="feDisplacementMap4548-2-23"
         in2="turbulence"
         in="fbSourceGraphic"
         scale="6.6"
         yChannelSelector="G"
         xChannelSelector="R"
         result="fbSourceGraphic" />
      <feColorMatrix
         result="fbSourceGraphicAlpha"
         in="fbSourceGraphic"
         values="0 0 0 -1 0 0 0 0 -1 0 0 0 0 -1 0 0 0 0 1 0"
         id="feColorMatrix4670-9-3-7" />
      <feFlood
         id="feFlood4672-1-0-5"
         flood-opacity="0.40999999999999998"
         flood-color="rgb(0,0,0)"
         result="flood"
         in="fbSourceGraphic" />
      <feComposite
         id="feComposite4674-2-3-9"
         in2="fbSourceGraphic"
         in="flood"
         operator="in"
         result="composite1" />
      <feGaussianBlur
         id="feGaussianBlur4676-7-2"
         in="composite1"
         stdDeviation="0"
         result="blur" />
      <feOffset
         id="feOffset4678-0-0-2"
         dx="6"
         dy="6"
         result="offset" />
      <feComposite
         id="feComposite4680-9-8"
         in2="offset"
         in="fbSourceGraphic"
         operator="over"
         result="composite2" />
    </filter>
    <filter
       style="color-interpolation-filters:sRGB"
       id="filter4375-4-1-1-1-9-5-8-3-4-3-3"
       inkscape:label="Drop Shadow"
       x="0"
       y="0"
       width="1.0187774"
       height="1.0792297">
      <feFlood
         id="feFlood4377-7-9-0-8-1-7-3-6-6-6"
         flood-opacity="1"
         flood-color="rgb(246,17,56)"
         result="flood" />
      <feComposite
         id="feComposite4379-3-8-8-2-77-4-1-7-7-7"
         in2="SourceGraphic"
         in="flood"
         operator="in"
         result="composite1" />
      <feMorphology
         id="feMorphology4393-1-0-49-8-9-3-0-5-5-5"
         operator="dilate"
         radius="6.2000000000000002"
         result="result3" />
      <feComposite
         id="feComposite4385-9-5-7-0-8-8-7-3-3-3"
         in2="result3"
         in="SourceGraphic"
         operator="over"
         result="fbSourceGraphic" />
      <feColorMatrix
         result="fbSourceGraphicAlpha"
         in="fbSourceGraphic"
         values="0 0 0 -1 0 0 0 0 -1 0 0 0 0 -1 0 0 0 0 1 0"
         id="feColorMatrix4544-5-5-5" />
      <feTurbulence
         id="feTurbulence4546-6-6-6"
         type="fractalNoise"
         numOctaves="3"
         seed="37"
         baseFrequency="0.129 0.0050000000000000001"
         result="turbulence" />
      <feDisplacementMap
         id="feDisplacementMap4548-2-2-2"
         in2="turbulence"
         in="fbSourceGraphic"
         scale="6.6"
         yChannelSelector="G"
         xChannelSelector="R"
         result="fbSourceGraphic" />
      <feColorMatrix
         result="fbSourceGraphicAlpha"
         in="fbSourceGraphic"
         values="0 0 0 -1 0 0 0 0 -1 0 0 0 0 -1 0 0 0 0 1 0"
         id="feColorMatrix4670-9-3-9-9" />
      <feFlood
         id="feFlood4672-1-0-1-1"
         flood-opacity="0.40999999999999998"
         flood-color="rgb(0,0,0)"
         result="flood"
         in="fbSourceGraphic" />
      <feComposite
         id="feComposite4674-2-3-2-2"
         in2="fbSourceGraphic"
         in="flood"
         operator="in"
         result="composite1" />
      <feGaussianBlur
         id="feGaussianBlur4676-7-7-7"
         in="composite1"
         stdDeviation="0"
         result="blur" />
      <feOffset
         id="feOffset4678-0-0-0-0"
         dx="6"
         dy="6"
         result="offset" />
      <feComposite
         id="feComposite4680-9-9-9"
         in2="offset"
         in="fbSourceGraphic"
         operator="over"
         result="composite2" />
    </filter>
  </defs>
  <sodipodi:namedview
     pagecolor="#ffffff"
     bordercolor="#666666"
     borderopacity="1"
     objecttolerance="10"
     gridtolerance="10"
     guidetolerance="10"
     inkscape:pageopacity="0"
     inkscape:pageshadow="2"
     inkscape:window-width="1888"
     inkscape:window-height="1146"
     id="namedview4"
     showgrid="false"
     inkscape:zoom="0.24734686"
     inkscape:cx="1245.2149"
     inkscape:cy="1865.801"
     inkscape:window-x="32"
     inkscape:window-y="0"
     inkscape:window-maximized="1"
     inkscape:current-layer="layer1"
     inkscape:snap-global="false"
     inkscape:pagecheckerboard="0" />
  <g
     inkscape:groupmode="layer"
     id="layer2"
     inkscape:label="artwork"
     sodipodi:insensitive="true">
    <image
       xlink:href="../gfx_Pepper-and-Carrot_by-David-Revoy_E31P01.png"
       width="2481"
       height="3503"
       id="image10"
       x="0"
       y="0" />
  </g>
  <g
     inkscape:groupmode="layer"
     id="layer3"
     inkscape:label="speechbubbles">
    <g
       id="g987"
       transform="matrix(0.9770374,0,0,0.94729546,-149.77518,-14.476916)"
       style="stroke-width:1.0394454">
      <rect
         y="159.5106"
         x="231.95651"
         height="141.97902"
         width="393.69025"
         id="rect965"
         style="color:#000000;clip-rule:nonzero;display:inline;overflow:visible;visibility:visible;opacity:0.75;isolation:auto;mix-blend-mode:normal;color-interpolation:sRGB;color-interpolation-filters:linearRGB;solid-color:#000000;solid-opacity:1;vector-effect:none;fill:#ffffff;fill-opacity:1;fill-rule:nonzero;stroke:none;stroke-width:1.53526;stroke-linecap:butt;stroke-linejoin:miter;stroke-miterlimit:4;stroke-dasharray:none;stroke-dashoffset:0;stroke-opacity:1;marker:none;paint-order:stroke fill markers;color-rendering:auto;image-rendering:auto;shape-rendering:auto;text-rendering:auto;enable-background:accumulate" />
      <rect
         y="152.22754"
         x="224.4621"
         height="155.94391"
         width="408.77707"
         id="rect965-3"
         style="color:#000000;clip-rule:nonzero;display:inline;overflow:visible;visibility:visible;opacity:0.75;isolation:auto;mix-blend-mode:normal;color-interpolation:sRGB;color-interpolation-filters:linearRGB;solid-color:#000000;solid-opacity:1;vector-effect:none;fill:none;fill-opacity:1;fill-rule:nonzero;stroke:#f9f9f9;stroke-width:4.54965;stroke-linecap:butt;stroke-linejoin:miter;stroke-miterlimit:4;stroke-dasharray:none;stroke-dashoffset:0;stroke-opacity:1;marker:none;paint-order:stroke fill markers;color-rendering:auto;image-rendering:auto;shape-rendering:auto;text-rendering:auto;enable-background:accumulate" />
    </g>
    <path
       style="color:#000000;display:inline;overflow:visible;visibility:visible;fill:#ffffff;fill-opacity:1;fill-rule:nonzero;stroke:none;stroke-width:1px;marker:none;enable-background:accumulate"
       d="m 629.17163,1774.9461 c 35.5569,-14.5366 41.67626,-31.6471 47.18634,-43.5618 -2.65923,-2.5035 -6.54732,-8.0178 -6.54732,-8.0178 0,0 12.65658,-22.4957 15.10184,-32.5562 2.44525,-10.0606 -7.9819,-12.8713 -7.9819,-12.8713 0,0 -25.51886,43.1486 -33.28059,50.8828 7.56813,6.5068 10.43323,10.8522 14.11349,11.8438 -1.22076,7.7115 -16.12683,28.7066 -28.59186,34.2805 z"
       id="path4456-8"
       inkscape:connector-curvature="0" />
    <path
       style="color:#000000;display:inline;overflow:visible;visibility:visible;fill:#ffffff;fill-opacity:1;fill-rule:nonzero;stroke:none;stroke-width:1px;marker:none;enable-background:accumulate"
       d="m 629.09295,1728.3238 c 4.40425,-5.7389 23.43868,-22.5632 20.63895,-1.7093 30.58105,-24.0626 51.91241,-11.6681 73.76945,-1.3461 7.57476,-7.4543 10.56249,-19.9016 29.77617,-14.6854 -1.30927,-8.4054 6.34386,-13.1946 21.9941,-14.7579 -19.12384,-7.1942 -21.88574,-12.6571 16.23787,-13.7909 -28.17076,-3.7867 -54.35217,-7.9096 -17.85432,-22.573 -10.32297,-1.6479 -37.78989,10.9331 -18.13398,-32.8937 -20.49792,12.3908 -41.0173,18.1653 -59.49011,-14.8794 -9.51402,11.1074 -21.96642,17.9114 -40.18515,-0.8454 -6.66741,11.3454 -32.3805,9.3796 -41.34285,5.8825 16.54791,15.4634 14.40917,23.6344 -11.54163,21.946 38.81523,28.907 4.21872,21.2305 -3.82823,26.4946 32.37907,12.1553 15.37702,20.6551 7.50424,30.1747 38.8634,4.8444 23.16799,19.7519 22.45549,32.9833 z"
       id="path3549-3-3"
       inkscape:connector-curvature="0"
       sodipodi:nodetypes="ccccccccccccccc" />
    <path
       style="fill:#ffffff;fill-rule:evenodd;stroke:none;stroke-width:1px;stroke-linecap:butt;stroke-linejoin:miter;stroke-opacity:1"
       d="m 1307.4854,2602.0637 c -31.2075,-49.718 -57.6867,-99.436 -69.0349,-134.022 18.4436,2.9618 26.7085,2.9317 37.3517,15.2501 -6.6197,-51.879 -58.8324,-144.9481 -75.8547,-180.6151 23.642,67.011 45.933,126.4555 49.7157,146.9915 -20.3995,-8.647 -30.1264,-11.8895 -47.1487,-11.8895 12.2939,29.182 49.1756,139.426 50.1212,168.608 0.9457,29.182 54.8497,-4.323 54.8497,-4.323 z"
       id="path1305"
       inkscape:connector-curvature="0"
       inkscape:transform-center-x="-76.559845"
       inkscape:transform-center-y="-165"
       sodipodi:nodetypes="cccccccc" />
    <path
       style="fill:#ffffff;fill-rule:evenodd;stroke:none;stroke-width:0.94369966px;stroke-linecap:butt;stroke-linejoin:miter;stroke-opacity:1"
       d="m 1751.6337,2648.2438 c -37.0295,110.498 234.4739,65.4497 257.3564,60.5103 18.6855,-3.0136 31.6973,-43.4872 7.2566,-73.9632 -12.8946,-17.7601 -228.662,-45.2611 -264.613,13.4529 z"
       id="path4430-0"
       inkscape:connector-curvature="0"
       sodipodi:nodetypes="cccc" />
    <path
       style="color:#000000;display:inline;overflow:visible;visibility:visible;fill:#ffffff;fill-opacity:1;fill-rule:nonzero;stroke:none;stroke-width:1px;marker:none;enable-background:accumulate"
       d="m 1784.1622,2630.2265 c -46.8802,-59.9992 -98.8995,-156.6325 -31.3673,-206.3578 -4.5282,-49.7516 -28.3011,-87.1868 24.4603,-157.6171 -23.1965,52.224 -30.3543,103.8456 -3.9747,167.0512 -52.672,28.328 -38.7464,100.0612 37.0538,175.6255 63.0326,62.8365 48.7653,39.6069 48.7653,39.6069 l -56.4955,0.5477 z"
       id="path5074-8"
       inkscape:connector-curvature="0"
       sodipodi:nodetypes="ccccsccc" />
    <path
       style="fill:#ffffff;fill-rule:evenodd;stroke:none;stroke-width:1px;stroke-linecap:butt;stroke-linejoin:miter;stroke-opacity:1"
       d="m 2246.4302,2469.2243 c 10.8091,28.67 23.8371,40.143 43.3145,1.635 15.888,9.306 15.7808,38.162 67.8321,3.269 -29.8746,44.044 -17.3435,47.61 0,46.583 -25.1962,57.06 -3.7094,48.215 5.7208,56.391 -30.8793,34.465 -26.8332,50.637 -12.2588,61.294 -10.4115,20.879 -17.6853,41.13 4.0862,55.573 -17.0267,5.697 -41.1356,3.132 -33.5074,37.594 -27.0363,-21.803 -45.9051,-15.837 -62.1113,-0.818 -13.9826,-19.98 -25.3371,-45.217 -64.5631,-14.71 21.7239,-33.802 13.1289,-50.76 -4.0863,-62.929 32.342,-32.722 7.0945,-44.116 -17.9796,-55.573 45.3309,-3.935 32.4477,-40.21 20.4314,-76.005 21.2249,7.19 42.525,14.905 53.1215,-52.304 z"
       id="path4489"
       inkscape:connector-curvature="0"
       sodipodi:nodetypes="cccccccccccccc" />
    <path
       style="color:#000000;display:inline;overflow:visible;visibility:visible;fill:#ffffff;fill-opacity:1;fill-rule:nonzero;stroke:none;stroke-width:1px;marker:none;enable-background:accumulate"
       d="m 2289.8945,2516.5804 c -8.018,-28.8131 -21.1087,-65.6141 -27.8785,-69.8583 9.7815,1.1772 18.6352,0.4194 25.549,-0.043 -1.8459,-14.8181 -24.8055,-57.3272 -37.1358,-81.7061 34.1168,30.0506 62.2825,80.9654 68.2074,103.5062 -9.7235,-3.4686 -18.2501,-4.2731 -22.9717,-2.9591 -2.5719,11.5641 19.8692,47.8689 20.5932,47.9117 z"
       id="path5066-6"
       inkscape:connector-curvature="0"
       sodipodi:nodetypes="cccccccc" />
    <path
       style="display:inline;fill:#ffffff;fill-rule:evenodd;stroke:none;stroke-width:0.937102px;stroke-linecap:butt;stroke-linejoin:miter;stroke-opacity:1"
       d="m 1199.0254,2552.4944 c 37.358,23.694 45.284,16.7115 35.7403,-33.46 26.7258,54.6125 62.4297,56.8871 69.765,27.5631 23.5968,25.205 30.4815,19.3709 42.1827,1.2359 4.3613,23.322 13.7141,13.911 21.8086,12.752 2.6661,5.277 26.6947,16.957 63.6871,-0.509 2.3963,6.984 5.6243,12.998 27.2924,-2.486 5.6137,28.348 23.6246,-1.571 42.076,-33.56 -11.4958,39.327 -6.7289,44.882 7.9603,29.831 -6.7158,16.195 -10.7326,28.732 14.7832,1.243 -8.7352,29.893 14.182,9.374 51.1735,-33.56 -18.5037,31.737 -67.5714,85.226 -35.2527,80.792 -4.5071,9.356 -20.5835,17.507 27.2923,32.316 -8.9377,6.349 -36.2246,-2.929 -13.4625,23.952 3.0498,3.143 -7.1597,5.061 12.3254,13.336 -11.5023,-0.563 -18.5564,1.449 -7.9603,13.673 -20.9959,-0.661 -13.1402,12.193 2.2744,28.587 -30.4051,-21.029 -32.0783,-13.386 -32.9785,-4.971 -38.1063,-28.671 -50.8228,-18.215 -42.8674,4.909 -16.8273,-31.222 -56.3606,-14.822 -58.342,10.006 -5.8716,-24.009 -71.2575,-28.973 -86.2874,-2.548 9.3154,-28.159 -10.2476,-14.899 -29.9123,-4.475 10.7687,-31.606 -16.5609,-22.298 -51.1734,8.452 19.383,-34.902 -2.6315,-22.294 -35.2527,2.486 12.3253,-34.287 -7.7477,-50.869 -55.722,-52.203 22.9619,-12.368 36.3521,-27.933 12.509,-55.933 26.878,8.245 20.0492,-15.136 1.0746,-45.554 29.3166,24.967 28.7052,11.625 17.2664,-21.875 z"
       id="path4508-6"
       inkscape:connector-curvature="0"
       sodipodi:nodetypes="cccccccccccccccccccccccccccc" />
  </g>
  <g
     inkscape:groupmode="layer"
     id="layer1"
     inkscape:label="txt">
    <text
       xml:space="preserve"
       style="font-style:normal;font-variant:normal;font-weight:normal;font-stretch:normal;font-size:10.501px;line-height:0%;font-family:Lavi;-inkscape-font-specification:Lavi;text-align:center;letter-spacing:0px;word-spacing:0px;text-anchor:middle;display:inline;fill:#000000;fill-opacity:1;stroke:none;stroke-width:1"
       x="101.26489"
       y="193.14441"
       id="text4246-91"><tspan
         sodipodi:role="line"
         style="font-style:normal;font-variant:normal;font-weight:normal;font-stretch:normal;font-size:40px;line-height:1.25;font-family:Lavi;-inkscape-font-specification:Lavi;text-align:start;text-anchor:start;fill:#000000;stroke-width:1"
         x="101.26489"
         y="193.14441"
         id="tspan960">Tenebrume,</tspan><tspan
         sodipodi:role="line"
         style="font-style:normal;font-variant:normal;font-weight:normal;font-stretch:normal;font-size:40px;line-height:1.25;font-family:Lavi;-inkscape-font-specification:Lavi;text-align:start;text-anchor:start;fill:#000000;stroke-width:1"
         x="101.26489"
         y="243.14441"
         id="tspan140">sveti Chaosāh hrib.</tspan></text>
    <text
       xml:space="preserve"
       style="font-style:normal;font-variant:normal;font-weight:normal;font-stretch:normal;line-height:0%;font-family:Lavi;-inkscape-font-specification:Lavi;letter-spacing:0px;word-spacing:0px;display:inline;fill:#ffffff;fill-opacity:1;stroke:none;stroke-width:0.726028;stroke-miterlimit:4;stroke-dasharray:none;stroke-opacity:1;filter:url(#filter4375-4-1-1-1-9-5-8-3-4)"
       x="787.65729"
       y="1584.5073"
       id="text4580-6-0-3"
       transform="matrix(0.91010218,-0.46835856,-0.31702395,1.5567826,1607.004,-1524.9558)"><tspan
         sodipodi:role="line"
         id="tspan4582-1-1-6"
         x="787.65729"
         y="1584.5073"
         style="font-size:70px;line-height:1.25;fill:#ffffff;fill-opacity:1;stroke:none;stroke-width:0.726028;stroke-opacity:1"><tspan
           style="font-size:93.1495px;fill:#ffffff;fill-opacity:1;stroke:none;stroke-width:0.726028;stroke-opacity:1"
           id="tspan4315-8-0">VRum<tspan
   style="font-size:79.4373px;stroke:none;stroke-width:0.726028"
   id="tspan951">mm</tspan></tspan><tspan
           style="font-size:95.3247px;fill:#ffffff;fill-opacity:1;stroke:none;stroke-width:0.726028;stroke-opacity:1"
           id="tspan4313-2-6">!</tspan></tspan></text>
    <text
       xml:space="preserve"
       style="font-style:normal;font-variant:normal;font-weight:normal;font-stretch:normal;font-size:14.6707px;line-height:0%;font-family:Lavi;-inkscape-font-specification:Lavi;text-align:center;letter-spacing:0px;word-spacing:0px;text-anchor:middle;display:inline;fill:#000000;fill-opacity:1;stroke:none;stroke-width:1"
       x="1008.4934"
       y="1628.063"
       id="text4246-2-3-1-3-9-9-6"
       transform="matrix(0.96249446,0,-0.17681032,1.038967,0,0)"><tspan
         sodipodi:role="line"
         style="font-size:55.0153px;line-height:1.25;stroke-width:1"
         x="1008.4934"
         y="1628.063"
         id="tspan4341-1">Ts!</tspan></text>
    <text
       xml:space="preserve"
       style="font-style:normal;font-variant:normal;font-weight:normal;font-stretch:normal;line-height:0%;font-family:Lavi;-inkscape-font-specification:Lavi;letter-spacing:0px;word-spacing:0px;display:inline;fill:#ffffff;fill-opacity:1;stroke:none;stroke-width:0.474297;stroke-miterlimit:4;stroke-dasharray:none;stroke-opacity:1;filter:url(#filter4375-4-1-1-1-9-5-8-3-4-3)"
       x="787.65729"
       y="1584.5073"
       id="text4580-6-0-3-3"
       transform="matrix(1.1590129,-0.97328077,-0.02145955,2.5822564,-529.93673,-574.5085)"><tspan
         sodipodi:role="line"
         id="tspan4582-1-1-6-6"
         x="787.65729"
         y="1584.5073"
         style="font-size:93.1495px;line-height:1.25;fill:#ffffff;fill-opacity:1;stroke:none;stroke-width:0.474297;stroke-opacity:1">V<tspan
   style="font-size:90.0558px"
   id="tspan22698">R</tspan>u<tspan
   style="font-size:86.9621px"
   id="tspan6126">u</tspan><tspan
   style="font-size:79.4373px;stroke:none;stroke-width:0.474297"
   id="tspan951-6">m<tspan
   style="font-size:71.7031px"
   id="tspan2900">m</tspan><tspan
   id="tspan4354"
   style="font-size:64.9673px">m</tspan></tspan></tspan></text>
    <text
       xml:space="preserve"
       style="font-style:normal;font-variant:normal;font-weight:normal;font-stretch:normal;line-height:0%;font-family:Lavi;-inkscape-font-specification:Lavi;letter-spacing:0px;word-spacing:0px;display:inline;fill:#ffffff;fill-opacity:1;stroke:none;stroke-width:0.635372;stroke-miterlimit:4;stroke-dasharray:none;stroke-opacity:1;filter:url(#filter4375-4-1-1-1-9-5-8-3-4-3-3)"
       x="787.65729"
       y="1584.5073"
       id="text4580-6-0-3-3-3"
       transform="matrix(1.1442968,-0.17452415,-0.86661038,1.5794501,1541.9368,-632.01185)"><tspan
         sodipodi:role="line"
         id="tspan4582-1-1-6-6-6"
         x="787.65729"
         y="1584.5073"
         style="font-size:70px;line-height:1.25;fill:#ffffff;fill-opacity:1;stroke:none;stroke-width:0.635372;stroke-opacity:1"><tspan
           style="font-size:95.3247px;fill:#ffffff;fill-opacity:1;stroke:none;stroke-width:0.635372;stroke-opacity:1"
           id="tspan4313-2-6-2-2">Bruzzz!</tspan></tspan></text>
    <text
       xml:space="preserve"
       style="font-style:normal;font-variant:normal;font-weight:normal;font-stretch:normal;font-size:11.4833px;line-height:0%;font-family:Lavi;-inkscape-font-specification:Lavi;text-align:center;letter-spacing:0px;word-spacing:0px;text-anchor:middle;fill:#000000;fill-opacity:1;stroke:none;stroke-width:1"
       x="1365.1772"
       y="2654.2275"
       id="text4246-3-5-1-0-0-8-9-3-9-8"><tspan
         sodipodi:role="line"
         style="font-size:61.2442px;line-height:1.2;stroke-width:1"
         x="1365.1772"
         y="2654.2275"
         id="tspan1289-6">Tu imaš!</tspan></text>
    <text
       xml:space="preserve"
       style="color:#000000;font-style:normal;font-variant:normal;font-weight:normal;font-stretch:normal;line-height:0%;font-family:Arial;-inkscape-font-specification:Arial;letter-spacing:0.0273496px;word-spacing:0px;clip-rule:nonzero;display:inline;overflow:visible;visibility:visible;opacity:1;isolation:auto;mix-blend-mode:normal;color-interpolation:sRGB;color-interpolation-filters:linearRGB;solid-color:#000000;solid-opacity:1;fill:#ffffff;fill-opacity:1;fill-rule:nonzero;stroke:#ffffff;stroke-width:1.02115;stroke-linecap:butt;stroke-linejoin:miter;stroke-miterlimit:4;stroke-dasharray:none;stroke-dashoffset:0;stroke-opacity:1;marker:none;filter:url(#filter5561);color-rendering:auto;image-rendering:auto;shape-rendering:auto;text-rendering:auto;enable-background:accumulate"
       id="text4251-1"
       inkscape:transform-center-x="-173.31711"
       inkscape:transform-center-y="166.71592"
       y="1742.2045"
       x="1705.2566"
       transform="matrix(0.89499558,-0.36376929,-0.41874825,1.5248626,1084.6235,-169.80624)"><tspan
         sodipodi:role="line"
         id="tspan4253-5"
         x="1705.2566"
         y="1742.2045"
         style="font-style:normal;font-variant:normal;font-weight:normal;font-stretch:normal;font-size:45.5771px;line-height:1.25;font-family:Lavi;-inkscape-font-specification:Lavi;letter-spacing:8.21055px;stroke-width:1.02115">Šhh!</tspan></text>
    <text
       xml:space="preserve"
       style="font-style:normal;font-variant:normal;font-weight:normal;font-stretch:normal;line-height:0%;font-family:Lavi;-inkscape-font-specification:Lavi;text-align:center;letter-spacing:0px;word-spacing:0px;text-anchor:middle;fill:#000000;fill-opacity:1;stroke:none"
       x="1892.8262"
       y="2684.9863"
       id="text4246-7-6-4-6-4"><tspan
         sodipodi:role="line"
         style="font-size:45px;line-height:1.25"
         x="1892.8262"
         y="2684.9863"
         id="tspan142">Začetnica!</tspan></text>
    <text
       xml:space="preserve"
       style="font-style:normal;font-variant:normal;font-weight:normal;font-stretch:normal;font-size:10.4619px;line-height:0%;font-family:Lavi;-inkscape-font-specification:Lavi;text-align:center;letter-spacing:0px;word-spacing:0px;text-anchor:middle;fill:#000000;fill-opacity:1;stroke:none;stroke-width:0.871821"
       x="1607.3204"
       y="4210.5483"
       id="text4246-4-9-8-0-3"
       transform="matrix(0.83492136,-0.87630452,0.22267567,0.96400493,0,0)"><tspan
         sodipodi:role="line"
         style="font-size:122.964px;line-height:1.25;stroke-width:0.871821"
         x="1607.3204"
         y="4210.5483"
         id="tspan4205-3-3"><tspan
   style="font-size:105.886px;stroke-width:0.871821"
   id="tspan4438">!</tspan>!</tspan></text>
    <text
       xml:space="preserve"
       style="font-style:normal;font-variant:normal;font-weight:normal;font-stretch:normal;line-height:0%;font-family:Lavi;-inkscape-font-specification:Lavi;letter-spacing:0px;word-spacing:0px;display:inline;fill:#ffffff;fill-opacity:1;stroke:none;stroke-width:0.441556;stroke-miterlimit:4;stroke-dasharray:none;stroke-opacity:1;filter:url(#filter4375-4-1-1-1-9-5-8-3-4-6)"
       x="787.65729"
       y="1584.5073"
       id="text4580-6-0-3-9"
       transform="matrix(1.0457775,-1.3497041,0.35783864,2.8171264,531.95945,-146.7141)"><tspan
         sodipodi:role="line"
         id="tspan4582-1-1-6-7"
         x="787.65729"
         y="1584.5073"
         style="font-style:normal;font-variant:normal;font-weight:bold;font-stretch:normal;font-size:70px;line-height:1.25;font-family:Lavi;-inkscape-font-specification:'Lavi Bold';fill:#ffffff;fill-opacity:1;stroke:none;stroke-width:0.441556;stroke-opacity:1"><tspan
           style="font-style:normal;font-variant:normal;font-weight:bold;font-stretch:normal;font-size:79.4689px;font-family:Lavi;-inkscape-font-specification:'Lavi Bold';fill:#ffffff;fill-opacity:1;stroke:none;stroke-width:0.441556;stroke-opacity:1"
           id="tspan4315-8-0-3">POK</tspan><tspan
           style="font-style:normal;font-variant:normal;font-weight:bold;font-stretch:normal;font-size:92.4446px;font-family:Lavi;-inkscape-font-specification:'Lavi Bold';fill:#ffffff;fill-opacity:1;stroke:none;stroke-width:0.441556;stroke-opacity:1"
           id="tspan4313-2-6-29">!</tspan></tspan></text>
    <rect
       style="fill:#ffffff;stroke:none;stroke-width:1.75748;stroke-linecap:round;stroke-linejoin:round;stroke-opacity:0.826048"
       id="rect22938"
       width="123.19521"
       height="65.812904"
       x="2031.421"
       y="2755.2737" />
  </g>
</svg>
