<?xml version="1.0" encoding="UTF-8" standalone="no"?>
<svg
   xmlns:dc="http://purl.org/dc/elements/1.1/"
   xmlns:cc="http://creativecommons.org/ns#"
   xmlns:rdf="http://www.w3.org/1999/02/22-rdf-syntax-ns#"
   xmlns:svg="http://www.w3.org/2000/svg"
   xmlns="http://www.w3.org/2000/svg"
   xmlns:xlink="http://www.w3.org/1999/xlink"
   xmlns:sodipodi="http://sodipodi.sourceforge.net/DTD/sodipodi-0.dtd"
   xmlns:inkscape="http://www.inkscape.org/namespaces/inkscape"
   id="svg2"
   version="1.1"
   inkscape:version="1.0.2-2 (e86c870879, 2021-01-15)"
   width="2481"
   height="3503"
   sodipodi:docname="E35P01.svg">
  <metadata
     id="metadata8">
    <rdf:RDF>
      <cc:Work
         rdf:about="">
        <dc:format>image/svg+xml</dc:format>
        <dc:type
           rdf:resource="http://purl.org/dc/dcmitype/StillImage" />
        <dc:title />
      </cc:Work>
    </rdf:RDF>
  </metadata>
  <defs
     id="defs6" />
  <sodipodi:namedview
     pagecolor="#ffffff"
     bordercolor="#666666"
     borderopacity="1"
     objecttolerance="10"
     gridtolerance="10"
     guidetolerance="10"
     inkscape:pageopacity="0"
     inkscape:pageshadow="2"
     inkscape:window-width="1366"
     inkscape:window-height="745"
     id="namedview4"
     showgrid="false"
     inkscape:zoom="0.85547891"
     inkscape:cx="1966.6098"
     inkscape:cy="3308.9603"
     inkscape:window-x="-8"
     inkscape:window-y="-8"
     inkscape:window-maximized="1"
     inkscape:current-layer="layer1"
     inkscape:document-rotation="0"
     inkscape:pagecheckerboard="0" />
  <g
     inkscape:groupmode="layer"
     id="layer2"
     inkscape:label="artwork"
     sodipodi:insensitive="true">
    <image
       sodipodi:absref="C:\Users\quentinlipeck\gfx_Pepper-and-Carrot_by-David-Revoy_E35P01.png"
       xlink:href="../gfx_Pepper-and-Carrot_by-David-Revoy_E35P01.png"
       width="2481"
       height="3503"
       id="image10"
       x="0"
       y="0" />
  </g>
  <g
     inkscape:groupmode="layer"
     id="layer3"
     inkscape:label="speechbubbles">
    <path
       style="color:#000000;display:inline;overflow:visible;visibility:visible;fill:#ffffff;fill-opacity:1;fill-rule:nonzero;stroke:none;stroke-width:0.673422px;marker:none;enable-background:accumulate"
       d="m 897.40634,2690.8716 c -56.35626,0.5082 -140.01148,-8.9399 -159.25251,-42.1866 -19.24096,-33.2467 -21.05475,-88.0062 9.60173,-110.9286 30.65641,-22.9224 86.1023,-34.8201 135.0893,-33.7844 48.98691,1.0364 114.53383,17.56 132.63474,48.7678 18.1009,31.2071 11.0162,102.7842 -49.95845,123.3102 -60.97486,20.526 -68.11481,14.8216 -68.11481,14.8216 z"
       id="path3970-3"
       inkscape:connector-curvature="0"
       sodipodi:nodetypes="cccscsc" />
    <path
       style="color:#000000;display:inline;overflow:visible;visibility:visible;fill:#ffffff;fill-opacity:1;fill-rule:nonzero;stroke:none;stroke-width:0.844537px;marker:none;enable-background:accumulate"
       d="m 942.45645,2836.8261 c -79.22911,0.5684 -196.83674,-10.0014 -223.88698,-47.195 -27.05011,-37.1937 -29.60007,-98.4541 13.49872,-124.0978 43.09866,-25.6439 121.04789,-38.954 189.91679,-37.7954 68.86891,1.1595 161.01882,19.6448 186.46612,54.5575 25.4474,34.912 15.4873,114.9865 -70.2348,137.9494 -85.72208,22.9628 -95.75985,16.5813 -95.75985,16.5813 z"
       id="path3970-3-3"
       inkscape:connector-curvature="0"
       sodipodi:nodetypes="cccscsc" />
    <path
       style="fill:#ffffff;fill-rule:evenodd;stroke:none;stroke-width:1.06225px;stroke-linecap:butt;stroke-linejoin:miter;stroke-opacity:1"
       d="m 1082.5035,2791.6336 c 16.785,-19.6056 38.6627,-36.0206 49.0019,-34.6196 10.3392,1.401 38.8276,20.2647 44.0486,-5.9091 5.221,-26.1736 -0.464,-38.1966 10.459,-36.0914 10.9231,2.1053 27.5797,11.864 30.0863,25.9568 -8.4109,-33.022 -32.6982,-39.4387 -40.8556,-33.0423 -8.1574,6.3964 -12.4748,9.1065 -15.8247,34.4602 -6.2288,19.6797 -15.2021,-31.4488 -75.7503,-2.4836 -29.6051,28.4958 -1.1652,51.729 -1.1652,51.729 z"
       id="path1085"
       inkscape:connector-curvature="0"
       sodipodi:nodetypes="cscscsccc" />
    <path
       style="color:#000000;display:inline;overflow:visible;visibility:visible;fill:#ffffff;fill-opacity:1;fill-rule:nonzero;stroke:none;stroke-width:1.08px;marker:none;enable-background:accumulate"
       d="m 1633.314,2579.3745 c -4.6349,-85.7111 -19.9939,-94.4775 155.0617,-99.0941 94.5976,-2.4948 256.1523,3.4642 245.1113,129.0748 -11.0411,125.6094 -164.2357,115.265 -195.9786,116.7429 -31.7432,1.478 -216.207,-11.9281 -200.8501,-56.1019 9.613,-27.6519 -2.5718,-64.0224 -3.3443,-90.6217 z"
       id="path4546-1"
       inkscape:connector-curvature="0"
       sodipodi:nodetypes="cssssc" />
    <path
       style="fill:#ffffff;stroke:none;stroke-width:1.69794"
       d="m 1934.2545,3306.7841 c -2.9844,-104.602 32.1801,-183.4639 205.7565,-175.6736 173.5764,7.7904 261.6432,-2.5287 264.1455,141.4399 0.8936,51.4187 10.925,112.4549 -15.8468,134.7929 -44.1074,36.8027 -144.2182,15.8228 -225.5741,22.6773 -134.7748,11.3552 -219.6743,-27.0051 -228.4811,-123.2365 z"
       id="path3280-81"
       inkscape:connector-curvature="0"
       sodipodi:nodetypes="cssssc" />
    <path
       style="color:#000000;display:inline;overflow:visible;visibility:visible;fill:#ffffff;fill-opacity:1;fill-rule:nonzero;stroke:none;stroke-width:1.06477px;marker:none;enable-background:accumulate"
       d="m 1845.2728,2690.1037 c -17.7418,51.5577 -0.5352,96.2189 44.4232,120.3111 -75.8904,-27.089 -92.8027,-105.8188 -83.4584,-127.2019 9.1494,-20.9367 39.0352,6.8908 39.0352,6.8908 z"
       id="path5010-4"
       inkscape:connector-curvature="0"
       sodipodi:nodetypes="ccsc" />
    <path
       style="color:#000000;display:inline;overflow:visible;visibility:visible;fill:#ffffff;fill-opacity:1;fill-rule:nonzero;stroke:none;stroke-width:1px;marker:none;enable-background:accumulate"
       d="m 2181.6979,3039.5111 c 15.5881,37.565 19.0292,51.8083 -13.2212,86.5196 -32.2502,34.7102 -19.1075,46.3288 -19.1075,46.3288 l 31.133,-8.0771 c 0,0 63.6316,-78.7837 1.1957,-124.7713 z"
       id="path3072-56"
       inkscape:connector-curvature="0" />
  </g>
  <g
     inkscape:groupmode="layer"
     id="layer1"
     inkscape:label="txt">
    <text
       xml:space="preserve"
       style="font-style:normal;font-variant:normal;font-weight:normal;font-stretch:normal;font-size:45px;line-height:1.25;font-family:Lavi;-inkscape-font-specification:Lavi;text-align:center;letter-spacing:0px;word-spacing:0px;text-anchor:middle;fill:#000000;fill-opacity:1;stroke:none"
       x="876.48053"
       y="2565.1858"
       id="text4246-3-2-2"><tspan
         style="font-size:45px"
         sodipodi:role="line"
         x="876.48053"
         y="2565.1858"
         id="tspan873">a, sina </tspan><tspan
         style="font-size:45px"
         sodipodi:role="line"
         x="876.48053"
         y="2621.4358"
         id="tspan58">pini e lape!</tspan></text>
    <text
       xml:space="preserve"
       style="font-style:normal;font-variant:normal;font-weight:normal;font-stretch:normal;font-size:45px;line-height:1.25;font-family:Lavi;-inkscape-font-specification:Lavi;text-align:center;letter-spacing:0px;word-spacing:0px;text-anchor:middle;fill:#000000;fill-opacity:1;stroke:none"
       x="911.43304"
       y="2691.5044"
       id="text4246-3-2-2-3"><tspan
         style="font-size:45px"
         sodipodi:role="line"
         x="911.43304"
         y="2691.5044"
         id="tspan914">sina pona anu </tspan><tspan
         style="font-size:45px"
         sodipodi:role="line"
         x="911.43304"
         y="2747.7544"
         id="tspan857">seme? lete ni li ike </tspan><tspan
         style="font-size:45px"
         sodipodi:role="line"
         x="911.43304"
         y="2804.0044"
         id="tspan35">ala anu seme?</tspan></text>
    <text
       xml:space="preserve"
       style="font-style:normal;font-variant:normal;font-weight:normal;font-stretch:normal;font-size:45px;line-height:1.25;font-family:Lavi;-inkscape-font-specification:Lavi;text-align:center;letter-spacing:0px;word-spacing:0px;text-anchor:middle;fill:#000000;fill-opacity:1;stroke:none"
       x="1833.0115"
       y="2562.1472"
       id="text4246-3-2-2-3-3"><tspan
         style="font-size:45px"
         sodipodi:role="line"
         x="1833.0115"
         y="2562.1472"
         id="tspan65">mi pakala. </tspan><tspan
         style="font-size:45px"
         sodipodi:role="line"
         x="1833.0115"
         y="2618.3972"
         id="tspan71">wawa Lonaa mi li </tspan><tspan
         style="font-size:45px"
         sodipodi:role="line"
         x="1833.0115"
         y="2674.6472"
         id="tspan39">kama wawa ala</tspan></text>
    <text
       xml:space="preserve"
       style="font-style:normal;font-variant:normal;font-weight:normal;font-stretch:normal;font-size:45px;line-height:1.25;font-family:Lavi;-inkscape-font-specification:Lavi;text-align:center;letter-spacing:0px;word-spacing:0px;text-anchor:middle;fill:#000000;fill-opacity:1;stroke:none"
       x="2173.9226"
       y="3206.6389"
       id="text4246-3-2-2-3-3-9"><tspan
         style="font-size:45px"
         sodipodi:role="line"
         x="2173.9226"
         y="3206.6389"
         id="tspan905">wawa selo suno mi </tspan><tspan
         style="font-size:45px"
         sodipodi:role="line"
         x="2173.9226"
         y="3262.8889"
         id="tspan45">li lili taso, li ken ala </tspan><tspan
         style="font-size:45px"
         sodipodi:role="line"
         x="2173.9226"
         y="3319.1389"
         id="tspan84">awen e mi tu </tspan><tspan
         style="font-size:45px"
         sodipodi:role="line"
         x="2173.9226"
         y="3375.3889"
         id="tspan53">tan lete ni.</tspan></text>
  </g>
</svg>
