<?xml version="1.0" encoding="UTF-8" standalone="no"?>
<!-- Created with Inkscape (http://www.inkscape.org/) -->

<svg
   xmlns:dc="http://purl.org/dc/elements/1.1/"
   xmlns:cc="http://creativecommons.org/ns#"
   xmlns:rdf="http://www.w3.org/1999/02/22-rdf-syntax-ns#"
   xmlns:svg="http://www.w3.org/2000/svg"
   xmlns="http://www.w3.org/2000/svg"
   xmlns:xlink="http://www.w3.org/1999/xlink"
   xmlns:sodipodi="http://sodipodi.sourceforge.net/DTD/sodipodi-0.dtd"
   xmlns:inkscape="http://www.inkscape.org/namespaces/inkscape"
   id="svg2"
   version="1.1"
   inkscape:version="0.92.2 5c3e80d, 2017-08-06"
   width="2481"
   height="3503"
   sodipodi:docname="E27P02.svg">
  <metadata
     id="metadata8">
    <rdf:RDF>
      <cc:Work
         rdf:about="">
        <dc:format>image/svg+xml</dc:format>
        <dc:type
           rdf:resource="http://purl.org/dc/dcmitype/StillImage" />
        <dc:title />
      </cc:Work>
    </rdf:RDF>
  </metadata>
  <defs
     id="defs6" />
  <sodipodi:namedview
     pagecolor="#ffffff"
     bordercolor="#666666"
     borderopacity="1"
     objecttolerance="10"
     gridtolerance="10"
     guidetolerance="10"
     inkscape:pageopacity="0"
     inkscape:pageshadow="2"
     inkscape:window-width="1680"
     inkscape:window-height="980"
     id="namedview4"
     showgrid="false"
     inkscape:zoom="0.21895518"
     inkscape:cx="1240.5"
     inkscape:cy="1751.5"
     inkscape:window-x="0"
     inkscape:window-y="1"
     inkscape:window-maximized="1"
     inkscape:current-layer="layer1"
     inkscape:snap-global="false" />
  <g
     inkscape:groupmode="layer"
     id="layer2"
     inkscape:label="artwork"
     sodipodi:insensitive="true">
    <image
       sodipodi:absref="/Users/gand/Documents/Pepper&amp;Carrot/ep27_Coriander-s-Invention/it/../gfx_Pepper-and-Carrot_by-David-Revoy_E27P02.png"
       xlink:href="../gfx_Pepper-and-Carrot_by-David-Revoy_E27P02.png"
       y="0"
       x="0"
       id="image10"
       height="3503"
       width="2481" />
  </g>
  <g
     inkscape:groupmode="layer"
     id="layer3"
     inkscape:label="speechbubbles">
    <path
       style="fill:#ffffff;fill-rule:evenodd;stroke:none;stroke-width:1px;stroke-linecap:butt;stroke-linejoin:miter;stroke-opacity:1"
       d="m 460.94747,195.57139 c 5.74488,1.63451 59.91087,0 64.83504,-0.81725 4.92419,-0.81726 41.85554,-7.35529 50.88321,-5.72078 9.02767,1.63451 71.40061,10.6243 82.89037,11.44156 11.48975,0.81725 66.47643,2.45176 76.32479,7.35529 9.84837,4.90352 22.97952,9.80705 30.3658,17.9796 7.38627,8.17254 18.05532,33.50743 17.23462,39.22821 -0.8207,5.72078 -12.31045,44.94899 -18.87602,50.66977 -6.56557,5.72078 -29.54508,24.51763 -36.11066,26.9694 -6.56558,2.45176 -21.33811,8.98979 -28.72439,11.44156 -7.38627,2.45176 -174.80841,4.90352 -195.32583,5.72078 -20.51742,0.81725 -100.12501,-4.90353 -114.07686,-5.72078 -13.95184,-0.81726 -46.77972,1.63451 -68.11782,-6.53804 -21.33813,-8.17254 -36.11067,-38.41095 -42.67624,-44.13174 -6.56558,-5.72078 -18.05533,-30.23841 -17.23463,-39.22821 0.82069,-8.9898 17.23463,-30.23841 25.44159,-32.69017 8.20697,-2.45177 41.85554,-22.88313 61.55226,-26.9694 19.69673,-4.08627 67.29714,-13.89332 76.3248,-13.07607 12.35712,1.64213 11.0589,0.16304 35.28997,4.08627 z"
       id="path1323"
       inkscape:connector-curvature="0"
       sodipodi:nodetypes="ccsscscsscsssccsscc" />
    <path
       style="fill:#ffffff;fill-rule:evenodd;stroke:none;stroke-width:0.99999994px;stroke-linecap:butt;stroke-linejoin:miter;stroke-opacity:1"
       d="m 172.66645,163.77351 c 10.53318,-19.15682 29.62457,-29.0442 39.49941,-31.51605 9.87486,-2.47185 26.33295,3.08981 35.54949,1.85389 9.21652,-1.23593 44.10767,-12.35924 57.27415,-11.74128 13.16646,0.61796 52.00756,4.32573 64.51571,4.9437 12.50814,0.61796 43.44936,3.0898 54.64086,9.88738 11.19151,6.79758 23.69965,14.21312 25.67462,21.0107 1.97497,6.79758 6.58324,19.77478 1.97497,30.89809 -4.60826,11.12331 -15.79976,30.28013 -30.28288,32.13401 -14.48312,1.85389 -86.2404,8.65147 -102.04016,8.0335 -15.79977,-0.61796 -59.24913,0 -69.78231,0 -10.53318,0 -48.71595,-4.32573 -59.90745,-12.35923 -11.1915,-8.0335 -19.7497,-24.10051 -21.06635,-33.9879 -1.31665,-9.88738 3.94994,-19.15681 3.94994,-19.15681 z"
       id="path1325"
       inkscape:connector-curvature="0" />
    <path
       style="fill:#ffffff;fill-rule:evenodd;stroke:none;stroke-width:1px;stroke-linecap:butt;stroke-linejoin:miter;stroke-opacity:1"
       d="m 544.4243,343.97954 c 6.17962,25.33643 -4.94369,76.0093 4.32573,89.60445 9.26943,13.59516 11.12331,11.74128 19.15682,18.53886 -12.35924,15.44904 -17.92089,33.36993 -16.68497,42.63936 1.23592,9.26942 4.32573,33.36993 35.84178,44.49324 -27.19032,-19.15681 -24.71847,-38.31363 -23.48255,-43.87528 1.23593,-5.56166 6.17962,-34.60586 21.62867,-42.0214 -15.44905,-11.74127 -23.48255,-24.71847 -23.48255,-32.13401 0,-7.41554 8.65146,-82.80688 8.65146,-82.80688 z"
       id="path1327"
       inkscape:connector-curvature="0" />
    <path
       style="fill:#ffffff;fill-rule:evenodd;stroke:none;stroke-width:1px;stroke-linecap:butt;stroke-linejoin:miter;stroke-opacity:1"
       d="m 1028.778,99.513979 c -32.42456,17.031151 -62.38624,30.970451 -66.70952,55.949461 -4.32327,24.97901 -16.21228,45.41639 -17.2931,62.44753 -1.08082,17.03115 7.26449,79.16428 14.83022,101.87247 7.56573,22.7082 48.6369,74.93704 54.0409,79.47868 5.4041,4.54163 41.0712,19.30196 58.3643,26.11442 17.2931,6.81246 155.6379,11.35409 180.4967,14.76032 24.8589,3.40623 91.8696,-15.89573 109.1628,-23.8436 17.2931,-7.94787 41.0711,-11.3541 51.8793,-24.97901 10.8082,-13.62491 35.667,-49.95802 39.9903,-65.85375 4.3232,-15.89574 4.3232,-70.3954 4.3232,-81.7495 0,-11.3541 -1.0808,-61.31212 -21.6163,-82.8849 -20.5356,-21.57278 -55.1218,-51.09344 -82.1423,-60.17671 -27.0205,-9.083277 -190.2241,-22.708193 -208.598,-23.843603 -18.374,-1.135409 -116.7285,22.708192 -116.7285,22.708192 z"
       id="path1329"
       inkscape:connector-curvature="0"
       sodipodi:nodetypes="cssscsscscscssc" />
    <path
       style="fill:#ffffff;fill-rule:evenodd;stroke:none;stroke-width:0.879749px;stroke-linecap:butt;stroke-linejoin:miter;stroke-opacity:1"
       d="m 1039.9462,396.82138 c -25.1118,14.97738 -53.12138,29.01869 -58.9165,39.31564 -5.79503,10.29695 -13.52179,38.37954 -9.65848,51.48476 3.86345,13.10521 16.41947,67.39826 30.90708,77.6952 14.4876,10.29696 60.8484,42.12391 84.0286,42.12391 23.1803,0 97.5503,12.16912 110.1064,11.23303 12.5559,-0.93608 93.6868,10.29695 114.9355,0.93609 21.2485,-9.36087 70.1547,-28.29491 86.5742,-33.91144 16.4191,-5.61651 34.1563,-6.34028 45.7464,-26.9342 11.5903,-20.5939 16.7765,-57.36718 7.7269,-84.24781 -8.7525,-25.99776 -27.0437,-48.67649 -56.0191,-62.7178 -28.9753,-14.0413 -121.6964,-44.93215 -121.6964,-44.93215 l -139.0816,-12.16914 c 0,0 -22.2145,8.42479 -45.3949,20.5939 -23.1803,12.16914 -49.2581,21.53001 -49.2581,21.53001 z"
       id="path1331"
       inkscape:connector-curvature="0"
       sodipodi:nodetypes="csccsccccasccsc" />
    <path
       style="fill:#ffffff;fill-rule:evenodd;stroke:none;stroke-width:1px;stroke-linecap:butt;stroke-linejoin:miter;stroke-opacity:1"
       d="m 1351.9814,582.45483 c 0,0 27.0205,22.6972 35.667,37.82867 8.6466,15.13146 27.0205,36.74784 22.6972,76.73814 10.8082,-51.87931 10.8082,-67.01077 -20.5355,-116.72844 -31.3438,-49.71768 -37.8287,2.16163 -37.8287,2.16163 z"
       id="path1333"
       inkscape:connector-curvature="0" />
    <path
       style="fill:#ffffff;fill-rule:evenodd;stroke:none;stroke-width:1.04007399px;stroke-linecap:butt;stroke-linejoin:miter;stroke-opacity:1"
       d="m 1604.7755,231.8935 c 12.1011,-46.74643 16.1347,-74.01519 44.3704,-90.89585 28.2357,-16.88066 143.8676,-31.16429 160.0023,-32.4628 16.1347,-1.29851 64.5387,3.89554 87.3962,3.89554 22.8575,0 141.1785,-2.59703 160.0023,-2.59703 18.8238,0 95.4636,0 115.632,2.59703 20.1683,2.59702 91.4298,18.17916 103.5309,29.86578 12.101,11.6866 47.0594,61.03006 48.404,93.49287 1.3446,32.4628 -1.3446,85.7018 -25.5466,106.47799 -24.202,20.77619 -80.6735,46.74643 -118.3211,54.53751 -37.6475,7.79107 -221.8519,16.88065 -243.3647,16.88065 -21.513,0 -112.9428,3.89554 -157.3132,-2.59702 -44.3704,-6.49256 -92.7745,-25.97024 -115.6319,-44.14941 -22.8575,-18.17918 -51.0933,-31.16429 -59.1606,-66.22412 -8.0673,-35.05983 0,-68.82114 0,-68.82114 z"
       id="path1335"
       inkscape:connector-curvature="0" />
    <path
       style="fill:#ffffff;fill-rule:evenodd;stroke:none;stroke-width:1.21153927px;stroke-linecap:butt;stroke-linejoin:miter;stroke-opacity:1"
       d="m 1662.252,423.03907 c 40.3823,26.61792 62.9093,47.56076 -16.7418,80.71719 72.1223,-0.72812 63.9573,20.05383 50.2253,45.56614 98.1942,-20.5973 166.9537,-7.40942 176.7188,32.54725 64.4626,-32.2476 74.2198,-26.46532 122.7727,-1.30189 58.1732,-49.89404 91.8945,-15.54139 133.9341,-10.41512 -8.6339,-23.03081 19.8581,-43.92498 91.7024,-10.21797 -25.7888,-18.88765 -15.5776,-65.99877 83.1563,-69.19731 -44.2566,-10.89059 -107.4429,-22.51429 -33.4837,-69.00017 -113.9335,-8.98442 -58.6374,-27.33589 -76.268,-41.66048 l -165.5575,-13.0189 -167.4177,7.81134 -85.5689,5.20756 c -2.0705,20.45876 6.5767,42.79545 -113.472,42.96236 z"
       id="path1337"
       inkscape:connector-curvature="0"
       sodipodi:nodetypes="cccccccccccccc" />
    <path
       style="fill:#ffffff;fill-rule:evenodd;stroke:none;stroke-width:1px;stroke-linecap:butt;stroke-linejoin:miter;stroke-opacity:1"
       d="m 2083.819,528.58622 c 24.8588,19.45474 57.2834,63.76832 55.1217,92.95043 10.8082,-38.90948 -17.2931,-97.27371 -31.3437,-112.40517 -14.0507,-15.13147 -23.778,19.45474 -23.778,19.45474 z"
       id="path1339"
       inkscape:connector-curvature="0" />
    <path
       style="fill:#ffffff;fill-rule:evenodd;stroke:none;stroke-width:1.1707983px;stroke-linecap:butt;stroke-linejoin:miter;stroke-opacity:1"
       d="m 807.1801,1438.6648 c 15.07125,-34.2595 45.2138,-50.6446 86.12156,-59.5818 40.90776,-8.9372 148.55964,1.4895 176.54924,1.4895 27.9894,0 139.9476,7.4477 155.0188,19.3641 15.0713,11.9164 51.6728,37.2387 40.9077,64.0505 -10.7652,26.8118 -23.6834,53.6236 -81.8154,68.519 -58.1321,14.8954 -111.958,0 -133.4885,1.4896 -21.5305,1.4895 -49.5199,8.9372 -109.80498,1.4895 -60.28509,-7.4477 -137.79454,-46.1759 -133.48842,-96.8204 z"
       id="path1341"
       inkscape:connector-curvature="0" />
    <path
       style="fill:#ffffff;fill-rule:evenodd;stroke:none;stroke-width:1px;stroke-linecap:butt;stroke-linejoin:miter;stroke-opacity:1"
       d="m 1321.8416,1549.9601 c -25.1103,-26.3097 -29.3743,-46.7563 -36.94,-53.2412 -7.5658,-6.4849 -52.768,-40.79 -87.3542,-44.0325 -34.5862,-3.2424 -28.1013,24.8589 -28.1013,24.8589 0,0 36.7479,1.0808 51.8793,5.4041 15.1315,4.3232 48.6369,20.5355 54.041,24.8588 5.4041,4.3233 19.4547,27.0205 46.4752,42.1519 z"
       id="path1343"
       inkscape:connector-curvature="0"
       sodipodi:nodetypes="cccccsc" />
    <path
       style="fill:#ffffff;fill-rule:evenodd;stroke:none;stroke-width:1px;stroke-linecap:butt;stroke-linejoin:miter;stroke-opacity:1"
       d="m 1847.0115,1634.8585 c 65.8759,-41.0171 79.5483,-53.4465 129.266,-55.9324 49.7176,-2.4859 59.6612,-29.8306 59.6612,-29.8306 0,0 -34.8024,-1.243 -72.0906,6.2147 -37.2883,7.4576 -95.7066,37.2882 -116.8366,79.5483 z"
       id="path1345"
       inkscape:connector-curvature="0" />
    <path
       style="fill:#ffffff;fill-rule:evenodd;stroke:none;stroke-width:1.09009695px;stroke-linecap:butt;stroke-linejoin:miter;stroke-opacity:1"
       d="m 1957.1605,1519.225 c 21.1515,-20.9727 75.5413,-43.2562 108.7794,-47.1886 33.2379,-3.9323 138.9959,5.2432 161.6583,17.0403 22.6622,11.7972 69.4979,20.9728 67.9871,58.9858 -1.5111,38.013 6.0432,55.0534 -28.7057,76.026 -34.7489,20.9728 -157.1259,15.7296 -184.3206,14.4188 -27.195,-1.3107 -78.563,-6.5539 -105.7578,-30.1483 -27.1949,-23.5942 -39.2814,-48.4993 -19.6407,-89.134 z"
       id="path1347"
       inkscape:connector-curvature="0" />
    <path
       style="fill:#ffffff;fill-rule:evenodd;stroke:none;stroke-width:1.05703855px;stroke-linecap:butt;stroke-linejoin:miter;stroke-opacity:1"
       d="m 1980.6225,1655.9885 c 22.2205,-34.8024 76.3827,-47.2318 88.8818,-47.2318 12.499,0 109.7133,7.4576 127.7674,7.4576 18.0542,0 55.551,-7.4576 76.3827,-4.9717 20.8317,2.4859 59.7174,0 76.3827,24.8588 16.6653,24.8588 29.1644,79.5483 24.9981,103.1642 -4.1663,23.6159 -2.2343,41.0579 -20.2884,77.1032 -18.054,36.0453 -30.8401,49.7177 -57.2269,60.9042 -26.3866,11.1865 -137.7451,19.8462 -165.5207,16.1174 -27.7756,-3.7289 -74.1484,-17.5262 -97.7577,-23.7409 -23.6091,-6.2148 -39.6851,-21.5027 -47.7616,-47.6044 -13.9184,-26.1018 -25.3003,-38.0336 -18.3564,-82.7795 6.944,-44.7459 12.499,-83.2771 12.499,-83.2771 z"
       id="path1349"
       inkscape:connector-curvature="0"
       sodipodi:nodetypes="csssssccccccc" />
    <path
       style="fill:#ffffff;fill-rule:evenodd;stroke:none;stroke-width:0.99999994px;stroke-linecap:butt;stroke-linejoin:miter;stroke-opacity:1"
       d="m 110.76633,2399.1151 c 0,-35.8207 25.87264,-41.7908 42.74609,-41.7908 16.87346,0 71.9934,-4.7762 79.86769,-4.7762 7.87428,0 66.36892,7.1642 76.493,13.1343 10.12407,5.9701 25.87262,10.7462 23.62284,32.2386 -2.2498,21.4925 0,33.4327 -22.49794,39.4028 -22.49795,5.9702 -110.23992,8.3582 -125.98848,7.1642 -15.74855,-1.194 -39.37139,-10.7463 -50.62036,-17.9104 -11.24897,-7.1641 -25.87264,-9.5522 -23.62284,-27.4625 z"
       id="path1351"
       inkscape:connector-curvature="0" />
    <path
       style="fill:#ffffff;fill-rule:evenodd;stroke:none;stroke-width:0.95944595px;stroke-linecap:butt;stroke-linejoin:miter;stroke-opacity:1"
       d="m 309.11422,2417.7751 c 48.15781,-12.3108 82.20391,-9.3904 96.44438,-7.564 14.9867,1.9221 52.96013,13.2749 64.84914,23.2242 11.889,9.9493 27.05014,30.1068 25.96932,42.046 -1.08082,11.9392 6.91442,44.7448 5.8336,60.6637 -1.08082,15.9189 -12.59967,70.6675 -20.1654,93.551 -7.56574,22.8834 -25.93966,49.7466 -107.00108,54.7213 -81.06142,4.9747 -130.77909,2.9848 -162.12284,-4.9747 -31.34375,-7.9594 -71.33406,-12.9341 -82.14225,-50.7415 -10.80819,-37.8076 -14.05064,-80.5897 -10.80819,-98.4984 3.24246,-17.9089 6.48492,-57.7062 10.80819,-64.6708 4.32328,-6.9645 17.38212,-34.0864 27.10949,-40.056 9.72737,-5.9696 151.22564,-7.7008 151.22564,-7.7008 z"
       id="path1353"
       inkscape:connector-curvature="0"
       sodipodi:nodetypes="csssscscsscsc" />
    <path
       style="fill:#ffffff;fill-rule:evenodd;stroke:none;stroke-width:1px;stroke-linecap:butt;stroke-linejoin:miter;stroke-opacity:1"
       d="m 532.84375,2533.5054 c 1.08082,-19.4547 14.05064,-55.1218 33.50539,-61.6067 19.45474,-6.4849 73.49568,-6.4849 84.30387,-3.2424 10.80819,3.2424 28.1013,27.0204 32.42457,36.7478 4.32328,9.7274 16.21229,44.3136 -3.24245,58.3642 -19.45474,14.0507 -38.90949,24.8589 -59.44505,23.778 -20.53556,-1.0808 -61.60668,-8.6465 -71.33405,-21.6163 -9.72737,-12.9699 -16.21228,-32.4246 -16.21228,-32.4246 z"
       id="path1355"
       inkscape:connector-curvature="0" />
    <path
       style="fill:#ffffff;fill-rule:evenodd;stroke:none;stroke-width:1px;stroke-linecap:butt;stroke-linejoin:miter;stroke-opacity:1"
       d="m 371.0335,2696.1612 c 0,0 10.62431,7.3553 12.25882,23.7003 1.63451,16.3451 -0.81725,35.142 -13.89333,54.7561 28.60391,-32.6902 43.31449,-55.5733 34.32469,-83.36 -8.9898,-27.7866 -32.69018,4.9036 -32.69018,4.9036 z"
       id="path1357"
       inkscape:connector-curvature="0" />
    <path
       style="fill:#ffffff;fill-rule:evenodd;stroke:none;stroke-width:1px;stroke-linecap:butt;stroke-linejoin:miter;stroke-opacity:1"
       d="m 609.41023,2578.6689 c 0,0 17.16235,24.5177 9.80706,38.411 -7.35529,13.8933 -8.9898,18.7968 -25.33489,35.1419 26.9694,-17.9796 37.5937,-31.0556 40.86272,-43.3145 3.26902,-12.2588 5.72078,-35.9592 5.72078,-42.4972 0,-6.538 -31.05567,12.2588 -31.05567,12.2588 z"
       id="path1359"
       inkscape:connector-curvature="0" />
    <path
       style="fill:#ffffff;fill-rule:evenodd;stroke:none;stroke-width:1.03840244px;stroke-linecap:butt;stroke-linejoin:miter;stroke-opacity:1"
       d="m 721.7991,2510.6937 c -9.39843,-42.5634 -7.51874,-84.1134 4.69921,-95.2608 4.75927,-26.065 60.0674,-65.3013 81.7663,-59.7915 16.91717,-4.0536 108.0819,-25.3353 125.93891,-23.3084 17.85701,2.0267 118.32618,4.6109 137.12298,22.8524 18.7969,18.2414 34.2573,28.5276 45.5355,47.7825 11.2781,19.2548 17.716,57.2071 23.3551,63.2875 5.639,6.0806 3.5713,36.3309 -1.1279,53.5589 -4.6992,17.2281 -21.6164,31.4159 -46.0523,37.4963 -24.4359,6.0806 -57.3304,14.1878 -78.9468,15.2013 -21.61634,1.0134 -71.428,1.0134 -109.0217,-2.0268 -44.76237,-9.5027 -72.61993,-9.7453 -117.26947,-14.0847 -8.45859,-1.0133 -64.12015,-18.3446 -65.99983,-45.7067 z"
       id="path1361"
       inkscape:connector-curvature="0"
       sodipodi:nodetypes="ccccccccccccc" />
    <path
       style="fill:#ffffff;fill-rule:evenodd;stroke:none;stroke-width:1px;stroke-linecap:butt;stroke-linejoin:miter;stroke-opacity:1"
       d="m 1048.8643,2539.6614 c 40.4132,37.5937 65.789,69.5483 47.932,102.4428 29.1351,-35.714 14.0976,-69.5483 -24.4359,-117.4803 -38.5336,-47.932 -23.4961,15.0375 -23.4961,15.0375 z"
       id="path1363"
       inkscape:connector-curvature="0" />
    <path
       style="fill:#ffffff;fill-rule:evenodd;stroke:none;stroke-width:1px;stroke-linecap:butt;stroke-linejoin:miter;stroke-opacity:1"
       d="m 1362.7766,2499.8218 c -0.8172,-27.7867 20.4314,-32.6902 31.8729,-34.3247 11.4416,-1.6345 58.8423,-9.807 76.8219,3.269 17.9796,13.0761 22.8832,35.142 14.7106,43.3145 -8.1725,8.1726 -34.3247,20.4314 -50.6698,21.2486 -16.345,0.8173 -51.487,-4.0862 -62.9285,-15.5278 -11.4416,-11.4416 -9.8071,-17.9796 -9.8071,-17.9796 z"
       id="path1365"
       inkscape:connector-curvature="0" />
    <path
       style="fill:#ffffff;fill-rule:evenodd;stroke:none;stroke-width:1px;stroke-linecap:butt;stroke-linejoin:miter;stroke-opacity:1"
       d="m 1445.7231,2523.112 c 0,0 19.6141,10.6243 24.5176,19.6141 4.9035,8.9898 13.0761,31.0556 8.9898,45.7662 13.0761,-26.1521 8.1725,-42.4972 4.9035,-49.8525 -3.269,-7.3553 -23.7004,-34.3247 -23.7004,-34.3247 z"
       id="path1367"
       inkscape:connector-curvature="0" />
    <path
       style="fill:#ffffff;fill-rule:evenodd;stroke:none;stroke-width:1.07890499px;stroke-linecap:butt;stroke-linejoin:miter;stroke-opacity:1"
       d="m 1782.8343,2452.444 c 5.2628,-52.9602 28.4174,-71.1198 50.7839,-78.6856 22.3662,-7.5657 124.1994,-16.4265 155.7752,-15.3457 31.5759,1.0808 148.67,11.889 168.4049,12.9698 19.735,1.0809 69.7301,25.9397 73.6771,32.4246 3.9471,6.4849 21.0507,23.778 15.7879,43.2328 -5.2625,19.4547 -35.5229,45.3944 -64.4675,55.1217 -28.9446,9.7274 -144.7227,17.2931 -167.0891,15.1315 -22.3662,-2.1616 -60.5204,-5.4041 -82.8868,-5.4041 -22.3662,0 -93.412,-1.0808 -111.8314,-12.9698 -18.4192,-11.889 -38.1542,-46.4752 -38.1542,-46.4752 z"
       id="path1369"
       inkscape:connector-curvature="0"
       sodipodi:nodetypes="cssccccsscc" />
    <path
       style="fill:#ffffff;fill-rule:evenodd;stroke:none;stroke-width:1px;stroke-linecap:butt;stroke-linejoin:miter;stroke-opacity:1"
       d="m 1988.5393,2507.5657 c 15.6768,24.1512 6.1632,34.5534 -20.368,35.6671 20.5199,9.9586 46.1337,15.5923 40.7359,47.556 22.7818,-0.375 37.1938,-19.937 73.551,10.8082 21.4995,-25.3561 42.999,-13.281 64.4986,-2.1617 10.3119,-11.3113 29.2981,-12.0311 69.0248,-6.4849 -3.0677,-25.0109 21.8624,-36.1565 45.2622,-44.3136 -19.8128,-13.1763 -37.659,-27.5479 -24.8943,-60.5258 -28.7916,7.2773 -53.0033,6.6803 -66.7616,-11.889 -28.5646,4.157 -50.0209,21.8927 -89.3928,5.4041 -21.2019,19.9279 -44.8336,21.2885 -69.0248,18.3739 5.5129,17.7643 -0.9947,21.4958 -22.631,7.5657 z"
       id="path1371"
       inkscape:connector-curvature="0"
       sodipodi:nodetypes="cccccccccccc" />
    <path
       style="fill:#ffffff;fill-rule:evenodd;stroke:none;stroke-width:1px;stroke-linecap:butt;stroke-linejoin:miter;stroke-opacity:1"
       d="m 2142.1832,2571.3341 c -3.2425,28.1012 8.6465,79.9806 34.5862,113.4859 -3.2425,16.2123 1.0808,33.5054 15.1315,47.5561 -12.9699,-29.1821 -7.5658,-36.7479 -1.0809,-50.7985 -12.9698,-20.5356 -31.3437,-69.1724 -34.5862,-109.1627 -3.2424,-39.9903 -14.0506,-1.0808 -14.0506,-1.0808 z"
       id="path1373"
       inkscape:connector-curvature="0" />
  </g>
  <g
     inkscape:groupmode="layer"
     id="layer1"
     inkscape:label="txt">
    <text
       xml:space="preserve"
       style="font-style:normal;font-variant:normal;font-weight:normal;font-stretch:normal;line-height:0%;font-family:Lavi;-inkscape-font-specification:Lavi;text-align:center;letter-spacing:0px;word-spacing:0px;text-anchor:middle;fill:#000000;fill-opacity:1;stroke:none"
       x="320.61392"
       y="193.67375"
       id="text4246"><tspan
         sodipodi:role="line"
         style="font-size:45px;line-height:1.20000005;letter-spacing:-0.48583508px"
         x="320.371"
         y="193.67375"
         id="tspan4252">Lo sapete…</tspan></text>
    <text
       xml:space="preserve"
       style="font-style:normal;font-variant:normal;font-weight:normal;font-stretch:normal;line-height:0%;font-family:Lavi;-inkscape-font-specification:Lavi;text-align:center;letter-spacing:0px;word-spacing:0px;text-anchor:middle;fill:#000000;fill-opacity:1;stroke:none"
       x="528.04688"
       y="265.45801"
       id="text4246-3"><tspan
         sodipodi:role="line"
         style="font-size:45px;line-height:1.20000005"
         x="528.04688"
         y="265.45801"
         id="tspan4252-6">Sto ancora pensando</tspan><tspan
         sodipodi:role="line"
         style="font-size:45px;line-height:1.20000005"
         x="528.04688"
         y="319.45801"
         id="tspan841">alla sicurezza…</tspan></text>
    <text
       xml:space="preserve"
       style="font-style:normal;font-variant:normal;font-weight:normal;font-stretch:normal;line-height:0%;font-family:Lavi;-inkscape-font-specification:Lavi;text-align:center;letter-spacing:0px;word-spacing:0px;text-anchor:middle;fill:#000000;fill-opacity:1;stroke:none"
       x="1203.0967"
       y="169.41882"
       id="text4246-3-7"><tspan
         sodipodi:role="line"
         style="font-size:45px;line-height:1.20000005"
         x="1203.0967"
         y="169.41882"
         id="tspan899">Così tanti giovani re</tspan><tspan
         sodipodi:role="line"
         style="font-size:45px;line-height:1.20000005"
         x="1203.0967"
         y="223.41882"
         id="tspan868">e regine sono stati</tspan><tspan
         sodipodi:role="line"
         style="font-size:45px;line-height:1.20000005"
         x="1203.0967"
         y="277.41882"
         id="tspan870">assassinati durante la</tspan><tspan
         sodipodi:role="line"
         style="font-size:45px;line-height:1.20000005"
         x="1203.0967"
         y="331.41882"
         id="tspan872">loro cerimonia di</tspan><tspan
         sodipodi:role="line"
         style="font-size:45px;line-height:1.20000005"
         x="1203.0967"
         y="385.41882"
         id="tspan901">incoronazione.</tspan></text>
    <text
       xml:space="preserve"
       style="font-style:normal;font-variant:normal;font-weight:normal;font-stretch:normal;line-height:0%;font-family:Lavi;-inkscape-font-specification:Lavi;text-align:center;letter-spacing:0px;word-spacing:0px;text-anchor:middle;fill:#000000;fill-opacity:1;stroke:none"
       x="1222.4489"
       y="467.01553"
       id="text4246-3-7-7"><tspan
         sodipodi:role="line"
         style="font-size:45px;line-height:1.20000005"
         x="1222.4489"
         y="467.01553"
         id="tspan952">Ormai è diventata</tspan><tspan
         sodipodi:role="line"
         style="font-size:45px;line-height:1.20000005"
         x="1222.4489"
         y="521.01556"
         id="tspan740">parte della storia</tspan><tspan
         sodipodi:role="line"
         style="font-size:45px;line-height:1.20000005"
         x="1222.4489"
         y="575.01556"
         id="tspan746">della mia famiglia.</tspan></text>
    <text
       xml:space="preserve"
       style="font-style:normal;font-variant:normal;font-weight:normal;font-stretch:normal;line-height:0%;font-family:Lavi;-inkscape-font-specification:Lavi;text-align:center;letter-spacing:0px;word-spacing:0px;text-anchor:middle;fill:#000000;fill-opacity:1;stroke:none"
       x="1961.5282"
       y="176.76515"
       id="text4246-3-7-7-6"><tspan
         sodipodi:role="line"
         style="font-size:45px;line-height:1.20000005"
         x="1961.5282"
         y="176.76515"
         id="tspan952-8">E adesso, in un paio d'ore,</tspan><tspan
         sodipodi:role="line"
         style="font-size:45px;line-height:1.20000005"
         x="1961.5282"
         y="230.76515"
         id="tspan926">riceveremo migliaia di ospiti</tspan><tspan
         sodipodi:role="line"
         style="font-size:45px;line-height:1.20000005"
         x="1961.5282"
         y="284.76517"
         id="tspan928">provenienti da tutto il mondo</tspan><tspan
         sodipodi:role="line"
         style="font-size:45px;line-height:1.20000005"
         x="1961.5282"
         y="338.76517"
         id="tspan942">ed io sarò al centro</tspan><tspan
         sodipodi:role="line"
         style="font-size:45px;line-height:1.20000005"
         x="1961.5282"
         y="392.76517"
         id="tspan930">dell'attenzione.</tspan></text>
    <text
       xml:space="preserve"
       style="font-style:normal;font-variant:normal;font-weight:normal;font-stretch:normal;line-height:0%;font-family:Lavi;-inkscape-font-specification:Lavi;text-align:center;letter-spacing:0px;word-spacing:0px;text-anchor:middle;fill:#000000;fill-opacity:1;stroke:none"
       x="1037.4792"
       y="1445.7167"
       id="text4246-3-7-7-6-7"><tspan
         sodipodi:role="line"
         style="font-size:45px;line-height:1.20000005"
         x="1037.4792"
         y="1445.7167"
         id="tspan1042">Non ti preoccupare,</tspan><tspan
         sodipodi:role="line"
         style="font-size:45px;line-height:1.20000005"
         x="1037.4792"
         y="1499.7167"
         id="tspan1067">Coriandolo.</tspan></text>
    <text
       xml:space="preserve"
       style="font-style:normal;font-variant:normal;font-weight:normal;font-stretch:normal;line-height:0%;font-family:Lavi;-inkscape-font-specification:Lavi;text-align:center;letter-spacing:0px;word-spacing:0px;text-anchor:middle;fill:#000000;fill-opacity:1;stroke:none"
       x="1957.3252"
       y="459.72366"
       id="text4246-3-7-7-6-7-7"><tspan
         sodipodi:role="line"
         style="font-size:45px;line-height:1.20000005"
         x="1957.3252"
         y="459.72366"
         id="tspan996-3-5">Sono veramente,</tspan><tspan
         sodipodi:role="line"
         style="font-size:45px;line-height:1.20000005"
         x="1957.3252"
         y="513.72369"
         id="tspan1042-9">veramente spaventata!</tspan></text>
    <text
       xml:space="preserve"
       style="font-style:normal;font-variant:normal;font-weight:normal;font-stretch:normal;line-height:0%;font-family:Lavi;-inkscape-font-specification:Lavi;text-align:center;letter-spacing:0px;word-spacing:0px;text-anchor:middle;fill:#000000;fill-opacity:1;stroke:none"
       x="2130.1787"
       y="1540.6976"
       id="text4246-3-7-7-6-7-2"><tspan
         sodipodi:role="line"
         style="font-size:45px;line-height:1.20000005"
         x="2130.1787"
         y="1540.6976"
         id="tspan1067-8">Seguiremo</tspan><tspan
         sodipodi:role="line"
         style="font-size:45px;line-height:1.20000005"
         x="2130.1787"
         y="1594.6976"
         id="tspan1092">il nostro piano.</tspan></text>
    <text
       xml:space="preserve"
       style="font-style:normal;font-variant:normal;font-weight:normal;font-stretch:normal;line-height:0%;font-family:Lavi;-inkscape-font-specification:Lavi;text-align:center;letter-spacing:0px;word-spacing:0px;text-anchor:middle;fill:#000000;fill-opacity:1;stroke:none"
       x="2172.6404"
       y="1691.4915"
       id="text4246-3-7-7-6-7-2-9"><tspan
         sodipodi:role="line"
         style="font-size:45px;line-height:1.20000005"
         x="2172.6404"
         y="1691.4915"
         id="tspan1092-3">Ricordati, Shichimi</tspan><tspan
         sodipodi:role="line"
         style="font-size:45px;line-height:1.20000005"
         x="2172.6404"
         y="1745.4915"
         id="tspan1121">ed io saremo</tspan><tspan
         sodipodi:role="line"
         style="font-size:45px;line-height:1.20000005"
         x="2172.6404"
         y="1799.4915"
         id="tspan953">le tue guardie</tspan><tspan
         sodipodi:role="line"
         style="font-size:45px;line-height:1.20000005"
         x="2172.6404"
         y="1853.4915"
         id="tspan955">del corpo.</tspan></text>
    <text
       xml:space="preserve"
       style="font-style:normal;font-variant:normal;font-weight:normal;font-stretch:normal;line-height:0%;font-family:Lavi;-inkscape-font-specification:Lavi;text-align:center;letter-spacing:0px;word-spacing:0px;text-anchor:middle;fill:#000000;fill-opacity:1;stroke:none"
       x="224.1396"
       y="2409.7466"
       id="text4246-3-7-7-6-7-2-9-6"><tspan
         sodipodi:role="line"
         style="font-size:45px;line-height:1.20000005"
         x="224.1396"
         y="2409.7466"
         id="tspan1121-3">Esatto.</tspan></text>
    <text
       xml:space="preserve"
       style="font-style:normal;font-variant:normal;font-weight:normal;font-stretch:normal;line-height:0%;font-family:Lavi;-inkscape-font-specification:Lavi;text-align:center;letter-spacing:0px;word-spacing:0px;text-anchor:middle;fill:#000000;fill-opacity:1;stroke:none"
       x="306.79276"
       y="2471.5852"
       id="text4246-3-7-7-6-7-2-9-6-1"><tspan
         sodipodi:role="line"
         style="font-size:45px;line-height:1.20000005"
         x="306.79276"
         y="2471.5852"
         id="tspan1177">Adesso devi solo</tspan><tspan
         sodipodi:role="line"
         style="font-size:45px;line-height:1.20000005"
         x="306.79276"
         y="2525.5852"
         id="tspan1183">prenderti una</tspan><tspan
         sodipodi:role="line"
         style="font-size:45px;line-height:1.20000005"
         x="306.79276"
         y="2579.5852"
         id="tspan962">pausa e pensare</tspan><tspan
         sodipodi:role="line"
         style="font-size:45px;line-height:1.20000005"
         x="306.79276"
         y="2633.5852"
         id="tspan980">a qualcos'altro.</tspan></text>
    <text
       xml:space="preserve"
       style="font-style:normal;font-variant:normal;font-weight:normal;font-stretch:normal;line-height:0%;font-family:Lavi;-inkscape-font-specification:Lavi;text-align:center;letter-spacing:0px;word-spacing:0px;text-anchor:middle;fill:#000000;fill-opacity:1;stroke:none"
       x="614.41107"
       y="2544.4858"
       id="text4246-3-7-7-6-7-2-9-6-1-4"><tspan
         sodipodi:role="line"
         style="font-size:45px;line-height:1.20000005"
         x="614.41107"
         y="2544.4858"
         id="tspan1183-0">OK.</tspan></text>
    <text
       xml:space="preserve"
       style="font-style:normal;font-variant:normal;font-weight:normal;font-stretch:normal;line-height:0%;font-family:Lavi;-inkscape-font-specification:Lavi;text-align:center;letter-spacing:0px;word-spacing:0px;text-anchor:middle;fill:#000000;fill-opacity:1;stroke:none"
       x="924.10059"
       y="2417.3877"
       id="text4246-3-7-7-6-7-2-9-6-1-4-3"><tspan
         sodipodi:role="line"
         style="font-size:45px;line-height:1.20000005"
         x="924.10059"
         y="2417.3877"
         id="tspan1183-0-6">Hey! Che ne dite</tspan><tspan
         sodipodi:role="line"
         style="font-size:45px;line-height:1.20000005"
         x="924.10059"
         y="2471.3877"
         id="tspan1247">se vi mostro la mia</tspan><tspan
         sodipodi:role="line"
         style="font-size:45px;line-height:1.20000005"
         x="924.10059"
         y="2525.3877"
         id="tspan1249">ultima invenzione?</tspan></text>
    <text
       xml:space="preserve"
       style="font-style:normal;font-variant:normal;font-weight:normal;font-stretch:normal;line-height:0%;font-family:Lavi;-inkscape-font-specification:Lavi;text-align:center;letter-spacing:0px;word-spacing:0px;text-anchor:middle;fill:#000000;fill-opacity:1;stroke:none"
       x="1429.6105"
       y="2501.0703"
       id="text4246-3-7-7-6-7-2-9-6-1-4-3-1"><tspan
         sodipodi:role="line"
         style="font-size:45px;line-height:1.20000005"
         x="1429.6105"
         y="2501.0703"
         id="tspan1249-3">…</tspan></text>
    <text
       xml:space="preserve"
       style="font-style:normal;font-variant:normal;font-weight:normal;font-stretch:normal;line-height:0%;font-family:Lavi;-inkscape-font-specification:Lavi;text-align:center;letter-spacing:0px;word-spacing:0px;text-anchor:middle;fill:#000000;fill-opacity:1;stroke:none"
       x="2014.7648"
       y="2425.7151"
       id="text4246-3-7-7-6-7-2-9-6-1-4-3-1-2"><tspan
         sodipodi:role="line"
         style="font-size:45px;line-height:1.20000005"
         x="2014.7648"
         y="2425.7151"
         id="tspan1298">È al piano di sotto,</tspan><tspan
         sodipodi:role="line"
         style="font-size:45px;line-height:1.20000005"
         x="2014.7648"
         y="2479.7151"
         id="tspan998">nel mio laboratorio</tspan></text>
    <text
       xml:space="preserve"
       style="font-style:normal;font-variant:normal;font-weight:normal;font-stretch:normal;line-height:0%;font-family:Lavi;-inkscape-font-specification:Lavi;text-align:center;letter-spacing:0px;word-spacing:0px;text-anchor:middle;fill:#000000;fill-opacity:1;stroke:none"
       x="2118.0996"
       y="2553.5225"
       id="text4246-3-7-7-6-7-2-9-6-1-4-3-1-2-6"><tspan
         sodipodi:role="line"
         style="font-size:45px;line-height:1.20000005"
         x="2118.0996"
         y="2553.5225"
         id="tspan1298-5">Seguitemi.</tspan></text>
  </g>
</svg>
