<?xml version="1.0" encoding="UTF-8" standalone="no"?>
<svg
   xmlns:dc="http://purl.org/dc/elements/1.1/"
   xmlns:cc="http://creativecommons.org/ns#"
   xmlns:rdf="http://www.w3.org/1999/02/22-rdf-syntax-ns#"
   xmlns:svg="http://www.w3.org/2000/svg"
   xmlns="http://www.w3.org/2000/svg"
   xmlns:xlink="http://www.w3.org/1999/xlink"
   xmlns:sodipodi="http://sodipodi.sourceforge.net/DTD/sodipodi-0.dtd"
   xmlns:inkscape="http://www.inkscape.org/namespaces/inkscape"
   id="svg2"
   version="1.1"
   inkscape:version="0.48.5 r10040"
   width="2481"
   height="3503"
   sodipodi:docname="E34P09.svg">
  <metadata
     id="metadata8">
    <rdf:RDF>
      <cc:Work
         rdf:about="">
        <dc:format>image/svg+xml</dc:format>
        <dc:type
           rdf:resource="http://purl.org/dc/dcmitype/StillImage" />
        <dc:title />
      </cc:Work>
    </rdf:RDF>
  </metadata>
  <defs
     id="defs6">
    <filter
       style="color-interpolation-filters:sRGB"
       id="filter4375-4-1-1-1-9-5-8-8-5-5-3-3-3-0"
       inkscape:label="soundFX1">
      <feFlood
         id="feFlood4377-7-9-0-8-1-7-3-1-2-7-6-6-5-96"
         flood-opacity="1"
         flood-color="rgb(52,52,52)"
         result="flood" />
      <feComposite
         id="feComposite4379-3-8-8-2-77-4-1-0-6-4-7-7-6-3"
         in2="SourceGraphic"
         in="flood"
         operator="in"
         result="composite1"
         baseFrequency="0.053999999999999999 0.053999999999999999" />
      <feMorphology
         id="feMorphology4393-1-0-49-8-9-3-0-1-9-9-5-5-2-8"
         operator="dilate"
         radius="2.5856550817276021"
         result="result3" />
      <feComposite
         id="feComposite4385-9-5-7-0-8-8-7-5-4-9-3-3-9-5"
         in2="result3"
         in="SourceGraphic"
         operator="over"
         result="fbSourceGraphic" />
      <feColorMatrix
         result="fbSourceGraphicAlpha"
         in="fbSourceGraphic"
         values="0 0 0 -1 0 0 0 0 -1 0 0 0 0 -1 0 0 0 0 1 0"
         id="feColorMatrix4544-9-4-4-5-5-1-6" />
      <feTurbulence
         id="feTurbulence4546-3-6-5-6-6-2-1"
         type="fractalNoise"
         numOctaves="4"
         seed="147"
         baseFrequency="0.046080819231719368"
         result="turbulence" />
      <feDisplacementMap
         id="feDisplacementMap4548-8-0-9-2-2-7-1"
         in2="turbulence"
         in="fbSourceGraphic"
         scale="13.20326"
         yChannelSelector="G"
         xChannelSelector="R"
         result="fbSourceGraphic" />
      <feColorMatrix
         result="fbSourceGraphicAlpha"
         in="fbSourceGraphic"
         values="0 0 0 -1 0 0 0 0 -1 0 0 0 0 -1 0 0 0 0 1 0"
         id="feColorMatrix4670-7-7-3-9-9-0-5" />
      <feFlood
         id="feFlood4672-4-4-5-1-1-9-9"
         flood-opacity="1"
         flood-color="rgb(28,28,28)"
         result="flood"
         in="fbSourceGraphic" />
      <feComposite
         id="feComposite4674-8-3-7-2-2-3-8"
         in2="fbSourceGraphic"
         in="flood"
         operator="in"
         result="composite1" />
      <feGaussianBlur
         id="feGaussianBlur4676-3-7-08-7-7-6-4"
         in="composite1"
         stdDeviation="0"
         result="blur" />
      <feOffset
         id="feOffset4678-6-9-1-0-0-0-8"
         dx="-8.3919392296330813"
         dy="1.5526614972014983"
         result="offset" />
      <feComposite
         id="feComposite4680-4-0-9-9-9-6-1"
         in2="offset"
         in="fbSourceGraphic"
         operator="over"
         result="composite2" />
    </filter>
    <filter
       style="color-interpolation-filters:sRGB"
       id="filter4375-4-1-1-1-9-5-8-8-5-5-3-3-3-0-6"
       inkscape:label="soundFX1">
      <feFlood
         id="feFlood4377-7-9-0-8-1-7-3-1-2-7-6-6-5-96-3"
         flood-opacity="1"
         flood-color="rgb(52,52,52)"
         result="flood" />
      <feComposite
         id="feComposite4379-3-8-8-2-77-4-1-0-6-4-7-7-6-3-2"
         in2="SourceGraphic"
         in="flood"
         operator="in"
         result="composite1"
         baseFrequency="0.053999999999999999 0.053999999999999999" />
      <feMorphology
         id="feMorphology4393-1-0-49-8-9-3-0-1-9-9-5-5-2-8-0"
         operator="dilate"
         radius="2.5856550817276021"
         result="result3" />
      <feComposite
         id="feComposite4385-9-5-7-0-8-8-7-5-4-9-3-3-9-5-6"
         in2="result3"
         in="SourceGraphic"
         operator="over"
         result="fbSourceGraphic" />
      <feColorMatrix
         result="fbSourceGraphicAlpha"
         in="fbSourceGraphic"
         values="0 0 0 -1 0 0 0 0 -1 0 0 0 0 -1 0 0 0 0 1 0"
         id="feColorMatrix4544-9-4-4-5-5-1-6-1" />
      <feTurbulence
         id="feTurbulence4546-3-6-5-6-6-2-1-5"
         type="fractalNoise"
         numOctaves="4"
         seed="147"
         baseFrequency="0.046080819231719368"
         result="turbulence" />
      <feDisplacementMap
         id="feDisplacementMap4548-8-0-9-2-2-7-1-5"
         in2="turbulence"
         in="fbSourceGraphic"
         scale="13.20326"
         yChannelSelector="G"
         xChannelSelector="R"
         result="fbSourceGraphic" />
      <feColorMatrix
         result="fbSourceGraphicAlpha"
         in="fbSourceGraphic"
         values="0 0 0 -1 0 0 0 0 -1 0 0 0 0 -1 0 0 0 0 1 0"
         id="feColorMatrix4670-7-7-3-9-9-0-5-4" />
      <feFlood
         id="feFlood4672-4-4-5-1-1-9-9-7"
         flood-opacity="1"
         flood-color="rgb(28,28,28)"
         result="flood"
         in="fbSourceGraphic" />
      <feComposite
         id="feComposite4674-8-3-7-2-2-3-8-6"
         in2="fbSourceGraphic"
         in="flood"
         operator="in"
         result="composite1" />
      <feGaussianBlur
         id="feGaussianBlur4676-3-7-08-7-7-6-4-5"
         in="composite1"
         stdDeviation="0"
         result="blur" />
      <feOffset
         id="feOffset4678-6-9-1-0-0-0-8-6"
         dx="-8.3919392296330813"
         dy="1.5526614972014983"
         result="offset" />
      <feComposite
         id="feComposite4680-4-0-9-9-9-6-1-9"
         in2="offset"
         in="fbSourceGraphic"
         operator="over"
         result="composite2" />
    </filter>
  </defs>
  <sodipodi:namedview
     pagecolor="#ffffff"
     bordercolor="#666666"
     borderopacity="1"
     objecttolerance="10"
     gridtolerance="10"
     guidetolerance="10"
     inkscape:pageopacity="0"
     inkscape:pageshadow="2"
     inkscape:window-width="1276"
     inkscape:window-height="676"
     id="namedview4"
     showgrid="false"
     inkscape:zoom="0.4687626"
     inkscape:cx="1240.5"
     inkscape:cy="865.04962"
     inkscape:window-x="91"
     inkscape:window-y="28"
     inkscape:window-maximized="0"
     inkscape:current-layer="layer1"
     inkscape:document-rotation="0"
     inkscape:snap-global="false"
     borderlayer="true" />
  <g
     inkscape:groupmode="layer"
     id="layer2"
     inkscape:label="artwork"
     sodipodi:insensitive="true">
    <image
       sodipodi:absref="/Users/su_huynh/Downloads/lang 6/vi/../gfx_Pepper-and-Carrot_by-David-Revoy_E34P09.png"
       xlink:href="../gfx_Pepper-and-Carrot_by-David-Revoy_E34P09.png"
       width="2481"
       height="3503"
       id="image10"
       x="0"
       y="0" />
  </g>
  <g
     inkscape:groupmode="layer"
     id="layer3"
     inkscape:label="speechbubbles"
     style="display:inline">
    <path
       style="color:#000000;display:inline;overflow:visible;visibility:visible;fill:#ffffff;fill-opacity:1;fill-rule:nonzero;stroke:none;stroke-width:1.06937px;marker:none;enable-background:accumulate"
       d="m 1413.9252,2288.6897 c -21.0035,-5.3737 -81.566,-47.9371 -7.2888,-45.7139 -54.6661,-17.9093 -47.3991,-53.5519 -2.4758,-74.369 -58.9238,4.2548 -102.6504,-4.6284 -72.2886,-41.4155 -87.1581,23.5583 -125.8399,28.3619 -107.7268,-23.3087 -40.1503,42.6369 -78.6617,34.6793 -88.5825,-15.1981 -9.0478,37.1768 -28.3627,57.4948 -85.9376,10.6859 -4.2381,13.6408 -16.2604,56.8093 -140.40982,44.4225 47.04927,26.0011 76.93687,42.6446 -3.127,53.6442 40.80347,11.6971 66.82446,27.5422 3.23088,52.7159 41.20562,7.9508 106.39464,5.6199 27.23252,53.7673 52.19075,-22.7557 139.25082,-6.3139 101.72672,30.3911 102.2721,-41.2428 121.9423,-30.2458 137.385,-0.6941 38.0267,-43.2711 92.9821,-38.37 124.9467,-13.2168 -15.5391,-38.3461 66.3526,-31.727 113.3151,-31.7108 z"
       id="path3549-3-78-5"
       inkscape:connector-curvature="0"
       sodipodi:nodetypes="ccccccccccccccc" />
    <path
       style="color:#000000;display:inline;overflow:visible;visibility:visible;fill:#ffffff;fill-opacity:1;fill-rule:nonzero;stroke:none;stroke-width:1.51682px;marker:none;enable-background:accumulate"
       d="m 1179.1289,2390.3047 c -30.8869,0.5327 -62.1685,7.8717 -88.568,24.3061 -30.2778,19.7373 -52.09,51.1964 -62.0981,85.7418 -8.0056,25.8675 -11.5935,53.7996 -5.6186,80.4886 3.1583,14.5934 5.7263,29.7516 13.4152,42.7937 7.3141,11.3482 16.379,21.4182 25.2679,31.5282 13.661,13.5539 31.5095,21.7602 49.398,28.176 19.3386,7.5566 39.4355,14.4179 60.3956,14.9604 24.026,0.5985 47.5482,-5.1235 70.9943,-9.5635 16.9206,-3.4219 34.2088,-7.269 49.0745,-16.4557 20.5113,-12.3048 35.4525,-32.41 44.3642,-54.3565 8.9589,-22.237 12.5521,-46.4816 11.5588,-70.3817 -1.7207,-38.781 -16.5386,-77.1626 -42.6767,-106.039 -22.3382,-24.933 -53.0042,-42.5099 -86.0878,-48.133 -12.9905,-2.3698 -26.2239,-3.2768 -39.4193,-3.0654 z"
       id="path3365-3"
       inkscape:connector-curvature="0"
       sodipodi:nodetypes="cssccsc" />
    <path
       style="display:inline;fill:#ffffff;fill-rule:evenodd;stroke:none;stroke-width:1.17316px;stroke-linecap:butt;stroke-linejoin:miter;stroke-opacity:1"
       d="m 109.73501,2177.5481 c 29.38768,28.2738 32.98668,48.0781 7.52226,37.3592 24.78089,18.3529 19.6543,22.6486 1.44979,31.3901 48.77683,44.6505 36.38287,79.6697 22.55019,114.4624 50.36055,-22.7687 53.1625,5.7616 66.37961,23.0583 10.40076,-40.1063 16.5215,-16.3343 21.44818,25.2615 10.4281,-51.3518 18.32089,-56.502 23.90445,-19.5221 10.2434,-33.0408 24.10947,-47.2326 42.13891,-39.7596 33.05542,-34.3551 46.53514,3.8148 66.34191,18.5438 -2.00545,-38.2097 11.96212,-50.519 45.98999,-17.8885 -0.90281,-23.148 22.7875,-26.3836 48.33814,2.7713 -35.76732,-59.6355 17.79954,-9.4497 25.77979,-6.8831 -17.38584,-30.8533 -3.62278,-55.8076 64.23923,-21.1803 -21.59349,-4.7726 -36.35199,-41.4194 -7.17745,-59.5301 -32.47566,-9.3466 -32.13349,-26.1759 -14.5508,-46.9366 -37.07982,-21.36 0.11551,-53.0572 18.77768,-82.1747 -37.68069,18.2569 -67.76001,22.5325 -74.46291,-16.1893 -57.26266,39.7577 -48.69658,21.4624 -43.13175,5.8137 -35.58384,42.7655 -41.93624,9.6512 -42.47987,-0.8674 -49.31202,48.2542 -93.73623,13.4114 -113.68756,-8.7539 -8.27741,55.1075 -28.62971,37.5649 -49.03206,19.7228 15.20585,37.0218 -3.23279,36.9256 -23.86649,24.0365 8.68221,25.1383 -4.52852,50.2569 -39.83864,18.6313 12.71345,16.4532 -5.18382,28.3673 -46.6326,-1.3653 z"
       id="path4289-9"
       inkscape:connector-curvature="0"
       sodipodi:nodetypes="cccccccccccccccccccccccc" />
    <path
       style="fill:#ffffff;fill-rule:evenodd;stroke:none"
       d="m 966.3532,1294.765 c 36.5854,84.7776 50.463,78.2454 56.1503,38.7799 9.9968,14.2548 12.1249,56.0622 40.7292,5.1596 17.6621,36.9692 31.9055,32.25 43.3479,-6.6265 30.6816,70.066 64.9702,5.1112 81.4342,-10.527 41.546,39.1899 113.5218,42.9208 183.572,1.2858 10.5941,18.0168 32.2606,61.6278 41.8372,24.1585 14.7448,15.7477 34.3149,-6.2235 57.1339,-53.5923 -3.0143,30.8087 -18.4903,83.32 13.6488,52.9051 3.7211,22.0158 0.7813,51.1451 69.5248,3.7177 -19.9942,62.7353 37.8558,-1.1215 93.9119,-62.0607 -35.3274,53.1365 -83.5931,118.5054 -23.2608,97.144 -33.919,44.516 -30.8805,60.8506 65.4135,58.6548 -91.1407,22.9244 -113.5109,52.949 -59.031,113.8133 -39.4193,-28.663 -96.0232,-32.5528 -47.3648,6.9704 -49.0323,-31.6518 -56.0962,-16.3236 -38.6465,9.6102 -53.5332,-45.5639 -28.3587,-9.0361 -25.3901,26.9283 -38.5375,-22.6561 -64.3372,-48.6763 -58.6638,9.3142 -40.1072,-44.4994 -46.9468,-28.5429 -51.6618,-8.7255 -71.2105,-67.2477 -61.9983,-27.0621 -75.6831,-17.4635 -20.5901,-24.8788 -20.0688,-4.4613 -16.2732,22.9814 -19.7058,-29.0759 -37.5583,-40.2832 -50.6613,-5.6905 -12.3453,-15.9954 -24.4605,-38.6591 -38.5218,-5.0414 -17.0046,-18.3375 -34.94,-25.6271 -56.8995,14.8462 -9.3399,-24.4516 -23.1213,-42.0544 -69.3189,-9.6697 -8.7087,-52.4641 -48.262,-43.9866 -97.8575,-15.6679 1.5224,-30.827 -2.3949,-51.0789 -53.79481,20.9751 10.67866,-31.489 22.84105,-64.6827 -8.28531,-48.1464 19.53166,-60.2462 -7.80752,-44.1086 -65.7058,-31.7964 59.14592,-35.0642 89.85001,-70.4147 32.73603,-69.8452 39.25109,-35.0077 36.17269,-53.3506 18.48014,-51.8235 2.68069,-10.8172 34.64339,-30.4645 -10.1318,-29.72 23.64614,-14.7337 58.52777,-10.4992 49.23195,-80.848 z"
       id="path4656"
       inkscape:connector-curvature="0"
       sodipodi:nodetypes="ccccccccccccccccccccccccccccccccc" />
    <path
       style="fill:#ffffff;fill-rule:evenodd;stroke:none"
       d="m 823.36552,1259.7568 c 20.03067,10.3678 71.40641,16.1135 2.04118,47.0353 36.71843,0.7412 57.03163,1.3441 22.45277,14.6576 46.98939,0.2418 0.99672,7.5889 -22.23165,14.7891 25.57331,-0.1984 63.46729,-5.5785 5.82971,18.8809 11.86663,3.468 7.76174,9.5984 -13.08462,18.5197 46.56218,-13.8647 65.7971,-11.9109 46.05385,-0.9603 19.53171,-3.4238 21.95676,7.1997 -16.6613,17.7653 52.55191,-14.3047 51.43712,-8.8816 54.26147,26.5555 12.49126,-62.4131 14.61642,-13.8005 17.60879,16.1782 19.91223,-93.0478 46.83262,-24.3303 52.73493,-14.3115 -4.9535,-72.3221 31.33575,-42.5137 40.82335,-15.019 -2.4459,-17.6377 9.1892,-53.2585 43.9161,-10.0549 -8.28,-15.9036 -2.6448,-32.4181 28.5452,6.9542 -9.4588,-26.3239 8.0633,-33.853 62.655,-9.0446 -0.4212,-13.0888 -5.7454,-26.8366 51.6504,-3.7043 -1.0767,-12.0155 -12.7793,-28.5178 65.3173,-7.0931 0.5095,-20.982 13.0895,-22.3114 35.0069,-12.6561 -3.7442,-18.0066 20.192,-9.8886 50.5303,2.1425 -19.3226,-24.5587 7.0236,-21.9392 45.0975,-14.426 -3.6971,-11.9302 -8.9828,-24.1727 13.2675,-30.9927 -43.0201,-35.1165 -4.9651,-37.9681 8.1647,-41.7159 -21.5489,-1.0804 -37.6574,-13.3778 -9.9067,-23.1225 -32.3109,5.7063 -20.4461,-11.6205 -18.6696,-21.0731 l -52.0498,-14.4898 -51.0291,-6.4303 -61.235,-6.372 -57.1527,-1.0187 -58.1732,0.3314 -51.0292,2.9794 -43.885,-6.4709 -44.90572,6.9768 -63.27614,-0.9838 -30.61748,23.0261 c 10.31023,22.0677 -22.27148,21.8803 -52.04974,23.1475 z"
       id="path4323"
       inkscape:connector-curvature="0"
       sodipodi:nodetypes="ccccccccccccccccccccccccccccccccccc" />
    <path
       style="color:#000000;fill:#ffffff;fill-opacity:1;fill-rule:nonzero;stroke:none;stroke-width:1.43437004px;marker:none;visibility:visible;display:inline;overflow:visible;enable-background:accumulate"
       d="m 1922.969,2172.5716 c -34.4517,0.7856 -68.9208,1.6324 -103.288,3.6338 -6.6603,0.4133 -13.3732,0.7498 -19.8105,2.1689 -32.3952,6.3343 -60.3811,24.263 -72.3419,47.3141 -8.8832,16.0752 -10.2494,33.6271 -11.3082,50.7531 -0.6652,15.1119 1.4564,30.778 10.9083,44.4391 9.9566,14.2294 27.8489,25.2109 48.4623,30.3259 31.8288,9.8589 65.5502,17.0725 100.176,18.6211 25.858,1.4729 51.8134,1.6315 77.6862,2.9289 25.0601,1.0884 50.1992,1.9217 75.2888,0.8331 37.8384,-1.3609 75.7212,-5.3897 111.8255,-13.9901 26.329,-6.888 51.4119,-18.0059 68.5709,-34.4659 17.1753,-16.9773 24.2718,-38.6943 22.4222,-59.6188 -1.2866,-17.5936 -9.4344,-35.4779 -26.2848,-48.3773 -16.6492,-12.8397 -39.264,-20.4796 -62.1773,-25.3305 -37.6422,-8.2475 -76.9883,-10.6146 -115.892,-13.532 -34.1475,-2.3175 -68.3059,-4.8243 -102.5917,-5.7047 -0.5486,5e-4 -1.0972,0 -1.6458,0 z"
       id="path4546-6-5-5"
       inkscape:connector-curvature="0"
       sodipodi:nodetypes="cssssc" />
    <path
       style="color:#000000;display:inline;overflow:visible;visibility:visible;fill:#ffffff;fill-opacity:1;fill-rule:nonzero;stroke:none;stroke-width:0.710908px;marker:none;enable-background:accumulate"
       d="m 427.36079,1539.322 c -18.49435,2.3317 -20.41009,4.4325 -21.96654,15.8617 -1.55611,11.4299 -0.85275,28.3587 -14.56075,40.6485 -13.70771,12.2903 -23.6764,10.0093 -30.31719,9.0645 4.26773,13.7681 1.4232,41.4005 9.47615,45.7822 8.05295,4.3816 -16.23573,2.0167 -16.23573,2.0167 0,0 -18.78665,-30.5045 -14.52874,-48.8854 4.25786,-18.3808 31.63742,-15.9961 42.0788,-22.7096 10.44133,-6.7135 10.50842,-30.2213 17.90427,-37.5835 7.39563,-7.363 19.29539,-5.4547 28.14973,-4.1951 z"
       id="path4538-7"
       inkscape:connector-curvature="0"
       sodipodi:nodetypes="ccscccsscc" />
    <path
       style="color:#000000;display:inline;overflow:visible;visibility:visible;fill:#ffffff;fill-opacity:1;fill-rule:nonzero;stroke:none;stroke-width:0.576009px;marker:none;enable-background:accumulate"
       d="m 269.38616,1653.529 c 23.98622,-18.7388 72.99975,-31.6297 113.83578,1.6461 32.33893,26.3516 21.53309,64.4595 4.25504,76.2832 -17.27802,11.8238 -72.26174,14.2552 -97.55286,8.4261 -19.52455,-4.5006 -40.92884,-15.7046 -42.10867,-45.5966 -0.48149,-12.2006 -2.41553,-22.02 21.57071,-40.7588 z"
       id="path4040-2-9"
       inkscape:connector-curvature="0"
       sodipodi:nodetypes="zssssz" />
    <path
       style="color:#000000;display:inline;overflow:visible;visibility:visible;fill:#ffffff;fill-opacity:1;fill-rule:nonzero;stroke:none;stroke-width:0.590855px;marker:none;enable-background:accumulate"
       d="m 248.38875,1580.4882 c 25.2386,-18.1575 76.81125,-29.8607 119.77943,4.4047 34.02742,27.1353 22.65738,64.9814 4.47719,76.3864 -18.18014,11.405 -76.0347,12.504 -102.64632,6.062 -20.54397,-4.9737 -43.06584,-16.6964 -44.30727,-46.617 -0.50663,-12.2123 -2.54165,-22.0785 22.69697,-40.2361 z"
       id="path4040-2"
       inkscape:connector-curvature="0"
       sodipodi:nodetypes="zssssz" />
    <path
       style="fill:#ffffff;stroke:none;display:inline"
       d="m 2076.4628,1024.9235 c -1.2455,-24.4595 21.0853,-85.69126 130.0141,-81.08547 108.9287,4.60578 143.0218,31.50954 146.2138,74.98637 5.0497,68.7787 -52.2576,87.1583 -134.5457,92.2532 -84.8301,5.2514 -142.9988,-41.9602 -141.6822,-86.1541 z"
       id="path3280-8-3-6"
       inkscape:connector-curvature="0"
       sodipodi:nodetypes="csssc" />
    <path
       style="fill:#ffffff;stroke:none;display:inline"
       d="m 1913.0733,190.59518 c -47.5052,1.20411 -95.4286,11.10091 -138.0629,33.86223 -27.2105,15.19725 -47.6402,44.11312 -51.9985,76.52595 -5.0562,31.17114 2.4584,65.39991 23.2265,88.75018 16.604,18.68513 39.6103,29.3792 62.854,35.2881 40.7026,11.36973 82.4463,17.62827 123.7133,26.16251 45.2147,7.21352 91.258,3.59999 136.2632,-3.53025 32.8591,-4.79241 65.7406,-12.8175 95.5072,-28.72041 19.5454,-9.97279 38.5045,-23.13747 50.9437,-42.34984 12.8113,-20.23049 16.1089,-45.47116 14.6871,-69.3288 -0.873,-13.42501 -3.7351,-27.00187 -10.5933,-38.50757 -5.0127,-8.84519 -12.1967,-16.14265 -20.4612,-21.55983 -15.6935,-10.98746 -33.4142,-18.07519 -50.8624,-25.25249 -30.6993,-11.50982 -63.1986,-16.44632 -95.5811,-18.72409 -46.1635,-4.59092 -92.1502,-12.54008 -138.6197,-12.62477 -0.3387,0.003 -0.6773,0.006 -1.0159,0.009 z"
       id="path3280-8-3"
       inkscape:connector-curvature="0"
       sodipodi:nodetypes="csssc" />
    <path
       style="color:#000000;fill:#ffffff;fill-opacity:1;fill-rule:nonzero;stroke:none;stroke-width:0.60878301px;marker:none;visibility:visible;display:inline;overflow:visible;enable-background:accumulate"
       d="m 1817.4912,113.72804 c -24.1585,0.18933 -48.318,0.22455 -72.4765,0.0344 -15.8172,-0.14349 -31.7149,0.0747 -47.3242,1.9339 -29.0739,3.33547 -57.4546,10.36344 -81.69,21.58126 -6.7537,3.15184 -13.2293,6.71023 -17.6999,11.37103 -16.7466,16.257 -17.3035,39.54684 0.6564,55.49229 11.991,10.35064 30.3966,16.12839 48.3121,20.81189 44.4468,11.68115 92.7148,15.30029 140.2519,15.4305 41.062,0.016 82.5841,3.38414 123.2595,-1.81956 35.6283,-4.66092 70.5375,-14.43113 97.3357,-30.91977 16.3248,-10.71873 24.4254,-27.36074 17.4647,-42.12219 -6.6082,-15.01303 -24.4299,-26.96879 -45.1836,-33.98225 -32.482,-11.69586 -69.7162,-16.28689 -106.375,-17.27415 -18.8297,-0.58807 -37.685,-0.61588 -56.5311,-0.53739 z"
       id="path3525-8"
       inkscape:connector-curvature="0"
       sodipodi:nodetypes="cscsc" />
    <path
       style="fill:#ffffff;fill-rule:evenodd;stroke:none"
       d="m 811.32744,434.01266 c 0,0 6.63831,36.39202 14.65127,52.37002 9.55841,41.6769 -15.08254,52.26548 -11.80509,72.946 4.69971,21.617 12.77263,34.196 42.40829,52.053 -36.46109,-14.098 -60.72938,-25.376 -65.42892,-46.992 -4.6996,-21.617 12.02504,-48.872 9.37974,-58.27 -2.64548,-9.399 -11.01511,-33.835 -33.19349,-51.692 -22.17826,-17.857 43.9882,-20.41502 43.9882,-20.41502 z"
       id="path1303"
       inkscape:connector-curvature="0"
       sodipodi:nodetypes="cccccccc" />
    <path
       style="color:#000000;display:inline;overflow:visible;visibility:visible;fill:#ffffff;fill-opacity:1;fill-rule:nonzero;stroke:none;stroke-width:1.08962px;marker:none;enable-background:accumulate"
       d="m 1318.2246,841.04297 c -40.6303,1.42752 -81.7138,6.6748 -119.6923,21.86181 -17.3581,6.24286 -34.6701,15.02632 -46.2167,29.88443 -17.961,21.52117 -27.9941,48.61655 -33.0226,75.92552 -6.8549,42.62357 2.3161,87.35717 23.9916,124.55427 13.0325,21.864 33.1808,39.6071 57.0777,48.6467 32.7852,13.3166 68.5647,16.4488 103.6172,17.3267 49.3595,1.0376 99.7022,-1.6248 146.805,-17.6187 12.9633,-4.4428 26.0104,-9.7249 36.3307,-19.0154 12.5251,-10.6595 21.6165,-24.8765 27.4453,-40.1649 20.1486,-45.9097 25.8895,-99.36162 9.7657,-147.37699 -8.3888,-25.56179 -23.5494,-49.99688 -46.7171,-64.54315 -17.0919,-11.11652 -37.313,-15.65342 -57.118,-19.14879 -29.9454,-5.70201 -60.2956,-9.69791 -90.7864,-10.57406 -3.8292,-0.0547 -7.6531,0.14204 -11.4801,0.24256 z"
       id="path4040-40"
       inkscape:connector-curvature="0"
       sodipodi:nodetypes="zssssz" />
    <path
       style="fill:#ffffff;stroke:none;display:inline"
       d="M 767.71491,46.016837 C 713.72877,48.943624 663.08517,83.00505 638.79662,131.11493 617.0542,171.26096 605.16095,217.72645 610.366,263.44955 c 4.52946,37.86601 9.61522,75.72234 17.41396,113.07048 5.15007,21.12851 14.87811,41.88035 31.42084,56.47104 18.40985,16.75822 42.23818,25.79083 65.86111,32.42224 57.03536,16.05609 118.80325,17.41133 175.68605,-0.0507 15.38624,-4.57997 30.00838,-11.56605 43.29322,-20.57237 25.0193,-16.72946 46.10167,-39.35811 61.01172,-65.49859 14.7237,-27.52235 19.1505,-58.95317 22.2818,-89.59572 3.7445,-37.36758 2.2713,-76.04614 -10.7163,-111.62556 -9.9944,-26.86674 -25.25688,-52.14125 -46.21709,-71.8713 C 944.49987,82.85909 911.41894,69.429801 878.17303,60.348799 842.23336,50.578575 804.9624,45.689183 767.71491,46.016837 z"
       id="path3280-5"
       inkscape:connector-curvature="0"
       sodipodi:nodetypes="csssc" />
    <path
       style="fill:#ffffff;fill-rule:evenodd;stroke:none;stroke-width:1.30449px;stroke-linecap:butt;stroke-linejoin:miter;stroke-opacity:1"
       d="m 1298.2941,851.66093 c 4.0639,-28.26294 -13.4052,-63.29521 -35.2583,-79.61037 20.8633,7.54458 53.2648,28.76045 60.6977,61.39447 11.6006,50.93156 -23.4906,20.75943 -23.4906,20.75943 z"
       id="path4248"
       inkscape:connector-curvature="0"
       sodipodi:nodetypes="ccscc" />
    <path
       style="color:#000000;fill:#ffffff;fill-opacity:1;fill-rule:nonzero;stroke:none;stroke-width:1.16963995px;marker:none;visibility:visible;display:inline;overflow:visible;enable-background:accumulate"
       d="m 2070.7334,546.92487 c 34.9688,-46.08982 15.8513,-77.60384 -13.7866,-89.11179 -41.1136,-35.3785 -13.2297,-31.6612 -13.2297,-31.6612 l 38.1525,5.53994 c 7.7245,0.96161 66.8276,63.85124 -11.1362,115.23305 z"
       id="path3072-56"
       inkscape:connector-curvature="0"
       sodipodi:nodetypes="ccccc" />
    <path
       style="fill:#ffffff;fill-rule:evenodd;stroke:none;stroke-width:1px;stroke-linecap:butt;stroke-linejoin:miter;stroke-opacity:1"
       d="m 2169.5084,863.6758 c 17.8164,6.86787 32.8659,22.27667 36.9127,41.22902 2.4357,13.03639 -1.9004,26.29118 -8.401,37.50329 -6.139,11.51772 -13.902,22.87528 -15.1546,36.21627 -0.038,3.74858 4.352,7.15912 7.7995,4.93741 5.4591,-2.2621 9.1063,-7.21231 13.9986,-10.35719 13.619,-10.97224 25.9848,-24.85177 30.732,-42.05365 4.3293,-16.93725 -3.8025,-35.55082 -17.8163,-45.50969 -14.6218,-11.8782 -32.4276,-19.47815 -50.851,-23.07104 0.9267,0.36853 1.8534,0.73706 2.7801,1.10558 z"
       id="path914"
       inkscape:connector-curvature="0"
       sodipodi:nodetypes="cscc" />
    <path
       style="fill:#ffffff;fill-rule:evenodd;stroke:none"
       d="m 1859.1104,1611.6362 -121.7503,-82.9388 -6.0669,33.3207 -124.8761,-111.745 -13.4112,51.9217 147.1305,92.0907 8.19,-37.7549 z"
       id="path4667"
       inkscape:connector-curvature="0"
       sodipodi:nodetypes="cccccccc" />
    <path
       style="color:#000000;display:inline;overflow:visible;visibility:visible;fill:#ffffff;fill-opacity:1;fill-rule:nonzero;stroke:none;stroke-width:1.14715px;marker:none;enable-background:accumulate"
       d="m 284.24765,2318.4867 c -40.4116,58.36 -53.3089,167.707 24.2468,263.215 -108.4132,-99.32 -82.2954,-214.062 -72.6196,-244.978 2.0322,-33.697 48.3728,-18.237 48.3728,-18.237 z"
       id="path4008-0"
       inkscape:connector-curvature="0"
       sodipodi:nodetypes="cccc" />
    <path
       style="color:#000000;display:inline;overflow:visible;visibility:visible;fill:#ffffff;fill-opacity:1;fill-rule:nonzero;stroke:none;stroke-width:1px;marker:none;enable-background:accumulate"
       d="m 1957.7754,2428.9255 c -5.3484,70.3964 -6.5303,107.5084 39.6873,147.6372 -38.4836,-13.1195 -65.1818,-27.5663 -75.1913,-122.8277 -1.3041,-29.4577 15.5177,-18.9666 35.504,-24.8095 z"
       id="path4064-5"
       inkscape:connector-curvature="0"
       sodipodi:nodetypes="cccc" />
    <path
       style="fill:#ffffff;fill-rule:evenodd;stroke:none;stroke-width:1.0599px;stroke-linecap:butt;stroke-linejoin:miter;stroke-opacity:1"
       d="m 1331.305,2514.6474 c 23.7195,-14.0861 43.1327,-10.969 67.1439,-1.3968 -21.0663,-24.318 -40.7344,-32.0837 -67.9797,-18.4039 -42.5214,21.3498 -1.8763,20.0797 -1.8763,20.0797 z"
       id="path4248-5"
       inkscape:connector-curvature="0"
       sodipodi:nodetypes="ccscc" />
    <path
       style="color:#000000;fill:#ffffff;stroke:none;stroke-width:3;stroke-linecap:round;stroke-linejoin:round;stroke-miterlimit:4;stroke-opacity:1;stroke-dasharray:none;stroke-dashoffset:0;marker:none;visibility:visible;display:inline;overflow:visible;enable-background:accumulate"
       d="m 2080.6101,2441.0457 c -13.4336,-22.0889 8.9712,-14.9521 13.6732,-22.7888 -22.6974,-23.5536 -9.0138,-25.1353 11.3944,-38.7408 -38.4523,-0.2762 -42.5053,-8.2261 -34.1831,-38.7408 -35.635,21.7193 -63.964,32.423 -50.1352,-13.6732 -26.4875,33.1842 -52.5634,40.3846 -85.4577,3.4183 -21.445,24.7579 -68.7559,25.8334 -101.4098,-1.1395 -9.4354,31.4515 -25.9383,33.7771 -52.414,6.8367 -5.5162,18.3871 -0.1885,23.1486 -22.7887,31.9042 23.5778,15.7186 19.8005,0.6564 6.8366,20.5098 20.2882,13.5255 28.3054,11.677 0,36.462 39.0927,-7.262 52.3265,-1.6652 68.3661,25.0676 15.8988,-28.6542 21.795,-1.8163 27.3465,-2.2789 26.1747,-28.118 31.5479,-12.582 38.7408,11.3943 31.4189,-10.6703 42.8388,-13.7907 63.8084,4.5578 24.3702,-40.7868 49.6232,-20.0104 72.9239,9.1155 -36.1909,-54.4072 13.8147,-40.7494 43.2986,-31.9042"
       id="path5245"
       inkscape:connector-curvature="0"
       sodipodi:nodetypes="ccccccccccccccccc" />
  </g>
  <g
     inkscape:groupmode="layer"
     id="layer1"
     inkscape:label="txt">
    <text
       xml:space="preserve"
       style="font-size:80px;font-style:normal;font-variant:normal;font-weight:normal;font-stretch:normal;line-height:1.25;letter-spacing:0px;word-spacing:0px;fill:#ffffff;fill-opacity:1;stroke:#ffffff;stroke-width:0.66877401;stroke-miterlimit:4;stroke-opacity:1;stroke-dasharray:none;filter:url(#filter4375-4-1-1-1-9-5-8-8-5-5-3-3-3-0);font-family:ComicSpice;-inkscape-font-specification:ComicSpice"
       id="text4580-6-0-0-0-9-3-3-2-0"
       transform="matrix(1.1484433,-0.31259721,-0.62973044,2.2133476,1615.3614,-1809.1372)"
       x="-607.91235"
       y="1245.0809"><tspan
         id="tspan1534-6"
         style="font-size:61.33710098px;font-style:normal;font-variant:normal;font-weight:normal;font-stretch:normal;font-family:ComicSpice;-inkscape-font-specification:ComicSpice"><tspan
   id="tspan882"
   style="font-size:71.81150055px;font-style:normal;font-variant:normal;font-weight:normal;font-stretch:normal;font-family:ComicSpice;-inkscape-font-specification:ComicSpice">SSÍ</tspan>ÍÍ!!</tspan></text>
    <text
       xml:space="preserve"
       style="font-size:45px;font-style:normal;font-variant:normal;font-weight:normal;font-stretch:normal;text-align:center;line-height:1.25;letter-spacing:0px;word-spacing:0px;text-anchor:middle;fill:#000000;fill-opacity:1;stroke:none;font-family:ComicSpice;-inkscape-font-specification:ComicSpice"
       x="816.06671"
       y="182.07776"
       id="text4246-3-2-2-6-3-7-9-3-3-56-9-3-20"><tspan
         style="font-size:45px;font-style:normal;font-variant:normal;font-weight:normal;font-stretch:normal;font-family:ComicSpice;-inkscape-font-specification:ComicSpice"
         sodipodi:role="line"
         x="816.06671"
         y="182.07776"
         id="tspan911">Tôi hiểu rồi, mày hình</tspan><tspan
         style="font-size:45px;font-style:normal;font-variant:normal;font-weight:normal;font-stretch:normal;font-family:ComicSpice;-inkscape-font-specification:ComicSpice"
         sodipodi:role="line"
         x="816.06671"
         y="238.32776"
         id="tspan6440">như đã tăng sức lực đến</tspan><tspan
         style="font-size:45px;font-style:normal;font-variant:normal;font-weight:normal;font-stretch:normal;font-family:ComicSpice;-inkscape-font-specification:ComicSpice"
         sodipodi:role="line"
         x="816.06671"
         y="294.57776"
         id="tspan6436">mức bằng các người</tspan><tspan
         style="font-size:45px;font-style:normal;font-variant:normal;font-weight:normal;font-stretch:normal;font-family:ComicSpice;-inkscape-font-specification:ComicSpice"
         sodipodi:role="line"
         x="816.06671"
         y="350.82776"
         id="tspan6430">trước nhanh hơn</tspan><tspan
         style="font-size:45px;font-style:normal;font-variant:normal;font-weight:normal;font-stretch:normal;font-family:ComicSpice;-inkscape-font-specification:ComicSpice"
         sodipodi:role="line"
         x="820.37335"
         y="407.07776"
         id="tspan6452">tôi tin tưởng... </tspan></text>
    <text
       xml:space="preserve"
       style="font-size:45px;font-style:normal;font-variant:normal;font-weight:normal;font-stretch:normal;text-align:center;line-height:1.25;letter-spacing:0px;word-spacing:0px;text-anchor:middle;fill:#000000;fill-opacity:1;stroke:none;font-family:ComicSpice;-inkscape-font-specification:ComicSpice"
       x="1325.3512"
       y="944.83429"
       id="text4246-3-2-2-6-3-7-9-3-3-56-9-3-20-3"><tspan
         style="font-size:45px;font-style:normal;font-variant:normal;font-weight:normal;font-stretch:normal;font-family:ComicSpice;-inkscape-font-specification:ComicSpice"
         sodipodi:role="line"
         x="1325.3512"
         y="944.83429"
         id="tspan994">Cái này sẽ bắt buộc</tspan><tspan
         style="font-size:45px;font-style:normal;font-variant:normal;font-weight:normal;font-stretch:normal;font-family:ComicSpice;-inkscape-font-specification:ComicSpice"
         sodipodi:role="line"
         x="1325.3512"
         y="1001.0843"
         id="tspan6473">tôi tiến hành kế hoạch</tspan><tspan
         style="font-size:45px;font-style:normal;font-variant:normal;font-weight:normal;font-stretch:normal;font-family:ComicSpice;-inkscape-font-specification:ComicSpice"
         sodipodi:role="line"
         x="1325.3512"
         y="1057.3342"
         id="tspan5224">của tôi nhưng</tspan><tspan
         style="font-size:45px;font-style:normal;font-variant:normal;font-weight:normal;font-stretch:normal;font-family:ComicSpice;-inkscape-font-specification:ComicSpice"
         sodipodi:role="line"
         x="1325.3512"
         y="1113.5842"
         id="tspan6475">đó cũng tốt!</tspan></text>
    <text
       xml:space="preserve"
       style="font-size:45px;font-style:normal;font-variant:normal;font-weight:normal;font-stretch:normal;text-align:center;line-height:1.25000000000000000;letter-spacing:0px;word-spacing:0px;text-anchor:middle;fill:#000000;fill-opacity:1;stroke:none;font-family:ComicSpice;-inkscape-font-specification:ComicSpice"
       x="1810.1738"
       y="188.51567"
       id="text4246-3-2-2-6-3-7-9-3-3-56-9-3-20-3-2"><tspan
         style="font-size:45px;-inkscape-font-specification:ComicSpice;font-family:ComicSpice;font-weight:normal;font-style:normal;font-stretch:normal;font-variant:normal"
         sodipodi:role="line"
         x="1810.1738"
         y="188.51567"
         id="tspan994-7">Kế hoạch của bà?...</tspan></text>
    <text
       xml:space="preserve"
       style="font-size:45px;font-style:normal;font-variant:normal;font-weight:normal;font-stretch:normal;text-align:center;line-height:1.25;letter-spacing:0px;word-spacing:0px;text-anchor:middle;fill:#000000;fill-opacity:1;stroke:none;font-family:ComicSpice;-inkscape-font-specification:ComicSpice"
       x="1970.6976"
       y="310.91986"
       id="text4246-3-2-2-6-3-7-9-3-3-56-9-3-20-3-2-0"><tspan
         style="font-size:45px;font-style:normal;font-variant:normal;font-weight:normal;font-stretch:normal;font-family:ComicSpice;-inkscape-font-specification:ComicSpice"
         sodipodi:role="line"
         x="1970.6976"
         y="310.91986"
         id="tspan10909">Bà chỉ thử tôi và nó không</tspan><tspan
         style="font-size:45px;font-style:normal;font-variant:normal;font-weight:normal;font-stretch:normal;font-family:ComicSpice;-inkscape-font-specification:ComicSpice"
         sodipodi:role="line"
         x="1970.6976"
         y="367.16986"
         id="tspan10913">liên quan tôi đến trẻ...</tspan></text>
    <text
       xml:space="preserve"
       style="font-size:45px;font-style:normal;font-variant:normal;font-weight:normal;font-stretch:normal;text-align:center;line-height:1.25;letter-spacing:0px;word-spacing:0px;text-anchor:middle;fill:#000000;fill-opacity:1;stroke:none;font-family:ComicSpice;-inkscape-font-specification:ComicSpice"
       x="2213.6321"
       y="1008.9539"
       id="text4246-3-2-2-6-3-7-9-3-3-56-9-3-20-3-2-0-3"><tspan
         style="font-size:45px;font-style:normal;font-variant:normal;font-weight:normal;font-stretch:normal;font-family:ComicSpice;-inkscape-font-specification:ComicSpice"
         sodipodi:role="line"
         x="2213.6321"
         y="1008.9539"
         id="tspan1147">Bà rất</tspan><tspan
         style="font-size:45px;font-style:normal;font-variant:normal;font-weight:normal;font-stretch:normal;font-family:ComicSpice;-inkscape-font-specification:ComicSpice"
         sodipodi:role="line"
         x="2213.6321"
         y="1065.2039"
         id="tspan10898">khồn điên!</tspan></text>
    <text
       xml:space="preserve"
       style="font-size:45px;font-style:normal;font-variant:normal;font-weight:normal;font-stretch:normal;text-align:center;line-height:1.25000000000000000;letter-spacing:0px;word-spacing:0px;text-anchor:middle;fill:#000000;fill-opacity:1;stroke:none;font-family:ComicSpice;-inkscape-font-specification:ComicSpice"
       x="314.83337"
       y="1631.6757"
       id="text4246-3-2-2-6-3-7-9-3-3-56-9-3-20-3-2-0-3-1"><tspan
         style="font-size:45px;-inkscape-font-specification:ComicSpice;font-family:ComicSpice;font-weight:normal;font-style:normal;font-stretch:normal;font-variant:normal"
         sodipodi:role="line"
         x="314.83337"
         y="1631.6757"
         id="tspan1224">hè...</tspan></text>
    <text
       xml:space="preserve"
       style="font-size:45px;font-style:normal;font-variant:normal;font-weight:normal;font-stretch:normal;text-align:center;line-height:1.25000000000000000;letter-spacing:0px;word-spacing:0px;text-anchor:middle;fill:#000000;fill-opacity:1;stroke:none;font-family:ComicSpice;-inkscape-font-specification:ComicSpice"
       x="327.27063"
       y="1708.0287"
       id="text4246-3-2-2-6-3-7-9-3-3-56-9-3-20-3-2-0-3-1-2"><tspan
         style="font-size:45px;-inkscape-font-specification:ComicSpice;font-family:ComicSpice;font-weight:normal;font-style:normal;font-stretch:normal;font-variant:normal"
         sodipodi:role="line"
         x="327.27063"
         y="1708.0287"
         id="tspan1224-2">hè.</tspan></text>
    <text
       xml:space="preserve"
       style="font-size:47.46429825px;font-style:normal;font-variant:normal;font-weight:bold;font-stretch:normal;text-align:center;line-height:1.25;letter-spacing:0px;word-spacing:0px;text-anchor:middle;fill:#000000;fill-opacity:1;stroke:none;font-family:ComicSpice;-inkscape-font-specification:ComicSpice Bold"
       x="1274.8878"
       y="1291.1968"
       id="text4246-3-2-2-6-3-7-9-3-3-56-9-3-20-3-3"
       transform="matrix(1,0,-0.12506286,1,0,0)"><tspan
         style="font-size:47.46429825px;font-style:normal;font-variant:normal;font-weight:bold;font-stretch:normal;font-family:ComicSpice;-inkscape-font-specification:ComicSpice Bold"
         sodipodi:role="line"
         x="1274.8878"
         y="1291.1968"
         id="tspan1341">TỤI BÂY ĐANG</tspan><tspan
         style="font-size:47.46429825px;font-style:normal;font-variant:normal;font-weight:bold;font-stretch:normal;font-family:ComicSpice;-inkscape-font-specification:ComicSpice Bold"
         sodipodi:role="line"
         x="1274.8878"
         y="1350.5271"
         id="tspan5232">NGÓ GÌ VẬY?!!</tspan></text>
    <text
       xml:space="preserve"
       style="font-size:47.46429825px;font-style:normal;font-variant:normal;font-weight:bold;font-stretch:normal;text-align:center;line-height:1.25;letter-spacing:0px;word-spacing:0px;text-anchor:middle;fill:#000000;fill-opacity:1;stroke:none;font-family:ComicSpice;-inkscape-font-specification:ComicSpice Bold"
       x="1454.5225"
       y="1423.047"
       id="text4246-3-2-2-6-3-7-9-3-3-56-9-3-20-3-3-2"
       transform="matrix(1,0,-0.12506286,1,0,0)"><tspan
         style="font-size:47.46429825px;font-style:normal;font-variant:normal;font-weight:bold;font-stretch:normal;font-family:ComicSpice;-inkscape-font-specification:ComicSpice Bold"
         sodipodi:role="line"
         x="1454.5225"
         y="1423.047"
         id="tspan1341-9">TAU MỚI BỊ TẤN CÔNG</tspan><tspan
         style="font-size:47.46429825px;font-style:normal;font-variant:normal;font-weight:bold;font-stretch:normal;font-family:ComicSpice;-inkscape-font-specification:ComicSpice Bold"
         sodipodi:role="line"
         x="1454.5225"
         y="1482.3773"
         id="tspan1373">VÀ TỤI BÂY VẪN CHỈ ĐỨNG Ở ĐÓ</tspan><tspan
         style="font-size:47.46429825px;font-style:normal;font-variant:normal;font-weight:bold;font-stretch:normal;font-family:ComicSpice;-inkscape-font-specification:ComicSpice Bold"
         sodipodi:role="line"
         x="1454.5225"
         y="1541.7078"
         id="tspan1375">NGÓ?!! BẮT NÓ!!!</tspan></text>
    <text
       xml:space="preserve"
       style="font-size:55.07120132px;font-style:normal;font-variant:normal;font-weight:bold;font-stretch:normal;text-align:center;line-height:1.25;letter-spacing:0px;word-spacing:0px;text-anchor:middle;fill:#000000;fill-opacity:1;stroke:none;font-family:ComicSpice;-inkscape-font-specification:ComicSpice Bold"
       x="614.35553"
       y="2221.3306"
       id="text4246-3-2-2-6-3-7-9-3-3-56-9-3-20-3-3-2-7"
       transform="matrix(0.99725425,0,-0.12471947,1.0027533,0,0)"><tspan
         style="font-size:55.07120132px;font-style:normal;font-variant:normal;font-weight:bold;font-stretch:normal;font-family:ComicSpice;-inkscape-font-specification:ComicSpice Bold"
         sodipodi:role="line"
         x="614.35553"
         y="2221.3306"
         id="tspan1414">BẮT NÓ</tspan><tspan
         style="font-size:55.07120132px;font-style:normal;font-variant:normal;font-weight:bold;font-stretch:normal;font-family:ComicSpice;-inkscape-font-specification:ComicSpice Bold"
         sodipodi:role="line"
         x="614.35553"
         y="2290.1697"
         id="tspan6334">CÒN SỐNG!</tspan></text>
    <text
       xml:space="preserve"
       style="font-size:55.07120132000000012px;font-style:normal;font-variant:normal;font-weight:bold;font-stretch:normal;text-align:center;line-height:1.25000000000000000;letter-spacing:0px;word-spacing:0px;text-anchor:middle;fill:#000000;fill-opacity:1;stroke:none;font-family:ComicSpice;-inkscape-font-specification:ComicSpice Bold"
       x="1434.1442"
       y="2231.3691"
       id="text4246-3-2-2-6-3-7-9-3-3-56-9-3-20-3-3-2-7-2"
       transform="matrix(0.99725425,0,-0.12471947,1.0027533,0,0)"><tspan
         style="font-size:55.07120132000000012px;font-style:normal;font-variant:normal;font-weight:bold;font-stretch:normal;font-family:ComicSpice;-inkscape-font-specification:ComicSpice Bold"
         sodipodi:role="line"
         x="1434.1442"
         y="2231.3691"
         id="tspan1414-3">BẮT NÓ!!!</tspan></text>
    <text
       xml:space="preserve"
       style="font-size:45px;font-style:normal;font-variant:normal;font-weight:normal;font-stretch:normal;text-align:center;line-height:1.25;letter-spacing:0px;word-spacing:0px;text-anchor:middle;fill:#000000;fill-opacity:1;stroke:none;font-family:ComicSpice;-inkscape-font-specification:ComicSpice"
       x="1175.1637"
       y="2475.4414"
       id="text4246-3-2-2-6-3-7-9-3-3-56-9-3-20-3-2-0-3-19"><tspan
         style="font-size:45px;font-style:normal;font-variant:normal;font-weight:normal;font-stretch:normal;font-family:ComicSpice;-inkscape-font-specification:ComicSpice"
         sodipodi:role="line"
         x="1175.1637"
         y="2475.4414"
         id="tspan1484">Thất Vị,</tspan><tspan
         style="font-size:45px;font-style:normal;font-variant:normal;font-weight:normal;font-stretch:normal;font-family:ComicSpice;-inkscape-font-specification:ComicSpice"
         sodipodi:role="line"
         x="1175.1637"
         y="2531.6914"
         id="tspan6322">chúng tôi sẽ nói</tspan><tspan
         style="font-size:45px;font-style:normal;font-variant:normal;font-weight:normal;font-stretch:normal;font-family:ComicSpice;-inkscape-font-specification:ComicSpice"
         sodipodi:role="line"
         x="1175.1637"
         y="2587.9414"
         id="tspan6328">chuyện về cái</tspan><tspan
         style="font-size:45px;font-style:normal;font-variant:normal;font-weight:normal;font-stretch:normal;font-family:ComicSpice;-inkscape-font-specification:ComicSpice"
         sodipodi:role="line"
         x="1175.1637"
         y="2644.1914"
         id="tspan6330">này sau nhe!</tspan></text>
    <text
       xml:space="preserve"
       style="font-size:45px;font-style:normal;font-variant:normal;font-weight:normal;font-stretch:normal;text-align:center;line-height:1.25;letter-spacing:0px;word-spacing:0px;text-anchor:middle;fill:#000000;fill-opacity:1;stroke:none;font-family:ComicSpice;-inkscape-font-specification:ComicSpice"
       x="1966.1669"
       y="2257.342"
       id="text4246-3-2-2-6-3-7-9-3-3-56-9-3-20-3-2-0-3-19-8"><tspan
         style="font-size:45px;font-style:normal;font-variant:normal;font-weight:normal;font-stretch:normal;font-family:ComicSpice;-inkscape-font-specification:ComicSpice"
         sodipodi:role="line"
         x="1966.1669"
         y="2257.342"
         id="tspan1541">Xin lỗi Củ Đỏ, nhưng chúng</tspan><tspan
         style="font-size:45px;font-style:normal;font-variant:normal;font-weight:normal;font-stretch:normal;font-family:ComicSpice;-inkscape-font-specification:ComicSpice"
         sodipodi:role="line"
         x="1966.1669"
         y="2313.592"
         id="tspan5243">tôi cần cát cánh siêu tốc nữa.</tspan></text>
    <text
       xml:space="preserve"
       style="font-size:6.99764012999999974px;font-style:normal;font-variant:normal;font-weight:normal;font-stretch:normal;line-height:0%;letter-spacing:0px;word-spacing:0px;fill:#ffffff;fill-opacity:1;stroke:#000000;stroke-width:6.59999998;stroke-miterlimit:4;stroke-opacity:1;stroke-dasharray:none;font-family:ComicSpice;-inkscape-font-specification:ComicSpice"
       x="1234.3364"
       y="2988.7241"
       id="text4580-25"
       transform="matrix(0.70061135,-0.52267462,0.27429036,1.222697,0,0)"
       sodipodi:linespacing="0%"><tspan
         sodipodi:role="line"
         id="tspan4582-4"
         x="1234.3364"
         y="2988.7241"
         style="font-size:40.81949997000000252px;line-height:100%;letter-spacing:2.84771990999999991px;fill:#ffffff;stroke:#000000;stroke-width:6.59999998;stroke-miterlimit:4;stroke-opacity:1;stroke-dasharray:none;-inkscape-font-specification:ComicSpice;font-family:ComicSpice;font-weight:normal;font-style:normal;font-stretch:normal;font-variant:normal;fill-opacity:1"><tspan
           style="font-size:46.88420104999999438px;line-height:100%;letter-spacing:2.84771990999999991px;stroke:#000000;stroke-width:6.59999998;stroke-miterlimit:4;stroke-opacity:1;stroke-dasharray:none;-inkscape-font-specification:ComicSpice;font-family:ComicSpice;font-weight:normal;font-style:normal;font-stretch:normal;font-variant:normal;fill:#ffffff;fill-opacity:1"
           id="tspan4617-9">Gõ!</tspan></tspan></text>
    <text
       xml:space="preserve"
       style="font-size:6.12727021999999977px;font-style:normal;font-variant:normal;font-weight:normal;font-stretch:normal;line-height:0%;letter-spacing:0px;word-spacing:0px;fill:#000000;fill-opacity:1;stroke:#000000;stroke-width:6.59999997999999977;stroke-miterlimit:4;stroke-opacity:1;stroke-dasharray:none;font-family:ComicSpice;-inkscape-font-specification:ComicSpice"
       x="1244.6915"
       y="2939.7729"
       id="text4580-25-6"
       transform="matrix(0.70061135,-0.52267462,0.27429036,1.222697,0,0)"
       sodipodi:linespacing="0%"><tspan
         sodipodi:role="line"
         id="tspan4582-4-1"
         x="1244.6915"
         y="2939.7729"
         style="font-size:35.74229813000000178px;line-height:100%;letter-spacing:2.49352002000000006px;fill:#000000;stroke:#000000;stroke-width:6.59999997999999977;stroke-miterlimit:4;stroke-opacity:1;stroke-dasharray:none;-inkscape-font-specification:ComicSpice;font-family:ComicSpice;font-weight:normal;font-style:normal;font-stretch:normal;font-variant:normal;fill-opacity:1"><tspan
           style="font-size:41.05270003999999773px;line-height:100%;letter-spacing:2.49352002000000006px;stroke:#000000;stroke-width:6.59999997999999977;stroke-miterlimit:4;stroke-opacity:1;stroke-dasharray:none;-inkscape-font-specification:ComicSpice;font-family:ComicSpice;font-weight:normal;font-style:normal;font-stretch:normal;font-variant:normal;fill:#000000;fill-opacity:1"
           id="tspan4617-9-0">Gõ!</tspan></tspan></text>
    <text
       xml:space="preserve"
       style="font-size:80px;font-style:normal;font-variant:normal;font-weight:normal;font-stretch:normal;line-height:1.25;letter-spacing:0px;word-spacing:0px;fill:#ffffff;fill-opacity:1;stroke:#ffffff;stroke-width:0.66877401;stroke-miterlimit:4;stroke-opacity:1;stroke-dasharray:none;filter:url(#filter4375-4-1-1-1-9-5-8-8-5-5-3-3-3-0-6);font-family:ComicSpice;-inkscape-font-specification:ComicSpice"
       id="text4580-6-0-0-0-9-3-3-2-0-3"
       transform="matrix(1.2199315,-0.31719701,-0.66892978,2.2459164,3443.4589,177.24169)"
       x="-607.91235"
       y="1245.0809"><tspan
         id="tspan1534-6-7"
         style="font-size:61.33710098px;font-style:normal;font-variant:normal;font-weight:normal;font-stretch:normal;font-family:ComicSpice;-inkscape-font-specification:ComicSpice"><tspan
   style="font-size:66.57430267px;font-style:normal;font-variant:normal;font-weight:normal;font-stretch:normal;font-family:ComicSpice;-inkscape-font-specification:ComicSpice"
   id="tspan1814-4">Dééoo</tspan>OO!!</tspan></text>
    <text
       id="text5249"
       y="2410.0266"
       x="1929.705"
       style="font-size:45px;font-style:normal;font-variant:normal;font-weight:normal;font-stretch:normal;text-align:center;line-height:1.25;letter-spacing:0px;word-spacing:0px;text-anchor:middle;fill:#000000;fill-opacity:1;stroke:none;font-family:ComicSpice;-inkscape-font-specification:ComicSpice"
       xml:space="preserve"><tspan
         id="tspan5253"
         y="2410.0266"
         x="1929.705"
         sodipodi:role="line"
         style="font-size:45px;font-style:normal;font-variant:normal;font-weight:normal;font-stretch:normal;font-family:ComicSpice;-inkscape-font-specification:ComicSpice">Bám chắt nhe!</tspan></text>
    <text
       sodipodi:linespacing="0%"
       transform="matrix(0.70061135,-0.52267462,0.27429036,1.222697,0,0)"
       id="text3869"
       y="2988.7241"
       x="1234.3364"
       style="font-size:6.99764012999999974px;font-style:normal;font-variant:normal;font-weight:normal;font-stretch:normal;line-height:0%;letter-spacing:0px;word-spacing:0px;fill:#ffffff;fill-opacity:1;stroke:none;stroke-width:6.59999997999999977;stroke-miterlimit:4;stroke-opacity:1;stroke-dasharray:none;font-family:ComicSpice;-inkscape-font-specification:ComicSpice"
       xml:space="preserve"><tspan
         style="font-size:40.81949997000000252px;line-height:100%;letter-spacing:2.84771990999999991px;fill:#ffffff;stroke:none;stroke-width:6.59999997999999977;stroke-miterlimit:4;stroke-opacity:1;stroke-dasharray:none;-inkscape-font-specification:ComicSpice;font-family:ComicSpice;font-weight:normal;font-style:normal;font-stretch:normal;font-variant:normal;fill-opacity:1"
         y="2988.7241"
         x="1234.3364"
         id="tspan3871"
         sodipodi:role="line"><tspan
           id="tspan3873"
           style="font-size:46.88420104999999438px;line-height:100%;letter-spacing:2.84771990999999991px;stroke:none;stroke-width:6.59999997999999977;stroke-miterlimit:4;stroke-opacity:1;stroke-dasharray:none;-inkscape-font-specification:ComicSpice;font-family:ComicSpice;font-weight:normal;font-style:normal;font-stretch:normal;font-variant:normal;fill:#ffffff;fill-opacity:1">Gõ!</tspan></tspan></text>
    <text
       sodipodi:linespacing="0%"
       transform="matrix(0.70061135,-0.52267462,0.27429036,1.222697,0,0)"
       id="text3875"
       y="2939.7729"
       x="1244.6915"
       style="font-size:6.12727021999999977px;font-style:normal;font-variant:normal;font-weight:normal;font-stretch:normal;line-height:0%;letter-spacing:0px;word-spacing:0px;fill:#ffffff;fill-opacity:1;stroke:none;stroke-width:6.59999997999999977;stroke-miterlimit:4;stroke-opacity:1;stroke-dasharray:none;font-family:ComicSpice;-inkscape-font-specification:ComicSpice"
       xml:space="preserve"><tspan
         style="font-size:35.74229813000000178px;line-height:100%;letter-spacing:2.49352002000000006px;fill:#ffffff;stroke:none;stroke-width:6.59999997999999977;stroke-miterlimit:4;stroke-opacity:1;stroke-dasharray:none;-inkscape-font-specification:ComicSpice;font-family:ComicSpice;font-weight:normal;font-style:normal;font-stretch:normal;font-variant:normal;fill-opacity:1"
         y="2939.7729"
         x="1244.6915"
         id="tspan3877"
         sodipodi:role="line"><tspan
           id="tspan3879"
           style="font-size:41.05270003999999773px;line-height:100%;letter-spacing:2.49352002000000006px;stroke:none;stroke-width:6.59999997999999977;stroke-miterlimit:4;stroke-opacity:1;stroke-dasharray:none;-inkscape-font-specification:ComicSpice;font-family:ComicSpice;font-weight:normal;font-style:normal;font-stretch:normal;font-variant:normal;fill:#ffffff;fill-opacity:1">Gõ!</tspan></tspan></text>
  </g>
</svg>
