<?xml version="1.0" encoding="UTF-8" standalone="no"?>
<svg
   xmlns:dc="http://purl.org/dc/elements/1.1/"
   xmlns:cc="http://creativecommons.org/ns#"
   xmlns:rdf="http://www.w3.org/1999/02/22-rdf-syntax-ns#"
   xmlns:svg="http://www.w3.org/2000/svg"
   xmlns="http://www.w3.org/2000/svg"
   xmlns:xlink="http://www.w3.org/1999/xlink"
   xmlns:sodipodi="http://sodipodi.sourceforge.net/DTD/sodipodi-0.dtd"
   xmlns:inkscape="http://www.inkscape.org/namespaces/inkscape"
   id="svg2"
   version="1.1"
   inkscape:version="0.48.5 r10040"
   width="2481"
   height="3503"
   sodipodi:docname="E34P03.svg">
  <metadata
     id="metadata8">
    <rdf:RDF>
      <cc:Work
         rdf:about="">
        <dc:format>image/svg+xml</dc:format>
        <dc:type
           rdf:resource="http://purl.org/dc/dcmitype/StillImage" />
        <dc:title />
      </cc:Work>
    </rdf:RDF>
  </metadata>
  <defs
     id="defs6" />
  <sodipodi:namedview
     pagecolor="#ffffff"
     bordercolor="#666666"
     borderopacity="1"
     objecttolerance="10"
     gridtolerance="10"
     guidetolerance="10"
     inkscape:pageopacity="0"
     inkscape:pageshadow="2"
     inkscape:window-width="1276"
     inkscape:window-height="676"
     id="namedview4"
     showgrid="false"
     inkscape:zoom="0.16036191"
     inkscape:cx="4167.6839"
     inkscape:cy="861.84908"
     inkscape:window-x="771"
     inkscape:window-y="9"
     inkscape:window-maximized="0"
     inkscape:current-layer="layer1"
     inkscape:document-rotation="0"
     borderlayer="true" />
  <g
     inkscape:groupmode="layer"
     id="layer2"
     inkscape:label="artwork"
     sodipodi:insensitive="true">
    <image
       sodipodi:absref="/Users/su_huynh/Downloads/lang 6/vi/../gfx_Pepper-and-Carrot_by-David-Revoy_E34P03.png"
       xlink:href="../gfx_Pepper-and-Carrot_by-David-Revoy_E34P03.png"
       y="0"
       x="0"
       id="image10"
       height="3503"
       width="2481" />
  </g>
  <g
     inkscape:groupmode="layer"
     id="layer3"
     inkscape:label="speechbubbles"
     style="display:inline">
    <path
       style="color:#000000;fill:#ffffff;fill-opacity:1;fill-rule:nonzero;stroke:none;stroke-width:1.33309996px;marker:none;visibility:visible;display:inline;overflow:visible;enable-background:accumulate"
       d="m 1184.665,2211.5239 c -41.2991,0.4127 -83.0849,6.6112 -121.1098,22.787 -20.1332,8.6252 -39.279,20.4271 -53.591,36.8623 -18.07368,21.2673 -26.52292,50.4613 -20.73081,77.6241 4.19129,19.2515 14.61671,36.7846 27.72581,51.6128 9.604,10.0892 22.7119,16.001 35.5796,21.1653 38.8694,15.8028 80.3966,25.2678 122.3885,28.4872 27.8392,2.6381 55.9106,3.5063 83.8229,1.4294 21.0426,-1.439 42.0715,-3.787 62.6992,-8.1482 31.1934,-7.1312 61.1578,-21.1866 84.4147,-42.8328 14.7492,-13.8496 26.1694,-31.4611 30.672,-51.0264 7.4563,-30.2882 -1.3271,-63.9962 -23.2541,-86.8296 -10.2317,-10.781 -23.0037,-19.1204 -36.8174,-24.9608 -21.5025,-9.3808 -44.8715,-13.643 -68.0478,-17.028 -27.804,-3.8996 -55.8447,-5.8295 -83.8376,-7.9384 -13.2862,-0.8249 -26.5997,-1.2863 -39.9142,-1.2039 z"
       id="path4546-6-08-2"
       inkscape:connector-curvature="0"
       sodipodi:nodetypes="cssssc" />
    <path
       style="color:#000000;fill:#ffffff;fill-opacity:1;fill-rule:nonzero;stroke:none;stroke-width:0.58640301px;marker:none;visibility:visible;display:inline;overflow:visible;enable-background:accumulate"
       d="m 905.32201,2190.0522 c 4.11928,-35.6765 38.66999,-60.5547 125.63859,-50.4392 46.5852,5.4186 99.5497,9.8416 94.0574,62.1268 -5.4924,52.2845 -81.6995,47.9784 -97.4901,48.5938 -15.7906,0.6149 -97.57274,-8.0629 -111.22107,-26.4503 -8.54351,-11.5098 -11.67135,-22.759 -10.98482,-33.8311 z"
       id="path4546-6-08"
       inkscape:connector-curvature="0"
       sodipodi:nodetypes="cssssc" />
    <path
       style="fill:#ffffff;fill-rule:evenodd;stroke:none"
       d="m 1526.8011,2502.4041 c -67.1764,-16.6519 -102.2234,-46.199 -121.1257,-136.2651 l -37.7443,44.4129 c 38.8776,77.2655 103.8543,87.3414 158.87,91.8522 z"
       id="path1291"
       inkscape:connector-curvature="0"
       sodipodi:nodetypes="cccc" />
    <path
       style="fill:#ffffff;stroke:none"
       d="m 2006.7449,304.37834 c -24.0677,0.33313 -48.5586,4.61519 -69.9965,15.97778 -15.9466,8.62545 -27.5325,23.77332 -34.4247,40.30219 -6.2002,14.85461 -8.8479,31.71786 -4.6833,47.47708 4.9371,19.36544 18.0881,36.7959 36.0294,45.85273 13.439,6.57562 28.2816,9.38301 42.8867,12.05066 30.7202,4.91797 61.9518,3.61807 92.9124,2.57817 15.7369,-0.63333 31.9126,-1.92446 46.4298,-8.54414 23.0583,-10.55903 40.7934,-32.71086 44.8262,-57.8921 3.0889,-20.92147 -3.7253,-42.6251 -16.6523,-59.1434 -7.6602,-9.86014 -18.2986,-17.03756 -29.7199,-21.86713 -23.1538,-10.41395 -48.5444,-14.84294 -73.7708,-16.1111 -11.2676,-0.61446 -22.5551,-0.70522 -33.837,-0.68074 z"
       id="path3100-2-0"
       inkscape:connector-curvature="0" />
    <path
       style="fill:#ffffff;stroke:none"
       d="m 1980.8104,293.27562 c -3.8598,51.99456 -76.3787,68.88776 -128.2166,70.98582 -88.0632,7.34879 -177.5545,4.3785 -263.9511,-8.85595 -55.8782,-12.1619 -84.4823,-77.74178 -39.2258,-113.13538 46.6191,-28.00785 107.3678,-28.14433 161.7749,-35.31602 77.0596,-5.67801 157.0598,-3.98538 229.8653,17.40704 32.4922,11.91906 44.3493,40.79495 39.7533,68.91449 z"
       id="path3100-2"
       inkscape:connector-curvature="0" />
    <path
       style="color:#000000;fill:#ffffff;fill-opacity:1;fill-rule:nonzero;stroke:none;stroke-width:1.05242002px;marker:none;visibility:visible;display:inline;overflow:visible;enable-background:accumulate"
       d="m 948.29688,208.81544 c -55.16785,1.12414 -110.01099,13.16497 -157.44147,35.09924 -18.00665,9.29007 -31.0503,23.39748 -39.80553,38.5541 -16.68834,27.43182 -25.43864,58.07245 -22.62785,88.4387 2.70665,26.56353 17.33011,51.95612 39.09103,72.41207 14.46979,13.58795 33.24474,24.44323 54.382,30.96925 13.78667,4.24876 28.13517,7.36416 42.65767,9.67893 26.4793,4.1022 53.69682,5.25338 80.61168,3.68271 37.62661,-2.56707 74.80199,-12.26321 105.48629,-29.54339 13.7407,-7.95356 24.7684,-18.57703 32.3368,-30.4849 11.4588,-16.29651 21.9112,-33.39195 26.0418,-51.81969 5.8535,-24.91826 2.8776,-50.9455 -7.6236,-74.8845 -9.7487,-21.60085 -27.159,-41.03555 -49.6774,-55.80851 -20.6892,-13.96968 -44.4664,-25.4344 -70.4866,-32.34784 -10.6343,-2.60658 -21.77776,-4.05533 -32.94482,-3.94617 z"
       id="path4040-40"
       inkscape:connector-curvature="0"
       sodipodi:nodetypes="zssssz" />
    <path
       style="fill:#ffffff;stroke:none;stroke-width:1.31851"
       d="m 892.09961,88.824219 c -28.75402,0.312331 -57.83216,3.118507 -85.19428,12.420541 -16.3116,5.52987 -32.41506,12.8383 -45.4192,24.35384 -9.12602,8.30209 -15.8987,19.46808 -17.81839,31.7543 -2.89051,16.12311 1.5927,33.18859 11.34058,46.26096 13.456,19.30978 35.77762,31.93053 59.16006,34.07948 35.76084,4.99855 71.958,3.7807 107.95733,3.97648 28.05868,-0.10831 56.41595,-0.47264 83.90449,-6.73096 18.7707,-4.40122 37.197,-12.27199 51.5197,-25.44467 10.6108,-10.02069 17.6808,-24.32486 17.2066,-39.10312 -0.2887,-17.68304 -9.2063,-34.55101 -22.3777,-46.09462 -14.6982,-13.27114 -33.3654,-21.22289 -52.3065,-26.297743 -27.6725,-7.356859 -56.47609,-8.340918 -84.94555,-9.01988 -7.6746,-0.148505 -15.35121,-0.226032 -23.02714,-0.154608 z"
       id="path3280-1"
       inkscape:connector-curvature="0"
       sodipodi:nodetypes="csssc" />
    <path
       style="color:#000000;display:inline;overflow:visible;visibility:visible;fill:#ffffff;fill-opacity:1;fill-rule:nonzero;stroke:none;stroke-width:1.09531px;marker:none;enable-background:accumulate"
       d="m 515.56592,569.78775 c -18.91482,52.03017 4.83082,105.0529 25.18253,113.54238 -35.28585,-10.9108 -68.63957,-69.12208 -59.32801,-107.65396 11.40606,-32.52343 34.14548,-5.88842 34.14548,-5.88842 z"
       id="path4480-2"
       inkscape:connector-curvature="0"
       sodipodi:nodetypes="cccc"
       inkscape:transform-center-x="77.303899"
       inkscape:transform-center-y="-142.25733" />
    <path
       style="color:#000000;fill:#ffffff;fill-opacity:1;fill-rule:nonzero;stroke:none;stroke-width:1.13642001px;marker:none;visibility:visible;display:inline;overflow:visible;enable-background:accumulate"
       d="m 318.47301,469.04433 c 7.16998,-70.65294 67.30994,-122.0137 218.68992,-107.80033 81.08728,7.61327 173.27888,12.8422 163.71877,116.34966 -9.56025,103.50746 -142.20814,100.04498 -169.69372,102.30136 -27.48589,2.25639 -169.83794,-9.46349 -193.59454,-44.8354 -14.87103,-22.1423 -20.31545,-44.12794 -19.12043,-66.01529 z"
       id="path4546-6-5-5"
       inkscape:connector-curvature="0"
       sodipodi:nodetypes="cssssc" />
    <path
       style="color:#000000;fill:#ffffff;fill-opacity:1;fill-rule:nonzero;stroke:none;stroke-width:0.94512397px;marker:none;visibility:visible;display:inline;overflow:visible;enable-background:accumulate"
       d="m 285.75314,123.6836 c -30.45384,0.88899 -61.36239,4.54399 -89.7377,16.22942 -15.7586,6.89601 -30.03316,18.46128 -37.73977,34.08309 -9.80178,20.86852 -9.03167,45.95075 0.51139,66.76308 6.19576,12.8435 17.09485,23.22746 30.04136,29.13484 21.40975,11.52149 44.29445,20.72494 68.31962,24.95662 26.43021,4.87262 53.45863,5.49018 80.24828,4.33176 34.91339,-1.76738 69.94331,-7.37563 102.69257,-19.93517 15.59637,-6.2416 30.90598,-14.77187 41.60953,-28.02997 9.91172,-12.43586 14.32507,-28.65658 13.6471,-44.42164 -0.43279,-17.92904 -7.15953,-36.13397 -20.35155,-48.58856 -10.73438,-10.33622 -24.68211,-16.54724 -38.84303,-20.62802 -24.5628,-7.33071 -50.28086,-9.08466 -75.68008,-11.35039 -24.85573,-1.90182 -49.79217,-2.65315 -74.71772,-2.54506 z"
       id="path4546-6-5-3"
       inkscape:connector-curvature="0"
       sodipodi:nodetypes="cssssc" />
    <path
       id="path1081"
       style="fill:#ffffff;fill-rule:evenodd;stroke:none;stroke-width:1px;stroke-linecap:butt;stroke-linejoin:miter;stroke-opacity:1"
       d="m 293.67188,278.28125 c -10.34602,0.0639 -20.49884,2.27426 -30.72657,3.55078 -2.69982,4.93778 -4.08222,10.48922 -6.23101,15.68234 -5.67931,15.85263 -11.23804,31.88728 -14.15471,48.50943 -1.55744,12.04107 -0.85288,24.84605 5.20433,35.64519 9.1497,17.95023 22.70579,33.83652 27.94646,53.6304 3.09231,10.90551 5.52274,22.36337 4.35032,33.73572 -2.11881,9.59327 -8.21891,17.62309 -11.87847,26.63366 -6.87167,15.32803 -10.49807,32.77889 -6.43519,49.37594 1.01596,4.68537 2.40213,9.28257 3.95804,13.81467 -2.44284,-26.62563 4.52474,-54.43511 21.1636,-75.60842 5.87927,-7.58781 10.3557,-16.41037 11.5087,-26.03213 2.42129,-15.20105 -1.52987,-30.55332 -7.50308,-44.47184 -6.35087,-15.65438 -14.74681,-30.53834 -19.38839,-46.84497 -2.53518,-14.1623 4.48464,-27.52853 11.07638,-39.5497 6.64471,-12.19187 14.72253,-23.64193 20.19033,-36.44305 2.35665,-5.59735 -3.25033,-12.19349 -9.08074,-11.62802 z" />
    <path
       style="color:#000000;fill:#ffffff;fill-opacity:1;fill-rule:nonzero;stroke:none;stroke-width:0.747612px;marker:none;visibility:visible;display:inline;overflow:visible;enable-background:accumulate"
       d="m 904.25744,479.04889 c -2.31202,46.97432 46.46212,99.91514 106.27006,73.88577 -68.51542,11.60614 -80.86297,-50.88993 -74.49686,-77.22915 6.052,-16.0625 -31.7732,3.34338 -31.7732,3.34338 z"
       id="path3978-4"
       inkscape:connector-curvature="0"
       sodipodi:nodetypes="cccc" />
    <path
       style="fill:#ffffff;fill-rule:evenodd;stroke:none"
       d="m 2076.5487,467.16256 c 32.7264,58.68262 12.8576,98.86021 -11.2336,121.10341 57.8143,-39.15954 48.904,-77.5373 40.1266,-132.63158 -6.4903,-8.77797 -28.893,11.52817 -28.893,11.52817 z"
       id="path1359"
       inkscape:connector-curvature="0"
       sodipodi:nodetypes="cccc" />
  </g>
  <g
     inkscape:groupmode="layer"
     id="layer1"
     inkscape:label="txt">
    <path
       style="color:#000000;fill:#ffffff;stroke:none;stroke-width:3;marker:none;visibility:visible;display:inline;overflow:visible;enable-background:accumulate"
       d="m 968.89187,1876.9905 c -19.43475,26.0631 -44.84105,26.6871 -90.42044,6.2359 l 4.67687,-29.6206 c 45.54192,34.8354 65.95814,29.3581 85.74357,23.3847 z"
       id="path4380"
       inkscape:connector-curvature="0"
       sodipodi:nodetypes="cccc" />
    <text
       xml:space="preserve"
       style="font-size:45px;font-style:normal;font-variant:normal;font-weight:normal;font-stretch:normal;text-align:center;line-height:1.25;letter-spacing:0px;word-spacing:0px;text-anchor:middle;fill:#000000;fill-opacity:1;stroke:none;font-family:ComicSpice;-inkscape-font-specification:ComicSpice"
       x="328.19693"
       y="194.99399"
       id="text4246-3-2-2-6-3-7-9-3"><tspan
         style="font-size:45px;font-style:normal;font-variant:normal;font-weight:normal;font-stretch:normal;font-family:ComicSpice;-inkscape-font-specification:ComicSpice"
         sodipodi:role="line"
         x="328.19693"
         y="194.99399"
         id="tspan850">Nó là khách</tspan><tspan
         style="font-size:45px;font-style:normal;font-variant:normal;font-weight:normal;font-stretch:normal;font-family:ComicSpice;-inkscape-font-specification:ComicSpice"
         sodipodi:role="line"
         x="328.19693"
         y="251.24399"
         id="tspan7209">của con không?</tspan></text>
    <text
       xml:space="preserve"
       style="font-size:45px;font-style:normal;font-variant:normal;font-weight:normal;font-stretch:normal;text-align:center;line-height:1.25;letter-spacing:0px;word-spacing:0px;text-anchor:middle;fill:#000000;fill-opacity:1;stroke:none;font-family:ComicSpice;-inkscape-font-specification:ComicSpice"
       x="515.4679"
       y="432.7894"
       id="text4246-3-2-2-6-3-7-9-3-3"><tspan
         style="font-size:45px;font-style:normal;font-variant:normal;font-weight:normal;font-stretch:normal;font-family:ComicSpice;-inkscape-font-specification:ComicSpice"
         sodipodi:role="line"
         x="515.4679"
         y="432.7894"
         id="tspan890">Đúng vậy, nó là bạn</tspan><tspan
         style="font-size:45px;font-style:normal;font-variant:normal;font-weight:normal;font-stretch:normal;font-family:ComicSpice;-inkscape-font-specification:ComicSpice"
         sodipodi:role="line"
         x="515.4679"
         y="489.0394"
         id="tspan7220">của con tên Hạt Tiêu.</tspan><tspan
         style="font-size:45px;font-style:normal;font-variant:normal;font-weight:normal;font-stretch:normal;font-family:ComicSpice;-inkscape-font-specification:ComicSpice"
         sodipodi:role="line"
         x="515.4679"
         y="545.28943"
         id="tspan7222">Mỗi thứ đều  tốt.</tspan></text>
    <text
       xml:space="preserve"
       style="font-size:45px;font-style:normal;font-variant:normal;font-weight:normal;font-stretch:normal;text-align:center;line-height:1.25;letter-spacing:0px;word-spacing:0px;text-anchor:middle;fill:#000000;fill-opacity:1;stroke:none;font-family:ComicSpice;-inkscape-font-specification:ComicSpice"
       x="909.74799"
       y="162.51166"
       id="text4246-3-2-2-6-3-7-9-3-3-5"><tspan
         style="font-size:45px;font-style:normal;font-variant:normal;font-weight:normal;font-stretch:normal;font-family:ComicSpice;-inkscape-font-specification:ComicSpice"
         sodipodi:role="line"
         x="909.74799"
         y="162.51166"
         id="tspan971">Củ Đỏ có</tspan><tspan
         style="font-size:45px;font-style:normal;font-variant:normal;font-weight:normal;font-stretch:normal;font-family:ComicSpice;-inkscape-font-specification:ComicSpice"
         sodipodi:role="line"
         x="909.74799"
         y="218.76166"
         id="tspan7226">sao không?</tspan></text>
    <text
       xml:space="preserve"
       style="font-size:40px;font-style:normal;font-variant:normal;font-weight:normal;font-stretch:normal;text-align:center;line-height:1.25;letter-spacing:0px;word-spacing:0px;text-anchor:middle;fill:#000000;fill-opacity:1;stroke:none;font-family:ComicSpice;-inkscape-font-specification:ComicSpice"
       x="919.77332"
       y="295.84421"
       id="text4246-3-2-2-6-3-7-9-3-3-5-9"><tspan
         sodipodi:role="line"
         x="919.77332"
         y="295.84421"
         id="tspan983"
         style="font-size:40px;font-style:normal;font-variant:normal;font-weight:normal;font-stretch:normal;font-family:ComicSpice;-inkscape-font-specification:ComicSpice">Xin lỗi vì đáp xuống</tspan><tspan
         sodipodi:role="line"
         x="919.77332"
         y="345.84421"
         style="font-size:40px;font-style:normal;font-variant:normal;font-weight:normal;font-stretch:normal;font-family:ComicSpice;-inkscape-font-specification:ComicSpice"
         id="tspan7242">qúa mạnh, tôi chưa</tspan><tspan
         sodipodi:role="line"
         x="919.77332"
         y="395.84421"
         style="font-size:40px;font-style:normal;font-variant:normal;font-weight:normal;font-stretch:normal;font-family:ComicSpice;-inkscape-font-specification:ComicSpice"
         id="tspan7244">luyện tập làm</tspan><tspan
         sodipodi:role="line"
         x="919.77332"
         y="445.84421"
         style="font-size:40px;font-style:normal;font-variant:normal;font-weight:normal;font-stretch:normal;font-family:ComicSpice;-inkscape-font-specification:ComicSpice"
         id="tspan7246">khi bay siêu tốc.</tspan></text>
    <text
       xml:space="preserve"
       style="font-size:45px;font-style:normal;font-variant:normal;font-weight:normal;font-stretch:normal;text-align:center;line-height:1.25;letter-spacing:0px;word-spacing:0px;text-anchor:middle;fill:#000000;fill-opacity:1;stroke:none;font-family:ComicSpice;-inkscape-font-specification:ComicSpice"
       x="1744.1462"
       y="279.09924"
       id="text4246-3-2-2-6-3-7-9-3-3-5-9-2"><tspan
         style="font-size:45px;font-style:normal;font-variant:normal;font-weight:normal;font-stretch:normal;font-family:ComicSpice;-inkscape-font-specification:ComicSpice"
         sodipodi:role="line"
         x="1744.1462"
         y="279.09924"
         id="tspan1045">...và xin lỗi mỗi người</tspan><tspan
         style="font-size:45px;font-style:normal;font-variant:normal;font-weight:normal;font-stretch:normal;font-family:ComicSpice;-inkscape-font-specification:ComicSpice"
         sodipodi:role="line"
         x="1748.4529"
         y="335.34924"
         id="tspan7250">đã làm phiền </tspan></text>
    <text
       xml:space="preserve"
       style="font-size:45px;font-style:normal;font-variant:normal;font-weight:normal;font-stretch:normal;text-align:center;line-height:1.25;letter-spacing:0px;word-spacing:0px;text-anchor:middle;fill:#000000;fill-opacity:1;stroke:none;font-family:ComicSpice;-inkscape-font-specification:ComicSpice"
       x="2028.5797"
       y="374.07977"
       id="text4246-3-2-2-6-3-7-9-3-3-5-9-2-6"><tspan
         style="font-size:45px;font-style:normal;font-variant:normal;font-weight:normal;font-stretch:normal;font-family:ComicSpice;-inkscape-font-specification:ComicSpice"
         sodipodi:role="line"
         x="2028.5797"
         y="374.07977"
         id="tspan1077">...và vì quần</tspan><tspan
         style="font-size:45px;font-style:normal;font-variant:normal;font-weight:normal;font-stretch:normal;font-family:ComicSpice;-inkscape-font-specification:ComicSpice"
         sodipodi:role="line"
         x="2028.5797"
         y="430.32977"
         id="tspan7254">áo của con.</tspan></text>
    <text
       xml:space="preserve"
       style="font-size:45px;font-style:normal;font-variant:normal;font-weight:normal;font-stretch:normal;text-align:center;line-height:1.25;letter-spacing:0px;word-spacing:0px;text-anchor:middle;fill:#000000;fill-opacity:1;stroke:none;font-family:ComicSpice;-inkscape-font-specification:ComicSpice"
       x="1008.217"
       y="2211.4609"
       id="text4246-3-2-2-6-3-7-9-3-3-5-9-2-6-1"><tspan
         style="font-size:45px;font-style:normal;font-variant:normal;font-weight:normal;font-stretch:normal;font-family:ComicSpice;-inkscape-font-specification:ComicSpice"
         sodipodi:role="line"
         x="1008.217"
         y="2211.4609"
         id="tspan1077-7">Thất Vị,</tspan></text>
    <text
       xml:space="preserve"
       style="font-size:45px;font-style:normal;font-variant:normal;font-weight:normal;font-stretch:normal;text-align:center;line-height:1.25;letter-spacing:0px;word-spacing:0px;text-anchor:middle;fill:#000000;fill-opacity:1;stroke:none;font-family:ComicSpice;-inkscape-font-specification:ComicSpice"
       x="1219.8654"
       y="2295.8223"
       id="text4246-3-2-2-6-3-7-9-3-3-5-9-2-6-1-9"><tspan
         style="font-size:45px;font-style:normal;font-variant:normal;font-weight:normal;font-stretch:normal;font-family:ComicSpice;-inkscape-font-specification:ComicSpice"
         x="1219.8654"
         y="2295.8223"
         sodipodi:role="line"
         id="tspan1137">phù thủy trẻ mới đến,</tspan><tspan
         style="font-size:45px;font-style:normal;font-variant:normal;font-weight:normal;font-stretch:normal;font-family:ComicSpice;-inkscape-font-specification:ComicSpice"
         x="1219.8654"
         y="2352.0723"
         sodipodi:role="line"
         id="tspan7205">nó <tspan
   style="font-style:italic;-inkscape-font-specification:ComicSpice Italic"
   id="tspan4386">thật</tspan> là bạn</tspan><tspan
         style="font-size:45px;font-style:normal;font-variant:normal;font-weight:normal;font-stretch:normal;font-family:ComicSpice;-inkscape-font-specification:ComicSpice"
         x="1219.8654"
         y="2408.3223"
         sodipodi:role="line"
         id="tspan7203">của con không?</tspan></text>
    <path
       style="color:#000000;fill:#ffffff;stroke:none;stroke-width:3;marker:none;visibility:visible;display:inline;overflow:visible;enable-background:accumulate"
       d="m 779.24217,1784.8928 c -46.01746,2.7887 -70.88904,21.7118 -73.76525,59.9342 -4.45751,59.2367 77.88823,67.3776 117.56336,62.2395 48.31446,-6.257 86.4888,-15.9412 76.07043,-64.5447 -8.96707,-41.8329 -67.99007,-60.7729 -119.86854,-57.629 z"
       id="path4378"
       inkscape:connector-curvature="0"
       sodipodi:nodetypes="sssss" />
    <text
       id="text4382"
       y="1859.1328"
       x="803.14014"
       style="font-size:45px;font-style:normal;font-variant:normal;font-weight:normal;font-stretch:normal;text-align:center;line-height:1.25;letter-spacing:0px;word-spacing:0px;text-anchor:middle;fill:#000000;fill-opacity:1;stroke:none;font-family:ComicSpice;-inkscape-font-specification:ComicSpice"
       xml:space="preserve"><tspan
         id="tspan4384"
         y="1859.1328"
         x="803.14014"
         sodipodi:role="line"
         style="font-size:45px;font-style:normal;font-variant:normal;font-weight:normal;font-stretch:normal;font-family:ComicSpice;-inkscape-font-specification:ComicSpice">Hè hè,</tspan></text>
  </g>
</svg>
