<?xml version="1.0" encoding="UTF-8" standalone="no"?>
<!-- Created with Inkscape (http://www.inkscape.org/) -->

<svg
   xmlns:dc="http://purl.org/dc/elements/1.1/"
   xmlns:cc="http://creativecommons.org/ns#"
   xmlns:rdf="http://www.w3.org/1999/02/22-rdf-syntax-ns#"
   xmlns:svg="http://www.w3.org/2000/svg"
   xmlns="http://www.w3.org/2000/svg"
   xmlns:xlink="http://www.w3.org/1999/xlink"
   xmlns:sodipodi="http://sodipodi.sourceforge.net/DTD/sodipodi-0.dtd"
   xmlns:inkscape="http://www.inkscape.org/namespaces/inkscape"
   id="svg2"
   version="1.1"
   inkscape:version="0.92.3 (2405546, 2018-03-11)"
   width="2481"
   height="3503"
   sodipodi:docname="E29P03.svg">
  <metadata
     id="metadata8">
    <rdf:RDF>
      <cc:Work
         rdf:about="">
        <dc:format>image/svg+xml</dc:format>
        <dc:type
           rdf:resource="http://purl.org/dc/dcmitype/StillImage" />
        <dc:title />
      </cc:Work>
    </rdf:RDF>
  </metadata>
  <defs
     id="defs6" />
  <sodipodi:namedview
     pagecolor="#ffffff"
     bordercolor="#666666"
     borderopacity="1"
     objecttolerance="10"
     gridtolerance="10"
     guidetolerance="10"
     inkscape:pageopacity="0"
     inkscape:pageshadow="2"
     inkscape:window-width="1856"
     inkscape:window-height="1151"
     id="namedview4"
     showgrid="false"
     inkscape:zoom="0.51260025"
     inkscape:cx="1088.9106"
     inkscape:cy="1664.6927"
     inkscape:window-x="64"
     inkscape:window-y="0"
     inkscape:window-maximized="1"
     inkscape:current-layer="layer1"
     inkscape:snap-global="false" />
  <g
     inkscape:groupmode="layer"
     id="layer2"
     inkscape:label="artwork"
     sodipodi:insensitive="true">
    <image
       sodipodi:absref="/home/fici/Desktop/P&amp;C/all/sl/../gfx_Pepper-and-Carrot_by-David-Revoy_E29P03.png"
       xlink:href="../gfx_Pepper-and-Carrot_by-David-Revoy_E29P03.png"
       y="0"
       x="0"
       id="image10"
       height="3503"
       width="2481" />
  </g>
  <g
     inkscape:groupmode="layer"
     id="layer3"
     inkscape:label="speechbubbles">
    <path
       style="color:#000000;display:inline;overflow:visible;visibility:visible;fill:#ffffff;fill-opacity:1;fill-rule:nonzero;stroke:none;stroke-width:1.03702748px;marker:none;enable-background:accumulate"
       d="m 164.56062,203.28558 c 3.80339,-26.62382 -1.34362,-57.915 43.12412,-72.94279 44.46774,-15.02779 138.55024,-17.7922 236.28341,-12.51509 52.35114,2.8267 138.93693,-0.0987 179.06092,15.19077 26.21525,9.98947 39.63902,33.31133 34.67555,72.31502 -4.96345,39.00365 -28.69215,59.31682 -77.123,68.66575 -48.43086,9.34893 -96.97671,9.03196 -139.25303,8.59783 -40.81919,-0.41917 -72.47651,3.12535 -126.77191,-2.15834 -54.2954,-5.28369 -108.09883,-14.11222 -123.82012,-27.42734 -9.84112,-8.33494 -16.64352,-16.64272 -20.85642,-24.9286 -4.2129,-8.28588 -5.83634,-16.54986 -5.31952,-24.79721 z"
       id="path4546-6"
       inkscape:connector-curvature="0"
       sodipodi:nodetypes="csssssssssc" />
    <path
       style="fill:#ffffff;stroke:none;stroke-width:1"
       d="m 240.20205,385.06686 c -58.13838,-27.45721 -59.25417,-104.2317 6.40363,-135.1495 33.25786,-15.66089 31.21798,-5.00947 31.21798,-5.00947 l -6.80518,-52.3863 c 0,0 17.27652,-20.93641 -34.72953,12.43271 -52.00605,33.36911 -110.96723,129.16604 3.9131,180.11256 z"
       id="path3063"
       inkscape:connector-curvature="0"
       sodipodi:nodetypes="cscczc" />
    <path
       style="color:#000000;display:inline;overflow:visible;visibility:visible;fill:#ffffff;fill-opacity:1;fill-rule:nonzero;stroke:none;stroke-width:1px;marker:none;enable-background:accumulate"
       d="m 1831.8907,161.70482 c 31.0929,-35.7225 436.178,-57.75144 492.3718,19.47099 35.6585,49.0024 21.7061,234.3177 -23.8244,269.827 -53.5847,41.79071 -353.0745,30.46494 -428.3962,7.17083 -71.661,-22.16198 -74.3081,-98.07112 -77.9222,-171.81292 -1.4751,-30.0969 6.6778,-88.9333 37.771,-124.6559 z"
       id="path4040-4"
       inkscape:connector-curvature="0"
       sodipodi:nodetypes="zssssz" />
    <path
       style="color:#000000;display:inline;overflow:visible;visibility:visible;fill:#ffffff;fill-opacity:1;fill-rule:nonzero;stroke:none;stroke-width:0.99999994px;marker:none;enable-background:accumulate"
       d="m 1521.7564,267.86763 c 32.5901,-37.14844 120.5249,-77.58678 199.7918,-73.40468 42.0311,2.21755 81.2853,18.77332 113.3871,43.73164 54.8474,16.58165 18.1095,-34.39627 18.1095,-34.39627 -9.1911,-10.4538 -45.1517,-22.91599 -79.6603,-28.40181 -77.1713,-12.26787 -186.4105,2.0063 -251.6281,92.47112 z"
       id="path3984"
       inkscape:connector-curvature="0"
       sodipodi:nodetypes="csccsc" />
    <path
       style="color:#000000;display:inline;overflow:visible;visibility:visible;fill:#ffffff;fill-opacity:1;fill-rule:nonzero;stroke:none;stroke-width:0.99999994px;marker:none;enable-background:accumulate"
       d="m 1899.5058,526.03993 c 3.1313,-27.92669 10.1908,-50.08154 49.0299,-62.36647 38.8392,-12.28493 109.458,-14.69995 199.051,-9.86734 47.9909,2.58861 112.0091,6.35815 150.2539,18.02744 38.245,11.6693 50.7165,31.23838 46.6866,72.1464 -4.0299,40.908 -18.1234,62.69956 -62.362,72.842 -44.2386,10.14243 -118.6224,8.63574 -134.8142,9.66758 -42.3371,-3.24918 -123.9719,1.35913 -175.8685,-7.24059 -51.8967,-8.59972 -74.0549,-30.40745 -71.9767,-93.20902 z"
       id="path4546-6-0"
       inkscape:connector-curvature="0"
       sodipodi:nodetypes="cssssscsc" />
    <path
       style="color:#000000;display:inline;overflow:visible;visibility:visible;fill:#ffffff;fill-opacity:1;fill-rule:nonzero;stroke:none;stroke-width:0.73368752px;marker:none;enable-background:accumulate"
       d="m 269.32788,1694.6564 c 2.76369,-25.5155 3.16039,-50.1494 39.715,-65.1266 36.55461,-14.9769 100.95395,-19.1235 181.84388,-15.4034 43.32899,1.9927 97.91231,4.6784 132.46378,15.035 34.55149,10.3567 49.07114,28.3843 45.52548,65.7564 -3.54565,37.372 -22.67952,53.7 -62.59251,63.2993 -39.91297,9.5993 -100.60508,12.4703 -115.21965,13.5371 -14.61456,1.0667 -59.94248,0.1476 -104.91434,-4.1686 -44.97186,-4.316 -75.73238,-7.3338 -88.9228,-19.8553 -20.67813,-15.8573 -29.1563,-34.5021 -27.89884,-53.0739 z"
       id="path4546-6-2"
       inkscape:connector-curvature="0"
       sodipodi:nodetypes="cssssssscc" />
    <path
       style="color:#000000;display:inline;overflow:visible;visibility:visible;fill:#ffffff;fill-opacity:1;fill-rule:nonzero;stroke:none;stroke-width:1px;marker:none;enable-background:accumulate"
       d="m 521.869,1649.1001 c 16.11108,-12.2669 15.86616,-23.0299 15.86632,-28.1369 10e-5,-5.107 -4.54529,-18.6761 -3.34265,-24.7247 1.02193,-4.995 3.12956,-18.1154 7.70997,-16.7463 4.58049,1.369 41.01203,26.2432 51.36903,17.3665 10.35713,-8.8768 11.10734,-20.8369 5.69423,-31.5145 -5.41309,-10.6777 -12.30128,-24.7121 -5.30101,-32.1137 7.00027,-7.4017 18.59276,-5.447 23.97197,-2.6844 5.3792,2.7626 35.49917,23.7296 45.22292,25.6243 9.7237,1.8947 23.71407,1.7027 43.50196,-19.9526 -14.8657,10.0411 -26.23617,15.9908 -34.47171,12.561 -8.23568,-3.4298 -23.77359,-8.4777 -30.56794,-16.4657 -6.79439,-7.9881 -19.06179,-24.7851 -27.96463,-25.3584 -8.9028,-0.5734 -30.44585,-2.3321 -37.17011,6.2487 -6.72431,8.5806 -9.50599,21.5672 -1.38826,37.7993 4.40691,11.1306 5.56687,16.9279 3.01621,18.7834 -2.55071,1.8553 -15.98612,-1.694 -23.40319,-10.6812 -7.41712,-8.9873 -15.67928,-14.4795 -30.30826,-9.5821 -15.5687,3.9577 -23.51473,25.3051 -27.43064,29.9131 -2.73121,11.1832 -10.25128,59.7905 -19.09981,53.7189 z"
       id="path5058"
       inkscape:connector-curvature="0"
       sodipodi:nodetypes="cscsssssscssssccscccc" />
    <path
       style="color:#000000;display:inline;overflow:visible;visibility:visible;fill:#ffffff;fill-opacity:1;fill-rule:nonzero;stroke:none;stroke-width:0.94894391px;marker:none;enable-background:accumulate"
       d="m 1770.82,1053.2341 c 6.9771,-8.2073 23.6519,-16.1303 61.6045,-20.6081 37.9524,-4.478 84.7367,-3.4365 135.3015,-2.4845 50.5647,0.952 50.3614,0.2001 96.3517,0.2078 48.9442,0.01 73.7289,7.7221 102.9376,33.4038 29.2088,25.6816 43.5564,50.3168 43.3878,82.4557 -0.1687,32.139 -6.5451,55.2101 -33.5772,76.8531 -27.0322,21.6429 -67.6144,38.114 -120.1621,41.6713 -52.5477,3.5575 -176.4796,5.498 -240.2736,-16.6429 -63.7943,-22.1412 -67.41,-37.9122 -70.654,-105.6803 -1.3239,-27.659 -2.8244,-56.347 25.0838,-89.1759 z"
       id="path4040"
       inkscape:connector-curvature="0"
       sodipodi:nodetypes="sssszzzzsss" />
    <path
       style="color:#000000;display:inline;overflow:visible;visibility:visible;fill:#ffffff;fill-opacity:1;fill-rule:nonzero;stroke:none;stroke-width:1.0653249px;marker:none;enable-background:accumulate"
       d="m 1881.5529,1219.0726 c -41.8665,122.7323 -35.3869,185.6777 42.5567,264.4098 -47.4291,-53.5721 -48.443,-140.458 -27.8836,-196.5656 17.5953,-48.018 24.528,-47.5096 24.528,-47.5096 z"
       id="path4440"
       inkscape:connector-curvature="0"
       sodipodi:nodetypes="ccscc" />
    <path
       style="color:#000000;display:inline;overflow:visible;visibility:visible;fill:#ffffff;fill-opacity:1;fill-rule:nonzero;stroke:none;stroke-width:0.90702653px;marker:none;enable-background:accumulate"
       d="m 637.09643,1948.5938 c 32.27582,-17.1309 314.84379,-15.2068 363.89097,-9.6943 37.5925,4.225 82.2354,4.4857 111.8583,19.6223 29.6227,15.1367 40.5178,38.4724 40.6662,86.0407 0.1495,47.9387 -16.216,90.6642 -51.3021,100.381 -48.4898,13.4289 -101.5813,12.6913 -149.38633,13.21 -28.6217,0.3106 -232.27034,5.8721 -276.22026,-13.4407 -50.14366,-22.0345 -71.48618,-47.0384 -74.53938,-88.4612 -2.74989,-69.989 13.9022,-95.6319 35.0326,-107.6578 z"
       id="path4546-6-28"
       inkscape:connector-curvature="0"
       sodipodi:nodetypes="csssssscc" />
    <path
       style="color:#000000;display:inline;overflow:visible;visibility:visible;fill:#ffffff;fill-opacity:1;fill-rule:nonzero;stroke:none;stroke-width:1px;marker:none;enable-background:accumulate"
       d="m 876.44075,2262.2076 c 27.46212,-10.0522 29.72719,-13.3589 28.53705,-27.8918 -1.19034,-14.5328 -9.92446,-26.5364 7.13822,-46.8557 17.0627,-20.3194 23.42581,-21.4269 33.84191,-22.8653 -10.7962,-15.1116 -24.19769,-37.3822 -37.83781,-39.5812 -13.64004,-2.1992 45.1695,-29.6441 45.1695,-29.6441 0,0 22.75583,46.3627 21.99513,70.4189 -5.53179,28.827 -31.7847,25.0277 -45.6068,37.2789 -13.82198,12.2511 -2.66123,31.1992 -11.63877,43.0536 -8.97788,11.8543 -27.71027,14.1688 -41.59843,16.0867 z"
       id="path4538"
       inkscape:connector-curvature="0"
       sodipodi:nodetypes="cccccccscc" />
    <path
       style="fill:#ffffff;fill-rule:evenodd;stroke:none;stroke-width:1px;stroke-linecap:butt;stroke-linejoin:miter;stroke-opacity:1"
       d="m 1323.8016,1984.7216 c 28.8356,-4.5331 58.196,-6.8902 29.1661,-39.0973 40.2304,15.9013 101.614,24.7011 127.3674,-9.3315 21.0416,32.4151 72.5215,18.1393 103.6089,9.2863 -22.7459,39.1099 18.3414,35.1498 48.6838,26.2972 -58.1387,44.4003 -27.6095,58.521 -4.7008,75.2441 -57.1366,-12.3727 -96.278,-0.2731 -77.1628,27.9538 -47.2189,-29.2045 -101.7044,-23.5745 -85.7998,4.2937 -11.7134,-13.2298 -10.4746,-40.9431 -73.6465,1.7915 19.9656,-44.5555 -6.2049,-39.8788 -48.5754,-17.9152 6.6404,-15.1762 46.1072,-38.2538 -20.3703,-35.8306 41.5231,-14.4273 55.9482,-25.3946 1.4294,-42.692 z"
       id="path4584"
       inkscape:connector-curvature="0"
       sodipodi:nodetypes="cccccccccccc" />
    <path
       style="color:#000000;display:inline;overflow:visible;visibility:visible;fill:#ffffff;fill-opacity:1;fill-rule:nonzero;stroke:none;stroke-width:1px;marker:none;enable-background:accumulate"
       d="m 1472.7384,2047.3416 c 0.2312,29.9074 3.2778,68.8487 8.7074,74.7102 -9.1366,-3.6864 -17.8817,-5.2616 -24.6773,-6.6173 -2.08,14.7875 9.0067,61.8116 14.5567,88.5609 -25.1053,-37.9041 -39.0273,-94.4 -38.8725,-117.7051 8.4834,5.8822 16.5056,8.882 21.4065,8.8433 5.497,-10.4938 -6.7061,-51.3933 -7.3939,-51.6226 z"
       id="path5066"
       inkscape:connector-curvature="0"
       sodipodi:nodetypes="cccccccc" />
    <path
       style="color:#000000;display:inline;overflow:visible;visibility:visible;fill:#ffffff;fill-opacity:1;fill-rule:nonzero;stroke:none;stroke-width:1px;marker:none;enable-background:accumulate"
       d="m 226.06862,2871.1843 c 32.22727,-24.4433 452.09061,-39.5168 510.33447,13.3232 36.95935,33.5303 22.49799,160.3336 -24.6936,184.631 -55.53956,28.5956 -365.95535,20.846 -444.02488,4.9068 -74.27529,-15.1645 -77.01903,-67.106 -80.76496,-117.5643 -1.5289,-20.594 6.92144,-60.8532 39.14897,-85.2967 z"
       id="path4040-4-0"
       inkscape:connector-curvature="0"
       sodipodi:nodetypes="zssssz" />
    <path
       style="color:#000000;display:inline;overflow:visible;visibility:visible;fill:#ffffff;fill-opacity:1;fill-rule:nonzero;stroke:none;stroke-width:0.90364814px;marker:none;enable-background:accumulate"
       d="m 230.18052,3075.0205 c 51.81298,-20.3173 433.89309,-47.0203 511.34792,0.6945 62.1627,38.2944 39.62389,183.1142 -26.01084,210.864 -63.23442,26.735 -385.47668,23.8079 -467.71071,5.604 -78.23739,-17.3192 -81.26914,-58.9257 -85.07324,-114.6649 -1.73597,-25.4362 15.63389,-82.1804 67.44687,-102.4976 z"
       id="path4040-4-0-6"
       inkscape:connector-curvature="0"
       sodipodi:nodetypes="zssssz" />
    <path
       style="color:#000000;display:inline;overflow:visible;visibility:visible;fill:#ffffff;fill-opacity:1;fill-rule:nonzero;stroke:none;stroke-width:0.98455727px;marker:none;enable-background:accumulate"
       d="m 1737.3387,2907.2588 c 48.4101,-43.9416 497.4949,-62.0603 581.2444,16.7794 57.3941,54.0293 42.8441,201.9263 -28.1248,232.5269 -68.3733,29.4816 -416.8041,26.2537 -505.7212,6.1798 -84.5957,-19.0985 -87.7207,-84.5142 -91.9871,-148.0622 -1.7413,-25.9363 -3.8214,-63.4823 44.5887,-107.4239 z"
       id="path4040-4-0-6-3"
       inkscape:connector-curvature="0"
       sodipodi:nodetypes="zssssz" />
    <path
       style="display:inline;fill:#ffffff;fill-rule:evenodd;stroke:none;stroke-width:1.01784873px;stroke-linecap:butt;stroke-linejoin:miter;stroke-opacity:1"
       d="m 1810.6162,3146.6884 c 43.4645,31.0625 54.4124,24.0525 53.6664,-48.1516 20.7366,78.0253 51.4133,80.4845 59.9477,42.0409 27.4539,33.0438 44.6012,23.7749 58.2151,0 5.074,30.576 15.9561,18.2374 25.3734,16.7187 3.1018,6.9177 31.0584,22.2302 74.0975,-0.6682 2.7879,9.1562 6.5435,17.0412 31.7537,-3.2589 6.5312,37.1639 27.4862,-2.0597 48.9536,-43.9964 -13.3747,51.5576 -7.8287,58.8398 9.2617,39.1079 -7.8136,21.2317 -12.487,37.6676 17.1995,1.6295 -10.1628,39.1895 16.5003,12.29 59.5384,-43.9962 -21.5284,41.6064 -78.6166,111.7309 -41.015,105.9169 -5.2439,12.2656 -23.9482,22.9525 31.7534,42.3669 -10.3987,8.3231 -42.1457,-3.8396 -15.6631,31.4012 3.5484,4.1194 -8.33,6.6351 14.3402,17.4834 -13.3825,-0.738 -21.5897,1.8985 -9.2615,17.9244 -24.428,-0.8666 -15.2879,15.9849 2.646,37.4783 -35.3749,-27.5699 -37.3216,-17.5498 -38.3689,-6.5179 -44.3354,-37.5871 -59.1304,-23.8792 -49.8746,6.4364 -19.5781,-40.9327 -65.5734,-19.4314 -67.8788,13.1176 -6.8313,-31.4757 -82.9054,-37.9839 -100.392,-3.3406 10.8381,-36.9161 -11.9227,-19.5322 -34.8019,-5.8662 12.5291,-41.4354 -19.2677,-29.2328 -59.5381,11.0806 22.5512,-45.7565 -3.0617,-29.228 -41.0153,3.259 14.3402,-44.951 -9.0138,-66.6898 -64.8303,-68.4387 26.7154,-16.2144 42.2943,-36.6198 14.5539,-73.3271 31.2716,10.8086 23.3264,-19.8442 1.2502,-59.721 34.1089,32.7305 33.3974,15.2393 20.0888,-28.6789 z"
       id="path4508"
       inkscape:connector-curvature="0"
       sodipodi:nodetypes="cccccccccccccccccccccccccccc" />
    <path
       style="color:#000000;display:inline;overflow:visible;visibility:visible;fill:#ffffff;fill-opacity:1;fill-rule:nonzero;stroke:none;stroke-width:1px;marker:none;enable-background:accumulate"
       d="m 731.14816,2946.5981 c 58.74459,-31.8831 133.6737,-22.4689 151.46532,-4.8409 -26.0629,-31.5484 -110.87474,-48.9787 -156.02352,-29.9411 -36.86673,19.522 4.5582,34.782 4.5582,34.782 z"
       id="path4480"
       inkscape:connector-curvature="0"
       sodipodi:nodetypes="cccc" />
    <path
       style="color:#000000;display:inline;overflow:visible;visibility:visible;fill:#ffffff;fill-opacity:1;fill-rule:nonzero;stroke:none;stroke-width:0.99999994px;marker:none;enable-background:accumulate"
       d="m 1721.525,3105.1967 c -45.0341,26.3761 -102.4755,18.588 -116.1149,4.0048 19.9802,26.0992 84.9979,40.5188 119.6093,24.7695 28.2623,-16.1501 -3.4944,-28.7743 -3.4944,-28.7743 z"
       id="path4480-2"
       inkscape:connector-curvature="0"
       sodipodi:nodetypes="cccc"
       inkscape:transform-center-x="-155.62645"
       inkscape:transform-center-y="34.210293" />
  </g>
  <g
     inkscape:groupmode="layer"
     id="layer1"
     inkscape:label="txt">
    <text
       xml:space="preserve"
       style="font-style:normal;font-variant:normal;font-weight:normal;font-stretch:normal;line-height:0%;font-family:Lavi;-inkscape-font-specification:Lavi;text-align:center;letter-spacing:0px;word-spacing:0px;text-anchor:middle;fill:#000000;fill-opacity:1;stroke:none"
       x="410.53223"
       y="185.28159"
       id="text4246"><tspan
         sodipodi:role="line"
         style="font-size:45px;line-height:1.20000005"
         x="410.53223"
         y="185.28159"
         id="tspan7234">Haha, to je malce</tspan><tspan
         sodipodi:role="line"
         style="font-size:45px;line-height:1.20000005"
         x="410.53223"
         y="239.28159"
         id="tspan76">težko razložiti.</tspan></text>
    <text
       xml:space="preserve"
       style="font-style:normal;font-variant:normal;font-weight:normal;font-stretch:normal;line-height:0%;font-family:Lavi;-inkscape-font-specification:Lavi;text-align:center;letter-spacing:0px;word-spacing:0px;text-anchor:middle;fill:#000000;fill-opacity:1;stroke:none"
       x="2064.7363"
       y="204.06133"
       id="text4246-3"><tspan
         sodipodi:role="line"
         style="font-size:45px;line-height:1.20000005"
         x="2064.7363"
         y="204.06133"
         id="tspan854">Torej, lahko bi se</tspan><tspan
         sodipodi:role="line"
         style="font-size:45px;line-height:1.20000005"
         x="2064.7363"
         y="258.06134"
         id="tspan81">reklo da temelji na</tspan><tspan
         sodipodi:role="line"
         style="font-size:45px;line-height:1.20000005"
         x="2064.7363"
         y="312.06134"
         id="tspan102">razumevenju osnovnih</tspan><tspan
         sodipodi:role="line"
         style="font-size:45px;line-height:1.20000005"
         x="2064.7363"
         y="366.06134"
         id="tspan126">zakonov kaotičnega</tspan><tspan
         sodipodi:role="line"
         style="font-size:45px;line-height:1.20000005"
         x="2064.7363"
         y="420.06137"
         id="tspan920">sistema…</tspan></text>
    <text
       xml:space="preserve"
       style="font-style:normal;font-variant:normal;font-weight:normal;font-stretch:normal;line-height:0%;font-family:Lavi;-inkscape-font-specification:Lavi;text-align:center;letter-spacing:0px;word-spacing:0px;text-anchor:middle;fill:#000000;fill-opacity:1;stroke:none"
       x="2118.9529"
       y="529.94165"
       id="text4246-3-5"><tspan
         sodipodi:role="line"
         style="font-size:45px;line-height:1.20000005"
         x="2118.9529"
         y="529.94165"
         id="tspan924">…od najmanjšega</tspan><tspan
         sodipodi:role="line"
         style="font-size:45px;line-height:1.20000005"
         x="2118.9529"
         y="583.94165"
         id="tspan148">k največjemu.</tspan></text>
    <text
       xml:space="preserve"
       style="font-style:normal;font-variant:normal;font-weight:normal;font-stretch:normal;line-height:0%;font-family:Lavi;-inkscape-font-specification:Lavi;text-align:center;letter-spacing:0px;word-spacing:0px;text-anchor:middle;fill:#000000;fill-opacity:1;stroke:none"
       x="471.00433"
       y="1678.5992"
       id="text4246-3-5-1"><tspan
         sodipodi:role="line"
         style="font-size:45px;line-height:1.20000005"
         x="471.00433"
         y="1678.5992"
         id="tspan931">No, to zagotovo</tspan><tspan
         sodipodi:role="line"
         style="font-size:45px;line-height:1.20000005"
         x="471.00433"
         y="1732.5992"
         id="tspan152">vse pojasni.</tspan></text>
    <text
       xml:space="preserve"
       style="font-style:normal;font-variant:normal;font-weight:normal;font-stretch:normal;line-height:0%;font-family:Lavi;-inkscape-font-specification:Lavi;text-align:center;letter-spacing:0px;word-spacing:0px;text-anchor:middle;fill:#000000;fill-opacity:1;stroke:none"
       x="1973.7006"
       y="1101.6404"
       id="text4246-3-5-1-0"><tspan
         sodipodi:role="line"
         style="font-size:45px;line-height:1.20000005"
         x="1973.7006"
         y="1101.6404"
         id="tspan77">Em, potem pa</tspan><tspan
         sodipodi:role="line"
         style="font-size:45px;line-height:1.20000005"
         x="1973.7006"
         y="1155.6404"
         id="tspan7258">naj vam pokažem</tspan><tspan
         sodipodi:role="line"
         style="font-size:45px;line-height:1.20000005"
         x="1973.7006"
         y="1209.6404"
         id="tspan156">enostaven primer.</tspan></text>
    <text
       xml:space="preserve"
       style="font-style:normal;font-variant:normal;font-weight:normal;font-stretch:normal;line-height:0%;font-family:Lavi;-inkscape-font-specification:Lavi;text-align:center;letter-spacing:0px;word-spacing:0px;text-anchor:middle;fill:#000000;fill-opacity:1;stroke:none"
       x="875.14471"
       y="2008.6261"
       id="text4246-3-5-1-0-0"><tspan
         sodipodi:role="line"
         style="font-size:45px;line-height:1.20000005"
         x="875.14471"
         y="2008.6261"
         id="tspan890">Samo trenutek, z</tspan><tspan
         sodipodi:role="line"
         style="font-size:45px;line-height:1.20000005"
         x="875.14471"
         y="2062.6262"
         id="tspan160">dobro staro Chaosah</tspan><tspan
         sodipodi:role="line"
         style="font-size:45px;line-height:1.20000005"
         x="875.14471"
         y="2116.6262"
         id="tspan87">modrostijo lahko…</tspan></text>
    <text
       xml:space="preserve"
       style="font-style:normal;font-variant:normal;font-weight:normal;font-stretch:normal;line-height:0%;font-family:Lavi;-inkscape-font-specification:Lavi;text-align:center;letter-spacing:0px;word-spacing:0px;text-anchor:middle;fill:#000000;fill-opacity:1;stroke:none"
       x="1475.0964"
       y="2022.1494"
       id="text4246-3-5-1-0-0-8"><tspan
         sodipodi:role="line"
         style="font-size:45px;line-height:1.20000005"
         x="1475.0964"
         y="2022.1494"
         id="tspan1006-2">Že vem!</tspan></text>
    <text
       xml:space="preserve"
       style="font-style:normal;font-variant:normal;font-weight:normal;font-stretch:normal;font-size:10.15074348px;line-height:0%;font-family:Lavi;-inkscape-font-specification:Lavi;text-align:center;letter-spacing:0px;word-spacing:0px;text-anchor:middle;opacity:0.5;fill:#000000;fill-opacity:1;stroke:none;stroke-width:1"
       x="1551.1268"
       y="1753.9757"
       id="text4246-37"
       transform="matrix(0.95687978,-0.3398346,0.04566864,1.0288442,0,0)"><tspan
         sodipodi:role="line"
         style="font-style:normal;font-variant:normal;font-weight:bold;font-stretch:normal;font-size:38.06529236px;line-height:1.20000005;font-family:Lavi;-inkscape-font-specification:'Lavi Bold';stroke-width:1"
         x="1551.1268"
         y="1753.9757"
         id="tspan4252-5">PRASK</tspan></text>
    <text
       xml:space="preserve"
       style="font-style:normal;font-variant:normal;font-weight:normal;font-stretch:normal;font-size:8.87699509px;line-height:0%;font-family:Lavi;-inkscape-font-specification:Lavi;text-align:center;letter-spacing:0px;word-spacing:0px;text-anchor:middle;opacity:0.5;fill:#000000;fill-opacity:1;stroke:none;stroke-width:0.99999994"
       x="1871.8158"
       y="1532.9307"
       id="text4246-37-9"
       transform="matrix(0.93691979,-0.1877366,-0.11760016,1.0908915,0,0)"><tspan
         sodipodi:role="line"
         style="font-style:normal;font-variant:normal;font-weight:bold;font-stretch:normal;font-size:33.28873062px;line-height:1.20000005;font-family:Lavi;-inkscape-font-specification:'Lavi Bold';stroke-width:0.99999994"
         x="1871.8158"
         y="1532.9307"
         id="tspan4252-5-2">PRASK</tspan></text>
    <text
       xml:space="preserve"
       style="font-style:normal;font-variant:normal;font-weight:normal;font-stretch:normal;line-height:0%;font-family:Lavi;-inkscape-font-specification:Lavi;text-align:center;letter-spacing:0px;word-spacing:0px;text-anchor:middle;fill:#000000;fill-opacity:1;stroke:none"
       x="468.62018"
       y="2927.6206"
       id="text4246-3-5-1-0-0-8-9"><tspan
         sodipodi:role="line"
         style="font-size:45px;line-height:1.20000005"
         x="468.62018"
         y="2927.6206"
         id="tspan7282">Vidite to nabodalo,</tspan><tspan
         sodipodi:role="line"
         style="font-size:45px;line-height:1.20000005"
         x="468.62018"
         y="2981.6206"
         id="tspan168">ki je bilo zataknjeno</tspan><tspan
         sodipodi:role="line"
         style="font-size:45px;line-height:1.20000005"
         x="468.62018"
         y="3035.6206"
         id="tspan7284">med tlakovci?</tspan></text>
    <text
       xml:space="preserve"
       style="font-style:normal;font-variant:normal;font-weight:normal;font-stretch:normal;line-height:0%;font-family:Lavi;-inkscape-font-specification:Lavi;text-align:center;letter-spacing:0px;word-spacing:0px;text-anchor:middle;fill:#000000;fill-opacity:1;stroke:none"
       x="467.67493"
       y="3142.5361"
       id="text4246-3-5-1-0-0-8-9-3"><tspan
         sodipodi:role="line"
         style="font-size:45px;line-height:1.20000005"
         x="467.67493"
         y="3142.5361"
         id="tspan1009">S tem ko sem ga pobrala</tspan><tspan
         sodipodi:role="line"
         style="font-size:45px;line-height:1.20000005"
         x="467.67493"
         y="3196.5361"
         id="tspan174">sem zagotovo preprečila</tspan><tspan
         sodipodi:role="line"
         style="font-size:45px;line-height:1.20000005"
         x="467.67493"
         y="3250.5361"
         id="tspan7303">da bi kdo nanj stopil.</tspan></text>
    <text
       xml:space="preserve"
       style="font-style:normal;font-variant:normal;font-weight:normal;font-stretch:normal;line-height:0%;font-family:Lavi;-inkscape-font-specification:Lavi;text-align:center;letter-spacing:0px;word-spacing:0px;text-anchor:middle;fill:#000000;fill-opacity:1;stroke:none"
       x="2028.0941"
       y="2943.0725"
       id="text4246-3-5-1-0-0-8-9-3-9"><tspan
         sodipodi:role="line"
         style="font-size:45px;line-height:1.20000005"
         x="2028.0941"
         y="2943.0725"
         id="tspan1031">Majhna pozitivna</tspan><tspan
         sodipodi:role="line"
         style="font-size:45px;line-height:1.20000005"
         x="2028.0941"
         y="2997.0725"
         id="tspan192">sprememba v velikem</tspan><tspan
         sodipodi:role="line"
         style="font-size:45px;line-height:1.20000005"
         x="2028.0941"
         y="3051.0725"
         id="tspan194">kaotičnem sistemu obstoja</tspan><tspan
         sodipodi:role="line"
         style="font-size:45px;line-height:1.20000005"
         x="2028.0941"
         y="3105.0725"
         id="tspan1037">ima lahko izjemne posledice.</tspan></text>
    <text
       xml:space="preserve"
       style="font-style:normal;font-variant:normal;font-weight:normal;font-stretch:normal;font-size:53.33333206px;line-height:0%;font-family:Lavi;-inkscape-font-specification:Lavi;text-align:center;letter-spacing:0px;word-spacing:0px;text-anchor:middle;fill:#000000;fill-opacity:1;stroke:none"
       x="2010.5122"
       y="3230.0828"
       id="text4246-3-5-1-0-0-8-9-3-9-8"><tspan
         sodipodi:role="line"
         style="font-size:53.33333206px;line-height:1.20000005"
         x="2010.5122"
         y="3230.0828"
         id="tspan1041">O tem se gre</tspan><tspan
         sodipodi:role="line"
         style="font-size:53.33333206px;line-height:1.20000005"
         x="2010.5122"
         y="3294.0828"
         id="tspan185">pri Chaosah!</tspan></text>
  </g>
</svg>
