<?xml version="1.0" encoding="UTF-8" standalone="no"?>
<svg
   xmlns:dc="http://purl.org/dc/elements/1.1/"
   xmlns:cc="http://creativecommons.org/ns#"
   xmlns:rdf="http://www.w3.org/1999/02/22-rdf-syntax-ns#"
   xmlns:svg="http://www.w3.org/2000/svg"
   xmlns="http://www.w3.org/2000/svg"
   xmlns:xlink="http://www.w3.org/1999/xlink"
   xmlns:sodipodi="http://sodipodi.sourceforge.net/DTD/sodipodi-0.dtd"
   xmlns:inkscape="http://www.inkscape.org/namespaces/inkscape"
   sodipodi:docname="E03P06.svg"
   height="3503"
   width="2481"
   inkscape:version="1.0 (4035a4f, 2020-05-01)"
   version="1.1"
   id="svg2">
  <metadata
     id="metadata8">
    <rdf:RDF>
      <cc:Work
         rdf:about="">
        <dc:format>image/svg+xml</dc:format>
        <dc:type
           rdf:resource="http://purl.org/dc/dcmitype/StillImage" />
        <dc:title></dc:title>
      </cc:Work>
    </rdf:RDF>
  </metadata>
  <defs
     id="defs6" />
  <sodipodi:namedview
     inkscape:document-rotation="0"
     inkscape:current-layer="layer1"
     inkscape:window-maximized="1"
     inkscape:window-y="23"
     inkscape:window-x="0"
     inkscape:cy="1932.4234"
     inkscape:cx="1195.1933"
     inkscape:zoom="0.36045077"
     showgrid="false"
     id="namedview4"
     inkscape:window-height="784"
     inkscape:window-width="1434"
     inkscape:pageshadow="2"
     inkscape:pageopacity="0"
     guidetolerance="10"
     gridtolerance="10"
     objecttolerance="10"
     borderopacity="1"
     bordercolor="#666666"
     pagecolor="#ffffff" />
  <g
     sodipodi:insensitive="true"
     inkscape:label="artwork"
     id="layer2"
     inkscape:groupmode="layer">
    <image
       sodipodi:absref="/Users/julienj-mauduit/Downloads/lang-4/gfx_Pepper-and-Carrot_by-David-Revoy_E03P06.png"
       xlink:href="../gfx_Pepper-and-Carrot_by-David-Revoy_E03P06.png"
       y="0"
       x="0"
       id="image10"
       height="3503"
       width="2481" />
  </g>
  <g
     inkscape:label="speechbubbles"
     id="layer3"
     inkscape:groupmode="layer">
    <path
       sodipodi:nodetypes="csssssc"
       inkscape:connector-curvature="0"
       id="path3021"
       d="m 159.77676,920.84532 c 7.57156,-91.06555 26.2786,-108.27894 74.23149,-140.48511 40.60676,-27.27236 209.54632,-25.89658 257.92265,-22.46784 62.17854,4.40698 114.83462,41.51516 138.81101,89.72634 23.9765,48.21117 -10.09527,182.13109 -65.61972,212.93269 -55.52435,30.8016 -172.32974,45.1097 -254.397,39.5646 -49.65466,-3.355 -159.7818,-50.7075 -150.94843,-179.27068 z"
       style="fill:#ffffff;stroke:none;stroke-width:0.948598" />
    <path
       sodipodi:nodetypes="csssscssssssc"
       inkscape:connector-curvature="0"
       id="path3023"
       d="m 733.88311,1085.2688 c -44.306,12.9389 -54.1082,2.7446 -64.3025,-9.8023 -10.1943,-12.5468 -18.0361,-25.0936 -28.6225,-25.8778 -10.5864,-0.7842 -23.9174,4.313 -33.3275,9.4101 -9.4102,5.0972 -16.507,-1.9213 -25.1329,-8.9789 -8.626,-7.0576 -62.695,-32.5825 -62.695,-32.5825 0,0 18.8203,41.1693 28.6225,51.7557 9.8022,10.5864 13.331,14.5073 18.4281,17.644 5.0972,3.1367 18.8203,9.0181 29.7988,6.2734 10.9785,-2.7446 19.9965,-10.5864 27.8383,-14.5072 7.8417,-3.9209 21.1532,-0.549 30.9554,7.2928 9.8022,7.8418 34.739,22.2706 51.9909,15.9972 17.2519,-6.2734 26.4464,-16.6245 26.4464,-16.6245 z"
       style="fill:#ffffff;stroke:none" />
    <path
       sodipodi:nodetypes="zsssssz"
       inkscape:connector-curvature="0"
       id="path3100"
       d="m 1264.6383,3134.7376 c 2.8988,-91.1877 162.8398,-111.1986 237.03,-116.6383 74.1901,-5.4399 271.0795,-24.4794 345.2696,48.9586 74.1902,73.4381 47.9921,109.3561 7.8366,147.9691 -34.2432,32.9279 -120.2688,51.4309 -196.1235,61.7387 -94.1889,12.799 -254.0279,-2.9221 -323.5748,-39.3096 -37.0885,-19.4049 -73.3369,-11.5309 -70.4379,-102.7185 z"
       style="fill:#ffffff;stroke:none;stroke-width:0.973865" />
    <path
       inkscape:connector-curvature="0"
       id="path3137"
       d="m 1129.7469,3139.8145 c 21.6616,12.3189 36.3515,19.4589 47.9057,15.6882 11.554,-3.7706 25.3208,-7.419 31.6023,-18.5755 6.2814,-11.1565 21.4663,-24.8883 29.6226,-24.2454 8.1564,0.643 38.0028,3.8281 51.4556,18.5689 13.4528,14.7409 24.5547,-27.4016 24.5547,-27.4016 0,0 -32.6208,-19.0608 -39.516,-20.5927 -6.8954,-1.5319 -26.3964,-10.6636 -49.457,10.3018 -23.0604,20.9655 -31.8401,40.6119 -44.8361,47.754 -12.9959,7.1421 -35.9993,8.5538 -51.3318,-1.4977 z"
       style="fill:#ffffff;stroke:none" />
  </g>
  <g
     inkscape:label="txt"
     id="layer1"
     inkscape:groupmode="layer">
    <flowRoot
       transform="translate(-52.0142,544.88269)"
       style="font-style:normal;font-variant:normal;font-weight:normal;font-stretch:normal;line-height:0.01%;font-family:Lavi;-inkscape-font-specification:Lavi;letter-spacing:0px;word-spacing:0px;fill:#000000;fill-opacity:1;stroke:none"
       id="flowRoot2987"
       xml:space="preserve"><flowRegion
         id="flowRegion2989"><rect
           style="font-style:normal;font-variant:normal;font-weight:normal;font-stretch:normal;font-family:Lavi;-inkscape-font-specification:Lavi"
           y="265.53046"
           x="120.55251"
           height="308.9158"
           width="676.91821"
           id="rect2991" /></flowRegion><flowPara
         id="flowPara43"
         style="font-size:48px;line-height:1.25;text-align:center;text-anchor:middle">... pus quiques </flowPara><flowPara
         id="flowPara47"
         style="font-size:48px;line-height:1.25;text-align:center;text-anchor:middle">écales d'oeu d'la </flowPara><flowPara
         id="flowPara49"
         style="font-size:48px;line-height:1.25;text-align:center;text-anchor:middle">hoellaund </flowPara><flowPara
         id="flowPara51"
         style="font-size:48px;line-height:1.25;text-align:center;text-anchor:middle">dés volcauns... </flowPara><flowPara
         id="flowPara3033"
         style="font-size:48px;line-height:1.25;text-align:center;text-anchor:middle" /></flowRoot>
    <flowRoot
       transform="translate(1143.8387,2797.6115)"
       style="font-style:normal;font-variant:normal;font-weight:normal;font-stretch:normal;line-height:0.01%;font-family:Lavi;-inkscape-font-specification:Lavi;letter-spacing:0px;word-spacing:0px;fill:#000000;fill-opacity:1;stroke:none"
       id="flowRoot2987-0"
       xml:space="preserve"><flowRegion
         id="flowRegion2989-9"><rect
           style="font-style:normal;font-variant:normal;font-weight:normal;font-stretch:normal;font-family:Lavi;-inkscape-font-specification:Lavi"
           y="265.53046"
           x="120.55251"
           height="205.81171"
           width="626.15924"
           id="rect2991-9" /></flowRegion><flowPara
         id="flowPara3117"
         style="font-size:48px;line-height:1.25;text-align:center;text-anchor:middle"> ... Et pouor finin: </flowPara><flowPara
         id="flowPara53"
         style="font-size:48px;line-height:1.25;text-align:center;text-anchor:middle">déeus-treis filots d'laé d'eune janne vaque-dragon.</flowPara><flowPara
         id="flowPara3044"
         style="font-size:48px;line-height:1.25;text-align:center;text-anchor:middle"> gouttes de lait d'une</flowPara><flowPara
         id="flowPara3046"
         style="font-size:48px;line-height:1.25;text-align:center;text-anchor:middle">jeune DragonVache </flowPara></flowRoot>
  </g>
</svg>
