<?xml version="1.0" encoding="UTF-8" standalone="no"?>
<svg
   xmlns:dc="http://purl.org/dc/elements/1.1/"
   xmlns:cc="http://creativecommons.org/ns#"
   xmlns:rdf="http://www.w3.org/1999/02/22-rdf-syntax-ns#"
   xmlns:svg="http://www.w3.org/2000/svg"
   xmlns="http://www.w3.org/2000/svg"
   xmlns:xlink="http://www.w3.org/1999/xlink"
   xmlns:sodipodi="http://sodipodi.sourceforge.net/DTD/sodipodi-0.dtd"
   xmlns:inkscape="http://www.inkscape.org/namespaces/inkscape"
   id="svg2"
   version="1.1"
   inkscape:version="1.0 (4035a4f, 2020-05-01)"
   width="2481"
   height="3503"
   sodipodi:docname="E04P01.svg">
  <sodipodi:namedview
     pagecolor="#ffffff"
     bordercolor="#666666"
     inkscape:pageopacity="0"
     inkscape:pageshadow="2"
     inkscape:window-width="1440"
     inkscape:window-height="784"
     id="namedview70"
     showgrid="false"
     inkscape:zoom="0.37207224"
     inkscape:cx="1159.0516"
     inkscape:cy="261.2468"
     inkscape:current-layer="layer1"
     inkscape:document-rotation="0"
     inkscape:window-x="0"
     inkscape:window-y="23"
     inkscape:window-maximized="0" />
  <metadata
     id="metadata8">
    <rdf:RDF>
      <cc:Work
         rdf:about="">
        <dc:format>image/svg+xml</dc:format>
        <dc:type
           rdf:resource="http://purl.org/dc/dcmitype/StillImage" />
        <dc:title />
      </cc:Work>
    </rdf:RDF>
  </metadata>
  <defs
     id="defs6" />
  <sodipodi:namedview
     pagecolor="#ffffff"
     bordercolor="#666666"
     borderopacity="1"
     objecttolerance="10"
     gridtolerance="10"
     guidetolerance="10"
     inkscape:pageopacity="0"
     inkscape:pageshadow="2"
     inkscape:window-width="1920"
     inkscape:window-height="1025"
     id="namedview4"
     showgrid="false"
     inkscape:zoom="0.47669614"
     inkscape:cx="1286.2985"
     inkscape:cy="939.97438"
     inkscape:window-x="0"
     inkscape:window-y="26"
     inkscape:window-maximized="1"
     inkscape:current-layer="layer1" />
  <g
     inkscape:groupmode="layer"
     id="layer2"
     inkscape:label="artwork"
     sodipodi:insensitive="true">
    <image
       sodipodi:absref="/Users/julienj-mauduit/Downloads/lang-6/gfx_Pepper-and-Carrot_by-David-Revoy_E04P01.png"
       xlink:href="../gfx_Pepper-and-Carrot_by-David-Revoy_E04P01.png"
       width="2481"
       height="3503"
       id="image10"
       x="0"
       y="0" />
  </g>
  <g
     inkscape:groupmode="layer"
     id="layer3"
     inkscape:label="speechbubbles">
    <path
       style="fill:#ffffff;stroke:none;stroke-width:1.07137px;stroke-linecap:butt;stroke-linejoin:miter;stroke-opacity:1"
       d="m 479.75968,2431.174 c -4.95992,-51.2388 -9.91984,-155.7868 0,-178.5596 6.31263,0 16.68338,-0.5175 16.68338,-0.5175 l -9.91985,-27.9485 18.03608,6.7284 9.01804,-9.3162 -5.86173,-15.5268 16.23247,7.2458 8.11624,-15.0094 13.52706,10.8689 6.76353,-15.5269 14.87976,12.4216 27.50502,-6.7285 c 67.49435,-2.7424 134.23399,-6.9287 205.16039,-3.1053 l 21.6433,-9.8337 6.31262,14.4917 11.27255,0.5176 10.82165,-6.2108 10.82165,6.7283 36.07215,-4.658 11.72345,13.4567 13.97797,-11.3865 4.50901,15.0094 13.97797,-9.3161 2.25451,9.8337 33.36674,-11.3865 -4.95992,23.2904 c 0,0 24.79961,10.3514 42.38478,2.5878 1.8036,5.1758 -0.9018,14.4919 -0.9018,14.4919 l 9.018,5.1756 v 13.4567 c 0,0 18.0361,17.5971 19.8397,22.2553 1.8036,4.658 5.8617,131.9788 -0.4509,152.1637 4.9599,0 8.1163,3.1053 7.6654,6.2108 -0.4509,3.1054 -4.0582,11.9039 -4.0582,11.9039 0,0 4.96,8.281 3.6073,10.8688 -1.3528,2.588 -4.0582,6.2109 -4.0582,6.2109 0,0 4.5091,6.7283 3.1563,8.7985 -1.3527,2.0703 -9.018,5.6932 -12.1743,7.7635 3.6072,4.1405 6.7635,12.9391 4.0581,15.0094 -2.7054,2.0702 -9.018,3.6229 -9.018,3.6229 l -2.2545,5.1756 c 0,0 -0.9018,10.3514 -3.1563,10.8689 -2.2546,0.5176 -11.7235,-5.1757 -13.0762,-4.1406 -1.3527,1.0351 -4.9599,9.3162 -7.2144,9.3162 -2.2545,0 -9.46898,-9.8337 -9.46898,-9.8337 -0.96362,2.2121 -120.04069,5.9245 -129.85976,3.623 -9.87862,-2.3155 -48.69741,3.1054 -54.10824,3.1054 -5.41082,0 -27.95592,-1.5527 -31.11223,-2.5878 -3.15632,-1.0352 -15.78157,-4.6582 -20.29059,-4.1406 -4.50902,0.5175 -13.07616,5.6933 -18.03608,5.6933 -4.95992,0 -33.36674,-3.1054 -38.77757,-2.5879 -5.41082,0.5176 -30.21043,2.5879 -34.26854,2.5879 -4.05812,0 -49.59922,-5.6933 -54.55914,-6.2109 -4.95992,-0.5176 -26.60322,5.1757 -30.66133,4.6582 -4.05812,-0.5176 -27.05412,-5.1758 -34.26855,-4.6582 -7.21443,0.5176 -34.26855,-6.7283 -36.07216,-6.2107 -1.80361,0.5175 -4.52726,1.0339 -21.19239,0 8.56714,-7.7635 5.86172,-14.4918 5.86172,-14.4918 l -6.31262,-4.1406 0.9018,-4.658 -13.07616,-7.7635 1.80361,-5.6931 0.9018,-9.3163 -13.07615,-7.2458 20.74149,-20.7026 z"
       id="path3894"
       inkscape:connector-curvature="0"
       sodipodi:nodetypes="cccccccccccccccccccccccccccccccscscccccsccssscssssssssssscccccccccc" />
    <path
       style="fill:#ffffff;stroke:none;stroke-width:1px;stroke-linecap:butt;stroke-linejoin:miter;stroke-opacity:1;color:#000000;fill-opacity:1;fill-rule:nonzero;marker:none;visibility:visible;display:inline;overflow:visible;enable-background:accumulate"
       d="m 818.04625,2447.3394 c 1.81385,78.9025 3.6277,268.4498 28.11468,311.9822 24.48697,43.5324 33.55622,70.7401 98.85481,79.8094 -68.92629,-32.6493 -89.78557,-105.2033 -96.13404,-230.3589 -6.34847,-125.1557 43.5324,-212.2205 43.5324,-212.2205 l -68.01937,-3.6277 z"
       id="path3896"
       inkscape:connector-curvature="0" />
    <path
       style="color:#000000;display:inline;overflow:visible;visibility:visible;fill:#ffffff;fill-opacity:1;fill-rule:nonzero;stroke:none;stroke-width:1.16538px;marker:none;enable-background:accumulate"
       d="m 674.53747,2536.6981 c 12.12498,-4.9189 12.12498,-14.7568 7.0729,-27.3274 3.53647,-0.5465 15.66143,2.7328 13.6406,-6.012 3.03125,-1.0932 7.07291,-1.0932 4.54686,-8.1983 3.53647,-0.5466 13.6406,2.1861 11.11458,-4.9189 6.56769,-1.6396 68.20297,-3.8258 90.4321,-1.0931 22.2291,2.7327 81.84356,0.5465 87.90605,0 6.06249,-0.5465 52.54155,0 56.58322,0 4.04165,0 20.20828,6.012 25.26035,9.2913 7.57811,-4.3724 17.17705,-2.7328 17.17705,-2.7328 0,0 0,18.5827 1.51563,20.2223 1.51561,1.6396 9.09372,-2.7327 10.60939,0 1.5156,2.7328 -10.60939,19.1293 -9.09378,19.6757 1.51562,0.5466 13.64058,6.5586 13.64058,8.7448 0,2.1862 -9.59891,12.5705 -9.09371,13.1171 0.50521,0.5466 8.08331,7.6518 7.07291,13.6638 9.0938,2.1862 13.6406,7.6516 16.1666,11.4774 -4.0416,7.1052 -13.6406,13.6638 -15.6614,17.4896 2.526,6.5586 9.0938,15.3034 7.578,18.0361 -1.5156,2.7327 -8.5884,2.1862 -13.64048,-1.093 2.02081,8.1981 1.51561,73.7838 -7.57811,97.832 2.52603,5.4654 7.07289,9.2912 8.08331,14.7568 1.01041,5.4655 -2.02083,14.2102 -1.51562,16.9429 0.5052,2.7327 4.5469,12.0242 4.0417,16.3965 -0.50526,4.3724 -2.52608,8.7447 -5.55732,11.4774 -0.50522,4.3725 2.02082,7.6518 -0.50522,8.7449 -2.52604,1.0931 -12.63018,-4.919 -15.15621,-3.826 -2.52605,1.0932 -0.50521,15.85 -3.03125,18.5827 -2.52603,2.7328 -57.08841,9.8378 -69.21339,3.8259 -12.63017,-1.0931 -106.09353,22.4085 -144.99448,13.1172 -4.54686,-1.0931 -3.53645,-4.919 -7.0729,-6.0121 -3.53645,-1.0932 -5.55729,2.7328 -13.1354,1.6397 -6.56768,-5.4656 -15.1562,-6.0121 -28.79681,-32.2464 -4.54685,0 -12.12496,2.7327 -13.13539,-1.6396 -1.01041,-4.3724 0.50522,-7.6517 0.50522,-7.6517 0,0 -5.05208,1.6397 -5.55728,-1.6396 -0.50521,-3.2793 6.5677,-12.024 6.06249,-13.6637 -0.50521,-1.6397 -14.65101,3.2793 -15.15622,-0.5466 -0.5052,-3.8259 5.55727,-13.1171 5.05207,-15.8498 -0.50522,-2.7328 -25.26037,-44.8171 -17.17705,-172.7092 4.04167,-1.6396 8.08331,-3.2793 7.57811,-5.4655 -0.50521,-2.1863 -6.5677,-6.5586 -6.5677,-6.5586 z"
       id="path3915"
       inkscape:connector-curvature="0" />
    <path
       style="color:#000000;fill:#ffffff;fill-opacity:1;fill-rule:nonzero;stroke:none;stroke-width:1px;marker:none;visibility:visible;display:inline;overflow:visible;enable-background:accumulate"
       d="m 2161.9635,2759.6873 c 75.5442,-65.8317 129.3057,-115.4309 140.8923,-189.8298 11.5865,-74.3988 -1.8538,-91.5331 -5.5615,-100.5511 -12.977,1.8036 -33.8327,13.978 -38.0039,19.3888 1.8539,-19.8397 -11.5865,-82.5151 -31.9788,-107.3147 -20.3923,-24.7996 -39.3943,-7.6653 -39.3943,-7.6653 0,0 61.177,94.6894 55.1519,157.8157 12.0501,-12.6253 34.7597,-36.974 40.3212,-32.465 5.5615,4.5091 8.3423,64.9299 -3.7077,92.4349 -12.05,27.5051 -38.9308,101.9039 -117.7192,168.1865 z"
       id="path3923"
       inkscape:connector-curvature="0" />
    <path
       style="fill:#ffffff;stroke:none;stroke-width:1px;stroke-linecap:butt;stroke-linejoin:miter;stroke-opacity:1;color:#000000;fill-opacity:1;fill-rule:nonzero;marker:none;visibility:visible;display:inline;overflow:visible;enable-background:accumulate"
       d="m 1846.2,2353.2992 c 0,0 37.5681,7.7521 43.5312,11.9264 5.9632,4.1742 29.8159,-2.9816 -3.5779,44.7238 33.9901,-15.5043 60.8244,-32.2012 73.3471,-30.4122 -5.3668,11.9263 -11.33,27.4306 -11.33,27.4306 0,0 31.0085,-12.5227 36.9717,-11.9263 -1.789,5.3668 2.3853,16.1005 2.3853,16.1005 l 16.1005,-2.3852 4.7706,14.3116 c 0,0 64.4023,-25.0454 72.1544,-22.0638 7.7522,2.9816 -3.5779,34.5865 -3.5779,34.5865 l 17.2933,-12.5227 8.3484,0.5963 20.2748,-20.2748 6.5595,11.33 4.7705,-4.1742 9.5411,4.7706 22.6601,-17.2933 7.7521,1.789 19.6785,27.4306 10.7338,-12.5227 5.3668,-0.5963 35.1828,1.1927 2.3852,-2.9816 5.9632,-1.1927 8.3485,-5.9631 4.7705,-13.7154 10.1374,0 20.2748,12.5227 9.5411,8.3485 7.1558,-20.2748 4.1742,-2.3853 1.1927,-12.5227 23.2564,9.5411 7.1558,5.9632 1.7889,-10.7337 7.7522,-0.5964 14.3116,4.1743 15.5043,11.33 23.2564,12.5227 -35.1828,-45.9165 -8.3484,-8.3484 30.4122,-8.3485 0,-95.4108 -11.9264,-131.19 -519.3928,6.5595 -13.119,86.4661 0.5963,76.925 -2.9816,25.6417 26.238,8.9448 -25.6417,13.7153 16.1006,9.541 z"
       id="path3931"
       inkscape:connector-curvature="0" />
  </g>
  <g
     inkscape:groupmode="layer"
     id="layer1"
     inkscape:label="txt">
    <flowRoot
       xml:space="preserve"
       id="flowRoot2987"
       style="font-style:normal;font-variant:normal;font-weight:normal;font-stretch:normal;line-height:0.01%;font-family:Lavi;-inkscape-font-specification:Lavi;letter-spacing:0px;word-spacing:0px;fill:#000000;fill-opacity:1;stroke:none"
       transform="translate(52.552065,-126.62151)"><flowRegion
         id="flowRegion2989"><rect
           id="rect2991"
           width="973.52362"
           height="213.03587"
           x="120.55251"
           y="265.53046"
           style="font-style:normal;font-variant:normal;font-weight:normal;font-stretch:normal;font-family:Lavi;-inkscape-font-specification:Lavi" /></flowRegion><flowPara
         id="flowPara2993"
         style="font-size:48px;line-height:1.25">La nyit d'avaunt lé concous dé pètioun</flowPara><flowPara
         id="flowPara2995"
         style="font-size:48px;line-height:1.25">        2h00</flowPara></flowRoot>
    <flowRoot
       xml:space="preserve"
       id="flowRoot2987-4"
       style="font-style:normal;font-variant:normal;font-weight:normal;font-stretch:normal;line-height:0.01%;font-family:Lavi;-inkscape-font-specification:Lavi;text-align:center;letter-spacing:0px;word-spacing:0px;text-anchor:middle;fill:#000000;fill-opacity:1;stroke:none"
       transform="translate(341.31241,1949.0059)"><flowRegion
         id="flowRegion2989-5"><rect
           id="rect2991-7"
           width="602.40173"
           height="310.73996"
           x="120.55251"
           y="265.53046"
           style="font-style:normal;font-variant:normal;font-weight:normal;font-stretch:normal;font-family:Lavi;-inkscape-font-specification:Lavi;text-align:center;text-anchor:middle" /></flowRegion><flowPara
         style="font-size:48px;line-height:1.25;text-align:center;text-anchor:middle"
         id="flowPara3033">Il a fallu l'temps ...</flowPara><flowPara
         style="font-size:48px;line-height:1.25;text-align:center;text-anchor:middle"
         id="flowPara3794">Avec ch'te médechène, persoune, pin même Saffron pourra me tenin heune !</flowPara><flowPara
         style="font-size:48px;line-height:1.25;text-align:center;text-anchor:middle"
         id="flowPara3796">not even Saffron, can</flowPara><flowPara
         style="font-size:48px;line-height:1.25;text-align:center;text-anchor:middle"
         id="flowPara3798">match my skill !</flowPara></flowRoot>
    <flowRoot
       xml:space="preserve"
       id="flowRoot2987-4-8"
       style="font-style:normal;font-variant:normal;font-weight:normal;font-stretch:normal;line-height:0.01%;font-family:Lavi;-inkscape-font-specification:Lavi;text-align:center;letter-spacing:0px;word-spacing:0px;text-anchor:middle;fill:#000000;fill-opacity:1;stroke:none"
       transform="matrix(0.96141471,0,0,0.91963896,439.01845,2291.8352)"><flowRegion
         id="flowRegion2989-5-9"><rect
           id="rect2991-7-4"
           width="602.40173"
           height="310.73996"
           x="120.55251"
           y="265.53046"
           style="font-style:normal;font-variant:normal;font-weight:normal;font-stretch:normal;font-family:Lavi;-inkscape-font-specification:Lavi;text-align:center;text-anchor:middle" /></flowRegion><flowPara
         style="font-size:48px;line-height:1.25;text-align:center;text-anchor:middle"
         id="flowPara3847">J'i quaund </flowPara><flowPara
         style="font-size:48px;line-height:1.25;text-align:center;text-anchor:middle"
         id="flowPara622">même besouen </flowPara><flowPara
         style="font-size:48px;line-height:1.25;text-align:center;text-anchor:middle"
         id="flowPara624">dé faire </flowPara><flowPara
         style="font-size:48px;line-height:1.25;text-align:center;text-anchor:middle"
         id="flowPara626">eun échais</flowPara><flowPara
         style="font-size:48px;line-height:1.25;text-align:center;text-anchor:middle"
         id="flowPara3849">...</flowPara></flowRoot>
    <flowRoot
       xml:space="preserve"
       id="flowRoot2987-4-8-2"
       style="font-style:normal;font-variant:normal;font-weight:normal;font-stretch:normal;line-height:0.01%;font-family:Lavi;-inkscape-font-specification:Lavi;text-align:center;letter-spacing:0px;word-spacing:0px;text-anchor:middle;fill:#000000;fill-opacity:1;stroke:none"
       transform="matrix(1.4179226,0,0,1.4152108,1527.4333,1745.8167)"><flowRegion
         id="flowRegion2989-5-9-2"><rect
           id="rect2991-7-4-2"
           width="602.40173"
           height="310.73996"
           x="120.55251"
           y="265.53046"
           style="font-style:normal;font-variant:normal;font-weight:normal;font-stretch:normal;font-family:Lavi;-inkscape-font-specification:Lavi;text-align:center;text-anchor:middle" /></flowRegion><flowPara
         style="font-size:48px;line-height:1.25;text-align:center;text-anchor:middle"
         id="flowPara3798-1-6"> </flowPara><flowPara
         style="font-size:48px;line-height:1.25;text-align:center;text-anchor:middle"
         id="flowPara3849-2">CAAAAAAAA~</flowPara><flowPara
         style="font-size:48px;line-height:1.25;text-align:center;text-anchor:middle"
         id="flowPara3892">~AAARROT !!!</flowPara></flowRoot>
  </g>
</svg>
