<?xml version="1.0" encoding="UTF-8" standalone="no"?>
<svg
   id="svg2"
   version="1.1"
   inkscape:version="1.1 (c68e22c387, 2021-05-23)"
   width="2481"
   height="3503"
   sodipodi:docname="E35P05.svg"
   xmlns:inkscape="http://www.inkscape.org/namespaces/inkscape"
   xmlns:sodipodi="http://sodipodi.sourceforge.net/DTD/sodipodi-0.dtd"
   xmlns:xlink="http://www.w3.org/1999/xlink"
   xmlns="http://www.w3.org/2000/svg"
   xmlns:svg="http://www.w3.org/2000/svg"
   xmlns:rdf="http://www.w3.org/1999/02/22-rdf-syntax-ns#"
   xmlns:cc="http://creativecommons.org/ns#"
   xmlns:dc="http://purl.org/dc/elements/1.1/">
  <metadata
     id="metadata8">
    <rdf:RDF>
      <cc:Work
         rdf:about="">
        <dc:format>image/svg+xml</dc:format>
        <dc:type
           rdf:resource="http://purl.org/dc/dcmitype/StillImage" />
        <dc:title />
      </cc:Work>
    </rdf:RDF>
  </metadata>
  <defs
     id="defs6" />
  <sodipodi:namedview
     pagecolor="#ffffff"
     bordercolor="#666666"
     borderopacity="1"
     objecttolerance="10"
     gridtolerance="10"
     guidetolerance="10"
     inkscape:pageopacity="0"
     inkscape:pageshadow="2"
     inkscape:window-width="1920"
     inkscape:window-height="1017"
     id="namedview4"
     showgrid="false"
     inkscape:zoom="0.40000002"
     inkscape:cx="1081.2499"
     inkscape:cy="2476.2499"
     inkscape:window-x="-8"
     inkscape:window-y="-8"
     inkscape:window-maximized="1"
     inkscape:current-layer="layer1"
     inkscape:document-rotation="0"
     inkscape:snap-global="false"
     inkscape:pagecheckerboard="0" />
  <g
     inkscape:groupmode="layer"
     id="layer2"
     inkscape:label="artwork"
     sodipodi:insensitive="true">
    <image
       xlink:href="../gfx_Pepper-and-Carrot_by-David-Revoy_E35P05.png"
       y="0"
       x="0"
       id="image10"
       height="3503"
       width="2481" />
  </g>
  <g
     inkscape:groupmode="layer"
     id="layer3"
     inkscape:label="speechbubbles">
    <path
       style="color:#000000;display:inline;overflow:visible;visibility:visible;fill:#ffffff;fill-opacity:1;fill-rule:nonzero;stroke:none;stroke-width:1.18208px;marker:none;enable-background:accumulate"
       d="m 1285.1895,3036.6191 c 2.5184,-35.2866 13.8065,-34.9849 52.6727,-3.067 -10.2559,-62.9304 41.9257,-65.9059 90.5583,-72.2891 -5.5777,-17.6816 -27.1105,-37.9887 7.7966,-49.0096 -18.7495,-10.5394 -18.8102,-24.5601 -2.1953,-41.6866 -38.8155,8.1611 -53.4157,3.1364 -7.5069,-34.8365 -43.3296,21.5729 -84.8235,40.777 -68.482,-14.6168 -16.4077,7.5397 -25.5617,51.3953 -89.8244,-28.8246 -0.7275,36.9373 -65.2094,67.3285 -96.8761,19.6447 16.0313,39.7309 -36.5187,85.3245 -61.1599,53.4256 14.6383,22.2732 2.5397,44.0543 -15.9066,47.7038 52.3726,5.8931 41.866,19.3944 5.6128,41.7916 107.8711,3.496 48.5069,25.7471 49.0357,40.8097 65.668,-13.8535 61.4477,14.2909 70.8494,35.1552 62.5369,-63.6402 43.5377,-52.2733 65.4257,5.7996 z"
       id="path3549-3-1"
       inkscape:connector-curvature="0"
       sodipodi:nodetypes="ccccccccccccccc" />
    <path
       style="color:#000000;display:inline;overflow:visible;visibility:visible;fill:#ffffff;fill-opacity:1;fill-rule:nonzero;stroke:none;stroke-width:1.16828px;marker:none;enable-background:accumulate"
       d="m 1225.0072,2938.758 c -7.3609,30.0563 -48.8766,32.5766 -64.1595,26.4672 30.8071,33.6236 29.7331,54.5143 -12.0943,57.758 70.1453,60.5985 22.4144,70.9626 1.5172,66.7946 55.0769,20.8835 58.0108,70.3701 20.6293,72.7463 63.3056,0.8888 42.5884,42.3617 45.2569,75.3924 5.3666,-15.4994 30.8626,-62.6866 32.3968,-10.1468 34.6431,-38.979 76.489,-58.1159 96.3124,5.2157 16.8713,-44.1297 33.6921,-62.7807 32.3972,-10.1468 41.8017,-68.457 79.3665,-43.8156 117.1538,-24.4672 -8.6023,-20.9938 -31.326,-53.1645 43.1895,-44.9659 -26.2215,-19.8306 -27.3176,-33.5516 30.8223,-42.9171 -32.5341,-12.3711 -38.5299,-25.1317 21.8785,-38.8641 -45.9674,-1.3283 -88.8321,-4.0497 -34.9023,-50.8811 -16.9194,-1.1331 -57.0622,37.9442 -38.346,-76.4165 -29.0935,36.6108 -60.1336,56.8175 -99.061,-19.8729 -18.4224,38.313 -50.3754,57.2718 -64.2764,9.4158 -4.9966,20.4019 -25.7141,28.0747 -43.3019,29.0051 -6.8011,-8.1039 -13.8161,-19.1113 -21.136,-33.5326 -11.9641,30.281 -29.8611,50.7315 -64.2765,9.4159 z"
       id="path3549-3-7"
       inkscape:connector-curvature="0"
       sodipodi:nodetypes="cccccccccccccccccccc" />
    <path
       style="fill:#ffffff;fill-rule:evenodd;stroke:none;stroke-width:1.65188px;stroke-linecap:butt;stroke-linejoin:miter;stroke-opacity:1"
       d="m 1204.7404,2519.8617 c 50.5917,78.9459 60.9555,113.3414 65.2028,134.3512 -41.2056,-22.133 -58.2095,-26.0517 -64.1574,-16.5377 -5.9478,9.5142 78.8131,323.8736 78.8131,323.8736 l 27.3427,-77.0906 c 0,0 -45.9792,-134.5245 -55.8759,-162.7161 -9.897,-28.1916 -17.6794,-59.5815 -17.6794,-59.5815 0,0 32.7448,22.5895 42.5581,23.1114 9.813,0.5218 45.9229,-15.5328 -76.204,-165.4103 z"
       id="path891"
       inkscape:connector-curvature="0"
       inkscape:transform-center-x="-51.96084"
       inkscape:transform-center-y="220.66697"
       sodipodi:nodetypes="ccsccscsc" />
    <path
       style="fill:#ffffff;fill-rule:evenodd;stroke:none;stroke-width:1px;stroke-linecap:butt;stroke-linejoin:miter;stroke-opacity:1"
       d="m 2185.1028,3280.612 c 1.0808,-19.455 14.0506,-55.122 33.5054,-61.607 19.4547,-6.485 73.4956,-6.485 84.3038,-3.242 10.8082,3.242 28.1013,27.02 32.4246,36.748 4.3233,9.727 16.2123,44.313 -3.2424,58.364 -19.4548,14.051 -38.9095,24.859 -59.4451,23.778 -20.5356,-1.081 -61.6067,-8.647 -71.334,-21.616 -9.7274,-12.97 -16.2123,-32.425 -16.2123,-32.425 z"
       id="path1355"
       inkscape:connector-curvature="0" />
    <path
       style="fill:#ffffff;fill-rule:evenodd;stroke:none;stroke-width:1.40704px;stroke-linecap:butt;stroke-linejoin:miter;stroke-opacity:1"
       d="m 2210.3858,3260.9854 c 0,0 -9.9729,30.1184 -20.5324,37.3461 -10.5597,7.2275 -37.179,18.9359 -56.6531,11.8546 35.6758,21.6634 55.6021,14.7863 64.3759,10.0326 8.7751,-4.7533 39.4153,-35.3687 39.4153,-35.3687 z"
       id="path1367"
       inkscape:connector-curvature="0" />
  </g>
  <g
     inkscape:groupmode="layer"
     id="layer1"
     inkscape:label="txt">
    <text
       xml:space="preserve"
       style="font-style:normal;font-variant:normal;font-weight:normal;font-stretch:normal;font-size:64px;line-height:1.25;font-family:Lavi;-inkscape-font-specification:Lavi;text-align:center;letter-spacing:0px;word-spacing:0px;text-anchor:middle;fill:#000000;fill-opacity:1;stroke:none"
       x="1777.5028"
       y="2937.1594"
       id="text4246-3-2-2"
       transform="skewX(-9.8231434)"><tspan
         style="font-style:normal;font-variant:normal;font-weight:bold;font-stretch:normal;font-size:64px;font-family:Lavi;-inkscape-font-specification:'Lavi Bold'"
         sodipodi:role="line"
         x="1787.5028"
         y="2937.1594"
         id="tspan905">DROGA! </tspan></text>
    <text
       xml:space="preserve"
       style="font-style:normal;font-variant:normal;font-weight:normal;font-stretch:normal;font-size:56px;line-height:1.25;font-family:Lavi;-inkscape-font-specification:Lavi;text-align:center;letter-spacing:0px;word-spacing:0px;text-anchor:middle;fill:#000000;fill-opacity:1;stroke:none"
       x="1354.6593"
       y="3061.1643"
       id="text4246-3-2-2-7"><tspan
         style="font-style:normal;font-variant:normal;font-weight:bold;font-stretch:normal;font-size:56px;font-family:Lavi;-inkscape-font-specification:'Lavi Bold'"
         sodipodi:role="line"
         x="1354.6593"
         y="3061.1643"
         id="tspan905-5">O QUE</tspan><tspan
         style="font-style:normal;font-variant:normal;font-weight:bold;font-stretch:normal;font-size:56px;font-family:Lavi;-inkscape-font-specification:'Lavi Bold'"
         sodipodi:role="line"
         x="1354.6593"
         y="3131.2092"
         id="tspan935">EU FAÇO?!</tspan></text>
    <text
       xml:space="preserve"
       style="font-style:normal;font-variant:normal;font-weight:normal;font-stretch:normal;font-size:56px;line-height:1.25;font-family:Lavi;-inkscape-font-specification:Lavi;text-align:center;letter-spacing:0px;word-spacing:0px;text-anchor:middle;fill:#000000;fill-opacity:1;stroke:none"
       x="2261.2617"
       y="3292.04"
       id="text4246-3-2-2-7-3"><tspan
         style="font-style:normal;font-variant:normal;font-weight:bold;font-stretch:normal;font-size:56px;font-family:Lavi;-inkscape-font-specification:'Lavi Bold'"
         sodipodi:role="line"
         x="2261.2617"
         y="3292.04"
         id="tspan935-6">Ah!</tspan></text>
  </g>
</svg>
