<?xml version="1.0" encoding="UTF-8" standalone="no"?>
<!-- Created with Inkscape (http://www.inkscape.org/) -->

<svg
   xmlns:dc="http://purl.org/dc/elements/1.1/"
   xmlns:cc="http://creativecommons.org/ns#"
   xmlns:rdf="http://www.w3.org/1999/02/22-rdf-syntax-ns#"
   xmlns:svg="http://www.w3.org/2000/svg"
   xmlns="http://www.w3.org/2000/svg"
   xmlns:xlink="http://www.w3.org/1999/xlink"
   xmlns:sodipodi="http://sodipodi.sourceforge.net/DTD/sodipodi-0.dtd"
   xmlns:inkscape="http://www.inkscape.org/namespaces/inkscape"
   id="svg2"
   version="1.1"
   inkscape:version="0.91 r"
   width="2481"
   height="3503"
   sodipodi:docname="Pepper-and-Carrot_by-David-Revoy_E12P01.svg">
  <metadata
     id="metadata8">
    <rdf:RDF>
      <cc:Work
         rdf:about="">
        <dc:format>image/svg+xml</dc:format>
        <dc:type
           rdf:resource="http://purl.org/dc/dcmitype/StillImage" />
        <dc:title />
      </cc:Work>
    </rdf:RDF>
  </metadata>
  <defs
     id="defs6">
    <filter
       style="color-interpolation-filters:sRGB"
       id="filter4375-4-1-1-15-1-3"
       inkscape:label="deevad outline effect">
      <feFlood
         id="feFlood4377-7-9-0-4-4-4"
         flood-opacity="1"
         flood-color="rgb(0,0,0)"
         result="flood" />
      <feComposite
         id="feComposite4379-3-8-8-6-0-7"
         in2="SourceGraphic"
         in="flood"
         operator="in"
         result="composite1" />
      <feMorphology
         id="feMorphology4393-1-0-49-8-2-7"
         operator="dilate"
         radius="0.59999999999999998"
         result="result3" />
      <feComposite
         id="feComposite4385-9-5-7-2-1-2"
         in2="result3"
         in="SourceGraphic"
         operator="over"
         result="composite2" />
    </filter>
    <filter
       style="color-interpolation-filters:sRGB"
       id="filter4865"
       inkscape:label="deevad outline effect">
      <feFlood
         id="feFlood4867"
         flood-opacity="1"
         flood-color="rgb(0,0,0)"
         result="flood" />
      <feComposite
         id="feComposite4869"
         in2="SourceGraphic"
         in="flood"
         operator="in"
         result="composite1" />
      <feMorphology
         id="feMorphology4871"
         operator="dilate"
         radius="0.59999999999999998"
         result="result3" />
      <feComposite
         id="feComposite4873"
         in2="result3"
         in="SourceGraphic"
         operator="over"
         result="composite2" />
    </filter>
    <filter
       style="color-interpolation-filters:sRGB"
       id="filter4875"
       inkscape:label="deevad outline effect">
      <feFlood
         id="feFlood4877"
         flood-opacity="1"
         flood-color="rgb(0,0,0)"
         result="flood" />
      <feComposite
         id="feComposite4879"
         in2="SourceGraphic"
         in="flood"
         operator="in"
         result="composite1" />
      <feMorphology
         id="feMorphology4881"
         operator="dilate"
         radius="0.59999999999999998"
         result="result3" />
      <feComposite
         id="feComposite4883"
         in2="result3"
         in="SourceGraphic"
         operator="over"
         result="composite2" />
    </filter>
    <filter
       style="color-interpolation-filters:sRGB"
       id="filter4885"
       inkscape:label="deevad outline effect">
      <feFlood
         id="feFlood4887"
         flood-opacity="1"
         flood-color="rgb(0,0,0)"
         result="flood" />
      <feComposite
         id="feComposite4889"
         in2="SourceGraphic"
         in="flood"
         operator="in"
         result="composite1" />
      <feMorphology
         id="feMorphology4891"
         operator="dilate"
         radius="0.59999999999999998"
         result="result3" />
      <feComposite
         id="feComposite4893"
         in2="result3"
         in="SourceGraphic"
         operator="over"
         result="composite2" />
    </filter>
    <filter
       style="color-interpolation-filters:sRGB"
       id="filter4895"
       inkscape:label="deevad outline effect">
      <feFlood
         id="feFlood4897"
         flood-opacity="1"
         flood-color="rgb(0,0,0)"
         result="flood" />
      <feComposite
         id="feComposite4899"
         in2="SourceGraphic"
         in="flood"
         operator="in"
         result="composite1" />
      <feMorphology
         id="feMorphology4901"
         operator="dilate"
         radius="0.59999999999999998"
         result="result3" />
      <feComposite
         id="feComposite4903"
         in2="result3"
         in="SourceGraphic"
         operator="over"
         result="composite2" />
    </filter>
    <filter
       style="color-interpolation-filters:sRGB"
       id="filter4905"
       inkscape:label="deevad outline effect">
      <feFlood
         id="feFlood4907"
         flood-opacity="1"
         flood-color="rgb(0,0,0)"
         result="flood" />
      <feComposite
         id="feComposite4909"
         in2="SourceGraphic"
         in="flood"
         operator="in"
         result="composite1" />
      <feMorphology
         id="feMorphology4911"
         operator="dilate"
         radius="0.59999999999999998"
         result="result3" />
      <feComposite
         id="feComposite4913"
         in2="result3"
         in="SourceGraphic"
         operator="over"
         result="composite2" />
    </filter>
    <filter
       style="color-interpolation-filters:sRGB"
       id="filter4915"
       inkscape:label="deevad outline effect">
      <feFlood
         id="feFlood4917"
         flood-opacity="1"
         flood-color="rgb(0,0,0)"
         result="flood" />
      <feComposite
         id="feComposite4919"
         in2="SourceGraphic"
         in="flood"
         operator="in"
         result="composite1" />
      <feMorphology
         id="feMorphology4921"
         operator="dilate"
         radius="0.59999999999999998"
         result="result3" />
      <feComposite
         id="feComposite4923"
         in2="result3"
         in="SourceGraphic"
         operator="over"
         result="composite2" />
    </filter>
    <filter
       style="color-interpolation-filters:sRGB"
       id="filter4925"
       inkscape:label="deevad outline effect">
      <feFlood
         id="feFlood4927"
         flood-opacity="1"
         flood-color="rgb(0,0,0)"
         result="flood" />
      <feComposite
         id="feComposite4929"
         in2="SourceGraphic"
         in="flood"
         operator="in"
         result="composite1" />
      <feMorphology
         id="feMorphology4931"
         operator="dilate"
         radius="0.59999999999999998"
         result="result3" />
      <feComposite
         id="feComposite4933"
         in2="result3"
         in="SourceGraphic"
         operator="over"
         result="composite2" />
    </filter>
    <filter
       style="color-interpolation-filters:sRGB"
       id="filter4375-4-1-1-1"
       inkscape:label="deevad outline effect">
      <feFlood
         id="feFlood4377-7-9-0-8"
         flood-opacity="1"
         flood-color="rgb(104,147,162)"
         result="flood" />
      <feComposite
         id="feComposite4379-3-8-8-2"
         in2="SourceGraphic"
         in="flood"
         operator="in"
         result="composite1" />
      <feMorphology
         id="feMorphology4393-1-0-49-8"
         operator="dilate"
         radius="4"
         result="result3" />
      <feComposite
         id="feComposite4385-9-5-7-0"
         in2="result3"
         in="SourceGraphic"
         operator="over"
         result="composite2" />
    </filter>
    <filter
       style="color-interpolation-filters:sRGB"
       id="filter4375-4-1-1-1-6"
       inkscape:label="deevad outline effect">
      <feFlood
         id="feFlood4377-7-9-0-8-3"
         flood-opacity="1"
         flood-color="rgb(104,147,162)"
         result="flood" />
      <feComposite
         id="feComposite4379-3-8-8-2-0"
         in2="SourceGraphic"
         in="flood"
         operator="in"
         result="composite1" />
      <feMorphology
         id="feMorphology4393-1-0-49-8-8"
         operator="dilate"
         radius="4"
         result="result3" />
      <feComposite
         id="feComposite4385-9-5-7-0-0"
         in2="result3"
         in="SourceGraphic"
         operator="over"
         result="composite2" />
    </filter>
    <filter
       style="color-interpolation-filters:sRGB"
       id="filter4375-4-1-1-1-6-4"
       inkscape:label="deevad outline effect">
      <feFlood
         id="feFlood4377-7-9-0-8-3-1"
         flood-opacity="1"
         flood-color="rgb(104,147,162)"
         result="flood" />
      <feComposite
         id="feComposite4379-3-8-8-2-0-7"
         in2="SourceGraphic"
         in="flood"
         operator="in"
         result="composite1" />
      <feMorphology
         id="feMorphology4393-1-0-49-8-8-3"
         operator="dilate"
         radius="4"
         result="result3" />
      <feComposite
         id="feComposite4385-9-5-7-0-0-8"
         in2="result3"
         in="SourceGraphic"
         operator="over"
         result="composite2" />
    </filter>
  </defs>
  <sodipodi:namedview
     pagecolor="#ffffff"
     bordercolor="#666666"
     borderopacity="1"
     objecttolerance="10"
     gridtolerance="10"
     guidetolerance="10"
     inkscape:pageopacity="0"
     inkscape:pageshadow="2"
     inkscape:window-width="1920"
     inkscape:window-height="1028"
     id="namedview4"
     showgrid="false"
     inkscape:zoom="0.46000003"
     inkscape:cx="838.61552"
     inkscape:cy="599.73714"
     inkscape:window-x="0"
     inkscape:window-y="0"
     inkscape:window-maximized="1"
     inkscape:current-layer="layer1"
     showguides="false" />
  <g
     inkscape:groupmode="layer"
     id="layer2"
     inkscape:label="artwork"
     sodipodi:insensitive="true">
    <image
       sodipodi:absref="/media/forge/Trashcan/Tests/pct/peppercarrot_ep12_translation/pl/../gfx_Pepper-and-Carrot_by-David-Revoy_E12P01.png"
       xlink:href="../gfx_Pepper-and-Carrot_by-David-Revoy_E12P01.png"
       y="0"
       x="0"
       id="image10"
       height="3503"
       width="2481" />
  </g>
  <g
     inkscape:groupmode="layer"
     id="layer3"
     inkscape:label="speechbubbles"
     style="display:inline">
    <path
       style="color:#000000;display:inline;overflow:visible;visibility:visible;fill:#ffffff;fill-opacity:1;fill-rule:nonzero;stroke:none;stroke-width:1px;marker:none;enable-background:accumulate"
       d="m 1152.3403,359.6865 c 46.9224,48.193 -72.6261,148.9581 -69.9511,186.808 0.8976,12.701 4.6514,39.1331 13.894,48.482 15.5943,15.774 45.2047,6.6421 10.8388,135.377 -9.0437,28.8541 29.9664,60.646 67.9498,58.4261 14.4699,2.2199 36.9567,21.4779 4.3995,103.602 -25.6503,61.04103 109.1284,134.6241 146.8054,110.0019 -58.641,-4.35093 -123.6032,-50.38687 -131.4964,-83.57488 -3.5061,-14.29406 19.9963,-77.89826 27.2312,-108.97226 7.235,-31.0741 -37.6689,-39.43486 -50.3301,-46.09376 -12.661,-6.659 -34.0709,-5.7061 -37.6883,-23.462 -3.6174,-17.7571 21.0815,-82.2671 17.464,-115.5611 -3.6175,-33.2929 -35.6018,-40.787 -37.4106,-71.8609 -1.8087,-31.074 65.2373,-98.222 76.0523,-131.3221 13.3956,-34.9709 5.6511,-79.607 5.6511,-79.607 z"
       id="path3153"
       inkscape:connector-curvature="0"
       sodipodi:nodetypes="csscccccsscssccc" />
    <path
       style="color:#000000;display:inline;overflow:visible;visibility:visible;fill:#ffffff;fill-opacity:1;fill-rule:nonzero;stroke:none;stroke-width:1px;marker:none;enable-background:accumulate"
       d="m 938.37834,157.95055 c 7.63995,-45.36622 71.72036,-77.001625 233.01906,-64.138483 86.4002,6.890153 190.5407,13.693053 174.4458,78.999883 -15.1597,61.512 -153.9891,58.54657 -180.8125,61.79197 -29.0849,3.51903 -180.96591,-10.25238 -206.27904,-33.63366 -15.84544,-14.63605 -21.64663,-28.94048 -20.37332,-43.01971 z"
       id="path4546"
       inkscape:connector-curvature="0"
       sodipodi:nodetypes="cssssc" />
    <path
       style="color:#000000;display:inline;overflow:visible;visibility:visible;fill:#ffffff;fill-opacity:1;fill-rule:nonzero;stroke:none;stroke-width:1px;marker:none;enable-background:accumulate"
       d="m 775.52632,248.16794 c 10.69446,-45.36622 100.39529,-77.00163 326.18378,-64.13848 120.9446,6.89015 258.4515,12.51481 244.1922,78.99988 -14.2595,66.485 -212.1085,61.0098 -253.1044,61.79197 -40.9958,0.78225 -253.31901,-10.25238 -288.7527,-33.63366 -22.1808,-14.63605 -30.30127,-28.94048 -28.51888,-43.01971 z"
       id="path4546-2"
       inkscape:connector-curvature="0"
       sodipodi:nodetypes="cssssc" />
    <path
       style="color:#000000;display:inline;overflow:visible;visibility:visible;fill:#ffffff;fill-opacity:1;fill-rule:nonzero;stroke:none;stroke-width:1px;marker:none;enable-background:accumulate"
       d="m 957.48534,345.4639 c 9.67343,-45.36622 85.87906,-78.64542 290.11106,-65.78227 109.3975,6.89015 232.0683,12.20612 220.8784,78.99988 -12.8981,76.9901 -191.8579,65.13346 -228.9398,61.79196 -36.9405,-3.32875 -229.1342,-10.25238 -261.18492,-33.63366 -20.06301,-14.63604 -22.47696,-27.29668 -20.86474,-41.37591 z"
       id="path4546-1"
       inkscape:connector-curvature="0"
       sodipodi:nodetypes="cssssc" />
    <path
       style="color:#000000;display:inline;overflow:visible;visibility:visible;fill:#ffffff;fill-opacity:1;fill-rule:nonzero;stroke:none;stroke-width:1px;marker:none;enable-background:accumulate"
       d="m 831.56917,448.16793 c 9.37652,-45.36622 88.02312,-77.00156 285.98683,-64.13848 106.0399,6.89015 226.6014,12.51481 214.0994,78.99988 -12.502,66.48505 -185.9695,61.0098 -221.9132,61.79197 -35.9439,0.78225 -222.10161,-10.25238 -253.16866,-33.63366 -19.44735,-14.63605 -26.56723,-28.94048 -25.00437,-43.01971 z"
       id="path4546-8"
       inkscape:connector-curvature="0"
       sodipodi:nodetypes="cssssc" />
    <path
       style="color:#000000;fill:#ffffff;fill-opacity:1;fill-rule:nonzero;stroke:none;stroke-width:1px;marker:none;visibility:visible;display:inline;overflow:visible;enable-background:accumulate"
       d="m 946.04573,536.50083 c 10.28365,-41.8837 96.53737,-71.09064 313.64937,-59.21492 116.2968,6.36123 248.5195,11.55412 234.8082,72.93549 -13.7115,61.3813 -203.9575,56.32631 -243.3779,57.04852 -39.4204,0.72221 -243.5846,-9.46535 -277.65669,-31.05178 -21.32822,-13.51253 -29.13679,-26.71886 -27.42298,-39.71731 z"
       id="path4546-4"
       inkscape:connector-curvature="0"
       sodipodi:nodetypes="cssssc" />
    <path
       style="color:#000000;display:inline;overflow:visible;visibility:visible;fill:#ffffff;fill-opacity:1;fill-rule:nonzero;stroke:none;stroke-width:1px;marker:none;enable-background:accumulate"
       d="m 970.66007,724.30884 c 1.19747,-50.72301 98.19623,-58.10085 183.21973,-55.33413 85.0236,2.76672 238.3055,-16.60031 223.9353,80.23447 -14.3702,96.83479 -286.2061,52.56741 -294.5887,53.48973 -8.3826,0.9222 -129.33165,-17.52251 -112.56633,-78.39007 z"
       id="path5018"
       inkscape:connector-curvature="0" />
    <path
       style="color:#000000;display:inline;overflow:visible;visibility:visible;fill:#ffffff;fill-opacity:1;fill-rule:nonzero;stroke:none;stroke-width:1px;marker:none;enable-background:accumulate"
       d="m 135.67039,2065.6449 c 29.12756,-38.1325 191.90657,-38.7778 246.38507,-23.8405 54.47822,14.937 75.21,42.387 77.93654,52.2367 2.72639,9.8495 -2.60152,55.9401 -30.11003,65.602 -27.50839,9.662 -106.73058,16.0381 -134.4287,16.6918 -27.69798,0.6537 -116.23685,-2.9931 -138.88842,-15.6488 -21.66846,-12.1063 -50.02215,-56.909 -20.89446,-95.0412 z"
       id="path3330"
       inkscape:connector-curvature="0"
       sodipodi:nodetypes="zsssssz" />
    <path
       style="fill:#ffffff;fill-rule:evenodd;stroke:none;stroke-width:1px;stroke-linecap:butt;stroke-linejoin:miter;stroke-opacity:1"
       d="m 191.86974,2253.0155 c -0.41837,-47.0991 12.16461,-36.8029 34.30437,-57.6609 22.66472,-21.3527 16.89963,-34.5401 52.31186,-42.9685 29.32162,-6.9786 47.65323,4.0453 68.64131,-2.2786 20.98807,-6.3236 45.62106,-25.5405 74.73946,-26.8694 29.11841,-1.3292 54.26073,19.6399 72.92647,20.2971 18.66577,0.6571 49.48896,-12.0143 64.00678,-11.5032 14.51779,0.5111 42.01416,8.1732 58.60594,8.7573 16.59177,0.5842 23.24726,-14.7908 52.20009,-11.4173 28.95284,3.3736 34.98953,12.1327 53.73807,10.4385 18.74852,-1.6941 67.07203,-15.3551 100.09003,-9.4841 33.01799,5.8708 63.2571,29.3604 75.86648,25.0958 12.60941,-4.2645 34.06055,-22.4096 69.06974,-14.1144 35.00916,8.2953 46.49326,34.6625 65.15906,35.3197 18.6657,0.6571 41.7596,11.5136 52.0622,27.769 13.7263,21.6581 -5.1626,26.0823 6.4872,49.6672 10.0812,20.4098 26.8347,-0.1383 24.5242,43.1863 -1.8261,34.2453 -37.3887,26.9741 -60.3681,30.8735 -22.9792,3.8995 -47.5514,23.052 -74.59576,24.4542 -27.04442,1.4021 -40.92849,-16.7767 -69.96411,-17.7989 -29.03561,-1.0222 -57.17208,31.0658 -81.89419,25.487 -24.72211,-5.5788 -51.6479,-19.4822 -82.42669,-17.7048 -49.71094,2.8706 -53.66528,18.7658 -82.78368,20.0949 -29.1184,1.3291 -52.12691,-21.9323 -74.94062,-22.7355 -22.8137,-0.8032 -44.53664,25.4838 -77.55875,19.6412 -32.89814,-5.8207 -43.16698,-22.3506 -83.55548,-28.1261 -28.79739,-4.118 -22.09934,19.7245 -55.28288,18.5563 -33.18356,-1.1683 -28.71698,-20.3413 -56.95334,-31.4662 -28.88327,-11.3797 -57.17449,7.4451 -87.0118,-4.1009 -36.82913,-14.2515 -38.30845,-35.5446 -37.39786,-61.4092 z"
       id="path5057"
       inkscape:connector-curvature="0"
       sodipodi:nodetypes="cssssssssssssssssssssssssssssc" />
    <path
       style="fill:#ffffff;stroke:none"
       d="m 1207.788,2384.9518 c -42.3391,-0.586 -45.0844,-9.2183 -46.9532,-19.4623 -1.8689,-10.244 -1.838,-20.0094 -9.9889,-22.6734 -8.1508,-2.6639 -21.5006,-2.0562 -31.6843,-0.651 -10.1838,1.4053 -34.5796,-13.8511 -48.8136,-34.7805 -13.4623,-19.7944 -27.401,-48.7409 -27.401,-48.7409 0,0 -61.20822,0.1919 -58.66177,9.0795 2.54634,8.8877 36.66447,44.4465 60.52307,63.8432 20.5407,16.6993 37.9313,30.1335 48.1885,30.5792 10.2571,0.4457 21.5162,-2.8266 29.8367,-3.7847 8.3207,-0.9584 17.3597,3.945 21.2981,11.0453 3.9383,7.1004 16.7573,21.5684 33.8698,20.9922 17.1126,-0.5761 29.7866,-5.4466 29.7866,-5.4466 z"
       id="path3023"
       inkscape:connector-curvature="0"
       sodipodi:nodetypes="csssscssssssc" />
    <flowRoot
       xml:space="preserve"
       id="flowRoot2987-7-9-9-7-0-3-4-1"
       style="font-style:normal;font-variant:normal;font-weight:normal;font-stretch:normal;font-size:12px;line-height:125%;font-family:Lavi;-inkscape-font-specification:Lavi;letter-spacing:0px;word-spacing:0px;fill:#000000;fill-opacity:1;stroke:#000000;stroke-width:0.99236238;stroke-miterlimit:4;stroke-dasharray:none;stroke-opacity:1;filter:url(#filter4375-4-1-1-1)"
       transform="matrix(1.0562753,-0.69556782,0.90092392,1.7261279,180.59337,2088.7284)"><flowRegion
         id="flowRegion2989-4-5-8-7-41-7-62-2"
         style="stroke-width:5.40286207"><rect
           id="rect2991-45-1-3-3-8-0-4-6"
           width="319.66232"
           height="56.089447"
           x="120.55251"
           y="265.53046"
           style="font-style:normal;font-variant:normal;font-weight:normal;font-stretch:normal;font-family:Lavi;-inkscape-font-specification:Lavi;fill:#000000;fill-opacity:1;stroke:#000000;stroke-width:0.99236238;stroke-miterlimit:4;stroke-dasharray:none;stroke-opacity:1" /></flowRegion><flowPara
         id="flowPara2995-4-1-5-0-7-2-6-4"
         style="font-weight:normal;font-size:48px;-inkscape-font-specification:Lavi;letter-spacing:7.06853437px;fill:#ffffff;fill-opacity:1;stroke:#ffffff;stroke-width:0.99236238;stroke-linejoin:miter;stroke-miterlimit:4;stroke-dasharray:none;stroke-opacity:1">Klik</flowPara></flowRoot>    <flowRoot
       xml:space="preserve"
       id="flowRoot2987-7-9-9-7-0-3-4-1-7"
       style="font-style:normal;font-variant:normal;font-weight:normal;font-stretch:normal;font-size:12px;line-height:125%;font-family:Lavi;-inkscape-font-specification:Lavi;letter-spacing:0px;word-spacing:0px;display:inline;fill:#000000;fill-opacity:1;stroke:#000000;stroke-width:0.99236238;stroke-miterlimit:4;stroke-dasharray:none;stroke-opacity:1;filter:url(#filter4375-4-1-1-1-6)"
       transform="matrix(0.52340846,-0.97512508,1.5581568,1.1543842,-194.18905,2393.1986)"><flowRegion
         id="flowRegion2989-4-5-8-7-41-7-62-2-5"
         style="stroke-width:5.40286207"><rect
           id="rect2991-45-1-3-3-8-0-4-6-5"
           width="319.66232"
           height="56.089447"
           x="120.55251"
           y="265.53046"
           style="font-style:normal;font-variant:normal;font-weight:normal;font-stretch:normal;font-family:Lavi;-inkscape-font-specification:Lavi;fill:#000000;fill-opacity:1;stroke:#000000;stroke-width:0.99236238;stroke-miterlimit:4;stroke-dasharray:none;stroke-opacity:1" /></flowRegion><flowPara
         id="flowPara2995-4-1-5-0-7-2-6-4-4"
         style="font-weight:normal;font-size:48px;-inkscape-font-specification:Lavi;letter-spacing:7.06853437px;fill:#ffffff;fill-opacity:1;stroke:#ffffff;stroke-width:0.99236238;stroke-linejoin:miter;stroke-miterlimit:4;stroke-dasharray:none;stroke-opacity:1">Klak</flowPara></flowRoot>    <flowRoot
       xml:space="preserve"
       id="flowRoot2987-7-9-9-7-0-3-4-1-7-0"
       style="font-style:normal;font-variant:normal;font-weight:normal;font-stretch:normal;font-size:12px;line-height:125%;font-family:Lavi;-inkscape-font-specification:Lavi;letter-spacing:0px;word-spacing:0px;display:inline;fill:#000000;fill-opacity:1;stroke:#000000;stroke-width:0.99236238;stroke-miterlimit:4;stroke-dasharray:none;stroke-opacity:1;filter:url(#filter4375-4-1-1-1-6-4)"
       transform="matrix(1.0048804,-0.46372464,0.54958142,1.8596817,223.15829,2170.6951)"><flowRegion
         id="flowRegion2989-4-5-8-7-41-7-62-2-5-5"
         style="stroke-width:5.40286207"><rect
           id="rect2991-45-1-3-3-8-0-4-6-5-9"
           width="319.66232"
           height="56.089447"
           x="120.55251"
           y="265.53046"
           style="font-style:normal;font-variant:normal;font-weight:normal;font-stretch:normal;font-family:Lavi;-inkscape-font-specification:Lavi;fill:#000000;fill-opacity:1;stroke:#000000;stroke-width:0.99236238;stroke-miterlimit:4;stroke-dasharray:none;stroke-opacity:1" /></flowRegion><flowPara
         id="flowPara2995-4-1-5-0-7-2-6-4-4-2"
         style="font-weight:normal;font-size:48px;-inkscape-font-specification:Lavi;letter-spacing:7.06853437px;fill:#ffffff;fill-opacity:1;stroke:#ffffff;stroke-width:0.99236238;stroke-linejoin:miter;stroke-miterlimit:4;stroke-dasharray:none;stroke-opacity:1">Klok</flowPara></flowRoot>    <path
       style="color:#000000;display:inline;overflow:visible;visibility:visible;fill:#ffffff;fill-opacity:1;fill-rule:nonzero;stroke:none;stroke-width:1px;marker:none;enable-background:accumulate"
       d="m 1250.7114,2892.3092 c -31.912,-32.749 -16.2239,-123.3029 -7.106,-138.0399 9.1177,-14.737 21.6546,-12.8182 64.9639,-12.8182 43.3095,0 346.6494,-8.8824 391.0985,25.5038 44.4489,34.3864 43.3094,94.1532 4.5589,134.2706 -38.7506,40.1173 -246.1796,31.9302 -246.1796,31.9302 0,0 -158.3277,0.9083 -207.3357,-40.8465 z"
       id="path3992"
       inkscape:connector-curvature="0"
       sodipodi:nodetypes="csssscc" />
    <path
       style="color:#000000;display:inline;overflow:visible;visibility:visible;fill:#ffffff;fill-opacity:1;fill-rule:nonzero;stroke:none;stroke-width:1px;marker:none;enable-background:accumulate"
       d="m 1245.195,3396.6809 c -29.2334,-61.3814 -7.488,-217.475 4.459,-243.7588 11.9468,-26.2837 25.0017,-78.9718 89.9087,-80.8842 178.5259,-5.2605 321.4777,-43.3781 417.5007,55.2531 59.6526,61.273 21.1741,244.637 -22.8539,293.4316 -43.5884,48.3077 -288.5783,53.9417 -288.5783,53.9417 0,0 -154.2683,0.7519 -200.4362,-77.9834 z"
       id="path3992-8"
       inkscape:connector-curvature="0"
       sodipodi:nodetypes="csssscc" />
    <path
       style="color:#000000;display:inline;overflow:visible;visibility:visible;fill:#ffffff;fill-opacity:1;fill-rule:nonzero;stroke:none;stroke-width:1px;marker:none;enable-background:accumulate"
       d="m 1716.9984,3397.2581 c 27.7634,-10.1185 94.0627,-52.531 98.4068,-60.5027 -14.4279,8.0293 -69.2238,27.8422 -88.38,30.2825 -16.2593,2.0713 -10.0268,30.2202 -10.0268,30.2202 z"
       id="path3940"
       inkscape:connector-curvature="0"
       sodipodi:nodetypes="ccsc" />
    <path
       style="color:#000000;display:inline;overflow:visible;visibility:visible;fill:#ffffff;fill-opacity:1;fill-rule:nonzero;stroke:none;stroke-width:1px;marker:none;enable-background:accumulate"
       d="m 1533.5929,2870.5837 c 1.8139,47.1601 45.3463,116.0864 91.5995,107.924 -55.3225,-26.3008 -69.8333,-87.0647 -66.2056,-101.5755 3.6277,-14.5108 -25.3939,-6.3485 -25.3939,-6.3485 z"
       id="path3978"
       inkscape:connector-curvature="0" />
    <path
       style="color:#000000;display:inline;overflow:visible;visibility:visible;fill:#ffffff;fill-opacity:1;fill-rule:nonzero;stroke:none;stroke-width:1px;marker:none;enable-background:accumulate"
       d="m 143.87498,3215.056 c -20.84959,-44.9699 15.48638,-139.0659 205.97021,-130.7458 190.48366,8.3201 221.45679,55.864 226.10263,70.127 4.646,14.2634 57.62665,92.0287 -92.20165,102.6134 -155.60498,10.9929 -293.4117,12.6807 -339.87119,-41.9946 z"
       id="path3525"
       inkscape:connector-curvature="0"
       sodipodi:nodetypes="csssc" />
    <path
       style="color:#000000;display:inline;overflow:visible;visibility:visible;fill:#ffffff;fill-opacity:1;fill-rule:nonzero;stroke:none;stroke-width:1px;marker:none;enable-background:accumulate"
       d="m 666.70509,3209.3439 c -36.07499,-39.8088 -68.97239,-17.312 -80.78972,-13.9589 -11.8173,3.3531 -54.47138,15.8178 -81.70206,-18.4008 -27.23081,-34.2187 -77.24794,-29.5002 -77.24794,-29.5002 l 39.55278,52.0565 c 0,0 45.52013,24.9069 74.86499,22.5829 29.34487,-2.3241 66.48183,-22.9142 81.24019,-21.3162 14.75833,1.5979 30.45036,-1.6253 44.08176,8.5367 z"
       id="path4018"
       inkscape:connector-curvature="0" />
  </g>
  <g
     inkscape:groupmode="layer"
     id="layer1"
     inkscape:label="txt"
     style="display:inline">
    <flowRoot
       xml:space="preserve"
       id="flowRoot2987-4-9-3"
       style="font-style:normal;font-variant:normal;font-weight:normal;font-stretch:normal;font-size:12px;line-height:125%;font-family:Lavi;-inkscape-font-specification:Lavi;text-align:center;letter-spacing:0px;word-spacing:0px;text-anchor:middle;fill:#000000;fill-opacity:1;stroke:none"
       transform="translate(877.69979,-135.78869)"><flowRegion
         id="flowRegion2989-5-4-5"><rect
           id="rect2991-7-9-6"
           width="357.4017"
           height="55.739929"
           x="88.052513"
           y="270.53046"
           style="font-style:normal;font-variant:normal;font-weight:normal;font-stretch:normal;font-family:Lavi;-inkscape-font-specification:Lavi;text-align:center;text-anchor:middle" /></flowRegion><flowPara
         style="font-size:42.5px;text-align:center;text-anchor:middle"
         id="flowPara3030-8">Mikstury: śmiechu,</flowPara></flowRoot>    <flowRoot
       xml:space="preserve"
       id="flowRoot2987-4-9-3-7"
       style="font-style:normal;font-variant:normal;font-weight:normal;font-stretch:normal;font-size:12px;line-height:125%;font-family:Lavi;-inkscape-font-specification:Lavi;text-align:center;letter-spacing:0px;word-spacing:0px;text-anchor:middle;fill:#000000;fill-opacity:1;stroke:none"
       transform="translate(683.814,-43.535341)"><flowRegion
         id="flowRegion2989-5-4-5-5"><rect
           id="rect2991-7-9-6-9"
           width="519.54474"
           height="99.195747"
           x="120.55251"
           y="265.53046"
           style="font-style:normal;font-variant:normal;font-weight:normal;font-stretch:normal;font-family:Lavi;-inkscape-font-specification:Lavi;text-align:center;text-anchor:middle" /></flowRegion><flowPara
         style="font-size:45px;text-align:center;text-anchor:middle"
         id="flowPara4172">przerostu włosów,</flowPara></flowRoot>    <flowRoot
       xml:space="preserve"
       id="flowRoot2987-4-9-3-7-8"
       style="font-style:normal;font-variant:normal;font-weight:normal;font-stretch:normal;font-size:12px;line-height:125%;font-family:Lavi;-inkscape-font-specification:Lavi;text-align:center;letter-spacing:0px;word-spacing:0px;text-anchor:middle;fill:#000000;fill-opacity:1;stroke:none"
       transform="translate(833.28112,57.517967)"><flowRegion
         id="flowRegion2989-5-4-5-5-1"><rect
           id="rect2991-7-9-6-9-5"
           width="524.90173"
           height="98.239929"
           x="120.55251"
           y="265.53046"
           style="font-style:normal;font-variant:normal;font-weight:normal;font-stretch:normal;font-family:Lavi;-inkscape-font-specification:Lavi;text-align:center;text-anchor:middle" /></flowRegion><flowPara
         style="font-size:45px;text-align:center;text-anchor:middle"
         id="flowPara4217">śmierdzących bąbelków,</flowPara></flowRoot>    <flowRoot
       xml:space="preserve"
       id="flowRoot2987-4-9-3-7-8-6"
       style="font-style:normal;font-variant:normal;font-weight:normal;font-stretch:normal;font-size:12px;line-height:125%;font-family:Lavi;-inkscape-font-specification:Lavi;text-align:center;letter-spacing:0px;word-spacing:0px;text-anchor:middle;fill:#000000;fill-opacity:1;stroke:none"
       transform="translate(704.72045,155.88661)"><flowRegion
         id="flowRegion2989-5-4-5-5-1-2"><rect
           id="rect2991-7-9-6-9-5-7"
           width="524.90173"
           height="117.24342"
           x="120.55251"
           y="265.53046"
           style="font-style:normal;font-variant:normal;font-weight:normal;font-stretch:normal;font-family:Lavi;-inkscape-font-specification:Lavi;text-align:center;text-anchor:middle" /></flowRegion><flowPara
         style="font-size:45px;text-align:center;text-anchor:middle"
         id="flowPara4217-8">jasnej strony,</flowPara></flowRoot>    <flowRoot
       xml:space="preserve"
       id="flowRoot2987-4-9-3-7-8-6-6"
       style="font-style:normal;font-variant:normal;font-weight:normal;font-stretch:normal;font-size:12px;line-height:125%;font-family:Lavi;-inkscape-font-specification:Lavi;text-align:center;letter-spacing:0px;word-spacing:0px;text-anchor:middle;fill:#000000;fill-opacity:1;stroke:none"
       transform="translate(840.68042,246.28329)"><flowRegion
         id="flowRegion2989-5-4-5-5-1-2-4"><rect
           id="rect2991-7-9-6-9-5-7-2"
           width="524.90173"
           height="98.239929"
           x="120.55251"
           y="265.53046"
           style="font-style:normal;font-variant:normal;font-weight:normal;font-stretch:normal;font-family:Lavi;-inkscape-font-specification:Lavi;text-align:center;text-anchor:middle" /></flowRegion><flowPara
         style="font-size:45px;text-align:center;text-anchor:middle"
         id="flowPara4217-8-6">dymne...</flowPara></flowRoot>    <flowRoot
       xml:space="preserve"
       id="flowRoot2987-4-9-3-7-8-6-6-6"
       style="font-style:normal;font-variant:normal;font-weight:normal;font-stretch:normal;font-size:12px;line-height:125%;font-family:Lavi;-inkscape-font-specification:Lavi;text-align:center;letter-spacing:0px;word-spacing:0px;text-anchor:middle;fill:#000000;fill-opacity:1;stroke:none"
       transform="translate(793.06849,437.52696)"><flowRegion
         id="flowRegion2989-5-4-5-5-1-2-4-2"><rect
           id="rect2991-7-9-6-9-5-7-2-1"
           width="384.9017"
           height="203.23993"
           x="188.05251"
           y="245.53046"
           style="font-style:normal;font-variant:normal;font-weight:normal;font-stretch:normal;font-family:Lavi;-inkscape-font-specification:Lavi;text-align:center;text-anchor:middle" /></flowRegion><flowPara
         style="font-size:45px;text-align:center;text-anchor:middle"
         id="flowPara3559">A to dopiero początek!</flowPara></flowRoot>    <flowRoot
       xml:space="preserve"
       id="flowRoot2987-4-9-3-7-8-6-6-6-0"
       style="font-style:normal;font-variant:normal;font-weight:normal;font-stretch:normal;font-size:12px;line-height:125%;font-family:Lavi;-inkscape-font-specification:Lavi;text-align:center;letter-spacing:0px;word-spacing:0px;text-anchor:middle;display:inline;fill:#000000;fill-opacity:1;stroke:none"
       transform="translate(-80.883583,1812.3856)"><flowRegion
         id="flowRegion2989-5-4-5-5-1-2-4-2-0"><rect
           id="rect2991-7-9-6-9-5-7-2-1-3"
           width="504.9017"
           height="183.23993"
           x="120.55251"
           y="265.53046"
           style="font-style:normal;font-variant:normal;font-weight:normal;font-stretch:normal;font-family:Lavi;-inkscape-font-specification:Lavi;text-align:center;text-anchor:middle" /></flowRegion><flowPara
         style="font-size:45px;text-align:center;text-anchor:middle"
         id="flowPara4297-3">Tak, wiem:</flowPara></flowRoot>    <flowRoot
       xml:space="preserve"
       id="flowRoot2987-4-9-3-7-8-6-6-6-0-7"
       style="font-style:normal;font-variant:normal;font-weight:normal;font-stretch:normal;font-size:12px;line-height:125%;font-family:Lavi;-inkscape-font-specification:Lavi;text-align:center;letter-spacing:0px;word-spacing:0px;text-anchor:middle;display:inline;fill:#000000;fill-opacity:1;stroke:none"
       transform="translate(96.600307,1918.539)"><flowRegion
         id="flowRegion2989-5-4-5-5-1-2-4-2-0-8"><rect
           id="rect2991-7-9-6-9-5-7-2-1-3-2"
           width="872.77673"
           height="198.86493"
           x="120.55251"
           y="265.53046"
           style="font-style:normal;font-variant:normal;font-weight:normal;font-stretch:normal;font-family:Lavi;-inkscape-font-specification:Lavi;text-align:center;text-anchor:middle" /></flowRegion><flowPara
         style="font-size:45px;text-align:center;text-anchor:middle"
         id="flowPara5032">&quot;Prawdziwa wiedźma Chaosu nigdy nie zrobiłaby takich mikstur&quot;.</flowPara></flowRoot>    <flowRoot
       xml:space="preserve"
       id="flowRoot2987-4-9-3-7-8-6-6-6-0-70"
       style="font-style:normal;font-variant:normal;font-weight:normal;font-stretch:normal;font-size:12px;line-height:125%;font-family:Lavi;-inkscape-font-specification:Lavi;text-align:center;letter-spacing:0px;word-spacing:0px;text-anchor:middle;display:inline;fill:#000000;fill-opacity:1;stroke:none"
       transform="translate(1108.0963,2515.5064)"><flowRegion
         id="flowRegion2989-5-4-5-5-1-2-4-2-0-87"><rect
           id="rect2991-7-9-6-9-5-7-2-1-3-1"
           width="504.9017"
           height="183.23993"
           x="120.55251"
           y="265.53046"
           style="font-style:normal;font-variant:normal;font-weight:normal;font-stretch:normal;font-family:Lavi;-inkscape-font-specification:Lavi;text-align:center;text-anchor:middle" /></flowRegion><flowPara
         style="font-size:45px;text-align:center;text-anchor:middle"
         id="flowPara3474">Muszę podskoczyć</flowPara><flowPara
         style="font-size:45px;text-align:center;text-anchor:middle"
         id="flowPara3465">na targ.</flowPara></flowRoot>    <flowRoot
       xml:space="preserve"
       id="flowRoot2987-4-9-3-7-8-6-6-6-0-70-6"
       style="font-style:normal;font-variant:normal;font-weight:normal;font-stretch:normal;font-size:12px;line-height:125%;font-family:Lavi;-inkscape-font-specification:Lavi;text-align:center;letter-spacing:0px;word-spacing:0px;text-anchor:middle;display:inline;fill:#000000;fill-opacity:1;stroke:none"
       transform="translate(1133.8591,2836.7755)"><flowRegion
         id="flowRegion2989-5-4-5-5-1-2-4-2-0-87-8"><rect
           id="rect2991-7-9-6-9-5-7-2-1-3-1-0"
           width="507.4017"
           height="300.73993"
           x="120.55251"
           y="265.53046"
           style="font-style:normal;font-variant:normal;font-weight:normal;font-stretch:normal;font-family:Lavi;-inkscape-font-specification:Lavi;text-align:center;text-anchor:middle" /></flowRegion><flowPara
         style="font-size:45px;text-align:center;text-anchor:middle"
         id="flowPara3547">Ma to zniknąć,</flowPara><flowPara
         style="font-size:45px;text-align:center;text-anchor:middle"
         id="flowPara3477">zanim wrócę. Lepiej, żeby żaden mały dowcipniś się</flowPara><flowPara
         style="font-size:45px;text-align:center;text-anchor:middle"
         id="flowPara3471">do tego nie dobrał.</flowPara></flowRoot>    <flowRoot
       xml:space="preserve"
       id="flowRoot2987-4-9-3-7-8-6-6-6-0-70-60-4"
       style="font-style:normal;font-variant:normal;font-weight:normal;font-stretch:normal;font-size:42.5px;line-height:125%;font-family:Lavi;-inkscape-font-specification:Lavi;text-align:center;letter-spacing:0px;word-spacing:0px;text-anchor:middle;display:inline;fill:#000000;fill-opacity:1;stroke:none"
       transform="translate(-6.1703739,2854.7779)"><flowRegion
         id="flowRegion2989-5-4-5-5-1-2-4-2-0-87-5-8"><rect
           id="rect2991-7-9-6-9-5-7-2-1-3-1-7-0"
           width="504.9017"
           height="183.23993"
           x="120.55251"
           y="265.53046"
           style="font-style:normal;font-variant:normal;font-weight:normal;font-stretch:normal;font-size:42.5px;font-family:Lavi;-inkscape-font-specification:Lavi;text-align:center;text-anchor:middle" /></flowRegion><flowPara
         style="font-size:42.5px;text-align:center;text-anchor:middle"
         id="flowPara3470">Dokładnie. To nie</flowPara><flowPara
         style="font-size:42.5px;text-align:center;text-anchor:middle"
         id="flowPara3466">powinno mieć miejsca.</flowPara></flowRoot>  </g>
</svg>
