<?xml version="1.0" encoding="UTF-8" standalone="no"?>
<svg
   xmlns:dc="http://purl.org/dc/elements/1.1/"
   xmlns:cc="http://creativecommons.org/ns#"
   xmlns:rdf="http://www.w3.org/1999/02/22-rdf-syntax-ns#"
   xmlns:svg="http://www.w3.org/2000/svg"
   xmlns="http://www.w3.org/2000/svg"
   xmlns:xlink="http://www.w3.org/1999/xlink"
   xmlns:sodipodi="http://sodipodi.sourceforge.net/DTD/sodipodi-0.dtd"
   xmlns:inkscape="http://www.inkscape.org/namespaces/inkscape"
   sodipodi:docname="E35P09.svg"
   height="3503"
   width="2481"
   inkscape:version="1.0.1 (3bc2e813f5, 2020-09-07)"
   version="1.1"
   id="svg2">
  <metadata
     id="metadata8">
    <rdf:RDF>
      <cc:Work
         rdf:about="">
        <dc:format>image/svg+xml</dc:format>
        <dc:type
           rdf:resource="http://purl.org/dc/dcmitype/StillImage" />
        <dc:title />
      </cc:Work>
    </rdf:RDF>
  </metadata>
  <defs
     id="defs6">
    <filter
       height="1.0039616"
       width="1.024925"
       y="-0.0012978443"
       x="-0.02"
       inkscape:label="soundFX1"
       id="filter4375-4-1-1-1-9-5-8-8-5-5-3-3"
       style="color-interpolation-filters:sRGB">
      <feFlood
         result="flood"
         flood-color="rgb(52,52,52)"
         flood-opacity="1"
         id="feFlood4377-7-9-0-8-1-7-3-1-2-7-6-6" />
      <feComposite
         baseFrequency="0.053999999999999999 0.053999999999999999"
         result="composite1"
         operator="in"
         in="flood"
         in2="SourceGraphic"
         id="feComposite4379-3-8-8-2-77-4-1-0-6-4-7-7" />
      <feMorphology
         result="result3"
         radius="4.0330969769021738"
         operator="dilate"
         id="feMorphology4393-1-0-49-8-9-3-0-1-9-9-5-5" />
      <feComposite
         result="fbSourceGraphic"
         operator="over"
         in="SourceGraphic"
         in2="result3"
         id="feComposite4385-9-5-7-0-8-8-7-5-4-9-3-3" />
      <feColorMatrix
         id="feColorMatrix4544-9-4-4-5-5"
         values="0 0 0 -1 0 0 0 0 -1 0 0 0 0 -1 0 0 0 0 1 0"
         in="fbSourceGraphic"
         result="fbSourceGraphicAlpha" />
      <feTurbulence
         result="turbulence"
         baseFrequency="0.053999999999999999 0.054054054054054057"
         seed="147"
         numOctaves="4"
         type="fractalNoise"
         id="feTurbulence4546-3-6-5-6-6" />
      <feDisplacementMap
         result="fbSourceGraphic"
         xChannelSelector="R"
         yChannelSelector="G"
         scale="10.561763"
         in="fbSourceGraphic"
         in2="turbulence"
         id="feDisplacementMap4548-8-0-9-2-2" />
      <feColorMatrix
         id="feColorMatrix4670-7-7-3-9-9"
         values="0 0 0 -1 0 0 0 0 -1 0 0 0 0 -1 0 0 0 0 1 0"
         in="fbSourceGraphic"
         result="fbSourceGraphicAlpha" />
      <feFlood
         in="fbSourceGraphic"
         result="flood"
         flood-color="rgb(28,28,28)"
         flood-opacity="1"
         id="feFlood4672-4-4-5-1-1" />
      <feComposite
         result="composite1"
         operator="in"
         in="flood"
         in2="fbSourceGraphic"
         id="feComposite4674-8-3-7-2-2" />
      <feGaussianBlur
         result="blur"
         stdDeviation="0"
         in="composite1"
         id="feGaussianBlur4676-3-7-08-7-7" />
      <feOffset
         result="offset"
         dy="0.39217365321829334"
         dx="-10.48377497279229"
         id="feOffset4678-6-9-1-0-0" />
      <feComposite
         result="composite2"
         operator="over"
         in="fbSourceGraphic"
         in2="offset"
         id="feComposite4680-4-0-9-9-9" />
    </filter>
  </defs>
  <sodipodi:namedview
     inkscape:pagecheckerboard="0"
     inkscape:snap-global="false"
     inkscape:document-rotation="0"
     inkscape:current-layer="layer3"
     inkscape:window-maximized="1"
     inkscape:window-y="27"
     inkscape:window-x="72"
     inkscape:cy="615.16831"
     inkscape:cx="1305.8144"
     inkscape:zoom="0.49190037"
     showgrid="false"
     id="namedview4"
     inkscape:window-height="1016"
     inkscape:window-width="1848"
     inkscape:pageshadow="2"
     inkscape:pageopacity="0"
     guidetolerance="10"
     gridtolerance="10"
     objecttolerance="10"
     borderopacity="1"
     bordercolor="#666666"
     pagecolor="#ffffff" />
  <g
     sodipodi:insensitive="true"
     inkscape:label="artwork"
     id="layer2"
     inkscape:groupmode="layer">
    <image
       sodipodi:absref="/home/emmiline/Documents/git/webcomics/ep35_The-Reflection/lang/gfx_Pepper-and-Carrot_by-David-Revoy_E35P09.png"
       xlink:href="../gfx_Pepper-and-Carrot_by-David-Revoy_E35P09.png"
       width="2481"
       height="3503"
       id="image10"
       x="0"
       y="0" />
  </g>
  <g
     inkscape:label="speechbubbles"
     id="layer3"
     inkscape:groupmode="layer">
    <path
       sodipodi:nodetypes="cccccccccccccccccccccccc"
       inkscape:connector-curvature="0"
       id="path4289-9-2"
       d="m 293.51608,814.38125 c 50.0028,13.12958 53.69208,24.23792 9.08857,33.23954 47.94885,4.09246 39.64086,10.95001 18.21068,18.45118 70.78738,40.40127 61.90566,71.34297 51.15016,102.06212 59.56139,-19.49539 66.64683,2.16338 66.36018,23.34222 17.12829,-29.97327 38.51703,-13.89562 37.01127,12.16329 17.72914,-30.19616 42.41956,-45.70038 44.34432,-15.55465 22.12821,-24.27406 21.3847,-34.33732 45.77641,-27.43044 35.28279,-30.04752 59.91793,4.07493 87.99421,17.45682 2.99168,-30.18086 21.86571,-32.90467 45.80341,-26.87305 7.63454,-13.38319 11.49798,-32.15342 45.19043,-8.30877 1.01455,-24.77738 18.79703,-9.03127 31.42692,-5.73833 -17.22969,-12.31681 6.55601,-18.57917 77.51989,-17.87959 -28.39298,-4.55937 -45.09907,-27.77411 5.02771,-50.78848 -69.07172,14.49855 -45.86739,-2.82895 -27.58838,-21.02165 -51.34092,-19.52935 -10.27231,-47.15383 7.73828,-72.75806 -51.4878,16.01187 -117.42585,20.72347 -97.85763,-15.48361 -65.00127,34.4931 -57.70223,18.35889 -53.69971,4.53281 -36.84592,37.48512 -40.58489,8.08614 -54.18285,-1.39584 -111.93749,52.74884 -116.55027,10.54099 -146.27098,-9.45209 0.29711,48.85578 -29.02541,32.96535 -58.47048,16.80787 9.55636,40.36146 -8.32141,30.15787 -25.62559,21.01189 1.78522,17.65047 -12.06482,24.2572 -46.99553,15.97278 26.22803,11.94797 12.43372,15.87107 -61.95129,7.64404 z"
       style="display:inline;fill:#ffffff;fill-rule:evenodd;stroke:none;stroke-width:1.24552px;stroke-linecap:butt;stroke-linejoin:miter;stroke-opacity:1" />
    <path
       sodipodi:nodetypes="cccc"
       id="path1881"
       d="M 963.27671,1015.5732 C 855.1456,974.16786 728.54706,920.87912 712.01736,938.41898 l -4.63952,-34.71076 c 24.01825,-8.63206 180.13442,72.14698 255.89887,111.86498 z"
       style="display:inline;fill:#ffffff;fill-rule:evenodd;stroke:none;stroke-width:0.988989px;stroke-linecap:butt;stroke-linejoin:miter;stroke-opacity:1" />
    <text
       inkscape:transform-center-y="-49.154777"
       inkscape:transform-center-x="-7.7973551"
       y="1440.271"
       x="662.92181"
       transform="matrix(0.6234491,0.267428,-0.65521393,1.0449346,2109.6335,-849.35717)"
       id="text4580-6-0-0-0-9-3-3"
       style="font-style:normal;font-variant:normal;font-weight:normal;font-stretch:normal;font-size:145.675px;line-height:1.25;font-family:Lavi;-inkscape-font-specification:Lavi;letter-spacing:0px;word-spacing:0px;fill:#ffffff;fill-opacity:1;stroke:#ffffff;stroke-width:0.74524;stroke-miterlimit:4;stroke-dasharray:none;stroke-opacity:1;filter:url(#filter4375-4-1-1-1-9-5-8-8-5-5-3-3)"
       xml:space="preserve"><tspan
         y="1440.271"
         x="662.92181"
         id="tspan892"
         sodipodi:role="line"><tspan
           rotate="0 0 0 0 0 0 0 0 0"
           id="tspan876-6-6"
           style="font-size:145.675px;fill:#ffffff;fill-opacity:1;stroke:#ffffff;stroke-width:0.74524;stroke-miterlimit:4;stroke-dasharray:none;stroke-opacity:1"><tspan
             dy="0 20 25 30 35 40 45 50"
             style="font-size:117.986px;stroke-width:0.74524"
             id="tspan2853"
             rotate="0 0 0 0 0.1 0">SWooosh!</tspan></tspan><textPath
           style="stroke-width:0.74524"
           id="textPath2837"
           xlink:href="#path974" /></tspan></text>
    <path
       sodipodi:nodetypes="cccccccccccccccccccccccccccc"
       inkscape:connector-curvature="0"
       id="path4508-2"
       d="m 933.45815,1467.8029 c -156.27161,59.6481 -147.40155,47.6179 -116.26861,-5.9733 -107.48672,65.4772 -111.05161,40.2091 -94.39225,10.0029 -70.5349,49.4268 -101.66785,39.2386 -110.35195,0.4461 -0.42982,53.4934 -33.4704,32.5037 -48.04208,16.4964 -4.4033,15.8163 -27.42119,44.0053 -67.26623,1.4481 0.35029,13.8906 21.95093,46.9079 -60.2026,-2.9345 20.64534,55.0382 -52.10951,-1.7984 -92.94201,-42.5255 25.52415,50.1704 15.03539,57.3143 -17.42635,38.2053 14.88183,20.6429 23.795,36.6339 -32.59834,1.7201 19.39519,38.1353 -8.15644,33.5754 -68.98464,-7.2334 40.84397,40.4758 93.7076,81.0472 34.07789,67.7541 9.98067,11.92 45.47164,22.1971 -60.05133,41.5547 19.73921,8.0369 79.87833,-4.0668 29.7947,30.4996 -6.71211,4.0439 15.81272,6.4062 -27.12474,17.1582 25.3652,-0.8233 40.93133,1.6857 17.61549,17.4061 46.30248,-1.0312 29.03295,15.4705 -4.89182,36.5651 66.96523,-27.1542 142.84432,-50.3876 95.37824,-11.0192 83.9169,-36.9914 92.83424,-10.3542 77.75733,7.1441 50.30557,-29.855 81.74845,-25.3179 122.85159,15.3904 10.64148,-25.4658 32.08311,-45.1218 122.79984,-27.5077 -39.9147,-32.1822 16.78278,-11.8048 60.19726,1.3451 -23.88717,-40.3078 36.47679,-14.0347 112.94647,24.9663 -42.89955,-44.4441 6.10586,-49.0263 78.15792,-17.6393 -38.03272,-47.0261 -62.35605,-57.1918 122.45717,-13.7994 -156.13668,-44.0942 -123.10514,-73.128 -28.02272,-104.3178 -96.90566,-1.7261 -104.55599,-8.1023 -35.24165,-37.9922 -136.26566,7.9176 -53.83501,-20.5002 -10.22658,-57.1603 z"
       style="display:inline;fill:#ffffff;fill-rule:evenodd;stroke:none;stroke-width:1.27429px;stroke-linecap:butt;stroke-linejoin:miter;stroke-opacity:1" />
    <path
       sodipodi:nodetypes="ccccsccc"
       inkscape:connector-curvature="0"
       id="path1111-3-3"
       d="m 974.71782,1732.1619 -82.47964,-69.3619 -21.73828,-20.9157 -3.89619,33.8993 c -113.19185,-60.793 -107.41261,-104.6482 -123.16199,-63.0392 -19.42613,51.3227 45.72551,35.5105 135.52361,93.9205 4.43214,-8.2819 5.06237,-18.0952 6.91438,-27.2171 z"
       style="fill:#ffffff;fill-rule:evenodd;stroke:none;stroke-width:0.999998px;stroke-linecap:butt;stroke-linejoin:miter;stroke-opacity:1" />
  </g>
  <g
     inkscape:label="txt"
     id="layer1"
     inkscape:groupmode="layer">
    <text
       transform="scale(0.96891819,1.0320789)"
       id="text4246-3-2-2"
       y="306.20593"
       x="330.38358"
       style="font-style:normal;font-variant:normal;font-weight:normal;font-stretch:normal;font-size:64.9135px;line-height:1.25;font-family:Lavi;-inkscape-font-specification:Lavi;text-align:center;letter-spacing:0px;word-spacing:0px;text-anchor:middle;fill:#ffffff;fill-opacity:1;stroke:none;stroke-width:1.44252"
       xml:space="preserve"><tspan
         id="tspan915"
         y="306.20593"
         x="330.38358"
         sodipodi:role="line"
         style="font-style:normal;font-variant:normal;font-weight:bold;font-stretch:normal;font-size:64.9135px;font-family:Lavi;-inkscape-font-specification:'Lavi Bold';fill:#ffffff;stroke-width:1.44252">NEJ!</tspan><tspan
         id="tspan905"
         y="387.34781"
         x="330.38358"
         sodipodi:role="line"
         style="font-style:normal;font-variant:normal;font-weight:bold;font-stretch:normal;font-size:64.9135px;font-family:Lavi;-inkscape-font-specification:'Lavi Bold';fill:#ffffff;stroke-width:1.44252" /></text>
    <text
       id="text4246-3-2-2-3"
       y="299.48114"
       x="2086.762"
       style="font-style:normal;font-variant:normal;font-weight:normal;font-stretch:normal;font-size:45px;line-height:1.25;font-family:Lavi;-inkscape-font-specification:Lavi;text-align:center;letter-spacing:0px;word-spacing:0px;text-anchor:middle;fill:#ffffff;fill-opacity:1;stroke:none"
       xml:space="preserve"><tspan
         id="tspan873"
         y="299.48114"
         x="2086.762"
         sodipodi:role="line"
         style="font-style:normal;font-variant:normal;font-weight:bold;font-stretch:normal;font-size:45px;font-family:Lavi;-inkscape-font-specification:'Lavi Bold';fill:#ffffff">Det dér er</tspan><tspan
         y="355.73114"
         x="2086.762"
         sodipodi:role="line"
         style="font-style:normal;font-variant:normal;font-weight:bold;font-stretch:normal;font-size:45px;font-family:Lavi;-inkscape-font-specification:'Lavi Bold';fill:#ffffff"
         id="tspan49">ikke mig!</tspan></text>
    <text
       transform="matrix(0.95619489,-0.06824752,0,1.0458119,0,0)"
       id="text4246-3-2-2-3-5"
       y="896.21271"
       x="615.79883"
       style="font-style:normal;font-variant:normal;font-weight:normal;font-stretch:normal;font-size:68.846px;line-height:1.25;font-family:Lavi;-inkscape-font-specification:Lavi;text-align:center;letter-spacing:0px;word-spacing:0px;text-anchor:middle;fill:#000000;fill-opacity:1;stroke:none;stroke-width:0.956195"
       xml:space="preserve"><tspan
         style="font-style:normal;font-variant:normal;font-weight:bold;font-stretch:normal;font-size:68.846px;font-family:Lavi;-inkscape-font-specification:'Lavi Bold';stroke-width:0.956195"
         id="tspan906-6"
         y="896.21271"
         x="626.55603"
         sodipodi:role="line">STOOOOP!!! </tspan></text>
    <text
       id="text4246-3-2-2-3-1"
       y="1609.231"
       x="578.07495"
       style="font-style:normal;font-variant:normal;font-weight:normal;font-stretch:normal;font-size:56.8892px;line-height:1.25;font-family:Lavi;-inkscape-font-specification:Lavi;text-align:center;letter-spacing:0px;word-spacing:0px;text-anchor:middle;fill:#000000;fill-opacity:1;stroke:none;stroke-width:1.20164"
       xml:space="preserve"><tspan
         id="tspan1006"
         y="1609.231"
         x="578.07495"
         sodipodi:role="line"
         style="font-style:normal;font-variant:normal;font-weight:bold;font-stretch:normal;font-size:56.8892px;font-family:Lavi;-inkscape-font-specification:'Lavi Bold';stroke-width:1.20164">JEG OVERGIVER MIG!</tspan></text>
  </g>
</svg>
