<?xml version="1.0" encoding="UTF-8" standalone="no"?>
<svg
   xmlns:dc="http://purl.org/dc/elements/1.1/"
   xmlns:cc="http://creativecommons.org/ns#"
   xmlns:rdf="http://www.w3.org/1999/02/22-rdf-syntax-ns#"
   xmlns:svg="http://www.w3.org/2000/svg"
   xmlns="http://www.w3.org/2000/svg"
   xmlns:xlink="http://www.w3.org/1999/xlink"
   xmlns:sodipodi="http://sodipodi.sourceforge.net/DTD/sodipodi-0.dtd"
   xmlns:inkscape="http://www.inkscape.org/namespaces/inkscape"
   sodipodi:docname="E35P10.svg"
   height="3503"
   width="2481"
   inkscape:version="1.0.1 (3bc2e813f5, 2020-09-07)"
   version="1.1"
   id="svg2">
  <metadata
     id="metadata8">
    <rdf:RDF>
      <cc:Work
         rdf:about="">
        <dc:format>image/svg+xml</dc:format>
        <dc:type
           rdf:resource="http://purl.org/dc/dcmitype/StillImage" />
        <dc:title />
      </cc:Work>
    </rdf:RDF>
  </metadata>
  <defs
     id="defs6" />
  <sodipodi:namedview
     inkscape:pagecheckerboard="0"
     inkscape:snap-global="false"
     inkscape:document-rotation="0"
     inkscape:current-layer="layer3"
     inkscape:window-maximized="1"
     inkscape:window-y="27"
     inkscape:window-x="72"
     inkscape:cy="3243.3811"
     inkscape:cx="1292.9202"
     inkscape:zoom="0.56889776"
     showgrid="false"
     id="namedview4"
     inkscape:window-height="1016"
     inkscape:window-width="1848"
     inkscape:pageshadow="2"
     inkscape:pageopacity="0"
     guidetolerance="10"
     gridtolerance="10"
     objecttolerance="10"
     borderopacity="1"
     bordercolor="#666666"
     pagecolor="#ffffff" />
  <g
     sodipodi:insensitive="true"
     inkscape:label="artwork"
     id="layer2"
     inkscape:groupmode="layer">
    <image
       sodipodi:absref="/home/emmiline/Documents/git/webcomics/ep35_The-Reflection/lang/gfx_Pepper-and-Carrot_by-David-Revoy_E35P10.png"
       xlink:href="../gfx_Pepper-and-Carrot_by-David-Revoy_E35P10.png"
       width="2481"
       height="3503"
       id="image10"
       x="0"
       y="0" />
  </g>
  <g
     inkscape:label="speechbubbles"
     id="layer3"
     inkscape:groupmode="layer">
    <path
       sodipodi:nodetypes="zsssssz"
       inkscape:connector-curvature="0"
       id="path3100-98"
       d="m 1260.3456,157.25391 c -57.0385,0.29098 -114.7015,-0.47467 -170.7763,10.8164 -23.3158,4.56706 -47.0461,9.98485 -67.5261,21.85547 -24.25613,14.22857 -44.38822,35.8119 -52.94216,61.71319 -6.98795,22.55228 -2.59806,47.05188 7.96106,67.98492 12.4558,25.96015 35.1037,47.72975 63.1236,58.89989 28.7418,12.67802 59.2868,21.30987 90.0234,28.54857 44.6453,9.60291 90.6346,11.19293 136.2553,11.97595 55.1163,1.49972 110.5274,4.40377 165.4423,-1.8898 33.9464,-3.71944 67.7703,-8.70206 101.1259,-15.73301 33.3806,-7.2385 66.6471,-17.86124 94.7114,-36.77391 12.8783,-8.36057 22.5501,-20.45188 29.1514,-33.6715 4.5521,-9.09672 7.8283,-18.69761 11.021,-28.27201 5.8439,-18.74127 7.5831,-39.07366 1.6875,-58.00714 -7.4751,-25.23075 -27.485,-46.72418 -52.8803,-57.45367 -25.7701,-11.90018 -54.2835,-16.87592 -82.3404,-21.5171 -40.8263,-6.08342 -82.2506,-6.88313 -123.4916,-7.90491 -49.6321,-0.70896 -99.2723,-0.54456 -148.9082,-0.58217 -0.5459,0.004 -1.0918,0.007 -1.6378,0.0108 z"
       style="fill:#ffffff;stroke:none;stroke-width:0.984033" />
    <path
       sodipodi:nodetypes="csscscsssc"
       inkscape:connector-curvature="0"
       id="path4538-8"
       d="m 1448.7795,517.63055 c 2.403,-24.32977 -9.2766,-33.6163 -20.6628,-38.28253 -11.3869,-4.66626 -19.0826,-5.58729 -28.1978,-26.0826 -9.1142,-20.49521 -0.7357,-41.29642 -4.8853,-52.46499 -11.4569,-16.24953 -34.9307,-26.06627 -44.5289,-30.51513 -21.6856,-10.05119 11.3091,-23.29909 11.3091,-23.29909 8.77,-0.30545 47.7455,23.68713 57.7575,33.72157 14.4084,14.44054 -4.0636,48.20741 4.0399,65.52593 7.5675,16.17219 18.2749,17.40774 23.9472,28.63593 5.6729,11.22843 4.8219,31.66667 1.2211,42.76091 z"
       style="color:#000000;display:inline;overflow:visible;visibility:visible;fill:#ffffff;fill-opacity:1;fill-rule:nonzero;stroke:none;stroke-width:0.83737px;marker:none;enable-background:accumulate" />
    <path
       sodipodi:nodetypes="cssssssscc"
       inkscape:connector-curvature="0"
       id="path4546-6-2-0"
       d="m 118.45522,1517.6193 c 4.11077,-51.438 4.70086,-101.1291 59.07414,-130.8314 54.37316,-29.7011 150.16407,-37.1638 270.48394,-28.5241 64.44973,4.6274 145.63975,10.812 197.03337,32.1904 51.39363,21.3784 72.99099,57.9506 67.71701,133.2959 -5.27398,75.3452 -33.73478,108.017 -93.1034,126.8224 -59.36853,18.8069 -149.6451,23.7478 -171.38357,25.6947 -21.73844,1.9468 -89.16153,-0.5439 -156.05505,-9.8815 -66.89339,-9.3376 -112.64824,-15.8581 -132.26834,-41.3038 -30.75772,-32.28 -43.36855,-70.0132 -41.4981,-107.4626 z"
       style="color:#000000;display:inline;overflow:visible;visibility:visible;fill:#ffffff;fill-opacity:1;fill-rule:nonzero;stroke:none;stroke-width:1.20524px;marker:none;enable-background:accumulate" />
    <path
       sodipodi:nodetypes="cccccccc"
       inkscape:connector-curvature="0"
       id="path1303"
       d="m 566.83527,1651.6586 c 4.43847,-15.3188 61.8645,41.4938 43.56991,104.2767 2.42387,27.4208 22.18027,42.2423 21.12076,57.0045 -1.05963,24.2524 -9.53608,35.8508 -36.02508,55.8848 33.90594,-15.8168 54.23301,-33.7608 55.29264,-58.0121 1.05951,-24.2524 -17.71625,-25.1329 -17.14842,-60.0829 1.05952,-10.5449 25.79381,-65.3353 -26.69151,-120.7385 19.07205,-20.0341 -40.1183,21.6675 -40.1183,21.6675 z"
       style="fill:#ffffff;fill-rule:evenodd;stroke:none;stroke-width:1.12465px;stroke-linecap:butt;stroke-linejoin:miter;stroke-opacity:1" />
    <path
       sodipodi:nodetypes="cssssssscc"
       inkscape:connector-curvature="0"
       id="path4546-6-2-0-3"
       d="m 1263.6096,1541.7467 c 2.6682,-37.3903 3.0512,-73.5107 38.3456,-95.1015 35.2941,-21.5896 97.4731,-27.0143 175.574,-20.7341 41.8351,3.3636 94.5362,7.8593 127.8965,23.3992 33.3602,15.54 47.379,42.1243 43.9557,96.8929 -3.4231,54.7685 -21.8974,78.5176 -60.4341,92.1873 -38.5369,13.6708 -97.1363,17.2623 -111.2471,18.6775 -14.1106,1.4151 -57.8759,-0.3954 -101.2972,-7.1829 -43.4212,-6.7874 -73.1211,-11.5272 -85.8566,-30.0237 -19.9651,-23.4644 -28.151,-50.8927 -26.9368,-78.1147 z"
       style="color:#000000;display:inline;overflow:visible;visibility:visible;fill:#ffffff;fill-opacity:1;fill-rule:nonzero;stroke:none;stroke-width:0.827883px;marker:none;enable-background:accumulate" />
    <path
       sodipodi:nodetypes="cssssssscc"
       inkscape:connector-curvature="0"
       id="path4546-6-2-0-3-6"
       d="m 1351.2932,1759.375 c 2.1835,-41.1512 2.4969,-80.9047 31.3788,-104.6672 28.8817,-23.7613 79.7637,-29.7316 143.6745,-22.8197 34.2343,3.702 77.3604,8.6498 104.6596,25.7529 27.2991,17.1029 38.7711,46.3614 35.9697,106.6388 -2.8014,60.2772 -17.9192,86.415 -49.4543,101.4599 -31.5351,15.0458 -79.488,18.9986 -91.035,20.556 -11.5469,1.5576 -47.3606,-0.4349 -82.8927,-7.9053 -35.5322,-7.4703 -59.836,-12.6866 -70.2578,-33.0436 -16.3378,-25.8245 -23.0363,-56.0116 -22.0428,-85.9718 z"
       style="color:#000000;display:inline;overflow:visible;visibility:visible;fill:#ffffff;fill-opacity:1;fill-rule:nonzero;stroke:none;stroke-width:0.785671px;marker:none;enable-background:accumulate" />
    <path
       sodipodi:nodetypes="ccsc"
       inkscape:connector-curvature="0"
       id="path5010-4"
       d="m 1474.8245,1844.8292 c 6.1533,73.3287 -47.1663,130.4434 -118.01,146.3855 114.7363,-9.2052 166.2605,-106.0374 160.9588,-137.1332 -5.191,-30.4467 -42.9488,-9.2523 -42.9488,-9.2523 z"
       style="color:#000000;display:inline;overflow:visible;visibility:visible;fill:#ffffff;fill-opacity:1;fill-rule:nonzero;stroke:none;stroke-width:1.47843px;marker:none;enable-background:accumulate" />
  </g>
  <g
     inkscape:label="txt"
     id="layer1"
     inkscape:groupmode="layer">
    <text
       id="text4246-3-2-2"
       y="244.98175"
       x="1325.0667"
       style="font-style:normal;font-variant:normal;font-weight:normal;font-stretch:normal;font-size:45px;line-height:1.25;font-family:Lavi;-inkscape-font-specification:Lavi;text-align:center;letter-spacing:0px;word-spacing:0px;text-anchor:middle;fill:#000000;fill-opacity:1;stroke:none"
       xml:space="preserve"><tspan
         y="244.98175"
         x="1325.0667"
         sodipodi:role="line"
         style="font-size:45px"
         id="tspan39">Du er med på, at det ikke ender</tspan><tspan
         y="301.23175"
         x="1325.0667"
         sodipodi:role="line"
         style="font-size:45px"
         id="tspan43">godt for dig, hvis du overgiver</tspan><tspan
         y="357.48175"
         x="1325.0667"
         sodipodi:role="line"
         style="font-size:45px"
         id="tspan36">dig til Mester Wasabi, ikke?</tspan></text>
    <text
       id="text4246-3-2-2-3"
       y="1453.9784"
       x="427.03455"
       style="font-style:normal;font-variant:normal;font-weight:normal;font-stretch:normal;font-size:45px;line-height:1.25;font-family:Lavi;-inkscape-font-specification:Lavi;text-align:center;letter-spacing:0px;word-spacing:0px;text-anchor:middle;fill:#000000;fill-opacity:1;stroke:none"
       xml:space="preserve"><tspan
         id="tspan892"
         y="1453.9784"
         x="427.03455"
         sodipodi:role="line"
         style="font-size:45px">Det ved jeg, men jeg føler, </tspan><tspan
         id="tspan887"
         y="1510.2284"
         x="427.03455"
         sodipodi:role="line"
         style="font-size:45px">at der stadig er mulighed</tspan><tspan
         y="1566.4784"
         x="427.03455"
         sodipodi:role="line"
         style="font-size:45px"
         id="tspan7423">for at gå i dialog; at</tspan><tspan
         y="1622.7284"
         x="427.03455"
         sodipodi:role="line"
         style="font-size:45px"
         id="tspan44">få hende til at forstå.</tspan></text>
    <text
       id="text4246-3-2-2-3-3"
       y="1490.1573"
       x="1460.6498"
       style="font-style:normal;font-variant:normal;font-weight:normal;font-stretch:normal;font-size:45px;line-height:1.25;font-family:Lavi;-inkscape-font-specification:Lavi;text-align:center;letter-spacing:0px;word-spacing:0px;text-anchor:middle;fill:#000000;fill-opacity:1;stroke:none"
       xml:space="preserve"><tspan
         id="tspan896"
         y="1490.1573"
         x="1460.6498"
         sodipodi:role="line"
         style="font-size:45px">Når alt kommer</tspan><tspan
         y="1546.4073"
         x="1460.6498"
         sodipodi:role="line"
         style="font-size:45px"
         id="tspan48">til alt, er intet</tspan><tspan
         y="1602.6573"
         x="1460.6498"
         sodipodi:role="line"
         style="font-size:45px"
         id="tspan56">uopretteligt.</tspan></text>
    <text
       id="text4246-3-2-2-3-3-1"
       y="1717.9688"
       x="1516.4325"
       style="font-style:normal;font-variant:normal;font-weight:normal;font-stretch:normal;font-size:45px;line-height:1.25;font-family:Lavi;-inkscape-font-specification:Lavi;text-align:center;letter-spacing:0px;word-spacing:0px;text-anchor:middle;fill:#000000;fill-opacity:1;stroke:none"
       xml:space="preserve"><tspan
         id="tspan921"
         y="1717.9688"
         x="1516.4325"
         sodipodi:role="line"
         style="font-size:45px">Det har jeg</tspan><tspan
         y="1774.2188"
         x="1516.4325"
         sodipodi:role="line"
         style="font-size:45px"
         id="tspan55">lært af en</tspan><tspan
         y="1830.4688"
         x="1516.4325"
         sodipodi:role="line"
         style="font-size:45px"
         id="tspan57">god veninde.</tspan></text>
  </g>
</svg>
