<?xml version="1.0" encoding="UTF-8" standalone="no"?>
<!-- Created with Inkscape (http://www.inkscape.org/) -->

<svg
   id="svg2"
   version="1.1"
   inkscape:version="1.1.1 (3bf5ae0d25, 2021-09-20)"
   width="2481"
   height="3503"
   sodipodi:docname="E03P01.svg"
   xmlns:inkscape="http://www.inkscape.org/namespaces/inkscape"
   xmlns:sodipodi="http://sodipodi.sourceforge.net/DTD/sodipodi-0.dtd"
   xmlns:xlink="http://www.w3.org/1999/xlink"
   xmlns="http://www.w3.org/2000/svg"
   xmlns:svg="http://www.w3.org/2000/svg"
   xmlns:rdf="http://www.w3.org/1999/02/22-rdf-syntax-ns#"
   xmlns:cc="http://creativecommons.org/ns#"
   xmlns:dc="http://purl.org/dc/elements/1.1/">
  <sodipodi:namedview
     pagecolor="#ffffff"
     bordercolor="#666666"
     inkscape:pageopacity="0"
     inkscape:pageshadow="2"
     inkscape:window-width="665"
     inkscape:window-height="722"
     id="namedview70"
     showgrid="false"
     inkscape:zoom="0.4"
     inkscape:cx="2027.5"
     inkscape:cy="2963.75"
     inkscape:current-layer="layer1"
     inkscape:window-x="683"
     inkscape:window-y="15"
     inkscape:window-maximized="0"
     borderopacity="1"
     inkscape:pagecheckerboard="0" />
  <metadata
     id="metadata8">
    <rdf:RDF>
      <cc:Work
         rdf:about="">
        <dc:format>image/svg+xml</dc:format>
        <dc:type
           rdf:resource="http://purl.org/dc/dcmitype/StillImage" />
        <dc:title />
      </cc:Work>
    </rdf:RDF>
  </metadata>
  <defs
     id="defs6" />
  <sodipodi:namedview
     pagecolor="#ffffff"
     bordercolor="#666666"
     borderopacity="1"
     objecttolerance="10"
     gridtolerance="10"
     guidetolerance="10"
     inkscape:pageopacity="0"
     inkscape:pageshadow="2"
     inkscape:window-width="1920"
     inkscape:window-height="1025"
     id="namedview4"
     showgrid="false"
     inkscape:zoom="0.47669614"
     inkscape:cx="1282.5179"
     inkscape:cy="832.90689"
     inkscape:window-x="0"
     inkscape:window-y="26"
     inkscape:window-maximized="1"
     inkscape:current-layer="layer1" />
  <g
     inkscape:groupmode="layer"
     id="layer2"
     inkscape:label="artwork"
     sodipodi:insensitive="true">
    <image
       xlink:href="../gfx_Pepper-and-Carrot_by-David-Revoy_E03P01.png"
       y="0"
       x="0"
       id="image10"
       height="3503"
       width="2481" />
  </g>
  <g
     inkscape:groupmode="layer"
     id="layer3"
     inkscape:label="speechbubbles">
    <path
       style="fill:#ffffff;fill-opacity:1;stroke:none;stroke-width:0.965966px;stroke-linecap:butt;stroke-linejoin:miter;stroke-opacity:1"
       d="m 204.60959,2313.0197 c -7.45845,-104.726 71.6012,-139.2379 278.94632,-134.4776 207.34514,4.7602 256.57096,65.4537 271.48788,102.3458 14.91692,36.892 -17.9003,128.5272 -146.18577,168.9896 -128.28548,40.4622 -343.08907,-16.661 -369.93952,-46.4127 -26.85045,-29.7517 -32.81722,-63.0735 -34.30891,-90.4451 z"
       id="path3238"
       inkscape:connector-curvature="0" />
    <path
       style="color:#000000;display:inline;overflow:visible;visibility:visible;fill:#ffffff;fill-opacity:1;fill-rule:nonzero;stroke:none;stroke-width:1px;stroke-linecap:butt;stroke-linejoin:miter;stroke-opacity:1;marker:none;enable-background:accumulate"
       d="m 457.93404,2450.7172 c 28.96571,41.3796 44.13823,118.6215 -13.79319,227.5877 73.10393,-81.3798 70.34529,-179.3115 67.58665,-208.2772 -2.75864,-28.9657 -53.79346,-19.3105 -53.79346,-19.3105 z"
       id="path4008"
       inkscape:connector-curvature="0" />
    <path
       style="color:#000000;display:inline;overflow:visible;visibility:visible;fill:#ffffff;fill-opacity:1;fill-rule:nonzero;stroke:none;stroke-width:1.14411px;marker:none;enable-background:accumulate"
       d="m 1082.7663,2303.3482 c -2.7679,-100.0419 24.911,-156.4292 220.0466,-141.8776 195.1357,14.5514 197.9036,76.3957 190.9839,141.8776 -6.9197,65.4819 -22.1431,81.8525 -44.2861,96.404 -22.1431,14.5516 -161.9211,-14.5515 -193.7517,-16.3704 -31.8307,-1.8191 -127.3226,-1.8191 -137.0102,-9.0948 -22.1564,-16.6401 -35.9825,-40.0168 -35.9825,-70.9388 z"
       id="path4027"
       inkscape:connector-curvature="0"
       sodipodi:nodetypes="csssssc" />
    <path
       style="fill:#ffffff;stroke:none;stroke-width:1px;stroke-linecap:butt;stroke-linejoin:miter;stroke-opacity:1;color:#000000;fill-opacity:1;fill-rule:nonzero;marker:none;visibility:visible;display:inline;overflow:visible;enable-background:accumulate"
       d="m 1485.527,2240.9227 c 31.7244,1.3794 64.828,-19.3104 70.3453,-30.345 5.5173,-11.0345 -8.2759,49.6555 -67.5867,63.4487 -59.3107,13.7932 -30.345,-26.2071 -30.345,-26.2071 z"
       id="path4035"
       inkscape:connector-curvature="0" />
    <path
       style="fill:#ffffff;stroke:none;stroke-width:1px;stroke-linecap:butt;stroke-linejoin:miter;stroke-opacity:1;color:#000000;fill-opacity:1;fill-rule:nonzero;marker:none;visibility:visible;display:inline;overflow:visible;enable-background:accumulate"
       d="m 2079.6695,2526.786 c -1.043,-19.8163 7.3007,-17.7303 11.4726,-20.8592 -4.1719,-16.6875 5.2148,-35.4608 40.6756,-41.7186 9.3866,-12.5155 38.5896,-20.8593 57.363,-9.3867 14.6015,-9.3866 36.5037,-8.3437 44.8474,0 10.4297,-8.3437 22.9452,2.086 23.9882,4.1719 12.5155,-4.1719 29.203,0 35.4607,5.2148 16.6875,-6.2578 50.0623,6.2578 47.9764,20.8593 17.7304,11.4726 17.7304,23.9882 11.4726,31.2889 13.5585,9.3867 17.7304,50.0623 -22.9452,52.1482 -12.5156,14.6015 -43.8045,19.8163 -57.363,10.4296 -19.8163,3.1289 -32.3319,6.2578 -36.5038,-2.0859 -10.4296,8.3437 -35.4607,7.3007 -27.117,-7.3008 -12.8833,9.326 -27.07,6.1783 -37.8037,-0.3812 -19.6785,10.7337 -43.5312,5.3668 -42.3386,-5.9632 -26.8343,3.5779 -29.8159,-14.3117 -28.0269,-20.8711 -4.1743,-1.1927 -14.3117,-2.3853 -21.1583,-15.546 z"
       id="path4043"
       inkscape:connector-curvature="0" />
    <path
       style="fill:#ffffff;stroke:none;stroke-width:1px;stroke-linecap:butt;stroke-linejoin:miter;stroke-opacity:1;color:#000000;fill-opacity:1;fill-rule:nonzero;marker:none;visibility:visible;display:inline;overflow:visible;enable-background:accumulate"
       d="m 2121.6989,2606.7343 c 12.5227,-13.119 32.7975,-12.5227 31.0085,5.3668 8.9448,7.7522 4.7706,29.8159 -30.4122,16.6969 -13.7153,-6.5595 -18.4858,-19.6785 -0.5963,-22.0637 z"
       id="path4051"
       inkscape:connector-curvature="0" />
    <path
       style="fill:#ffffff;stroke:none;stroke-width:1px;stroke-linecap:butt;stroke-linejoin:miter;stroke-opacity:1;color:#000000;fill-opacity:1;fill-rule:nonzero;marker:none;visibility:visible;display:inline;overflow:visible;enable-background:accumulate"
       d="m 2084.0818,2637.1793 c 4.5827,-1.0212 8.3975,1.1598 11.3791,4.1414 7.7521,-4.1742 29.8159,11.3301 -0.5963,19.6785 -11.33,2.9816 -22.6601,-9.5411 -14.3116,-14.9079 -3.2186,-3.2186 -1.0539,-7.8909 3.5288,-8.912 z"
       id="path4059"
       inkscape:connector-curvature="0"
       sodipodi:nodetypes="zcccz" />
  </g>
  <g
     inkscape:groupmode="layer"
     id="layer1"
     inkscape:label="txt">
    <text
       xml:space="preserve"
       style="font-style:normal;font-variant:normal;font-weight:normal;font-stretch:normal;font-size:48px;line-height:0.01%;font-family:Lavi;-inkscape-font-specification:Lavi;letter-spacing:0px;word-spacing:0px;white-space:pre;inline-size:509.506;fill:#000000;fill-opacity:1;stroke:none"
       x="206.20845"
       y="194.71309"
       id="text2732"
       transform="translate(36.278763,0.69831848)"><tspan
         x="206.20845"
         y="194.71309"
         id="tspan53468"><tspan
   style="line-height:1.25"
   id="tspan53466">Sháadelol;</tspan>
</tspan><tspan
         x="206.20845"
         y="224.71548"
         id="tspan53470">
</tspan><tspan
         x="206.20845"
         y="254.71789"
         id="tspan53474"><tspan
           style="line-height:1.25"
           id="tspan53472">         sháal wehethu</tspan></tspan></text>
    <text
       xml:space="preserve"
       style="font-style:normal;font-variant:normal;font-weight:normal;font-stretch:normal;font-size:48px;line-height:0.01%;font-family:Lavi;-inkscape-font-specification:Lavi;text-align:center;letter-spacing:0px;word-spacing:0px;text-anchor:middle;white-space:pre;inline-size:492.477;fill:#000000;fill-opacity:1;stroke:none"
       x="278.54895"
       y="2249.0811"
       id="text8154"
       transform="translate(200,30)"><tspan
         x="278.54895"
         y="2249.0811"
         id="tspan53478"><tspan
           style="line-height:1.25"
           id="tspan53476">Wil thal háasháal.
</tspan></tspan><tspan
         x="278.54895"
         y="2309.0811"
         id="tspan53482"><tspan
   style="line-height:1.25"
   id="tspan53480">Bóo eb ni ashoshimeth</tspan><tspan
   y="2309.0811"
   id="tspan53484"> </tspan></tspan><tspan
         x="278.54895"
         y="2369.0811"
         id="tspan53488"><tspan
           style="line-height:1.25"
           id="tspan53486">nib ledim, lu.</tspan></tspan></text>
    <text
       xml:space="preserve"
       style="font-style:normal;font-variant:normal;font-weight:normal;font-stretch:normal;font-size:48px;line-height:0.01%;font-family:Lavi;-inkscape-font-specification:Lavi;text-align:center;letter-spacing:0px;word-spacing:0px;text-anchor:middle;white-space:pre;inline-size:421.91;fill:#000000;fill-opacity:1;stroke:none"
       x="1146.6927"
       y="2240.2009"
       id="text8168"
       transform="translate(140)"><tspan
         x="1146.6927"
         y="2240.2009"
         id="tspan53492"><tspan
           style="line-height:1.25"
           id="tspan53490">Bíi meham ben</tspan><tspan
           y="2240.2009"
           id="tspan53494"> </tspan></tspan><tspan
         x="1146.6927"
         y="2300.201"
         id="tspan53498"><tspan
           style="line-height:1.25"
           id="tspan53496">nuha wa. Bóo den</tspan><tspan
           y="2300.201"
           id="tspan53500"> </tspan></tspan><tspan
         x="1146.6927"
         y="2360.201"
         id="tspan53504"><tspan
           style="line-height:1.25"
           id="tspan53502">ne Lo* 60 beth.</tspan></tspan></text>
    <text
       xml:space="preserve"
       style="font-style:normal;font-variant:normal;font-weight:normal;font-stretch:normal;font-size:48px;line-height:0.01%;font-family:Lavi;-inkscape-font-specification:Lavi;text-align:center;letter-spacing:0px;word-spacing:0px;text-anchor:middle;white-space:pre;inline-size:251.427;fill:#000000;fill-opacity:1;stroke:none"
       x="2110.4006"
       y="2536.5222"
       id="text8174"
       transform="translate(108,-4)"><tspan
         x="2110.4006"
         y="2536.5222"
         id="tspan53508"><tspan
           style="line-height:1.25"
           id="tspan53506">... yana</tspan></tspan></text>
    <flowRoot
       xml:space="preserve"
       id="flowRoot2987-4-9-9-9"
       style="font-style:normal;font-variant:normal;font-weight:normal;font-stretch:normal;line-height:0.01%;font-family:Lavi;-inkscape-font-specification:Lavi;text-align:center;letter-spacing:0px;word-spacing:0px;text-anchor:middle;fill:#000000;fill-opacity:1;stroke:none;font-size:48.00000103px"
       transform="matrix(0.66530597,0,0,0.68592152,1908.0384,3217.8881)"><flowRegion
         id="flowRegion2989-5-4-7-7"><rect
           id="rect2991-7-9-4-3"
           width="605.24438"
           height="76.080559"
           x="120.55251"
           y="265.53046"
           style="font-style:normal;font-variant:normal;font-weight:normal;font-stretch:normal;font-family:Lavi;-inkscape-font-specification:Lavi;text-align:center;text-anchor:middle" /></flowRegion><flowPara
         style="line-height:1.25;text-align:start;text-anchor:start;fill:#a0a0a0;fill-opacity:1;font-size:48.00000103px"
         id="flowPara3080-9-7">* Lo = losh Sháadelol bethu</flowPara></flowRoot>
  </g>
</svg>
