<?xml version="1.0" encoding="UTF-8" standalone="no"?>
<svg
   xmlns:dc="http://purl.org/dc/elements/1.1/"
   xmlns:cc="http://creativecommons.org/ns#"
   xmlns:rdf="http://www.w3.org/1999/02/22-rdf-syntax-ns#"
   xmlns:svg="http://www.w3.org/2000/svg"
   xmlns="http://www.w3.org/2000/svg"
   xmlns:xlink="http://www.w3.org/1999/xlink"
   xmlns:sodipodi="http://sodipodi.sourceforge.net/DTD/sodipodi-0.dtd"
   xmlns:inkscape="http://www.inkscape.org/namespaces/inkscape"
   id="svg2"
   version="1.1"
   inkscape:version="1.0.2 (e86c8708, 2021-01-15)"
   width="2481"
   height="3503"
   sodipodi:docname="E36P06.svg">
  <metadata
     id="metadata8">
    <rdf:RDF>
      <cc:Work
         rdf:about="">
        <dc:format>image/svg+xml</dc:format>
        <dc:type
           rdf:resource="http://purl.org/dc/dcmitype/StillImage" />
        <dc:title />
      </cc:Work>
    </rdf:RDF>
  </metadata>
  <defs
     id="defs6" />
  <sodipodi:namedview
     pagecolor="#1e1e1e"
     bordercolor="#111111"
     borderopacity="1"
     objecttolerance="10"
     gridtolerance="10"
     guidetolerance="10"
     inkscape:pageopacity="0"
     inkscape:pageshadow="2"
     inkscape:window-width="1429"
     inkscape:window-height="943"
     id="namedview4"
     showgrid="false"
     inkscape:zoom="0.46000002"
     inkscape:cx="1048.9129"
     inkscape:cy="2667.3912"
     inkscape:window-x="0"
     inkscape:window-y="39"
     inkscape:window-maximized="0"
     inkscape:current-layer="layer3"
     inkscape:pagecheckerboard="0"
     inkscape:snap-global="false"
     inkscape:document-rotation="0" />
  <g
     inkscape:groupmode="layer"
     id="layer2"
     inkscape:label="artwork"
     sodipodi:insensitive="true">
    <image
       sodipodi:absref="/Users/gand/Documents/Pepper&amp;Carrot/ep36_The-Surprise-Attack/lang/gfx_Pepper-and-Carrot_by-David-Revoy_E36P06.png"
       xlink:href="../gfx_Pepper-and-Carrot_by-David-Revoy_E36P06.png"
       y="0"
       x="0"
       id="image10"
       height="3503"
       width="2481" />
  </g>
  <g
     inkscape:groupmode="layer"
     id="layer3"
     inkscape:label="speechbubbles"
     style="display:inline">
    <path
       style="color:#000000;display:inline;overflow:visible;visibility:visible;fill:#ffffff;fill-opacity:1;fill-rule:nonzero;stroke:none;stroke-width:0.825943px;marker:none;enable-background:accumulate"
       d="m 577.39062,1890.3496 c 13.55459,4.6614 27.39899,10.6876 36.98583,21.7461 6.87829,8.625 7.56098,20.6709 4.66066,30.9708 -1.44275,5.9611 -3.11819,12.8374 0.29351,18.4496 3.25292,4.4413 8.97247,5.7004 13.65335,8.0759 1.68146,0.5503 3.16657,2.0604 4.93205,2.0447 3.65441,-0.7862 8.30688,-4.5636 7.78517,-7.7805 0.4108,-14.3571 1.10006,-28.425 -3.6806,-42.3235 -4.09402,-10.8462 -16.4336,-19.4968 -27.02744,-23.2608 -13.09899,-5.2184 -27.0995,-7.7878 -41.09862,-9.0336 1.16537,0.3704 2.33073,0.7409 3.49609,1.1113 z"
       id="path4064-5-5"
       inkscape:connector-curvature="0"
       sodipodi:nodetypes="ccszccccccc" />
    <path
       style="color:#000000;display:inline;overflow:visible;visibility:visible;fill:#ffffff;fill-opacity:1;fill-rule:nonzero;stroke:none;stroke-width:1.1757px;marker:none;enable-background:accumulate"
       d="m 486.13705,2065.9711 c -0.0292,-37.3433 21.94951,-72.8613 53.77215,-94.4911 23.78224,-16.3962 53.68656,-25.1836 83.21431,-22.9471 32.62388,1.3719 65.38907,9.853 92.43099,27.4394 23.64481,15.1532 43.22206,37.833 48.54853,64.7652 6.10443,29.232 -7.56852,59.8463 -30.58413,79.5352 -14.24825,12.4038 -32.1799,20.7471 -51.16161,24.4628 -41.33032,8.4696 -84.77005,8.1351 -125.82264,-1.5858 -35.49949,-12.1532 -61.97118,-42.9508 -70.3976,-77.1786 z"
       id="path3365-8"
       inkscape:connector-curvature="0"
       sodipodi:nodetypes="cssccsc" />
    <path
       style="color:#000000;display:inline;overflow:visible;visibility:visible;fill:#ffffff;fill-opacity:1;fill-rule:nonzero;stroke:none;stroke-width:1.40655px;marker:none;enable-background:accumulate"
       d="m 1897.1141,1570.3017 c -50.8473,6.1761 -113.1372,-1.1979 -149.0984,47.4363 -35.6336,55.411 -29.5838,137.28 8.4664,189.1728 39.9566,39.7481 98.1494,35.4544 148.4301,40.9499 55.5977,1.4706 113.6902,0.2417 166.049,-21.9167 46.1766,-29.1242 57.3278,-94.6813 47.527,-148.1498 -3.8509,-49.6514 -37.8053,-95.1973 -84.5316,-98.7057 -45.1863,-8.0424 -91.2959,-5.726 -136.8425,-8.7868 z"
       id="path3525-1"
       inkscape:connector-curvature="0"
       sodipodi:nodetypes="ccccc" />
    <path
       style="color:#000000;display:inline;overflow:visible;visibility:visible;fill:#ffffff;fill-opacity:1;fill-rule:nonzero;stroke:none;stroke-width:0.844663px;marker:none;enable-background:accumulate"
       d="m 1973.1118,1889.6755 c -18.1752,-11.0216 -34.1079,-35.6909 -38.6041,-62.1813 -3.212,-15.891 -4.9491,-32.3534 -3.0603,-47.1809 2.5292,-4.9506 8.5452,-3.2093 12.36,1.2176 6.174,5.2735 12.9392,8.5628 18.8573,14.6149 3.5725,5.1778 3.8133,12.417 2.6585,17.788 -1.1636,10.2097 -2.5765,21.1708 0.8478,32.3369 4.2315,15.7365 13.9898,28.6271 24.2515,37.2817 12.3531,10.7595 26.1526,15.1864 39.0912,15.7949 0.045,0.4487 -1.409,0.4203 -1.8941,0.6592 -17.1414,4.2654 -36.4098,1.3261 -54.5078,-10.331 z"
       id="path4064-5"
       inkscape:connector-curvature="0"
       sodipodi:nodetypes="ccszc" />
    <path
       style="fill:#ffffff;stroke:none;stroke-width:1.29858"
       d="m 428.33222,2274.0147 c -60.70108,0.7266 -121.87361,0.4642 -181.78457,10.0414 -22.00231,3.5289 -44.18729,8.3841 -63.61526,18.2501 -15.0056,7.6229 -27.65149,18.84 -35.1662,32.4248 -10.20909,18.3562 -11.86971,39.6762 -7.12135,59.4484 6.00129,24.7766 23.03783,47.8461 48.01268,61.5678 19.2017,10.7258 41.9552,15.9294 64.64323,17.2676 42.72238,3.9084 85.544,6.9938 128.42754,9.2475 29.93472,1.6133 59.87965,3.1895 89.85521,4.1063 61.76836,1.2318 123.65022,-2.4334 184.69899,-10.554 22.43331,-3.4538 45.04358,-9.8906 62.61633,-22.8016 16.40729,-12.0501 26.22205,-29.5674 30.44259,-47.5343 3.8175,-15.3575 4.85892,-31.2491 3.00862,-46.8723 -2.10194,-14.3377 -8.49136,-28.5569 -20.29541,-39.0727 -13.10988,-12.3857 -30.90191,-20.7657 -49.79839,-24.5541 -20.13497,-4.774 -40.92703,-6.8962 -61.46836,-9.9334 -63.66707,-8.176 -128.11688,-11.2963 -192.45565,-11.0315 z"
       id="path3100-2"
       inkscape:connector-curvature="0" />
    <path
       style="fill:#ffffff;stroke:none;stroke-width:1.24853"
       d="m 435.69391,2411.1355 c -67.73126,1.4255 -136.41182,1.592 -202.30828,14.9613 -26.794,5.5849 -53.54908,16.109 -69.29705,34.6065 -21.36578,26.9283 -18.7463,62.8095 0.95036,90.1445 17.79098,24.9652 52.03771,41.749 88.04447,44.4582 47.52892,4.2758 95.25464,6.9026 143.00958,8.5905 24.70344,0.8358 49.38722,2.1318 74.09242,2.863 62.70595,1.2179 125.44492,-2.3285 187.36706,-9.5113 26.29906,-3.1885 53.28358,-8.9344 73.79817,-22.783 14.32484,-9.4092 23.41627,-22.8156 28.13143,-36.8796 6.66567,-19.3058 6.77011,-39.7754 3.21561,-59.5531 -3.45301,-15.7827 -12.90754,-32.1256 -31.2244,-40.5249 -19.6224,-9.0909 -42.82699,-10.1793 -64.62159,-13.6435 -76.33714,-10.3541 -153.90024,-13.9631 -231.15778,-12.7286 z"
       id="path3100-2-1"
       inkscape:connector-curvature="0" />
    <path
       style="fill:#ffffff;stroke:none;stroke-width:1.25761"
       d="m 547.3229,2549.8463 c -67.7912,3.2557 -139.08031,-0.022 -202.08212,30.8316 -32.84674,18.7498 -47.36564,60.2161 -44.00721,98.0957 1.67784,49.6041 33.41753,102.4889 82.86874,108.7634 50.2414,6.6848 100.93175,9.9193 151.51985,12.4244 66.4048,2.0134 134.32892,-0.3719 198.16274,-21.4517 32.41033,-13.7635 50.68159,-49.8269 52.76678,-85.4257 6.87525,-44.6192 -7.64552,-97.2272 -48.23773,-118.4303 -35.78599,-15.4717 -75.34212,-16.9512 -113.33933,-21.8202 -25.82167,-2.2685 -51.74306,-3.2354 -77.65172,-2.9872 z"
       id="path3100-2-1-9"
       inkscape:connector-curvature="0" />
    <path
       style="fill:#ffffff;fill-rule:evenodd;stroke:none;stroke-width:1px;stroke-linecap:butt;stroke-linejoin:miter;stroke-opacity:1"
       d="m 565.35803,2748.8183 c 0,0 15.49435,31.1557 18.76123,47.2541 3.26688,16.0984 -2.23396,98.2886 -54.0297,124.672 60.58129,-13.8373 97.25045,-97.2182 74.9118,-174.2445 -8.13467,-28.0492 -39.64333,2.3184 -39.64333,2.3184 z"
       id="path1357"
       inkscape:connector-curvature="0"
       sodipodi:nodetypes="cscsc" />
    <path
       style="color:#000000;display:inline;overflow:visible;visibility:visible;fill:#ffffff;fill-opacity:1;fill-rule:nonzero;stroke:none;stroke-width:1.08965px;marker:none;enable-background:accumulate"
       d="m 1098.3117,1613.416 c -30.0561,0.665 -60.8268,4.8405 -87.6861,17.7518 -23.02333,11.7343 -39.05644,32.595 -47.24967,55.0672 -5.73735,14.3929 -9.0441,30.6636 -3.16559,45.4728 7.25567,18.412 25.46164,31.7974 45.44216,37.9765 32.0708,11.2748 66.9022,12.4073 100.8597,13.4689 36.8096,0.8833 73.7254,1.6213 110.4661,-1.086 20.0222,-1.7873 40.3003,-6.7791 56.5514,-17.9635 13.3658,-8.7548 24.2994,-21.8232 26.1471,-37.0517 2.6821,-17.9924 -2.5686,-36.2294 -10.9106,-52.4672 -11.3378,-21.0264 -31.5095,-38.1831 -55.8662,-46.1168 -31.0131,-10.962 -64.6496,-12.5985 -97.5123,-14.3303 -12.3456,-0.5894 -24.7126,-0.9884 -37.076,-0.7217 z"
       id="path4546-6-89"
       inkscape:connector-curvature="0"
       sodipodi:nodetypes="cssssc" />
    <path
       style="color:#000000;display:inline;overflow:visible;visibility:visible;fill:#ffffff;fill-opacity:1;fill-rule:nonzero;stroke:none;stroke-width:1px;marker:none;enable-background:accumulate"
       d="m 1191.4693,1723.1631 c 34.2678,49.2543 68.9523,97.6924 121.3421,87.479 -53.9312,29.956 -129.2913,-39.4416 -157.7344,-79.0515 -24.1583,-33.6427 36.3923,-8.4275 36.3923,-8.4275 z"
       id="path4480-3"
       inkscape:connector-curvature="0"
       sodipodi:nodetypes="ccsc" />
    <path
       style="color:#000000;display:inline;overflow:visible;visibility:visible;fill:#ffffff;fill-opacity:1;fill-rule:nonzero;stroke:none;stroke-width:0.981731px;marker:none;enable-background:accumulate"
       d="m 926.821,2384.7386 c 1.10289,-41.5238 58.26163,-72.0916 214.8393,-64.8041 83.8714,3.9043 178.925,6.3303 178.2782,67.1567 -0.6471,60.8263 -137.0535,59.7186 -165.0549,61.2348 -28.0011,1.5161 -175.09509,-4.3702 -202.60092,-24.9684 -17.21805,-12.8943 -24.75025,-25.7617 -25.46168,-38.619 z"
       id="path4546-6-89-3"
       inkscape:connector-curvature="0"
       sodipodi:nodetypes="cssssc" />
    <path
       style="fill:#ffffff;stroke:none;stroke-width:0.839867"
       d="m 1191.6612,2424.9112 c 139.5256,6.2934 191.5057,18.2924 200.0502,145.4044 11.8268,175.9229 -106.4572,184.701 -270.1451,176.5139 -176.60867,-8.8335 -179.73698,-112.4756 -176.43638,-197.0237 5.69513,-145.9021 103.44558,-127.8186 246.53128,-124.8946 z"
       id="path3280-8-0"
       inkscape:connector-curvature="0"
       sodipodi:nodetypes="csssc" />
    <path
       style="color:#000000;display:inline;overflow:visible;visibility:visible;fill:#ffffff;fill-opacity:1;fill-rule:nonzero;stroke:none;stroke-width:1px;marker:none;enable-background:accumulate"
       d="m 1210.7284,2694.9039 c -14.7937,34.7302 -29.7284,103.9977 49.732,149.2666 -38.7431,-11.0789 -115.7589,-45.8618 -84.4037,-150.4179 9.0983,-30.339 16.322,-15.8945 23.6557,-14.9665 7.3338,0.9279 11.016,16.1178 11.016,16.1178 z"
       id="path4064-3"
       inkscape:connector-curvature="0"
       sodipodi:nodetypes="ccszc" />
    <path
       style="color:#000000;display:inline;overflow:visible;visibility:visible;fill:#ffffff;fill-opacity:1;fill-rule:nonzero;stroke:none;stroke-width:0.762912px;marker:none;enable-background:accumulate"
       d="m 1670.2134,2304.8762 c 29.6071,-39.6682 80.2448,-42.2159 123.2961,-42.2394 40.5323,1.0129 82.8771,3.7125 120.0955,22.7913 23.9838,12.2041 40.1977,44.8101 26.7448,72.1033 -16.5947,23.4202 -46.6602,23.0482 -70.8185,29.5615 -47.6674,7.4345 -95.9064,0.6211 -143.3518,-5.5691 -21.6325,-4.6029 -48.2533,-9.8591 -57.104,-35.6353 -5.0249,-12.5917 -7.2856,-29.5328 1.1379,-41.0123 z"
       id="path3533-6"
       inkscape:connector-curvature="0" />
    <path
       style="fill:#ffffff;fill-rule:evenodd;stroke:none;stroke-width:1.38581px;stroke-linecap:butt;stroke-linejoin:miter;stroke-opacity:1"
       d="m 1854.546,2372.7244 c 38.9505,26.0497 41.6227,92.7882 26.6214,123.6319 14.1425,-16.2403 51.5149,-98.8625 -6.7766,-150.4117 -47.9683,-42.42 -26.0826,20.6575 -26.0826,20.6575 z"
       id="path4248"
       inkscape:connector-curvature="0"
       sodipodi:nodetypes="ccscc" />
    <path
       style="display:inline;fill:#ffffff;stroke:none;stroke-width:0.994595"
       d="m 2064.8877,2367.6599 c 0.6414,-44.3595 24.3072,-84.2461 131.8193,-77.1267 107.5122,7.1193 142.8181,11.8987 143.038,72.3809 0.2301,63.2975 -53.2334,78.1849 -134.6101,80.635 -83.8905,2.5256 -139.9151,-23.1978 -140.2472,-75.8892 z"
       id="path3280-64"
       inkscape:connector-curvature="0"
       sodipodi:nodetypes="csssc" />
    <path
       style="color:#000000;display:inline;overflow:visible;visibility:visible;fill:#ffffff;fill-opacity:1;fill-rule:nonzero;stroke:none;stroke-width:1.00876px;marker:none;enable-background:accumulate"
       d="m 2225.6941,2499.207 c 29.3281,-35.4419 42.8909,-48.473 14.1537,-86.3903 -28.7372,-37.9162 -14.1521,-48.0944 -14.1521,-48.0944 l 30.5785,11.3041 c 0,0 63.9999,68.3303 -30.5801,123.1806 z"
       id="path3072-56"
       inkscape:connector-curvature="0"
       sodipodi:nodetypes="ccccc" />
    <path
       style="color:#000000;display:inline;overflow:visible;visibility:visible;fill:#ffffff;fill-opacity:1;fill-rule:nonzero;stroke:none;stroke-width:0.719299px;marker:none;enable-background:accumulate"
       d="m 2128.8746,2857.9175 c 16.7613,-9.9895 136.3147,-19.5563 170.2493,6.1257 28.3247,21.4363 26.5072,63.4313 0.5658,79.2151 -26.4284,16.0793 -127.1439,10.4002 -166.0708,2.6999 -36.6568,-7.2509 -35.9935,-24.7778 -34.9936,-55.3282 0.4081,-12.4682 13.4881,-22.7237 30.2493,-32.7125 z"
       id="path4040-4-5-3-6"
       inkscape:connector-curvature="0"
       sodipodi:nodetypes="zssssz" />
    <path
       style="color:#000000;display:inline;overflow:visible;visibility:visible;fill:#ffffff;fill-opacity:1;fill-rule:nonzero;stroke:none;stroke-width:0.76562px;marker:none;enable-background:accumulate"
       d="m 2213.0192,2932.3993 c -24.5343,0.6034 -49.2388,2.8489 -73.0158,10.4239 -14.062,3.8736 -28.824,6.2524 -41.4839,15.0179 -10.5919,7.1872 -20.1487,16.5512 -28.1096,27.4979 -4.8125,7.4446 -7.0135,16.8968 -6.9531,26.1957 -0.8846,14.8074 1.1357,30.5851 8.7003,42.8057 7.7297,12.4857 19.7092,20.1605 31.9272,24.862 31.5222,13.4612 65.3278,16.7034 98.5972,17.3147 27.4685,0.2673 55.249,0.3062 82.2038,-6.7829 10.9751,-2.9335 21.8386,-6.8639 31.9691,-12.7063 15.9904,-10.6744 25.9911,-31.7651 27.0633,-53.2266 1.2321,-18.9355 -3.8483,-38.9852 -15.514,-52.4062 -9.4689,-10.3911 -22.0878,-15.1955 -34.3126,-19.0498 -21.3204,-6.433 -42.223,-15.2088 -64.0979,-18.7603 -5.6233,-0.8931 -11.3013,-1.2722 -16.974,-1.1857 z"
       id="path4040-4-5-3"
       inkscape:connector-curvature="0"
       sodipodi:nodetypes="zssssz" />
    <path
       style="display:inline;fill:#ffffff;fill-rule:evenodd;stroke:none;stroke-width:1px;stroke-linecap:butt;stroke-linejoin:miter;stroke-opacity:1"
       d="m 2233.8905,2901.4843 c -59.0902,-10.6562 16.1202,-61.0715 -1.0396,-83.0609 -8.296,-10.6309 -45.3019,13.7249 -85.4552,-27.1328 44.274,25.5713 73.4492,-3.2499 94.1628,5.6982 39.3401,16.9937 6.1746,61.0235 5.4438,70.8494 -0.9776,13.1415 -13.1118,33.6461 -13.1118,33.6461 z"
       id="path4186-80"
       inkscape:connector-curvature="0"
       sodipodi:nodetypes="cscssc" />
  </g>
  <g
     inkscape:groupmode="layer"
     id="layer1"
     inkscape:label="txt"
     style="display:inline">
    <text
       id="text4246-4-2-7"
       y="2035.0352"
       x="630.4826"
       style="font-style:normal;font-variant:normal;font-weight:normal;font-stretch:normal;line-height:0%;font-family:Lavi;-inkscape-font-specification:Lavi;text-align:center;letter-spacing:0px;word-spacing:0px;text-anchor:middle;fill:#000000;fill-opacity:1;stroke:none"
       xml:space="preserve"><tspan
         y="2035.0352"
         x="630.4826"
         style="font-size:45px;line-height:1.25"
         sodipodi:role="line"
         id="tspan2677">Eravamo</tspan><tspan
         y="2091.2852"
         x="630.4826"
         style="font-size:45px;line-height:1.25"
         sodipodi:role="line"
         id="tspan5816">così vicine…</tspan></text>
    <text
       id="text4246-4-2-7-3-2"
       y="1685.6537"
       x="1133.2744"
       style="font-style:normal;font-variant:normal;font-weight:normal;font-stretch:normal;line-height:0%;font-family:Lavi;-inkscape-font-specification:Lavi;text-align:center;letter-spacing:0px;word-spacing:0px;text-anchor:middle;fill:#000000;fill-opacity:1;stroke:none"
       xml:space="preserve"><tspan
         y="1685.6537"
         x="1133.2744"
         style="font-size:45px;line-height:1.25"
         sodipodi:role="line"
         id="tspan103302">Si,</tspan><tspan
         y="1741.9037"
         x="1133.2744"
         style="font-size:45px;line-height:1.25"
         sodipodi:role="line"
         id="tspan11289">ad un soffio.</tspan></text>
    <text
       id="text4246-4-2-7-3"
       y="1638.6501"
       x="1922.8013"
       style="font-style:normal;font-variant:normal;font-weight:normal;font-stretch:normal;line-height:0%;font-family:Lavi;-inkscape-font-specification:Lavi;text-align:center;letter-spacing:0px;word-spacing:0px;text-anchor:middle;fill:#000000;fill-opacity:1;stroke:none"
       xml:space="preserve"><tspan
         y="1638.6501"
         x="1922.8013"
         style="font-size:45px;line-height:1.25"
         sodipodi:role="line"
         id="tspan14192">In ogni caso,</tspan><tspan
         y="1694.9001"
         x="1922.8013"
         style="font-size:45px;line-height:1.25"
         sodipodi:role="line"
         id="tspan17531">sai perché</tspan><tspan
         y="1751.1501"
         x="1922.8013"
         style="font-size:45px;line-height:1.25"
         sodipodi:role="line"
         id="tspan26099"> Wasabi ce l'ha</tspan><tspan
         y="1807.4001"
         x="1922.8013"
         style="font-size:45px;line-height:1.25"
         sodipodi:role="line"
         id="tspan1620">con me?</tspan></text>
    <text
       id="text4246-4-2-7-3-6-7"
       y="2348.5913"
       x="447.81973"
       style="font-style:normal;font-variant:normal;font-weight:normal;font-stretch:normal;line-height:0%;font-family:Lavi;-inkscape-font-specification:Lavi;text-align:center;letter-spacing:0px;word-spacing:0px;text-anchor:middle;fill:#000000;fill-opacity:1;stroke:none"
       xml:space="preserve"><tspan
         y="2348.5913"
         x="447.81973"
         style="font-size:45px;line-height:1.25;fill:#000000"
         sodipodi:role="line"
         id="tspan143860">Lei è spaventata dalle </tspan><tspan
         y="2404.8413"
         x="447.81973"
         style="font-size:45px;line-height:1.25;fill:#000000"
         sodipodi:role="line"
         id="tspan32649">streghe di Chaosah, Pepper…</tspan></text>
    <text
       id="text4246-4-2-7-3-6-7-6"
       y="2493.0842"
       x="456.73358"
       style="font-style:normal;font-variant:normal;font-weight:normal;font-stretch:normal;line-height:0%;font-family:Lavi;-inkscape-font-specification:Lavi;text-align:center;letter-spacing:0px;word-spacing:0px;text-anchor:middle;fill:#000000;fill-opacity:1;stroke:none"
       xml:space="preserve"><tspan
         y="2493.0842"
         x="456.73358"
         style="font-size:45px;line-height:1.25;fill:#000000"
         sodipodi:role="line"
         id="tspan83621">In modo particolare per </tspan><tspan
         y="2549.3342"
         x="456.73358"
         style="font-size:45px;line-height:1.25;fill:#000000"
         sodipodi:role="line"
         id="tspan39739">le vostre <tspan
   style="font-style:normal;font-variant:normal;font-weight:bold;font-stretch:normal;font-family:Lavi;-inkscape-font-specification:'Lavi Bold'"
   id="tspan1622">reazioni a catena.</tspan></tspan></text>
    <text
       id="text4246-4-2-7-3-6-7-6-6"
       y="2639.3904"
       x="542.9151"
       style="font-style:normal;font-variant:normal;font-weight:normal;font-stretch:normal;line-height:0%;font-family:Lavi;-inkscape-font-specification:Lavi;text-align:center;letter-spacing:0px;word-spacing:0px;text-anchor:middle;fill:#000000;fill-opacity:1;stroke:none"
       xml:space="preserve"><tspan
         y="2639.3904"
         x="542.9151"
         style="font-size:45px;line-height:1.25;fill:#000000"
         sodipodi:role="line"
         id="tspan1629">Lei crede che siano</tspan><tspan
         y="2695.6404"
         x="542.9151"
         style="font-size:45px;line-height:1.25;fill:#000000"
         sodipodi:role="line"
         id="tspan1633">una grave minaccia</tspan><tspan
         y="2751.8904"
         x="542.9151"
         style="font-size:45px;line-height:1.25;fill:#000000"
         sodipodi:role="line"
         id="tspan1631">per i suoi piani.</tspan></text>
    <text
       id="text4246-4-2-7-3-6-7-6-6-4"
       y="2394.4653"
       x="1119.1504"
       style="font-style:normal;font-variant:normal;font-weight:normal;font-stretch:normal;line-height:0%;font-family:Lavi;-inkscape-font-specification:Lavi;text-align:center;letter-spacing:0px;word-spacing:0px;text-anchor:middle;fill:#000000;fill-opacity:1;stroke:none"
       xml:space="preserve"><tspan
         y="2394.4653"
         x="1119.1504"
         style="font-size:45px;line-height:1.25;fill:#000000"
         sodipodi:role="line"
         id="tspan83621-1-4">Oh, quello, pfuff…</tspan></text>
    <text
       id="text4246-4-2-7-3-6-7-6-6-4-5"
       y="2493.9824"
       x="1158.9216"
       style="font-style:normal;font-variant:normal;font-weight:normal;font-stretch:normal;line-height:0%;font-family:Lavi;-inkscape-font-specification:Lavi;text-align:center;letter-spacing:0px;word-spacing:0px;text-anchor:middle;fill:#000000;fill-opacity:1;stroke:none"
       xml:space="preserve"><tspan
         y="2493.9824"
         x="1158.9216"
         style="font-size:45px;line-height:1.25;fill:#000000"
         sodipodi:role="line"
         id="tspan74276">Non c'è bisogno</tspan><tspan
         y="2550.2324"
         x="1158.9216"
         style="font-size:45px;line-height:1.25;fill:#000000"
         sodipodi:role="line"
         id="tspan1643">che si preoccupi;</tspan><tspan
         y="2606.4824"
         x="1158.9216"
         style="font-size:45px;line-height:1.25;fill:#000000"
         sodipodi:role="line"
         id="tspan82280">non sono mai</tspan><tspan
         y="2662.7324"
         x="1158.9216"
         style="font-size:45px;line-height:1.25;fill:#000000"
         sodipodi:role="line"
         id="tspan1661">riuscita a farne</tspan><tspan
         y="2718.9824"
         x="1158.9216"
         style="font-size:45px;line-height:1.25;fill:#000000"
         sodipodi:role="line"
         id="tspan1677">partire una.</tspan></text>
    <text
       id="text4246-4-2-7-3-6-7-6-6-4-5-1"
       y="2338.7527"
       x="1802.5892"
       style="font-style:normal;font-variant:normal;font-weight:normal;font-stretch:normal;line-height:0%;font-family:Lavi;-inkscape-font-specification:Lavi;text-align:center;letter-spacing:0px;word-spacing:0px;text-anchor:middle;fill:#000000;fill-opacity:1;stroke:none"
       xml:space="preserve"><tspan
         y="2338.7527"
         x="1802.5892"
         style="font-size:45px;line-height:1.25;fill:#000000"
         sodipodi:role="line"
         id="tspan186800-2">Veramente?</tspan></text>
    <text
       id="text4246-4-2-7-3-6-7-6-6-4-5-1-6"
       y="2351.8303"
       x="2202.064"
       style="font-style:normal;font-variant:normal;font-weight:normal;font-stretch:normal;font-size:39px;line-height:0%;font-family:Lavi;-inkscape-font-specification:Lavi;text-align:center;letter-spacing:0px;word-spacing:0px;text-anchor:middle;fill:#000000;fill-opacity:1;stroke:none"
       xml:space="preserve"><tspan
         y="2351.8303"
         x="2202.064"
         style="font-size:39px;line-height:1.25;fill:#000000"
         sodipodi:role="line"
         id="tspan201029">Si, davvero,</tspan><tspan
         y="2400.5803"
         x="2202.064"
         style="font-size:39px;line-height:1.25;fill:#000000"
         sodipodi:role="line"
         id="tspan94771">ha ha ha!</tspan></text>
    <text
       id="text4246-4-2-7-3-6-7-6-6-4-5-1-6-5"
       y="2911.1982"
       x="2205.9717"
       style="font-style:normal;font-variant:normal;font-weight:normal;font-stretch:normal;font-size:42.5063px;line-height:0%;font-family:Lavi;-inkscape-font-specification:Lavi;text-align:center;letter-spacing:0px;word-spacing:0px;text-anchor:middle;fill:#000000;fill-opacity:1;stroke:none;stroke-width:1.0899"
       xml:space="preserve"><tspan
         y="2911.1982"
         x="2205.9717"
         style="font-size:42.5063px;line-height:1.25;fill:#000000;stroke-width:1.0899"
         sodipodi:role="line"
         id="tspan201029-4">Hee-hee!</tspan></text>
    <text
       id="text4246-4-2-7-3-6-7-6-6-4-5-1-6-5-7"
       y="3002.9026"
       x="2200.3838"
       style="font-style:normal;font-variant:normal;font-weight:normal;font-stretch:normal;font-size:39px;line-height:0%;font-family:Lavi;-inkscape-font-specification:Lavi;text-align:center;letter-spacing:0px;word-spacing:0px;text-anchor:middle;fill:#000000;fill-opacity:1;stroke:none"
       xml:space="preserve"><tspan
         y="3002.9026"
         x="2200.3838"
         style="font-size:39px;line-height:1.25;fill:#000000"
         sodipodi:role="line"
         id="tspan215195">Lei è così </tspan><tspan
         y="3051.6526"
         x="2200.3838"
         style="font-size:39px;line-height:1.25;fill:#000000"
         sodipodi:role="line"
         id="tspan104571">paranoica…</tspan></text>
  </g>
</svg>
