<?xml version="1.0" encoding="UTF-8" standalone="no"?>
<svg
   xmlns:dc="http://purl.org/dc/elements/1.1/"
   xmlns:cc="http://creativecommons.org/ns#"
   xmlns:rdf="http://www.w3.org/1999/02/22-rdf-syntax-ns#"
   xmlns:svg="http://www.w3.org/2000/svg"
   xmlns="http://www.w3.org/2000/svg"
   xmlns:xlink="http://www.w3.org/1999/xlink"
   xmlns:sodipodi="http://sodipodi.sourceforge.net/DTD/sodipodi-0.dtd"
   xmlns:inkscape="http://www.inkscape.org/namespaces/inkscape"
   sodipodi:docname="E35P05.svg"
   height="3503"
   width="2481"
   inkscape:version="0.92.5 (2060ec1f9f, 2020-04-08)"
   version="1.1"
   id="svg2">
  <metadata
     id="metadata8">
    <rdf:RDF>
      <cc:Work
         rdf:about="">
        <dc:format>image/svg+xml</dc:format>
        <dc:type
           rdf:resource="http://purl.org/dc/dcmitype/StillImage" />
        <dc:title />
      </cc:Work>
    </rdf:RDF>
  </metadata>
  <defs
     id="defs6" />
  <sodipodi:namedview
     inkscape:pagecheckerboard="0"
     inkscape:snap-global="false"
     inkscape:document-rotation="0"
     inkscape:current-layer="layer1"
     inkscape:window-maximized="1"
     inkscape:window-y="27"
     inkscape:window-x="0"
     inkscape:cy="1098.1123"
     inkscape:cx="1538.2255"
     inkscape:zoom="0.20000001"
     showgrid="false"
     id="namedview4"
     inkscape:window-height="704"
     inkscape:window-width="1366"
     inkscape:pageshadow="2"
     inkscape:pageopacity="0"
     guidetolerance="10"
     gridtolerance="10"
     objecttolerance="10"
     borderopacity="1"
     bordercolor="#666666"
     pagecolor="#ffffff" />
  <g
     sodipodi:insensitive="true"
     inkscape:label="artwork"
     id="layer2"
     inkscape:groupmode="layer">
    <image
       sodipodi:absref="/home/juanjo/Comics/lang-ep-35/es/../gfx_Pepper-and-Carrot_by-David-Revoy_E35P05.png"
       xlink:href="../gfx_Pepper-and-Carrot_by-David-Revoy_E35P05.png"
       width="2481"
       height="3503"
       id="image10"
       x="0"
       y="0" />
  </g>
  <g
     inkscape:label="speechbubbles"
     id="layer3"
     inkscape:groupmode="layer">
    <path
       sodipodi:nodetypes="ccccccccccccccc"
       inkscape:connector-curvature="0"
       id="path3549-3-1"
       d="m 1284.0228,3036.6191 c 2.3711,-35.2866 12.999,-34.9849 49.592,-3.067 -9.6561,-62.9304 39.4735,-65.9059 85.2617,-72.2891 -5.2515,-17.6816 -25.5249,-37.9887 7.3406,-49.0096 -17.6529,-10.5394 -17.71,-24.5601 -2.0669,-41.6866 -36.5453,8.1611 -50.2915,3.1364 -7.0678,-34.8365 -40.7954,21.5729 -79.8624,40.777 -64.4767,-14.6168 -15.448,7.5397 -24.0666,51.3953 -84.5707,-28.8246 -0.685,36.9373 -61.3955,67.3285 -91.2101,19.6447 15.0937,39.7309 -34.3828,85.3245 -57.5827,53.4256 13.7821,22.2732 2.3911,44.0543 -14.9763,47.7038 49.3094,5.8931 39.4173,19.3944 5.2845,41.7916 101.562,3.496 45.6699,25.7471 46.1677,40.8097 61.8272,-13.8535 57.8538,14.2909 66.7056,35.1552 58.8792,-63.6402 40.9913,-52.2733 61.5991,5.7996 z"
       style="color:#000000;display:inline;overflow:visible;visibility:visible;fill:#ffffff;fill-opacity:1;fill-rule:nonzero;stroke:none;stroke-width:1.14699px;marker:none;enable-background:accumulate" />
    <path
       sodipodi:nodetypes="cccccccccccccccccccc"
       inkscape:connector-curvature="0"
       id="path3549-3-7"
       d="m 1218.2889,2922.758 c -8.1531,30.0563 -54.1377,32.5766 -71.0659,26.4672 34.1234,33.6236 32.9338,54.5143 -13.3959,57.758 77.6959,60.5985 24.8273,70.9626 1.6805,66.7946 61.0056,20.8835 64.2551,70.3701 22.8498,72.7463 70.1199,0.8888 47.1728,42.3617 50.1286,75.3924 5.9444,-15.4994 34.1846,-62.6866 35.8841,-10.1468 38.372,-38.979 84.7226,-58.1159 106.6798,5.2157 18.6872,-44.1297 37.3189,-62.7807 35.8846,-10.1468 46.3012,-68.457 87.9099,-43.8156 129.7645,-24.4672 -9.5282,-20.9938 -34.6979,-53.1645 47.8387,-44.9659 -29.044,-19.8306 -30.2581,-33.5516 34.1402,-42.9171 -36.0362,-12.3711 -42.6776,-25.1317 24.2335,-38.8641 -50.9153,-1.3283 -98.3943,-4.0497 -38.6595,-50.8811 -18.7406,-1.1331 -63.2043,37.9442 -42.4735,-76.4165 -32.2253,36.6108 -66.6067,56.8175 -109.7242,-19.8729 -20.4056,38.313 -55.7983,57.2718 -71.1955,9.4158 -5.5344,20.4019 -28.4822,28.0747 -47.9632,29.0051 -7.533,-8.1039 -15.3032,-19.1113 -23.411,-33.5326 -13.2519,30.281 -33.0755,50.7315 -71.1956,9.4159 z"
       style="color:#000000;display:inline;overflow:visible;visibility:visible;fill:#ffffff;fill-opacity:1;fill-rule:nonzero;stroke:none;stroke-width:1.22955167px;marker:none;enable-background:accumulate" />
    <path
       sodipodi:nodetypes="ccsccscsc"
       inkscape:transform-center-y="220.66697"
       inkscape:transform-center-x="-51.96084"
       inkscape:connector-curvature="0"
       id="path891"
       d="m 1204.7404,2519.8617 c 50.5917,78.9459 60.9555,113.3414 65.2028,134.3512 -41.2056,-22.133 -58.2095,-26.0517 -64.1574,-16.5377 -5.9478,9.5142 78.8131,323.8736 78.8131,323.8736 l 27.3427,-77.0906 c 0,0 -45.9792,-134.5245 -55.8759,-162.7161 -9.897,-28.1916 -17.6794,-59.5815 -17.6794,-59.5815 0,0 32.7448,22.5895 42.5581,23.1114 9.813,0.5218 45.9229,-15.5328 -76.204,-165.4103 z"
       style="fill:#ffffff;fill-rule:evenodd;stroke:none;stroke-width:1.65188px;stroke-linecap:butt;stroke-linejoin:miter;stroke-opacity:1" />
    <path
       inkscape:connector-curvature="0"
       id="path1355"
       d="m 2185.1028,3280.612 c 1.1322,-19.455 14.7184,-55.122 35.0979,-61.607 20.3793,-6.485 76.9887,-6.485 88.3106,-3.242 11.3219,3.242 29.4369,27.02 33.9657,36.748 4.5288,9.727 16.9828,44.313 -3.3965,58.364 -20.3795,14.051 -40.7588,24.859 -62.2705,23.778 -21.5116,-1.081 -64.5347,-8.647 -74.7244,-21.616 -10.1897,-12.97 -16.9828,-32.425 -16.9828,-32.425 z"
       style="fill:#ffffff;fill-rule:evenodd;stroke:none;stroke-width:1.02349px;stroke-linecap:butt;stroke-linejoin:miter;stroke-opacity:1" />
    <path
       inkscape:connector-curvature="0"
       id="path1367"
       d="m 2210.3858,3260.9854 c 0,0 -9.9729,30.1184 -20.5324,37.3461 -10.5597,7.2275 -37.179,18.9359 -56.6531,11.8546 35.6758,21.6634 55.6021,14.7863 64.3759,10.0326 8.7751,-4.7533 39.4153,-35.3687 39.4153,-35.3687 z"
       style="fill:#ffffff;fill-rule:evenodd;stroke:none;stroke-width:1.40704px;stroke-linecap:butt;stroke-linejoin:miter;stroke-opacity:1" />
  </g>
  <g
     inkscape:label="txt"
     id="layer1"
     inkscape:groupmode="layer">
    <text
       transform="skewX(-9.8231434)"
       id="text4246-3-2-2"
       y="2937.1594"
       x="1781.5028"
       style="font-style:normal;font-variant:normal;font-weight:normal;font-stretch:normal;font-size:64px;line-height:1.25;font-family:Lavi;-inkscape-font-specification:Lavi;text-align:center;letter-spacing:0px;word-spacing:0px;text-anchor:middle;fill:#000000;fill-opacity:1;stroke:none"
       xml:space="preserve"><tspan
         id="tspan905"
         y="2937.1594"
         x="1781.5028"
         sodipodi:role="line"
         style="font-style:normal;font-variant:normal;font-weight:bold;font-stretch:normal;font-size:64px;font-family:Lavi;-inkscape-font-specification:'Lavi Bold'">¡JOLÍN!</tspan></text>
    <text
       id="text4246-3-2-2-7"
       y="3061.1643"
       x="1346.6593"
       style="font-style:normal;font-variant:normal;font-weight:normal;font-stretch:normal;font-size:56px;line-height:1.25;font-family:Lavi;-inkscape-font-specification:Lavi;text-align:center;letter-spacing:0px;word-spacing:0px;text-anchor:middle;fill:#000000;fill-opacity:1;stroke:none"
       xml:space="preserve"><tspan
         id="tspan935"
         y="3061.1643"
         x="1346.6593"
         sodipodi:role="line"
         style="font-style:normal;font-variant:normal;font-weight:bold;font-stretch:normal;font-size:56px;font-family:Lavi;-inkscape-font-specification:'Lavi Bold'">  ¡¿QUÉ PUEDO</tspan><tspan
         id="tspan847"
         y="3131.1643"
         x="1346.6593"
         sodipodi:role="line"
         style="font-style:normal;font-variant:normal;font-weight:bold;font-stretch:normal;font-size:56px;font-family:Lavi;-inkscape-font-specification:'Lavi Bold'">HACER?!</tspan></text>
    <text
       id="text4246-3-2-2-7-3"
       y="3294.04"
       x="2267.2617"
       style="font-style:normal;font-variant:normal;font-weight:normal;font-stretch:normal;font-size:56px;line-height:1.25;font-family:Lavi;-inkscape-font-specification:Lavi;text-align:center;letter-spacing:0px;word-spacing:0px;text-anchor:middle;fill:#000000;fill-opacity:1;stroke:none"
       xml:space="preserve"><tspan
         id="tspan935-6"
         y="3294.04"
         x="2267.2617"
         sodipodi:role="line"
         style="font-style:normal;font-variant:normal;font-weight:bold;font-stretch:normal;font-size:56px;font-family:Lavi;-inkscape-font-specification:'Lavi Bold'">¡Oh!</tspan></text>
  </g>
</svg>
