<?xml version="1.0" encoding="UTF-8" standalone="no"?>
<svg
   xmlns:dc="http://purl.org/dc/elements/1.1/"
   xmlns:cc="http://creativecommons.org/ns#"
   xmlns:rdf="http://www.w3.org/1999/02/22-rdf-syntax-ns#"
   xmlns:svg="http://www.w3.org/2000/svg"
   xmlns="http://www.w3.org/2000/svg"
   xmlns:xlink="http://www.w3.org/1999/xlink"
   xmlns:sodipodi="http://sodipodi.sourceforge.net/DTD/sodipodi-0.dtd"
   xmlns:inkscape="http://www.inkscape.org/namespaces/inkscape"
   sodipodi:docname="E35P12.svg"
   height="3503"
   width="2481"
   inkscape:version="0.92.5 (2060ec1f9f, 2020-04-08)"
   version="1.1"
   id="svg2">
  <metadata
     id="metadata8">
    <rdf:RDF>
      <cc:Work
         rdf:about="">
        <dc:format>image/svg+xml</dc:format>
        <dc:type
           rdf:resource="http://purl.org/dc/dcmitype/StillImage" />
        <dc:title />
      </cc:Work>
    </rdf:RDF>
  </metadata>
  <defs
     id="defs6" />
  <sodipodi:namedview
     inkscape:pagecheckerboard="0"
     inkscape:document-rotation="0"
     inkscape:current-layer="layer1"
     inkscape:window-maximized="1"
     inkscape:window-y="27"
     inkscape:window-x="0"
     inkscape:cy="2250.6512"
     inkscape:cx="1580.9274"
     inkscape:zoom="0.34980126"
     showgrid="false"
     id="namedview4"
     inkscape:window-height="704"
     inkscape:window-width="1366"
     inkscape:pageshadow="2"
     inkscape:pageopacity="0"
     guidetolerance="10"
     gridtolerance="10"
     objecttolerance="10"
     borderopacity="1"
     bordercolor="#666666"
     pagecolor="#ffffff" />
  <g
     sodipodi:insensitive="true"
     inkscape:label="artwork"
     id="layer2"
     inkscape:groupmode="layer">
    <image
       sodipodi:absref="/home/juanjo/Comics/lang-ep-35/es/../gfx_Pepper-and-Carrot_by-David-Revoy_E35P12.png"
       xlink:href="../gfx_Pepper-and-Carrot_by-David-Revoy_E35P12.png"
       y="0"
       x="0"
       id="image10"
       height="3503"
       width="2481" />
  </g>
  <g
     inkscape:label="speechbubbles"
     id="layer3"
     inkscape:groupmode="layer">
    <rect
       y="865.21362"
       x="118.08462"
       height="222.37225"
       width="495.01044"
       id="rect1254"
       style="color:#000000;overflow:visible;opacity:1;vector-effect:none;fill:#ffffff;fill-opacity:1;stroke-width:0;stroke-linecap:round;stroke-linejoin:miter;stroke-miterlimit:4;stroke-dasharray:none;stroke-dashoffset:0;stroke-opacity:1;paint-order:stroke fill markers" />
    <rect
       y="1822.9106"
       x="1138.6371"
       height="183.42383"
       width="396.67682"
       id="rect1256"
       style="color:#000000;font-variation-settings:normal;overflow:visible;opacity:1;vector-effect:none;fill:#ffffff;fill-opacity:1;stroke-width:0;stroke-linecap:round;stroke-linejoin:miter;stroke-miterlimit:4;stroke-dasharray:none;stroke-dashoffset:0;stroke-opacity:1;paint-order:stroke fill markers;stop-color:#000000;stop-opacity:1" />
    <rect
       y="888.93719"
       x="1634.1818"
       height="130.19362"
       width="349.26062"
       id="rect1256-3"
       style="color:#000000;font-variation-settings:normal;overflow:visible;opacity:1;vector-effect:none;fill:#ffffff;fill-opacity:1;stroke-width:0;stroke-linecap:round;stroke-linejoin:miter;stroke-miterlimit:4;stroke-dasharray:none;stroke-dashoffset:0;stroke-opacity:1;paint-order:stroke fill markers;stop-color:#000000" />
  </g>
  <g
     inkscape:label="txt"
     id="layer1"
     inkscape:groupmode="layer">
    <text
       id="text4246-3-2-2"
       y="935.68262"
       x="362.936"
       style="font-style:normal;font-variant:normal;font-weight:normal;font-stretch:normal;font-size:45px;line-height:1.25;font-family:Lavi;-inkscape-font-specification:Lavi;text-align:center;letter-spacing:0px;word-spacing:0px;text-anchor:middle;fill:#000000;fill-opacity:1;stroke:none"
       xml:space="preserve"><tspan
         id="tspan857"
         y="935.68262"
         x="369.96725"
         sodipodi:role="line"
         style="font-size:45px">A partir de ahora, </tspan><tspan
         id="tspan852"
         y="991.93262"
         x="369.96725"
         sodipodi:role="line"
         style="font-size:45px">no importan los riesgos </tspan><tspan
         id="tspan854"
         y="1048.1826"
         x="362.936"
         sodipodi:role="line"
         style="font-size:45px">o los peligros,</tspan></text>
    <text
       id="text4246-3-2-2-1"
       y="1896.0775"
       x="1341.5546"
       style="font-style:normal;font-variant:normal;font-weight:normal;font-stretch:normal;font-size:45px;line-height:1.25;font-family:Lavi;-inkscape-font-specification:Lavi;text-align:center;letter-spacing:0px;word-spacing:0px;text-anchor:middle;fill:#000000;fill-opacity:1;stroke:none"
       xml:space="preserve"><tspan
         id="tspan864"
         y="1896.0775"
         x="1341.5546"
         sodipodi:role="line"
         style="font-size:45px"> seré fiel a mí</tspan><tspan
         id="tspan867"
         y="1952.3275"
         x="1341.5546"
         sodipodi:role="line"
         style="font-size:45px">misma, lo que soy.</tspan></text>
    <text
       id="text4246-3-2-2-1-6"
       y="968.28711"
       x="1806.0106"
       style="font-style:normal;font-variant:normal;font-weight:normal;font-stretch:normal;font-size:45px;line-height:1.25;font-family:Lavi;-inkscape-font-specification:Lavi;text-align:center;letter-spacing:0px;word-spacing:0px;text-anchor:middle;fill:#000000;fill-opacity:1;stroke:none"
       xml:space="preserve"><tspan
         id="tspan864-5"
         y="968.28711"
         x="1806.0106"
         sodipodi:role="line"
         style="font-size:45px">¡Lo prometo!</tspan></text>
    <text
       transform="matrix(0.91327378,0,-0.07872707,1.0949619,0,0)"
       id="text4246-3-2-2-6-3-8"
       y="3167.2151"
       x="2702.5759"
       style="font-style:normal;font-variant:normal;font-weight:normal;font-stretch:normal;font-size:46.97480011px;line-height:1.25;font-family:Lavi;-inkscape-font-specification:Lavi;text-align:center;letter-spacing:0px;word-spacing:0px;text-anchor:middle;fill:#000000;fill-opacity:1;stroke:none;stroke-width:1.04387999"
       xml:space="preserve"><tspan
         y="3167.2151"
         x="2702.5759"
         id="tspan1097-2-6-7"
         sodipodi:role="line"
         style="font-style:normal;font-variant:normal;font-weight:bold;font-stretch:normal;font-size:46.97480011px;font-family:Lavi;-inkscape-font-specification:'Lavi Bold';stroke-width:1.04387999"> CONTINUARÁ...</tspan></text>
    <text
       id="text860"
       y="1890.0585"
       x="1372.5665"
       style="font-size:29.3333px;line-height:1.25;font-family:Sword;-inkscape-font-specification:Sword;text-align:center;letter-spacing:0px;word-spacing:0px;writing-mode:lr-tb;text-anchor:middle"
       xml:space="preserve"><tspan
         y="1890.0585"
         x="1372.5665"
         id="tspan858"
         sodipodi:role="line" /><tspan
         id="tspan862"
         y="1926.7251"
         x="1372.5665"
         sodipodi:role="line" /><tspan
         id="tspan865"
         y="1963.3917"
         x="1372.5665"
         sodipodi:role="line" /></text>
  </g>
</svg>
