<?xml version="1.0" encoding="UTF-8" standalone="no"?>
<svg
   xmlns:dc="http://purl.org/dc/elements/1.1/"
   xmlns:cc="http://creativecommons.org/ns#"
   xmlns:rdf="http://www.w3.org/1999/02/22-rdf-syntax-ns#"
   xmlns:svg="http://www.w3.org/2000/svg"
   xmlns="http://www.w3.org/2000/svg"
   xmlns:xlink="http://www.w3.org/1999/xlink"
   xmlns:sodipodi="http://sodipodi.sourceforge.net/DTD/sodipodi-0.dtd"
   xmlns:inkscape="http://www.inkscape.org/namespaces/inkscape"
   sodipodi:docname="E35P08.svg"
   height="3503"
   width="2481"
   inkscape:version="0.92.5 (2060ec1f9f, 2020-04-08)"
   version="1.1"
   id="svg2">
  <metadata
     id="metadata8">
    <rdf:RDF>
      <cc:Work
         rdf:about="">
        <dc:format>image/svg+xml</dc:format>
        <dc:type
           rdf:resource="http://purl.org/dc/dcmitype/StillImage" />
        <dc:title />
      </cc:Work>
    </rdf:RDF>
  </metadata>
  <defs
     id="defs6" />
  <sodipodi:namedview
     inkscape:pagecheckerboard="0"
     inkscape:snap-global="false"
     inkscape:document-rotation="0"
     inkscape:current-layer="layer1"
     inkscape:window-maximized="1"
     inkscape:window-y="27"
     inkscape:window-x="0"
     inkscape:cy="1582.1698"
     inkscape:cx="1274.2066"
     inkscape:zoom="0.37405949"
     showgrid="false"
     id="namedview4"
     inkscape:window-height="704"
     inkscape:window-width="1366"
     inkscape:pageshadow="2"
     inkscape:pageopacity="0"
     guidetolerance="10"
     gridtolerance="10"
     objecttolerance="10"
     borderopacity="1"
     bordercolor="#666666"
     pagecolor="#ffffff" />
  <g
     sodipodi:insensitive="true"
     inkscape:label="artwork"
     id="layer2"
     inkscape:groupmode="layer">
    <image
       sodipodi:absref="/home/juanjo/Comics/lang-ep-35/es/../gfx_Pepper-and-Carrot_by-David-Revoy_E35P08.png"
       xlink:href="../gfx_Pepper-and-Carrot_by-David-Revoy_E35P08.png"
       y="0"
       x="0"
       id="image10"
       height="3503"
       width="2481" />
  </g>
  <g
     inkscape:label="speechbubbles"
     id="layer3"
     inkscape:groupmode="layer">
    <path
       inkscape:connector-curvature="0"
       id="path3525-27"
       d="m 887.99498,287.1132 c -41.44946,0.40306 -81.66613,13.49898 -110.12949,34.06218 -22.73161,15.73602 -36.69156,36.84824 -41.59188,58.66839 -8.82359,30.08869 -7.78856,62.10364 7.96709,91.04431 13.34556,22.28179 40.79881,39.79044 72.85136,49.00714 45.20291,13.22528 96.41148,18.09913 144.60216,10.4807 25.92908,-4.17952 49.56178,-14.36618 66.84858,-28.28704 23.8259,-18.54643 37.0304,-42.69405 41.058,-67.11458 5.0173,-26.49454 2.7049,-54.11572 -11.3049,-79.21598 -10.6073,-18.23993 -29.2544,-34.31541 -53.3877,-44.87877 -34.20938,-15.93576 -75.66154,-24.24021 -116.91322,-23.76635 z"
       style="color:#000000;display:inline;overflow:visible;visibility:visible;fill:#ffffff;fill-opacity:1;fill-rule:nonzero;stroke:none;stroke-width:1.03329659px;marker:none;enable-background:accumulate" />
    <path
       sodipodi:nodetypes="zssssz"
       inkscape:connector-curvature="0"
       id="path4040-4-5-3-4"
       d="m 1583.426,356.77988 c -36.4077,0.62485 -72.7116,10.49949 -97.8725,28.12559 -29.6503,20.04327 -46.7007,47.7187 -48.0478,75.69845 -2.0782,28.24978 7.0838,57.37373 30.3996,81.3264 12.3664,12.77826 29.7856,23.52699 50.6388,29.95777 28.0408,8.99006 60.4407,11.04647 90.928,7.40804 23.3835,-2.2775 47.6588,-4.70583 68.1095,-13.0989 34.9009,-14.74875 57.6262,-41.53067 57.8051,-69.01491 0.2863,-10.79232 -0.9306,-21.57206 -1.7963,-32.34207 -1.9646,-17.24519 -5.075,-34.66217 -13.8606,-51.03928 -10.5694,-19.14987 -30.847,-36.39151 -58.4663,-45.83917 -23.828,-8.23767 -51.1169,-11.53123 -77.8375,-11.18192 z"
       style="color:#000000;display:inline;overflow:visible;visibility:visible;fill:#ffffff;fill-opacity:1;fill-rule:nonzero;stroke:none;stroke-width:0.91908753px;marker:none;enable-background:accumulate" />
    <path
       sodipodi:nodetypes="ccccc"
       inkscape:connector-curvature="0"
       id="path1085"
       d="m 1570.0144,465.67649 c 3.0987,30.83741 11.5856,59.47611 3.7889,66.37874 -5.2069,29.42714 10.8845,84.76829 -27.9726,97.2687 63.0766,-0.64746 49.4439,-89.40053 58.0802,-122.83664 -1.084,-48.93169 -33.8965,-40.8108 -33.8965,-40.8108 z"
       style="fill:#ffffff;fill-rule:evenodd;stroke:none;stroke-width:1.14277px;stroke-linecap:butt;stroke-linejoin:miter;stroke-opacity:1" />
    <path
       inkscape:connector-curvature="0"
       id="path1299"
       d="m 1545.4592,1416.6551 c -49.2322,1.362 -96.8183,16.8642 -123.4026,40.5312 -10.5515,13.0901 -7.1596,27.8471 -10.6845,41.7395 -4.6814,34.6373 -4.0276,70.1231 12.9162,103.7446 5.7423,9.2923 18.8373,16.4401 33.6034,21.2263 33.5548,12.4505 75.5402,15.9009 114.6735,12.4068 40.3735,-2.3424 81.6782,-9.1511 112.7539,-24.6393 20.9042,-10.2257 31.1399,-26.4304 28.9804,-41.9263 -0.3146,-20.1454 -4.7863,-40.1912 -4.8679,-60.3419 -1.4502,-20.3623 -7.5681,-41.8205 -29.9197,-58.3974 -20.8462,-15.1622 -52.4031,-23.9888 -83.9417,-29.8022 -16.1793,-2.8723 -33.0957,-4.8301 -50.111,-4.5413 z"
       style="fill:#ffffff;fill-rule:evenodd;stroke:none;stroke-width:1.00887775px;stroke-linecap:butt;stroke-linejoin:miter;stroke-opacity:1" />
    <path
       sodipodi:nodetypes="cscsssscccsccscccc"
       inkscape:connector-curvature="0"
       id="path5058-2"
       d="m 1531.0092,1596.1183 c -0.6222,20.1649 6.6736,27.0756 10.0721,30.442 3.3984,3.3662 14.9068,8.9022 18.2764,13.791 2.7667,4.0585 10.3483,14.2867 6.9395,16.8185 -3.4088,2.5318 -39.8279,13.4508 -39.569,27.0665 0.2595,13.6163 7.8094,22.062 17.8671,25.0419 10.0575,2.9799 23.1527,7.0659 24.2613,17.1932 1.1078,10.1267 -6.514,17.5302 -11.286,19.742 -27.1053,5.2092 -47.6616,41.4987 -47.6616,41.4987 45.0114,-39.4077 48.8502,-21.7092 63.1997,-38.3236 5.2367,-6.2965 13.2746,-11.5246 11.2311,-22.2221 -2.0434,-10.6976 -1.7938,-21.9409 -17.0229,-26.5544 -9.8097,-4.0323 -14.2999,-6.9835 -14.1441,-10.1193 0.1565,-3.135 5.2164,-10.9397 15.2416,-10.5769 10.0258,0.3634 16.1869,-6.8408 20.9047,-21.0372 5.8565,-14.2808 -11.3944,-28.3269 -12.3251,-34.3003 -5.9525,-9.4188 -20.1936,-48.378 -11.3283,-51.0106 z"
       style="color:#000000;display:inline;overflow:visible;visibility:visible;fill:#ffffff;fill-opacity:1;fill-rule:nonzero;stroke:none;stroke-width:0.926478px;marker:none;enable-background:accumulate" />
    <path
       inkscape:connector-curvature="0"
       id="path4667-2"
       d="m 877.968,2870.1388 -20.1414,-103.137 -20.06484,17.4342 -15.86649,-70.2389 -20.49195,11.5133 26.36659,82.3695 23.57881,-19.15 z"
       style="display:inline;fill:#ffffff;fill-rule:evenodd;stroke:none;stroke-width:0.7824px;stroke-linecap:butt;stroke-linejoin:miter;stroke-opacity:1" />
    <path
       sodipodi:nodetypes="cccccccccccc"
       inkscape:connector-curvature="0"
       id="path4584-9"
       d="m 682.33117,2721.47 c 17.58658,-9.7562 33.39725,-42.5286 -3.6892,-77.162 42.20071,11.8434 59.77352,-10.1068 73.68241,-92.6185 34.06991,72.3546 48.80253,51.3106 58.048,24.8341 -2.5869,49.2768 33.04814,42.2858 48.31129,16.0446 -4.9577,76.3831 20.63384,79.0172 43.5994,87.989 -39.26404,11.119 -16.2116,33.6361 -11.28843,52.8383 -46.88903,-15.0176 -61.9634,9.436 -59.2279,55.9848 -18.13836,-12.0405 -41.31769,-48.333 -39.71646,34.5863 -16.29453,-59.6942 -27.92724,-42.7914 -37.92314,1.0069 -5.63912,-20.2619 2.06382,-64.0489 -33.29199,-31.9099 14.15398,-34.8193 6.97849,-60.982 -38.50398,-71.5936 z"
       style="display:inline;fill:#ffffff;fill-rule:evenodd;stroke:none;stroke-width:0.800756px;stroke-linecap:butt;stroke-linejoin:miter;stroke-opacity:1" />
    <path
       sodipodi:nodetypes="ccscc"
       inkscape:connector-curvature="0"
       id="path4440-3"
       d="m 915.25633,477.71228 c -4.04952,48.32505 20.65484,106.85492 115.89287,109.89183 -80.33867,-15.35995 -92.0301,-64.16762 -83.52693,-109.83472 7.34037,-39.42391 8.64622,-57.69856 8.64622,-57.69856 z"
       style="color:#000000;display:inline;overflow:visible;visibility:visible;fill:#ffffff;fill-opacity:1;fill-rule:nonzero;stroke:none;stroke-width:1.01599px;marker:none;enable-background:accumulate" />
  </g>
  <g
     inkscape:label="txt"
     id="layer1"
     inkscape:groupmode="layer">
    <text
       id="text4246-3-2-2-3"
       y="359.07599"
       x="901.05707"
       style="font-style:normal;font-variant:normal;font-weight:normal;font-stretch:normal;font-size:45px;line-height:1.25;font-family:Lavi;-inkscape-font-specification:Lavi;text-align:center;letter-spacing:0px;word-spacing:0px;text-anchor:middle;fill:#000000;fill-opacity:1;stroke:none"
       xml:space="preserve"><tspan
         id="tspan863"
         y="359.07599"
         x="908.08832"
         sodipodi:role="line"
         style="font-size:45px">¡Espera! </tspan><tspan
         id="tspan861"
         y="415.32599"
         x="901.05707"
         sodipodi:role="line"
         style="font-size:45px">¿En qué me</tspan><tspan
         id="tspan866"
         y="471.57599"
         x="901.05707"
         sodipodi:role="line"
         style="font-size:45px">he convertido?</tspan></text>
    <text
       id="text4246-3-2-2-3-3"
       y="453.04697"
       x="1590.5607"
       style="font-style:normal;font-variant:normal;font-weight:normal;font-stretch:normal;font-size:56px;line-height:1.25;font-family:Lavi;-inkscape-font-specification:Lavi;text-align:center;letter-spacing:0px;word-spacing:0px;text-anchor:middle;fill:#000000;fill-opacity:1;stroke:none"
       xml:space="preserve"><tspan
         style="font-style:normal;font-variant:normal;font-weight:bold;font-stretch:normal;font-size:56px;font-family:Lavi;-inkscape-font-specification:'Lavi Bold'"
         id="tspan957"
         y="453.04697"
         x="1599.3107"
         sodipodi:role="line">¿En una </tspan><tspan
         id="tspan870"
         style="font-style:normal;font-variant:normal;font-weight:bold;font-stretch:normal;font-size:56px;font-family:Lavi;-inkscape-font-specification:'Lavi Bold'"
         y="523.047"
         x="1590.5607"
         sodipodi:role="line">asesina?</tspan></text>
    <text
       id="text4246-3-2-2-3-9"
       y="1515.3575"
       x="1560.5575"
       style="font-style:normal;font-variant:normal;font-weight:normal;font-stretch:normal;font-size:53.34049988px;line-height:1.25;font-family:Lavi;-inkscape-font-specification:Lavi;text-align:center;letter-spacing:0px;word-spacing:0px;text-anchor:middle;fill:#000000;fill-opacity:1;stroke:none;stroke-width:1.18534005"
       xml:space="preserve"><tspan
         id="tspan998"
         y="1515.3575"
         x="1568.892"
         sodipodi:role="line"
         style="font-size:53.34049988px;stroke-width:1.18534005">¿Una bruja </tspan><tspan
         id="tspan879"
         y="1582.0332"
         x="1560.5575"
         sodipodi:role="line"
         style="font-size:53.34049988px;stroke-width:1.18534005"><tspan
   id="tspan881"
   style="font-style:normal;font-variant:normal;font-weight:bold;font-stretch:normal;font-family:Lavi;-inkscape-font-specification:'Lavi Bold'">malvada</tspan>?</tspan></text>
    <text
       transform="matrix(0.90421598,-0.22651773,-0.12390474,1.1369702,0,0)"
       id="text4246-3-2-2-3-9-0"
       y="2652.8953"
       x="1226.4388"
       style="font-style:normal;font-variant:normal;font-weight:normal;font-stretch:normal;font-size:104.682px;line-height:1.25;font-family:Lavi;-inkscape-font-specification:Lavi;text-align:center;letter-spacing:0px;word-spacing:0px;text-anchor:middle;fill:#000000;fill-opacity:1;stroke:none;stroke-width:1.18634"
       xml:space="preserve"><tspan
         id="tspan998-6"
         y="2652.8953"
         x="1226.4388"
         sodipodi:role="line"
         style="font-style:normal;font-variant:normal;font-weight:bold;font-stretch:normal;font-size:104.682px;font-family:Lavi;-inkscape-font-specification:'Lavi Bold';stroke-width:1.18634"><tspan
   id="tspan1037"
   style="font-size:79.44px;stroke-width:1.18634">!</tspan><tspan
   style="font-size:91.8525px;stroke-width:1.18634"
   id="tspan1045">!</tspan>!</tspan></text>
  </g>
</svg>
