<?xml version="1.0" encoding="UTF-8" standalone="no"?>
<svg
   xmlns:dc="http://purl.org/dc/elements/1.1/"
   xmlns:cc="http://creativecommons.org/ns#"
   xmlns:rdf="http://www.w3.org/1999/02/22-rdf-syntax-ns#"
   xmlns:svg="http://www.w3.org/2000/svg"
   xmlns="http://www.w3.org/2000/svg"
   xmlns:xlink="http://www.w3.org/1999/xlink"
   xmlns:sodipodi="http://sodipodi.sourceforge.net/DTD/sodipodi-0.dtd"
   xmlns:inkscape="http://www.inkscape.org/namespaces/inkscape"
   sodipodi:docname="E02P06.svg"
   height="900"
   width="2481"
   inkscape:version="1.0 (4035a4fb49, 2020-05-01)"
   version="1.1"
   id="svg2">
  <metadata
     id="metadata8">
    <rdf:RDF>
      <cc:Work
         rdf:about="">
        <dc:format>image/svg+xml</dc:format>
        <dc:type
           rdf:resource="http://purl.org/dc/dcmitype/StillImage" />
        <dc:title />
      </cc:Work>
    </rdf:RDF>
  </metadata>
  <defs
     id="defs6" />
  <sodipodi:namedview
     inkscape:document-rotation="0"
     showguides="false"
     inkscape:current-layer="layer1"
     inkscape:window-maximized="1"
     inkscape:window-y="44"
     inkscape:window-x="0"
     inkscape:cy="443.24438"
     inkscape:cx="1172.9438"
     inkscape:zoom="0.59209996"
     showgrid="false"
     id="namedview4"
     inkscape:window-height="1004"
     inkscape:window-width="1920"
     inkscape:pageshadow="2"
     inkscape:pageopacity="0"
     guidetolerance="10"
     gridtolerance="10"
     objecttolerance="10"
     borderopacity="1"
     bordercolor="#666666"
     pagecolor="#ffffff" />
  <g
     sodipodi:insensitive="true"
     inkscape:label="artwork"
     id="layer2"
     inkscape:groupmode="layer">
    <image
       sodipodi:absref="/home/cherry/peppercarrot/webcomics/ep02_Rainbow-potions/lang/gfx_Pepper-and-Carrot_by-David-Revoy_E02P06.png"
       xlink:href="../gfx_Pepper-and-Carrot_by-David-Revoy_E02P06.png"
       width="2481"
       height="900"
       id="image10"
       x="-1.6728083e-06"
       y="0" />
  </g>
  <g
     style="opacity:1"
     inkscape:label="text"
     id="layer1"
     inkscape:groupmode="layer">
    <flowRoot
       transform="matrix(1.5090261,0,0,1.7859618,-514.2898,-27895.999)"
       style="font-style:normal;font-variant:normal;font-weight:normal;font-stretch:normal;line-height:0.01%;font-family:Arial;-inkscape-font-specification:Arial;text-align:center;letter-spacing:0px;word-spacing:0px;text-anchor:middle;fill:#485a48;fill-opacity:1;stroke:none"
       id="flowRoot3574"
       xml:space="preserve"><flowRegion
         style="text-align:center;text-anchor:middle"
         id="flowRegion3576"><rect
           style="text-align:center;text-anchor:middle;fill:#485a48;fill-opacity:1;"
           y="15665.729"
           x="158.58536"
           height="106.51344"
           width="2021.3717"
           id="rect3578" /></flowRegion><flowPara
         id="flowPara3582"
         style="font-style:normal;font-variant:normal;font-weight:normal;font-stretch:normal;font-size:56px;line-height:1.25;font-family:Lavi;-inkscape-font-specification:Lavi;text-align:center;text-anchor:middle;fill:#485a48;fill-opacity:1"><flowSpan
           id="flowSpan3355"
           style="font-style:normal;font-variant:normal;font-weight:normal;font-stretch:normal;font-family:'Nanum Pen Script OTF';-inkscape-font-specification:'Nanum Pen Script OTF';text-align:center;text-anchor:middle"> 이 웹툰은 오픈소스이며 이번 화는 아래 주소에서 21명의 후원을 받아 제작되었습니다.</flowSpan></flowPara></flowRoot>
    <flowRoot
       transform="matrix(1.3709553,0,0,1.4821346,-357.82418,-23045.063)"
       style="font-style:normal;font-variant:normal;font-weight:normal;font-stretch:normal;line-height:0.01%;font-family:Arial;-inkscape-font-specification:Arial;text-align:center;letter-spacing:0px;word-spacing:0px;text-anchor:middle;fill:#000000;fill-opacity:1;stroke:none"
       id="flowRoot3574-8"
       xml:space="preserve"><flowRegion
         id="flowRegion3576-9"><rect
           style="text-align:center;text-anchor:middle"
           y="15665.729"
           x="158.58536"
           height="106.51344"
           width="2021.3717"
           id="rect3578-1" /></flowRegion><flowPara
         id="flowPara3582-4"
         style="font-style:normal;font-variant:normal;font-weight:normal;font-stretch:normal;font-size:56px;line-height:1.25;font-family:Lavi;-inkscape-font-specification:Lavi;text-align:center;text-anchor:middle;fill:#9c0000;fill-opacity:1">www.patreon.com/davidrevoy</flowPara></flowRoot>
    <flowRoot
       transform="matrix(1.2184683,0,0,1.442081,-178.38263,-22322.228)"
       style="font-style:normal;font-variant:normal;font-weight:normal;font-stretch:normal;line-height:0.01%;font-family:Arial;-inkscape-font-specification:Arial;text-align:center;letter-spacing:0px;word-spacing:0px;text-anchor:middle;fill:#42493d;fill-opacity:1;stroke:none"
       id="flowRoot3574-1"
       xml:space="preserve"><flowRegion
         id="flowRegion3576-97"><rect
           style="text-align:center;text-anchor:middle;fill:#42493d;fill-opacity:1"
           y="15665.729"
           x="158.58536"
           height="106.51344"
           width="2021.3717"
           id="rect3578-2" /></flowRegion><flowPara
         id="flowPara3582-2"
         style="font-style:normal;font-variant:normal;font-weight:normal;font-stretch:normal;font-size:56px;line-height:1.25;font-family:'Nanum Pen Script OTF';-inkscape-font-specification:'Nanum Pen Script OTF';text-align:center;text-anchor:middle;fill:#42493d;fill-opacity:1">아래 분들에게 감사드립니다.</flowPara></flowRoot>
    <flowRoot
       transform="matrix(1.1062519,0,0,1.2804312,-39.171699,-19337.853)"
       style="font-style:normal;font-variant:normal;font-weight:normal;font-stretch:normal;line-height:0.01%;font-family:Arial;-inkscape-font-specification:Arial;text-align:center;letter-spacing:0px;word-spacing:0px;text-anchor:middle;fill:#777967;fill-opacity:1;stroke:none"
       id="flowRoot3574-1-6"
       xml:space="preserve"><flowRegion
         id="flowRegion3576-97-8"><rect
           style="text-align:center;text-anchor:middle;fill:#777967;fill-opacity:1"
           y="15665.729"
           x="158.58536"
           height="106.51344"
           width="2021.3717"
           id="rect3578-2-9" /></flowRegion><flowPara
         id="flowPara3582-2-8"
         style="font-style:normal;font-variant:normal;font-weight:normal;font-stretch:normal;font-size:56px;line-height:1.25;font-family:'Nanum Pen Script OTF';-inkscape-font-specification:'Nanum Pen Script OTF';text-align:center;text-anchor:middle;fill:#777967;fill-opacity:1">GNU/리눅스에서 Krita로 제작</flowPara></flowRoot>
  </g>
</svg>
