<?xml version="1.0" encoding="UTF-8" standalone="no"?>
<!-- Created with Inkscape (http://www.inkscape.org/) -->

<svg
   xmlns:dc="http://purl.org/dc/elements/1.1/"
   xmlns:cc="http://creativecommons.org/ns#"
   xmlns:rdf="http://www.w3.org/1999/02/22-rdf-syntax-ns#"
   xmlns:svg="http://www.w3.org/2000/svg"
   xmlns="http://www.w3.org/2000/svg"
   xmlns:xlink="http://www.w3.org/1999/xlink"
   xmlns:sodipodi="http://sodipodi.sourceforge.net/DTD/sodipodi-0.dtd"
   xmlns:inkscape="http://www.inkscape.org/namespaces/inkscape"
   id="svg2"
   version="1.1"
   inkscape:version="0.92.2 (5c3e80d, 2017-08-06)"
   width="2481"
   height="3503"
   sodipodi:docname="E26P04.svg"
   inkscape:export-filename="E:\Users\jamesmichael\Downloads\Compressed\eps\ep26_Books-Are-Great_lang-pack\lang\ph\E26P04.png"
   inkscape:export-xdpi="90"
   inkscape:export-ydpi="90">
  <metadata
     id="metadata8">
    <rdf:RDF>
      <cc:Work
         rdf:about="">
        <dc:format>image/svg+xml</dc:format>
        <dc:type
           rdf:resource="http://purl.org/dc/dcmitype/StillImage" />
        <dc:title />
      </cc:Work>
    </rdf:RDF>
  </metadata>
  <defs
     id="defs6" />
  <sodipodi:namedview
     pagecolor="#ffffff"
     bordercolor="#666666"
     borderopacity="1"
     objecttolerance="10"
     gridtolerance="10"
     guidetolerance="10"
     inkscape:pageopacity="0"
     inkscape:pageshadow="2"
     inkscape:window-width="1920"
     inkscape:window-height="1033"
     id="namedview4"
     showgrid="false"
     inkscape:zoom="0.15122874"
     inkscape:cx="1333.9698"
     inkscape:cy="-410.64663"
     inkscape:window-x="0"
     inkscape:window-y="47"
     inkscape:window-maximized="0"
     inkscape:current-layer="layer3" />
  <g
     inkscape:groupmode="layer"
     id="layer2"
     inkscape:label="artwork"
     sodipodi:insensitive="true">
    <image
       sodipodi:absref="E:\Users\jamesmichael\Downloads\Compressed\eps\ep26_Books-Are-Great_lang-pack\lang\ph\../gfx_Pepper-and-Carrot_by-David-Revoy_E26P04.png"
       xlink:href="../gfx_Pepper-and-Carrot_by-David-Revoy_E26P04.png"
       width="2481"
       height="3503"
       id="image10"
       x="0"
       y="0" />
  </g>
  <g
     inkscape:groupmode="layer"
     id="layer3"
     inkscape:label="speechbubbles"
     style="display:inline;opacity:0.97">
    <path
       style="color:#000000;display:inline;overflow:visible;visibility:visible;fill:#ffffff;fill-opacity:1;fill-rule:nonzero;stroke:none;stroke-width:2.17970777px;marker:none;enable-background:accumulate"
       d="M 950.06336,-7.5211218 C 874.61114,-13.340393 808.50264,-11.53007 746.00464,-1.8414256 707.19113,4.1754634 697.93854,193.28951 705.00167,258.57365 c 6.0283,55.71773 22.45004,182.04021 76.60718,209.2106 54.1569,27.17061 138.18968,31.2886 191.05397,26.188 52.86438,-5.10048 64.14378,-11.29687 108.72308,-62.19304 22.7829,-26.01118 36.5652,-177.36045 39.9581,-238.25529 3.5028,-62.78813 0.6442,-150.239242 -34.7442,-181.19233 -35.8765,-31.38031 -61.084,-14.0335536 -136.53644,-19.8527118 z"
       id="path3373"
       inkscape:connector-curvature="0"
       sodipodi:nodetypes="zsssssssz" />
    <path
       style="color:#000000;display:inline;overflow:visible;visibility:visible;fill:#ffffff;fill-opacity:1;fill-rule:nonzero;stroke:none;stroke-width:0.95470774;marker:none;enable-background:accumulate"
       d="m -165.58121,758.41046 c -64.03313,-47.48543 -171.5865,-251.00209 -120.35477,-447.04802 17.37837,-51.8683 57.92729,-277.917218 -11.27572,-59.22132 -69.203,218.6959 9.34385,417.00687 131.63049,506.26934 z"
       id="path3010"
       inkscape:connector-curvature="0"
       sodipodi:nodetypes="cczc" />
    <path
       style="color:#000000;display:inline;overflow:visible;visibility:visible;fill:#ffffff;fill-opacity:1;fill-rule:nonzero;stroke:none;stroke-width:1.24039102px;marker:none;enable-background:accumulate"
       d="m 715.58129,937.55395 c 16.80658,-26.78123 39.865,-33.12012 49.46885,-30.44189 9.60373,2.6781 58.82327,26.78111 64.82565,56.24033 6.00241,29.45934 13.20521,105.78561 7.20281,123.19331 -6.00227,17.4079 -45.61806,66.9531 -66.02605,66.9531 -20.40813,0 -60.02382,-9.3734 -72.02857,-36.1546 -12.00474,-26.7811 -1.10945,-147.65293 16.55731,-179.79025 z"
       id="path3349"
       inkscape:connector-curvature="0"
       sodipodi:nodetypes="ccscssc" />
    <path
       style="color:#000000;display:inline;overflow:visible;visibility:visible;fill:#ffffff;fill-opacity:1;fill-rule:nonzero;stroke:none;stroke-width:0.62015647px;marker:none;enable-background:accumulate"
       d="m 888.81513,1116.2964 c 19.5487,14.669 40.76767,138.4933 0.4818,182.013 -40.2859,43.5198 -97.3247,14.9487 -112.7065,-10.0217 -15.3818,-24.9704 -19.2165,-94.8901 -10.3485,-129.8122 11.7632,-46.3234 32.8926,-59.6506 73.2471,-61.3557 16.4701,-0.6959 29.7772,4.5074 49.3261,19.1766 z"
       id="path4040"
       inkscape:connector-curvature="0"
       sodipodi:nodetypes="zssssz" />
    <path
       style="color:#000000;display:inline;overflow:visible;visibility:visible;fill:#ffffff;fill-opacity:1;fill-rule:nonzero;stroke:none;stroke-width:1.12996221px;marker:none;enable-background:accumulate"
       d="m 1604.4685,967.5056 c 38.5357,-5.7117 140.8964,9.5193 132.4667,126.609 -8.4296,117.0896 -56.5993,136.1286 -71.0503,138.9844 -14.4508,2.8559 -96.3395,27.6065 -118.016,-63.7804 -21.6763,-91.3872 1.2044,-173.2546 56.5996,-201.813 z"
       id="path3525"
       inkscape:connector-curvature="0" />
    <path
       style="color:#000000;display:inline;overflow:visible;visibility:visible;fill:#ffffff;fill-opacity:1;fill-rule:nonzero;stroke:none;stroke-width:1px;marker:none;enable-background:accumulate"
       d="m -13.848794,1063.0689 c 69.98612,31.0197 98.42482,29.5718 151.736324,-4.4587 -31.1182,24.6589 -43.634204,55.9553 -145.0871541,33.1222 -40.4072999,-9.0941 -6.6491699,-28.6635 -6.6491699,-28.6635 z"
       id="path4480"
       inkscape:connector-curvature="0"
       sodipodi:nodetypes="ccsc" />
    <path
       style="color:#000000;display:inline;overflow:visible;visibility:visible;fill:#ffffff;fill-opacity:1;fill-rule:nonzero;stroke:none;stroke-width:1px;marker:none;enable-background:accumulate"
       d="m 1515.94,1187.8834 c 34.6297,22.4436 48.151,28.3727 87.526,0.3521 39.375,-28.0207 48.7701,-12.382 48.7701,-12.382 l -12.8989,31.2148 c 0,0 -87.8568,53.5997 -123.3972,-19.1849 z"
       id="path3072"
       inkscape:connector-curvature="0" />
    <path
       style="color:#000000;display:inline;overflow:visible;visibility:visible;fill:#ffffff;fill-opacity:1;fill-rule:nonzero;stroke:none;stroke-width:1.14944279px;marker:none;enable-background:accumulate;opacity:1"
       d="M 2202.7891 894.05273 C 2201.7482 894.06354 2200.6858 894.08471 2199.6035 894.11523 C 2164.9718 895.09173 2147.5364 904.61473 2130.3398 922.43555 C 2113.3773 940.01354 2111.9644 973.21658 2106.3105 993.72461 C 2101.9352 1009.5939 2107.7171 1088.0025 2114.4863 1130.8184 C 2124.5575 1129.9999 2148.3487 1124.6288 2192.043 1096.877 C 2234.127 1070.1479 2266.0353 1039.8999 2281.8496 1023.627 C 2284.9818 997.63596 2285.1565 970.76605 2269.8027 942.92188 C 2247.8931 903.18808 2235.0557 893.71783 2202.7891 894.05273 z M 2268.373 1109.0293 C 2221.931 1135.015 2166.2835 1162.1974 2128.9922 1167.248 C 2140.8017 1176.6748 2160.0104 1180.4176 2178.4004 1184.1543 C 2202.4305 1189.0373 2212.3258 1177.3203 2237.7695 1162.6719 C 2253.3062 1153.7272 2262.4193 1133.2907 2268.373 1109.0293 z "
       id="path3373-0" />
    <path
       style="color:#000000;display:inline;overflow:visible;visibility:visible;fill:#ffffff;fill-opacity:1;fill-rule:nonzero;stroke:none;stroke-width:1.51261151px;marker:none;enable-background:accumulate"
       d="m 2065.8821,1304.2009 c 81.3693,3.0955 99.2981,42.3037 103.4356,83.5754 0.5579,82.5827 2.9567,134.9963 -5.5165,201.2005 -2.7585,14.4452 -39.9952,82.5438 -104.8146,79.4483 -64.8195,-3.0953 -92.4021,-49.5262 -96.5396,-96.9889 -4.1375,-47.4626 0,-144.4515 -8.2748,-168.1827 -8.275,-23.7314 5.5165,-91.8301 111.7101,-99.0526 z"
       id="path5034"
       inkscape:connector-curvature="0"
       sodipodi:nodetypes="ccccsccc" />
    <path
       style="color:#000000;display:inline;overflow:visible;visibility:visible;fill:#ffffff;fill-opacity:1;fill-rule:nonzero;stroke:none;stroke-width:1px;marker:none;enable-background:accumulate"
       d="m 2591.5964,826.71298 c -57.0243,-41.23372 -60.4397,-86.77108 -49.5441,-144.9504 10.8956,-58.17932 39.6811,-24.31559 39.6811,-24.31559 0,0 -65.1914,100.00192 9.863,169.26599 z"
       id="path5002"
       inkscape:connector-curvature="0"
       sodipodi:nodetypes="cscc" />
    <path
       style="color:#000000;display:inline;overflow:visible;visibility:visible;fill:#ffffff;fill-opacity:1;fill-rule:nonzero;stroke:none;stroke-width:1.56542671px;marker:none;enable-background:accumulate"
       d="m 1761.7244,2435.0811 c 67.668,36.8084 67.9218,238.601 37.9081,300.6161 -30.0133,62.0148 -66.7436,70.9816 -84.7679,73.3647 -18.0243,2.383 -123.3517,-7.4466 -139.4264,-40.1227 -16.0743,-32.676 -23.4318,-125.0825 -23.1442,-157.2652 0.2875,-32.1829 11.6198,-134.6035 35.7977,-159.8784 23.1291,-24.1781 105.9649,-53.5228 173.6327,-16.7145 z"
       id="path3330"
       inkscape:connector-curvature="0"
       sodipodi:nodetypes="zsssssz" />
    <path
       style="color:#000000;display:inline;overflow:visible;visibility:visible;fill:#ffffff;fill-opacity:1;fill-rule:nonzero;stroke:none;stroke-width:1.07720649px;marker:none;enable-background:accumulate"
       d="m 1664.135,2474.7045 c -69.9893,51.1328 8.9085,162.5856 132.4832,191.8362 -158.9941,-19.5502 -214.8639,-129.8242 -184.2863,-182.6082 -12.1609,-26.4834 51.8031,-9.228 51.8031,-9.228 z"
       id="path4008"
       inkscape:connector-curvature="0"
       sodipodi:nodetypes="cccc" />
    <path
       style="color:#000000;display:inline;overflow:visible;visibility:visible;fill:#ffffff;fill-opacity:1;fill-rule:nonzero;stroke:none;stroke-width:1.12431788px;marker:none;enable-background:accumulate"
       d="M 351.40986,112.31641 C 378.63227,148.2264 364.45293,466.74856 290.38424,543.11379 216.3156,619.47886 115.75654,541.40266 97.608425,485.76862 79.460275,430.13477 68.246735,219.6608 90.725785,151.18047 120.54373,60.342865 168.26864,40.343015 232.25744,49.254691 c 26.11611,3.637202 91.9297,27.151507 119.15242,63.061719 z"
       id="path4040-0"
       inkscape:connector-curvature="0"
       sodipodi:nodetypes="zssssz" />
    <path
       style="color:#000000;display:inline;overflow:visible;visibility:visible;fill:#ffffff;fill-opacity:1;fill-rule:nonzero;stroke:none;stroke-width:1.31624353px;marker:none;enable-background:accumulate"
       d="m -143.20322,592.26182 c -22.56052,4.06309 -120.08167,-27.2505 -118.8051,-172.70425 1.27676,-145.45375 58.53066,-182.62914 89.02936,-183.70907 30.49886,-1.0801 81.017556,30.90126 90.666946,51.62902 9.64922,20.72762 31.71839,81.82907 25.1469,138.72683 -7.31362,63.32539 -17.10676,119.22219 -42.40015,142.55253 -25.293046,23.33015 -37.789176,20.68633 -43.637956,23.50494 z"
       id="path3365-6"
       inkscape:connector-curvature="0"
       sodipodi:nodetypes="ccccscc" />
    <path
       style="color:#000000;display:inline;overflow:visible;visibility:visible;fill:#ffffff;fill-opacity:1;fill-rule:nonzero;stroke:none;stroke-width:1.17923069px;marker:none;enable-background:accumulate"
       d="m -137.75561,1128.915 c -82.04637,41.839 -98.69807,91.9551 -101.02486,156.986 -2.32681,65.0308 42.64616,29.4851 42.64616,29.4851 0,0 -53.69551,-114.8291 58.3787,-186.4711 z"
       id="path5002-1"
       inkscape:connector-curvature="0"
       sodipodi:nodetypes="cscc" />
    <path
       sodipodi:nodetypes="zsssssz"
       inkscape:connector-curvature="0"
       id="path8506"
       d="m 1687.0048,2168.2019 c 38.9946,21.2113 39.1408,137.4969 21.8451,173.2339 -17.2956,35.7368 -38.4619,40.9041 -48.8486,42.2773 -10.3868,1.3733 -71.083,-4.2912 -80.3463,-23.1212 -9.263,-18.8299 -13.5029,-72.0804 -13.3371,-90.6261 0.1656,-18.5458 6.696,-77.567 20.6288,-92.132 13.3285,-13.9329 61.0637,-30.8432 100.0581,-9.6319 z"
       style="color:#000000;display:inline;overflow:visible;visibility:visible;fill:#ffffff;fill-opacity:1;fill-rule:nonzero;stroke:none;stroke-width:0.90209728px;marker:none;enable-background:accumulate" />
  </g>
  <g
     inkscape:groupmode="layer"
     id="layer1"
     inkscape:label="txt">
    <text
       xml:space="preserve"
       style="font-style:normal;font-variant:normal;font-weight:normal;font-stretch:normal;line-height:0%;font-family:Lavi;-inkscape-font-specification:Lavi;text-align:center;letter-spacing:0px;word-spacing:0px;text-anchor:middle;fill:#000000;fill-opacity:1;stroke:none"
       x="737.51294"
       y="175.27963"
       id="text4246-5-5"><tspan
         sodipodi:role="line"
         style="font-style:italic;font-variant:normal;font-weight:normal;font-stretch:normal;font-size:45px;line-height:1.25;font-family:Lavi;-inkscape-font-specification:'Lavi Italic';text-align:start;text-anchor:start"
         x="737.51294"
         y="175.27963"
         id="tspan478">&quot;dahil sa shortcut </tspan><tspan
         sodipodi:role="line"
         style="font-style:italic;font-variant:normal;font-weight:normal;font-stretch:normal;font-size:45px;line-height:1.25;font-family:Lavi;-inkscape-font-specification:'Lavi Italic';text-align:start;text-anchor:start"
         x="737.51294"
         y="231.52963"
         id="tspan8442">kayo dumaan, </tspan><tspan
         sodipodi:role="line"
         style="font-style:italic;font-variant:normal;font-weight:normal;font-stretch:normal;font-size:45px;line-height:1.25;font-family:Lavi;-inkscape-font-specification:'Lavi Italic';text-align:start;text-anchor:start"
         x="737.51294"
         y="287.77963"
         id="tspan8440">hindi maiiwasang </tspan><tspan
         sodipodi:role="line"
         style="font-style:italic;font-variant:normal;font-weight:normal;font-stretch:normal;font-size:45px;line-height:1.25;font-family:Lavi;-inkscape-font-specification:'Lavi Italic';text-align:start;text-anchor:start"
         x="737.51294"
         y="344.02963"
         id="tspan8444">dumaan sa silid ng </tspan><tspan
         sodipodi:role="line"
         style="font-style:italic;font-variant:normal;font-weight:normal;font-stretch:normal;font-size:45px;line-height:1.25;font-family:Lavi;-inkscape-font-specification:'Lavi Italic';text-align:start;text-anchor:start"
         x="737.51294"
         y="400.27963"
         id="tspan8446">&quot;Berdugo&quot;&quot;</tspan></text>
    <text
       xml:space="preserve"
       style="font-style:normal;font-variant:normal;font-weight:normal;font-stretch:normal;line-height:0%;font-family:Lavi;-inkscape-font-specification:Lavi;text-align:center;letter-spacing:0px;word-spacing:0px;text-anchor:middle;fill:#000000;fill-opacity:1;stroke:none"
       x="765.55396"
       y="1049.9259"
       id="text4246-5"><tspan
         sodipodi:role="line"
         style="font-size:45px;line-height:1.25"
         x="765.55396"
         y="1049.9259"
         id="tspan859">Hmm...</tspan></text>
    <text
       xml:space="preserve"
       style="font-style:normal;font-variant:normal;font-weight:normal;font-stretch:normal;line-height:0%;font-family:Lavi;-inkscape-font-specification:Lavi;text-align:center;letter-spacing:0px;word-spacing:0px;text-anchor:middle;fill:#000000;fill-opacity:1;stroke:none"
       x="838.76184"
       y="1173.7743"
       id="text4246-5-3"><tspan
         sodipodi:role="line"
         style="font-size:45px;line-height:1.25"
         x="838.76184"
         y="1173.7743"
         id="tspan917">boss</tspan><tspan
         sodipodi:role="line"
         style="font-size:45px;line-height:1.25"
         x="846.672"
         y="1230.0243"
         id="tspan8457">room </tspan><tspan
         sodipodi:role="line"
         style="font-size:45px;line-height:1.25"
         x="838.76184"
         y="1286.2743"
         id="tspan8493">huh...</tspan></text>
    <text
       xml:space="preserve"
       style="font-style:normal;font-variant:normal;font-weight:normal;font-stretch:normal;line-height:0%;font-family:Lavi;-inkscape-font-specification:Lavi;text-align:center;letter-spacing:0px;word-spacing:0px;text-anchor:middle;fill:#000000;fill-opacity:1;stroke:none"
       x="1635.5205"
       y="1083.5542"
       id="text4246-5-3-7"><tspan
         sodipodi:role="line"
         style="font-size:45px;line-height:1.25"
         x="1643.4307"
         y="1083.5542"
         id="tspan917-6">Nasan ka </tspan><tspan
         sodipodi:role="line"
         style="font-size:45px;line-height:1.25"
         x="1635.5205"
         y="1139.8042"
         id="tspan8468">berdugo?</tspan><tspan
         sodipodi:role="line"
         style="font-size:45px;line-height:1.25"
         x="1635.5205"
         y="1196.0542"
         id="tspan8470">...</tspan></text>
    <text
       xml:space="preserve"
       style="font-style:normal;font-variant:normal;font-weight:normal;font-stretch:normal;line-height:0%;font-family:Lavi;-inkscape-font-specification:Lavi;text-align:center;letter-spacing:0px;word-spacing:0px;text-anchor:middle;fill:#000000;fill-opacity:1;stroke:none"
       x="2193.5757"
       y="976.0329"
       id="text4246-5-3-7-2"><tspan
         sodipodi:role="line"
         style="font-size:45px;line-height:1.25"
         x="2193.5757"
         y="979.52069"
         id="tspan890-5-9" /><tspan
         sodipodi:role="line"
         style="font-size:45px;line-height:1.25"
         x="2193.5757"
         y="1017.2371"
         id="tspan950-2">AH HA</tspan><tspan
         sodipodi:role="line"
         style="font-size:45px;line-height:1.25"
         x="2193.5757"
         y="1073.4871"
         id="tspan8500">...</tspan><tspan
         sodipodi:role="line"
         style="font-size:45px;line-height:1.25"
         x="2193.5757"
         y="1092.0206"
         id="tspan917-6-7" /></text>
    <text
       xml:space="preserve"
       style="font-style:normal;font-variant:normal;font-weight:normal;font-stretch:normal;line-height:1;font-family:Lavi;-inkscape-font-specification:Lavi;text-align:center;letter-spacing:0px;word-spacing:0px;text-anchor:middle;fill:#000000;fill-opacity:1;stroke:none"
       x="2062.7803"
       y="1484.5575"
       id="text4246-5-3-7-2-0"><tspan
         sodipodi:role="line"
         style="font-style:normal;font-variant:normal;font-weight:bold;font-stretch:normal;font-size:53.33333206px;line-height:1;font-family:Lavi;-inkscape-font-specification:'Lavi Bold'"
         x="2072.1553"
         y="1484.5575"
         id="tspan950-2-3">anjan ka </tspan><tspan
         sodipodi:role="line"
         style="font-style:normal;font-variant:normal;font-weight:bold;font-stretch:normal;font-size:53.33333206px;line-height:1;font-family:Lavi;-inkscape-font-specification:'Lavi Bold'"
         x="2062.7803"
         y="1537.8909"
         id="tspan8495">pala!</tspan><tspan
         sodipodi:role="line"
         style="font-style:normal;font-variant:normal;font-weight:bold;font-stretch:normal;font-size:53.33333206px;line-height:1;font-family:Lavi;-inkscape-font-specification:'Lavi Bold'"
         x="2062.7803"
         y="1558.5439"
         id="tspan917-6-7-6" /></text>
    <text
       xml:space="preserve"
       style="font-style:normal;font-variant:normal;font-weight:normal;font-stretch:normal;line-height:0%;font-family:Lavi;-inkscape-font-specification:Lavi;text-align:center;letter-spacing:0px;word-spacing:0px;text-anchor:middle;fill:#000000;fill-opacity:1;stroke:none"
       x="1638.7123"
       y="2241.8452"
       id="text4246-5-3-7-6"><tspan
         sodipodi:role="line"
         style="font-size:45px;line-height:1.25"
         x="1638.7123"
         y="2245.333"
         id="tspan890-5-2" /><tspan
         sodipodi:role="line"
         style="font-style:italic;font-variant:normal;font-weight:normal;font-stretch:normal;font-size:45px;line-height:1.25;font-family:Lavi;-inkscape-font-specification:'Lavi Italic'"
         x="1638.7123"
         y="2283.0496"
         id="tspan917-6-8">Pfff...!</tspan></text>
    <text
       xml:space="preserve"
       style="font-style:normal;font-variant:normal;font-weight:normal;font-stretch:normal;line-height:0%;font-family:Lavi;-inkscape-font-specification:Lavi;text-align:center;letter-spacing:0px;word-spacing:0px;text-anchor:middle;fill:#000000;fill-opacity:1;stroke:none"
       x="1684.8345"
       y="2519.1296"
       id="text4246-5-3-79"><tspan
         sodipodi:role="line"
         style="font-size:45px;line-height:1.25"
         x="1684.8345"
         y="2519.1296"
         id="tspan890-2">Sisiw</tspan><tspan
         sodipodi:role="line"
         style="font-size:45px;line-height:1.25"
         x="1692.7446"
         y="2575.3796"
         id="tspan917-3">Napakadali </tspan><tspan
         sodipodi:role="line"
         style="font-size:45px;line-height:1.25"
         x="1684.8345"
         y="2630.9592"
         id="tspan8504">♫</tspan><tspan
         sodipodi:role="line"
         style="font-size:45px;line-height:1.25"
         x="1692.7446"
         y="2687.8796"
         id="tspan8483">Huli ang </tspan><tspan
         sodipodi:role="line"
         style="font-size:45px;line-height:1.25"
         x="1684.8345"
         y="2744.1296"
         id="tspan8502">kiliti!</tspan></text>
    <text
       xml:space="preserve"
       style="font-style:normal;font-variant:normal;font-weight:normal;font-stretch:normal;line-height:0%;font-family:Lavi;-inkscape-font-specification:Lavi;text-align:center;letter-spacing:0px;word-spacing:0px;text-anchor:middle;fill:#000000;fill-opacity:1;stroke:none"
       x="110.18801"
       y="173.40872"
       id="text4246-5-5-3"><tspan
         sodipodi:role="line"
         style="font-style:italic;font-variant:normal;font-weight:normal;font-stretch:normal;font-size:45px;line-height:1;font-family:Lavi;-inkscape-font-specification:'Lavi Italic';text-align:start;text-anchor:start"
         x="110.18801"
         y="173.40872"
         id="tspan940">&quot;mamulot ng </tspan><tspan
         sodipodi:role="line"
         style="font-style:italic;font-variant:normal;font-weight:normal;font-stretch:normal;font-size:45px;line-height:1;font-family:Lavi;-inkscape-font-specification:'Lavi Italic';text-align:start;text-anchor:start"
         x="110.18801"
         y="218.40872"
         id="tspan8413">balahibong </tspan><tspan
         sodipodi:role="line"
         style="font-style:italic;font-variant:normal;font-weight:normal;font-stretch:normal;font-size:45px;line-height:1;font-family:Lavi;-inkscape-font-specification:'Lavi Italic';text-align:start;text-anchor:start"
         x="110.18801"
         y="263.40872"
         id="tspan8415">pilak sa </tspan><tspan
         sodipodi:role="line"
         style="font-style:italic;font-variant:normal;font-weight:normal;font-stretch:normal;font-size:45px;line-height:1;font-family:Lavi;-inkscape-font-specification:'Lavi Italic';text-align:start;text-anchor:start"
         x="110.18801"
         y="308.40869"
         id="tspan8489">pagakyat&quot;</tspan></text>
    <text
       xml:space="preserve"
       style="font-style:normal;font-variant:normal;font-weight:normal;font-stretch:normal;font-size:11.12393284px;line-height:1;font-family:Lavi;-inkscape-font-specification:Lavi;text-align:center;letter-spacing:0px;word-spacing:0px;text-anchor:middle;fill:#000000;fill-opacity:1;stroke:none;stroke-width:0.92699438"
       x="380.47607"
       y="396.71085"
       id="text4246-5-3-9"
       transform="skewX(-16.793857)"><tspan
         sodipodi:role="line"
         style="font-size:41.71474838px;line-height:1;stroke-width:0.92699438"
         x="387.80875"
         y="396.71085"
         id="tspan995">&quot;dito ay          </tspan><tspan
         sodipodi:role="line"
         style="font-size:41.71474838px;line-height:1;stroke-width:0.92699438"
         x="387.80875"
         y="438.4256"
         id="tspan8422">madami     </tspan><tspan
         sodipodi:role="line"
         style="font-size:41.71474838px;line-height:1;stroke-width:0.92699438"
         x="380.47607"
         y="480.14035"
         id="tspan8424">tumata-</tspan><tspan
         sodipodi:role="line"
         style="font-size:41.71474838px;line-height:1;stroke-width:0.92699438"
         x="380.47607"
         y="521.8551"
         id="tspan8491">gaktak&quot;</tspan></text>
    <text
       xml:space="preserve"
       style="font-style:normal;font-variant:normal;font-weight:normal;font-stretch:normal;font-size:9.62365437px;line-height:0%;font-family:Lavi;-inkscape-font-specification:Lavi;text-align:center;letter-spacing:0px;word-spacing:0px;text-anchor:middle;fill:#000000;fill-opacity:1;stroke:none;stroke-width:0.80197126"
       x="3.2422304"
       y="2104.2461"
       id="text4246-5-5-8"
       transform="matrix(0.90354167,-0.46833278,0.47503417,0.86053134,0,0)"><tspan
         sodipodi:role="line"
         style="font-style:italic;font-variant:normal;font-weight:normal;font-stretch:normal;font-size:36.08870697px;line-height:1.25;font-family:Lavi;-inkscape-font-specification:'Lavi Italic';text-align:start;text-anchor:start;fill:#ffffff;fill-opacity:1;stroke-width:0.80197126"
         x="3.2422304"
         y="2104.2461"
         id="tspan478-2">coochie!</tspan></text>
    <text
       xml:space="preserve"
       style="font-style:normal;font-variant:normal;font-weight:normal;font-stretch:normal;font-size:9.62365437px;line-height:0%;font-family:Lavi;-inkscape-font-specification:Lavi;text-align:center;letter-spacing:0px;word-spacing:0px;text-anchor:middle;fill:#000000;fill-opacity:1;stroke:none;stroke-width:0.80197126"
       x="-26.87598"
       y="2073.4155"
       id="text4246-5-5-8-3"
       transform="matrix(0.90354167,-0.46833278,0.47503417,0.86053134,0,0)"
       inkscape:transform-center-x="-64.107832"
       inkscape:transform-center-y="11.506534"><tspan
         sodipodi:role="line"
         style="font-style:italic;font-variant:normal;font-weight:normal;font-stretch:normal;font-size:36.08870697px;line-height:1.25;font-family:Lavi;-inkscape-font-specification:'Lavi Italic';text-align:start;text-anchor:start;fill:#ffffff;fill-opacity:1;stroke-width:0.80197126"
         x="-26.87598"
         y="2073.4155"
         id="tspan478-2-7">coochie</tspan></text>
  </g>
  <g
     inkscape:label="txt copy"
     id="g8406"
     inkscape:groupmode="layer"
     style="display:none">
    <text
       id="text8322"
       y="149.53586"
       x="2577.0137"
       style="font-style:normal;font-variant:normal;font-weight:normal;font-stretch:normal;line-height:0%;font-family:Lavi;-inkscape-font-specification:Lavi;text-align:center;letter-spacing:0px;word-spacing:0px;text-anchor:middle;fill:#000000;fill-opacity:1;stroke:none"
       xml:space="preserve"><tspan
         id="tspan8312"
         y="149.53586"
         x="2577.0137"
         style="font-style:italic;font-variant:normal;font-weight:normal;font-stretch:normal;font-size:45px;line-height:1.25;font-family:Lavi;-inkscape-font-specification:'Lavi Italic';text-align:start;text-anchor:start"
         sodipodi:role="line">“Because you</tspan><tspan
         id="tspan8314"
         y="205.78586"
         x="2577.0137"
         style="font-style:italic;font-variant:normal;font-weight:normal;font-stretch:normal;font-size:45px;line-height:1.25;font-family:Lavi;-inkscape-font-specification:'Lavi Italic';text-align:start;text-anchor:start"
         sodipodi:role="line">took the shortcut</tspan><tspan
         id="tspan8316"
         y="262.03586"
         x="2577.0137"
         style="font-style:italic;font-variant:normal;font-weight:normal;font-stretch:normal;font-size:45px;line-height:1.25;font-family:Lavi;-inkscape-font-specification:'Lavi Italic';text-align:start;text-anchor:start"
         sodipodi:role="line">you should now be</tspan><tspan
         id="tspan8318"
         y="318.28586"
         x="2577.0137"
         style="font-style:italic;font-variant:normal;font-weight:normal;font-stretch:normal;font-size:45px;line-height:1.25;font-family:Lavi;-inkscape-font-specification:'Lavi Italic';text-align:start;text-anchor:start"
         sodipodi:role="line">entering the room</tspan><tspan
         id="tspan8320"
         y="374.53586"
         x="2577.0137"
         style="font-style:italic;font-variant:normal;font-weight:normal;font-stretch:normal;font-size:45px;line-height:1.25;font-family:Lavi;-inkscape-font-specification:'Lavi Italic';text-align:start;text-anchor:start"
         sodipodi:role="line">of The Guardian.”</tspan></text>
    <text
       id="text8326"
       y="956.146"
       x="2738.9456"
       style="font-style:normal;font-variant:normal;font-weight:normal;font-stretch:normal;line-height:0%;font-family:Lavi;-inkscape-font-specification:Lavi;text-align:center;letter-spacing:0px;word-spacing:0px;text-anchor:middle;fill:#000000;fill-opacity:1;stroke:none"
       xml:space="preserve"><tspan
         id="tspan8324"
         y="956.146"
         x="2738.9456"
         style="font-size:45px;line-height:1.25"
         sodipodi:role="line">Hmm...</tspan></text>
    <text
       id="text8336"
       y="1054.0382"
       x="2742.8127"
       style="font-style:normal;font-variant:normal;font-weight:normal;font-stretch:normal;line-height:0%;font-family:Lavi;-inkscape-font-specification:Lavi;text-align:center;letter-spacing:0px;word-spacing:0px;text-anchor:middle;fill:#000000;fill-opacity:1;stroke:none"
       xml:space="preserve"><tspan
         id="tspan8328"
         y="1057.526"
         x="2742.8127"
         style="font-size:45px;line-height:1.25"
         sodipodi:role="line" /><tspan
         id="tspan8330"
         y="1095.2424"
         x="2742.8127"
         style="font-size:45px;line-height:1.25"
         sodipodi:role="line">the big</tspan><tspan
         id="tspan8332"
         y="1151.4924"
         x="2742.8127"
         style="font-size:45px;line-height:1.25"
         sodipodi:role="line">boss?!?</tspan><tspan
         id="tspan8334"
         y="1170.026"
         x="2742.8127"
         style="font-size:45px;line-height:1.25"
         sodipodi:role="line" /></text>
    <text
       id="text8346"
       y="1247.0125"
       x="2739.0115"
       style="font-style:normal;font-variant:normal;font-weight:normal;font-stretch:normal;line-height:0%;font-family:Lavi;-inkscape-font-specification:Lavi;text-align:center;letter-spacing:0px;word-spacing:0px;text-anchor:middle;fill:#000000;fill-opacity:1;stroke:none"
       xml:space="preserve"><tspan
         id="tspan8338"
         y="1250.5002"
         x="2739.0115"
         style="font-size:45px;line-height:1.25"
         sodipodi:role="line" /><tspan
         id="tspan8340"
         y="1288.2167"
         x="2739.0115"
         style="font-size:45px;line-height:1.25"
         sodipodi:role="line">But</tspan><tspan
         id="tspan8342"
         y="1344.4667"
         x="2739.0115"
         style="font-size:45px;line-height:1.25"
         sodipodi:role="line">where?</tspan><tspan
         id="tspan8344"
         y="1363.0002"
         x="2739.0115"
         style="font-size:45px;line-height:1.25"
         sodipodi:role="line" /></text>
    <text
       id="text8354"
       y="1430.6586"
       x="2773.4387"
       style="font-style:normal;font-variant:normal;font-weight:normal;font-stretch:normal;line-height:0%;font-family:Lavi;-inkscape-font-specification:Lavi;text-align:center;letter-spacing:0px;word-spacing:0px;text-anchor:middle;fill:#000000;fill-opacity:1;stroke:none"
       xml:space="preserve"><tspan
         id="tspan8348"
         y="1434.1464"
         x="2773.4387"
         style="font-size:45px;line-height:1.25"
         sodipodi:role="line" /><tspan
         id="tspan8350"
         y="1471.8628"
         x="2773.4387"
         style="font-size:45px;line-height:1.25"
         sodipodi:role="line">AH HA...</tspan><tspan
         id="tspan8352"
         y="1490.3964"
         x="2773.4387"
         style="font-size:45px;line-height:1.25"
         sodipodi:role="line" /></text>
    <text
       id="text8362"
       y="1484.8518"
       x="2798.1721"
       style="font-style:normal;font-variant:normal;font-weight:normal;font-stretch:normal;line-height:0%;font-family:Lavi;-inkscape-font-specification:Lavi;text-align:center;letter-spacing:0px;word-spacing:0px;text-anchor:middle;fill:#000000;fill-opacity:1;stroke:none"
       xml:space="preserve"><tspan
         id="tspan8356"
         y="1488.3396"
         x="2798.1721"
         style="font-size:45px;line-height:1.25"
         sodipodi:role="line" /><tspan
         id="tspan8358"
         y="1533.6865"
         x="2798.1721"
         style="font-style:normal;font-variant:normal;font-weight:bold;font-stretch:normal;font-size:53.33333206px;line-height:1.25;font-family:Lavi;-inkscape-font-specification:'Lavi Bold'"
         sodipodi:role="line">Found you!</tspan><tspan
         id="tspan8360"
         y="1555.0062"
         x="2798.1721"
         style="font-style:normal;font-variant:normal;font-weight:bold;font-stretch:normal;font-size:53.33333206px;line-height:1.25;font-family:Lavi;-inkscape-font-specification:'Lavi Bold'"
         sodipodi:role="line" /></text>
    <text
       id="text8368"
       y="1644.6807"
       x="2772.0859"
       style="font-style:normal;font-variant:normal;font-weight:normal;font-stretch:normal;line-height:0%;font-family:Lavi;-inkscape-font-specification:Lavi;text-align:center;letter-spacing:0px;word-spacing:0px;text-anchor:middle;fill:#000000;fill-opacity:1;stroke:none"
       xml:space="preserve"><tspan
         id="tspan8364"
         y="1648.1685"
         x="2772.0859"
         style="font-size:45px;line-height:1.25"
         sodipodi:role="line" /><tspan
         id="tspan8366"
         y="1685.8849"
         x="2772.0859"
         style="font-style:italic;font-variant:normal;font-weight:normal;font-stretch:normal;font-size:45px;line-height:1.25;font-family:Lavi;-inkscape-font-specification:'Lavi Italic'"
         sodipodi:role="line">Pfff...!</tspan></text>
    <text
       id="text8380"
       y="1782.6785"
       x="2855.8428"
       style="font-style:normal;font-variant:normal;font-weight:normal;font-stretch:normal;line-height:0%;font-family:Lavi;-inkscape-font-specification:Lavi;text-align:center;letter-spacing:0px;word-spacing:0px;text-anchor:middle;fill:#000000;fill-opacity:1;stroke:none"
       xml:space="preserve"><tspan
         id="tspan8370"
         y="1786.1663"
         x="2855.8428"
         style="font-size:45px;line-height:1.25"
         sodipodi:role="line" /><tspan
         id="tspan8372"
         y="1823.8827"
         x="2855.8428"
         style="font-size:45px;line-height:1.25"
         sodipodi:role="line">Too easy when</tspan><tspan
         id="tspan8374"
         y="1880.1327"
         x="2855.8428"
         style="font-size:45px;line-height:1.25"
         sodipodi:role="line">you know the</tspan><tspan
         id="tspan8376"
         y="1936.3827"
         x="2855.8428"
         style="font-size:45px;line-height:1.25"
         sodipodi:role="line">weak point!</tspan><tspan
         id="tspan8378"
         y="1954.9163"
         x="2855.8428"
         style="font-size:45px;line-height:1.25"
         sodipodi:role="line" /></text>
    <text
       id="text8388"
       y="470.50079"
       x="2603.9646"
       style="font-style:normal;font-variant:normal;font-weight:normal;font-stretch:normal;line-height:0%;font-family:Lavi;-inkscape-font-specification:Lavi;text-align:center;letter-spacing:0px;word-spacing:0px;text-anchor:middle;fill:#000000;fill-opacity:1;stroke:none"
       xml:space="preserve"><tspan
         id="tspan8382"
         y="470.50079"
         x="2603.9646"
         style="font-style:italic;font-variant:normal;font-weight:normal;font-stretch:normal;font-size:45px;line-height:1.25;font-family:Lavi;-inkscape-font-specification:'Lavi Italic';text-align:start;text-anchor:start"
         sodipodi:role="line">“Pick up a</tspan><tspan
         id="tspan8384"
         y="526.75079"
         x="2603.9646"
         style="font-style:italic;font-variant:normal;font-weight:normal;font-stretch:normal;font-size:45px;line-height:1.25;font-family:Lavi;-inkscape-font-specification:'Lavi Italic';text-align:start;text-anchor:start"
         sodipodi:role="line">feather along</tspan><tspan
         id="tspan8386"
         y="583.00079"
         x="2603.9646"
         style="font-style:italic;font-variant:normal;font-weight:normal;font-stretch:normal;font-size:45px;line-height:1.25;font-family:Lavi;-inkscape-font-specification:'Lavi Italic';text-align:start;text-anchor:start"
         sodipodi:role="line">the way.”</tspan></text>
    <text
       id="text8396"
       y="676.28387"
       x="2738.6812"
       style="font-style:normal;font-variant:normal;font-weight:normal;font-stretch:normal;font-size:11.12393284px;line-height:0%;font-family:Lavi;-inkscape-font-specification:Lavi;text-align:center;letter-spacing:0px;word-spacing:0px;text-anchor:middle;fill:#000000;fill-opacity:1;stroke:none;stroke-width:0.92699438"
       xml:space="preserve"><tspan
         id="tspan8390"
         y="676.28387"
         x="2738.6812"
         style="font-size:41.71474838px;line-height:1.25;stroke-width:0.92699438"
         sodipodi:role="line">There's no</tspan><tspan
         id="tspan8392"
         y="728.42731"
         x="2738.6812"
         style="font-size:41.71474838px;line-height:1.25;stroke-width:0.92699438"
         sodipodi:role="line">lack of feathers</tspan><tspan
         id="tspan8394"
         y="780.57074"
         x="2738.6812"
         style="font-size:41.71474838px;line-height:1.25;stroke-width:0.92699438"
         sodipodi:role="line">here!</tspan></text>
    <text
       transform="matrix(0.90354167,-0.46833278,0.47503417,0.86053134,0,0)"
       id="text8400"
       y="3454.9893"
       x="1134.2257"
       style="font-style:normal;font-variant:normal;font-weight:normal;font-stretch:normal;font-size:9.62365437px;line-height:0%;font-family:Lavi;-inkscape-font-specification:Lavi;text-align:center;letter-spacing:0px;word-spacing:0px;text-anchor:middle;fill:#000000;fill-opacity:1;stroke:none;stroke-width:0.80197126"
       xml:space="preserve"><tspan
         id="tspan8398"
         y="3454.9893"
         x="1134.2257"
         style="font-style:italic;font-variant:normal;font-weight:normal;font-stretch:normal;font-size:36.08870697px;line-height:1.25;font-family:Lavi;-inkscape-font-specification:'Lavi Italic';text-align:start;text-anchor:start;fill:#ffffff;fill-opacity:1;stroke-width:0.80197126"
         sodipodi:role="line">tickle</tspan></text>
    <text
       inkscape:transform-center-y="11.506534"
       inkscape:transform-center-x="-64.107832"
       transform="matrix(0.90354167,-0.46833278,0.47503417,0.86053134,0,0)"
       id="text8404"
       y="3311.7734"
       x="1209.5209"
       style="font-style:normal;font-variant:normal;font-weight:normal;font-stretch:normal;font-size:9.62365437px;line-height:0%;font-family:Lavi;-inkscape-font-specification:Lavi;text-align:center;letter-spacing:0px;word-spacing:0px;text-anchor:middle;fill:#000000;fill-opacity:1;stroke:none;stroke-width:0.80197126"
       xml:space="preserve"><tspan
         id="tspan8402"
         y="3311.7734"
         x="1209.5209"
         style="font-style:italic;font-variant:normal;font-weight:normal;font-stretch:normal;font-size:36.08870697px;line-height:1.25;font-family:Lavi;-inkscape-font-specification:'Lavi Italic';text-align:start;text-anchor:start;fill:#ffffff;fill-opacity:1;stroke-width:0.80197126"
         sodipodi:role="line">tickle</tspan></text>
  </g>
</svg>
