<?xml version="1.0" encoding="UTF-8" standalone="no"?>
<svg
   xmlns:dc="http://purl.org/dc/elements/1.1/"
   xmlns:cc="http://creativecommons.org/ns#"
   xmlns:rdf="http://www.w3.org/1999/02/22-rdf-syntax-ns#"
   xmlns:svg="http://www.w3.org/2000/svg"
   xmlns="http://www.w3.org/2000/svg"
   xmlns:xlink="http://www.w3.org/1999/xlink"
   xmlns:sodipodi="http://sodipodi.sourceforge.net/DTD/sodipodi-0.dtd"
   xmlns:inkscape="http://www.inkscape.org/namespaces/inkscape"
   sodipodi:docname="E08P07.svg"
   height="2479"
   width="2481"
   inkscape:version="1.0 (4035a4fb49, 2020-05-01)"
   version="1.1"
   id="svg2">
  <metadata
     id="metadata8">
    <rdf:RDF>
      <cc:Work
         rdf:about="">
        <dc:format>image/svg+xml</dc:format>
        <dc:type
           rdf:resource="http://purl.org/dc/dcmitype/StillImage" />
        <dc:title />
      </cc:Work>
    </rdf:RDF>
  </metadata>
  <defs
     id="defs6" />
  <sodipodi:namedview
     inkscape:document-rotation="0"
     inkscape:guide-bbox="true"
     showguides="true"
     inkscape:object-nodes="true"
     inkscape:current-layer="layer2"
     inkscape:window-maximized="1"
     inkscape:window-y="44"
     inkscape:window-x="0"
     inkscape:cy="668.41021"
     inkscape:cx="1295.0851"
     inkscape:zoom="0.50911688"
     showgrid="false"
     id="namedview4"
     inkscape:window-height="1004"
     inkscape:window-width="1920"
     inkscape:pageshadow="2"
     inkscape:pageopacity="0"
     guidetolerance="10"
     gridtolerance="10"
     objecttolerance="10"
     borderopacity="1"
     bordercolor="#666666"
     pagecolor="#ffffff">
    <sodipodi:guide
       id="guide3226"
       position="-1375.3999,2357.3562"
       orientation="0,1" />
  </sodipodi:namedview>
  <g
     sodipodi:insensitive="true"
     style="display:inline"
     inkscape:label="artwork"
     id="layer1"
     inkscape:groupmode="layer">
    <image
       sodipodi:absref="/home/cherry/peppercarrot/webcomics/ep08_Pepper-s-Birthday-Party/lang/gfx_Pepper-and-Carrot_by-David-Revoy_E08P07.png"
       xlink:href="../gfx_Pepper-and-Carrot_by-David-Revoy_E08P07.png"
       y="0"
       x="0"
       id="image10"
       height="2479"
       width="2481" />
  </g>
  <g
     style="display:inline"
     inkscape:label="speechbubbles"
     id="layer3"
     inkscape:groupmode="layer">
    <path
       inkscape:connector-curvature="0"
       id="path4279"
       d="m -2021.8885,646.19917 c 1.0628,-51.0158 26.5707,-103.09442 170.0526,-112.65988 143.4819,-9.56546 203.0004,48.89014 207.2517,90.34047 4.2513,41.45033 -82.9007,96.71744 -162.6129,97.78027 -79.7121,1.06282 -214.6914,-11.69112 -214.6914,-75.46086 z"
       style="fill:#ffffff;stroke:none" />
    <path
       sodipodi:nodetypes="csccc"
       inkscape:connector-curvature="0"
       id="path4281"
       d="m -1788.0661,898.08964 c 70.1467,-44.63882 88.2148,-124.35099 45.7016,-190.24639 -42.5132,-65.8954 -82.9007,-54.20428 -82.9007,-54.20428 l 35.0734,41.45033 c 0,0 97.7803,97.78027 2.1257,203.00034 z"
       style="fill:#ffffff;stroke:none" />
  </g>
  <g
     style="display:inline"
     inkscape:label="text"
     id="layer2"
     inkscape:groupmode="layer">
    <flowRoot
       style="font-style:normal;font-variant:normal;font-weight:normal;font-stretch:normal;line-height:0.01%;font-family:Arial;-inkscape-font-specification:Arial;letter-spacing:0px;word-spacing:0px;display:inline;fill:#000000;fill-opacity:1;stroke:none"
       id="flowRoot3090"
       xml:space="preserve"
       transform="translate(-7.2688333,54.392769)"><flowRegion
         id="flowRegion3092"><rect
           y="1811.1038"
           x="1078.4646"
           height="17.347956"
           width="222.6321"
           id="rect3094" /></flowRegion><flowPara
         style="font-size:12px;line-height:1.25"
         id="flowPara3096"> </flowPara></flowRoot>
    <flowRoot
       transform="matrix(0.77545721,0,0,0.80077696,162.89857,-16.12453)"
       style="font-style:normal;font-variant:normal;font-weight:normal;font-stretch:normal;line-height:0.01%;font-family:Arial;-inkscape-font-specification:Arial;text-align:justify;letter-spacing:0px;word-spacing:0px;text-anchor:start;display:inline;fill:#000000;fill-opacity:1;stroke:none"
       id="flowRoot2987"
       xml:space="preserve"><flowRegion
         id="flowRegion2989"><rect
           style="text-align:justify;text-anchor:start"
           y="266.68515"
           x="-141.0901"
           height="2440.8586"
           width="2996.0627"
           id="rect2991" /></flowRegion><flowPara
         id="flowPara3241"
         style="font-style:normal;font-variant:normal;font-weight:normal;font-stretch:normal;font-size:47.1126px;line-height:150%;font-family:Lavi;-inkscape-font-specification:Lavi;text-align:justify;writing-mode:lr-tb;text-anchor:start"> </flowPara><flowPara
         id="flowPara3095"
         style="font-style:normal;font-variant:normal;font-weight:normal;font-stretch:normal;font-size:44.4154px;line-height:120%;font-family:Lavi;-inkscape-font-specification:Lavi;text-align:center;writing-mode:lr-tb;text-anchor:middle"> </flowPara><flowPara
         id="flowPara3099"
         style="font-style:normal;font-variant:normal;font-weight:normal;font-stretch:normal;font-size:44.4154px;line-height:120%;font-family:Lavi;-inkscape-font-specification:Lavi;text-align:center;writing-mode:lr-tb;text-anchor:middle">Глеб Бузало - 獨孤欣 &amp; 獨弧悦 - Adam - Addison Lewis - A Distinguished Robot - Adrian Lord - Ahmad Ali - Aina Reich - al - Alandran </flowPara><flowPara
         id="flowPara3319"
         style="font-style:normal;font-variant:normal;font-weight:normal;font-stretch:normal;font-size:44.4154px;line-height:120%;font-family:Lavi;-inkscape-font-specification:Lavi;text-align:center;writing-mode:lr-tb;text-anchor:middle">Alan Hardman - Albert Westra - Alcide - Alex - Alexander Bülow Tomassen - AlexanderKennedy - Alexander Sopicki - Alexandra Jordan</flowPara><flowPara
         id="flowPara3321"
         style="font-style:normal;font-variant:normal;font-weight:normal;font-stretch:normal;font-size:44.4154px;line-height:120%;font-family:Lavi;-inkscape-font-specification:Lavi;text-align:center;writing-mode:lr-tb;text-anchor:middle">Alex Bradaric - Alexey Golubev - Alex Kotenko - Alex Lusco - Alex Silver - Alex V - Alfredo - Ali Poulton (Aunty Pol) - Allan Zieser - Alok Baikadi</flowPara><flowPara
         id="flowPara3323"
         style="font-style:normal;font-variant:normal;font-weight:normal;font-stretch:normal;font-size:44.4154px;line-height:120%;font-family:Lavi;-inkscape-font-specification:Lavi;text-align:center;writing-mode:lr-tb;text-anchor:middle">Andreas Rieger - Andreas Ulmer - Andrej Kwadrin - Andrew - Andrew Godfrey - Andrey Alekseenko - Andy Gelme - Anna Orlova - anonymous </flowPara><flowPara
         id="flowPara3325"
         style="font-style:normal;font-variant:normal;font-weight:normal;font-stretch:normal;font-size:44.4154px;line-height:120%;font-family:Lavi;-inkscape-font-specification:Lavi;text-align:center;writing-mode:lr-tb;text-anchor:middle">Antan Karmola - Anthony Edlin - Antoine - Antonio Mendoza - Antonio Parisi - Ardash Crowfoot - Arjun Chennu - Arne Brix - Arnulf - Arturo J. Pérez</flowPara><flowPara
         id="flowPara3327"
         style="font-style:normal;font-variant:normal;font-weight:normal;font-stretch:normal;font-size:44.4154px;line-height:120%;font-family:Lavi;-inkscape-font-specification:Lavi;text-align:center;writing-mode:lr-tb;text-anchor:middle"> Axel Bordelon - Axel Philipsenburg - Ayaskull - barbix - BataMoth - Bela Bargel - Ben Evans - Bernd - Bernhard Saumweber - Betsy Luntao</flowPara><flowPara
         id="flowPara3329"
         style="font-style:normal;font-variant:normal;font-weight:normal;font-stretch:normal;font-size:44.4154px;line-height:120%;font-family:Lavi;-inkscape-font-specification:Lavi;text-align:center;writing-mode:lr-tb;text-anchor:middle">Birger Tuer Thorvaldsen - blacksheep33512 - Boonsak Watanavisit - Boris Fauret - Boudewijn Rempt - BoxBoy - Brent Houghton - Brett</flowPara><flowPara
         id="flowPara3331"
         style="font-style:normal;font-variant:normal;font-weight:normal;font-stretch:normal;font-size:44.4154px;line-height:120%;font-family:Lavi;-inkscape-font-specification:Lavi;text-align:center;writing-mode:lr-tb;text-anchor:middle">Brett Smith - Brian Behnke - Bryan Butler - Bryan Rosander - BS - Bui Dang Hai Trieu - BXS - carlos levischi - Cedric Wohlleber - Charles</flowPara><flowPara
         id="flowPara3333"
         style="font-style:normal;font-variant:normal;font-weight:normal;font-stretch:normal;font-size:44.4154px;line-height:120%;font-family:Lavi;-inkscape-font-specification:Lavi;text-align:center;writing-mode:lr-tb;text-anchor:middle">Charlotte Lacombe-bar - Chris - Chris Radcliff - Chris Sakkas - Christian Gruenwaldner - Christophe Carré - Christopher Bates</flowPara><flowPara
         id="flowPara3335"
         style="font-style:normal;font-variant:normal;font-weight:normal;font-stretch:normal;font-size:44.4154px;line-height:120%;font-family:Lavi;-inkscape-font-specification:Lavi;text-align:center;writing-mode:lr-tb;text-anchor:middle">Christopher Rodriguez - Clara Dexter - codl - Colby Driedger - Conway Scott Smith - Coppin Olivier - Cuthbert Williams - Cyol</flowPara><flowPara
         id="flowPara3337"
         style="font-style:normal;font-variant:normal;font-weight:normal;font-stretch:normal;font-size:44.4154px;line-height:120%;font-family:Lavi;-inkscape-font-specification:Lavi;text-align:center;writing-mode:lr-tb;text-anchor:middle">Cyrille Largillier - Cyril Paciullo - Damien - Daniel - Daniel Björkman - Daniel Lynn - Danny Grimm - Dan Stolyarov - David - David Kerdudo</flowPara><flowPara
         id="flowPara3339"
         style="font-style:normal;font-variant:normal;font-weight:normal;font-stretch:normal;font-size:44.4154px;line-height:120%;font-family:Lavi;-inkscape-font-specification:Lavi;text-align:center;writing-mode:lr-tb;text-anchor:middle">David Tang - Davi Na - Davis Aites - Dawn Blair - DecMoon - Dezponia Veil - DiCola Jamn - Dmitry - Donald Hayward - Douglas Oliveira Pessoa</flowPara><flowPara
         id="flowPara3341"
         style="font-style:normal;font-variant:normal;font-weight:normal;font-stretch:normal;font-size:44.4154px;line-height:120%;font-family:Lavi;-inkscape-font-specification:Lavi;text-align:center;writing-mode:lr-tb;text-anchor:middle">Doug Moen - Duke - Eitan Goldshtrom - Ejner Fergo - Enrico Billich - Enrique Lopez - epsilon - Eric Schulz - Erik Moeller</flowPara><flowPara
         id="flowPara3343"
         style="font-style:normal;font-variant:normal;font-weight:normal;font-stretch:normal;font-size:44.4154px;line-height:120%;font-family:Lavi;-inkscape-font-specification:Lavi;text-align:center;writing-mode:lr-tb;text-anchor:middle">Esteban Manchado Velázquez - Faolan Grady - Fen Yun Fat - Francois Schnell - francou - freecultureftw - Garret Patterson - Gary Thomas</flowPara><flowPara
         id="flowPara3345"
         style="font-style:normal;font-variant:normal;font-weight:normal;font-stretch:normal;font-size:44.4154px;line-height:120%;font-family:Lavi;-inkscape-font-specification:Lavi;text-align:center;writing-mode:lr-tb;text-anchor:middle">Ginny Hendricks - GreenAngel5 - Grigory Petrov - G. S. Davis - Guillaume - Gustav Strömbom - Happy Mimic - Helmar Suschka - Henning Döscher</flowPara><flowPara
         id="flowPara3347"
         style="font-style:normal;font-variant:normal;font-weight:normal;font-stretch:normal;font-size:44.4154px;line-height:120%;font-family:Lavi;-inkscape-font-specification:Lavi;text-align:center;writing-mode:lr-tb;text-anchor:middle">Henry Ståhle - HobbyThor - Igor - Ilyas - Irina Rempt - Ivan Korotkov - Jacob - James Frazier - Jamie Sutherland - Janusz - Jared Tritsch</flowPara><flowPara
         id="flowPara3349"
         style="font-style:normal;font-variant:normal;font-weight:normal;font-stretch:normal;font-size:44.4154px;line-height:120%;font-family:Lavi;-inkscape-font-specification:Lavi;text-align:center;writing-mode:lr-tb;text-anchor:middle">Jason - JDB - Jean-Baptiste Hebbrecht - Jean-Gabriel Loquet - Jeffrey Schneider - Jessey Wright - Jessica Gadling - Jhonny Rosa - Jim</flowPara><flowPara
         id="flowPara3351"
         style="font-style:normal;font-variant:normal;font-weight:normal;font-stretch:normal;font-size:44.4154px;line-height:120%;font-family:Lavi;-inkscape-font-specification:Lavi;text-align:center;writing-mode:lr-tb;text-anchor:middle">Jim Street - Jiska - Joao Luiz - Joerg Raidt - Joern Konopka - joe rutledge - John - John - John Gholson - John Urquhart Ferguson</flowPara><flowPara
         id="flowPara3353"
         style="font-style:normal;font-variant:normal;font-weight:normal;font-stretch:normal;font-size:44.4154px;line-height:120%;font-family:Lavi;-inkscape-font-specification:Lavi;text-align:center;writing-mode:lr-tb;text-anchor:middle">Jónatan Nilsson - Jonathan Leroy - Jonathan Ringstad - Jon Brake - Jorge Bernal - Joseph Bowman - Josh Cavalier - Juju Mendivil - Julia Velkova</flowPara><flowPara
         id="flowPara3355"
         style="font-style:normal;font-variant:normal;font-weight:normal;font-stretch:normal;font-size:44.4154px;line-height:120%;font-family:Lavi;-inkscape-font-specification:Lavi;text-align:center;writing-mode:lr-tb;text-anchor:middle">Julio Avila - Justus Kat - Kailyce - Kai-Ting (Danil) Ko - Kate - Kathryn Wuerstl - Ken Mingyuan Xia - Kevin Estalella - Kevin Trévien - Kingsquee</flowPara><flowPara
         id="flowPara3357"
         style="font-style:normal;font-variant:normal;font-weight:normal;font-stretch:normal;font-size:44.4154px;line-height:120%;font-family:Lavi;-inkscape-font-specification:Lavi;text-align:center;writing-mode:lr-tb;text-anchor:middle">Kroet - Kurain - La Plume - Lars Ivar Igesund - Lenod - Levi Kornelsen - Liang - Liselle - Lise-Lotte Pesonen - Lloyd Ash Pyne - Lorentz Grip</flowPara><flowPara
         id="flowPara3359"
         style="font-style:normal;font-variant:normal;font-weight:normal;font-stretch:normal;font-size:44.4154px;line-height:120%;font-family:Lavi;-inkscape-font-specification:Lavi;text-align:center;writing-mode:lr-tb;text-anchor:middle">Lorenzo Leonini - Louis Yung - Luc Stepniewski - Luke Hochrein - Magnus Kronnäs - Mahwiii - Manuel - Manu Järvinen - Marc et Rick</flowPara><flowPara
         id="flowPara3361"
         style="font-style:normal;font-variant:normal;font-weight:normal;font-stretch:normal;font-size:44.4154px;line-height:120%;font-family:Lavi;-inkscape-font-specification:Lavi;text-align:center;writing-mode:lr-tb;text-anchor:middle">Marco Sousa - marcus - Martin Owens - Mary Brownlee - Masked Admirer - Matthew Reynolds - Matt Lichtenwalner - mefflin ross bullis-bates</flowPara><flowPara
         id="flowPara3363"
         style="font-style:normal;font-variant:normal;font-weight:normal;font-stretch:normal;font-size:44.4154px;line-height:120%;font-family:Lavi;-inkscape-font-specification:Lavi;text-align:center;writing-mode:lr-tb;text-anchor:middle">Michael - Michael F. SChönitzer - Michael Gill - Michael Pureka - Michelle Pereira Garcia - Mike Mosher - Miriam Varón - Miroslav - mjkj</flowPara><flowPara
         id="flowPara3365"
         style="font-style:normal;font-variant:normal;font-weight:normal;font-stretch:normal;font-size:44.4154px;line-height:120%;font-family:Lavi;-inkscape-font-specification:Lavi;text-align:center;writing-mode:lr-tb;text-anchor:middle">Moritz Fuchs - Muriah Summer - Nazhif - Nicholas DeLateur - Nicholas Terranova - Nicki Aya - Nicola Angel - Nicolae Berbece - Nicole Heersema</flowPara><flowPara
         id="flowPara3367"
         style="font-style:normal;font-variant:normal;font-weight:normal;font-stretch:normal;font-size:44.4154px;line-height:120%;font-family:Lavi;-inkscape-font-specification:Lavi;text-align:center;writing-mode:lr-tb;text-anchor:middle">Nielas Sinclair - NinjaKnight Comics - Noble Hays - Noelia Calles Marcos - Nora Czaykowski - No Reward - Nyx - Oleg Schelykalnov</flowPara><flowPara
         id="flowPara3369"
         style="font-style:normal;font-variant:normal;font-weight:normal;font-stretch:normal;font-size:44.4154px;line-height:120%;font-family:Lavi;-inkscape-font-specification:Lavi;text-align:center;writing-mode:lr-tb;text-anchor:middle">Olga Bikmullina - Olivier Amrein - Olivier Brun - Olivier De Rop - Olivier Gavrois - Omar Willey - Oscar Moreno - Öykü Su Gürler - Ozone S.</flowPara><flowPara
         id="flowPara3371"
         style="font-style:normal;font-variant:normal;font-weight:normal;font-stretch:normal;font-size:44.4154px;line-height:120%;font-family:Lavi;-inkscape-font-specification:Lavi;text-align:center;writing-mode:lr-tb;text-anchor:middle">Pat David - Patrick Dezothez - Patrick Gamblin - Paul - Paul - Pavel Semenov - Pet0r - Peter - Peter Moonen - Petr Vlašic</flowPara><flowPara
         id="flowPara3373"
         style="font-style:normal;font-variant:normal;font-weight:normal;font-stretch:normal;font-size:44.4154px;line-height:120%;font-family:Lavi;-inkscape-font-specification:Lavi;text-align:center;writing-mode:lr-tb;text-anchor:middle">Philippe Jean Edward Bateman - Pierre Geier - Pierre Vuillemin - Pranab Shenoy - Praveen Bhamidipati - Pyves &amp; Ran - Raghavendra Kamath</flowPara><flowPara
         id="flowPara3375"
         style="font-style:normal;font-variant:normal;font-weight:normal;font-stretch:normal;font-size:44.4154px;line-height:120%;font-family:Lavi;-inkscape-font-specification:Lavi;text-align:center;writing-mode:lr-tb;text-anchor:middle">Rajul Gupta - Ramel Hill - Raymond Fullon - Ray Powell - Rebecca Morris - Reorx Meng - Ret Samys - Reuben Tracey - Ricardo Muggli - rictic</flowPara><flowPara
         id="flowPara3377"
         style="font-style:normal;font-variant:normal;font-weight:normal;font-stretch:normal;font-size:44.4154px;line-height:120%;font-family:Lavi;-inkscape-font-specification:Lavi;text-align:center;writing-mode:lr-tb;text-anchor:middle">RJ van der Weide - Roberto Zaghis - Robin Moussu - Roman  Burdun - Rose “flash” Flashis - Rumiko Hoshino - Rustin Simons - Sally Bridgewater</flowPara><flowPara
         id="flowPara3379"
         style="font-style:normal;font-variant:normal;font-weight:normal;font-stretch:normal;font-size:44.4154px;line-height:120%;font-family:Lavi;-inkscape-font-specification:Lavi;text-align:center;writing-mode:lr-tb;text-anchor:middle">Sami T - Samuel Mitson - Scott Petrovic - Sean Adams - Sebastien - Sevag Bakalian - ShadowMist - shafak - Shawn Meyer - Simon Forster</flowPara><flowPara
         id="flowPara3381"
         style="font-style:normal;font-variant:normal;font-weight:normal;font-stretch:normal;font-size:44.4154px;line-height:120%;font-family:Lavi;-inkscape-font-specification:Lavi;text-align:center;writing-mode:lr-tb;text-anchor:middle">Simon Isenberg - Sonja Reimann-Klieber - Sonny W. - Soriac - Stanislav German-Evtushenko - Stanislav Vodetskyi - Stephan Theelke</flowPara><flowPara
         id="flowPara3383"
         style="font-style:normal;font-variant:normal;font-weight:normal;font-stretch:normal;font-size:44.4154px;line-height:120%;font-family:Lavi;-inkscape-font-specification:Lavi;text-align:center;writing-mode:lr-tb;text-anchor:middle">Stephen Bates - Stephen Smoogen - Steven Bennett - Stuart Dickson - surt - Taedirk - TamaskanLEM - tar8156 - Tas Kartas - Terry Hancock</flowPara><flowPara
         id="flowPara3385"
         style="font-style:normal;font-variant:normal;font-weight:normal;font-stretch:normal;font-size:44.4154px;line-height:120%;font-family:Lavi;-inkscape-font-specification:Lavi;text-align:center;writing-mode:lr-tb;text-anchor:middle">TheFaico - thibhul - Thomas Citharel - Thomas Courbon - Thomas Schwery - Thor Galle - Thornae - Tim Burbank - Tim J. - Tomas Hajek</flowPara><flowPara
         id="flowPara3387"
         style="font-style:normal;font-variant:normal;font-weight:normal;font-stretch:normal;font-size:44.4154px;line-height:120%;font-family:Lavi;-inkscape-font-specification:Lavi;text-align:center;writing-mode:lr-tb;text-anchor:middle">Tom Savage - Travis Humble - tree - Tristy - Tyson Tan - uglyheroes - Urm - usfreitas - Vera Vukovic - Victoria - Victoria White</flowPara><flowPara
         id="flowPara3389"
         style="font-style:normal;font-variant:normal;font-weight:normal;font-stretch:normal;font-size:44.4154px;line-height:120%;font-family:Lavi;-inkscape-font-specification:Lavi;text-align:center;writing-mode:lr-tb;text-anchor:middle">Vladislav Kurdyukov - Vlad Tomash - WakoTabacco - Wander - Westen Curry - Wilhelmine Faust - Xavier Claude - Yalyn Vinkindo - Yaroslav</flowPara><flowPara
         id="flowPara3391"
         style="font-style:normal;font-variant:normal;font-weight:normal;font-stretch:normal;font-size:44.4154px;line-height:120%;font-family:Lavi;-inkscape-font-specification:Lavi;text-align:center;writing-mode:lr-tb;text-anchor:middle">Yasmin - Zeni Pong - Źmicier Kušnaroŭ - zubr kabbi.</flowPara><flowPara
         id="flowPara3113"
         style="font-style:normal;font-variant:normal;font-weight:normal;font-stretch:normal;font-size:44.4154px;line-height:120%;font-family:Lavi;-inkscape-font-specification:Lavi;text-align:center;writing-mode:lr-tb;text-anchor:middle"> </flowPara></flowRoot>
    <flowRoot
       transform="matrix(1.1211402,0,0,1.146083,-168.97308,1778.203)"
       style="font-style:normal;font-variant:normal;font-weight:normal;font-stretch:normal;line-height:0.01%;font-family:Arial;-inkscape-font-specification:Arial;text-align:center;letter-spacing:0px;word-spacing:0px;text-anchor:middle;display:inline;fill:#a72f14;fill-opacity:1;stroke:none"
       id="flowRoot3027-8-8"
       xml:space="preserve"><flowRegion
         id="flowRegion3029-9-3"><rect
           style="text-align:center;text-anchor:middle;fill:#a72f14;fill-opacity:1"
           y="219.33444"
           x="135.21135"
           height="376.21677"
           width="2230.314"
           id="rect3031-9-1" /></flowRegion><flowPara
         style="font-size:12px;line-height:1.25"
         id="flowPara3033-3-0"> </flowPara><flowPara
         id="flowPara3067-4"
         style="font-style:normal;font-variant:normal;font-weight:normal;font-stretch:normal;font-size:48px;line-height:1.25;font-family:Lavi;-inkscape-font-specification:Lavi;text-align:center;text-anchor:middle;fill:#a72f14;fill-opacity:1">https://www.patreon.com/davidrevoy</flowPara></flowRoot>
    <flowRoot
       transform="matrix(1.1013923,0,0,1.1364341,-153.01516,1701.3994)"
       style="font-style:normal;font-variant:normal;font-weight:normal;font-stretch:normal;line-height:0.01%;font-family:Arial;-inkscape-font-specification:Arial;text-align:center;letter-spacing:0px;word-spacing:0px;text-anchor:middle;display:inline;fill:#000000;fill-opacity:1;stroke:none"
       id="flowRoot3027-8-8-2"
       xml:space="preserve"><flowRegion
         id="flowRegion3029-9-3-5"><rect
           style="text-align:center;text-anchor:middle"
           y="219.33444"
           x="135.21135"
           height="376.21677"
           width="2230.314"
           id="rect3031-9-1-6" /></flowRegion><flowPara
         id="flowPara4735"
         style="font-style:normal;font-variant:normal;font-weight:normal;font-stretch:normal;font-size:48px;line-height:100%;font-family:'Nanum Pen Script OTF';-inkscape-font-specification:'Nanum Pen Script OTF';text-align:center;text-anchor:middle">여러분도 후추와 당근의</flowPara><flowPara
         id="flowPara3386"
         style="font-style:normal;font-variant:normal;font-weight:normal;font-stretch:normal;font-size:48px;line-height:100%;font-family:'Nanum Pen Script OTF';-inkscape-font-specification:'Nanum Pen Script OTF';text-align:center;text-anchor:middle">다음 화의 후원자가 될 수 있습니다 :</flowPara></flowRoot>
    <flowRoot
       transform="matrix(1.0547814,0,0,1.1160005,-94.715815,2036.6494)"
       style="font-style:normal;font-variant:normal;font-weight:normal;font-stretch:normal;line-height:0.01%;font-family:Arial;-inkscape-font-specification:Arial;text-align:center;letter-spacing:0px;word-spacing:0px;text-anchor:middle;display:inline;fill:#000000;fill-opacity:1;stroke:none"
       id="flowRoot3027-8-8-2-8"
       xml:space="preserve"><flowRegion
         id="flowRegion3029-9-3-5-1"><rect
           style="text-align:center;text-anchor:middle"
           y="219.33444"
           x="135.21135"
           height="376.21677"
           width="2230.314"
           id="rect3031-9-1-6-8" /></flowRegion><flowPara
         id="flowPara3233-6"
         style="font-style:normal;font-variant:normal;font-weight:normal;font-stretch:normal;font-size:46.455px;line-height:100%;font-family:'Nanum Pen Script OTF';-inkscape-font-specification:'Nanum Pen Script OTF';text-align:center;text-anchor:middle">도구 : 이번 화는 100% 무료/자유 소프트웨어로 제작되었습니다</flowPara><flowPara
         id="flowPara3404"
         style="font-style:normal;font-variant:normal;font-weight:normal;font-stretch:normal;font-size:46.455px;line-height:100%;font-family:'Nanum Pen Script OTF';-inkscape-font-specification:'Nanum Pen Script OTF';text-align:center;text-anchor:middle">GNU / 리눅스에서 크리타와 잉크스케이프 사용</flowPara></flowRoot>
    <flowRoot
       transform="matrix(0.99849913,0,0,1.0362451,-27.335908,2002.256)"
       style="font-style:normal;font-variant:normal;font-weight:normal;font-stretch:normal;line-height:0.01%;font-family:'Nanum Pen Script OTF';-inkscape-font-specification:'Nanum Pen Script OTF';text-align:center;letter-spacing:0px;word-spacing:0px;text-anchor:middle;display:inline;fill:#000000;fill-opacity:1;stroke:none"
       id="flowRoot3027-8-8-2-8-6"
       xml:space="preserve"><flowRegion
         id="flowRegion3029-9-3-5-1-2"><rect
           style="font-style:normal;font-variant:normal;font-weight:normal;font-stretch:normal;line-height:100%;font-family:'Nanum Pen Script OTF';-inkscape-font-specification:'Nanum Pen Script OTF';text-align:center;text-anchor:middle"
           y="219.33444"
           x="135.21135"
           height="376.21677"
           width="2230.314"
           id="rect3031-9-1-6-8-7" /></flowRegion><flowPara
         id="flowPara3233-6-14"
         style="font-style:normal;font-variant:normal;font-weight:normal;font-stretch:normal;font-size:48px;line-height:100%;font-family:'Nanum Pen Script OTF';-inkscape-font-specification:'Nanum Pen Script OTF';text-align:center;text-anchor:middle">오픈 소스 : 모든 레이어 소스 파일과 폰트는 공식 홈페이지에서 다운로드 가능</flowPara></flowRoot>
    <flowRoot
       transform="matrix(1.0298443,0,0,1.088794,-62.169538,1865.6022)"
       style="font-style:normal;font-variant:normal;font-weight:normal;font-stretch:normal;line-height:0.01%;font-family:Arial;-inkscape-font-specification:Arial;text-align:center;letter-spacing:0px;word-spacing:0px;text-anchor:middle;display:inline;fill:#000000;fill-opacity:1;stroke:none"
       id="flowRoot3027-8-8-2-8-6-3"
       xml:space="preserve"><flowRegion
         id="flowRegion3029-9-3-5-1-2-8"><rect
           style="text-align:center;text-anchor:middle"
           y="219.33444"
           x="135.21135"
           height="376.21677"
           width="2230.314"
           id="rect3031-9-1-6-8-7-4" /></flowRegion><flowPara
         style="font-size:12px;line-height:1.25"
         id="flowPara3033-3-0-2-4-3-2"> </flowPara><flowPara
         id="flowPara3278-7"
         style="font-style:normal;font-variant:normal;font-weight:normal;font-stretch:normal;font-size:47.5979px;line-height:100%;font-family:'Nanum Pen Script OTF';-inkscape-font-specification:'Nanum Pen Script OTF';text-align:center;text-anchor:middle">라이선스 : 크리에이티브 커먼즈 저작자표시</flowPara><flowPara
         id="flowPara3233-6-14-6"
         style="font-style:normal;font-variant:normal;font-weight:normal;font-stretch:normal;font-size:47.5979px;line-height:100%;font-family:'Nanum Pen Script OTF';-inkscape-font-specification:'Nanum Pen Script OTF';text-align:center;text-anchor:middle">수정, 재배포, 판매 등 가능</flowPara></flowRoot>
    <flowRoot
       transform="matrix(1.85294,0,0,1.9307221,-1273.0379,-415.09292)"
       style="font-style:normal;font-variant:normal;font-weight:normal;font-stretch:normal;line-height:0.01%;font-family:Arial;-inkscape-font-specification:Arial;text-align:center;letter-spacing:0px;word-spacing:0px;text-anchor:middle;display:inline;fill:#000000;fill-opacity:1;stroke:none"
       id="flowRoot3027"
       xml:space="preserve"><flowRegion
         id="flowRegion3029"><rect
           style="line-height:100%;text-align:center;text-anchor:middle;stroke-width:1"
           y="224.47961"
           x="454.2001"
           height="230.98642"
           width="1840.5787"
           id="rect3031" /></flowRegion><flowPara
         id="flowPara3553"
         style="font-style:normal;font-variant:normal;font-weight:normal;font-stretch:normal;font-size:48px;line-height:100%;font-family:'Nanum Pen Script OTF';-inkscape-font-specification:'Nanum Pen Script OTF';text-align:center;text-anchor:middle"></flowPara><flowPara
         id="flowPara107"
         style="font-style:normal;font-variant:normal;font-weight:normal;font-stretch:normal;font-size:48px;line-height:100%;font-family:'Nanum Pen Script OTF';-inkscape-font-specification:'Nanum Pen Script OTF';text-align:center;text-anchor:middle">후추와 당근은 완전히 자유 오픈소스이고 독자들의 소중한 후원을 받아 운영하고 있습니다.</flowPara><flowPara
         id="flowPara105"
         style="font-style:normal;font-variant:normal;font-weight:normal;font-stretch:normal;font-size:48px;line-height:100%;font-family:'Nanum Pen Script OTF';-inkscape-font-specification:'Nanum Pen Script OTF';text-align:center;text-anchor:middle">이번 화에 도움을 주신 354명의 후원자분께 감사의 말씀 드립니다:</flowPara><flowPara
         id="flowPara97"
         style="font-style:normal;font-variant:normal;font-weight:normal;font-stretch:normal;font-size:48px;line-height:100%;font-family:'Nanum Pen Script OTF';-inkscape-font-specification:'Nanum Pen Script OTF';text-align:center;text-anchor:middle" /><flowPara
         id="flowPara99"
         style="font-style:normal;font-variant:normal;font-weight:normal;font-stretch:normal;font-size:48px;line-height:100%;font-family:'Nanum Pen Script OTF';-inkscape-font-specification:'Nanum Pen Script OTF';text-align:center;text-anchor:middle" /><flowPara
         id="flowPara101"
         style="font-style:normal;font-variant:normal;font-weight:normal;font-stretch:normal;font-size:48px;line-height:100%;font-family:'Nanum Pen Script OTF';-inkscape-font-specification:'Nanum Pen Script OTF';text-align:center;text-anchor:middle" /><flowPara
         id="flowPara103"
         style="font-style:normal;font-variant:normal;font-weight:normal;font-stretch:normal;font-size:48px;line-height:100%;font-family:'Nanum Pen Script OTF';-inkscape-font-specification:'Nanum Pen Script OTF';text-align:center;text-anchor:middle" /></flowRoot>
  </g>
</svg>
