<?xml version="1.0" encoding="UTF-8" standalone="no"?>
<svg
   id="svg2"
   version="1.1"
   inkscape:version="1.1.1 (3bf5ae0d25, 2021-09-20)"
   width="2481"
   height="3503"
   sodipodi:docname="E35P07.svg"
   xmlns:inkscape="http://www.inkscape.org/namespaces/inkscape"
   xmlns:sodipodi="http://sodipodi.sourceforge.net/DTD/sodipodi-0.dtd"
   xmlns:xlink="http://www.w3.org/1999/xlink"
   xmlns="http://www.w3.org/2000/svg"
   xmlns:svg="http://www.w3.org/2000/svg"
   xmlns:rdf="http://www.w3.org/1999/02/22-rdf-syntax-ns#"
   xmlns:cc="http://creativecommons.org/ns#"
   xmlns:dc="http://purl.org/dc/elements/1.1/">
  <metadata
     id="metadata8">
    <rdf:RDF>
      <cc:Work
         rdf:about="">
        <dc:format>image/svg+xml</dc:format>
        <dc:type
           rdf:resource="http://purl.org/dc/dcmitype/StillImage" />
        <dc:title />
      </cc:Work>
    </rdf:RDF>
  </metadata>
  <defs
     id="defs6">
    <filter
       style="color-interpolation-filters:sRGB"
       id="filter4375-4-1-1-1-9-5-8-8-5-5-3-8"
       inkscape:label="soundFX1"
       x="-0.044353127"
       y="-0.0023842071"
       width="1.0467294"
       height="1.0447156">
      <feFlood
         id="feFlood4377-7-9-0-8-1-7-3-1-2-7-6-7"
         flood-opacity="1"
         flood-color="rgb(255,255,255)"
         result="flood" />
      <feComposite
         id="feComposite4379-3-8-8-2-77-4-1-0-6-4-7-9"
         in2="SourceGraphic"
         in="flood"
         operator="in"
         result="composite1"
         baseFrequency="0.053999999999999999 0.053999999999999999" />
      <feMorphology
         id="feMorphology4393-1-0-49-8-9-3-0-1-9-9-5-2"
         operator="dilate"
         radius="2.9756367599225957"
         result="result3" />
      <feComposite
         id="feComposite4385-9-5-7-0-8-8-7-5-4-9-3-0"
         in2="result3"
         in="SourceGraphic"
         operator="over"
         result="fbSourceGraphic" />
      <feColorMatrix
         result="fbSourceGraphicAlpha"
         in="fbSourceGraphic"
         values="0 0 0 -1 0 0 0 0 -1 0 0 0 0 -1 0 0 0 0 1 0"
         id="feColorMatrix4544-9-4-4-5-2" />
      <feTurbulence
         id="feTurbulence4546-3-6-5-6-3"
         type="fractalNoise"
         numOctaves="5"
         seed="174"
         baseFrequency="0.053999999999999999 0.054054054054054057"
         result="turbulence" />
      <feDisplacementMap
         id="feDisplacementMap4548-8-0-9-2-7"
         in2="turbulence"
         in="fbSourceGraphic"
         scale="6.6"
         yChannelSelector="G"
         xChannelSelector="R"
         result="fbSourceGraphic" />
      <feColorMatrix
         result="fbSourceGraphicAlpha"
         in="fbSourceGraphic"
         values="0 0 0 -1 0 0 0 0 -1 0 0 0 0 -1 0 0 0 0 1 0"
         id="feColorMatrix4670-7-7-3-9-5" />
      <feFlood
         id="feFlood4672-4-4-5-1-9"
         flood-opacity="1"
         flood-color="rgb(255,255,255)"
         result="flood"
         in="fbSourceGraphic" />
      <feComposite
         id="feComposite4674-8-3-7-2-22"
         in2="fbSourceGraphic"
         in="flood"
         operator="in"
         result="composite1" />
      <feGaussianBlur
         id="feGaussianBlur4676-3-7-08-7-8"
         in="composite1"
         stdDeviation="0"
         result="blur" />
      <feOffset
         id="feOffset4678-6-9-1-0-9"
         dx="-6.3258232761971414"
         dy="6"
         result="offset" />
      <feComposite
         id="feComposite4680-4-0-9-9-7"
         in2="offset"
         in="fbSourceGraphic"
         operator="over"
         result="composite2" />
    </filter>
  </defs>
  <sodipodi:namedview
     pagecolor="#ffffff"
     bordercolor="#666666"
     borderopacity="1"
     objecttolerance="10"
     gridtolerance="10"
     guidetolerance="10"
     inkscape:pageopacity="0"
     inkscape:pageshadow="2"
     inkscape:window-width="1920"
     inkscape:window-height="1001"
     id="namedview4"
     showgrid="false"
     inkscape:zoom="0.46261216"
     inkscape:cx="1445.055"
     inkscape:cy="2755.0076"
     inkscape:window-x="-9"
     inkscape:window-y="-9"
     inkscape:window-maximized="1"
     inkscape:current-layer="layer3"
     inkscape:document-rotation="0"
     inkscape:snap-global="false"
     inkscape:pagecheckerboard="0" />
  <g
     inkscape:groupmode="layer"
     id="layer2"
     inkscape:label="artwork"
     sodipodi:insensitive="true">
    <image
       xlink:href="../gfx_Pepper-and-Carrot_by-David-Revoy_E35P07.png"
       width="2481"
       height="3503"
       id="image10"
       x="0"
       y="0" />
  </g>
  <g
     inkscape:groupmode="layer"
     id="layer3"
     inkscape:label="speechbubbles">
    <path
       style="fill:#ffffff;stroke:none;stroke-width:1.04404"
       d="M 1995.7988 260.05078 C 1964.8346 260.68883 1933.4501 271.39102 1910.6133 292.73828 C 1888.6705 313.52792 1875.0946 341.75982 1867.9607 370.82996 C 1863.1314 390.04456 1860.5327 410.65588 1866.2429 429.98279 C 1873.1158 452.45457 1890.1535 470.66452 1910.1292 482.41553 C 1939.7119 500.17313 1974.8788 506.73328 2009.0641 505.6364 C 2044.8756 504.7705 2080.9843 501.72957 2115.5211 491.72609 C 2133.2854 485.94833 2150.5115 475.62925 2160.4501 459.36364 C 2169.7522 444.241 2172.0749 425.91436 2170.8756 408.47888 C 2169.8345 379.11925 2161.0415 350.15566 2145.8673 325.01991 C 2134.923 306.49222 2121.3087 288.66745 2102.579 277.46552 C 2086.4303 267.59598 2067.3769 264.4517 2048.8552 262.48287 C 2031.2503 260.46136 2013.5062 260.00006 1995.7988 260.05078 z "
       id="path3280-8"
       inkscape:connector-curvature="0"
       sodipodi:nodetypes="csssc" />
    <path
       style="fill:#ffffff;fill-rule:evenodd;stroke:none;stroke-width:0.934796px;stroke-linecap:butt;stroke-linejoin:miter;stroke-opacity:1"
       d="m 1937.2471,432.07438 c -6.2176,11.12141 -85.6078,33.31577 -108.1931,83.17757 30.1276,-36.25015 118.0705,-48.01797 132.9745,-62.07815 51.3058,-16.19189 -3.5494,-23.72277 -24.7814,-21.09942 z"
       id="path4186"
       inkscape:connector-curvature="0"
       sodipodi:nodetypes="cccc" />
    <path
       style="fill:#ffffff;fill-rule:evenodd;stroke:none;stroke-width:1px;stroke-linecap:butt;stroke-linejoin:miter;stroke-opacity:1"
       d="m 1557.7613,1692.8906 134.1326,-31.6108 -24.0947,-23.8017 91.2177,-24.1969 -16.3502,-24.7111 -106.501,38.013 26.5589,28.0558 z"
       id="path4667"
       inkscape:connector-curvature="0" />
    <path
       style="color:#000000;display:inline;overflow:visible;visibility:visible;fill:#ffffff;fill-opacity:1;fill-rule:nonzero;stroke:none;stroke-width:1.12843px;marker:none;enable-background:accumulate"
       d="m 391.5769,3167.8318 c -7.23811,18.6619 -52.05781,10.3174 -67.0863,6.0688 30.29393,21.9362 29.23779,35.0172 -11.89282,35.9167 66.66118,33.4978 16.76424,34.0668 -4.37526,28.9926 34.17899,17.7527 36.20827,33.9683 1.44476,42.1393 62.25111,2.2759 47.18102,15.2452 23.61283,33.8563 27.56221,-11.85 70.07971,-19.7446 71.58827,13.2682 39.93547,-27.7008 60.54023,-26.571 74.98161,6.3976 12.06307,-27.7524 53.13847,-32.0237 68.84482,-1.3015 13.53004,-40.6183 61.80672,-33.5147 90.54409,-12.8552 -16.13182,-14.4659 -5.1314,-37.249 49.86772,-31.0622 -4.42692,-12.9748 2.53485,-29.0046 30.3088,-26.096 -31.99215,-8.6461 -37.88812,-16.8174 21.51402,-23.7957 -45.20156,-2.0802 -87.35236,-4.9518 -34.32109,-32.8773 -16.63734,-1.1704 -58.67096,30.7099 -40.26671,-40.548 -48.72724,19.8167 -97.37037,20.7746 -94.85121,-23.6066 -18.11546,23.5432 -49.53633,34.5732 -63.20604,4.1646 -11.28433,27.7421 -45.55915,15.049 -63.36432,-4.5901 -11.76476,18.6771 -19.50089,52.7905 -53.34317,25.9285 z"
       id="path3549-3-7-8"
       inkscape:connector-curvature="0"
       sodipodi:nodetypes="ccccccccccccccccccc" />
    <path
       style="color:#000000;display:inline;overflow:visible;visibility:visible;fill:#ffffff;fill-opacity:1;fill-rule:nonzero;stroke:none;stroke-width:1.33664px;marker:none;enable-background:accumulate"
       d="m 343.51514,2971.7241 c 68.89191,46.6958 -69.36708,30.4543 -95.88671,24.0162 69.31382,16.4345 53.77323,43.8191 -18.075,52.4096 124.04735,44.9742 26.7585,59.9513 2.26741,60.609 82.31296,18.9496 64.28911,33.4731 49.63451,56.9499 160.947,-26.8552 48.68254,46.2035 48.83274,77.4707 8.02069,-14.0641 131.22722,-146.4956 48.4175,-9.2072 62.57941,-45.484 137.95469,-74.8643 143.93973,4.7328 25.21429,-40.0433 50.3529,-56.9669 48.4175,-9.2073 62.4731,-62.1175 153.0846,-45.7552 209.55807,-28.1985 -73.3244,-47.1673 -28.63856,-43.654 52.82337,-30.5302 -94.77922,-32.3441 -86.7316,-47.1121 23.31716,-43.2174 -48.62239,-11.2255 -57.58336,-22.8046 32.69754,-35.2653 -69.38086,-2.0316 -145.58201,-19.2028 -52.16202,-46.1693 -35.1845,2.3658 -166.72262,-3.2773 -57.30803,-69.3398 -85.87323,24.8605 -174.27368,34.9112 -148.0474,-18.0328 -73.20273,32.1536 -80.87907,51.6485 -96.06191,8.5439 -25.89115,37.4088 -59.5194,14.2383 -96.30252,-4.1082 26.76591,29.2486 -33.02078,46.494 -96.06194,8.5439 z"
       id="path3549-3-7"
       inkscape:connector-curvature="0"
       sodipodi:nodetypes="ccccccccccccccccccc" />
    <path
       style="fill:#ffffff;fill-rule:evenodd;stroke:none;stroke-width:1.61403px;stroke-linecap:butt;stroke-linejoin:miter;stroke-opacity:1"
       d="m 559.65143,2966.4499 c 7.81388,-49.8207 8.23157,-62.9667 6.02019,-75.0728 -2.2114,-12.106 -16.03862,-8.1385 -26.02653,-3.643 -6.53887,2.9161 -28.34548,24.9309 -13.34891,-11.2886 14.99673,-36.2194 33.04009,-86.6247 37.65555,-102.5126 -15.5946,27.8024 -42.45502,71.0937 -50.25242,84.9947 -7.79723,13.9012 -19.54665,39.459 -22.39666,47.151 -3.46707,9.3577 -1.1372,19.0591 14.63013,17.8664 24.66487,-3.6362 41.86312,-37.8298 13.23772,21.5203 -28.62567,59.3501 4.95095,150.5651 4.95095,150.5651 z"
       id="path1089"
       inkscape:connector-curvature="0"
       sodipodi:nodetypes="csccccscccc" />
    <path
       style="color:#000000;display:inline;overflow:visible;visibility:visible;fill:#ffffff;fill-opacity:1;fill-rule:nonzero;stroke:none;stroke-width:1.19029px;marker:none;enable-background:accumulate"
       d="m 1771.699,1475.4618 c -2.7983,39.3562 -55.8175,13.8841 -80.9949,3.8653 30.0086,22.1753 52.7882,51.777 -13.342,49.9172 74.2612,39.3017 24.6158,37.3789 12.6461,47.3439 58.3087,13.5445 41.5511,30.8892 4.1245,40.3253 67.02,0.5764 50.7955,14.4096 25.4217,34.3158 29.6739,-13.0326 75.4485,-22.4042 77.0727,11.6703 42.995,-29.767 65.1783,-29.1872 80.726,4.4729 12.9872,-29.0252 57.2094,-34.6113 74.119,-3.3088 14.5667,-42.3636 66.5418,-36.3993 97.4807,-15.8681 -17.3676,-14.49 -5.5244,-38.3493 53.6883,-33.5242 -4.7661,-13.2829 2.729,-30.0478 32.6307,-27.834 -34.4431,-8.0229 -40.7907,-16.2995 23.1622,-25.2057 -48.6644,-0.8606 -94.0445,-2.626 -36.9505,-32.9988 -17.9118,-0.7349 -60.41,24.609 -40.5958,-49.5587 -52.4602,21.8696 -107.5856,33.0497 -104.8735,-12.8888 -19.5033,24.8479 -53.3313,37.1432 -68.0483,6.1069 -12.1489,28.9924 -49.0496,16.8521 -68.2187,-2.9362 -12.666,19.6377 -31.6132,32.9013 -68.0482,6.1057 z"
       id="path3549-3-7-8-6"
       inkscape:connector-curvature="0"
       sodipodi:nodetypes="ccccccccccccccccccc" />
  </g>
  <g
     inkscape:groupmode="layer"
     id="layer1"
     inkscape:label="txt">
    <text
       xml:space="preserve"
       style="font-style:normal;font-variant:normal;font-weight:normal;font-stretch:normal;font-size:45px;line-height:1.25;font-family:Lavi;-inkscape-font-specification:Lavi;text-align:center;letter-spacing:0px;word-spacing:0px;text-anchor:middle;fill:#000000;fill-opacity:1;stroke:none"
       x="2020.3785"
       y="336.14099"
       id="text4246-3-2-2"><tspan
         style="font-size:45px"
         sodipodi:role="line"
         x="2020.3785"
         y="336.14099"
         id="tspan873">Отлично! </tspan><tspan
         style="font-size:45px"
         sodipodi:role="line"
         x="2020.3785"
         y="392.39099"
         id="tspan879">Они следуют</tspan><tspan
         style="font-size:45px"
         sodipodi:role="line"
         x="2020.3785"
         y="448.64099"
         id="tspan886">за нами!</tspan></text>
    <text
       xml:space="preserve"
       style="font-style:normal;font-variant:normal;font-weight:normal;font-stretch:normal;font-size:45px;line-height:1.25;font-family:Lavi;-inkscape-font-specification:Lavi;text-align:center;letter-spacing:0px;word-spacing:0px;text-anchor:middle;fill:#000000;fill-opacity:1;stroke:none"
       x="1915.5864"
       y="1553.5004"
       id="text4246-3-2-2-3"><tspan
         style="font-size:45px"
         sodipodi:role="line"
         x="1915.5864"
         y="1553.5004"
         id="tspan887">Мы скоро</tspan><tspan
         style="font-size:45px"
         sodipodi:role="line"
         x="1915.5864"
         y="1609.7504"
         id="tspan922">избавимся от них.</tspan></text>
    <text
       xml:space="preserve"
       style="font-style:normal;font-variant:normal;font-weight:normal;font-stretch:normal;font-size:50.2786px;line-height:1.25;font-family:Lavi;-inkscape-font-specification:Lavi;text-align:center;letter-spacing:0px;word-spacing:0px;text-anchor:middle;fill:#000000;fill-opacity:1;stroke:none;stroke-width:1.1173"
       x="531.13611"
       y="3067.8477"
       id="text4246-3-2-2-3-3"><tspan
         style="font-style:normal;font-variant:normal;font-weight:bold;font-stretch:normal;font-size:50.2786px;font-family:Lavi;-inkscape-font-specification:'Lavi Bold';stroke-width:1.1173"
         sodipodi:role="line"
         x="531.13611"
         y="3067.8477"
         id="tspan894">Я не могу дождаться,</tspan><tspan
         style="font-style:normal;font-variant:normal;font-weight:bold;font-stretch:normal;font-size:50.2786px;font-family:Lavi;-inkscape-font-specification:'Lavi Bold';stroke-width:1.1173"
         sodipodi:role="line"
         x="531.13611"
         y="3130.6958"
         id="tspan896">когда увижу это!</tspan></text>
    <text
       xml:space="preserve"
       style="font-style:normal;font-variant:normal;font-weight:normal;font-stretch:normal;font-size:57.3248px;line-height:1.25;font-family:Lavi;-inkscape-font-specification:Lavi;text-align:center;letter-spacing:0px;word-spacing:0px;text-anchor:middle;fill:#000000;fill-opacity:1;stroke:none;stroke-width:1.27388"
       x="517.26379"
       y="3258.7009"
       id="text4246-3-2-2-3-3-3"><tspan
         style="font-style:normal;font-variant:normal;font-weight:bold;font-stretch:normal;font-size:57.3248px;font-family:Lavi;-inkscape-font-specification:'Lavi Bold';stroke-width:1.27388"
         sodipodi:role="line"
         x="517.26379"
         y="3258.7009"
         id="tspan1015">Мухахаха!</tspan></text>
    <text
       xml:space="preserve"
       style="font-style:normal;font-variant:normal;font-weight:normal;font-stretch:normal;font-size:105.817px;line-height:1.25;font-family:Lavi;-inkscape-font-specification:Lavi;letter-spacing:0px;word-spacing:0px;fill:#000000;fill-opacity:1;stroke:#030303;stroke-width:0.716208;stroke-miterlimit:4;stroke-dasharray:none;stroke-opacity:1;filter:url(#filter4375-4-1-1-1-9-5-8-8-5-5-3-8)"
       x="787.65729"
       y="1584.5073"
       id="text4580-6-0-0-0-9-3-36"
       transform="matrix(1.0545214,-0.26714456,-0.41513081,1.2309466,1890.7199,857.1408)"><tspan
         style="font-size:195.17px;fill:#000000;fill-opacity:1;stroke:#030303;stroke-width:0.716208;stroke-miterlimit:4;stroke-dasharray:none;stroke-opacity:1"
         sodipodi:role="line"
         id="tspan876-6-1"
         x="787.65729"
         y="1584.5073">!<tspan
   style="font-size:173.821px;fill:#000000;stroke:#030303;stroke-opacity:1"
   id="tspan1317">!</tspan><tspan
   id="tspan1322"
   style="font-size:152.472px;fill:#000000;stroke:#030303;stroke-opacity:1">!</tspan></tspan></text>
  </g>
</svg>
