<?xml version="1.0" encoding="UTF-8" standalone="no"?>
<!-- Created with Inkscape (http://www.inkscape.org/) -->

<svg
   id="svg2"
   version="1.1"
   inkscape:version="1.1.1 (3bf5ae0d25, 2021-09-20)"
   width="2481"
   height="3503"
   sodipodi:docname="E36P02.svg"
   xmlns:inkscape="http://www.inkscape.org/namespaces/inkscape"
   xmlns:sodipodi="http://sodipodi.sourceforge.net/DTD/sodipodi-0.dtd"
   xmlns:xlink="http://www.w3.org/1999/xlink"
   xmlns="http://www.w3.org/2000/svg"
   xmlns:svg="http://www.w3.org/2000/svg"
   xmlns:rdf="http://www.w3.org/1999/02/22-rdf-syntax-ns#"
   xmlns:cc="http://creativecommons.org/ns#"
   xmlns:dc="http://purl.org/dc/elements/1.1/">
  <metadata
     id="metadata8">
    <rdf:RDF>
      <cc:Work
         rdf:about="">
        <dc:format>image/svg+xml</dc:format>
        <dc:type
           rdf:resource="http://purl.org/dc/dcmitype/StillImage" />
      </cc:Work>
    </rdf:RDF>
  </metadata>
  <defs
     id="defs6">
    <filter
       x="-0.030924391"
       width="1.0599126"
       height="1.3663621"
       inkscape:label="magic-Fx-red_background"
       id="filter4375-4-1-1-1-9-5-8-8-3-3-3-6-1-3"
       style="color-interpolation-filters:sRGB"
       y="-0.13001217">
      <feFlood
         radius="5.0999999999999996"
         result="flood"
         flood-color="rgb(136,138,133)"
         flood-opacity="1"
         id="feFlood4377-7-9-0-8-1-7-3-1-6-61-6-2-0-1" />
      <feComposite
         baseFrequency="0.053999999999999999 0.053999999999999999"
         result="composite1"
         operator="in"
         in="flood"
         in2="SourceGraphic"
         id="feComposite4379-3-8-8-2-77-4-1-0-7-2-7-6-6-4" />
      <feMorphology
         result="result3"
         radius="0.96959439099754563"
         operator="dilate"
         id="feMorphology4393-1-0-49-8-9-3-0-1-5-9-5-1-3-9" />
      <feComposite
         numOctaves="4"
         result="fbSourceGraphic"
         operator="over"
         in="SourceGraphic"
         in2="result3"
         id="feComposite4385-9-5-7-0-8-8-7-5-3-3-3-8-2-2" />
      <feColorMatrix
         id="feColorMatrix4544-9-5-1-5-7-0-0"
         values="0 0 0 -1 0 0 0 0 -1 0 0 0 0 -1 0 0 0 0 1 0"
         in="fbSourceGraphic"
         result="fbSourceGraphicAlpha" />
      <feTurbulence
         result="turbulence"
         baseFrequency="0.062 0.054054054054054057"
         seed="172"
         numOctaves="4.4123222748815163"
         type="fractalNoise"
         id="feTurbulence4546-3-6-9-6-9-6-6" />
      <feDisplacementMap
         result="fbSourceGraphic"
         xChannelSelector="R"
         yChannelSelector="G"
         scale="11.642079"
         in="fbSourceGraphic"
         in2="turbulence"
         id="feDisplacementMap4548-8-2-4-2-2-1-8" />
      <feColorMatrix
         scale="10.800000000000001"
         id="feColorMatrix4670-7-9-7-9-0-5-9"
         values="0 0 0 -1 0 0 0 0 -1 0 0 0 0 -1 0 0 0 0 1 0"
         in="fbSourceGraphic"
         result="fbSourceGraphicAlpha" />
      <feComposite
         result="composite1"
         operator="in"
         in="flood"
         in2="fbSourceGraphic"
         id="feComposite4674-8-2-4-1-2-5-2" />
      <feGaussianBlur
         result="blur"
         stdDeviation="1.5865199271065846"
         in="composite1"
         id="feGaussianBlur4676-3-7-50-2-3-4-6" />
      <feOffset
         result="offset"
         dy="5.2374444725016502"
         dx="-0.42771311737301687"
         id="feOffset4678-6-0-3-7-7-7-6" />
      <feComposite
         result="composite2"
         operator="over"
         in="fbSourceGraphic"
         in2="offset"
         id="feComposite4680-4-9-6-0-5-6-4" />
      <feGaussianBlur
         stdDeviation="0.76414472307477677"
         id="feGaussianBlur58-9-9-5-9" />
      <feOffset
         dx="0"
         dy="0"
         id="feOffset60-3-2-6-5" />
    </filter>
    <filter
       style="color-interpolation-filters:sRGB"
       id="filter4375-4-1-1-1-9-5-8-3-4"
       inkscape:label="Drop Shadow"
       x="-0.00078949331"
       y="-0.0039973958"
       width="1.0161648"
       height="1.0818465">
      <feFlood
         id="feFlood4377-7-9-0-8-1-7-3-6"
         flood-opacity="1"
         flood-color="rgb(39,39,39)"
         result="flood" />
      <feComposite
         id="feComposite4379-3-8-8-2-77-4-1-7"
         in2="SourceGraphic"
         in="flood"
         operator="in"
         result="composite1" />
      <feMorphology
         id="feMorphology4393-1-0-49-8-9-3-0-5"
         operator="dilate"
         radius="6.2000000000000002"
         result="result3" />
      <feComposite
         id="feComposite4385-9-5-7-0-8-8-7-3"
         in2="result3"
         in="SourceGraphic"
         operator="over"
         result="fbSourceGraphic" />
      <feColorMatrix
         result="fbSourceGraphicAlpha"
         in="fbSourceGraphic"
         values="0 0 0 -1 0 0 0 0 -1 0 0 0 0 -1 0 0 0 0 1 0"
         id="feColorMatrix4544-5" />
      <feTurbulence
         id="feTurbulence4546-6"
         type="fractalNoise"
         numOctaves="3"
         seed="37"
         baseFrequency="0.129 0.0050000000000000001"
         result="turbulence" />
      <feDisplacementMap
         id="feDisplacementMap4548-2"
         in2="turbulence"
         in="fbSourceGraphic"
         scale="6.6"
         yChannelSelector="G"
         xChannelSelector="R"
         result="fbSourceGraphic" />
      <feColorMatrix
         result="fbSourceGraphicAlpha"
         in="fbSourceGraphic"
         values="0 0 0 -1 0 0 0 0 -1 0 0 0 0 -1 0 0 0 0 1 0"
         id="feColorMatrix4670-9-3" />
      <feFlood
         id="feFlood4672-1-0"
         flood-opacity="0.40999999999999998"
         flood-color="rgb(34,52,102)"
         result="flood"
         in="fbSourceGraphic" />
      <feComposite
         id="feComposite4674-2-3"
         in2="fbSourceGraphic"
         in="flood"
         operator="in"
         result="composite1" />
      <feGaussianBlur
         id="feGaussianBlur4676-7"
         in="composite1"
         stdDeviation="0"
         result="blur" />
      <feOffset
         id="feOffset4678-0-0"
         dx="6"
         dy="6"
         result="offset" />
      <feComposite
         id="feComposite4680-9"
         in2="offset"
         in="fbSourceGraphic"
         operator="over"
         result="composite2" />
    </filter>
  </defs>
  <sodipodi:namedview
     pagecolor="#1e1e1e"
     bordercolor="#111111"
     borderopacity="1"
     objecttolerance="10"
     gridtolerance="10"
     guidetolerance="10"
     inkscape:pageopacity="0"
     inkscape:pageshadow="2"
     inkscape:window-width="1852"
     inkscape:window-height="1016"
     id="namedview4"
     showgrid="false"
     inkscape:zoom="0.46000002"
     inkscape:cx="1327.1739"
     inkscape:cy="2574.9999"
     inkscape:window-x="0"
     inkscape:window-y="0"
     inkscape:window-maximized="1"
     inkscape:current-layer="layer3"
     inkscape:pagecheckerboard="0"
     inkscape:snap-global="false" />
  <g
     inkscape:groupmode="layer"
     id="layer2"
     inkscape:label="artwork"
     sodipodi:insensitive="true"
     style="display:inline">
    <image
       xlink:href="../gfx_Pepper-and-Carrot_by-David-Revoy_E36P02.png"
       y="0"
       x="0"
       id="image10"
       height="3503"
       width="2481" />
  </g>
  <g
     inkscape:groupmode="layer"
     id="layer3"
     inkscape:label="speechbubbles"
     style="display:inline">
    <path
       style="fill:#ffffff;fill-rule:evenodd;stroke:none;stroke-width:1.25471px;stroke-linecap:butt;stroke-linejoin:miter;stroke-opacity:1"
       d="m 1652.8377,3206.4764 c -27.8836,0.045 -81.9825,12.9419 -34.4549,49.2533 -61.2179,-18.0303 -72.0681,-3.184 -78.2928,14.6812 -20.3708,-15.904 -41.975,-30.0771 -84.7351,-14.5716 -8.5698,-24.9118 -39.6091,-32.9308 -87.6035,-28.2031 40.6993,-21.4739 64.6873,-41.6992 -16.8875,-54.0373 66.1691,-3.1342 83.0664,-31.1057 16.5746,-50.5371 53.5263,6.0465 68.7687,-1.0415 55.44,-17.9317 32.2748,11.6215 58.4759,10.9419 78.266,-2.7208 31.2486,28.3175 53.7018,26.3594 69.1806,0.3947 1.5998,43.6817 47.175,41.1468 80.2365,45.4166 -55.7013,17.0103 -11.3997,62.535 2.2761,58.2558 z"
       id="path1087"
       inkscape:connector-curvature="0"
       sodipodi:nodetypes="cccccccccccc" />
    <path
       style="color:#000000;display:inline;overflow:visible;visibility:visible;fill:#ffffff;fill-opacity:1;fill-rule:nonzero;stroke:none;stroke-width:1.20676px;marker:none;enable-background:accumulate"
       d="m 1675.4001,3184.262 c -32.5128,0.2225 -65.6505,1.7888 -96.565,12.8625 -19.6785,6.5495 -39.242,15.7511 -53.8345,30.8873 -12.7751,16.3188 -13.9717,38.4657 -12.0298,58.3212 1.7548,16.0341 9.6182,31.0203 21.5716,41.7541 21.7385,21.4363 51.207,33.8312 81.3181,36.9841 21.3123,2.6106 42.734,4.3699 64.1567,5.7336 41.1395,1.7913 82.435,-0.8496 123.1516,-6.8576 24.9028,-4.0845 49.1679,-17.0266 63.1867,-38.5886 15.2539,-22.5437 17.2435,-51.8579 11.172,-77.8226 -3.4806,-14.3982 -12.5189,-27.2605 -25.2377,-34.8891 -29.4828,-18.2143 -64.4867,-24.5991 -98.6085,-26.3982 -26.0756,-1.0704 -52.1776,-2.1356 -78.2812,-1.9867 z"
       id="path3525-1"
       inkscape:connector-curvature="0"
       sodipodi:nodetypes="ccccc" />
    <path
       style="display:inline;fill:#ffffff;fill-rule:evenodd;stroke:none;stroke-width:1.15535px;stroke-linecap:butt;stroke-linejoin:miter;stroke-opacity:1"
       d="m 1696.2105,3105.6931 c 0,0 -32.5032,0.5122 -35.8686,17.9644 -3.3663,17.4516 24.539,59.2603 24.539,59.2603 0,0 -45.1119,0.7369 -45.1178,48.4326 -0.01,47.6953 47.113,85.7891 43.4135,52.8962 -3.6991,-32.8931 -34.8285,-95.2011 56.3216,-84.9196 -32.3662,-27.7763 -52.1364,-60.1065 -52.668,-63.6644 -1.9951,-13.3523 30.9323,-20.3265 45.1813,-19.8929 -64.6236,-55.3255 -17.6069,-82.8485 -7.229,-135.1096 -26.5229,47.7737 -71.2674,83.4938 -28.572,125.033 z"
       id="path4394-0"
       inkscape:connector-curvature="0"
       sodipodi:nodetypes="cscsscsccc" />
    <path
       style="display:inline;fill:#ffffff;fill-rule:evenodd;stroke:none;stroke-width:1.29481px;stroke-linecap:butt;stroke-linejoin:miter;stroke-opacity:1"
       d="m 2093.4889,2176.8157 c -6.1133,10.1909 -11.0362,22.0059 -21.7318,28.5752 -8.7103,5.015 -20.1711,1.4843 -26.6833,-5.3726 -4.985,-4.7535 -9.6316,-9.825 -14.5115,-14.6779 1.9064,8.9364 3.0273,18.6762 -0.9095,27.2681 -6.9915,5.7345 -18.0246,3.4374 -23.8998,-2.7396 -2.1248,-1.5005 -4.2495,-3.001 -6.3744,-4.5014 2.5084,11.4106 -0.1661,24.5547 -9.327,32.6196 -9.0087,4.1637 -20.073,-0.6928 -25.0046,-8.5826 -2.0173,-2.0834 -4.0348,-4.1667 -6.0521,-6.2501 5.0974,5.1308 3.6178,15.6295 -3.855,17.82 -9.727,1.4616 -18.5154,-4.0958 -26.2251,-9.088 -8.5385,-5.5881 -16.4137,-12.0468 -24.3698,-18.3726 10.9799,12.2512 22.3021,25.2183 26.6616,41.2549 0.4233,6.7296 -9.8849,10.4674 -14.2833,5.3623 -2.6832,-1.2498 -5.3289,-2.5731 -7.9834,-3.8788 7.2739,6.95 14.882,14.5705 17.2425,24.5391 -3.4786,6.8954 -13.0076,8.4589 -19.809,5.6792 -2.713,-0.5123 -5.4262,-1.0246 -8.1394,-1.5369 13.3547,14.3727 21.7821,34.1917 18.6974,53.6974 -3.6028,16.5592 -15.5103,29.5636 -25.7445,42.6769 -1.0558,0.8817 -1.6395,2.9534 0.4959,2.0521 16.7201,-2.8221 34.4452,-5.1318 50.867,0.3706 10.251,4.1007 14.707,17.855 8.5473,26.8422 4.9163,-4.2319 12.0175,-8.0134 18.6386,-5.3176 8.3098,3.5798 11.4865,13.2572 10.7689,21.484 -0.2324,6.3992 -2.2233,12.5601 -4.0611,18.6593 7.9629,-11.2681 16.3534,-23.2978 29.3928,-29.4805 8.2717,-2.4384 16.6343,6.6063 14.2284,14.3864 0.1362,2.1859 3.3712,1.0792 3.4788,-0.5652 9.0434,-10.5248 21.8289,-19.235 36.3348,-19.8902 4.8776,0.5762 8.2795,5.8683 7.0914,10.4047 7.5543,-5.9476 16.809,-11.3643 26.9372,-10.2914 14.0264,0.67 26.0276,8.8144 36.7229,16.9093 2.8508,2.1573 5.6335,4.3974 8.4401,6.608 2.9532,-9.7243 5.9946,-20.5384 14.8072,-26.8793 9.7649,-5.0826 22.2015,-1.1438 29.2651,6.5217 6.0236,5.0749 11.1594,11.0243 16.4539,16.7871 2.2975,-10.6342 16.1439,-15.881 25.8659,-11.3501 10.2725,4.1038 18.4212,11.8597 25.684,19.7912 1.8702,2.1981 3.6655,4.4546 5.4407,6.7253 -2.1213,-8.1105 -5.3243,-16.5192 -3.3188,-24.9706 4.6138,-3.9636 11.7568,-1.5245 15.3402,2.5861 7.5605,5.3674 14.193,11.8921 19.9974,19.0073 -3.4824,-10.8236 3.326,-24.1999 15.0704,-26.7102 13.5632,-4.043 27.9173,-0.4955 40.9504,3.7092 8.5843,2.9682 16.7168,7.0221 24.624,11.3861 -11.0737,-8.2117 -19.0399,-21.8478 -16.846,-35.649 1.9488,-9.7215 11.2733,-16.2531 20.579,-18.9109 0.7194,-0.2316 2.7429,-0.3734 1.1859,-1.2217 -5.934,-4.2389 -14.0551,-7.0144 -16.7692,-14.275 -3.1086,-8.4972 1.8515,-17.6582 8.538,-23.112 5.3343,-4.5397 11.0033,-8.6869 16.688,-12.8006 -10.5091,-3.7605 -22.5232,-5.9548 -30.3249,-14.4131 -5.2579,-6.8077 -1.9787,-16.9428 4.7432,-21.6212 12.6489,-11.9912 27.9173,-20.8356 42.2213,-30.7757 -23.6372,5.8715 -47.4734,13.4397 -72.1878,12.2676 -10.3816,-1.6471 -15.597,-14.9257 -10.0087,-23.2534 2.896,-9.1845 7.7972,-17.5828 12.0998,-26.1841 -18.7779,5.6908 -37.3193,13.4739 -57.2403,14.2737 -4.5571,-2.7459 -3.2611,-9.7713 0.8987,-12.2716 0.7543,-1.3669 2.6047,-2.4697 2.1657,-4.2273 -11.0864,6.9072 -23.1853,13.7016 -36.7119,14.0994 -9.5268,-2.2187 -15.3198,-13.3376 -11.8525,-22.1481 -2.2461,-2.5785 -5.5991,0.017 -7.7607,1.3609 -23.3377,11.0835 -51.6055,14.1012 -76.0257,4.4918 -19.7043,-7.827 -36.0588,-22.1489 -48.4058,-38.7635 -0.2183,-0.1355 -0.4929,-0.1992 -0.7475,-0.1339 z"
       id="path4289-9-3"
       inkscape:connector-curvature="0"
       sodipodi:nodetypes="cccccccccccccccccccccccc" />
    <path
       style="color:#000000;display:inline;overflow:visible;visibility:visible;fill:#ffffff;fill-opacity:1;fill-rule:nonzero;stroke:none;stroke-width:0.634675px;marker:none;enable-background:accumulate"
       d="m 2065.5689,2358.3715 c -1.019,14.0823 -77.982,87.5377 3.591,185.0685 -57.766,-96.8638 17.7385,-154.6405 29.7695,-166.83 -23.5374,-29.6642 -17.4947,-9.4644 -33.3605,-18.2385 z"
       id="path4024-3"
       inkscape:connector-curvature="0"
       sodipodi:nodetypes="cccc" />
  </g>
  <g
     inkscape:groupmode="layer"
     id="layer1"
     inkscape:label="txt"
     style="display:inline">
    <text
       transform="matrix(1.0109872,-0.19833599,-0.21684929,1.1745089,102.88627,624.18095)"
       id="text4580-6-0-0-3-3-6-2-9-8-0"
       y="1584.5073"
       x="787.65729"
       style="font-style:normal;font-variant:normal;font-weight:normal;font-stretch:normal;line-height:0;font-family:Lavi;-inkscape-font-specification:Lavi;letter-spacing:3.03024px;word-spacing:0px;opacity:0.75027;fill:#ffffff;fill-opacity:1;stroke:#837567;stroke-width:1.52377;stroke-miterlimit:4;stroke-dasharray:none;stroke-opacity:1;paint-order:stroke fill markers;filter:url(#filter4375-4-1-1-1-9-5-8-8-3-3-3-6-1-3)"
       xml:space="preserve"
       inkscape:label="FXB-3"><tspan
         style="font-style:normal;font-variant:normal;font-weight:bold;font-stretch:normal;font-size:70px;line-height:1.25;font-family:Drukah;-inkscape-font-specification:'Drukah Bold';fill:#ffffff;fill-opacity:1;stroke:#837567;stroke-width:1.52377;stroke-miterlimit:4;stroke-dasharray:none;stroke-opacity:1;paint-order:stroke fill markers"
         y="1584.5073"
         x="787.65729"
         id="tspan4582-1-1-0-6-9-0-8-3-4-4"
         sodipodi:role="line">Psch<tspan
   style="font-size:59.826px"
   id="tspan39837">h...</tspan></tspan></text>
    <text
       id="text4246-5-8"
       y="3199.8108"
       x="1515.5361"
       style="font-style:normal;font-variant:normal;font-weight:normal;font-stretch:normal;font-size:53.7995px;line-height:0%;font-family:Lavi;-inkscape-font-specification:Lavi;text-align:center;letter-spacing:0px;word-spacing:0px;text-anchor:middle;fill:#000000;fill-opacity:1;stroke:none;stroke-width:1.05513"
       xml:space="preserve"
       inkscape:label="kingB"><tspan
         y="3199.8108"
         x="1515.5361"
         style="font-style:normal;font-variant:normal;font-weight:bold;font-stretch:normal;font-size:53.7995px;line-height:1.25;font-family:Lavi;-inkscape-font-specification:'Lavi Bold';stroke-width:1.05513"
         sodipodi:role="line"
         id="tspan858">Pokkers!</tspan></text>
    <text
       id="text4246-5-8-3"
       y="3256.0012"
       x="1695.3146"
       style="font-style:normal;font-variant:normal;font-weight:normal;font-stretch:normal;font-size:45px;line-height:0%;font-family:Lavi;-inkscape-font-specification:Lavi;text-align:center;letter-spacing:0px;word-spacing:0px;text-anchor:middle;fill:#000000;fill-opacity:1;stroke:none;stroke-width:0.88255"
       xml:space="preserve"
       inkscape:label="kingB"><tspan
         y="3256.0012"
         x="1695.3146"
         style="font-style:normal;font-variant:normal;font-weight:bold;font-stretch:normal;font-size:45px;line-height:1.25;font-family:Lavi;-inkscape-font-specification:'Lavi Bold';stroke-width:0.88255"
         sodipodi:role="line"
         id="tspan60054">Jeg kan jo ikke </tspan><tspan
         y="3312.2512"
         x="1695.3146"
         style="font-style:normal;font-variant:normal;font-weight:bold;font-stretch:normal;font-size:45px;line-height:1.25;font-family:Lavi;-inkscape-font-specification:'Lavi Bold';stroke-width:0.88255"
         sodipodi:role="line"
         id="tspan6433">gøre noget her!</tspan></text>
    <text
       xml:space="preserve"
       style="font-style:normal;font-variant:normal;font-weight:normal;font-stretch:normal;line-height:0%;font-family:Lavi;-inkscape-font-specification:Lavi;text-align:center;letter-spacing:0px;word-spacing:0px;text-anchor:middle;fill:#000000;fill-opacity:1;stroke:none"
       x="2139.4609"
       y="2314.4968"
       id="text4246-7-6-4-6-4-5-6"
       inkscape:label="kingB"><tspan
         sodipodi:role="line"
         style="font-style:normal;font-variant:normal;font-weight:bold;font-stretch:normal;font-size:45px;line-height:1.25;font-family:Lavi;-inkscape-font-specification:'Lavi Bold'"
         x="2139.4609"
         y="2314.4968"
         id="tspan17245">Forbandede magiske</tspan><tspan
         sodipodi:role="line"
         style="font-style:normal;font-variant:normal;font-weight:bold;font-stretch:normal;font-size:45px;line-height:1.25;font-family:Lavi;-inkscape-font-specification:'Lavi Bold'"
         x="2139.4609"
         y="2370.7468"
         id="tspan18813">fængsel! Grrrr!</tspan></text>
    <text
       xml:space="preserve"
       style="font-style:normal;font-variant:normal;font-weight:normal;font-stretch:normal;line-height:0%;font-family:Lavi;-inkscape-font-specification:Lavi;letter-spacing:0px;word-spacing:0px;display:inline;fill:#ffffff;fill-opacity:1;stroke:#000000;stroke-width:0.649528;stroke-miterlimit:4;stroke-dasharray:none;stroke-opacity:1;filter:url(#filter4375-4-1-1-1-9-5-8-3-4)"
       x="787.65729"
       y="1584.5073"
       id="text4580-6-0-3"
       transform="matrix(0.56396936,0.29200899,-0.49083985,0.74440634,2281.3949,1535.2837)"
       inkscape:transform-center-x="-5.9254429"
       inkscape:transform-center-y="0.58615246"><tspan
         sodipodi:role="line"
         id="tspan4582-1-1-6"
         x="787.65729"
         y="1584.5073"
         style="font-style:normal;font-variant:normal;font-weight:normal;font-stretch:normal;font-size:70px;line-height:1.25;font-family:Combah;-inkscape-font-specification:Combah;fill:#ffffff;fill-opacity:1;stroke:#000000;stroke-width:0.649528;stroke-opacity:1"><tspan
           style="font-style:normal;font-variant:normal;font-weight:normal;font-stretch:normal;font-size:93.1495px;font-family:Combah;-inkscape-font-specification:Combah;fill:#ffffff;fill-opacity:1;stroke:#000000;stroke-width:0.649528;stroke-opacity:1"
           id="tspan4315-8-0">KLING</tspan><tspan
           style="font-style:normal;font-variant:normal;font-weight:normal;font-stretch:normal;font-size:114.732px;font-family:Combah;-inkscape-font-specification:Combah;fill:#ffffff;fill-opacity:1;stroke:#000000;stroke-width:0.649528;stroke-opacity:1"
           id="tspan4313-2-6">!</tspan></tspan></text>
  </g>
</svg>
