<?xml version="1.0" encoding="UTF-8" standalone="no"?>
<!-- Created with Inkscape (http://www.inkscape.org/) -->

<svg
   id="svg2"
   version="1.1"
   inkscape:version="1.1.1 (3bf5ae0d25, 2021-09-20)"
   width="2481"
   height="3503"
   sodipodi:docname="E36P03.svg"
   xmlns:inkscape="http://www.inkscape.org/namespaces/inkscape"
   xmlns:sodipodi="http://sodipodi.sourceforge.net/DTD/sodipodi-0.dtd"
   xmlns:xlink="http://www.w3.org/1999/xlink"
   xmlns="http://www.w3.org/2000/svg"
   xmlns:svg="http://www.w3.org/2000/svg"
   xmlns:rdf="http://www.w3.org/1999/02/22-rdf-syntax-ns#"
   xmlns:cc="http://creativecommons.org/ns#"
   xmlns:dc="http://purl.org/dc/elements/1.1/">
  <metadata
     id="metadata8">
    <rdf:RDF>
      <cc:Work
         rdf:about="">
        <dc:format>image/svg+xml</dc:format>
        <dc:type
           rdf:resource="http://purl.org/dc/dcmitype/StillImage" />
        <dc:title />
      </cc:Work>
    </rdf:RDF>
  </metadata>
  <defs
     id="defs6">
    <filter
       inkscape:collect="always"
       style="color-interpolation-filters:sRGB"
       id="filter51433"
       x="-0.024257822"
       y="-0.029242994"
       width="1.0485156"
       height="1.058486">
      <feGaussianBlur
         inkscape:collect="always"
         stdDeviation="2.6637087"
         id="feGaussianBlur51435" />
    </filter>
    <filter
       x="-0.036401986"
       width="1.0703807"
       height="1.2861297"
       inkscape:label="magic-Fx-blue"
       id="filter4375-4-1-1-1-9-5-8-8-3-3-3-6-6"
       style="color-interpolation-filters:sRGB"
       y="-0.099582237">
      <feFlood
         radius="5.0999999999999996"
         result="flood"
         flood-color="rgb(86,110,161)"
         flood-opacity="1"
         id="feFlood4377-7-9-0-8-1-7-3-1-6-61-6-2-1" />
      <feComposite
         baseFrequency="0.053999999999999999 0.053999999999999999"
         result="composite1"
         operator="in"
         in="flood"
         in2="SourceGraphic"
         id="feComposite4379-3-8-8-2-77-4-1-0-7-2-7-6-8" />
      <feMorphology
         result="result3"
         radius="0.96959439099754563"
         operator="dilate"
         id="feMorphology4393-1-0-49-8-9-3-0-1-5-9-5-1-7" />
      <feComposite
         numOctaves="4"
         result="fbSourceGraphic"
         operator="over"
         in="SourceGraphic"
         in2="result3"
         id="feComposite4385-9-5-7-0-8-8-7-5-3-3-3-8-9" />
      <feColorMatrix
         id="feColorMatrix4544-9-5-1-5-7-2"
         values="0 0 0 -1 0 0 0 0 -1 0 0 0 0 -1 0 0 0 0 1 0"
         in="fbSourceGraphic"
         result="fbSourceGraphicAlpha" />
      <feTurbulence
         result="turbulence"
         baseFrequency="0.062 0.054054054054054057"
         seed="172"
         numOctaves="4.4123222748815163"
         type="fractalNoise"
         id="feTurbulence4546-3-6-9-6-9-0" />
      <feDisplacementMap
         result="fbSourceGraphic"
         xChannelSelector="R"
         yChannelSelector="G"
         scale="11.642079"
         in="fbSourceGraphic"
         in2="turbulence"
         id="feDisplacementMap4548-8-2-4-2-2-2" />
      <feColorMatrix
         scale="10.800000000000001"
         id="feColorMatrix4670-7-9-7-9-0-3"
         values="0 0 0 -1 0 0 0 0 -1 0 0 0 0 -1 0 0 0 0 1 0"
         in="fbSourceGraphic"
         result="fbSourceGraphicAlpha" />
      <feComposite
         result="composite1"
         operator="in"
         in="flood"
         in2="fbSourceGraphic"
         id="feComposite4674-8-2-4-1-2-7" />
      <feGaussianBlur
         result="blur"
         stdDeviation="1.6836129"
         in="composite1"
         id="feGaussianBlur4676-3-7-50-2-3-5" />
      <feOffset
         result="offset"
         dy="5.2374444725016502"
         dx="-0.42771311737301687"
         id="feOffset4678-6-0-3-7-7-9" />
      <feComposite
         result="composite2"
         operator="over"
         in="fbSourceGraphic"
         in2="offset"
         id="feComposite4680-4-9-6-0-5-2" />
      <feGaussianBlur
         stdDeviation="0.60935760846819198"
         id="feGaussianBlur58-9-9-2" />
      <feOffset
         dx="0"
         dy="0"
         id="feOffset60-3-2-8" />
    </filter>
  </defs>
  <sodipodi:namedview
     pagecolor="#1e1e1e"
     bordercolor="#111111"
     borderopacity="1"
     objecttolerance="10"
     gridtolerance="10"
     guidetolerance="10"
     inkscape:pageopacity="0"
     inkscape:pageshadow="2"
     inkscape:window-width="1852"
     inkscape:window-height="1016"
     id="namedview4"
     showgrid="false"
     inkscape:zoom="0.526013"
     inkscape:cx="1343.1227"
     inkscape:cy="2755.6353"
     inkscape:window-x="0"
     inkscape:window-y="0"
     inkscape:window-maximized="1"
     inkscape:current-layer="layer4"
     inkscape:pagecheckerboard="0"
     inkscape:snap-global="false" />
  <g
     inkscape:groupmode="layer"
     id="layer2"
     inkscape:label="artwork"
     sodipodi:insensitive="true">
    <image
       xlink:href="../gfx_Pepper-and-Carrot_by-David-Revoy_E36P03.png"
       y="0"
       x="0"
       id="image10"
       height="3503"
       width="2481" />
  </g>
  <g
     inkscape:groupmode="layer"
     id="layer4"
     inkscape:label="speechbubble-whisper"
     style="display:inline;opacity:0.7;mix-blend-mode:screen;filter:url(#filter51433)">
    <path
       style="display:inline;fill:#cdf0ff;fill-opacity:1;stroke:none;stroke-width:0.468287"
       d="m 1744.583,213.10935 c -25.5959,1.12663 -52.1184,6.35083 -73.6139,21.27033 -18.2782,15.16306 -23.9797,40.29388 -25.2694,63.24087 -0.8902,21.03016 1.4282,42.30922 7.0419,62.56043 4.3354,13.5194 14.7676,24.16025 27.2861,30.06642 25.8986,13.26677 55.5447,16.104 84.13,16.02661 26.3517,-0.75458 53.5607,-3.24188 77.6066,-15.11664 15.6586,-7.55507 27.7388,-22.7372 30.1482,-40.41718 3.9354,-24.54533 2.3423,-49.63237 -0.9898,-74.13874 -3.4984,-19.71069 -14.1345,-39.30753 -32.2746,-48.4306 -23.0978,-12.58636 -50.0111,-13.13545 -75.5231,-14.75425 -6.1773,-0.24194 -12.3601,-0.34521 -18.542,-0.30725 z"
       id="path3280-5"
       inkscape:connector-curvature="0"
       sodipodi:nodetypes="csssc" />
    <path
       style="display:inline;opacity:1;fill:#cdf0ff;fill-opacity:1;stroke:none;stroke-width:0.536241;filter:url(#filter51433)"
       d="m 1708.9863,394.91211 c -28.6289,1.41051 -57.9874,7.77024 -82.0896,23.91063 -21.878,17.61185 -28.0694,47.08568 -29.3856,73.78778 -0.819,23.28018 1.9507,46.79415 8.4069,69.17298 5.0997,15.56893 17.5867,27.59295 32.3165,34.23134 33.0998,16.06632 70.8778,18.15667 107.0647,17.36983 28.0108,-1.4647 57.9867,-5.61777 80.2927,-24.16397 18.9047,-14.83119 30.8715,-37.4229 33.57,-61.21118 3.2126,-25.33324 2.6561,-52.184 -7.2872,-76.06123 -9.8072,-23.8171 -30.4068,-43.43965 -55.8409,-49.3229 -28.3333,-6.89167 -57.997,-7.5903 -87.0475,-7.71328 z"
       id="path3280-5-2"
       inkscape:connector-curvature="0"
       sodipodi:nodetypes="csssc"
       transform="matrix(1.1165924,0,0,0.92917234,-174.25777,0.36978685)" />
    <path
       style="color:#000000;display:inline;overflow:visible;visibility:visible;fill:#cdf0ff;fill-opacity:1;fill-rule:nonzero;stroke:none;stroke-width:1.0259px;marker:none;enable-background:accumulate"
       d="m 1719.3194,532.89168 c 36.6025,26.98252 13.0291,94.40607 -44.5247,110.04187 25.0213,-8.11557 100.3251,-9.20388 96.6789,-117.06904 -1.8701,-55.32427 -32.7694,7.35791 -32.7694,7.35791 z"
       id="path4035-4"
       inkscape:connector-curvature="0"
       sodipodi:nodetypes="ccscc" />
    <path
       style="color:#000000;display:inline;overflow:visible;visibility:visible;fill:#cdf0ff;fill-opacity:1;fill-rule:nonzero;stroke:none;stroke-width:0.777971px;marker:none;enable-background:accumulate"
       d="m 215.64625,2234.3499 c 40.04673,-35.192 262.11434,-29.8096 331.18643,-20.7454 75.37971,9.8917 98.588,23.9076 101.95869,54.6269 1.04118,9.4884 -5.05608,52.5162 -42.13473,60.9868 -37.07859,8.4701 -143.25804,12.7054 -180.33668,12.7054 -37.07854,0 -155.44149,-5.391 -185.39313,-17.788 -28.65157,-11.8581 -65.32741,-54.5943 -25.28058,-89.7857 z"
       id="path3330-0"
       inkscape:connector-curvature="0"
       sodipodi:nodetypes="zsssssz" />
    <path
       style="color:#000000;display:inline;overflow:visible;visibility:visible;fill:#cdf0ff;fill-opacity:1;fill-rule:nonzero;stroke:none;stroke-width:0.94851px;marker:none;enable-background:accumulate"
       d="m 499.08724,2385.4022 c -2.07231,-13.2121 20.6491,-68.8282 147.06259,-60.0198 126.41349,8.8083 139.61711,19.8978 145.38518,67.3196 2.13184,17.5255 -17.54046,43.06 -36.19166,47.4636 -18.65119,4.4046 -73.18387,16.8373 -104.26908,13.3138 -31.08529,-3.5236 -76.97155,-2.6871 -122.70741,-21.1612 -27.60401,-11.1504 -27.20723,-43.3926 -29.27962,-46.916 z"
       id="path3365-74"
       inkscape:connector-curvature="0"
       sodipodi:nodetypes="csssssc" />
    <path
       style="color:#000000;display:inline;overflow:visible;visibility:visible;fill:#cdf0ff;fill-opacity:1;fill-rule:nonzero;stroke:none;stroke-width:0.927247px;marker:none;enable-background:accumulate"
       d="m 837.35011,2448.6182 c -1.14523,-72.9402 48.99348,-117.369 186.58069,-105.2954 71.3713,6.2631 158.2042,13.4593 146.414,122.9687 -10.3912,96.5183 -126.9659,82.2268 -150.5412,83.3657 -23.5757,1.1391 -145.67627,-4.35 -166.05317,-38.3958 -12.75538,-21.3125 -17.4253,-42.1417 -16.40032,-62.6432 z"
       id="path4546-6-5-3"
       inkscape:connector-curvature="0"
       sodipodi:nodetypes="cssssc" />
    <path
       style="fill:#cdf0ff;fill-opacity:1;fill-rule:evenodd;stroke:none;stroke-width:0.992195px;stroke-linecap:butt;stroke-linejoin:miter;stroke-opacity:1"
       d="m 502.9297,2296.4413 c 77.73786,71.3301 343.81979,137.4338 468.03666,123.7816 56.20704,1.4325 107.09184,112.3825 -77.57388,181.9225 103.18653,-73.9231 107.10902,-112.2062 84.55661,-152.9846 -231.13158,-14.8725 -410.95516,-78.9759 -490.52973,-138.3793 -1.44988,-34.5447 15.51034,-14.3402 15.51034,-14.3402 z"
       id="path66187" />
    <path
       style="color:#000000;display:inline;overflow:visible;visibility:visible;fill:#cdf0ff;fill-opacity:1;fill-rule:nonzero;stroke:none;stroke-width:0.863748px;marker:none;enable-background:accumulate"
       d="m 1460.1997,3074.7623 c -0.9883,-25.7873 4.0515,-42.8878 26.685,-56.5883 20.6047,-12.4718 65.9767,-15.9189 96.2518,-15.9189 48.9354,-0.1761 174.5497,-4.8173 159.7271,75.7445 -0.5854,38.2111 -73.5808,39.8773 -88.4059,42.9714 -14.825,3.0942 -74.0901,3.777 -87.9268,2.7457 -50.8675,1.8751 -104.5644,-17.5274 -106.3312,-48.9544 z"
       id="path3357-3"
       inkscape:connector-curvature="0"
       sodipodi:nodetypes="csccscc" />
    <path
       style="fill:#cdf0ff;fill-opacity:1;stroke:none;stroke-width:0.742591"
       d="m 1793.5726,3174.4599 c -12.6309,0.9948 -21.7509,-0.1689 -30.6236,-4.0923 -5.2932,-2.3406 -7.6656,-9.8926 -9.5288,-15.0858 -2.9414,-8.0739 -4.6252,-17.2277 -11.1432,-23.3655 -5.5035,-4.7753 -12.7976,-6.8331 -19.8235,-8.1246 -4.9899,-0.7939 -10.0745,-0.9258 -15.1082,-0.5301 -12.5231,-2.2362 -12.1613,-15.2606 -16.0589,-20.888 -3.2358,-4.3315 -6.0568,-1.4455 -9.6096,-5.5051 -6.9289,-7.2641 -9.6595,-1.2352 -14.3778,5.5886 -4.8023,6.9455 -3.5286,10.258 5.0592,26.7368 5.5996,11.3289 18.3851,19.618 31.2363,17.5947 3.9927,-0.6908 7.5859,-2.9978 11.7217,-3.0257 6.5594,-0.6097 13.6771,2.3908 16.7872,8.4135 4.512,6.5347 6.7951,14.4886 12.1799,20.426 2.8451,3.1564 6.8355,4.9172 10.9372,5.738 12.7279,3.2922 26.4259,1.3706 38.3521,-3.8805 z"
       id="path3023"
       inkscape:connector-curvature="0"
       sodipodi:nodetypes="csssscsssssscccc" />
  </g>
  <g
     inkscape:groupmode="layer"
     id="layer3"
     inkscape:label="speechbubbles"
     style="display:inline;mix-blend-mode:normal">
    <path
       sodipodi:nodetypes="ccccccccccccccccccccccccccc"
       id="path1399"
       d="m 630.3646,222.12644 c 54.53132,19.0344 37.81622,-6.42728 38.76353,-24.62401 20.36665,22.64241 46.61598,43.53726 46.98637,-0.92335 18.22885,31.83058 27.27067,51.07038 50.09385,7.50341 9.93635,25.89023 15.95832,33.37173 77.23338,-22.94778 -5.47623,21.47155 -22.79916,63.04783 60.33784,14.60638 -5.54916,7.13686 -51.96387,53.93632 49.36783,-5.0292 -33.15845,26.57849 -73.54172,69.07223 7.79413,35.79871 -38.65336,31.15912 -51.57461,55.31029 21.74137,55.97502 -29.1682,20.21592 -57.56073,40.30305 3.47578,45.54192 -28.2656,1.33453 -54.14379,7.78365 -6.01942,27.15355 -43.51183,-10.59793 -58.11013,2.51515 -18.38624,27.03627 -56.4309,-4.64221 -68.79371,-13.61253 -22.84926,26.21697 -42.04454,-19.65376 -60.24944,-19.88228 -53.2386,4.10315 -47.32767,-42.69619 -37.38549,-1.50523 -30.17934,10.10314 -48.6301,-50.30746 -51.81457,-10.42564 -57.11645,0.1586 -27.14843,-41.71246 -84.60786,-47.93415 -99.08345,-0.0189 -8.23922,-25.68723 -34.91647,-35.96021 -72.90792,-2.50524 11.6847,-29.61725 -8.52779,-41.88024 -49.29754,-27.56183 30.25485,-25.60012 3.2963,-31.14213 -37.21863,-18.91917 27.47715,-23.11546 26.55446,-32.5562 0.40478,-35.30291 44.18684,-20.44886 13.61383,-33.33226 -32.7147,-44.62132 32.84789,-5.28422 75.16624,-8.46374 21.08701,-33.06631 43.18238,4.62995 64.98437,2.85446 23.41643,-17.90635 28.60541,7.82485 58.82259,4.89906 33.72742,-20.69802 53.04542,22.00499 50.90793,7.28198 44.58183,-0.0725 z"
       style="display:inline;fill:#ffffff;fill-rule:evenodd;stroke:none;stroke-width:0.806577px;stroke-linecap:butt;stroke-linejoin:miter;stroke-opacity:1" />
    <path
       style="color:#000000;display:inline;overflow:visible;visibility:visible;fill:#ffffff;fill-opacity:1;fill-rule:nonzero;stroke:none;stroke-width:0.617876px;marker:none;enable-background:accumulate"
       d="m 846.24295,369.92151 c 7.72209,41.35398 49.55771,207.43487 191.58005,156.97532 C 870.99201,610.00659 809.89776,366.2342 800.59804,338.37279 c -11.65313,-16.49189 45.64491,31.54872 45.64491,31.54872 z"
       id="path4008-4"
       inkscape:connector-curvature="0"
       sodipodi:nodetypes="cccc" />
    <path
       style="display:inline;fill:#ffffff;fill-rule:evenodd;stroke:none;stroke-width:0.827042px;stroke-linecap:butt;stroke-linejoin:miter;stroke-opacity:1"
       d="m 1063.7483,1284.7936 c 46.3818,22.0255 72.8015,13.0685 72.0053,-38.1297 22.1285,55.3264 37.4846,67.7003 46.5918,40.4407 29.2966,23.4304 47.5948,16.8577 62.1223,0 5.4148,21.6804 19.077,17.8192 27.0764,11.8545 -1.8688,6.5168 -1.2898,15.1306 37.8695,0.8554 -1.3678,6.2852 6.9826,12.0832 33.8849,-2.311 6.9695,26.3522 29.331,-1.4609 52.2393,-31.1968 -14.2725,36.5578 -8.3543,41.7218 9.8832,27.7307 -8.3381,15.0549 -13.3251,26.7093 18.3541,1.1551 -10.8453,27.7882 17.6074,8.7147 63.5342,-31.1968 -22.9732,29.5027 -83.8932,79.2257 -43.7679,75.1036 -5.5958,8.6972 -25.5554,16.2749 33.8848,30.041 -11.8862,0.4555 -55.5105,3.1683 -12.1505,21.7043 -22.9524,-0.4945 -13.4531,5.2669 10.7387,12.9593 -14.2806,-0.5239 -23.0386,1.3461 -9.8831,12.7092 -26.0675,-0.6138 -30.9917,3.0112 -11.8538,18.251 -32.5282,-12.6946 -41.3793,-15.0016 -27.9265,9.5156 -47.311,-26.6527 -58.6527,-29.9121 -36.5859,0.3 -62.5329,-29.153 -64.3503,-21.971 -87.4108,7.7521 -6.0393,-18.4869 -18.1473,-32.7173 -69.1817,-19.642 12.5524,-18.5214 -18.1253,-7.1366 -39.7742,5.529 14.7955,-16.4652 -15.6407,-13.6029 -57.6448,14.113 24.0648,-32.4448 -3.2671,-20.7246 -43.768,2.311 15.3025,-31.874 -9.6191,-47.2883 -69.1816,-48.5287 28.5085,-11.4966 45.133,-25.9656 15.5307,-51.9939 33.3703,7.6636 43.3241,0.545 19.7661,-27.7308 36.3981,23.2085 19.8493,-10.4541 5.6475,-41.5958 z"
       id="path4508-2"
       inkscape:connector-curvature="0"
       sodipodi:nodetypes="cccccccccccccccccccccccccccc" />
    <path
       style="color:#000000;display:inline;overflow:visible;visibility:visible;fill:#ffffff;fill-opacity:1;fill-rule:nonzero;stroke:none;stroke-width:0.926668px;marker:none;enable-background:accumulate"
       d="m 1582.5376,1548.8096 c -26.9474,-31.2708 -59.9834,-60.3698 -79.8554,-94.1658 l -3.285,30.7651 c -15.0498,-9.9953 -21.7942,-24.8956 -31.3589,-38.1306 l -6.317,18.293 c -32.9632,-27.3415 -57.8887,-59.7803 -86.4652,-88.7225 l -7.9573,35.8506 c 38.968,18.6225 72.2495,52.1917 98.1736,81.2762 l 8.7127,-17.1146 c 10.6542,9.2624 20.8921,18.8192 29.2707,29.6888 l 8.2295,-22.5142 z"
       id="path4032-1"
       inkscape:connector-curvature="0"
       sodipodi:nodetypes="cccccccccccc" />
  </g>
  <g
     inkscape:groupmode="layer"
     id="layer1"
     inkscape:label="txt"
     style="display:inline">
    <text
       id="text4246-4-2-7"
       y="304.33481"
       x="759.98145"
       style="font-style:normal;font-variant:normal;font-weight:normal;font-stretch:normal;line-height:0%;font-family:Lavi;-inkscape-font-specification:Lavi;text-align:center;letter-spacing:0px;word-spacing:0px;text-anchor:middle;fill:#000000;fill-opacity:1;stroke:none"
       xml:space="preserve"
       inkscape:label="pepperB"><tspan
         y="304.33481"
         x="759.98145"
         style="font-size:45px;line-height:1.25"
         sodipodi:role="line"
         id="tspan3279"><tspan
           style="font-style:normal;font-variant:normal;font-weight:bold;font-stretch:normal;font-family:Lavi;-inkscape-font-specification:'Lavi Bold'"
           id="tspan9043"><tspan
             style="font-weight:normal"
             id="tspan5392">Hvor har jeg dog</tspan></tspan></tspan><tspan
         y="360.58481"
         x="759.98145"
         style="font-size:45px;line-height:1.25"
         sodipodi:role="line"
         id="tspan7450"><tspan
   style="font-style:normal;font-variant:normal;font-weight:bold;font-stretch:normal;font-family:Lavi;-inkscape-font-specification:'Lavi Bold'"
   id="tspan7452"><tspan
   style="font-weight:normal"
   id="tspan7454">været</tspan> naiv</tspan>!</tspan></text>
    <text
       id="text4246-4-2-7-3"
       y="278.21411"
       x="1757.8831"
       style="font-style:normal;font-variant:normal;font-weight:normal;font-stretch:normal;line-height:0%;font-family:Lavi;-inkscape-font-specification:Lavi;text-align:center;letter-spacing:0px;word-spacing:0px;text-anchor:middle;fill:#000000;fill-opacity:1;stroke:none"
       xml:space="preserve"
       inkscape:label="pepperB"><tspan
         y="278.21411"
         x="1757.8831"
         style="font-size:45px;line-height:1.25"
         sodipodi:role="line"
         id="tspan3279-7">Shhhhh</tspan><tspan
         y="334.46411"
         x="1757.8831"
         style="font-size:45px;line-height:1.25"
         sodipodi:role="line"
         id="tspan15762">Pepper!</tspan></text>
    <text
       id="text4246-4-2-7-3-36"
       y="456.38867"
       x="1753.9813"
       style="font-style:normal;font-variant:normal;font-weight:normal;font-stretch:normal;line-height:0%;font-family:Lavi;-inkscape-font-specification:Lavi;text-align:center;letter-spacing:0px;word-spacing:0px;text-anchor:middle;display:inline;fill:#000000;fill-opacity:1;stroke:none"
       xml:space="preserve"
       inkscape:label="pepperB"><tspan
         y="456.38867"
         x="1753.9813"
         style="font-size:45px;line-height:1.25"
         sodipodi:role="line"
         id="tspan15762-5">Ikke så</tspan><tspan
         y="512.63867"
         x="1753.9813"
         style="font-size:45px;line-height:1.25"
         sodipodi:role="line"
         id="tspan17542">meget larm.</tspan></text>
    <text
       id="text4246-4-2-7-3-3"
       y="1385.4877"
       x="1248.106"
       style="font-style:normal;font-variant:normal;font-weight:normal;font-stretch:normal;font-size:55px;line-height:0%;font-family:Lavi;-inkscape-font-specification:Lavi;text-align:center;letter-spacing:0px;word-spacing:0px;text-anchor:middle;fill:#000000;fill-opacity:1;stroke:none;stroke-width:1.26378"
       xml:space="preserve"
       inkscape:label="pepperB"><tspan
         y="1385.4877"
         x="1248.106"
         style="font-style:normal;font-variant:normal;font-weight:bold;font-stretch:normal;font-size:55px;line-height:1.25;font-family:Lavi;-inkscape-font-specification:'Lavi Bold';stroke-width:1.26378"
         sodipodi:role="line"
         id="tspan15762-9">Hvem dér?!</tspan></text>
    <text
       id="text4246-4-2-7-3-1"
       y="2290.6145"
       x="424.10129"
       style="font-style:normal;font-variant:normal;font-weight:normal;font-stretch:normal;line-height:0%;font-family:Lavi;-inkscape-font-specification:Lavi;text-align:center;letter-spacing:0px;word-spacing:0px;text-anchor:middle;fill:#000000;fill-opacity:1;stroke:none"
       xml:space="preserve"
       inkscape:label="pepperB"><tspan
         y="2290.6145"
         x="424.10129"
         style="font-size:45px;line-height:1.25"
         sodipodi:role="line"
         id="tspan15762-93">Shhhhh, sagde jeg!</tspan></text>
    <text
       id="text4246-4-2-7-3-1-6"
       y="2402.084"
       x="656.43939"
       style="font-style:normal;font-variant:normal;font-weight:normal;font-stretch:normal;line-height:0%;font-family:Lavi;-inkscape-font-specification:Lavi;text-align:center;letter-spacing:0px;word-spacing:0px;text-anchor:middle;fill:#000000;fill-opacity:1;stroke:none"
       xml:space="preserve"
       inkscape:label="pepperB"><tspan
         y="2402.084"
         x="656.43939"
         style="font-size:45px;line-height:1.25"
         sodipodi:role="line"
         id="tspan15762-93-0">Kom herhen.</tspan></text>
    <text
       id="text4246-4-2-7-3-1-6-6"
       y="2399.4963"
       x="1012.736"
       style="font-style:normal;font-variant:normal;font-weight:normal;font-stretch:normal;line-height:0%;font-family:Lavi;-inkscape-font-specification:Lavi;text-align:center;letter-spacing:0px;word-spacing:0px;text-anchor:middle;fill:#000000;fill-opacity:1;stroke:none"
       xml:space="preserve"
       inkscape:label="pepperB"><tspan
         y="2399.4963"
         x="1012.736"
         style="font-size:45px;line-height:1.25"
         sodipodi:role="line"
         id="tspan62504">Jeg er</tspan><tspan
         y="2455.7463"
         x="1012.736"
         style="font-size:45px;line-height:1.25"
         sodipodi:role="line"
         id="tspan42680">kommet for at</tspan><tspan
         y="2511.9963"
         x="1012.736"
         style="font-size:45px;line-height:1.25"
         sodipodi:role="line"
         id="tspan43722">hjælpe dig fri.</tspan></text>
    <text
       transform="matrix(1.1333577,-0.39613562,0.12835025,1.2373956,849.39304,747.66885)"
       id="text4580-6-0-0-3-3-63"
       y="1584.5073"
       x="787.65729"
       style="font-style:normal;font-variant:normal;font-weight:normal;font-stretch:normal;line-height:0%;font-family:Lavi;-inkscape-font-specification:Lavi;letter-spacing:3.03024px;word-spacing:0px;opacity:1;mix-blend-mode:normal;fill:#e5fffe;fill-opacity:1;stroke:#4082aa;stroke-width:0.988344;stroke-miterlimit:4;stroke-dasharray:none;stroke-opacity:1;filter:url(#filter4375-4-1-1-1-9-5-8-8-3-3-3-6-6)"
       xml:space="preserve"
       inkscape:label="FXC"><tspan
         style="font-style:normal;font-variant:normal;font-weight:bold;font-stretch:normal;font-size:70px;line-height:1.25;font-family:Drukah;-inkscape-font-specification:'Drukah Bold';fill:#e5fffe;fill-opacity:1;stroke:#4082aa;stroke-width:0.988344;stroke-miterlimit:4;stroke-dasharray:none;stroke-opacity:1"
         y="1584.5073"
         x="787.65729"
         id="tspan4582-1-1-0-6-9-9"
         sodipodi:role="line">Dzii...</tspan></text>
    <text
       xml:space="preserve"
       style="font-style:normal;font-variant:normal;font-weight:normal;font-stretch:normal;line-height:0%;font-family:Lavi;-inkscape-font-specification:Lavi;text-align:center;letter-spacing:0px;word-spacing:0px;text-anchor:middle;fill:#000000;fill-opacity:1;stroke:none"
       x="1601.6835"
       y="3077.9524"
       id="text4246-70-2-2-2"><tspan
         sodipodi:role="line"
         style="font-size:45px;line-height:1.25"
         x="1601.6835"
         y="3077.9524"
         id="tspan4406-9">Shichimi?</tspan></text>
  </g>
</svg>
