<?xml version="1.0" encoding="UTF-8" standalone="no"?>
<!-- Created with Inkscape (http://www.inkscape.org/) -->

<svg
   id="svg2"
   version="1.1"
   inkscape:version="1.1.1 (3bf5ae0d25, 2021-09-20)"
   width="2481"
   height="3503"
   sodipodi:docname="E36P04.svg"
   xmlns:inkscape="http://www.inkscape.org/namespaces/inkscape"
   xmlns:sodipodi="http://sodipodi.sourceforge.net/DTD/sodipodi-0.dtd"
   xmlns:xlink="http://www.w3.org/1999/xlink"
   xmlns="http://www.w3.org/2000/svg"
   xmlns:svg="http://www.w3.org/2000/svg"
   xmlns:rdf="http://www.w3.org/1999/02/22-rdf-syntax-ns#"
   xmlns:cc="http://creativecommons.org/ns#"
   xmlns:dc="http://purl.org/dc/elements/1.1/">
  <metadata
     id="metadata8">
    <rdf:RDF>
      <cc:Work
         rdf:about="">
        <dc:format>image/svg+xml</dc:format>
        <dc:type
           rdf:resource="http://purl.org/dc/dcmitype/StillImage" />
        <dc:title />
      </cc:Work>
    </rdf:RDF>
  </metadata>
  <defs
     id="defs6">
    <filter
       inkscape:collect="always"
       style="color-interpolation-filters:sRGB"
       id="filter827"
       x="-0.0066802343"
       y="-0.0039047552"
       width="1.0133605"
       height="1.0078095">
      <feGaussianBlur
         inkscape:collect="always"
         stdDeviation="5.1724067"
         id="feGaussianBlur829" />
    </filter>
    <filter
       style="color-interpolation-filters:sRGB"
       id="filter5561-1"
       inkscape:label="deevad outline effect"
       x="-0.0040729675"
       y="-0.015367663"
       width="1.0081459"
       height="1.0307353">
      <feFlood
         id="feFlood5563-9"
         flood-opacity="1"
         flood-color="rgb(0,0,0)"
         result="flood" />
      <feComposite
         id="feComposite5565-0"
         in2="SourceGraphic"
         in="flood"
         operator="in"
         result="composite1" />
      <feMorphology
         id="feMorphology5567-7"
         operator="dilate"
         radius="1.8999999999999999 6.0999999999999996"
         result="result3" />
      <feComposite
         id="feComposite5569-2"
         in2="result3"
         in="SourceGraphic"
         operator="over"
         result="composite2" />
    </filter>
  </defs>
  <sodipodi:namedview
     pagecolor="#1e1e1e"
     bordercolor="#111111"
     borderopacity="1"
     objecttolerance="10"
     gridtolerance="10"
     guidetolerance="10"
     inkscape:pageopacity="0"
     inkscape:pageshadow="2"
     inkscape:window-width="1852"
     inkscape:window-height="1016"
     id="namedview4"
     showgrid="false"
     inkscape:zoom="0.46000002"
     inkscape:cx="1422.826"
     inkscape:cy="2755.4347"
     inkscape:window-x="0"
     inkscape:window-y="0"
     inkscape:window-maximized="1"
     inkscape:current-layer="layer4"
     inkscape:pagecheckerboard="0"
     inkscape:snap-global="false" />
  <g
     inkscape:groupmode="layer"
     id="layer2"
     inkscape:label="artwork"
     sodipodi:insensitive="true">
    <image
       xlink:href="../gfx_Pepper-and-Carrot_by-David-Revoy_E36P04.png"
       y="0"
       x="0"
       id="image10"
       height="3503"
       width="2481" />
  </g>
  <g
     inkscape:groupmode="layer"
     id="layer4"
     inkscape:label="speechbubbles-whisper"
     style="display:inline;opacity:0.7;mix-blend-mode:screen;filter:url(#filter827)">
    <path
       style="fill:#cdf0ff;stroke:none;stroke-width:0.621054;fill-opacity:1"
       d="m 134.0738,247.09704 c 6.74235,-68.81109 70.48818,-147.794543 220.04571,-136.42536 149.55753,11.36857 206.56101,60.43373 202.27043,154.37602 -4.29059,93.94223 -85.19876,130.44205 -210.8516,125.05683 C 219.88551,384.71933 126.71852,346.42442 134.0738,247.09704 Z"
       id="path3274"
       inkscape:connector-curvature="0" />
    <path
       style="color:#000000;display:inline;overflow:visible;visibility:visible;fill:#cdf0ff;fill-opacity:1;fill-rule:nonzero;stroke:none;stroke-width:1.2829px;marker:none;enable-background:accumulate"
       d="m 242.60168,349.60676 c -56.00074,50.85065 -65.64194,103.14191 -28.27365,140.37761 -72.25173,-48.27906 -39.24342,-137.06385 -13.64787,-157.65108 25.06142,-20.15755 41.92152,17.27347 41.92152,17.27347 z"
       id="path5010-4"
       inkscape:connector-curvature="0"
       sodipodi:nodetypes="ccsc" />
    <path
       style="fill:#cdf0ff;stroke:none;stroke-width:0.87571;fill-opacity:1"
       d="m 123.9912,1045.3126 c -0.5816,-57.69455 12.13659,-107.02719 146.25945,-107.07259 140.85516,-0.0473 168.96982,30.75687 175.35052,108.59059 9.00438,109.8391 -70.70911,104.727 -153.90397,105.006 -116.53812,0.3897 -160.25369,0.4823 -167.706,-106.524 z"
       id="path3280-10"
       inkscape:connector-curvature="0"
       sodipodi:nodetypes="csssc" />
    <path
       style="opacity:1;fill:#cdf0ff;fill-opacity:1;stroke:none;stroke-width:0.714726"
       d="m 435.14305,1139.5355 c -0.49314,-45.3262 10.29062,-84.083 124.01344,-84.1187 119.43114,-0.037 143.26956,24.1633 148.67976,85.3112 7.63482,86.2921 -59.95428,82.2759 -130.49523,82.4951 -98.8127,0.3061 -135.87915,0.3789 -142.19797,-83.6876 z"
       id="path3280-10-9"
       inkscape:connector-curvature="0"
       sodipodi:nodetypes="csssc" />
    <path
       style="fill:#cdf0ff;stroke:none;stroke-width:0.9001;fill-opacity:1"
       d="m 414.45801,1041.2033 c 1.8259,-28.5636 11.25884,-52.98674 91.14989,-53.00954 83.90114,-0.027 99.48767,15.22754 100.35756,53.76114 1.22784,54.3791 -46.06047,51.8485 -95.62547,51.9869 -69.4297,0.1929 -95.47205,0.2384 -95.88198,-52.7385 z"
       id="path3280-1"
       inkscape:connector-curvature="0"
       sodipodi:nodetypes="csssc" />
    <path
       inkscape:connector-curvature="0"
       id="path1082-6"
       d="m 298.8264,1007.8278 c -1.05852,1.1484 -2.23987,0.5097 -1.98486,-0.6816 0.46134,-10.29186 -2.14669,-20.41664 -9.6319,-26.29325 -10.13751,-7.29069 -22.77075,-12.21022 -29.84045,-22.59504 -5.75745,-8.74427 -5.01971,-21.18698 -1.49413,-32.91007 4.31252,-14.84587 13.38648,-30.0739 26.78068,-41.34485 6.19451,-5.09695 13.0206,-9.28731 19.6858,-13.63981 1.70647,-1.09332 3.42181,-2.16912 5.1321,-3.25498 -15.98365,14.17836 -28.18362,32.92468 -31.66564,51.29818 -0.83521,11.52515 5.1122,20.58777 12.46283,27.38858 8.74595,8.67863 19.87856,15.63077 24.72663,27.4867 2.05504,6.07335 3.77199,13.18731 -0.0119,20.5838 -3.32768,5.64168 -9.09749,9.69894 -14.15911,13.96234 z"
       style="display:inline;fill:#cdf0ff;fill-rule:evenodd;stroke:none;stroke-width:0.863514px;stroke-linecap:butt;stroke-linejoin:miter;stroke-opacity:1;fill-opacity:1" />
    <path
       style="fill:#cdf0ff;stroke:none;stroke-width:1.20172;fill-opacity:1"
       d="m 1596.399,240.23054 c -1.6504,-34.4871 27.9413,-120.82185 172.2881,-114.32836 144.347,6.49349 189.5252,44.42853 193.7553,105.72908 6.6915,96.97681 -69.2492,122.89292 -178.2933,130.07548 -112.4126,7.40497 -189.4947,-59.16262 -187.7501,-121.4762 z"
       id="path3280-8-90"
       inkscape:connector-curvature="0"
       sodipodi:nodetypes="csssc" />
    <path
       style="color:#000000;display:inline;overflow:visible;visibility:visible;fill:#cdf0ff;fill-opacity:1;fill-rule:nonzero;stroke:none;stroke-width:1.45931px;marker:none;enable-background:accumulate"
       d="m 1908.1685,471.54009 c -46.1767,7.90205 -92.9576,-47.05578 -88.8324,-112.54776 3.657,-73.69663 3.0894,-80.88495 3.0894,-80.88495 l -54.9358,5.52485 c 0,0 25.8928,219.92306 140.6788,187.90786 z"
       id="path3072-5"
       inkscape:connector-curvature="0"
       inkscape:transform-center-x="-4.9958775"
       inkscape:transform-center-y="26.227202"
       sodipodi:nodetypes="ccccc" />
    <path
       style="color:#000000;display:inline;overflow:visible;visibility:visible;fill:#cdf0ff;fill-opacity:1;fill-rule:nonzero;stroke:none;stroke-width:1.22256px;marker:none;enable-background:accumulate"
       d="m 1618.1099,1155.6744 c 0.9145,-55.4749 18.7278,-107.9364 176.6399,-106.1209 118.4032,1.3605 149.9346,44.1029 152.5579,100.1767 1.8488,39.5168 -62.2081,76.0945 -163.9369,74.1563 -97.2331,-1.8521 -158.1501,-25.906 -165.2609,-68.2121 z"
       id="path5026-3"
       inkscape:connector-curvature="0"
       sodipodi:nodetypes="csssc" />
    <path
       style="fill:#cdf0ff;fill-rule:evenodd;stroke:none;stroke-width:1.78217px;stroke-linecap:butt;stroke-linejoin:miter;stroke-opacity:1;fill-opacity:1"
       d="m 1876.9024,1072.4564 c 28.2335,-6.4279 93.4241,-58.729 105.0673,-115.8066 2.8219,25.56546 -15.0538,86.6026 -55.5282,133.1516 -63.168,72.6485 -68.303,-6.7555 -68.303,-6.7555 z"
       id="path4248"
       inkscape:connector-curvature="0"
       sodipodi:nodetypes="ccscc" />
    <path
       style="fill:#cdf0ff;fill-rule:evenodd;stroke:none;stroke-width:1.22277px;stroke-linecap:butt;stroke-linejoin:miter;stroke-opacity:1;fill-opacity:1"
       d="m 1099.1618,1799.6189 c 55.0256,-83.383 172.3793,-75.3048 263.4952,-78.5144 133.1051,-3.9315 261.657,-25.7446 380.1586,34.0416 37.278,18.8074 49.5467,172.9067 -40.0173,178.8734 -118.7218,15.7986 -239.5241,16.6831 -359.3327,15.71 -71.1739,-4.8814 -149.8532,-8.1169 -210.2451,-46.3633 -29.0631,-26.2994 -42.7255,-66.785 -34.0587,-103.7473 z"
       id="path4246"
       inkscape:connector-curvature="0"
       sodipodi:nodetypes="sssssss" />
    <path
       style="fill:#cdf0ff;fill-opacity:1;stroke:none;stroke-width:0.879609"
       d="m 1458.6277,1974.6292 c -35.2607,0.4737 -71.1789,3.1218 -104.3342,14.3164 -19.8461,6.9418 -38.1285,19.3056 -47.129,36.5655 -11.8785,22.0433 -12.3448,47.6966 -5.4433,70.9984 5.7023,19.0703 19.1117,36.5636 38.1574,47.4102 22.9216,13.8411 50.9552,20.0026 78.588,20.6971 29.4465,1.1876 58.9262,0.074 88.3876,0.359 29.5101,-0.077 59.5446,-0.3718 88.1157,-7.5575 25.1837,-6.917 46.7742,-23.7168 56.4838,-45.2183 7.3674,-15.4866 8.9327,-32.565 7.5969,-49.1497 -1.057,-16.1785 -3.9567,-32.9342 -13.8613,-46.968 -7.5935,-10.7623 -19.1971,-19.1132 -32.3743,-24.2686 -24.2336,-9.9934 -51.222,-12.884 -77.6102,-15.1882 -25.4528,-2.0177 -51.0398,-2.1263 -76.5771,-1.9963 z"
       id="path3280-10-5"
       inkscape:connector-curvature="0"
       sodipodi:nodetypes="csssc" />
    <path
       style="fill:#cdf0ff;fill-rule:evenodd;stroke:none;stroke-width:0.982814px;stroke-linecap:butt;stroke-linejoin:miter;stroke-opacity:1;fill-opacity:1"
       d="m 1452.8701,2063.1977 c 20.0222,-118.9472 -38.8836,-176.8263 -112.6674,-203.8912 -73.7839,-27.0648 -408.44801,-122.5007 -586.75006,31.3 164.14364,-172.6923 505.87416,-84.1291 578.34696,-59.2455 72.4727,24.8835 165.149,62.928 159.016,232.4228 -6.133,169.4949 -37.9455,-0.5861 -37.9455,-0.5861 z"
       id="path98507" />
    <path
       style="color:#000000;display:inline;overflow:visible;visibility:visible;fill:#cdf0ff;fill-opacity:1;fill-rule:nonzero;stroke:none;stroke-width:0.663215px;marker:none;enable-background:accumulate"
       d="m 147.68785,2845.2025 c 27.81604,-36.8211 182.06185,-31.1896 230.03858,-21.7058 52.35791,10.3497 68.47815,25.0144 70.8194,57.1557 0.72321,9.9277 -3.5119,54.9473 -29.26635,63.8101 -25.75436,8.8622 -99.50546,13.2936 -125.2599,13.2936 -25.75436,0 -107.96801,-5.6406 -128.7721,-18.6115 -19.90108,-12.407 -45.37573,-57.1216 -17.55963,-93.9421 z"
       id="path3330-0"
       inkscape:connector-curvature="0"
       sodipodi:nodetypes="zsssssz" />
    <path
       style="color:#000000;display:inline;overflow:visible;visibility:visible;fill:#cdf0ff;fill-opacity:1;fill-rule:nonzero;stroke:none;stroke-width:1.61181px;marker:none;enable-background:accumulate"
       d="m 356.36373,3051.0497 c -2.07152,-121.8454 88.61964,-196.0628 337.488,-175.8942 129.097,10.4623 286.16041,22.4835 264.83448,205.4171 -18.79577,161.2318 -229.65643,137.3583 -272.29966,139.2609 -42.64387,1.9025 -263.50003,-7.2665 -300.35787,-64.1395 -23.07198,-35.6022 -31.51893,-70.3971 -29.66495,-104.6443 z"
       id="path4546-6-5-3"
       inkscape:connector-curvature="0"
       sodipodi:nodetypes="cssssc" />
    <path
       style="color:#000000;display:inline;overflow:visible;visibility:visible;fill:#cdf0ff;fill-opacity:1;fill-rule:nonzero;stroke:none;stroke-width:1.06272px;marker:none;enable-background:accumulate"
       d="m 1147.2485,3072.9465 c -34.6687,0.4206 -69.7046,0.5141 -103.7214,6.5188 -29.2912,5.1101 -57.44846,15.1587 -80.60004,30.4503 -14.16836,9.3 -26.7433,20.4277 -34.93043,33.605 -9.45566,14.8923 -14.14724,32.0264 -11.22525,48.6561 3.09818,14.1237 13.79482,26.096 24.20504,37.4214 11.45513,12.5019 25.40675,23.9802 42.88044,31.1088 26.37054,11.2801 56.15084,15.904 85.48684,19.3582 51.4165,6.1939 103.4935,9.754 155.5208,8.343 43.8614,-1.5584 88.0839,-5.4778 129.8622,-16.7179 22.9091,-6.3193 45.5319,-14.982 62.7565,-28.8704 14.6733,-11.8314 24.9797,-27.1728 28.3252,-43.6306 5.578,-23.1537 0.8992,-48.3793 -16.0169,-68.0346 -16.3725,-19.156 -41.91,-32.46 -69.3277,-39.586 -28.9677,-7.7566 -59.5286,-10.4728 -89.7732,-13.0402 -32.2151,-2.4213 -64.5199,-4.0675 -96.8407,-5.263 -8.8635,-0.2392 -17.733,-0.328 -26.6014,-0.3189 z"
       id="path4546-1"
       inkscape:connector-curvature="0"
       sodipodi:nodetypes="cssssc" />
    <path
       style="fill:#cdf0ff;fill-rule:evenodd;stroke:none;stroke-width:0.8628px;stroke-linecap:butt;stroke-linejoin:miter;stroke-opacity:1;fill-opacity:1"
       d="m 1485.2712,3247.2085 c -50.4862,11.4936 -118.5889,-1.8333 -151.4166,-46.2885 -32.8277,-44.4549 -2.6699,31.9178 -2.6699,31.9178 0,0 59.9464,55.1538 154.0865,14.3707 z"
       id="path914"
       inkscape:connector-curvature="0"
       sodipodi:nodetypes="cscc" />
  </g>
  <g
     inkscape:groupmode="layer"
     id="layer3"
     inkscape:label="speechbubbles"
     style="display:inline">
    <path
       style="color:#000000;display:inline;overflow:visible;visibility:visible;fill:#ffffff;fill-opacity:1;fill-rule:nonzero;stroke:none;stroke-width:0.76825px;marker:none;enable-background:accumulate"
       d="m 1286.1959,1984.1813 c -18.9485,13.729 -18.2881,22.2591 7.439,23.5835 -43.1447,24.7437 -7.8873,20.9995 -0.9332,27.2737 -33.8765,8.5275 -21.3092,19.6601 -12.6885,29.704 -42.1154,-16.2682 -27.7586,6.1339 -24.8515,20.7092 -11.8143,-9.8963 -30.9848,-19.7481 -22.9114,5.932 -25.7549,-20.467 -47.9262,-38.8367 -50.3894,-3.0184 -10.377,-18.0193 -36.8482,-21.3996 -36.0516,0.092 -21.402,-25.3028 -43.4646,-26.7823 -64.7833,-9.0768 0.7313,-11.3625 25.1813,-35.0922 -26.5648,-18.3608 21.2092,-15.8217 6.0255,-18.1254 -18.9581,-17.5242 20.011,-5.0513 23.6989,-10.2617 -13.4568,-15.8687 28.2734,-0.5427 54.6383,-1.6541 21.4676,-20.7759 10.4066,-0.4632 58.4658,15.3065 10.5872,-44.3656 17.8948,14.9491 52.4898,24.5281 47.3151,-8.6629 28.6587,27.3868 41.0685,13.7711 49.6189,-5.7696 20.1907,28.718 29.8395,23.0011 50.0885,2.0703 1.5387,13.2814 24.2569,30.3795 50.3608,12.8593 -14.218,21.0674 11.1217,26.7445 34.7115,21.1989 z"
       id="path3549-3-7-3"
       inkscape:connector-curvature="0"
       sodipodi:nodetypes="ccccccccccccccccccc" />
    <path
       style="color:#000000;display:inline;overflow:visible;visibility:visible;fill:#ffffff;fill-opacity:1;fill-rule:nonzero;stroke:none;stroke-width:0.837149px;marker:none;enable-background:accumulate"
       d="m 966.36472,2000.5771 c 42.82178,-22.7004 91.81268,-11.0807 106.41908,-4.0321 46.7932,22.5812 18.1866,37.5471 18.1866,37.5471 0.4518,-0.4935 -62.6742,-53.459 -124.60568,-33.515 z"
       id="path5002-7"
       inkscape:connector-curvature="0"
       sodipodi:nodetypes="cscc" />
  </g>
  <g
     inkscape:groupmode="layer"
     id="layer1"
     inkscape:label="txt"
     style="display:inline">
    <text
       id="text4246-4-2-7"
       y="180.30643"
       x="354.30884"
       style="font-style:normal;font-variant:normal;font-weight:normal;font-stretch:normal;line-height:0%;font-family:Lavi;-inkscape-font-specification:Lavi;text-align:center;letter-spacing:0px;word-spacing:0px;text-anchor:middle;fill:#000000;fill-opacity:1;stroke:none"
       xml:space="preserve"><tspan
         y="180.30643"
         x="354.30884"
         style="font-size:45px;line-height:1.25"
         sodipodi:role="line"
         id="tspan907">Jeg er...</tspan><tspan
         y="236.55643"
         x="354.30884"
         style="font-size:45px;line-height:1.25"
         sodipodi:role="line"
         id="tspan3711">jeg er ked af</tspan><tspan
         y="292.80643"
         x="354.30884"
         style="font-size:45px;line-height:1.25"
         sodipodi:role="line"
         id="tspan6111">hvad der er</tspan><tspan
         y="349.05643"
         x="361.34009"
         style="font-size:45px;line-height:1.25"
         sodipodi:role="line"
         id="tspan4676">sket... </tspan></text>
    <text
       id="text4246-4-2-7-3"
       y="1005.3795"
       x="282.38058"
       style="font-style:normal;font-variant:normal;font-weight:normal;font-stretch:normal;line-height:0%;font-family:Lavi;-inkscape-font-specification:Lavi;text-align:center;letter-spacing:0px;word-spacing:0px;text-anchor:middle;fill:#000000;fill-opacity:1;stroke:none"
       xml:space="preserve"><tspan
         y="1005.3795"
         x="282.38058"
         style="font-size:45px;line-height:1.25"
         sodipodi:role="line"
         id="tspan37052">...du ved,</tspan><tspan
         y="1061.6295"
         x="282.38058"
         style="font-size:45px;line-height:1.25"
         sodipodi:role="line"
         id="tspan11961">med vores</tspan><tspan
         y="1117.8795"
         x="282.38058"
         style="font-size:45px;line-height:1.25"
         sodipodi:role="line"
         id="tspan15595">kamp.</tspan></text>
    <text
       id="text4246-4-2-7-3-1"
       y="1058.5084"
       x="524.69568"
       style="font-style:normal;font-variant:normal;font-weight:normal;font-stretch:normal;line-height:0%;font-family:Lavi;-inkscape-font-specification:Lavi;text-align:center;letter-spacing:0px;word-spacing:0px;text-anchor:middle;fill:#000000;fill-opacity:1;stroke:none"
       xml:space="preserve"><tspan
         y="1058.5084"
         x="524.69568"
         style="font-size:45px;line-height:1.25"
         sodipodi:role="line"
         id="tspan37052-0">Jeg...</tspan></text>
    <text
       id="text4246-4-2-7-3-5"
       y="1135.6951"
       x="579.68365"
       style="font-style:normal;font-variant:normal;font-weight:normal;font-stretch:normal;line-height:0%;font-family:Lavi;-inkscape-font-specification:Lavi;text-align:center;letter-spacing:0px;word-spacing:0px;text-anchor:middle;fill:#000000;fill-opacity:1;stroke:none"
       xml:space="preserve"><tspan
         y="1135.6951"
         x="579.68365"
         style="font-size:45px;line-height:1.25"
         sodipodi:role="line"
         id="tspan25464">Jeg var</tspan><tspan
         y="1191.9451"
         x="579.68365"
         style="font-style:normal;font-size:45px;line-height:1.25"
         sodipodi:role="line"
         id="tspan22191"><tspan
   style="font-style:italic"
   id="tspan30161">nødt </tspan>til det.</tspan></text>
    <text
       id="text4246-4-2-7-9"
       y="195.05074"
       x="1783.386"
       style="font-style:normal;font-variant:normal;font-weight:normal;font-stretch:normal;line-height:0%;font-family:Lavi;-inkscape-font-specification:Lavi;text-align:center;letter-spacing:0px;word-spacing:0px;text-anchor:middle;fill:#000000;fill-opacity:1;stroke:none"
       xml:space="preserve"><tspan
         y="195.05074"
         x="1783.386"
         style="font-size:45px;line-height:1.25"
         sodipodi:role="line"
         id="tspan66776">Bare rolig,</tspan><tspan
         y="251.30074"
         x="1783.386"
         style="font-size:45px;line-height:1.25"
         sodipodi:role="line"
         id="tspan29604">det havde</tspan><tspan
         y="307.55072"
         x="1783.386"
         style="font-size:45px;line-height:1.25"
         sodipodi:role="line"
         id="tspan30370">jeg forstået.</tspan></text>
    <text
       id="text4246-4-2-7-9-2"
       y="1121.2592"
       x="1783.5726"
       style="font-style:normal;font-variant:normal;font-weight:normal;font-stretch:normal;line-height:0%;font-family:Lavi;-inkscape-font-specification:Lavi;text-align:center;letter-spacing:0px;word-spacing:0px;text-anchor:middle;fill:#000000;fill-opacity:1;stroke:none"
       xml:space="preserve"><tspan
         y="1121.2592"
         x="1783.5726"
         style="font-size:45px;line-height:1.25"
         sodipodi:role="line"
         id="tspan71640">Tak fordi</tspan><tspan
         y="1177.5092"
         x="1783.5726"
         style="font-size:45px;line-height:1.25"
         sodipodi:role="line"
         id="tspan32990">du kom.</tspan></text>
    <text
       id="text4246-4-2-7-9-2-7"
       y="1788.3612"
       x="1438.9933"
       style="font-style:normal;font-variant:normal;font-weight:normal;font-stretch:normal;line-height:0%;font-family:Lavi;-inkscape-font-specification:Lavi;text-align:center;letter-spacing:0px;word-spacing:0px;text-anchor:middle;fill:#000000;fill-opacity:1;stroke:none"
       xml:space="preserve"><tspan
         y="1788.3612"
         x="1438.9933"
         style="font-size:45px;line-height:1.25"
         sodipodi:role="line"
         id="tspan86338">Denne magiske celle</tspan><tspan
         y="1844.6112"
         x="1438.9933"
         style="font-size:45px;line-height:1.25"
         sodipodi:role="line"
         id="tspan93883">er virkelig stærk. De har</tspan><tspan
         y="1900.8612"
         x="1438.9933"
         style="font-size:45px;line-height:1.25"
         sodipodi:role="line"
         id="tspan54745">givet dig den fulde pakke.</tspan></text>
    <text
       xml:space="preserve"
       style="font-style:normal;font-variant:normal;font-weight:normal;font-stretch:normal;line-height:0%;font-family:Lavi;-inkscape-font-specification:Lavi;text-align:center;letter-spacing:0px;word-spacing:0px;text-anchor:middle;display:inline;fill:#000000;fill-opacity:1;stroke:none"
       x="1168.7362"
       y="2033.7449"
       id="text4246-97"><tspan
         sodipodi:role="line"
         style="font-style:normal;font-variant:normal;font-weight:bold;font-stretch:normal;font-size:45px;line-height:1.25;font-family:Lavi;-inkscape-font-specification:'Lavi Bold'"
         x="1168.7362"
         y="2033.7449"
         id="tspan4252-99">Ha, ha!</tspan></text>
    <text
       id="text4246-4-2-7-9-2-7-0"
       y="2065.4873"
       x="1481.1412"
       style="font-style:normal;font-variant:normal;font-weight:normal;font-stretch:normal;font-size:11.0752px;line-height:0%;font-family:Lavi;-inkscape-font-specification:Lavi;text-align:center;letter-spacing:0px;word-spacing:0px;text-anchor:middle;fill:#000000;fill-opacity:1;stroke:none;stroke-width:0.922932"
       xml:space="preserve"><tspan
         y="2065.4873"
         x="1481.1412"
         style="font-size:41.5319px;line-height:1.25;stroke-width:0.922932"
         sodipodi:role="line"
         id="tspan96797">Vær stille, de</tspan><tspan
         y="2117.4021"
         x="1481.1412"
         style="font-size:41.5319px;line-height:1.25;stroke-width:0.922932"
         sodipodi:role="line"
         id="tspan62071">opdager os.</tspan></text>
    <text
       xml:space="preserve"
       style="color:#000000;font-style:normal;font-variant:normal;font-weight:normal;font-stretch:normal;font-size:7.41214px;line-height:0.01%;font-family:Arial;-inkscape-font-specification:Arial;letter-spacing:2.51825px;word-spacing:0px;display:inline;overflow:visible;visibility:visible;opacity:0.635039;fill:#e69d76;fill-opacity:1;fill-rule:nonzero;stroke:#e99f77;stroke-width:2.70666;stroke-opacity:1;marker:none;enable-background:accumulate"
       x="599.59552"
       y="3065.2383"
       id="text4246-1711"
       transform="matrix(0.87642423,-0.49049559,0.3850957,0.92547904,0,0)"><tspan
         sodipodi:role="line"
         x="600.85468"
         y="3065.2383"
         id="tspan1709"
         style="word-spacing:0px;fill:#ffffff;fill-opacity:1;stroke:#ffffff;stroke-width:2.70666;stroke-opacity:1"><tspan
           x="599.59552"
           y="3065.2383"
           style="color:#000000;font-style:normal;font-variant:normal;font-weight:normal;font-stretch:normal;font-size:39.5314px;line-height:1.25;font-family:Lavi;-inkscape-font-specification:Lavi;text-align:center;word-spacing:0px;text-anchor:middle;display:inline;overflow:visible;visibility:visible;fill:#ffffff;fill-opacity:1;fill-rule:nonzero;stroke:#ffffff;stroke-width:2.1336;stroke-miterlimit:4;stroke-dasharray:none;stroke-opacity:1;marker:none;enable-background:accumulate"
           id="tspan1707">SLURP</tspan></tspan></text>
    <text
       xml:space="preserve"
       style="color:#000000;font-style:normal;font-variant:normal;font-weight:normal;font-stretch:normal;font-size:5.89332px;line-height:0.01%;font-family:Arial;-inkscape-font-specification:Arial;letter-spacing:2.00224px;word-spacing:0px;display:inline;overflow:visible;visibility:visible;opacity:0.635039;fill:#e69d76;fill-opacity:1;fill-rule:nonzero;stroke:#e99f77;stroke-width:2.15204;stroke-opacity:1;marker:none;enable-background:accumulate"
       x="651.1543"
       y="3086.4412"
       id="text4246-8"
       transform="matrix(0.86624931,-0.49625693,0.3806249,0.93634967,0,0)"><tspan
         sodipodi:role="line"
         x="652.1554"
         y="3086.4412"
         id="tspan1709-9"
         style="word-spacing:0px;fill:#ffffff;fill-opacity:1;stroke:#ffffff;stroke-width:2.15204;stroke-opacity:1"><tspan
           x="651.1543"
           y="3086.4412"
           style="color:#000000;font-style:normal;font-variant:normal;font-weight:normal;font-stretch:normal;font-size:31.431px;line-height:1.25;font-family:Lavi;-inkscape-font-specification:Lavi;text-align:center;word-spacing:0px;text-anchor:middle;display:inline;overflow:visible;visibility:visible;fill:#ffffff;fill-opacity:1;fill-rule:nonzero;stroke:#ffffff;stroke-width:1.69641;stroke-miterlimit:4;stroke-dasharray:none;stroke-opacity:1;marker:none;enable-background:accumulate"
           id="tspan1707-7">SLURP</tspan></tspan></text>
    <text
       xml:space="preserve"
       style="color:#000000;font-style:normal;font-variant:normal;font-weight:normal;font-stretch:normal;font-size:4.80028px;line-height:0.01%;font-family:Arial;-inkscape-font-specification:Arial;letter-spacing:1.63088px;word-spacing:0px;display:inline;overflow:visible;visibility:visible;opacity:0.635039;fill:#e69d76;fill-opacity:1;fill-rule:nonzero;stroke:#e99f77;stroke-width:1.7529;stroke-opacity:1;marker:none;enable-background:accumulate"
       x="663.8678"
       y="3119.0703"
       id="text4246-8-3"
       transform="matrix(0.86358569,-0.49778757,0.37945452,0.93923772,0,0)"><tspan
         sodipodi:role="line"
         x="664.68323"
         y="3119.0703"
         id="tspan1709-9-6"
         style="word-spacing:0px;fill:#ffffff;fill-opacity:1;stroke:#ffffff;stroke-width:1.7529;stroke-opacity:1"><tspan
           x="663.8678"
           y="3119.0703"
           style="color:#000000;font-style:normal;font-variant:normal;font-weight:normal;font-stretch:normal;font-size:25.6015px;line-height:1.25;font-family:Lavi;-inkscape-font-specification:Lavi;text-align:center;word-spacing:0px;text-anchor:middle;display:inline;overflow:visible;visibility:visible;fill:#ffffff;fill-opacity:1;fill-rule:nonzero;stroke:#ffffff;stroke-width:1.38177;stroke-miterlimit:4;stroke-dasharray:none;stroke-opacity:1;marker:none;enable-background:accumulate"
           id="tspan1707-7-1">SLURP</tspan></tspan></text>
    <text
       id="text4246-4-2-7-9-2-7-0-9"
       y="2903.5105"
       x="290.33832"
       style="font-style:normal;font-variant:normal;font-weight:normal;font-stretch:normal;line-height:0%;font-family:Lavi;-inkscape-font-specification:Lavi;text-align:center;letter-spacing:0px;word-spacing:0px;text-anchor:middle;fill:#000000;fill-opacity:1;stroke:none"
       xml:space="preserve"><tspan
         y="2903.5105"
         x="290.33832"
         style="font-size:45px;line-height:1.25"
         sodipodi:role="line"
         id="tspan96797-9">Ved du hvad?</tspan></text>
    <text
       id="text4246-4-2-7-9-2-7-0-9-4"
       y="2975.677"
       x="662.61322"
       style="font-style:normal;font-variant:normal;font-weight:normal;font-stretch:normal;line-height:0%;font-family:Lavi;-inkscape-font-specification:Lavi;text-align:center;letter-spacing:0px;word-spacing:0px;text-anchor:middle;fill:#000000;fill-opacity:1;stroke:none"
       xml:space="preserve"><tspan
         y="2975.677"
         x="662.61322"
         style="font-size:45px;line-height:1.25"
         sodipodi:role="line"
         id="tspan96797-9-7">Jeg er her også fordi,</tspan><tspan
         y="3031.927"
         x="662.61322"
         style="font-size:45px;line-height:1.25"
         sodipodi:role="line"
         id="tspan124224">lige efter ceremonien,</tspan><tspan
         y="3088.177"
         x="662.61322"
         style="font-size:45px;line-height:1.25"
         sodipodi:role="line"
         id="tspan124228">blev jeg en del af</tspan><tspan
         y="3144.427"
         x="662.61322"
         style="font-size:45px;line-height:1.25"
         sodipodi:role="line"
         id="tspan123081">Wasabis indre kreds.</tspan></text>
    <text
       id="text4246-4-2-7-9-2-7-0-9-4-8"
       y="3171.0232"
       x="1182.2246"
       style="font-style:normal;font-variant:normal;font-weight:normal;font-stretch:normal;line-height:0%;font-family:Lavi;-inkscape-font-specification:Lavi;text-align:center;letter-spacing:0px;word-spacing:0px;text-anchor:middle;fill:#000000;fill-opacity:1;stroke:none"
       xml:space="preserve"><tspan
         y="3171.0232"
         x="1182.2246"
         style="font-size:45px;line-height:1.25"
         sodipodi:role="line"
         id="tspan125783">Og fik dermed kendskab</tspan><tspan
         y="3227.2732"
         x="1182.2246"
         style="font-size:45px;line-height:1.25"
         sodipodi:role="line"
         id="tspan126219">til hendes planer...</tspan></text>
  </g>
</svg>
