<?xml version="1.0" encoding="UTF-8" standalone="no"?>
<svg
   xmlns:dc="http://purl.org/dc/elements/1.1/"
   xmlns:cc="http://creativecommons.org/ns#"
   xmlns:rdf="http://www.w3.org/1999/02/22-rdf-syntax-ns#"
   xmlns:svg="http://www.w3.org/2000/svg"
   xmlns="http://www.w3.org/2000/svg"
   xmlns:xlink="http://www.w3.org/1999/xlink"
   xmlns:sodipodi="http://sodipodi.sourceforge.net/DTD/sodipodi-0.dtd"
   xmlns:inkscape="http://www.inkscape.org/namespaces/inkscape"
   id="svg2"
   version="1.1"
   inkscape:version="1.0.2-2 (e86c870879, 2021-01-15)"
   width="2481"
   height="3503"
   sodipodi:docname="E26P03.svg">
  <metadata
     id="metadata8">
    <rdf:RDF>
      <cc:Work
         rdf:about="">
        <dc:format>image/svg+xml</dc:format>
        <dc:type
           rdf:resource="http://purl.org/dc/dcmitype/StillImage" />
        <dc:title />
      </cc:Work>
    </rdf:RDF>
  </metadata>
  <defs
     id="defs6" />
  <sodipodi:namedview
     pagecolor="#ffffff"
     bordercolor="#666666"
     borderopacity="1"
     objecttolerance="10"
     gridtolerance="10"
     guidetolerance="10"
     inkscape:pageopacity="0"
     inkscape:pageshadow="2"
     inkscape:window-width="1366"
     inkscape:window-height="745"
     id="namedview4"
     showgrid="false"
     inkscape:zoom="0.40200776"
     inkscape:cx="1496.1052"
     inkscape:cy="3035.5937"
     inkscape:window-x="-8"
     inkscape:window-y="-8"
     inkscape:window-maximized="1"
     inkscape:current-layer="layer1"
     inkscape:document-rotation="0" />
  <g
     inkscape:groupmode="layer"
     id="layer2"
     inkscape:label="artwork"
     sodipodi:insensitive="true">
    <image
       sodipodi:absref="C:\Users\quentinlipeck\Downloads\webcomics-master-ec7d62e6553c2c63bb1cf2e799ee31f9cb9ce5e2\webcomics-master-ec7d62e6553c2c63bb1cf2e799ee31f9cb9ce5e2\ep26_Books-Are-Great\lang\gfx_Pepper-and-Carrot_by-David-Revoy_E26P03.png"
       xlink:href="../gfx_Pepper-and-Carrot_by-David-Revoy_E26P03.png"
       width="2481"
       height="3503"
       id="image10"
       x="0"
       y="0" />
  </g>
  <g
     inkscape:groupmode="layer"
     id="layer3"
     inkscape:label="speechbubbles"
     style="opacity:1">
    <path
       style="color:#000000;display:inline;overflow:visible;visibility:visible;fill:#ffffff;fill-opacity:1;fill-rule:nonzero;stroke:none;stroke-width:0.865269px;marker:none;enable-background:accumulate"
       d="m 277.00851,623.49642 c 17.66303,-26.98761 235.55232,-46.20731 285.88717,14.82975 35.07835,42.5367 21.54622,124.10935 -8.52047,145.34442 -30.06663,21.23515 -175.22641,27.21564 -216.48332,16.40149 -37.10046,-9.7247 -76.0428,-30.6561 -78.09589,-86.36645 -0.83794,-22.73759 -0.45057,-63.22153 17.21251,-90.20921 z"
       id="path4040"
       inkscape:connector-curvature="0"
       sodipodi:nodetypes="zssssz" />
    <path
       style="fill:#ffffff;stroke:none;stroke-width:1"
       d="m 628.34471,847.51507 c -38.61917,12.80883 -55.09288,-0.0828 -66.95346,-14.05699 -11.86058,-13.97408 -28.36174,-20.89656 -39.29055,-22.32443 -10.92881,-1.42786 -28.67404,2.49427 -37.73175,7.41599 -9.05781,4.92182 -23.30007,-9.35873 -32.51481,-17.85685 -12.1752,-11.22835 -10.17368,-21.3089 -10.17368,-21.3089 0,0 -63.56569,-10.64656 -52.32882,1.21103 11.23688,11.85757 53.851,43.51663 59.4257,47.15218 5.57479,3.63555 23.61454,12.58563 34.54483,10.2648 10.93033,-2.32073 19.07986,-12.5098 32.07626,-12.9737 13.38845,-0.4779 22.37583,3.75223 33.30162,12.67727 10.92577,8.92503 37.52895,25.44728 54.48293,19.70573 16.95397,-5.74156 25.16173,-9.90613 25.16173,-9.90613 z"
       id="path3023"
       inkscape:connector-curvature="0"
       sodipodi:nodetypes="csssscssssssc" />
    <path
       style="color:#000000;display:inline;overflow:visible;visibility:visible;fill:#ffffff;fill-opacity:1;fill-rule:nonzero;stroke:none;stroke-width:1px;marker:none;enable-background:accumulate"
       d="m 232.67034,1785.6735 c -2.68476,-15.6414 20.91072,-100.9773 120.5528,-98.2199 99.64209,2.7575 123.14345,61.1522 123.74969,82.2405 0.60623,21.0882 -21.52489,55.5835 -35.7674,61.9839 -14.2424,6.4003 -51.50581,22.0026 -76.11721,19.7048 -24.61125,-2.2981 -57.55035,8.9837 -95.49777,-15.6682 -30.1609,-19.5937 -35.01483,-45.9633 -36.92011,-50.0411 z"
       id="path3365"
       inkscape:connector-curvature="0"
       sodipodi:nodetypes="cssccsc" />
    <path
       style="color:#000000;display:inline;overflow:visible;visibility:visible;fill:#ffffff;fill-opacity:1;fill-rule:nonzero;stroke:none;stroke-width:0.909709px;marker:none;enable-background:accumulate"
       d="m 1102.2198,2211.7731 c -4.418,-18.0282 -13.1391,-121.6236 182.4138,-114.7443 171.4874,6.0329 196.775,89.7532 197.5419,114.0245 0.7668,24.2716 -12.6649,48.9269 -43.1168,63.1804 -32.6411,13.6654 -90.2679,21.4782 -132.6238,18.5514 -42.3556,-2.9269 -99.1414,-0.4562 -142.766,-14.445 -30.0078,-9.6222 -56.6223,-41.3599 -61.4491,-66.567 z"
       id="path3365-5"
       inkscape:connector-curvature="0"
       sodipodi:nodetypes="cssccsc" />
    <path
       style="color:#000000;display:inline;overflow:visible;visibility:visible;fill:#ffffff;fill-opacity:1;fill-rule:nonzero;stroke:none;stroke-width:1px;marker:none;enable-background:accumulate"
       d="m 377.75121,1797.7955 c 0.14136,37.7496 7.44343,98.937 94.82871,86.7057 -14.99489,10.61 -114.59779,34.3786 -127.13109,-74.0559 -3.63685,-31.4647 8.70865,-21.0527 15.81183,-23.0996 7.10319,-2.047 16.49055,10.4498 16.49055,10.4498 z"
       id="path4064"
       inkscape:connector-curvature="0"
       sodipodi:nodetypes="ccszc" />
    <path
       style="color:#000000;display:inline;overflow:visible;visibility:visible;fill:#ffffff;fill-opacity:1;fill-rule:nonzero;stroke:none;stroke-width:1px;marker:none;enable-background:accumulate"
       d="m 1237.4731,2165.1562 c 16.4769,-33.9641 36.832,-92.1267 -47.0265,-119.5779 18.1333,-2.9332 118.0386,19.5304 81.6003,122.4254 -10.5733,29.8573 -17.0809,15.0765 -24.3604,13.7904 -7.2795,-1.2859 -10.2134,-16.6379 -10.2134,-16.6379 z"
       id="path4064-3"
       inkscape:connector-curvature="0"
       sodipodi:nodetypes="ccszc" />
    <path
       style="fill:#ffffff;stroke:none;stroke-width:1.02675"
       d="m 51.093208,2694.5432 c -32.411116,-196.2754 69.080672,-174.0783 330.014172,-175.3217 332.50651,-1.5846 292.31183,157.6032 300.18167,241.2759 6.33623,67.3671 -41.88289,119.8532 -385.86938,108.0068 C -6.4384429,2858.1087 19.264171,2803.5949 51.093208,2694.5432 Z"
       id="path3280-8"
       inkscape:connector-curvature="0"
       sodipodi:nodetypes="csssc" />
    <path
       style="color:#000000;display:inline;overflow:visible;visibility:visible;fill:#ffffff;fill-opacity:1;fill-rule:nonzero;stroke:none;stroke-width:1.09098px;marker:none;enable-background:accumulate"
       d="m 541.6664,2826.0288 c 14.75467,36.3891 56.10784,84.8029 132.56738,64.1383 -52.93998,24.1174 -112.04254,21.8254 -162.9129,-49.9788 -68.01242,-96.0004 -45.71056,-118.3536 -45.71056,-118.3536 z"
       id="path4064-6"
       inkscape:connector-curvature="0"
       sodipodi:nodetypes="ccscc" />
    <path
       style="color:#000000;display:inline;overflow:visible;visibility:visible;fill:#ffffff;fill-opacity:1;fill-rule:nonzero;stroke:none;stroke-width:0.916489px;marker:none;enable-background:accumulate"
       d="m 1883.7625,2967.1271 c -1.9424,-17.8749 28.1111,-97.3439 146.5983,-85.4272 118.4872,11.9166 135.3396,54.5174 136.5205,94.0272 -2.0473,40.7155 -25.803,70.4216 -43.2846,76.3799 -17.4817,5.9583 -43.7587,14.2286 -92.2647,15.4915 -56.0385,0.057 -89.0731,-2.4468 -124.5576,-34.9007 -33.8478,-28.7858 -21.0695,-60.8041 -23.0119,-65.5707 z"
       id="path3365-7"
       inkscape:connector-curvature="0"
       sodipodi:nodetypes="cscsccc" />
    <path
       style="color:#000000;display:inline;overflow:visible;visibility:visible;fill:#ffffff;fill-opacity:1;fill-rule:nonzero;stroke:none;stroke-width:1px;marker:none;enable-background:accumulate"
       d="m 1963.5548,2926.8144 c -22.0372,-41.7339 -131.901,-116.3258 -202.9973,-80.3598 84.8906,-21.0574 174.3494,70.9697 177.3562,85.6217 3.0068,14.6521 25.6411,-5.2619 25.6411,-5.2619 z"
       id="path3978"
       inkscape:connector-curvature="0"
       sodipodi:nodetypes="cccc" />
    <path
       style="color:#000000;display:inline;overflow:visible;visibility:visible;fill:#ffffff;fill-opacity:1;fill-rule:nonzero;stroke:none;stroke-width:0.614452px;marker:none;enable-background:accumulate"
       d="m 237.50133,526.58536 c 16.78806,-14.31867 201.67659,-24.51596 249.51799,7.86814 33.34067,22.56846 31.58241,63.39355 3.00516,74.66012 -28.57723,11.26661 -166.54616,14.43965 -205.7593,8.70205 -35.2626,-5.15958 -72.27584,-16.26504 -74.22722,-45.82297 -0.79644,-12.06376 10.67527,-31.08864 27.46337,-45.40734 z"
       id="path4040-3"
       inkscape:connector-curvature="0"
       sodipodi:nodetypes="zssssz" />
  </g>
  <g
     inkscape:groupmode="layer"
     id="layer1"
     inkscape:label="txt">
    <text
       xml:space="preserve"
       style="font-style:normal;font-variant:normal;font-weight:normal;font-stretch:normal;font-size:10.5906px;line-height:0%;font-family:Lavi;-inkscape-font-specification:Lavi;text-align:center;letter-spacing:0px;word-spacing:0px;text-anchor:middle;fill:#000000;fill-opacity:1;stroke:none;stroke-width:0.88255"
       x="422.30801"
       y="672.22424"
       id="text4246-5"><tspan
         sodipodi:role="line"
         style="font-size:39.7147px;line-height:1.25;stroke-width:0.88255"
         x="422.30801"
         y="672.22424"
         id="tspan439">mi sona e </tspan><tspan
         sodipodi:role="line"
         style="font-size:39.7147px;line-height:1.25;stroke-width:0.88255"
         x="422.30801"
         y="721.86761"
         id="tspan49">pilin ike soweli </tspan><tspan
         sodipodi:role="line"
         style="font-size:39.7147px;line-height:1.25;stroke-width:0.88255"
         x="422.30801"
         y="771.51099"
         id="tspan51">tan telo.</tspan></text>
    <text
       xml:space="preserve"
       style="font-style:normal;font-variant:normal;font-weight:normal;font-stretch:normal;line-height:0%;font-family:Lavi;-inkscape-font-specification:Lavi;text-align:center;letter-spacing:0px;word-spacing:0px;text-anchor:middle;fill:#000000;fill-opacity:1;stroke:none"
       x="351.44214"
       y="1757.9678"
       id="text4246-1"><tspan
         sodipodi:role="line"
         style="font-style:normal;font-variant:normal;font-weight:bold;font-stretch:normal;font-size:45px;line-height:1.25;font-family:Lavi;-inkscape-font-specification:'Lavi Bold'"
         x="351.44214"
         y="1757.9678"
         id="tspan887">o pilin </tspan><tspan
         sodipodi:role="line"
         style="font-style:normal;font-variant:normal;font-weight:bold;font-stretch:normal;font-size:45px;line-height:1.25;font-family:Lavi;-inkscape-font-specification:'Lavi Bold'"
         x="351.44214"
         y="1814.2178"
         id="tspan55">ike ala!</tspan></text>
    <text
       xml:space="preserve"
       style="font-style:normal;font-variant:normal;font-weight:normal;font-stretch:normal;font-size:13.4951px;line-height:0%;font-family:Lavi;-inkscape-font-specification:Lavi;text-align:center;letter-spacing:0px;word-spacing:0px;text-anchor:middle;fill:#000000;fill-opacity:1;stroke:none;stroke-width:1"
       x="1288.4023"
       y="2174.0071"
       id="text4246-1-3"
       transform="scale(0.99789912,1.0021053)"><tspan
         sodipodi:role="line"
         style="font-style:normal;font-variant:normal;font-weight:bold;font-stretch:normal;font-size:50.6065px;line-height:1.25;font-family:Lavi;-inkscape-font-specification:'Lavi Bold';stroke-width:1"
         x="1288.4023"
         y="2174.0071"
         id="tspan914">lipu li pona </tspan><tspan
         sodipodi:role="line"
         style="font-style:normal;font-variant:normal;font-weight:bold;font-stretch:normal;font-size:50.6065px;line-height:1.25;font-family:Lavi;-inkscape-font-specification:'Lavi Bold';stroke-width:1"
         x="1288.4023"
         y="2237.2651"
         id="tspan62">tawa ni kin!</tspan></text>
    <text
       xml:space="preserve"
       style="font-style:normal;font-variant:normal;font-weight:normal;font-stretch:normal;font-size:11.4064px;line-height:0%;font-family:Lavi;-inkscape-font-specification:Lavi;text-align:center;letter-spacing:0px;word-spacing:0px;text-anchor:middle;fill:#000000;fill-opacity:1;stroke:none;stroke-width:0.95053"
       x="121.25092"
       y="2608.8384"
       id="text4246-5-5"><tspan
         sodipodi:role="line"
         style="font-size:42.7739px;line-height:1.25;text-align:start;text-anchor:start;stroke-width:0.95053"
         x="121.25092"
         y="2608.8384"
         id="tspan54">mi kepeken tenpo lili lon </tspan><tspan
         sodipodi:role="line"
         style="font-size:42.7739px;line-height:1.25;text-align:start;text-anchor:start;stroke-width:0.95053"
         x="121.25092"
         y="2662.3057"
         id="tspan81">tomo alasa la, mi lon </tspan><tspan
         sodipodi:role="line"
         style="font-size:42.7739px;line-height:1.25;text-align:start;text-anchor:start;stroke-width:0.95053"
         x="121.25092"
         y="2715.7732"
         id="tspan71">tomo lili mani kin. mi ken </tspan><tspan
         sodipodi:role="line"
         style="font-size:42.7739px;line-height:1.25;text-align:start;text-anchor:start;stroke-width:0.95053"
         x="121.25092"
         y="2769.2405"
         id="tspan89">poki e lipu kasi tan kasi telo. </tspan><tspan
         sodipodi:role="line"
         style="font-size:42.7739px;line-height:1.25;text-align:start;text-anchor:start;stroke-width:0.95053"
         x="121.25092"
         y="2822.7078"
         id="tspan73">kasi telo li mute ala taso.</tspan></text>
    <text
       xml:space="preserve"
       style="font-style:normal;font-variant:normal;font-weight:normal;font-stretch:normal;font-size:13.4951px;line-height:0%;font-family:Lavi;-inkscape-font-specification:Lavi;text-align:center;letter-spacing:0px;word-spacing:0px;text-anchor:middle;fill:#000000;fill-opacity:1;stroke:none;stroke-width:1"
       x="2027.9537"
       y="2955.3962"
       id="text4246-1-3-2"
       transform="scale(0.99789912,1.0021053)"><tspan
         sodipodi:role="line"
         style="font-style:normal;font-variant:normal;font-weight:bold;font-stretch:normal;font-size:50.6065px;line-height:1.25;font-family:Lavi;-inkscape-font-specification:'Lavi Bold';stroke-width:1"
         x="2027.9537"
         y="2955.3962"
         id="tspan914-2">lipu li </tspan><tspan
         sodipodi:role="line"
         style="font-style:normal;font-variant:normal;font-weight:bold;font-stretch:normal;font-size:50.6065px;line-height:1.25;font-family:Lavi;-inkscape-font-specification:'Lavi Bold';stroke-width:1"
         x="2027.9537"
         y="3018.6543"
         id="tspan66">wawa a!</tspan></text>
    <text
       xml:space="preserve"
       style="font-style:normal;font-variant:normal;font-weight:normal;font-stretch:normal;font-size:10.5906px;line-height:0%;font-family:Lavi;-inkscape-font-specification:Lavi;text-align:center;letter-spacing:0px;word-spacing:0px;text-anchor:middle;fill:#000000;fill-opacity:1;stroke:none;stroke-width:0.88255"
       x="359.39139"
       y="579.64038"
       id="text4246-5-6"><tspan
         sodipodi:role="line"
         style="font-size:39.7147px;line-height:1.25;stroke-width:0.88255"
         x="359.39139"
         y="579.64038"
         id="tspan439-5">soweli Kawa o;</tspan></text>
  </g>
</svg>
