<?xml version="1.0" encoding="UTF-8" standalone="no"?>
<!-- Created with Inkscape (http://www.inkscape.org/) -->

<svg
   xmlns:dc="http://purl.org/dc/elements/1.1/"
   xmlns:cc="http://creativecommons.org/ns#"
   xmlns:rdf="http://www.w3.org/1999/02/22-rdf-syntax-ns#"
   xmlns:svg="http://www.w3.org/2000/svg"
   xmlns="http://www.w3.org/2000/svg"
   xmlns:xlink="http://www.w3.org/1999/xlink"
   xmlns:sodipodi="http://sodipodi.sourceforge.net/DTD/sodipodi-0.dtd"
   xmlns:inkscape="http://www.inkscape.org/namespaces/inkscape"
   id="svg2"
   version="1.1"
   inkscape:version="0.92.2 (5c3e80d, 2017-08-06)"
   width="2481"
   height="3503"
   sodipodi:docname="E36P01.svg">
  <metadata
     id="metadata8">
    <rdf:RDF>
      <cc:Work
         rdf:about="">
        <dc:format>image/svg+xml</dc:format>
        <dc:type
           rdf:resource="http://purl.org/dc/dcmitype/StillImage" />
      </cc:Work>
    </rdf:RDF>
  </metadata>
  <defs
     id="defs6" />
  <sodipodi:namedview
     pagecolor="#1e1e1e"
     bordercolor="#111111"
     borderopacity="1"
     objecttolerance="10"
     gridtolerance="10"
     guidetolerance="10"
     inkscape:pageopacity="0"
     inkscape:pageshadow="2"
     inkscape:window-width="1501"
     inkscape:window-height="1035"
     id="namedview4"
     showgrid="false"
     inkscape:zoom="0.52900002"
     inkscape:cx="1237.5396"
     inkscape:cy="1504.7258"
     inkscape:window-x="411"
     inkscape:window-y="-1"
     inkscape:window-maximized="0"
     inkscape:current-layer="layer1"
     inkscape:pagecheckerboard="0"
     inkscape:snap-global="false" />
  <g
     inkscape:groupmode="layer"
     id="layer2"
     inkscape:label="artwork"
     sodipodi:insensitive="true">
    <image
       sodipodi:absref="C:\Users\Kari\Documents\Pepper and Carrot\Episode 36\fi\../gfx_Pepper-and-Carrot_by-David-Revoy_E36P01.png"
       xlink:href="../gfx_Pepper-and-Carrot_by-David-Revoy_E36P01.png"
       y="0"
       x="0"
       id="image10"
       height="3503"
       width="2481" />
  </g>
  <g
     inkscape:groupmode="layer"
     id="layer3"
     inkscape:label="speechbubbles"
     style="display:inline">
    <path
       style="display:inline;fill:#ffffff;fill-rule:evenodd;stroke:none;stroke-width:0.95246178px;stroke-linecap:butt;stroke-linejoin:miter;stroke-opacity:1"
       d="m 973.30054,1824.9574 c 56.22786,24.097 88.25626,14.2976 87.29096,-41.7157 26.826,60.5296 45.4422,74.0673 56.4826,44.244 35.5158,25.6339 57.6983,18.4431 75.31,0 6.5644,23.7194 17.7227,18.8067 48.7025,-7.3922 -5.7614,13.0691 -11.8084,44.6282 44.3761,4.8414 -25.8779,23.4292 -7.0388,23.8781 25.5744,8.1301 -10.7004,23.9724 29.8899,6.5814 64.4872,-28.3332 -24.8387,36.1392 -14.8262,41.1595 7.2828,25.8526 -10.1083,16.4707 -4.3529,26.5009 26.949,5.7499 -13.1476,30.4016 0.6645,18.2462 50.6207,-10.8562 -41.2254,32.0982 -56.8716,57.9996 -26.6584,58.8922 -9.3485,2.7466 -30.9802,17.8056 41.0782,32.8663 -16.8638,1.4435 -48.2394,5.221 -18.4547,18.5162 -17.9811,-4.3473 -25.9619,3.429 -0.9332,16.0623 -18.0099,-2.0197 -38.8856,-7.1894 -10.787,12.576 -31.601,-0.6715 -26.8283,3.9664 -3.6276,20.6395 -45.7629,-21.3878 -41.9177,38.7373 -43.2722,47.2961 -57.3545,-29.1593 -41.9756,-14.4775 -49.7178,-8.404 -27.9562,0.2269 -57.4888,-48.1892 -85.445,-15.6707 -7.3213,-20.2255 -21.9994,-1.172 -83.8677,13.1328 27.1648,-25.7312 -21.7364,-2.9451 -51.3341,7.6561 16.2082,-32.1443 -10.4028,-29.2524 -62.4988,2.0216 29.1735,-35.4962 -8.2276,-45.4842 -57.3261,-20.2822 18.5507,-34.8718 -11.66144,-51.7357 -83.86824,-53.0928 33.9539,-13.6956 54.71416,-28.4075 18.82762,-56.8838 40.45443,8.3847 52.52146,0.5965 23.96237,-30.3386 44.12485,25.3912 24.06283,-11.4373 6.84639,-45.5077 z"
       id="path4508-2"
       inkscape:connector-curvature="0"
       sodipodi:nodetypes="cccccccccccccccccccccccccccc" />
    <path
       style="display:inline;fill:#ffffff;fill-rule:evenodd;stroke:none;stroke-width:0.65686798px;stroke-linecap:butt;stroke-linejoin:miter;stroke-opacity:1"
       d="m 1370.4499,2114.3591 c -35.0491,-20.424 -59.0308,-24.1414 -50.8518,16.163 -34.2083,-39.5159 -39.0024,-23.6303 -45.973,-2.2322 -30.3468,-30.7731 -43.5839,-13.2812 -50.1776,0.7833 -6.8304,-28.7683 -18.1217,-6.9228 -25.3928,1.7955 1.9476,-25.2733 -6.7317,-28.3287 -30.6,-0.1903 4.6731,-11.2725 11.8597,-32.5214 -23.9822,-8.4782 7.0444,-23.6192 -16.3018,-7.706 -36.1568,13.7589 11.0111,-28.723 -4.0052,-22.3088 -18.5382,-11.1552 6.5221,-11.8594 21.8971,-30.3228 -10.3856,-15.9197 15.4804,-17.3428 0.3464,-13.5736 -28.4934,3.9643 23.958,-22.6206 45.3677,-39.8251 13.016,-36.1006 4.3968,-6.861 20.4113,-13.0292 -27.7943,-23.0279 8.8793,-4.7482 36.3651,1.5587 13.1853,-17.5953 -3.0996,-2.2329 7.1135,-3.7855 -12.5355,-9.4865 11.5419,0.2291 18.5898,-1.3414 7.8028,-10.0474 21.0642,0.1505 13.0171,-9.0556 -2.6566,-20.7132 30.7674,14.7874 27.1888,-13.5501 27.9807,-19.6723 38.5913,20.2129 43.2983,7.4878 48.3781,3.0731 18.6236,-0.4528 36.5412,17.4823 54.7475,-6.0152 5.1397,14.3579 15.8308,17.3389 56.8674,6.4868 -17.7668,18.6454 16.9826,5.8731 36.5658,-2.0003 -10.3836,23.1083 13.3021,17.714 47.6079,-5.146 -18.9786,25.635 35.0359,11.6965 51.8235,4.0693 -2.0587,10.3509 -16.6672,44.9201 31.4602,45.1377 -22.8642,9.3356 -30.6296,18.1518 -6.3509,38.1004 -27.0624,-5.5628 -35.0018,0.1208 -15.5735,21.9005 -39.1887,-10.4407 -23.5695,14.2776 -3.973,32.5475 z"
       id="path4508-2-3"
       inkscape:connector-curvature="0"
       sodipodi:nodetypes="cccccccccccccccccccccccccccc" />
    <path
       style="fill:#ffffff;fill-rule:evenodd;stroke:none;stroke-width:1.01927px;stroke-linecap:butt;stroke-linejoin:miter;stroke-opacity:1"
       d="m 795.85859,2075.6026 c 68.17018,-19.9402 107.76468,-24.6985 129.19825,-26.9041 -9.4626,14.6823 -10.93703,18.8605 -3.60753,19.5618 12.56737,1.2024 323.02739,-38.3324 323.02739,-38.3324 l -134.9102,-3.9965 c 0,0 -88.3447,16.493 -115.60557,20.8649 -27.26123,4.3719 -53.63946,7.3565 -53.63946,7.3565 0,0 11.08456,-17.0097 8.79652,-16.5151 -9.73596,2.1047 -32.55208,-8.0957 -153.2594,37.9649 z"
       id="path891"
       inkscape:connector-curvature="0"
       sodipodi:nodetypes="ccsccscsc" />
    <path
       style="display:inline;fill:#ffffff;fill-rule:evenodd;stroke:none;stroke-width:1.35495234px;stroke-linecap:butt;stroke-linejoin:miter;stroke-opacity:1"
       d="m 961.09958,2513.5778 c 40.07852,34.085 60.78972,60.774 1.88174,37.0453 29.45817,21.5205 21.56667,24.8361 -5.00992,30.3589 23.43434,14.4301 57.2444,46.2428 9.06218,56.8178 69.48332,9.4652 32.32968,36.7362 -3.9688,56.6045 106.03892,-22.8067 94.32022,2.8066 70.79642,28.9088 52.6119,-32.7144 55.0634,-23.0057 31.2339,20.5624 34.278,-31.49 43.4317,-40.6024 42.774,-4.2266 21.2002,-30.1013 48.8347,-48.797 69.3429,-14.1622 27.6649,-49.7852 58.6378,-6.3705 82.1696,10.8879 5.7726,-36.9925 27.4081,-46.6073 66.2084,-9.9254 3.9197,-22.3614 36.6971,-21.735 64.7975,10.2753 -35.1564,-62.8774 26.1859,-6.2663 36.415,-2.5454 -16.6745,-32.3544 22.1199,-37.9013 91.6354,-10.2102 -49.8787,-30.2071 -40.4732,-44.2996 3.0295,-57.0873 -41.8716,-14.0879 -51.8222,-47.6329 17.0769,-49.0658 -86.1936,-21.3847 -22.3185,-55.0924 17.7984,-75.3839 -75.4022,12.0524 -136.7203,17.7795 -97.1703,-27.2707 -86.3201,29.1411 -70.6647,12.9296 -59.6587,-1.2147 -57.652,35.4437 -58.8934,2.6573 -57.2928,-7.5248 -77.448,38.5493 -122.8957,12.8559 -140.2439,-15.8395 -20.3394,40.3424 -58.7442,21.0737 -82.3907,0.7332 12.3545,37.9319 -12.576,34.9347 -37.6356,19.3121 6.1658,25.4973 -17.2903,47.5269 -58.0491,11.6075 13.55,17.7959 12.1431,43.8619 -62.80202,-8.6572 z"
       id="path4289-9"
       inkscape:connector-curvature="0"
       sodipodi:nodetypes="ccccccccccccccccccccccccc" />
    <path
       style="display:inline;fill:#ffffff;fill-rule:evenodd;stroke:none;stroke-width:1px;stroke-linecap:butt;stroke-linejoin:miter;stroke-opacity:1"
       d="m 839.35758,2683.1542 126.85528,-18.3923 -13.09351,-16.3937 103.27445,-9.3803 -13.3725,-26.4414 -117.98262,26.0585 15.22178,19.3955 z"
       id="path4667"
       inkscape:connector-curvature="0"
       sodipodi:nodetypes="cccccccc" />
  </g>
  <g
     inkscape:groupmode="layer"
     id="layer1"
     inkscape:label="txt"
     style="display:inline">
    <text
       xml:space="preserve"
       style="font-style:normal;font-variant:normal;font-weight:normal;font-stretch:normal;font-size:45px;line-height:1.25;font-family:Lavi;-inkscape-font-specification:Lavi;text-align:center;letter-spacing:0px;word-spacing:0px;text-anchor:middle;fill:#000000;fill-opacity:1;stroke:none;stroke-width:0.81838697"
       x="1449.0344"
       y="1900.8549"
       id="text4246-3-2-2-6-3-7-9-3-3-56-9-3-20-3-3-2"
       transform="skewX(-7.1285625)"><tspan
         style="font-style:normal;font-variant:normal;font-weight:bold;font-stretch:normal;font-size:45px;font-family:Lavi;-inkscape-font-specification:'Lavi Bold';stroke-width:0.81838697"
         sodipodi:role="line"
         x="1449.0344"
         y="1900.8549"
         id="tspan146">ETTÄ IHAN</tspan><tspan
         style="font-style:normal;font-variant:normal;font-weight:bold;font-stretch:normal;font-size:45px;font-family:Lavi;-inkscape-font-specification:'Lavi Bold';stroke-width:0.81838697"
         sodipodi:role="line"
         x="1449.0344"
         y="1957.1049"
         id="tspan3716">PYYDÄT ANTEEKSI?</tspan></text>
    <text
       id="text4246-4-2-7"
       y="2025.6934"
       x="1216.6045"
       style="font-style:normal;font-variant:normal;font-weight:normal;font-stretch:normal;line-height:0%;font-family:Lavi;-inkscape-font-specification:Lavi;text-align:center;letter-spacing:0px;word-spacing:0px;text-anchor:middle;fill:#000000;fill-opacity:1;stroke:none"
       xml:space="preserve"
       inkscape:label="pepperB"><tspan
         y="2025.6934"
         x="1216.6045"
         style="font-size:45px;line-height:1.25"
         sodipodi:role="line"
         id="tspan36806">Et voi olla</tspan><tspan
         y="2081.9434"
         x="1216.6045"
         style="font-size:45px;line-height:1.25"
         sodipodi:role="line"
         id="tspan6461">tosissasi!</tspan></text>
    <text
       xml:space="preserve"
       style="font-style:normal;font-variant:normal;font-weight:normal;font-stretch:normal;font-size:45px;line-height:1.25;font-family:Lavi;-inkscape-font-specification:Lavi;text-align:center;letter-spacing:0px;word-spacing:0px;text-anchor:middle;fill:#000000;fill-opacity:1;stroke:none;stroke-width:0.81838697"
       x="1576.4795"
       y="2603.1382"
       id="text4246-3-2-2-6-3-7-9-3-3-56-9-3-20-3-3-2-7"
       transform="skewX(-7.1285625)"><tspan
         style="font-style:normal;font-variant:normal;font-weight:bold;font-stretch:normal;font-size:45px;font-family:Lavi;-inkscape-font-specification:'Lavi Bold';stroke-width:0.81838697"
         sodipodi:role="line"
         x="1576.4795"
         y="2603.1382"
         id="tspan29437">HEITTÄKÄÄ TÄMÄ</tspan><tspan
         style="font-style:normal;font-variant:normal;font-weight:bold;font-stretch:normal;font-size:45px;font-family:Lavi;-inkscape-font-specification:'Lavi Bold';stroke-width:0.81838697"
         sodipodi:role="line"
         x="1576.4795"
         y="2659.3882"
         id="tspan14740">TYPERYS VANKILAAN!</tspan></text>
  </g>
</svg>
