<?xml version="1.0" encoding="UTF-8" standalone="no"?>
<!-- Created with Inkscape (http://www.inkscape.org/) -->

<svg
   id="svg2"
   version="1.1"
   inkscape:version="1.1.2 (1:1.1+202202050950+0a00cf5339)"
   width="2481"
   height="2041"
   sodipodi:docname="E03P08.svg"
   xmlns:inkscape="http://www.inkscape.org/namespaces/inkscape"
   xmlns:sodipodi="http://sodipodi.sourceforge.net/DTD/sodipodi-0.dtd"
   xmlns:xlink="http://www.w3.org/1999/xlink"
   xmlns="http://www.w3.org/2000/svg"
   xmlns:svg="http://www.w3.org/2000/svg"
   xmlns:rdf="http://www.w3.org/1999/02/22-rdf-syntax-ns#"
   xmlns:cc="http://creativecommons.org/ns#"
   xmlns:dc="http://purl.org/dc/elements/1.1/">
  <metadata
     id="metadata8">
    <rdf:RDF>
      <cc:Work
         rdf:about="">
        <dc:format>image/svg+xml</dc:format>
        <dc:type
           rdf:resource="http://purl.org/dc/dcmitype/StillImage" />
        <dc:title />
      </cc:Work>
    </rdf:RDF>
  </metadata>
  <defs
     id="defs6" />
  <sodipodi:namedview
     pagecolor="#ffffff"
     bordercolor="#666666"
     borderopacity="1"
     objecttolerance="10"
     gridtolerance="10"
     guidetolerance="10"
     inkscape:pageopacity="0"
     inkscape:pageshadow="2"
     inkscape:window-width="1216"
     inkscape:window-height="704"
     id="namedview4"
     showgrid="false"
     inkscape:zoom="0.422408"
     inkscape:cx="1207.3635"
     inkscape:cy="1529.3271"
     inkscape:window-x="0"
     inkscape:window-y="0"
     inkscape:window-maximized="0"
     inkscape:current-layer="layer2"
     inkscape:pagecheckerboard="0" />
  <g
     inkscape:groupmode="layer"
     id="layer1"
     inkscape:label="artwork"
     style="display:inline"
     sodipodi:insensitive="true">
    <image
       xlink:href="../gfx_Pepper-and-Carrot_by-David-Revoy_E03P08.png"
       y="0"
       x="0"
       id="image10"
       height="2041"
       width="2481" />
  </g>
  <g
     inkscape:groupmode="layer"
     id="layer3"
     inkscape:label="speechbubbles">
    <path
       style="fill:#ffffff;stroke:none;stroke-width:1px;stroke-linecap:butt;stroke-linejoin:miter;stroke-opacity:1"
       d="m 91.403294,555.16506 c 1.062829,-51.0158 26.570726,-103.09442 170.052636,-112.65988 143.48192,-9.56546 203.00034,48.89014 207.25166,90.34047 4.25132,41.45033 -82.90066,96.71744 -162.61284,97.78027 C 226.38258,631.68874 91.403294,618.9348 91.403294,555.16506 z"
       id="path4279"
       inkscape:connector-curvature="0" />
    <path
       style="fill:#ffffff;stroke:none"
       d="m 325.22567,807.05553 c 70.14672,-44.63882 88.21481,-124.35099 45.70165,-190.24639 -42.51316,-65.8954 -82.90066,-54.20428 -82.90066,-54.20428 l 35.07336,41.45033 c 0,0 97.78026,97.78027 2.12565,203.00034 z"
       id="path4281"
       inkscape:connector-curvature="0"
       sodipodi:nodetypes="csccc" />
  </g>
  <g
     inkscape:groupmode="layer"
     id="layer2"
     inkscape:label="text"
     style="display:inline">
    <flowRoot
       xml:space="preserve"
       id="flowRoot2987"
       style="font-style:normal;font-variant:normal;font-weight:normal;font-stretch:normal;font-size:12px;line-height:125%;font-family:Arial;-inkscape-font-specification:Arial;letter-spacing:0px;word-spacing:0px;fill:#000000;fill-opacity:1;stroke:none"
       transform="matrix(0.90141682,0,0,0.98994497,558.9489,138.86978)"><flowRegion
         id="flowRegion2989"><rect
           id="rect2991"
           width="1737.4337"
           height="1241.702"
           x="-141.0901"
           y="266.68515" /></flowRegion><flowPara
         id="flowPara2993"
         style="font-style:normal;font-variant:normal;font-weight:normal;font-stretch:normal;font-size:48px;line-height:125%;font-family:Lavi;-inkscape-font-specification:Lavi;text-align:center;text-anchor:middle">Алексей, 獨孤欣, Albert Westra, Alejandro Flores Prieto, Alex Lusco,</flowPara><flowPara
         id="flowPara2995"
         style="font-style:normal;font-variant:normal;font-weight:normal;font-stretch:normal;font-size:48px;line-height:125%;font-family:Lavi;-inkscape-font-specification:Lavi;text-align:center;text-anchor:middle">Alex Silver, Alex Vandiver, Alexander Sopicki, Andreas Rieger, Andrew,</flowPara><flowPara
         id="flowPara2997"
         style="font-style:normal;font-variant:normal;font-weight:normal;font-stretch:normal;font-size:48px;line-height:125%;font-family:Lavi;-inkscape-font-specification:Lavi;text-align:center;text-anchor:middle">Andrew Grady, Andrey Alekseenko, Anna Orlova, Antan Karmola, Antoine,</flowPara><flowPara
         id="flowPara2999"
         style="font-style:normal;font-variant:normal;font-weight:normal;font-stretch:normal;font-size:48px;line-height:125%;font-family:Lavi;-inkscape-font-specification:Lavi;text-align:center;text-anchor:middle">Aslak Kjølås-Sæverud, Axel Bordelon, Axel Philipsenburg, Ben Evans,</flowPara><flowPara
         id="flowPara3001"
         style="font-style:normal;font-variant:normal;font-weight:normal;font-stretch:normal;font-size:48px;line-height:125%;font-family:Lavi;-inkscape-font-specification:Lavi;text-align:center;text-anchor:middle">Boonsak Watanavisit, Boudewijn Rempt, carlos levischi, Charlotte Lacombe-bar, Chris Sakkas, Christophe Carré, Clara Dexter, Colby Driedger,</flowPara><flowPara
         id="flowPara3003"
         style="font-style:normal;font-variant:normal;font-weight:normal;font-stretch:normal;font-size:48px;line-height:125%;font-family:Lavi;-inkscape-font-specification:Lavi;text-align:center;text-anchor:middle">Conway Scott Smith, Dmitry, Eitan Goldshtrom, Enrico Billich,</flowPara><flowPara
         id="flowPara3005"
         style="font-style:normal;font-variant:normal;font-weight:normal;font-stretch:normal;font-size:48px;line-height:125%;font-family:Lavi;-inkscape-font-specification:Lavi;text-align:center;text-anchor:middle">-epsilon-, Garret Patterson, Gustav Strömbom, Guy Davis,</flowPara><flowPara
         id="flowPara3007"
         style="font-style:normal;font-variant:normal;font-weight:normal;font-stretch:normal;font-size:48px;line-height:125%;font-family:Lavi;-inkscape-font-specification:Lavi;text-align:center;text-anchor:middle">Helmar Suschka, Ilyas Akhmedov, Inga Huang, Irene C.,</flowPara><flowPara
         id="flowPara3009"
         style="font-style:normal;font-variant:normal;font-weight:normal;font-stretch:normal;font-size:48px;line-height:125%;font-family:Lavi;-inkscape-font-specification:Lavi;text-align:center;text-anchor:middle">Jean-Baptiste Hebbrecht, JEM, Jessey Wright, John, Jónatan Nilsson,</flowPara><flowPara
         id="flowPara3011"
         style="font-style:normal;font-variant:normal;font-weight:normal;font-stretch:normal;font-size:48px;line-height:125%;font-family:Lavi;-inkscape-font-specification:Lavi;text-align:center;text-anchor:middle">Joseph Bowman, Juanjo Fernández Monreal, Jurgo van den Elzen,</flowPara><flowPara
         id="flowPara3013"
         style="font-style:normal;font-variant:normal;font-weight:normal;font-stretch:normal;font-size:48px;line-height:125%;font-family:Lavi;-inkscape-font-specification:Lavi;text-align:center;text-anchor:middle">Kai-Ting (Danil) Ko, Kasper Hansen, Kathryn Wuerstl, Ken Mingyuan Xia,</flowPara><flowPara
         id="flowPara3015"
         style="font-style:normal;font-variant:normal;font-weight:normal;font-stretch:normal;font-size:48px;line-height:125%;font-family:Lavi;-inkscape-font-specification:Lavi;text-align:center;text-anchor:middle">Liselle, Lorentz Grip, MacCoy, Mandy, Martin Owens, Maurice-Marie Stromer,</flowPara><flowPara
         id="flowPara3017"
         style="font-style:normal;font-variant:normal;font-weight:normal;font-stretch:normal;font-size:48px;line-height:125%;font-family:Lavi;-inkscape-font-specification:Lavi;text-align:center;text-anchor:middle">Mauricio Vega, mefflin ross bullis-bates, Michelle Pereira Garcia,</flowPara><flowPara
         id="flowPara3019"
         style="font-style:normal;font-variant:normal;font-weight:normal;font-stretch:normal;font-size:48px;line-height:125%;font-family:Lavi;-inkscape-font-specification:Lavi;text-align:center;text-anchor:middle">Morten Hellesø Johansen, Nazhif, Nicki Aya, Nicolae Berbece, Nicole Heersema,</flowPara><flowPara
         id="flowPara3021"
         style="font-style:normal;font-variant:normal;font-weight:normal;font-stretch:normal;font-size:48px;line-height:125%;font-family:Lavi;-inkscape-font-specification:Lavi;text-align:center;text-anchor:middle">No Reward, Noah Summers, Noble Hays, Olivier Amrein, Olivier Brun,</flowPara><flowPara
         id="flowPara3023"
         style="font-style:normal;font-variant:normal;font-weight:normal;font-stretch:normal;font-size:48px;line-height:125%;font-family:Lavi;-inkscape-font-specification:Lavi;text-align:center;text-anchor:middle">Oscar Moreno, Pavel Semenov, Peter Moonen, Pierre Vuillemin, Ret Samys,</flowPara><flowPara
         id="flowPara3025"
         style="font-style:normal;font-variant:normal;font-weight:normal;font-stretch:normal;font-size:48px;line-height:125%;font-family:Lavi;-inkscape-font-specification:Lavi;text-align:center;text-anchor:middle">Reuben Tracey, Rustin Simons, Sami T, Sean Adams, Shadefalcon,</flowPara></flowRoot>
    <flowRoot
       xml:space="preserve"
       id="flowRoot3027"
       style="font-style:normal;font-variant:normal;font-weight:normal;font-stretch:normal;font-size:12px;line-height:15px;font-family:Arial;-inkscape-font-specification:Arial;text-align:center;letter-spacing:0px;word-spacing:0px;text-anchor:middle;fill:#000000;fill-opacity:1;stroke:none"
       transform="matrix(1.0349778,0,0,1.0951395,-54.115187,-18.076558)"><flowRegion
         id="flowRegion3029"
         style="line-height:15px"><rect
           id="rect3031"
           width="2227.2996"
           height="98.335526"
           x="135.21135"
           y="219.33444"
           style="line-height:15px;text-align:center;text-anchor:middle" /></flowRegion><flowPara
         id="flowPara3033" /><flowPara
         id="flowPara3035"
         style="font-style:normal;font-variant:normal;font-weight:normal;font-stretch:normal;font-size:48px;line-height:46.9645px;font-family:Lavi;-inkscape-font-specification:Lavi;text-align:center;text-anchor:middle">Tiu ĉi ĉapitro ne ekzistus sen la subteno de miaj 93 mecenatoj</flowPara></flowRoot>
    <flowRoot
       xml:space="preserve"
       id="flowRoot3027-8"
       style="font-style:normal;font-variant:normal;font-weight:normal;font-stretch:normal;font-size:12px;line-height:125%;font-family:Arial;-inkscape-font-specification:Arial;text-align:center;letter-spacing:0px;word-spacing:0px;text-anchor:middle;fill:#000000;fill-opacity:1;stroke:none"
       transform="matrix(0.91226779,0,0,0.94129239,111.035,-105.61399)"><flowRegion
         id="flowRegion3029-9"><rect
           id="rect3031-9"
           width="2224.9243"
           height="143.77408"
           x="135.21135"
           y="219.33444"
           style="text-align:center;text-anchor:middle" /></flowRegion><flowPara
         id="flowPara3033-3" /><flowPara
         id="flowPara3035-7"
         style="font-style:normal;font-variant:normal;font-weight:normal;font-stretch:normal;font-size:48px;line-height:125%;font-family:Lavi;-inkscape-font-specification:Lavi;text-align:center;text-anchor:middle">Tiu TTT-bildrakonto estas tute libera kaj malfermitkoda</flowPara><flowPara
         style="font-style:normal;font-variant:normal;font-weight:normal;font-stretch:normal;font-size:48px;line-height:125%;font-family:Lavi;-inkscape-font-specification:Lavi;text-align:center;text-anchor:middle"
         id="flowPara3067">(Permesilo Krea Komunaĵo Atribuite [CC BY 3.0] – alt-distingumaj dosieroj elŝuteblas)</flowPara></flowRoot>
    <flowRoot
       xml:space="preserve"
       id="flowRoot3027-8-8"
       style="font-style:normal;font-variant:normal;font-weight:normal;font-stretch:normal;font-size:12px;line-height:125%;font-family:Arial;-inkscape-font-specification:Arial;text-align:center;letter-spacing:0px;word-spacing:0px;text-anchor:middle;fill:#a72f14;fill-opacity:1;stroke:none"
       transform="matrix(1.1896535,0,0,1.2337535,-299.50592,12.571183)"><flowRegion
         id="flowRegion3029-9-3"><rect
           id="rect3031-9-1"
           width="2230.314"
           height="376.21677"
           x="135.21135"
           y="219.33444"
           style="text-align:center;text-anchor:middle;fill:#a72f14;fill-opacity:1" /></flowRegion><flowPara
         id="flowPara3033-3-0" /><flowPara
         style="font-style:normal;font-variant:normal;font-weight:normal;font-stretch:normal;font-size:48px;line-height:125.5%;font-family:Lavi;-inkscape-font-specification:Lavi;text-align:center;text-anchor:middle;fill:#a72f14;fill-opacity:1"
         id="flowPara3067-4">https://www.patreon.com/davidrevoy</flowPara></flowRoot>
    <flowRoot
       xml:space="preserve"
       id="flowRoot3027-8-8-2"
       style="font-style:normal;font-variant:normal;font-weight:normal;font-stretch:normal;font-size:12px;line-height:125%;font-family:Arial;-inkscape-font-specification:Arial;text-align:center;letter-spacing:0px;word-spacing:0px;text-anchor:middle;fill:#000000;fill-opacity:1;stroke:none"
       transform="matrix(0.91226779,0,0,0.92588081,65.216963,1308.1228)"><flowRegion
         id="flowRegion3029-9-3-5"><rect
           id="rect3031-9-1-6"
           width="2230.314"
           height="376.21677"
           x="135.21135"
           y="219.33444"
           style="text-align:center;text-anchor:middle" /></flowRegion><flowPara
         id="flowPara3033-3-0-2" /><flowPara
         style="font-style:normal;font-variant:normal;font-weight:normal;font-stretch:normal;font-size:48px;line-height:125.14%;font-family:Lavi;-inkscape-font-specification:Lavi;text-align:center;text-anchor:middle"
         id="flowPara3229">Specialan dankon al :</flowPara><flowPara
         style="font-style:normal;font-variant:normal;font-weight:normal;font-stretch:normal;font-size:48px;line-height:125.14%;font-family:Lavi;-inkscape-font-specification:Lavi;text-align:center;text-anchor:middle"
         id="flowPara3233">Amireeti, David Tschumperlé (G'MIC)  kaj al la tuta skipo de Krita !</flowPara><flowPara
         style="font-style:normal;font-variant:normal;font-weight:normal;font-stretch:normal;font-size:48px;line-height:125.14%;font-family:Lavi;-inkscape-font-specification:Lavi;text-align:center;text-anchor:middle"
         id="flowPara1623">Traduko : libre fan. Korekto : kaoseto, Rajzin, Tirifto.</flowPara><flowPara
         style="font-style:normal;font-variant:normal;font-weight:normal;font-stretch:normal;font-size:48px;line-height:125.14%;font-family:Lavi;-inkscape-font-specification:Lavi;text-align:center;text-anchor:middle"
         id="flowPara1629">Fasono : Navi, Tirifto.</flowPara><flowPara
         style="font-style:normal;font-variant:normal;font-weight:normal;font-stretch:normal;font-size:48px;line-height:125.14%;font-family:Lavi;-inkscape-font-specification:Lavi;text-align:center;text-anchor:middle"
         id="flowPara1627" /></flowRoot>
    <flowRoot
       xml:space="preserve"
       id="flowRoot3027-8-8-2-8"
       style="font-style:normal;font-variant:normal;font-weight:normal;font-stretch:normal;font-size:12px;line-height:125%;font-family:Arial;-inkscape-font-specification:Arial;text-align:center;letter-spacing:0px;word-spacing:0px;text-anchor:middle;fill:#000000;fill-opacity:1;stroke:none"
       transform="matrix(0.74146229,0,0,0.78743223,305.21556,1573.1779)"><flowRegion
         id="flowRegion3029-9-3-5-1"><rect
           id="rect3031-9-1-6-8"
           width="2230.314"
           height="376.21677"
           x="135.21135"
           y="219.33444"
           style="text-align:center;text-anchor:middle" /></flowRegion><flowPara
         id="flowPara3033-3-0-2-4" /><flowPara
         style="font-style:normal;font-variant:normal;font-weight:normal;font-stretch:normal;font-size:48px;line-height:124.2%;font-family:Lavi;-inkscape-font-specification:Lavi;text-align:center;text-anchor:middle"
         id="flowPara3231-9">Mi faris tiun ĉi ĉapitron per 100%-e liberaj kaj malfermitkodaj iloj</flowPara><flowPara
         style="font-style:normal;font-variant:normal;font-weight:normal;font-stretch:normal;font-size:48px;line-height:124.2%;font-family:Lavi;-inkscape-font-specification:Lavi;text-align:center;text-anchor:middle"
         id="flowPara3279">Krita kaj G'MIC en Xubuntu (GNUo/Linukso)</flowPara><flowPara
         style="font-style:normal;font-variant:normal;font-weight:normal;font-stretch:normal;font-size:48px;line-height:124.2%;font-family:Lavi;-inkscape-font-specification:Lavi;text-align:center;text-anchor:middle"
         id="flowPara3233-6" /></flowRoot>
    <flowRoot
       xml:space="preserve"
       id="flowRoot3027-8-8-2-8-2"
       style="font-style:normal;font-variant:normal;font-weight:normal;font-stretch:normal;font-size:12px;line-height:125%;font-family:Arial;-inkscape-font-specification:Arial;text-align:center;letter-spacing:0px;word-spacing:0px;text-anchor:middle;display:inline;fill:#000000;fill-opacity:1;stroke:none"
       transform="matrix(1.0543523,0,0,1.2586015,-41.247891,227.99763)"><flowRegion
         id="flowRegion3029-9-3-5-1-8"
         style="line-height:125%"><rect
           id="rect3031-9-1-6-8-6"
           width="335.19684"
           height="81.528976"
           x="135.21135"
           y="219.33444"
           style="line-height:125%;text-align:center;text-anchor:middle" /></flowRegion><flowPara
         style="font-style:normal;font-variant:normal;font-weight:normal;font-stretch:normal;font-size:48px;line-height:125%;font-family:Lavi;-inkscape-font-specification:Lavi;text-align:center;text-anchor:middle"
         id="flowPara3233-6-1">Dankon al vi !</flowPara></flowRoot>
  </g>
</svg>
