<?xml version="1.0" encoding="UTF-8" standalone="no"?>
<!-- Created with Inkscape (http://www.inkscape.org/) -->

<svg
   xmlns:osb="http://www.openswatchbook.org/uri/2009/osb"
   xmlns:dc="http://purl.org/dc/elements/1.1/"
   xmlns:cc="http://creativecommons.org/ns#"
   xmlns:rdf="http://www.w3.org/1999/02/22-rdf-syntax-ns#"
   xmlns:svg="http://www.w3.org/2000/svg"
   xmlns="http://www.w3.org/2000/svg"
   xmlns:xlink="http://www.w3.org/1999/xlink"
   xmlns:sodipodi="http://sodipodi.sourceforge.net/DTD/sodipodi-0.dtd"
   xmlns:inkscape="http://www.inkscape.org/namespaces/inkscape"
   id="svg2"
   version="1.1"
   inkscape:version="0.92.4 5da689c313, 2019-01-14"
   width="2481"
   height="3503"
   sodipodi:docname="E03P03.svg"
   enable-background="new">
  <metadata
     id="metadata8">
    <rdf:RDF>
      <cc:Work
         rdf:about="">
        <dc:format>image/svg+xml</dc:format>
        <dc:type
           rdf:resource="http://purl.org/dc/dcmitype/StillImage" />
        <dc:title />
      </cc:Work>
    </rdf:RDF>
  </metadata>
  <defs
     id="defs6">
    <linearGradient
       id="linearGradient5427">
      <stop
         style="stop-color:#ad5d0f;stop-opacity:1;"
         offset="0"
         id="stop5429" />
      <stop
         id="stop5437"
         offset="0.25"
         style="stop-color:#84470b;stop-opacity:1;" />
      <stop
         id="stop5435"
         offset="0.5"
         style="stop-color:#8a4a0c;stop-opacity:1;" />
      <stop
         style="stop-color:#7a420b;stop-opacity:1;"
         offset="1"
         id="stop5431" />
    </linearGradient>
    <linearGradient
       id="linearGradient5350"
       osb:paint="solid">
      <stop
         style="stop-color:#9a530e;stop-opacity:1;"
         offset="0"
         id="stop5352" />
    </linearGradient>
    <linearGradient
       inkscape:collect="always"
       xlink:href="#linearGradient5427"
       id="linearGradient5433"
       x1="618.94147"
       y1="2316.8098"
       x2="1024.5358"
       y2="1619.6255"
       gradientUnits="userSpaceOnUse" />
    <linearGradient
       inkscape:collect="always"
       xlink:href="#linearGradient5427"
       id="linearGradient5443"
       gradientUnits="userSpaceOnUse"
       x1="618.94147"
       y1="2316.8098"
       x2="1024.5358"
       y2="1619.6255" />
    <linearGradient
       inkscape:collect="always"
       xlink:href="#linearGradient5427"
       id="linearGradient5445"
       gradientUnits="userSpaceOnUse"
       x1="618.94147"
       y1="2316.8098"
       x2="1024.5358"
       y2="1619.6255" />
    <linearGradient
       inkscape:collect="always"
       xlink:href="#linearGradient5427"
       id="linearGradient5447"
       gradientUnits="userSpaceOnUse"
       x1="618.94147"
       y1="2316.8098"
       x2="1024.5358"
       y2="1619.6255" />
    <linearGradient
       inkscape:collect="always"
       xlink:href="#linearGradient5427"
       id="linearGradient5449"
       gradientUnits="userSpaceOnUse"
       x1="618.94147"
       y1="2316.8098"
       x2="1024.5358"
       y2="1619.6255" />
    <linearGradient
       inkscape:collect="always"
       xlink:href="#linearGradient5427"
       id="linearGradient5451"
       gradientUnits="userSpaceOnUse"
       x1="618.94147"
       y1="2316.8098"
       x2="1024.5358"
       y2="1619.6255" />
    <linearGradient
       inkscape:collect="always"
       xlink:href="#linearGradient5427"
       id="linearGradient5453"
       gradientUnits="userSpaceOnUse"
       x1="618.94147"
       y1="2316.8098"
       x2="1024.5358"
       y2="1619.6255" />
    <linearGradient
       inkscape:collect="always"
       xlink:href="#linearGradient5427"
       id="linearGradient5455"
       gradientUnits="userSpaceOnUse"
       x1="618.94147"
       y1="2316.8098"
       x2="1024.5358"
       y2="1619.6255" />
    <linearGradient
       inkscape:collect="always"
       xlink:href="#linearGradient5427"
       id="linearGradient5457"
       gradientUnits="userSpaceOnUse"
       x1="618.94147"
       y1="2316.8098"
       x2="1024.5358"
       y2="1619.6255" />
    <linearGradient
       id="linearGradient5427-1">
      <stop
         style="stop-color:#ad5d0f;stop-opacity:1;"
         offset="0"
         id="stop5429-2" />
      <stop
         id="stop5437-1"
         offset="0.25"
         style="stop-color:#84470b;stop-opacity:1;" />
      <stop
         id="stop5435-6"
         offset="0.5"
         style="stop-color:#8a4a0c;stop-opacity:1;" />
      <stop
         style="stop-color:#7a420b;stop-opacity:1;"
         offset="1"
         id="stop5431-8" />
    </linearGradient>
    <linearGradient
       inkscape:collect="always"
       xlink:href="#linearGradient5427-1"
       id="linearGradient5443-3"
       gradientUnits="userSpaceOnUse"
       x1="618.94147"
       y1="2316.8098"
       x2="1024.5358"
       y2="1619.6255" />
    <linearGradient
       inkscape:collect="always"
       xlink:href="#linearGradient5427-1"
       id="linearGradient5445-2"
       gradientUnits="userSpaceOnUse"
       x1="618.94147"
       y1="2316.8098"
       x2="1024.5358"
       y2="1619.6255" />
    <linearGradient
       inkscape:collect="always"
       xlink:href="#linearGradient5427-1"
       id="linearGradient5449-7"
       gradientUnits="userSpaceOnUse"
       x1="618.94147"
       y1="2316.8098"
       x2="1024.5358"
       y2="1619.6255" />
    <linearGradient
       inkscape:collect="always"
       xlink:href="#linearGradient5427-1"
       id="linearGradient5451-9"
       gradientUnits="userSpaceOnUse"
       x1="618.94147"
       y1="2316.8098"
       x2="1024.5358"
       y2="1619.6255" />
    <linearGradient
       inkscape:collect="always"
       xlink:href="#linearGradient5427-1"
       id="linearGradient5455-2"
       gradientUnits="userSpaceOnUse"
       x1="618.94147"
       y1="2316.8098"
       x2="1024.5358"
       y2="1619.6255" />
    <linearGradient
       inkscape:collect="always"
       xlink:href="#linearGradient5427-1"
       id="linearGradient5457-0"
       gradientUnits="userSpaceOnUse"
       x1="618.94147"
       y1="2316.8098"
       x2="1024.5358"
       y2="1619.6255" />
    <linearGradient
       y2="1619.6255"
       x2="1024.5358"
       y1="2316.8098"
       x1="618.94147"
       gradientUnits="userSpaceOnUse"
       id="linearGradient5608"
       xlink:href="#linearGradient5427-1"
       inkscape:collect="always" />
    <linearGradient
       y2="1619.6255"
       x2="1024.5358"
       y1="2316.8098"
       x1="618.94147"
       gradientUnits="userSpaceOnUse"
       id="linearGradient5608-2"
       xlink:href="#linearGradient5427-1-2"
       inkscape:collect="always" />
    <linearGradient
       id="linearGradient5427-1-2">
      <stop
         style="stop-color:#ad5d0f;stop-opacity:1;"
         offset="0"
         id="stop5429-2-5" />
      <stop
         id="stop5437-1-2"
         offset="0.25"
         style="stop-color:#84470b;stop-opacity:1;" />
      <stop
         id="stop5435-6-0"
         offset="0.5"
         style="stop-color:#8a4a0c;stop-opacity:1;" />
      <stop
         style="stop-color:#7a420b;stop-opacity:1;"
         offset="1"
         id="stop5431-8-6" />
    </linearGradient>
    <linearGradient
       inkscape:collect="always"
       xlink:href="#linearGradient5427-1-2"
       id="linearGradient5441"
       gradientUnits="userSpaceOnUse"
       x1="618.94147"
       y1="2316.8098"
       x2="1024.5358"
       y2="1619.6255" />
    <linearGradient
       id="linearGradient3064">
      <stop
         style="stop-color:#ad5d0f;stop-opacity:1;"
         offset="0"
         id="stop3066" />
      <stop
         id="stop3068"
         offset="0.25"
         style="stop-color:#84470b;stop-opacity:1;" />
      <stop
         id="stop3070"
         offset="0.5"
         style="stop-color:#8a4a0c;stop-opacity:1;" />
      <stop
         style="stop-color:#7a420b;stop-opacity:1;"
         offset="1"
         id="stop3072" />
    </linearGradient>
    <linearGradient
       id="linearGradient3075">
      <stop
         style="stop-color:#ad5d0f;stop-opacity:1;"
         offset="0"
         id="stop3077" />
      <stop
         id="stop3079"
         offset="0.25"
         style="stop-color:#84470b;stop-opacity:1;" />
      <stop
         id="stop3081"
         offset="0.5"
         style="stop-color:#8a4a0c;stop-opacity:1;" />
      <stop
         style="stop-color:#7a420b;stop-opacity:1;"
         offset="1"
         id="stop3083" />
    </linearGradient>
    <linearGradient
       inkscape:collect="always"
       xlink:href="#linearGradient5427-1-2"
       id="linearGradient5443-3-4"
       gradientUnits="userSpaceOnUse"
       x1="618.94147"
       y1="2316.8098"
       x2="1024.5358"
       y2="1619.6255" />
    <linearGradient
       id="linearGradient3086">
      <stop
         style="stop-color:#ad5d0f;stop-opacity:1;"
         offset="0"
         id="stop3088" />
      <stop
         id="stop3090"
         offset="0.25"
         style="stop-color:#84470b;stop-opacity:1;" />
      <stop
         id="stop3092"
         offset="0.5"
         style="stop-color:#8a4a0c;stop-opacity:1;" />
      <stop
         style="stop-color:#7a420b;stop-opacity:1;"
         offset="1"
         id="stop3094" />
    </linearGradient>
    <linearGradient
       id="linearGradient3097">
      <stop
         style="stop-color:#ad5d0f;stop-opacity:1;"
         offset="0"
         id="stop3099" />
      <stop
         id="stop3101"
         offset="0.25"
         style="stop-color:#84470b;stop-opacity:1;" />
      <stop
         id="stop3103"
         offset="0.5"
         style="stop-color:#8a4a0c;stop-opacity:1;" />
      <stop
         style="stop-color:#7a420b;stop-opacity:1;"
         offset="1"
         id="stop3105" />
    </linearGradient>
    <linearGradient
       id="linearGradient3108">
      <stop
         style="stop-color:#ad5d0f;stop-opacity:1;"
         offset="0"
         id="stop3110" />
      <stop
         id="stop3112"
         offset="0.25"
         style="stop-color:#84470b;stop-opacity:1;" />
      <stop
         id="stop3114"
         offset="0.5"
         style="stop-color:#8a4a0c;stop-opacity:1;" />
      <stop
         style="stop-color:#7a420b;stop-opacity:1;"
         offset="1"
         id="stop3116" />
    </linearGradient>
    <linearGradient
       id="linearGradient3119">
      <stop
         style="stop-color:#ad5d0f;stop-opacity:1;"
         offset="0"
         id="stop3121" />
      <stop
         id="stop3123"
         offset="0.25"
         style="stop-color:#84470b;stop-opacity:1;" />
      <stop
         id="stop3125"
         offset="0.5"
         style="stop-color:#8a4a0c;stop-opacity:1;" />
      <stop
         style="stop-color:#7a420b;stop-opacity:1;"
         offset="1"
         id="stop3127" />
    </linearGradient>
    <linearGradient
       inkscape:collect="always"
       xlink:href="#linearGradient5427-1-2"
       id="linearGradient5451-9-2"
       gradientUnits="userSpaceOnUse"
       x1="618.94147"
       y1="2316.8098"
       x2="1024.5358"
       y2="1619.6255" />
    <linearGradient
       id="linearGradient3130">
      <stop
         style="stop-color:#ad5d0f;stop-opacity:1;"
         offset="0"
         id="stop3132" />
      <stop
         id="stop3134"
         offset="0.25"
         style="stop-color:#84470b;stop-opacity:1;" />
      <stop
         id="stop3136"
         offset="0.5"
         style="stop-color:#8a4a0c;stop-opacity:1;" />
      <stop
         style="stop-color:#7a420b;stop-opacity:1;"
         offset="1"
         id="stop3138" />
    </linearGradient>
    <linearGradient
       id="linearGradient3141">
      <stop
         style="stop-color:#ad5d0f;stop-opacity:1;"
         offset="0"
         id="stop3143" />
      <stop
         id="stop3145"
         offset="0.25"
         style="stop-color:#84470b;stop-opacity:1;" />
      <stop
         id="stop3147"
         offset="0.5"
         style="stop-color:#8a4a0c;stop-opacity:1;" />
      <stop
         style="stop-color:#7a420b;stop-opacity:1;"
         offset="1"
         id="stop3149" />
    </linearGradient>
    <linearGradient
       id="linearGradient3152">
      <stop
         style="stop-color:#ad5d0f;stop-opacity:1;"
         offset="0"
         id="stop3154" />
      <stop
         id="stop3156"
         offset="0.25"
         style="stop-color:#84470b;stop-opacity:1;" />
      <stop
         id="stop3158"
         offset="0.5"
         style="stop-color:#8a4a0c;stop-opacity:1;" />
      <stop
         style="stop-color:#7a420b;stop-opacity:1;"
         offset="1"
         id="stop3160" />
    </linearGradient>
    <linearGradient
       id="linearGradient3163">
      <stop
         style="stop-color:#ad5d0f;stop-opacity:1;"
         offset="0"
         id="stop3165" />
      <stop
         id="stop3167"
         offset="0.25"
         style="stop-color:#84470b;stop-opacity:1;" />
      <stop
         id="stop3169"
         offset="0.5"
         style="stop-color:#8a4a0c;stop-opacity:1;" />
      <stop
         style="stop-color:#7a420b;stop-opacity:1;"
         offset="1"
         id="stop3171" />
    </linearGradient>
    <filter
       inkscape:collect="always"
       id="filter3347">
      <feBlend
         inkscape:collect="always"
         mode="multiply"
         in2="BackgroundImage"
         id="feBlend3349" />
    </filter>
    <linearGradient
       inkscape:collect="always"
       xlink:href="#linearGradient5427-1-2"
       id="linearGradient3375"
       gradientUnits="userSpaceOnUse"
       x1="618.94147"
       y1="2316.8098"
       x2="1024.5358"
       y2="1619.6255" />
    <linearGradient
       inkscape:collect="always"
       xlink:href="#linearGradient5427-1-2"
       id="linearGradient3419"
       gradientUnits="userSpaceOnUse"
       x1="618.94147"
       y1="2316.8098"
       x2="1024.5358"
       y2="1619.6255" />
    <linearGradient
       inkscape:collect="always"
       xlink:href="#linearGradient5427-1-2"
       id="linearGradient3457"
       gradientUnits="userSpaceOnUse"
       x1="618.94147"
       y1="2316.8098"
       x2="1024.5358"
       y2="1619.6255" />
  </defs>
  <sodipodi:namedview
     pagecolor="#ffffff"
     bordercolor="#666666"
     borderopacity="1"
     objecttolerance="10"
     gridtolerance="10"
     guidetolerance="10"
     inkscape:pageopacity="0"
     inkscape:pageshadow="2"
     inkscape:window-width="1920"
     inkscape:window-height="1043"
     id="namedview4"
     showgrid="false"
     inkscape:zoom="0.54787938"
     inkscape:cx="1056.4715"
     inkscape:cy="212.13289"
     inkscape:window-x="1920"
     inkscape:window-y="22"
     inkscape:window-maximized="1"
     inkscape:current-layer="layer1" />
  <g
     inkscape:groupmode="layer"
     id="layer2"
     inkscape:label="artwork"
     sodipodi:insensitive="true">
    <image
       sodipodi:absref="/home/tirifto/Développement/Pepper &amp; Carrot/webcomics/ep03_The-secret-ingredients/lang/eo/../gfx_Pepper-and-Carrot_by-David-Revoy_E03P03.png"
       xlink:href="../gfx_Pepper-and-Carrot_by-David-Revoy_E03P03.png"
       y="0"
       x="0"
       id="image10"
       height="3503"
       width="2481" />
    <flowRoot
       xml:space="preserve"
       id="flowRoot5790"
       style="font-style:normal;font-variant:normal;font-weight:normal;font-stretch:normal;line-height:0.01%;font-family:Lavi;-inkscape-font-specification:Lavi;letter-spacing:0px;word-spacing:0px;fill:#000000;fill-opacity:1;stroke:none"><flowRegion
         id="flowRegion5792"><rect
           id="rect5794"
           width="698.64941"
           height="222.5463"
           x="1276.9049"
           y="2673.0117"
           style="font-style:normal;font-variant:normal;font-weight:normal;font-stretch:normal;font-size:48px;font-family:Lavi;-inkscape-font-specification:Lavi" /></flowRegion><flowPara
         id="flowPara5796"
         style="font-size:48px;line-height:1.25"> </flowPara></flowRoot>  </g>
  <g
     inkscape:groupmode="layer"
     id="layer3"
     inkscape:label="speechbubbles">
    <path
       style="fill:#ffffff;fill-opacity:1;stroke:none;stroke-width:0.87619746px;stroke-linecap:butt;stroke-linejoin:miter;stroke-opacity:1"
       d="m 1287.6676,3046.7196 c 19.9397,7.4754 27.6089,14.4168 24.0299,18.6885 8.1805,2.1357 11.2481,57.667 3.579,67.8121 -0.5114,1.0679 -4.0902,4.2717 -2.5565,4.8056 1.5339,0.5339 10.7369,-1.0679 12.2708,1.0679 1.5337,2.1358 -13.8045,32.5712 -11.7595,33.6391 2.0452,1.0679 49.0826,-19.2224 55.7292,-14.4167 6.6466,4.8055 3.0676,17.0864 5.1127,17.6205 2.0451,0.5339 20.9623,-2.6698 23.5187,-2.1359 2.5565,0.534 7.1579,16.5525 9.7143,17.0866 2.5564,0.5339 14.3157,-6.9415 16.3609,-6.4075 2.0451,0.534 1.0224,13.8828 3.5788,14.4167 2.5564,0.534 13.8045,-11.2129 15.3384,-10.679 1.5338,0.5339 7.1578,27.2316 9.7142,28.8335 2.5564,1.6019 18.9172,-29.3674 20.451,-29.9015 1.534,-0.5339 11.2481,36.3089 13.2933,36.8429 2.0451,0.534 12.2706,-25.0959 13.8045,-24.5619 1.5338,0.534 11.2481,15.4847 13.2931,16.5526 2.0452,1.0679 15.3383,-33.1052 17.3833,-33.1052 2.0452,0 19.4286,14.4168 20.9624,17.0866 1.5338,2.6698 3.0677,-13.8828 5.1128,-13.8828 2.0451,0 25.5638,9.6111 26.0751,9.0772 0.5113,-0.534 -3.579,-10.6791 -2.0451,-10.6791 1.5338,0 25.5638,13.3489 26.5864,10.6791 1.0225,-2.6698 52.1501,13.3488 55.7291,11.213 3.579,-2.1358 -23.0074,-43.7842 -20.4511,-46.988 2.5564,-3.2037 11.7594,0.534 12.2706,-1.0678 0.5114,-1.6019 -5.624,-8.5433 -4.0901,-10.6792 1.5338,-2.1358 18.9172,-10.679 20.451,-13.3488 1.5338,-2.6697 -7.6691,-9.6112 -5.6241,-11.213 2.0452,-1.6019 32.2105,-11.747 32.7217,-14.4168 0.5114,-2.6698 -15.3382,-15.4847 -13.2931,-19.2223 2.045,-3.7378 7.6691,-5.3396 7.1579,-8.0093 -0.5113,-2.6698 -10.2256,-5.8735 -9.7143,-8.5433 0.5113,-2.6698 5.624,-16.0186 7.1579,-18.1545 1.5337,-2.1358 -10.7368,-1.0678 -10.7368,-3.2037 0,-2.1358 44.9923,-59.2689 43.9697,-75.2875 -15.8496,10.1451 -70.0448,28.2995 -86.917,24.0279 -16.8721,-4.2716 -10.2254,-30.9693 -12.7818,-32.5712 -2.5564,-1.6019 -21.4737,9.0772 -24.0301,5.3396 -2.5564,-3.7377 -3.5789,-10.6791 -5.624,-10.6791 -2.0451,0 -13.8045,14.9507 -16.3608,14.4167 -2.5564,-0.5339 -26.5864,-24.0279 -30.1654,-24.5618 -3.5789,-0.534 -17.3833,9.0772 -20.4509,9.6111 -3.0678,0.534 -5.6241,-12.8148 -8.1805,-11.747 -2.5564,1.0679 -18.9173,10.6792 -21.4736,9.6112 -2.5564,-1.0679 -4.6015,-5.3395 -6.6466,-4.2716 -2.0451,1.0679 -11.2481,5.3396 -11.2481,5.3396 0,0 -6.6466,-3.2038 -9.7142,-3.2038 -3.0677,0 -24.03,17.6204 -26.5864,18.6884 -2.5564,1.0679 -24.5413,-40.5805 -23.0074,-43.7843 1.5338,-3.2037 -23.0075,44.3182 -26.5865,45.9202 -3.5789,1.6018 -14.3157,-3.2039 -15.3382,-1.602 -1.0226,1.602 -4.0902,10.1451 -7.1579,10.6792 -3.0677,0.5339 -10.2255,2.6697 -10.2255,2.6697 l 1.0225,3.2038 c 0,0 -21.4736,-8.5433 -24.03,-11.747 -2.5563,-3.2037 1.5339,13.8827 3.0677,18.1544 -9.203,-4.2717 -36.3006,-13.3489 -38.3457,-16.0187 -2.0451,-2.6698 3.5789,9.6113 6.6466,13.3489 -4.0903,-1.6019 -7.6692,-2.1358 -7.6692,-2.1358 l 11.7593,12.8149 -3.5789,1.0679 c 0,0 7.6692,5.8735 7.6692,8.5433 0,2.6697 -19.9397,5.8735 -19.9397,5.8735 0,0 8.1804,4.8055 6.1352,7.4753 -2.0451,2.6698 -7.1579,4.2716 -7.1579,4.2716 l -1.0225,6.9415 z"
       id="path5888"
       inkscape:connector-curvature="0" />
    <path
       style="color:#000000;display:inline;overflow:visible;visibility:visible;fill:#ffffff;fill-opacity:1;fill-rule:nonzero;stroke:none;stroke-width:1px;marker:none;enable-background:accumulate"
       d="m 1323.514,3083.1554 c -23.8527,25.0454 -75.7324,71.5582 -90.044,77.5213 -14.908,-23.2564 -51.2833,-56.0538 -55.4576,-53.0723 -4.1742,2.9816 -42.3385,78.1177 -50.0907,77.5214 -7.7521,-0.5964 -32.2011,-11.3301 -39.3569,-19.0822 23.2564,20.2748 42.3385,33.9901 53.6686,31.6048 7.7521,-1.1926 36.9717,-60.2281 38.7606,-64.4023 18.4859,15.5043 53.0723,51.2834 62.0171,54.265 11.33,-4.1742 54.8612,-20.2749 98.3924,-59.0355 43.5312,-38.7607 -17.8895,-45.3202 -17.8895,-45.3202 z"
       id="path5901"
       inkscape:connector-curvature="0"
       sodipodi:nodetypes="ccccccccsc" />
    <path
       style="color:#000000;display:inline;overflow:visible;visibility:visible;fill:#ffffff;fill-opacity:1;fill-rule:nonzero;stroke:none;stroke-width:1.04269278px;stroke-linecap:butt;stroke-linejoin:miter;stroke-opacity:1;marker:none;enable-background:accumulate"
       d="m 1294.1424,2775.2979 c 8.6749,-48.8721 41.0088,-78.0239 59.1473,-88.3128 18.1385,-10.2889 227.9142,-22.2925 273.6547,-24.0074 45.7406,-1.7147 178.2305,-2.5722 235.8005,27.437 57.57,30.0093 78.863,70.3073 79.6517,93.4572 0.7886,23.1499 -20.5044,84.8832 -129.3354,103.7461 -108.831,18.863 -221.6052,16.2907 -263.4026,12.861 -41.7974,-3.4296 -170.3441,-6.0018 -209.7756,-46.2998 -39.4316,-40.298 -44.952,-49.7296 -45.7406,-78.8813 z"
       id="path5909"
       inkscape:connector-curvature="0" />
    <path
       style="color:#000000;fill:#ffffff;fill-opacity:1;fill-rule:nonzero;stroke:none;stroke-width:1px;marker:none;visibility:visible;display:inline;overflow:visible;enable-background:accumulate"
       d="m 1534.3348,2988.0244 c 9.2065,-24.4476 30.9671,-78.8631 20.0868,-113.5628 -10.8803,-34.6997 26.7822,-22.0816 26.7822,-22.0816 0,0 -2.5108,-7.0977 -0.8369,16.5612 1.6739,23.6589 -9.2064,100.9447 -38.4995,122.2377 -29.2931,21.2931 -7.5326,-3.1545 -7.5326,-3.1545 z"
       id="path5917"
       inkscape:connector-curvature="0"
       sodipodi:nodetypes="cscssc" />
  </g>
  <g
     inkscape:groupmode="layer"
     id="layer1"
     inkscape:label="txt">
    <flowRoot
       xml:space="preserve"
       id="flowRoot5798"
       style="font-style:normal;font-variant:normal;font-weight:normal;font-stretch:normal;line-height:0.01%;font-family:Arial;-inkscape-font-specification:Arial;letter-spacing:0px;word-spacing:0px;fill:#000000;fill-opacity:1;stroke:none"
       transform="translate(-43.182778,29.364249)"><flowRegion
         id="flowRegion5800"><rect
           id="rect5802"
           width="729.65997"
           height="244.4361"
           x="1291.4982"
           y="2671.1877" /></flowRegion><flowPara
         style="font-style:normal;font-variant:normal;font-weight:normal;font-stretch:normal;font-size:48px;line-height:125%;font-family:Lavi;-inkscape-font-specification:Lavi;text-align:center;text-anchor:middle"
         id="flowPara5806">Kia bonŝanco ! Ankoraŭ</flowPara><flowPara
         style="font-style:normal;font-variant:normal;font-weight:normal;font-stretch:normal;font-size:48px;line-height:125%;font-family:Lavi;-inkscape-font-specification:Lavi;text-align:center;text-anchor:middle"
         id="flowPara146">restas tuta tago por</flowPara><flowPara
         style="font-style:normal;font-variant:normal;font-weight:normal;font-stretch:normal;font-size:48px;line-height:125%;font-family:Lavi;-inkscape-font-specification:Lavi;text-align:center;text-anchor:middle"
         id="flowPara148">prepariĝo !</flowPara></flowRoot>    <flowRoot
       xml:space="preserve"
       id="flowRoot5798-2"
       style="font-style:normal;font-variant:normal;font-weight:normal;font-stretch:normal;line-height:0.01%;font-family:Arial;-inkscape-font-specification:Arial;text-align:center;letter-spacing:0px;word-spacing:0px;text-anchor:middle;fill:#000000;fill-opacity:1;stroke:none"
       transform="matrix(1.2105727,0,0,1.3236545,-507.38691,-530.68298)"><flowRegion
         id="flowRegion5800-2"
         style="text-align:center;text-anchor:middle"><rect
           id="rect5802-6"
           width="729.65997"
           height="244.4361"
           x="1291.4982"
           y="2671.1877"
           style="text-align:center;text-anchor:middle" /></flowRegion><flowPara
         style="font-style:normal;font-variant:normal;font-weight:normal;font-stretch:normal;font-size:48px;line-height:125%;font-family:Lavi;-inkscape-font-specification:Lavi;text-align:center;text-anchor:middle"
         id="flowPara5840">Mi certe</flowPara><flowPara
         style="font-style:normal;font-variant:normal;font-weight:normal;font-stretch:normal;font-size:48px;line-height:125%;font-family:Lavi;-inkscape-font-specification:Lavi;text-align:center;text-anchor:middle"
         id="flowPara152">venkos !</flowPara></flowRoot>  </g>
  <g
     inkscape:groupmode="layer"
     id="layer4"
     inkscape:label="fx"
     style="filter:url(#filter3347);opacity:0.7265625">
    <flowRoot
       xml:space="preserve"
       id="flowRoot3755"
       style="font-style:normal;font-variant:normal;font-weight:normal;font-stretch:normal;line-height:0.01%;font-family:Arial;-inkscape-font-specification:Arial;text-align:center;letter-spacing:0px;word-spacing:0px;text-anchor:middle;opacity:1;fill:#ba894f;fill-opacity:1;stroke:#7b441d;stroke-width:3.74319696;stroke-miterlimit:4;stroke-dasharray:none;stroke-opacity:1"
       transform="matrix(0.88797489,-0.20088873,0.54864206,0.96172381,-955.36635,281.40431)"><flowRegion
         id="flowRegion3757"
         style="fill:url(#linearGradient5441);fill-opacity:1"><rect
           id="rect3759"
           width="943.26337"
           height="841.94098"
           x="296.72992"
           y="1655.0723"
           style="font-size:67.07809448px;text-align:center;text-anchor:middle;fill:#ba894f;fill-opacity:1;stroke:#7b441d;stroke-width:3.74319696;stroke-miterlimit:4;stroke-dasharray:none;stroke-opacity:1" /></flowRegion><flowPara
         id="flowPara3761"
         style="font-style:normal;font-variant:normal;font-weight:normal;font-stretch:normal;font-size:67.07809448px;line-height:1.25;font-family:Fondamento;-inkscape-font-specification:Fondamento;fill:#ba894f;fill-opacity:1;stroke:#7b441d;stroke-width:3.74319696;stroke-miterlimit:4;stroke-dasharray:none;stroke-opacity:1">Sorĉotrinkaĵa</flowPara><flowPara
         id="flowPara3775"
         style="font-style:normal;font-variant:normal;font-weight:normal;font-stretch:normal;font-size:67.07809448px;line-height:1.25;font-family:Fondamento;-inkscape-font-specification:Fondamento;fill:#ba894f;fill-opacity:1;stroke:#7b441d;stroke-width:3.74319696;stroke-miterlimit:4;stroke-dasharray:none;stroke-opacity:1">Konkurso<flowSpan
   style="font-size:50.10415268px"
   id="flowSpan142"> de </flowSpan>Komono</flowPara></flowRoot>    <flowRoot
       transform="matrix(0.76547659,-0.17732942,0.5679781,0.88706849,-717.38382,569.87048)"
       style="color:#000000;font-style:normal;font-variant:normal;font-weight:normal;font-stretch:normal;line-height:0.01%;font-family:Arial;-inkscape-font-specification:Arial;text-align:center;letter-spacing:0px;word-spacing:0px;text-anchor:middle;clip-rule:nonzero;display:inline;overflow:visible;visibility:visible;opacity:1;isolation:auto;mix-blend-mode:normal;color-interpolation:sRGB;color-interpolation-filters:linearRGB;solid-color:#000000;solid-opacity:1;fill:#ba894f;fill-opacity:1;fill-rule:nonzero;stroke:#7b441d;stroke-width:4.78367996;stroke-linecap:butt;stroke-linejoin:miter;stroke-miterlimit:4;stroke-dasharray:none;stroke-dashoffset:0;stroke-opacity:1;color-rendering:auto;image-rendering:auto;shape-rendering:auto;text-rendering:auto;enable-background:accumulate"
       id="flowRoot3351"
       xml:space="preserve"><flowRegion
         style="fill:url(#linearGradient3375);fill-opacity:1"
         id="flowRegion3353"><rect
           style="color:#000000;font-size:67.07809448px;text-align:center;text-anchor:middle;clip-rule:nonzero;display:inline;overflow:visible;visibility:visible;isolation:auto;mix-blend-mode:normal;color-interpolation:sRGB;color-interpolation-filters:linearRGB;solid-color:#000000;solid-opacity:1;fill:#ba894f;fill-opacity:1;fill-rule:nonzero;stroke:#7b441d;stroke-width:4.78367996;stroke-linecap:butt;stroke-linejoin:miter;stroke-miterlimit:4;stroke-dasharray:none;stroke-dashoffset:0;stroke-opacity:1;color-rendering:auto;image-rendering:auto;shape-rendering:auto;text-rendering:auto;enable-background:accumulate"
           y="1655.0723"
           x="296.72992"
           height="779.58618"
           width="743.04053"
           id="rect3355" /></flowRegion><flowPara
         style="color:#000000;font-style:normal;font-variant:normal;font-weight:normal;font-stretch:normal;font-size:60.39781189px;line-height:1.25;font-family:Fondamento;-inkscape-font-specification:Fondamento;clip-rule:nonzero;display:inline;overflow:visible;visibility:visible;isolation:auto;mix-blend-mode:normal;color-interpolation:sRGB;color-interpolation-filters:linearRGB;solid-color:#000000;solid-opacity:1;fill:#ba894f;fill-opacity:1;fill-rule:nonzero;stroke:#7b441d;stroke-width:4.78367996;stroke-linecap:butt;stroke-linejoin:miter;stroke-miterlimit:4;stroke-dasharray:none;stroke-dashoffset:0;stroke-opacity:1;color-rendering:auto;image-rendering:auto;shape-rendering:auto;text-rendering:auto;enable-background:accumulate"
         id="flowPara3363">unua premio : 50 000 kooj</flowPara><flowPara
         style="color:#000000;font-style:normal;font-variant:normal;font-weight:normal;font-stretch:normal;font-size:66.76100488px;line-height:1.25;font-family:Fondamento;-inkscape-font-specification:Fondamento;clip-rule:nonzero;display:inline;overflow:visible;visibility:visible;isolation:auto;mix-blend-mode:normal;color-interpolation:sRGB;color-interpolation-filters:linearRGB;solid-color:#000000;solid-opacity:1;fill:#ba894f;fill-opacity:1;fill-rule:nonzero;stroke:#7b441d;stroke-width:4.78367996;stroke-linecap:butt;stroke-linejoin:miter;stroke-miterlimit:4;stroke-dasharray:none;stroke-dashoffset:0;stroke-opacity:1;color-rendering:auto;image-rendering:auto;shape-rendering:auto;text-rendering:auto;enable-background:accumulate"
         id="flowPara3371">POR LA PLEJ BONA TRINKAĴO</flowPara></flowRoot>    <flowRoot
       xml:space="preserve"
       id="flowRoot3395"
       style="color:#000000;font-style:normal;font-variant:normal;font-weight:normal;font-stretch:normal;line-height:0.01%;font-family:Arial;-inkscape-font-specification:Arial;text-align:center;letter-spacing:0px;word-spacing:0px;text-anchor:middle;clip-rule:nonzero;display:inline;overflow:visible;visibility:visible;opacity:1;isolation:auto;mix-blend-mode:normal;color-interpolation:sRGB;color-interpolation-filters:linearRGB;solid-color:#000000;solid-opacity:1;fill:#ba894f;fill-opacity:1;fill-rule:nonzero;stroke:#7b441d;stroke-width:4.50359678;stroke-linecap:butt;stroke-linejoin:miter;stroke-miterlimit:4;stroke-dasharray:none;stroke-dashoffset:0;stroke-opacity:1;color-rendering:auto;image-rendering:auto;shape-rendering:auto;text-rendering:auto;enable-background:accumulate"
       transform="matrix(0.73981395,-0.16569197,0.58529146,0.81100502,-601.55196,998.99719)"><flowRegion
         id="flowRegion3397"
         style="fill:url(#linearGradient3419);fill-opacity:1"><rect
           id="rect3399"
           width="943.26337"
           height="841.94098"
           x="296.72992"
           y="1655.0723"
           style="color:#000000;font-size:67.07809448px;text-align:center;text-anchor:middle;clip-rule:nonzero;display:inline;overflow:visible;visibility:visible;isolation:auto;mix-blend-mode:normal;color-interpolation:sRGB;color-interpolation-filters:linearRGB;solid-color:#000000;solid-opacity:1;fill:#ba894f;fill-opacity:1;fill-rule:nonzero;stroke:#7b441d;stroke-width:4.50359678;stroke-linecap:butt;stroke-linejoin:miter;stroke-miterlimit:4;stroke-dasharray:none;stroke-dashoffset:0;stroke-opacity:1;color-rendering:auto;image-rendering:auto;shape-rendering:auto;text-rendering:auto;enable-background:accumulate" /></flowRegion><flowPara
         id="flowPara3413"
         style="color:#000000;font-style:normal;font-variant:normal;font-weight:normal;font-stretch:normal;font-size:67.07809448px;line-height:1.25;font-family:Fondamento;-inkscape-font-specification:Fondamento;clip-rule:nonzero;display:inline;overflow:visible;visibility:visible;isolation:auto;mix-blend-mode:normal;color-interpolation:sRGB;color-interpolation-filters:linearRGB;solid-color:#000000;solid-opacity:1;fill:#ba894f;fill-opacity:1;fill-rule:nonzero;stroke:#7b441d;stroke-width:4.50359678;stroke-linecap:butt;stroke-linejoin:miter;stroke-miterlimit:4;stroke-dasharray:none;stroke-dashoffset:0;stroke-opacity:1;color-rendering:auto;image-rendering:auto;shape-rendering:auto;text-rendering:auto;enable-background:accumulate">Azartagon, je 3 rozlune</flowPara><flowPara
         id="flowPara3415"
         style="color:#000000;font-style:normal;font-variant:normal;font-weight:normal;font-stretch:normal;font-size:67.07809448px;line-height:1.25;font-family:Fondamento;-inkscape-font-specification:Fondamento;clip-rule:nonzero;display:inline;overflow:visible;visibility:visible;isolation:auto;mix-blend-mode:normal;color-interpolation:sRGB;color-interpolation-filters:linearRGB;solid-color:#000000;solid-opacity:1;fill:#ba894f;fill-opacity:1;fill-rule:nonzero;stroke:#7b441d;stroke-width:4.50359678;stroke-linecap:butt;stroke-linejoin:miter;stroke-miterlimit:4;stroke-dasharray:none;stroke-dashoffset:0;stroke-opacity:1;color-rendering:auto;image-rendering:auto;shape-rendering:auto;text-rendering:auto;enable-background:accumulate">ĉe la Ĉefa Placo de Komono</flowPara></flowRoot>  </g>
</svg>
