<?xml version="1.0" encoding="UTF-8" standalone="no"?>
<svg
   xmlns:dc="http://purl.org/dc/elements/1.1/"
   xmlns:cc="http://creativecommons.org/ns#"
   xmlns:rdf="http://www.w3.org/1999/02/22-rdf-syntax-ns#"
   xmlns:svg="http://www.w3.org/2000/svg"
   xmlns="http://www.w3.org/2000/svg"
   xmlns:xlink="http://www.w3.org/1999/xlink"
   xmlns:sodipodi="http://sodipodi.sourceforge.net/DTD/sodipodi-0.dtd"
   xmlns:inkscape="http://www.inkscape.org/namespaces/inkscape"
   sodipodi:docname="E06P09.svg"
   height="3503"
   width="2481"
   inkscape:version="1.0 (4035a4f, 2020-05-01)"
   version="1.1"
   id="svg2">
  <sodipodi:namedview
     inkscape:window-maximized="0"
     inkscape:window-y="23"
     inkscape:window-x="0"
     inkscape:document-rotation="0"
     inkscape:current-layer="layer1"
     inkscape:cy="2719.5216"
     inkscape:cx="1139.5394"
     inkscape:zoom="0.38651685"
     showgrid="false"
     id="namedview70"
     inkscape:window-height="790"
     inkscape:window-width="1440"
     inkscape:pageshadow="2"
     inkscape:pageopacity="0"
     bordercolor="#666666"
     pagecolor="#ffffff" />
  <metadata
     id="metadata8">
    <rdf:RDF>
      <cc:Work
         rdf:about="">
        <dc:format>image/svg+xml</dc:format>
        <dc:type
           rdf:resource="http://purl.org/dc/dcmitype/StillImage" />
        <dc:title />
      </cc:Work>
    </rdf:RDF>
  </metadata>
  <defs
     id="defs6">
    <filter
       id="filter3843"
       inkscape:collect="always">
      <feGaussianBlur
         id="feGaussianBlur3845"
         stdDeviation="0.93774878"
         inkscape:collect="always" />
    </filter>
  </defs>
  <sodipodi:namedview
     inkscape:current-layer="layer1"
     inkscape:window-maximized="1"
     inkscape:window-y="26"
     inkscape:window-x="0"
     inkscape:cy="684.88126"
     inkscape:cx="1596.5417"
     inkscape:zoom="0.52900002"
     showgrid="false"
     id="namedview4"
     inkscape:window-height="1025"
     inkscape:window-width="1920"
     inkscape:pageshadow="2"
     inkscape:pageopacity="0"
     guidetolerance="10"
     gridtolerance="10"
     objecttolerance="10"
     borderopacity="1"
     bordercolor="#666666"
     pagecolor="#ffffff" />
  <g
     sodipodi:insensitive="true"
     inkscape:label="artwork"
     id="layer2"
     inkscape:groupmode="layer">
    <image
       sodipodi:absref="/Users/julienj-mauduit/Downloads/lang-2/gfx_Pepper-and-Carrot_by-David-Revoy_E06P09.png"
       xlink:href="../gfx_Pepper-and-Carrot_by-David-Revoy_E06P09.png"
       y="0"
       x="0"
       id="image10"
       height="3503"
       width="2481" />
  </g>
  <g
     inkscape:label="speechbubbles"
     id="layer3"
     inkscape:groupmode="layer" />
  <g
     inkscape:label="txt"
     id="layer1"
     inkscape:groupmode="layer">
    <path
       sodipodi:nodetypes="csssssc"
       inkscape:connector-curvature="0"
       id="path3573-7-6"
       d="m 2046.6862,3273.4904 c 7.7136,-45.4874 35.0621,-72.6332 168.2984,-82.9045 133.2363,-10.2714 150.7673,42.5527 154.9748,68.9648 4.2076,26.412 0.7013,65.2964 -36.4646,85.1055 -37.1658,19.809 -118.5102,24.2111 -147.9624,19.0753 -29.4522,-5.1356 -89.225,-1.0097 -106.0547,-17.8841 -16.83,-16.8744 -30.6878,-32.739 -32.7915,-72.357 z"
       style="color:#000000;display:inline;overflow:visible;visibility:visible;fill:#ffffff;fill-opacity:1;fill-rule:nonzero;stroke:none;stroke-width:1px;marker:none;enable-background:accumulate" />
    <path
       sodipodi:nodetypes="csssssc"
       inkscape:connector-curvature="0"
       id="path3573-7-3"
       d="m 1743.2737,3021.1178 c 15.4102,-102.3628 68.8288,-176.5188 336.2261,-186.5645 315.4475,-11.8506 301.2027,95.7589 309.6085,155.1953 8.4057,59.4363 1.4008,146.9401 -72.849,191.5174 -74.2497,44.5772 -236.7595,54.4836 -295.5988,42.9262 -58.8396,-11.5569 -178.2536,-2.272 -211.876,-40.2455 -33.623,-37.9734 -61.308,-73.6742 -65.5108,-162.8289 z"
       style="color:#000000;display:inline;overflow:visible;visibility:visible;fill:#ffffff;fill-opacity:1;fill-rule:nonzero;stroke:none;stroke-width:0.938021px;marker:none;enable-background:accumulate" />
    <path
       sodipodi:nodetypes="csssssc"
       inkscape:connector-curvature="0"
       id="path3573-7"
       d="m 1588.1154,2856.5994 c 6.9936,-55.156 31.7891,-88.0717 152.5879,-100.5263 120.7988,-12.4546 136.6933,51.5976 140.5081,83.6237 3.8147,32.026 0.6357,79.1755 -33.0607,103.1951 -33.6965,24.0195 -107.4474,29.3573 -134.1502,23.1299 -26.7029,-6.2272 -80.896,-1.2243 -96.1547,-21.6855 -15.2589,-20.4611 -27.8231,-39.6978 -29.7304,-87.7369 z"
       style="color:#000000;fill:#ffffff;fill-opacity:1;fill-rule:nonzero;stroke:none;stroke-width:1px;marker:none;visibility:visible;display:inline;overflow:visible;enable-background:accumulate" />
    <path
       sodipodi:nodetypes="csssscssssssc"
       inkscape:connector-curvature="0"
       id="path3023-3"
       d="m 537.09418,2541.4872 c 33.09859,-32.5986 27.82913,-46.4897 20.47318,-61.9311 -7.35578,-15.4414 -15.80643,-28.8005 -11.63578,-38.5723 4.17067,-9.7716 15.29078,-18.9641 24.58593,-24.686 9.29534,-5.7221 5.82948,-15.5939 3.03764,-26.8393 -2.79187,-11.2454 -2.24445,-72.1608 -2.24445,-72.1608 0,0 30.94507,37.7177 36.59273,51.8094 5.64763,14.0915 7.78669,19.2207 8.43954,25.3368 0.6528,6.1163 -0.0619,21.2717 -7.81836,29.5853 -7.75637,8.3136 -19.51606,12.2846 -26.94693,17.2201 -7.43092,4.9354 -10.37423,18.4428 -7.3735,31.1305 3.00072,12.6876 5.31027,42.1409 -8.76887,54.2024 -14.07925,12.0614 -28.34113,14.905 -28.34113,14.905 z"
       style="fill:#ffffff;stroke:none" />
    <path
       sodipodi:nodetypes="csssssc"
       inkscape:connector-curvature="0"
       id="path3573"
       d="m 227.66745,2287.4328 c 15.67286,-72.9995 71.24042,-116.5637 341.95432,-133.0474 270.71393,-16.4836 306.33415,68.2898 314.88303,110.6765 8.54888,42.3866 1.42478,104.7895 -74.09012,136.5795 -75.51492,31.79 -240.79291,38.8545 -300.63483,30.6125 -59.84205,-8.2417 -181.29026,-1.6203 -215.48566,-28.7008 -34.19552,-27.0804 -62.35236,-52.5404 -66.62674,-116.1203 z"
       style="color:#000000;fill:#ffffff;fill-opacity:1;fill-rule:nonzero;stroke:none;stroke-width:1px;marker:none;visibility:visible;display:inline;overflow:visible;enable-background:accumulate" />
    <path
       sodipodi:nodetypes="csssc"
       inkscape:connector-curvature="0"
       id="path3270"
       d="m 98.132685,2109.1645 c 11.122815,-68.046 49.547265,-133.1759 281.104975,-141.9247 231.55781,-8.7487 328.52368,48.1737 327.61887,132.2039 -0.98548,91.521 -67.74828,147.7572 -254.81461,149.7014 -187.06633,1.9442 -347.84229,-6.8047 -353.909235,-139.9806 z"
       style="fill:#ffffff;stroke:none" />
    <path
       sodipodi:nodetypes="csssscssssssc"
       inkscape:connector-curvature="0"
       id="path3023"
       d="m 1590.9443,545.46074 c 44.8711,-10.8171 54.1774,-0.16815 63.7635,12.84937 9.5861,13.01743 16.8223,25.92299 27.3594,27.20978 10.5371,1.2868 24.0955,-3.17063 33.7373,-7.81443 9.6419,-4.64389 16.3969,2.70419 24.6774,10.16404 8.2806,7.45986 61.0745,35.52734 61.0745,35.52734 0,0 -16.8411,-42.01779 -26.1287,-53.0584 -9.2876,-11.04059 -12.6259,-15.12489 -17.5681,-18.50045 -4.9422,-3.37558 -18.3701,-9.90297 -29.4667,-7.68351 -11.0966,2.21938 -20.4774,9.62342 -28.4968,13.16683 -8.0192,3.54351 -21.1553,-0.45764 -30.5735,-8.75676 -9.4182,-8.2991 -33.6405,-23.89753 -51.1713,-18.45172 -17.5306,5.44581 -27.207,15.34791 -27.207,15.34791 z"
       style="fill:#ffffff;stroke:none" />
    <path
       sodipodi:nodetypes="zssssz"
       inkscape:connector-curvature="0"
       id="path4040"
       d="m 266.00179,138.74796 c 25.32949,-30.82881 239.13929,-64.291607 314.28573,-0.75991 75.14643,63.5317 29.56582,139.76981 -13.55107,164.0273 -43.11677,24.25761 -170.00339,50.8254 -227.90302,30.0332 -57.89975,-20.7922 -102.99997,-51.87249 -105.94419,-115.5122 -1.20164,-25.9739 7.78297,-46.95949 33.11255,-77.78839 z"
       style="color:#000000;fill:#ffffff;fill-opacity:1;fill-rule:nonzero;stroke:none;stroke-width:1px;marker:none;visibility:visible;display:inline;overflow:visible;enable-background:accumulate" />
    <path
       inkscape:connector-curvature="0"
       id="path4048"
       d="M 823.77301,239.48782 C 786.39218,212.52525 745.597,189.94915 702.09347,174.54175 680.31274,167.11533 657.06794,160.9767 633.9114,164.27883 c -12.60057,1.9585 -24.88433,9.73565 -29.33716,22.10605 -5.66663,13.95803 -3.14564,29.26987 -1.70179,43.76813 0.94127,13.54596 1.67885,28.16959 -4.97836,40.48084 -3.82235,6.13879 -11.84256,8.8328 -18.65332,6.48505 -9.79618,-2.46073 -18.42944,-8.43515 -25.78821,-15.09601 -8.79281,-20.07942 -17.58561,-40.15885 -26.37842,-60.23828 16.22633,-33.44392 48.90367,-59.37112 86.17756,-64.14201 33.19352,-4.60909 66.5798,5.12129 96.26471,19.45732 42.44413,20.72483 79.69231,50.53162 114.2566,82.3879 z"
       style="color:#000000;fill:#ffffff;fill-opacity:1;fill-rule:nonzero;stroke:none;stroke-width:1px;marker:none;visibility:visible;display:inline;overflow:visible;enable-background:accumulate" />
    <flowRoot
       transform="translate(1.0507628,-113.67359)"
       style="font-style:normal;font-variant:normal;font-weight:normal;font-stretch:normal;line-height:0.01%;font-family:Lavi;-inkscape-font-specification:Lavi;text-align:center;letter-spacing:0px;word-spacing:0px;text-anchor:middle;fill:#000000;fill-opacity:1;stroke:none"
       id="flowRoot2987-4-9-3"
       xml:space="preserve"><flowRegion
         id="flowRegion2989-5-4-5"><rect
           style="font-style:normal;font-variant:normal;font-weight:normal;font-stretch:normal;font-family:Lavi;-inkscape-font-specification:Lavi;text-align:center;text-anchor:middle"
           y="265.53046"
           x="120.55251"
           height="310.73996"
           width="602.40173"
           id="rect2991-7-9-6" /></flowRegion><flowPara
         id="flowPara3030-8"
         style="font-size:48px;line-height:1.25;text-align:center;text-anchor:middle">Vei, lis bien </flowPara><flowPara
         id="flowPara3039"
         style="font-size:48px;line-height:1.25;text-align:center;text-anchor:middle">l'étiquette... </flowPara></flowRoot>
    <path
       sodipodi:nodetypes="cssssc"
       inkscape:connector-curvature="0"
       id="path4546"
       d="m 1722.5997,565.17087 c 5.6086,-113.47198 70.3257,-175.99246 348.843,-162.49266 110.1522,5.3391 321.0523,-31.56014 352.0639,143.97171 28.6991,162.44283 -249.6683,171.78902 -299.7405,177.70601 -50.0723,5.91721 -311.2749,-1.67584 -359.1434,-55.33411 -22.0771,-24.74725 -41.882,-68.78446 -42.023,-103.85095 z"
       style="color:#000000;fill:#ffffff;fill-opacity:1;fill-rule:nonzero;stroke:none;stroke-width:1px;marker:none;visibility:visible;display:inline;overflow:visible;enable-background:accumulate" />
    <flowRoot
       transform="translate(1646.8866,184.86936)"
       style="font-style:normal;font-variant:normal;font-weight:normal;font-stretch:normal;line-height:0.01%;font-family:Lavi;-inkscape-font-specification:Lavi;text-align:center;letter-spacing:0px;word-spacing:0px;text-anchor:middle;fill:#000000;fill-opacity:1;stroke:none"
       id="flowRoot2987-4-9-3-9"
       xml:space="preserve"><flowRegion
         id="flowRegion2989-5-4-5-8"><rect
           style="font-style:normal;font-variant:normal;font-weight:normal;font-stretch:normal;font-family:Lavi;-inkscape-font-specification:Lavi;text-align:center;text-anchor:middle"
           y="265.53046"
           x="120.55251"
           height="310.73996"
           width="602.40173"
           id="rect2991-7-9-6-2" /></flowRegion><flowPara
         id="flowPara3039-2"
         style="font-size:48px;line-height:1.25;text-align:center;text-anchor:middle">.. je n'hésiterai pas à t'en verser dessus si tu dégages pas tout de suite de Komona !</flowPara><flowPara
         id="flowPara3080"
         style="font-size:48px;line-height:1.25;text-align:center;text-anchor:middle"> </flowPara></flowRoot>
    <flowRoot
       transform="translate(15.379681,1779.4359)"
       style="font-style:normal;font-variant:normal;font-weight:normal;font-stretch:normal;line-height:0.01%;font-family:Lavi;-inkscape-font-specification:Lavi;text-align:center;letter-spacing:0px;word-spacing:0px;text-anchor:middle;fill:#000000;fill-opacity:1;stroke:none"
       id="flowRoot2987-4-9-3-6"
       xml:space="preserve"><flowRegion
         id="flowRegion2989-5-4-5-5"><rect
           style="font-style:normal;font-variant:normal;font-weight:normal;font-stretch:normal;font-family:Lavi;-inkscape-font-specification:Lavi;text-align:center;text-anchor:middle"
           y="265.53046"
           x="120.55251"
           height="290.73993"
           width="532.40173"
           id="rect2991-7-9-6-21" /></flowRegion><flowPara
         id="flowPara3030-8-8"
         style="font-size:48px;line-height:1.25;text-align:center;text-anchor:middle">Pace qu'ol nos a sâvaé, nos et not citaé,  </flowPara></flowRoot>
    <flowRoot
       transform="translate(130.15099,1939.2185)"
       style="font-style:normal;font-variant:normal;font-weight:normal;font-stretch:normal;line-height:0.01%;font-family:Lavi;-inkscape-font-specification:Lavi;text-align:center;letter-spacing:0px;word-spacing:0px;text-anchor:middle;fill:#000000;fill-opacity:1;stroke:none"
       id="flowRoot2987-4-9-3-6-3"
       xml:space="preserve"><flowRegion
         id="flowRegion2989-5-4-5-5-3"><rect
           style="font-style:normal;font-variant:normal;font-weight:normal;font-stretch:normal;font-family:Lavi;-inkscape-font-specification:Lavi;text-align:center;text-anchor:middle"
           y="265.53046"
           x="120.55251"
           height="343.23993"
           width="634.90173"
           id="rect2991-7-9-6-21-9" /></flowRegion><flowPara
         id="flowPara3030-8-8-0"
         style="font-size:48px;line-height:1.25;text-align:center;text-anchor:middle">nos armettouns la </flowPara><flowPara
         id="flowPara3131"
         style="font-size:48px;line-height:1.25;text-align:center;text-anchor:middle">premyire pllèche à Pepper pouor sa Pètioun dé .. ??!!</flowPara></flowRoot>
    <flowRoot
       transform="translate(1567.8088,2619.9978)"
       style="font-style:normal;font-variant:normal;font-weight:normal;font-stretch:normal;line-height:0.01%;font-family:Lavi;-inkscape-font-specification:Lavi;text-align:center;letter-spacing:0px;word-spacing:0px;text-anchor:middle;fill:#000000;fill-opacity:1;stroke:none"
       id="flowRoot2987-4-9-3-6-3-8"
       xml:space="preserve"><flowRegion
         id="flowRegion2989-5-4-5-5-3-0"><rect
           style="font-style:normal;font-variant:normal;font-weight:normal;font-stretch:normal;font-family:Lavi;-inkscape-font-specification:Lavi;text-align:center;text-anchor:middle"
           y="265.53046"
           x="120.55251"
           height="513.23993"
           width="774.90173"
           id="rect2991-7-9-6-21-9-8" /></flowRegion><flowPara
         id="flowPara3131-1"
         style="font-size:48px;line-height:1.25;text-align:center;text-anchor:middle">... heu... én fait, ch'est </flowPara><flowPara
         id="flowPara3186"
         style="font-size:48px;line-height:1.25;text-align:center;text-anchor:middle">pin eune pètioun ;</flowPara><flowPara
         id="flowPara3190"
         style="font-size:48px;line-height:1.25;text-align:center;text-anchor:middle">che sount la date dé mon </flowPara><flowPara
         id="flowPara111"
         style="font-size:48px;line-height:1.25;text-align:center;text-anchor:middle">cat dé syn dernyire </flowPara><flowPara
         id="flowPara113"
         style="font-size:48px;line-height:1.25;text-align:center;text-anchor:middle">visite cyiz lé vétérinnaire ! </flowPara><flowPara
         id="flowPara3217"
         style="font-size:48px;line-height:1.25;text-align:center;text-anchor:middle" /></flowRoot>
    <flowRoot
       transform="translate(1221.4914,2533.2934)"
       style="font-style:normal;font-variant:normal;font-weight:normal;font-stretch:normal;line-height:0.01%;font-family:Lavi;-inkscape-font-specification:Lavi;text-align:center;letter-spacing:0px;word-spacing:0px;text-anchor:middle;fill:#000000;fill-opacity:1;stroke:none"
       id="flowRoot2987-4-9-3-6-3-8-7"
       xml:space="preserve"><flowRegion
         id="flowRegion2989-5-4-5-5-3-0-6"><rect
           style="font-style:normal;font-variant:normal;font-weight:normal;font-stretch:normal;font-family:Lavi;-inkscape-font-specification:Lavi;text-align:center;text-anchor:middle"
           y="265.53046"
           x="120.55251"
           height="513.23993"
           width="774.90173"
           id="rect2991-7-9-6-21-9-8-0" /></flowRegion><flowPara
         id="flowPara3217-6"
         style="font-size:48px;line-height:1.25;text-align:center;text-anchor:middle">... Haha!</flowPara><flowPara
         id="flowPara3272"
         style="font-size:48px;line-height:1.25;text-align:center;text-anchor:middle">    vei ...</flowPara></flowRoot>
    <path
       inkscape:connector-curvature="0"
       id="path3137"
       d="m 1570.4499,2693.6646 c 11.865,21.9135 20.5535,35.7439 32.3532,38.6567 11.7996,2.9126 25.4122,7.0997 36.6448,0.9554 11.2326,-6.1443 31.3831,-9.7639 37.9644,-4.9033 6.5814,4.8606 30.224,23.3532 33.8418,42.9792 3.6176,19.6261 35.3335,-10.2628 35.3335,-10.2628 0,0 -17.5983,-33.4325 -22.6391,-38.3802 -5.0411,-4.9479 -16.7587,-23.0138 -47.4193,-17.4222 -30.6606,5.5916 -48.5046,17.6188 -63.3115,16.8043 -14.8067,-0.8144 -35.0743,-11.786 -42.7678,-28.4271 z"
       style="fill:#ffffff;stroke:none" />
    <flowRoot
       transform="matrix(0.77121069,0,0,0.77121069,1808.8366,3037.6343)"
       style="font-style:normal;font-variant:normal;font-weight:normal;font-stretch:normal;line-height:0.01%;font-family:Lavi;-inkscape-font-specification:Lavi;text-align:center;letter-spacing:0px;word-spacing:0px;text-anchor:middle;fill:#000000;fill-opacity:1;stroke:none"
       id="flowRoot2987-4-9-3-6-3-8-7-4"
       xml:space="preserve"><flowRegion
         id="flowRegion2989-5-4-5-5-3-0-6-7"><rect
           style="font-style:normal;font-variant:normal;font-weight:normal;font-stretch:normal;font-family:Lavi;-inkscape-font-specification:Lavi;text-align:center;text-anchor:middle"
           y="265.53046"
           x="120.55251"
           height="513.23993"
           width="774.90173"
           id="rect2991-7-9-6-21-9-8-0-4" /></flowRegion><flowPara
         id="flowPara3272-1"
         style="font-size:48px;line-height:1.25;text-align:center;text-anchor:middle">... J'vos moutre</flowPara><flowPara
         id="flowPara3078"
         style="font-size:48px;line-height:1.25;text-align:center;text-anchor:middle">pin, hein ?...</flowPara></flowRoot>
    <flowRoot
       transform="translate(1212.8395,3152.5698)"
       style="font-style:normal;font-variant:normal;font-weight:normal;font-stretch:normal;line-height:0.01%;font-family:Lavi;-inkscape-font-specification:Lavi;text-align:center;letter-spacing:0px;word-spacing:0px;text-anchor:middle;fill:#000000;fill-opacity:1;stroke:none"
       id="flowRoot2987-4-9-3-6-3-8-7-2"
       xml:space="preserve"><flowRegion
         id="flowRegion2989-5-4-5-5-3-0-6-76"><rect
           style="font-style:normal;font-variant:normal;font-weight:normal;font-stretch:normal;font-family:Lavi;-inkscape-font-specification:Lavi;text-align:center;text-anchor:middle"
           y="265.53046"
           x="120.55251"
           height="56.977448"
           width="1041.0548"
           id="rect2991-7-9-6-21-9-8-0-3" /></flowRegion><flowPara
         id="flowPara3272-6"
         style="font-size:48px;line-height:1.25;text-align:center;text-anchor:middle">Histouère 6 : Lé concous dé pètioun</flowPara></flowRoot>
    <flowRoot
       xml:space="preserve"
       id="flowRoot4212-3-7-8-6"
       style="font-style:normal;font-variant:normal;font-weight:normal;font-stretch:normal;line-height:0.01%;font-family:Lavi;-inkscape-font-specification:Lavi;text-align:center;letter-spacing:0px;word-spacing:0px;text-anchor:middle;fill:#000000;fill-opacity:1;stroke:#000000;stroke-width:4.7;stroke-miterlimit:4;stroke-dasharray:none;stroke-opacity:1"
       transform="matrix(0.90617713,0,-0.22078013,1.6225798,1900.3642,2973.4835)"><flowRegion
         id="flowRegion4214-6-7-8-3"><rect
           id="rect4216-4-0-26-5"
           width="798.1947"
           height="355.03918"
           x="120.55251"
           y="265.53046"
           style="font-style:normal;font-variant:normal;font-weight:normal;font-stretch:normal;font-family:Lavi;-inkscape-font-specification:Lavi;text-align:center;text-anchor:middle;stroke:#000000;stroke-width:4.69999981;stroke-miterlimit:4;stroke-dasharray:none;stroke-opacity:1" /></flowRegion><flowPara
         id="flowPara4358-7-1"
         style="font-size:48px;line-height:1.25;text-align:center;letter-spacing:5.20896px;text-anchor:middle;stroke:#000000;stroke-width:4.7;stroke-miterlimit:4;stroke-dasharray:none;stroke-opacity:1">FIN</flowPara></flowRoot>
    <flowRoot
       xml:space="preserve"
       id="flowRoot4212-3-7-8-6-1"
       style="font-style:normal;font-variant:normal;font-weight:normal;font-stretch:normal;line-height:0.01%;font-family:Lavi;-inkscape-font-specification:Lavi;text-align:center;letter-spacing:0px;word-spacing:0px;text-anchor:middle;opacity:0.353488;fill:#000000;fill-opacity:1;stroke:#000000;stroke-width:4.7;stroke-miterlimit:4;stroke-dasharray:none;stroke-opacity:1;filter:url(#filter3843)"
       transform="matrix(0.66946674,-0.0365707,0.20636409,1.4040624,586.0213,2760.2475)"><flowRegion
         id="flowRegion4214-6-7-8-3-1"><rect
           id="rect4216-4-0-26-5-9"
           width="798.1947"
           height="355.03918"
           x="120.55251"
           y="265.53046"
           style="font-style:normal;font-variant:normal;font-weight:normal;font-stretch:normal;font-family:Lavi;-inkscape-font-specification:Lavi;text-align:center;text-anchor:middle;stroke:#000000;stroke-width:4.69999981;stroke-miterlimit:4;stroke-dasharray:none;stroke-opacity:1" /></flowRegion><flowPara
         id="flowPara4358-7-1-9"
         style="font-size:48px;line-height:1.25;text-align:center;letter-spacing:5.20896px;text-anchor:middle;stroke:#000000;stroke-width:4.7;stroke-miterlimit:4;stroke-dasharray:none;stroke-opacity:1">50 000 Ko</flowPara></flowRoot>
    <flowRoot
       transform="matrix(0.66233381,0,0,0.66233381,381.19429,3179.6714)"
       style="font-style:normal;font-variant:normal;font-weight:normal;font-stretch:normal;line-height:0.01%;font-family:Lavi;-inkscape-font-specification:Lavi;text-align:center;letter-spacing:0px;word-spacing:0px;text-anchor:middle;opacity:0.916279;fill:#000000;fill-opacity:1;stroke:none"
       id="flowRoot2987-4-9-3-6-3-8-7-2-7-2"
       xml:space="preserve"><flowRegion
         id="flowRegion2989-5-4-5-5-3-0-6-76-8-1"><rect
           style="font-style:normal;font-variant:normal;font-weight:normal;font-stretch:normal;font-family:Lavi;-inkscape-font-specification:Lavi;text-align:center;text-anchor:middle"
           y="265.53046"
           x="120.55251"
           height="72.357925"
           width="2350.8157"
           id="rect2991-7-9-6-21-9-8-0-3-1-7" /></flowRegion><flowPara
         id="flowPara3272-6-3-1"
         style="font-size:48px;line-height:1.25;text-align:center;text-anchor:middle"><flowSpan
           id="flowSpan3856-1"
           style="fill:#1b1b1b;fill-opacity:1"><flowSpan
             id="flowSpan3858-6"
             style="fill:#2d2d2d;fill-opacity:1"><flowSpan
               id="flowSpan3860-9"
               style="fill:#2f2f2f;fill-opacity:1"><flowSpan
                 id="flowSpan3862-4"
                 style="fill:#3e3e3e;fill-opacity:1"><flowSpan
                   id="flowSpan3864-4"
                   style="fill:#3f3f3f;fill-opacity:1"><flowSpan
                     id="flowSpan3866-8"
                     style="fill:#474747;fill-opacity:1"><flowSpan
                       id="flowSpan3868-5"
                       style="fill:#4d4d4d;fill-opacity:1"><flowSpan
                         id="flowSpan3870-8"
                         style="fill:#4e4e4e;fill-opacity:1"><flowSpan
                           id="flowSpan3872-7"
                           style="fill:#585858;fill-opacity:1"><flowSpan
                             id="flowSpan3874-4"
                             style="fill:#595959;fill-opacity:1"><flowSpan
                               id="flowSpan3876-6"
                               style="fill:#6b6b6b;fill-opacity:1"><flowSpan
                                 id="flowSpan3878-3"
                                 style="fill:#777777;fill-opacity:1"><flowSpan
                                   id="flowSpan3880-9"
                                   style="fill:#797979;fill-opacity:1"><flowSpan
                                   id="flowSpan3882-9"
                                   style="fill:#a0a0a0;fill-opacity:1"><flowSpan
                                   id="flowSpan3884-8"
                                   style="fill:#c7c7c7;fill-opacity:1"><flowSpan
                                   id="flowSpan3886-8"
                                   style="fill:#dddddd;fill-opacity:1"><flowSpan
                                   id="flowSpan3888-6"
                                   style="fill:#dedede;fill-opacity:1"><flowSpan
                                   id="flowSpan3890-2"
                                   style="fill:#fafafa;fill-opacity:1"><flowSpan
                                   id="flowSpan3892-9"
                                   style="fill:#ffffff;fill-opacity:1"><flowSpan
   id="flowSpan3980"
   style="font-size:40.7292px">March 2015 - </flowSpan>Dessin et Scénario : David Revoy ,  corrections : Aurélien Gâteau, Traduction : Julien R Mauduit </flowSpan></flowSpan></flowSpan></flowSpan></flowSpan></flowSpan></flowSpan></flowSpan></flowSpan></flowSpan></flowSpan></flowSpan></flowSpan></flowSpan></flowSpan></flowSpan></flowSpan></flowSpan></flowSpan></flowPara></flowRoot>
  </g>
</svg>
