<?xml version="1.0" encoding="UTF-8" standalone="no"?>
<svg
   id="svg2"
   version="1.1"
   inkscape:version="1.1.1 (3bf5ae0d25, 2021-09-20, custom)"
   width="2481"
   height="3503"
   sodipodi:docname="E33P06.svg"
   xmlns:inkscape="http://www.inkscape.org/namespaces/inkscape"
   xmlns:sodipodi="http://sodipodi.sourceforge.net/DTD/sodipodi-0.dtd"
   xmlns:xlink="http://www.w3.org/1999/xlink"
   xmlns="http://www.w3.org/2000/svg"
   xmlns:svg="http://www.w3.org/2000/svg"
   xmlns:rdf="http://www.w3.org/1999/02/22-rdf-syntax-ns#"
   xmlns:cc="http://creativecommons.org/ns#"
   xmlns:dc="http://purl.org/dc/elements/1.1/">
  <metadata
     id="metadata8">
    <rdf:RDF>
      <cc:Work
         rdf:about="">
        <dc:format>image/svg+xml</dc:format>
        <dc:type
           rdf:resource="http://purl.org/dc/dcmitype/StillImage" />
        <dc:title />
      </cc:Work>
    </rdf:RDF>
  </metadata>
  <defs
     id="defs6">
    <filter
       style="color-interpolation-filters:sRGB"
       id="filter4375-4-1-1-1-9-5-8-8-3-3-3-6-1"
       inkscape:label="magic-numbers_orange"
       height="1.1308754"
       width="1.021259"
       x="-0.01429141"
       y="-0.00880054">
      <feFlood
         id="feFlood4377-7-9-0-8-1-7-3-1-6-61-6-2-0"
         flood-opacity="1"
         flood-color="rgb(216,88,33)"
         result="flood"
         radius="5.0999999999999996" />
      <feComposite
         id="feComposite4379-3-8-8-2-77-4-1-0-7-2-7-6-6"
         in2="SourceGraphic"
         in="flood"
         operator="in"
         result="composite1"
         baseFrequency="0.053999999999999999 0.053999999999999999" />
      <feMorphology
         id="feMorphology4393-1-0-49-8-9-3-0-1-5-9-5-1-3"
         operator="dilate"
         radius="0.96959439099754563"
         result="result3" />
      <feComposite
         id="feComposite4385-9-5-7-0-8-8-7-5-3-3-3-8-2"
         in2="result3"
         in="SourceGraphic"
         operator="over"
         result="fbSourceGraphic"
         numOctaves="4" />
      <feColorMatrix
         result="fbSourceGraphicAlpha"
         in="fbSourceGraphic"
         values="0 0 0 -1 0 0 0 0 -1 0 0 0 0 -1 0 0 0 0 1 0"
         id="feColorMatrix4544-9-5-1-5-7-0" />
      <feTurbulence
         id="feTurbulence4546-3-6-9-6-9-6"
         type="fractalNoise"
         numOctaves="4.4123222748815163"
         seed="172"
         baseFrequency="0.062 0.054054054054054057"
         result="turbulence" />
      <feDisplacementMap
         id="feDisplacementMap4548-8-2-4-2-2-1"
         in2="turbulence"
         in="fbSourceGraphic"
         scale="11.642079"
         yChannelSelector="G"
         xChannelSelector="R"
         result="fbSourceGraphic" />
      <feColorMatrix
         result="fbSourceGraphicAlpha"
         in="fbSourceGraphic"
         values="0 0 0 -1 0 0 0 0 -1 0 0 0 0 -1 0 0 0 0 1 0"
         id="feColorMatrix4670-7-9-7-9-0-5"
         scale="10.800000000000001" />
      <feComposite
         id="feComposite4674-8-2-4-1-2-5"
         in2="fbSourceGraphic"
         in="flood"
         operator="in"
         result="composite1" />
      <feGaussianBlur
         id="feGaussianBlur4676-3-7-50-2-3-4"
         in="composite1"
         stdDeviation="0.01"
         result="blur" />
      <feOffset
         id="feOffset4678-6-0-3-7-7-7"
         dx="-0.42771311737301687"
         dy="5.2374444725016502"
         result="offset" />
      <feComposite
         id="feComposite4680-4-9-6-0-5-6"
         in2="offset"
         in="fbSourceGraphic"
         operator="over"
         result="composite2" />
      <feGaussianBlur
         id="feGaussianBlur58-9-9-5"
         stdDeviation="0.01" />
      <feOffset
         id="feOffset60-3-2-6"
         dy="0"
         dx="0" />
    </filter>
    <filter
       x="-0.015658884"
       width="1.0246985"
       height="1.1368504"
       inkscape:label="magic-numbers_orange"
       id="filter4375-4-1-1-1-9-5-8-8-3-3-3-6-1-3"
       style="color-interpolation-filters:sRGB"
       y="-0.012478729">
      <feFlood
         radius="5.0999999999999996"
         result="flood"
         flood-color="rgb(216,88,33)"
         flood-opacity="1"
         id="feFlood4377-7-9-0-8-1-7-3-1-6-61-6-2-0-6" />
      <feComposite
         baseFrequency="0.053999999999999999 0.053999999999999999"
         result="composite1"
         operator="in"
         in="flood"
         in2="SourceGraphic"
         id="feComposite4379-3-8-8-2-77-4-1-0-7-2-7-6-6-7" />
      <feMorphology
         result="result3"
         radius="0.96959439099754563"
         operator="dilate"
         id="feMorphology4393-1-0-49-8-9-3-0-1-5-9-5-1-3-5" />
      <feComposite
         numOctaves="4"
         result="fbSourceGraphic"
         operator="over"
         in="SourceGraphic"
         in2="result3"
         id="feComposite4385-9-5-7-0-8-8-7-5-3-3-3-8-2-3" />
      <feColorMatrix
         id="feColorMatrix4544-9-5-1-5-7-0-5"
         values="0 0 0 -1 0 0 0 0 -1 0 0 0 0 -1 0 0 0 0 1 0"
         in="fbSourceGraphic"
         result="fbSourceGraphicAlpha" />
      <feTurbulence
         result="turbulence"
         baseFrequency="0.062 0.054054054054054057"
         seed="172"
         numOctaves="4.4123222748815163"
         type="fractalNoise"
         id="feTurbulence4546-3-6-9-6-9-6-6" />
      <feDisplacementMap
         result="fbSourceGraphic"
         xChannelSelector="R"
         yChannelSelector="G"
         scale="11.642079"
         in="fbSourceGraphic"
         in2="turbulence"
         id="feDisplacementMap4548-8-2-4-2-2-1-2" />
      <feColorMatrix
         scale="10.800000000000001"
         id="feColorMatrix4670-7-9-7-9-0-5-9"
         values="0 0 0 -1 0 0 0 0 -1 0 0 0 0 -1 0 0 0 0 1 0"
         in="fbSourceGraphic"
         result="fbSourceGraphicAlpha" />
      <feComposite
         result="composite1"
         operator="in"
         in="flood"
         in2="fbSourceGraphic"
         id="feComposite4674-8-2-4-1-2-5-1" />
      <feGaussianBlur
         result="blur"
         stdDeviation="0.01"
         in="composite1"
         id="feGaussianBlur4676-3-7-50-2-3-4-2" />
      <feOffset
         result="offset"
         dy="5.2374444725016502"
         dx="-0.42771311737301687"
         id="feOffset4678-6-0-3-7-7-7-7" />
      <feComposite
         result="composite2"
         operator="over"
         in="fbSourceGraphic"
         in2="offset"
         id="feComposite4680-4-9-6-0-5-6-0" />
      <feGaussianBlur
         stdDeviation="0.01"
         id="feGaussianBlur58-9-9-5-9" />
      <feOffset
         dx="0"
         dy="0"
         id="feOffset60-3-2-6-3" />
    </filter>
    <filter
       x="-0.033581832"
       width="1.0523099"
       height="1.1318968"
       inkscape:label="magic-numbers_orange"
       id="filter4375-4-1-1-1-9-5-8-8-3-3-3-6-1-6"
       style="color-interpolation-filters:sRGB"
       y="-0.011261651">
      <feFlood
         radius="5.0999999999999996"
         result="flood"
         flood-color="rgb(216,88,33)"
         flood-opacity="1"
         id="feFlood4377-7-9-0-8-1-7-3-1-6-61-6-2-0-2" />
      <feComposite
         baseFrequency="0.053999999999999999 0.053999999999999999"
         result="composite1"
         operator="in"
         in="flood"
         in2="SourceGraphic"
         id="feComposite4379-3-8-8-2-77-4-1-0-7-2-7-6-6-6" />
      <feMorphology
         result="result3"
         radius="0.96959439099754563"
         operator="dilate"
         id="feMorphology4393-1-0-49-8-9-3-0-1-5-9-5-1-3-1" />
      <feComposite
         numOctaves="4"
         result="fbSourceGraphic"
         operator="over"
         in="SourceGraphic"
         in2="result3"
         id="feComposite4385-9-5-7-0-8-8-7-5-3-3-3-8-2-8" />
      <feColorMatrix
         id="feColorMatrix4544-9-5-1-5-7-0-7"
         values="0 0 0 -1 0 0 0 0 -1 0 0 0 0 -1 0 0 0 0 1 0"
         in="fbSourceGraphic"
         result="fbSourceGraphicAlpha" />
      <feTurbulence
         result="turbulence"
         baseFrequency="0.062 0.054054054054054057"
         seed="172"
         numOctaves="4.4123222748815163"
         type="fractalNoise"
         id="feTurbulence4546-3-6-9-6-9-6-9" />
      <feDisplacementMap
         result="fbSourceGraphic"
         xChannelSelector="R"
         yChannelSelector="G"
         scale="11.642079"
         in="fbSourceGraphic"
         in2="turbulence"
         id="feDisplacementMap4548-8-2-4-2-2-1-20" />
      <feColorMatrix
         scale="10.800000000000001"
         id="feColorMatrix4670-7-9-7-9-0-5-2"
         values="0 0 0 -1 0 0 0 0 -1 0 0 0 0 -1 0 0 0 0 1 0"
         in="fbSourceGraphic"
         result="fbSourceGraphicAlpha" />
      <feComposite
         result="composite1"
         operator="in"
         in="flood"
         in2="fbSourceGraphic"
         id="feComposite4674-8-2-4-1-2-5-3" />
      <feGaussianBlur
         result="blur"
         stdDeviation="0.01"
         in="composite1"
         id="feGaussianBlur4676-3-7-50-2-3-4-7" />
      <feOffset
         result="offset"
         dy="5.2374444725016502"
         dx="-0.42771311737301687"
         id="feOffset4678-6-0-3-7-7-7-5" />
      <feComposite
         result="composite2"
         operator="over"
         in="fbSourceGraphic"
         in2="offset"
         id="feComposite4680-4-9-6-0-5-6-9" />
      <feGaussianBlur
         stdDeviation="0.01"
         id="feGaussianBlur58-9-9-5-2" />
      <feOffset
         dx="0"
         dy="0"
         id="feOffset60-3-2-6-2" />
    </filter>
    <filter
       x="-0.078730231"
       width="1.1500515"
       height="1.2667724"
       inkscape:label="magic-numbers_cyan"
       id="filter4375-4-1-1-1-9-5-8-8-3-3"
       style="color-interpolation-filters:sRGB"
       y="-0.081530456">
      <feFlood
         radius="5.0999999999999996"
         result="flood"
         flood-color="rgb(15,126,119)"
         flood-opacity="1"
         id="feFlood4377-7-9-0-8-1-7-3-1-6-61" />
      <feComposite
         baseFrequency="0.053999999999999999 0.053999999999999999"
         result="composite1"
         operator="in"
         in="flood"
         in2="SourceGraphic"
         id="feComposite4379-3-8-8-2-77-4-1-0-7-2" />
      <feMorphology
         result="result3"
         radius="0.96959439099754563"
         operator="dilate"
         id="feMorphology4393-1-0-49-8-9-3-0-1-5-9" />
      <feComposite
         numOctaves="4"
         result="fbSourceGraphic"
         operator="over"
         in="SourceGraphic"
         in2="result3"
         id="feComposite4385-9-5-7-0-8-8-7-5-3-3" />
      <feColorMatrix
         id="feColorMatrix4544-9-5-1"
         values="0 0 0 -1 0 0 0 0 -1 0 0 0 0 -1 0 0 0 0 1 0"
         in="fbSourceGraphic"
         result="fbSourceGraphicAlpha" />
      <feTurbulence
         result="turbulence"
         baseFrequency="0.062 0.054054054054054057"
         seed="172"
         numOctaves="4.4123222748815163"
         type="fractalNoise"
         id="feTurbulence4546-3-6-9" />
      <feDisplacementMap
         result="fbSourceGraphic"
         xChannelSelector="R"
         yChannelSelector="G"
         scale="11.642079"
         in="fbSourceGraphic"
         in2="turbulence"
         id="feDisplacementMap4548-8-2-4" />
      <feColorMatrix
         scale="10.800000000000001"
         id="feColorMatrix4670-7-9-7"
         values="0 0 0 -1 0 0 0 0 -1 0 0 0 0 -1 0 0 0 0 1 0"
         in="fbSourceGraphic"
         result="fbSourceGraphicAlpha" />
      <feComposite
         result="composite1"
         operator="in"
         in="flood"
         in2="fbSourceGraphic"
         id="feComposite4674-8-2-4" />
      <feGaussianBlur
         result="blur"
         stdDeviation="1.5865199271065846"
         in="composite1"
         id="feGaussianBlur4676-3-7-50" />
      <feOffset
         result="offset"
         dy="5.2374444725016502"
         dx="-0.42771311737301687"
         id="feOffset4678-6-0-3" />
      <feComposite
         result="composite2"
         operator="over"
         in="fbSourceGraphic"
         in2="offset"
         id="feComposite4680-4-9-6" />
      <feGaussianBlur
         stdDeviation="0.01"
         id="feGaussianBlur58" />
      <feOffset
         dx="0"
         dy="0"
         id="feOffset60" />
    </filter>
    <filter
       style="color-interpolation-filters:sRGB"
       id="filter4375-4-1-1-1-9-5-8-8-3-3-7"
       inkscape:label="magic-numbers_cyan"
       height="1.2764227"
       width="1.3091304"
       x="-0.16186552"
       y="-0.086004289">
      <feFlood
         id="feFlood4377-7-9-0-8-1-7-3-1-6-61-3"
         flood-opacity="1"
         flood-color="rgb(15,126,119)"
         result="flood"
         radius="5.0999999999999996" />
      <feComposite
         id="feComposite4379-3-8-8-2-77-4-1-0-7-2-6"
         in2="SourceGraphic"
         in="flood"
         operator="in"
         result="composite1"
         baseFrequency="0.053999999999999999 0.053999999999999999" />
      <feMorphology
         id="feMorphology4393-1-0-49-8-9-3-0-1-5-9-1"
         operator="dilate"
         radius="0.96959439099754563"
         result="result3" />
      <feComposite
         id="feComposite4385-9-5-7-0-8-8-7-5-3-3-2"
         in2="result3"
         in="SourceGraphic"
         operator="over"
         result="fbSourceGraphic"
         numOctaves="4" />
      <feColorMatrix
         result="fbSourceGraphicAlpha"
         in="fbSourceGraphic"
         values="0 0 0 -1 0 0 0 0 -1 0 0 0 0 -1 0 0 0 0 1 0"
         id="feColorMatrix4544-9-5-1-9" />
      <feTurbulence
         id="feTurbulence4546-3-6-9-3"
         type="fractalNoise"
         numOctaves="4.4123222748815163"
         seed="172"
         baseFrequency="0.062 0.054054054054054057"
         result="turbulence" />
      <feDisplacementMap
         id="feDisplacementMap4548-8-2-4-1"
         in2="turbulence"
         in="fbSourceGraphic"
         scale="11.642079"
         yChannelSelector="G"
         xChannelSelector="R"
         result="fbSourceGraphic" />
      <feColorMatrix
         result="fbSourceGraphicAlpha"
         in="fbSourceGraphic"
         values="0 0 0 -1 0 0 0 0 -1 0 0 0 0 -1 0 0 0 0 1 0"
         id="feColorMatrix4670-7-9-7-9"
         scale="10.800000000000001" />
      <feComposite
         id="feComposite4674-8-2-4-4"
         in2="fbSourceGraphic"
         in="flood"
         operator="in"
         result="composite1" />
      <feGaussianBlur
         id="feGaussianBlur4676-3-7-50-7"
         in="composite1"
         stdDeviation="1.5865199271065846"
         result="blur" />
      <feOffset
         id="feOffset4678-6-0-3-8"
         dx="-0.42771311737301687"
         dy="5.2374444725016502"
         result="offset" />
      <feComposite
         id="feComposite4680-4-9-6-4"
         in2="offset"
         in="fbSourceGraphic"
         operator="over"
         result="composite2" />
      <feGaussianBlur
         id="feGaussianBlur58-5"
         stdDeviation="0.01" />
      <feOffset
         id="feOffset60-0"
         dy="0"
         dx="0" />
    </filter>
    <filter
       style="color-interpolation-filters:sRGB"
       id="filter4375-4-1-1-1-9-5-8-8-3-3-3-6-1-6-0"
       inkscape:label="magic-numbers_orange"
       height="1.1335767"
       width="1.0467429"
       x="-0.029091233"
       y="-0.013444027">
      <feFlood
         id="feFlood4377-7-9-0-8-1-7-3-1-6-61-6-2-0-2-6"
         flood-opacity="1"
         flood-color="rgb(216,88,33)"
         result="flood"
         radius="5.0999999999999996" />
      <feComposite
         id="feComposite4379-3-8-8-2-77-4-1-0-7-2-7-6-6-6-3"
         in2="SourceGraphic"
         in="flood"
         operator="in"
         result="composite1"
         baseFrequency="0.053999999999999999 0.053999999999999999" />
      <feMorphology
         id="feMorphology4393-1-0-49-8-9-3-0-1-5-9-5-1-3-1-2"
         operator="dilate"
         radius="0.96959439099754563"
         result="result3" />
      <feComposite
         id="feComposite4385-9-5-7-0-8-8-7-5-3-3-3-8-2-8-0"
         in2="result3"
         in="SourceGraphic"
         operator="over"
         result="fbSourceGraphic"
         numOctaves="4" />
      <feColorMatrix
         result="fbSourceGraphicAlpha"
         in="fbSourceGraphic"
         values="0 0 0 -1 0 0 0 0 -1 0 0 0 0 -1 0 0 0 0 1 0"
         id="feColorMatrix4544-9-5-1-5-7-0-7-6" />
      <feTurbulence
         id="feTurbulence4546-3-6-9-6-9-6-9-1"
         type="fractalNoise"
         numOctaves="4.4123222748815163"
         seed="172"
         baseFrequency="0.062 0.054054054054054057"
         result="turbulence" />
      <feDisplacementMap
         id="feDisplacementMap4548-8-2-4-2-2-1-20-5"
         in2="turbulence"
         in="fbSourceGraphic"
         scale="11.642079"
         yChannelSelector="G"
         xChannelSelector="R"
         result="fbSourceGraphic" />
      <feColorMatrix
         result="fbSourceGraphicAlpha"
         in="fbSourceGraphic"
         values="0 0 0 -1 0 0 0 0 -1 0 0 0 0 -1 0 0 0 0 1 0"
         id="feColorMatrix4670-7-9-7-9-0-5-2-5"
         scale="10.800000000000001" />
      <feComposite
         id="feComposite4674-8-2-4-1-2-5-3-4"
         in2="fbSourceGraphic"
         in="flood"
         operator="in"
         result="composite1" />
      <feGaussianBlur
         id="feGaussianBlur4676-3-7-50-2-3-4-7-7"
         in="composite1"
         stdDeviation="0.01"
         result="blur" />
      <feOffset
         id="feOffset4678-6-0-3-7-7-7-5-6"
         dx="-0.42771311737301687"
         dy="5.2374444725016502"
         result="offset" />
      <feComposite
         id="feComposite4680-4-9-6-0-5-6-9-5"
         in2="offset"
         in="fbSourceGraphic"
         operator="over"
         result="composite2" />
      <feGaussianBlur
         id="feGaussianBlur58-9-9-5-2-6"
         stdDeviation="0.01" />
      <feOffset
         id="feOffset60-3-2-6-2-9"
         dy="0"
         dx="0" />
    </filter>
    <filter
       x="-0.16426679"
       width="1.3140004"
       height="1.2903468"
       inkscape:label="magic-numbers_cyan"
       id="filter4375-4-1-1-1-9-5-8-8-3-3-7-4"
       style="color-interpolation-filters:sRGB"
       y="-0.0910599">
      <feFlood
         radius="5.0999999999999996"
         result="flood"
         flood-color="rgb(15,126,119)"
         flood-opacity="1"
         id="feFlood4377-7-9-0-8-1-7-3-1-6-61-3-5" />
      <feComposite
         baseFrequency="0.053999999999999999 0.053999999999999999"
         result="composite1"
         operator="in"
         in="flood"
         in2="SourceGraphic"
         id="feComposite4379-3-8-8-2-77-4-1-0-7-2-6-2" />
      <feMorphology
         result="result3"
         radius="0.96959439099754563"
         operator="dilate"
         id="feMorphology4393-1-0-49-8-9-3-0-1-5-9-1-5" />
      <feComposite
         numOctaves="4"
         result="fbSourceGraphic"
         operator="over"
         in="SourceGraphic"
         in2="result3"
         id="feComposite4385-9-5-7-0-8-8-7-5-3-3-2-4" />
      <feColorMatrix
         id="feColorMatrix4544-9-5-1-9-7"
         values="0 0 0 -1 0 0 0 0 -1 0 0 0 0 -1 0 0 0 0 1 0"
         in="fbSourceGraphic"
         result="fbSourceGraphicAlpha" />
      <feTurbulence
         result="turbulence"
         baseFrequency="0.062 0.054054054054054057"
         seed="172"
         numOctaves="4.4123222748815163"
         type="fractalNoise"
         id="feTurbulence4546-3-6-9-3-4" />
      <feDisplacementMap
         result="fbSourceGraphic"
         xChannelSelector="R"
         yChannelSelector="G"
         scale="11.642079"
         in="fbSourceGraphic"
         in2="turbulence"
         id="feDisplacementMap4548-8-2-4-1-4" />
      <feColorMatrix
         scale="10.800000000000001"
         id="feColorMatrix4670-7-9-7-9-3"
         values="0 0 0 -1 0 0 0 0 -1 0 0 0 0 -1 0 0 0 0 1 0"
         in="fbSourceGraphic"
         result="fbSourceGraphicAlpha" />
      <feComposite
         result="composite1"
         operator="in"
         in="flood"
         in2="fbSourceGraphic"
         id="feComposite4674-8-2-4-4-0" />
      <feGaussianBlur
         result="blur"
         stdDeviation="1.5865199271065846"
         in="composite1"
         id="feGaussianBlur4676-3-7-50-7-7" />
      <feOffset
         result="offset"
         dy="5.2374444725016502"
         dx="-0.42771311737301687"
         id="feOffset4678-6-0-3-8-8" />
      <feComposite
         result="composite2"
         operator="over"
         in="fbSourceGraphic"
         in2="offset"
         id="feComposite4680-4-9-6-4-6" />
      <feGaussianBlur
         stdDeviation="0.01"
         id="feGaussianBlur58-5-8" />
      <feOffset
         dx="0"
         dy="0"
         id="feOffset60-0-8" />
    </filter>
    <filter
       style="color-interpolation-filters:sRGB"
       id="filter4375-4-1-1-1-9-5-8-8-3-3-7-4-1"
       inkscape:label="magic-numbers_cyan"
       height="1.2670891"
       width="1.2306398"
       x="-0.12065737"
       y="-0.083765696">
      <feFlood
         id="feFlood4377-7-9-0-8-1-7-3-1-6-61-3-5-4"
         flood-opacity="1"
         flood-color="rgb(15,126,119)"
         result="flood"
         radius="5.0999999999999996" />
      <feComposite
         id="feComposite4379-3-8-8-2-77-4-1-0-7-2-6-2-9"
         in2="SourceGraphic"
         in="flood"
         operator="in"
         result="composite1"
         baseFrequency="0.053999999999999999 0.053999999999999999" />
      <feMorphology
         id="feMorphology4393-1-0-49-8-9-3-0-1-5-9-1-5-2"
         operator="dilate"
         radius="0.96959439099754563"
         result="result3" />
      <feComposite
         id="feComposite4385-9-5-7-0-8-8-7-5-3-3-2-4-0"
         in2="result3"
         in="SourceGraphic"
         operator="over"
         result="fbSourceGraphic"
         numOctaves="4" />
      <feColorMatrix
         result="fbSourceGraphicAlpha"
         in="fbSourceGraphic"
         values="0 0 0 -1 0 0 0 0 -1 0 0 0 0 -1 0 0 0 0 1 0"
         id="feColorMatrix4544-9-5-1-9-7-6" />
      <feTurbulence
         id="feTurbulence4546-3-6-9-3-4-8"
         type="fractalNoise"
         numOctaves="4.4123222748815163"
         seed="172"
         baseFrequency="0.062 0.054054054054054057"
         result="turbulence" />
      <feDisplacementMap
         id="feDisplacementMap4548-8-2-4-1-4-9"
         in2="turbulence"
         in="fbSourceGraphic"
         scale="11.642079"
         yChannelSelector="G"
         xChannelSelector="R"
         result="fbSourceGraphic" />
      <feColorMatrix
         result="fbSourceGraphicAlpha"
         in="fbSourceGraphic"
         values="0 0 0 -1 0 0 0 0 -1 0 0 0 0 -1 0 0 0 0 1 0"
         id="feColorMatrix4670-7-9-7-9-3-2"
         scale="10.800000000000001" />
      <feComposite
         id="feComposite4674-8-2-4-4-0-6"
         in2="fbSourceGraphic"
         in="flood"
         operator="in"
         result="composite1" />
      <feGaussianBlur
         id="feGaussianBlur4676-3-7-50-7-7-6"
         in="composite1"
         stdDeviation="1.5865199271065846"
         result="blur" />
      <feOffset
         id="feOffset4678-6-0-3-8-8-4"
         dx="-0.42771311737301687"
         dy="5.2374444725016502"
         result="offset" />
      <feComposite
         id="feComposite4680-4-9-6-4-6-9"
         in2="offset"
         in="fbSourceGraphic"
         operator="over"
         result="composite2" />
      <feGaussianBlur
         id="feGaussianBlur58-5-8-5"
         stdDeviation="0.01" />
      <feOffset
         id="feOffset60-0-8-0"
         dy="0"
         dx="0" />
    </filter>
    <filter
       y="-0.30342262"
       style="color-interpolation-filters:sRGB"
       id="filter4375-4-1-1-1-9-5-8-8-3-3-3"
       inkscape:label="magic-numbers-distant_cyan"
       height="1.7091367"
       width="1.482836"
       x="-0.24469612">
      <feFlood
         id="feFlood4377-7-9-0-8-1-7-3-1-6-61-6"
         flood-opacity="1"
         flood-color="rgb(15,126,119)"
         result="flood"
         radius="5.0999999999999996" />
      <feComposite
         id="feComposite4379-3-8-8-2-77-4-1-0-7-2-7"
         in2="SourceGraphic"
         in="flood"
         operator="in"
         result="composite1"
         baseFrequency="0.053999999999999999 0.053999999999999999" />
      <feMorphology
         id="feMorphology4393-1-0-49-8-9-3-0-1-5-9-5"
         operator="dilate"
         radius="0.96959439099754563"
         result="result3" />
      <feComposite
         id="feComposite4385-9-5-7-0-8-8-7-5-3-3-3"
         in2="result3"
         in="SourceGraphic"
         operator="over"
         result="fbSourceGraphic"
         numOctaves="4" />
      <feColorMatrix
         result="fbSourceGraphicAlpha"
         in="fbSourceGraphic"
         values="0 0 0 -1 0 0 0 0 -1 0 0 0 0 -1 0 0 0 0 1 0"
         id="feColorMatrix4544-9-5-1-5" />
      <feTurbulence
         id="feTurbulence4546-3-6-9-6"
         type="fractalNoise"
         numOctaves="4.4123222748815163"
         seed="172"
         baseFrequency="0.062 0.054054054054054057"
         result="turbulence" />
      <feDisplacementMap
         id="feDisplacementMap4548-8-2-4-2"
         in2="turbulence"
         in="fbSourceGraphic"
         scale="11.642079"
         yChannelSelector="G"
         xChannelSelector="R"
         result="fbSourceGraphic" />
      <feColorMatrix
         result="fbSourceGraphicAlpha"
         in="fbSourceGraphic"
         values="0 0 0 -1 0 0 0 0 -1 0 0 0 0 -1 0 0 0 0 1 0"
         id="feColorMatrix4670-7-9-7-9-7"
         scale="10.800000000000001" />
      <feComposite
         id="feComposite4674-8-2-4-1"
         in2="fbSourceGraphic"
         in="flood"
         operator="in"
         result="composite1" />
      <feGaussianBlur
         id="feGaussianBlur4676-3-7-50-2"
         in="composite1"
         stdDeviation="2.8009584"
         result="blur" />
      <feOffset
         id="feOffset4678-6-0-3-7"
         dx="-0.42771311737301687"
         dy="5.2374444725016502"
         result="offset" />
      <feComposite
         id="feComposite4680-4-9-6-0"
         in2="offset"
         in="fbSourceGraphic"
         operator="over"
         result="composite2" />
      <feGaussianBlur
         id="feGaussianBlur58-9"
         stdDeviation="3.2907475062779015" />
      <feOffset
         id="feOffset60-3"
         dy="0"
         dx="0" />
    </filter>
    <filter
       x="-0.27033201"
       width="1.5334209"
       height="1.7148633"
       inkscape:label="magic-numbers-distant_cyan"
       id="filter4375-4-1-1-1-9-5-8-8-3-3-3-2"
       style="color-interpolation-filters:sRGB"
       y="-0.30587287">
      <feFlood
         radius="5.0999999999999996"
         result="flood"
         flood-color="rgb(15,126,119)"
         flood-opacity="1"
         id="feFlood4377-7-9-0-8-1-7-3-1-6-61-6-7" />
      <feComposite
         baseFrequency="0.053999999999999999 0.053999999999999999"
         result="composite1"
         operator="in"
         in="flood"
         in2="SourceGraphic"
         id="feComposite4379-3-8-8-2-77-4-1-0-7-2-7-2" />
      <feMorphology
         result="result3"
         radius="0.96959439099754563"
         operator="dilate"
         id="feMorphology4393-1-0-49-8-9-3-0-1-5-9-5-2" />
      <feComposite
         numOctaves="4"
         result="fbSourceGraphic"
         operator="over"
         in="SourceGraphic"
         in2="result3"
         id="feComposite4385-9-5-7-0-8-8-7-5-3-3-3-6" />
      <feColorMatrix
         id="feColorMatrix4544-9-5-1-5-1"
         values="0 0 0 -1 0 0 0 0 -1 0 0 0 0 -1 0 0 0 0 1 0"
         in="fbSourceGraphic"
         result="fbSourceGraphicAlpha" />
      <feTurbulence
         result="turbulence"
         baseFrequency="0.062 0.054054054054054057"
         seed="172"
         numOctaves="4.4123222748815163"
         type="fractalNoise"
         id="feTurbulence4546-3-6-9-6-0" />
      <feDisplacementMap
         result="fbSourceGraphic"
         xChannelSelector="R"
         yChannelSelector="G"
         scale="11.642079"
         in="fbSourceGraphic"
         in2="turbulence"
         id="feDisplacementMap4548-8-2-4-2-6" />
      <feColorMatrix
         scale="10.800000000000001"
         id="feColorMatrix4670-7-9-7-9-7-1"
         values="0 0 0 -1 0 0 0 0 -1 0 0 0 0 -1 0 0 0 0 1 0"
         in="fbSourceGraphic"
         result="fbSourceGraphicAlpha" />
      <feComposite
         result="composite1"
         operator="in"
         in="flood"
         in2="fbSourceGraphic"
         id="feComposite4674-8-2-4-1-5" />
      <feGaussianBlur
         result="blur"
         stdDeviation="2.8009584"
         in="composite1"
         id="feGaussianBlur4676-3-7-50-2-9" />
      <feOffset
         result="offset"
         dy="5.2374444725016502"
         dx="-0.42771311737301687"
         id="feOffset4678-6-0-3-7-4" />
      <feComposite
         result="composite2"
         operator="over"
         in="fbSourceGraphic"
         in2="offset"
         id="feComposite4680-4-9-6-0-9" />
      <feGaussianBlur
         stdDeviation="3.2907475062779015"
         id="feGaussianBlur58-9-0" />
      <feOffset
         dx="0"
         dy="0"
         id="feOffset60-3-9" />
    </filter>
    <filter
       y="-0.29544424"
       x="-0.2225672"
       width="1.4390617"
       height="1.6923671"
       inkscape:label="magic-numbers-distant_orange"
       id="filter4375-4-1-1-1-9-5-8-8-3-3-3-0"
       style="color-interpolation-filters:sRGB">
      <feFlood
         radius="5.0999999999999996"
         result="flood"
         flood-color="rgb(195,47,14)"
         flood-opacity="1"
         id="feFlood4377-7-9-0-8-1-7-3-1-6-61-6-6" />
      <feComposite
         baseFrequency="0.053999999999999999 0.053999999999999999"
         result="composite1"
         operator="in"
         in="flood"
         in2="SourceGraphic"
         id="feComposite4379-3-8-8-2-77-4-1-0-7-2-7-2-7" />
      <feMorphology
         result="result3"
         radius="0.96959439099754563"
         operator="dilate"
         id="feMorphology4393-1-0-49-8-9-3-0-1-5-9-5-6" />
      <feComposite
         numOctaves="4"
         result="fbSourceGraphic"
         operator="over"
         in="SourceGraphic"
         in2="result3"
         id="feComposite4385-9-5-7-0-8-8-7-5-3-3-3-1" />
      <feColorMatrix
         id="feColorMatrix4544-9-5-1-5-8"
         values="0 0 0 -1 0 0 0 0 -1 0 0 0 0 -1 0 0 0 0 1 0"
         in="fbSourceGraphic"
         result="fbSourceGraphicAlpha" />
      <feTurbulence
         result="turbulence"
         baseFrequency="0.062 0.054054054054054057"
         seed="172"
         numOctaves="4.4123222748815163"
         type="fractalNoise"
         id="feTurbulence4546-3-6-9-6-7" />
      <feDisplacementMap
         result="fbSourceGraphic"
         xChannelSelector="R"
         yChannelSelector="G"
         scale="11.642079"
         in="fbSourceGraphic"
         in2="turbulence"
         id="feDisplacementMap4548-8-2-4-2-9" />
      <feColorMatrix
         scale="10.800000000000001"
         id="feColorMatrix4670-7-9-7-9-2"
         values="0 0 0 -1 0 0 0 0 -1 0 0 0 0 -1 0 0 0 0 1 0"
         in="fbSourceGraphic"
         result="fbSourceGraphicAlpha" />
      <feComposite
         result="composite1"
         operator="in"
         in="flood"
         in2="fbSourceGraphic"
         id="feComposite4674-8-2-4-1-0" />
      <feGaussianBlur
         result="blur"
         stdDeviation="2.5512148821149552"
         in="composite1"
         id="feGaussianBlur4676-3-7-50-2-2" />
      <feOffset
         result="offset"
         dy="5.2374444725016502"
         dx="-0.42771311737301687"
         id="feOffset4678-6-0-3-7-3" />
      <feComposite
         result="composite2"
         operator="over"
         in="fbSourceGraphic"
         in2="offset"
         id="feComposite4680-4-9-6-0-7" />
      <feGaussianBlur
         stdDeviation="3.2907475062779015"
         id="feGaussianBlur58-9-5" />
      <feOffset
         dx="0"
         dy="0"
         id="feOffset60-3-9-1" />
    </filter>
    <filter
       style="color-interpolation-filters:sRGB"
       id="filter4375-4-1-1-1-9-5-8-8-3-3-3-0-1"
       inkscape:label="magic-numbers-distant_orange"
       height="1.6898033"
       width="1.4448877"
       x="-0.22559644"
       y="-0.29327338">
      <feFlood
         id="feFlood4377-7-9-0-8-1-7-3-1-6-61-6-6-5"
         flood-opacity="1"
         flood-color="rgb(195,47,14)"
         result="flood"
         radius="5.0999999999999996" />
      <feComposite
         id="feComposite4379-3-8-8-2-77-4-1-0-7-2-7-2-7-9"
         in2="SourceGraphic"
         in="flood"
         operator="in"
         result="composite1"
         baseFrequency="0.053999999999999999 0.053999999999999999" />
      <feMorphology
         id="feMorphology4393-1-0-49-8-9-3-0-1-5-9-5-6-7"
         operator="dilate"
         radius="0.96959439099754563"
         result="result3" />
      <feComposite
         id="feComposite4385-9-5-7-0-8-8-7-5-3-3-3-1-7"
         in2="result3"
         in="SourceGraphic"
         operator="over"
         result="fbSourceGraphic"
         numOctaves="4" />
      <feColorMatrix
         result="fbSourceGraphicAlpha"
         in="fbSourceGraphic"
         values="0 0 0 -1 0 0 0 0 -1 0 0 0 0 -1 0 0 0 0 1 0"
         id="feColorMatrix4544-9-5-1-5-8-6" />
      <feTurbulence
         id="feTurbulence4546-3-6-9-6-7-7"
         type="fractalNoise"
         numOctaves="4.4123222748815163"
         seed="172"
         baseFrequency="0.062 0.054054054054054057"
         result="turbulence" />
      <feDisplacementMap
         id="feDisplacementMap4548-8-2-4-2-9-3"
         in2="turbulence"
         in="fbSourceGraphic"
         scale="11.642079"
         yChannelSelector="G"
         xChannelSelector="R"
         result="fbSourceGraphic" />
      <feColorMatrix
         result="fbSourceGraphicAlpha"
         in="fbSourceGraphic"
         values="0 0 0 -1 0 0 0 0 -1 0 0 0 0 -1 0 0 0 0 1 0"
         id="feColorMatrix4670-7-9-7-9-2-6"
         scale="10.800000000000001" />
      <feComposite
         id="feComposite4674-8-2-4-1-0-5"
         in2="fbSourceGraphic"
         in="flood"
         operator="in"
         result="composite1" />
      <feGaussianBlur
         id="feGaussianBlur4676-3-7-50-2-2-6"
         in="composite1"
         stdDeviation="2.5512148821149552"
         result="blur" />
      <feOffset
         id="feOffset4678-6-0-3-7-3-3"
         dx="-0.42771311737301687"
         dy="5.2374444725016502"
         result="offset" />
      <feComposite
         id="feComposite4680-4-9-6-0-7-9"
         in2="offset"
         in="fbSourceGraphic"
         operator="over"
         result="composite2" />
      <feGaussianBlur
         id="feGaussianBlur58-9-5-4"
         stdDeviation="3.2907475062779015" />
      <feOffset
         id="feOffset60-3-9-1-8"
         dy="0"
         dx="0" />
    </filter>
    <filter
       style="color-interpolation-filters:sRGB"
       id="filter4375-4-1-1-1-9-5-8-8-3-3-3-0-9"
       inkscape:label="magic-numbers-distant_orange"
       height="1.7543104"
       width="2.3305225"
       x="-0.67446245"
       y="-0.32187648">
      <feFlood
         id="feFlood4377-7-9-0-8-1-7-3-1-6-61-6-6-3"
         flood-opacity="1"
         flood-color="rgb(195,47,14)"
         result="flood"
         radius="5.0999999999999996" />
      <feComposite
         id="feComposite4379-3-8-8-2-77-4-1-0-7-2-7-2-7-90"
         in2="SourceGraphic"
         in="flood"
         operator="in"
         result="composite1"
         baseFrequency="0.053999999999999999 0.053999999999999999" />
      <feMorphology
         id="feMorphology4393-1-0-49-8-9-3-0-1-5-9-5-6-8"
         operator="dilate"
         radius="0.96959439099754563"
         result="result3" />
      <feComposite
         id="feComposite4385-9-5-7-0-8-8-7-5-3-3-3-1-8"
         in2="result3"
         in="SourceGraphic"
         operator="over"
         result="fbSourceGraphic"
         numOctaves="4" />
      <feColorMatrix
         result="fbSourceGraphicAlpha"
         in="fbSourceGraphic"
         values="0 0 0 -1 0 0 0 0 -1 0 0 0 0 -1 0 0 0 0 1 0"
         id="feColorMatrix4544-9-5-1-5-8-5" />
      <feTurbulence
         id="feTurbulence4546-3-6-9-6-7-0"
         type="fractalNoise"
         numOctaves="4.4123222748815163"
         seed="172"
         baseFrequency="0.062 0.054054054054054057"
         result="turbulence" />
      <feDisplacementMap
         id="feDisplacementMap4548-8-2-4-2-9-9"
         in2="turbulence"
         in="fbSourceGraphic"
         scale="11.642079"
         yChannelSelector="G"
         xChannelSelector="R"
         result="fbSourceGraphic" />
      <feColorMatrix
         result="fbSourceGraphicAlpha"
         in="fbSourceGraphic"
         values="0 0 0 -1 0 0 0 0 -1 0 0 0 0 -1 0 0 0 0 1 0"
         id="feColorMatrix4670-7-9-7-9-2-63"
         scale="10.800000000000001" />
      <feComposite
         id="feComposite4674-8-2-4-1-0-8"
         in2="fbSourceGraphic"
         in="flood"
         operator="in"
         result="composite1" />
      <feGaussianBlur
         id="feGaussianBlur4676-3-7-50-2-2-5"
         in="composite1"
         stdDeviation="2.5512148821149552"
         result="blur" />
      <feOffset
         id="feOffset4678-6-0-3-7-3-6"
         dx="-0.42771311737301687"
         dy="5.2374444725016502"
         result="offset" />
      <feComposite
         id="feComposite4680-4-9-6-0-7-1"
         in2="offset"
         in="fbSourceGraphic"
         operator="over"
         result="composite2" />
      <feGaussianBlur
         id="feGaussianBlur58-9-5-1"
         stdDeviation="3.2907475062779015" />
      <feOffset
         id="feOffset60-3-9-1-5"
         dy="0"
         dx="0" />
    </filter>
    <filter
       inkscape:label="soundFX"
       id="filter4375-4-1-1-1-9-5-8-6"
       style="color-interpolation-filters:sRGB"
       width="1.0073995"
       x="-0.0036997394"
       y="-0.002358106"
       height="1.0047162">
      <feFlood
         result="flood"
         flood-color="rgb(46,52,54)"
         flood-opacity="1"
         id="feFlood4377-7-9-0-8-1-7-3-7" />
      <feComposite
         result="composite1"
         operator="in"
         in="flood"
         in2="SourceGraphic"
         id="feComposite4379-3-8-8-2-77-4-1-5" />
      <feMorphology
         result="result3"
         radius="6.2000000000000002"
         operator="dilate"
         id="feMorphology4393-1-0-49-8-9-3-0-3" />
      <feComposite
         result="fbSourceGraphic"
         operator="over"
         in="SourceGraphic"
         in2="result3"
         id="feComposite4385-9-5-7-0-8-8-7-56" />
      <feColorMatrix
         id="feColorMatrix4544-2"
         values="0 0 0 -1 0 0 0 0 -1 0 0 0 0 -1 0 0 0 0 1 0"
         in="fbSourceGraphic"
         result="fbSourceGraphicAlpha" />
      <feTurbulence
         result="turbulence"
         baseFrequency="0.129 0.0050000000000000001"
         seed="37"
         numOctaves="3"
         type="fractalNoise"
         id="feTurbulence4546-9" />
      <feDisplacementMap
         result="fbSourceGraphic"
         xChannelSelector="B"
         yChannelSelector="A"
         scale="10"
         in="fbSourceGraphic"
         in2="turbulence"
         id="feDisplacementMap4548-1" />
      <feColorMatrix
         id="feColorMatrix4670-2"
         values="0 0 0 -1 0 0 0 0 -1 0 0 0 0 -1 0 0 0 0 1 0"
         in="fbSourceGraphic"
         result="fbSourceGraphicAlpha" />
      <feFlood
         in="fbSourceGraphic"
         result="flood"
         flood-color="rgb(17,52,65)"
         flood-opacity="1"
         id="feFlood4672-7" />
      <feComposite
         result="composite1"
         operator="in"
         in="flood"
         in2="fbSourceGraphic"
         id="feComposite4674-0" />
      <feComposite
         result="composite2"
         operator="over"
         in="fbSourceGraphic"
         in2="composite1"
         id="feComposite4680-6" />
    </filter>
  </defs>
  <sodipodi:namedview
     pagecolor="#ffffff"
     bordercolor="#666666"
     borderopacity="1"
     objecttolerance="10"
     gridtolerance="10"
     guidetolerance="10"
     inkscape:pageopacity="0"
     inkscape:pageshadow="2"
     inkscape:window-width="1888"
     inkscape:window-height="1146"
     id="namedview4"
     showgrid="false"
     inkscape:zoom="0.26450001"
     inkscape:cx="990.54817"
     inkscape:cy="1756.1436"
     inkscape:window-x="32"
     inkscape:window-y="0"
     inkscape:window-maximized="1"
     inkscape:current-layer="layer1"
     inkscape:document-rotation="0"
     inkscape:snap-global="false"
     inkscape:pagecheckerboard="0" />
  <g
     inkscape:groupmode="layer"
     id="layer2"
     inkscape:label="artwork"
     sodipodi:insensitive="true">
    <image
       xlink:href="../gfx_Pepper-and-Carrot_by-David-Revoy_E33P06.png"
       y="0"
       x="0"
       id="image10"
       height="3503.4727"
       width="2481" />
  </g>
  <g
     inkscape:groupmode="layer"
     id="layer3"
     inkscape:label="speechbubbles">
    <path
       sodipodi:nodetypes="cccccccccccc"
       inkscape:connector-curvature="0"
       id="path4032-7"
       d="m 1451.5768,2526.8953 c 60.8279,-19.4518 106.6169,-31.8488 153.8096,-47.1442 l -38.0347,-29.0944 c 14.7203,-6.7665 30.2017,-13.4537 46.5126,-19.275 l -24.8468,-19.9585 c 48.2103,-23.4381 99.3317,-48.7352 147.6201,-73.4371 l -42.0639,-20.0039 c -47.772,31.4698 -99.4996,64.5445 -150.6379,86.9218 l 27.4399,17.5966 c -17.623,9.3943 -27.8274,10.0119 -44.737,23.6066 l 31.0344,20.7572 z"
       style="color:#000000;display:inline;overflow:visible;visibility:visible;fill:#ffffff;fill-opacity:1;fill-rule:nonzero;stroke:none;stroke-width:0.999999px;marker:none;enable-background:accumulate" />
    <path
       inkscape:connector-curvature="0"
       id="path4667"
       d="m 557.34412,410.89495 52.93792,-48.25456 -17.12587,-4.54264 35.30332,-34.02574 -13.83277,-6.9183 -38.69622,44.10121 19.34754,5.82267 z"
       style="fill:#ffffff;fill-rule:evenodd;stroke:none;stroke-width:1px;stroke-linecap:butt;stroke-linejoin:miter;stroke-opacity:1" />
    <path
       sodipodi:nodetypes="ccccccccccccccc"
       inkscape:connector-curvature="0"
       id="path3549-3"
       d="m 588.49137,350.82377 c 14.68395,-8.50038 37.43081,-9.78918 27.69224,13.89799 20.57011,-23.47085 31.22904,-22.48779 42.73388,-0.59363 -2.69715,-25.01153 14.99218,-39.69588 41.14991,-16.278 -20.63583,-33.91461 6.43418,-31.23087 19.93971,-33.65965 C 703.504,303.01096 701.1206,294.523 734.01972,292.76061 709.70949,286.87503 687.116,280.4695 718.61217,257.68344 c -8.9083,-2.56167 -32.61114,16.98887 -15.64888,-51.11622 -17.68887,19.25451 -35.39627,28.22779 -51.33754,-23.12197 -8.21021,17.26013 -18.95613,27.8331 -34.67815,-1.31366 -5.75369,17.63006 -27.94305,14.57526 -35.67719,9.14081 14.28017,24.029 12.43453,36.72733 -9.95995,34.10378 33.49596,44.9196 3.64058,32.99089 -3.30361,41.17201 27.94182,18.88912 13.26974,32.09585 6.47585,46.88921 33.53753,7.52838 25.71311,22.54634 14.00867,37.38637 z"
       style="color:#000000;display:inline;overflow:visible;visibility:visible;fill:#ffffff;fill-opacity:1;fill-rule:nonzero;stroke:none;stroke-width:1px;marker:none;enable-background:accumulate" />
    <path
       sodipodi:nodetypes="ccccccccccccccccccccccccccc"
       inkscape:connector-curvature="0"
       id="path4508-2"
       d="m 1454.1126,2131.3235 c 81.8348,30.4422 119.8277,48.1958 117.7051,-11.2928 28.7056,39.5039 76.168,41.1862 91.7902,2.1554 51.8247,32.792 83.8941,23.0533 109.1904,-1.2647 9.8239,30.7843 38.6889,24.0716 47.7587,16.3414 -2.8528,9.3661 -13.9223,24.5201 66.5743,0.448 -7.8815,9.7707 8.7617,14.4838 57.0004,-6.6267 -14.545,26.9379 56.9138,18.3332 104.7094,-4.8205 -23.8667,21.3287 -18.7959,39.5081 39.2341,2.5327 -18.6698,39.8191 16.875,34.5227 107.8154,-10.5265 -64.7929,40.3765 -102.4443,75.4586 -31.9758,68.7677 -30.3215,27.2174 -91.9958,49.6647 18.497,56.0591 -79.7104,39.085 -92.818,70.99 -26.6189,100.3544 -25.1079,-0.4559 -40.4753,2.3872 -17.1918,18.3119 -45.8265,-0.3441 -28.5146,16.4847 5.3388,37.8119 -66.627,-27.0891 -70.1781,-16.9221 -72.0317,-5.7516 -83.5335,-37.0171 -81.3561,-18.4953 -80.5157,2.2384 -27.623,-18.1845 -102.6984,-30.9683 -128.3158,0.9516 10.1239,-28.577 -26.9353,-22.1391 -116.4517,-2.4675 20.3786,-26.9944 -71.8881,-12.3643 -103.0314,5.4465 28.5733,-31.6752 -74.6687,-27.9412 -111.393,-21.2061 16.9285,-11.3349 -35.88,-34.6072 -90.4253,-18.9109 17.1318,-10.5031 13.9869,-23.4626 -47.9252,-26.7519 80.9751,-13.1943 26.3991,-36.3316 13.7412,-40.7699 80.6602,1.5751 51.0922,-43.768 2.8317,-61.7214 58.7624,10.2414 36.512,-19.3455 -52.7275,-72.1481 98.3847,34.6794 121.8189,16.9278 96.4171,-27.1604 z"
       style="display:inline;fill:#ffffff;fill-rule:evenodd;stroke:none;stroke-width:0.901866px;stroke-linecap:butt;stroke-linejoin:miter;stroke-opacity:1" />
  </g>
  <g
     id="layer1"
     inkscape:label="txt"
     inkscape:groupmode="layer">
    <text
       transform="matrix(0.97601234,0,-0.20582772,1.0245772,0,0)"
       id="text4246-1-44"
       y="300.92252"
       x="711.40863"
       style="font-style:normal;font-variant:normal;font-weight:normal;font-stretch:normal;font-size:10.9184px;line-height:0%;font-family:Lavi;-inkscape-font-specification:Lavi;text-align:center;letter-spacing:0px;word-spacing:0px;text-anchor:middle;fill:#000000;fill-opacity:1;stroke:none;stroke-width:0;stroke-miterlimit:4;stroke-dasharray:none"
       xml:space="preserve"
       inkscape:label="kingA"><tspan
         id="tspan1013-76"
         y="300.92252"
         x="711.40863"
         style="font-style:normal;font-variant:normal;font-weight:bold;font-stretch:normal;font-size:84.0595px;line-height:1.25;font-family:Lavi;-inkscape-font-specification:'Lavi Bold';fill:#000000;fill-opacity:1;stroke:#000000;stroke-width:0;stroke-miterlimit:4;stroke-dasharray:none;stroke-opacity:1"
         sodipodi:role="line">?!</tspan></text>
    <text
       xml:space="preserve"
       style="font-style:normal;font-variant:normal;font-weight:normal;font-stretch:normal;line-height:0%;font-family:Lavi;-inkscape-font-specification:Lavi;letter-spacing:2.67495px;word-spacing:0px;fill:#b5ffe1;fill-opacity:1;stroke:#316983;stroke-width:0.964704;stroke-miterlimit:4;stroke-dasharray:none;stroke-opacity:1;filter:url(#filter4375-4-1-1-1-9-5-8-8-3-3-7)"
       x="787.65729"
       y="1584.5073"
       id="text4580-6-0-0-3-36"
       transform="matrix(1.2475498,-0.05921073,-0.01872676,1.4186609,-398.23052,-1469.79)"
       inkscape:label="score1"><tspan
         sodipodi:role="line"
         id="tspan4582-1-1-0-6-1"
         x="787.65729"
         y="1584.5073"
         style="font-style:normal;font-variant:normal;font-weight:bold;font-stretch:normal;font-size:69.5991px;line-height:1.25;font-family:Drukah;-inkscape-font-specification:'Drukah Bold';fill:#b5ffe1;fill-opacity:1;stroke:#316983;stroke-width:0.964704;stroke-miterlimit:4;stroke-dasharray:none;stroke-opacity:1">3</tspan></text>
    <text
       transform="matrix(1.8638978,0.03482744,-0.02797865,1.7134503,-24.142636,-1591.5913)"
       id="text4580-6-0-0-3-3"
       y="1584.5073"
       x="787.65729"
       style="font-style:normal;font-variant:normal;font-weight:normal;font-stretch:normal;line-height:0%;font-family:Lavi;-inkscape-font-specification:Lavi;letter-spacing:3.03024px;word-spacing:0px;fill:#fff4b7;fill-opacity:1;stroke:#aa7640;stroke-width:0.717818;stroke-miterlimit:4;stroke-dasharray:none;stroke-opacity:1;filter:url(#filter4375-4-1-1-1-9-5-8-8-3-3-3-6-1)"
       xml:space="preserve"
       inkscape:label="score2"><tspan
         style="font-style:normal;font-variant:normal;font-weight:bold;font-stretch:normal;font-size:64.9472px;line-height:1.25;font-family:Drukah;-inkscape-font-specification:'Drukah Bold';fill:#fff4b7;fill-opacity:1;stroke:#aa7640;stroke-width:0.717818;stroke-miterlimit:4;stroke-dasharray:none;stroke-opacity:1"
         y="1584.5073"
         x="787.65729"
         id="tspan4582-1-1-0-6-9"
         sodipodi:role="line">24</tspan></text>
    <text
       xml:space="preserve"
       style="font-style:normal;font-variant:normal;font-weight:normal;font-stretch:normal;line-height:0%;font-family:Lavi;-inkscape-font-specification:Lavi;letter-spacing:3.03024px;word-spacing:0px;fill:#fff4b7;fill-opacity:1;stroke:#aa7640;stroke-width:1.0722;stroke-miterlimit:4;stroke-dasharray:none;stroke-opacity:1;filter:url(#filter4375-4-1-1-1-9-5-8-8-3-3-3-6-1-3)"
       x="787.65729"
       y="1584.5073"
       id="text4580-6-0-0-3-3-6"
       transform="matrix(1.2690144,0.02292713,-0.01904896,1.1279754,1253.0008,-1039.0003)"
       inkscape:label="score3"><tspan
         sodipodi:role="line"
         id="tspan4582-1-1-0-6-9-0"
         x="787.65729"
         y="1584.5073"
         style="font-style:normal;font-variant:normal;font-weight:bold;font-stretch:normal;font-size:64.9472px;line-height:1.25;font-family:Drukah;-inkscape-font-specification:'Drukah Bold';fill:#fff4b7;fill-opacity:1;stroke:#aa7640;stroke-width:1.0722;stroke-miterlimit:4;stroke-dasharray:none;stroke-opacity:1">38</tspan></text>
    <text
       xml:space="preserve"
       style="font-style:normal;font-variant:normal;font-weight:normal;font-stretch:normal;line-height:0%;font-family:Lavi;-inkscape-font-specification:Lavi;letter-spacing:3.03024px;word-spacing:0px;opacity:0.801401;fill:#fff4b7;fill-opacity:1;stroke:#aa7640;stroke-width:0.982548;stroke-miterlimit:4;stroke-dasharray:none;stroke-opacity:1;filter:url(#filter4375-4-1-1-1-9-5-8-8-3-3-3-6-1-6)"
       x="787.65729"
       y="1584.5073"
       id="text4580-6-0-0-3-3-8"
       transform="matrix(1.3315191,0.02602062,-0.0199872,1.28017,-221.75536,-1281.1588)"
       inkscape:label="score4"><tspan
         sodipodi:role="line"
         id="tspan4582-1-1-0-6-9-9"
         x="787.65729"
         y="1584.5073"
         style="font-style:normal;font-variant:normal;font-weight:bold;font-stretch:normal;font-size:64.9472px;line-height:1.25;font-family:Drukah;-inkscape-font-specification:'Drukah Bold';fill:#fff4b7;fill-opacity:1;stroke:#aa7640;stroke-width:0.982548;stroke-miterlimit:4;stroke-dasharray:none;stroke-opacity:1">6</tspan></text>
    <text
       transform="matrix(2.1319605,-0.09879571,-0.0320025,2.3670983,-1336.8076,-2672.2272)"
       id="text4580-6-0-0-3"
       y="1584.5073"
       x="787.65729"
       style="font-style:normal;font-variant:normal;font-weight:normal;font-stretch:normal;line-height:0%;font-family:Lavi;-inkscape-font-specification:Lavi;letter-spacing:2.67495px;word-spacing:0px;fill:#b5ffe1;fill-opacity:1;stroke:#316983;stroke-width:0.571301;stroke-miterlimit:4;stroke-dasharray:none;stroke-opacity:1;filter:url(#filter4375-4-1-1-1-9-5-8-8-3-3)"
       xml:space="preserve"
       inkscape:label="score5"><tspan
         style="font-style:normal;font-variant:normal;font-weight:bold;font-stretch:normal;font-size:69.5991px;line-height:1.25;font-family:Drukah;-inkscape-font-specification:'Drukah Bold';fill:#b5ffe1;fill-opacity:1;stroke:#316983;stroke-width:0.571301;stroke-miterlimit:4;stroke-dasharray:none;stroke-opacity:1"
         y="1584.5073"
         x="787.65729"
         id="tspan4582-1-1-0-6"
         sodipodi:role="line">12</tspan></text>
    <text
       transform="matrix(0.98875845,0.02258105,-0.01484208,1.1109491,671.00231,-1079.7682)"
       id="text4580-6-0-0-3-3-8-3"
       y="1584.5073"
       x="787.65729"
       style="font-style:normal;font-variant:normal;font-weight:normal;font-stretch:normal;line-height:0%;font-family:Lavi;-inkscape-font-specification:Lavi;letter-spacing:3.03024px;word-spacing:0px;fill:#fff4b7;fill-opacity:1;stroke:#aa7640;stroke-width:1.22396;stroke-miterlimit:4;stroke-dasharray:none;stroke-opacity:1;filter:url(#filter4375-4-1-1-1-9-5-8-8-3-3-3-6-1-6-0)"
       xml:space="preserve"
       inkscape:label="score6"><tspan
         style="font-style:normal;font-variant:normal;font-weight:bold;font-stretch:normal;font-size:64.9472px;line-height:1.25;font-family:Lavi;-inkscape-font-specification:'Lavi Bold';fill:#fff4b7;fill-opacity:1;stroke:#aa7640;stroke-width:1.22396;stroke-miterlimit:4;stroke-dasharray:none;stroke-opacity:1"
         y="1584.5073"
         x="787.65729"
         id="tspan4582-1-1-0-6-9-9-7"
         sodipodi:role="line">0</tspan></text>
    <text
       transform="matrix(1.0847661,-0.04791595,-0.01628324,1.1480435,800.61159,-989.03103)"
       id="text4580-6-0-0-3-36-4"
       y="1584.5073"
       x="787.65729"
       style="font-style:normal;font-variant:normal;font-weight:normal;font-stretch:normal;line-height:0%;font-family:Lavi;-inkscape-font-specification:Lavi;letter-spacing:2.67495px;word-spacing:0px;fill:#b5ffe1;fill-opacity:1;stroke:#316983;stroke-width:1.15005;stroke-miterlimit:4;stroke-dasharray:none;stroke-opacity:1;filter:url(#filter4375-4-1-1-1-9-5-8-8-3-3-7-4)"
       xml:space="preserve"
       inkscape:label="score7"><tspan
         style="font-style:normal;font-variant:normal;font-weight:bold;font-stretch:normal;font-size:69.5991px;line-height:1.25;font-family:Drukah;-inkscape-font-specification:'Drukah Bold';fill:#b5ffe1;fill-opacity:1;stroke:#316983;stroke-width:1.15005;stroke-miterlimit:4;stroke-dasharray:none;stroke-opacity:1"
         y="1584.5073"
         x="787.65729"
         id="tspan4582-1-1-0-6-1-3"
         sodipodi:role="line">5</tspan></text>
    <text
       xml:space="preserve"
       style="font-style:normal;font-variant:normal;font-weight:normal;font-stretch:normal;line-height:0%;font-family:Lavi;-inkscape-font-specification:Lavi;letter-spacing:2.67495px;word-spacing:0px;fill:#b5ffe1;fill-opacity:1;stroke:#316983;stroke-width:1.15005;stroke-miterlimit:4;stroke-dasharray:none;stroke-opacity:1;filter:url(#filter4375-4-1-1-1-9-5-8-8-3-3-7-4-1)"
       x="787.65729"
       y="1584.5073"
       id="text4580-6-0-0-3-36-4-4"
       transform="matrix(1.0847661,-0.04791595,-0.01628324,1.1480435,1309.4221,-1056.7201)"
       inkscape:label="score8"><tspan
         sodipodi:role="line"
         id="tspan4582-1-1-0-6-1-3-8"
         x="787.65729"
         y="1584.5073"
         style="font-style:normal;font-variant:normal;font-weight:bold;font-stretch:normal;font-size:69.5991px;line-height:1.25;font-family:Lavi;-inkscape-font-specification:'Lavi Bold';fill:#b5ffe1;fill-opacity:1;stroke:#316983;stroke-width:1.15005;stroke-miterlimit:4;stroke-dasharray:none;stroke-opacity:1">0</tspan></text>
    <text
       transform="matrix(0.68141678,0.01464139,-0.01022863,0.72033121,1367.4752,-337.42385)"
       id="text4580-6-0-0-3-3-6-1"
       y="1584.5073"
       x="787.65729"
       style="font-style:normal;font-variant:normal;font-weight:normal;font-stretch:normal;line-height:0%;font-family:Lavi;-inkscape-font-specification:Lavi;letter-spacing:3.03024px;word-spacing:0px;fill:#b5ffe1;fill-opacity:1;stroke:#316983;stroke-width:1.831;stroke-miterlimit:4;stroke-dasharray:none;stroke-opacity:1;filter:url(#filter4375-4-1-1-1-9-5-8-8-3-3-3)"
       xml:space="preserve"
       inkscape:label="score9"><tspan
         style="font-style:normal;font-variant:normal;font-weight:bold;font-stretch:normal;font-size:70px;line-height:1.25;font-family:Drukah;-inkscape-font-specification:'Drukah Bold';fill:#b5ffe1;fill-opacity:1;stroke:#316983;stroke-width:1.831;stroke-miterlimit:4;stroke-dasharray:none;stroke-opacity:1"
         y="1584.5073"
         x="787.65729"
         id="tspan4582-1-1-0-6-9-0-7"
         sodipodi:role="line">37</tspan></text>
    <text
       xml:space="preserve"
       style="font-style:normal;font-variant:normal;font-weight:normal;font-stretch:normal;line-height:0%;font-family:Lavi;-inkscape-font-specification:Lavi;letter-spacing:3.03024px;word-spacing:0px;fill:#b5ffe1;fill-opacity:1;stroke:#316983;stroke-width:1.831;stroke-miterlimit:4;stroke-dasharray:none;stroke-opacity:1;filter:url(#filter4375-4-1-1-1-9-5-8-8-3-3-3-2)"
       x="787.65729"
       y="1584.5073"
       id="text4580-6-0-0-3-3-6-1-1"
       transform="matrix(0.68141678,0.01464139,-0.01022863,0.72033121,-6.2369482,-343.24167)"
       inkscape:label="score10"><tspan
         sodipodi:role="line"
         id="tspan4582-1-1-0-6-9-0-7-7"
         x="787.65729"
         y="1584.5073"
         style="font-style:normal;font-variant:normal;font-weight:bold;font-stretch:normal;font-size:70px;line-height:1.25;font-family:Drukah;-inkscape-font-specification:'Drukah Bold';fill:#b5ffe1;fill-opacity:1;stroke:#316983;stroke-width:1.831;stroke-miterlimit:4;stroke-dasharray:none;stroke-opacity:1">21</tspan></text>
    <text
       transform="matrix(0.51292995,0.01081855,-0.0076995,0.53225404,517.25938,-43.941405)"
       id="text4580-6-0-0-3-3-6-2"
       y="1584.5073"
       x="787.65729"
       style="font-style:normal;font-variant:normal;font-weight:normal;font-stretch:normal;line-height:0%;font-family:Lavi;-inkscape-font-specification:Lavi;letter-spacing:3.03024px;word-spacing:0px;opacity:0.582599;fill:#fff890;fill-opacity:1;stroke:#a5813e;stroke-width:2.45512;stroke-miterlimit:4;stroke-dasharray:none;stroke-opacity:1;filter:url(#filter4375-4-1-1-1-9-5-8-8-3-3-3-0)"
       xml:space="preserve"
       inkscape:label="score11"><tspan
         style="font-style:normal;font-variant:normal;font-weight:bold;font-stretch:normal;font-size:70px;line-height:1.25;font-family:Drukah;-inkscape-font-specification:'Drukah Bold';fill:#fff890;fill-opacity:1;stroke:#a5813e;stroke-width:2.45512;stroke-miterlimit:4;stroke-dasharray:none;stroke-opacity:1"
         y="1584.5073"
         x="787.65729"
         id="tspan4582-1-1-0-6-9-0-8"
         sodipodi:role="line">62</tspan></text>
    <text
       xml:space="preserve"
       style="font-style:normal;font-variant:normal;font-weight:normal;font-stretch:normal;line-height:0%;font-family:Lavi;-inkscape-font-specification:Lavi;letter-spacing:3.03024px;word-spacing:0px;opacity:0.808568;fill:#fff890;fill-opacity:1;stroke:#a5813e;stroke-width:1.70979;stroke-miterlimit:4;stroke-dasharray:none;stroke-opacity:1;filter:url(#filter4375-4-1-1-1-9-5-8-8-3-3-3-0-1)"
       x="787.65729"
       y="1584.5073"
       id="text4580-6-0-0-3-3-6-2-1"
       transform="matrix(0.72322138,0.01582032,-0.01085615,0.77833243,560.82693,-455.54919)"
       inkscape:label="score12"><tspan
         sodipodi:role="line"
         id="tspan4582-1-1-0-6-9-0-8-2"
         x="787.65729"
         y="1584.5073"
         style="font-style:normal;font-variant:normal;font-weight:bold;font-stretch:normal;font-size:70px;line-height:1.25;font-family:Drukah;-inkscape-font-specification:'Drukah Bold';fill:#fff890;fill-opacity:1;stroke:#a5813e;stroke-width:1.70979;stroke-miterlimit:4;stroke-dasharray:none;stroke-opacity:1">27</tspan></text>
    <text
       xml:space="preserve"
       style="font-style:normal;font-variant:normal;font-weight:normal;font-stretch:normal;line-height:0%;font-family:Lavi;-inkscape-font-specification:Lavi;letter-spacing:3.03024px;word-spacing:0px;opacity:0.582599;fill:#fff890;fill-opacity:1;stroke:#a5813e;stroke-width:2.45512;stroke-miterlimit:4;stroke-dasharray:none;stroke-opacity:1;filter:url(#filter4375-4-1-1-1-9-5-8-8-3-3-3-0-9)"
       x="787.65729"
       y="1584.5073"
       id="text4580-6-0-0-3-3-6-2-9"
       transform="matrix(0.51292995,0.01081855,-0.0076995,0.53225404,1609.5785,-63.014753)"
       inkscape:label="score13"><tspan
         sodipodi:role="line"
         id="tspan4582-1-1-0-6-9-0-8-8"
         x="787.65729"
         y="1584.5073"
         style="font-style:normal;font-variant:normal;font-weight:bold;font-stretch:normal;font-size:70px;line-height:1.25;font-family:Drukah;-inkscape-font-specification:'Drukah Bold';fill:#fff890;fill-opacity:1;stroke:#a5813e;stroke-width:2.45512;stroke-miterlimit:4;stroke-dasharray:none;stroke-opacity:1">4</tspan></text>
    <text
       transform="matrix(1.5826303,-0.61894977,-0.32565156,2.5639957,1451.8056,-2047.7944)"
       id="text4580-6-0-06"
       y="1584.5073"
       x="787.65729"
       style="font-style:normal;font-variant:normal;font-weight:normal;font-stretch:normal;line-height:0%;font-family:Lavi;-inkscape-font-specification:Lavi;letter-spacing:0px;word-spacing:0px;fill:#ffffff;fill-opacity:1;stroke:#98b9ca;stroke-width:0.416378;stroke-miterlimit:4;stroke-dasharray:none;stroke-opacity:1;filter:url(#filter4375-4-1-1-1-9-5-8-6)"
       xml:space="preserve"
       inkscape:label="exclam"><tspan
         style="font-size:70px;line-height:1.25;fill:#ffffff;fill-opacity:1;stroke:#98b9ca;stroke-width:0.416378;stroke-opacity:1"
         y="1584.5073"
         x="787.65729"
         id="tspan4582-1-1-2"
         sodipodi:role="line"><tspan
           id="tspan4315-8-6"
           style="font-size:93.1495px;fill:#ffffff;fill-opacity:1;stroke:#98b9ca;stroke-width:0.416378;stroke-opacity:1">!</tspan><tspan
           id="tspan4313-2-1"
           style="font-size:114.732px;fill:#ffffff;fill-opacity:1;stroke:#98b9ca;stroke-width:0.416378;stroke-opacity:1">!</tspan></tspan></text>
    <text
       transform="matrix(0.94973823,0,-0.10283936,1.0529217,0,0)"
       id="text4246-6-3"
       y="2130.3127"
       x="2105.6169"
       style="font-style:normal;font-variant:normal;font-weight:normal;font-stretch:normal;font-size:17.1578px;line-height:0%;font-family:Lavi;-inkscape-font-specification:Lavi;text-align:center;letter-spacing:17.383px;word-spacing:0px;text-anchor:middle;fill:#000000;fill-opacity:1;stroke:#000000;stroke-width:1.4;stroke-miterlimit:4;stroke-dasharray:none;stroke-opacity:1"
       xml:space="preserve"
       inkscape:label="kingA2"><tspan
         id="tspan1117"
         y="2130.3127"
         x="2105.6169"
         style="font-style:normal;font-variant:normal;font-weight:bold;font-stretch:normal;font-size:64.3417px;line-height:1.2;font-family:Lavi;-inkscape-font-specification:'Lavi Bold';letter-spacing:1.09404px;stroke:#000000;stroke-width:1.4;stroke-miterlimit:4;stroke-dasharray:none;stroke-opacity:1"
         sodipodi:role="line">ČAROVNICAAA!!!!</tspan><tspan
         id="tspan260"
         y="2207.5227"
         x="2106.1641"
         style="font-style:normal;font-variant:normal;font-weight:bold;font-stretch:normal;font-size:64.3417px;line-height:1.2;font-family:Lavi;-inkscape-font-specification:'Lavi Bold';letter-spacing:1.09404px;stroke:#000000;stroke-width:1.4;stroke-miterlimit:4;stroke-dasharray:none;stroke-opacity:1"
         sodipodi:role="line">	KAJ SI STORILA?!!!!</tspan></text>
    <path
       id="rect212"
       style="color:#000000;overflow:visible;opacity:1;fill:#ffffff;stroke:none;stroke-width:6.80023;paint-order:stroke fill markers"
       transform="matrix(0.71419934,-0.69994235,0.70825401,0.70595769,0,0)"
       d="m -701.51823,850.21107 1407.50009,-15.74496 36.48673,38.4014 -1480.41308,15.51244 z"
       sodipodi:nodetypes="ccccc"
       inkscape:label="mask-frame" />
  </g>
</svg>
