<?xml version="1.0" encoding="UTF-8" standalone="no"?>
<svg
   xmlns:dc="http://purl.org/dc/elements/1.1/"
   xmlns:cc="http://creativecommons.org/ns#"
   xmlns:rdf="http://www.w3.org/1999/02/22-rdf-syntax-ns#"
   xmlns:svg="http://www.w3.org/2000/svg"
   xmlns="http://www.w3.org/2000/svg"
   xmlns:xlink="http://www.w3.org/1999/xlink"
   xmlns:sodipodi="http://sodipodi.sourceforge.net/DTD/sodipodi-0.dtd"
   xmlns:inkscape="http://www.inkscape.org/namespaces/inkscape"
   enable-background="new"
   sodipodi:docname="E01P01.svg"
   height="3503"
   width="2481"
   inkscape:version="1.0 (4035a4f, 2020-05-01)"
   version="1.1"
   id="svg2">
  <sodipodi:namedview
     inkscape:window-maximized="0"
     inkscape:window-y="0"
     inkscape:window-x="0"
     inkscape:document-rotation="0"
     inkscape:current-layer="layer3"
     inkscape:cy="1018.6204"
     inkscape:cx="853.1731"
     inkscape:zoom="0.4"
     showgrid="false"
     id="namedview70"
     inkscape:window-height="955"
     inkscape:window-width="1813"
     inkscape:pageshadow="2"
     inkscape:pageopacity="0"
     bordercolor="#666666"
     pagecolor="#ffffff" />
  <metadata
     id="metadata8">
    <rdf:RDF>
      <cc:Work
         rdf:about="">
        <dc:format>image/svg+xml</dc:format>
        <dc:type
           rdf:resource="http://purl.org/dc/dcmitype/StillImage" />
        <dc:title />
      </cc:Work>
    </rdf:RDF>
  </metadata>
  <defs
     id="defs6" />
  <sodipodi:namedview
     inkscape:snap-global="false"
     inkscape:current-layer="layer3"
     inkscape:window-maximized="1"
     inkscape:window-y="26"
     inkscape:window-x="1920"
     inkscape:cy="3089.1265"
     inkscape:cx="896.81876"
     inkscape:zoom="0.34067204"
     showgrid="false"
     id="namedview4"
     inkscape:window-height="1025"
     inkscape:window-width="1920"
     inkscape:pageshadow="2"
     inkscape:pageopacity="0"
     guidetolerance="10"
     gridtolerance="10"
     objecttolerance="10"
     borderopacity="1"
     bordercolor="#666666"
     pagecolor="#ffffff">
    <inkscape:grid
       id="grid4282"
       type="xygrid" />
  </sodipodi:namedview>
  <flowRoot
     transform="matrix(0.71,0,0,0.71,244.43095,-269.04908)"
     style="font-style:normal;font-variant:normal;font-weight:normal;font-stretch:normal;line-height:0.01%;font-family:Lavi;-inkscape-font-specification:Lavi;letter-spacing:0px;word-spacing:0px;fill:#000000;fill-opacity:1;stroke:none;stroke-width:1px;stroke-linecap:butt;stroke-linejoin:miter;stroke-opacity:1"
     id="flowRoot2987"
     xml:space="preserve"><flowRegion
       id="flowRegion2989"><rect
         style="font-style:normal;font-variant:normal;font-weight:normal;font-stretch:normal;font-family:Lavi;-inkscape-font-specification:Lavi"
         y="443.73529"
         x="838.99548"
         height="77.684769"
         width="1016.5607"
         id="rect2991" /></flowRegion><flowPara
       style="font-size:12px;line-height:1.25"
       id="flowPara2993"> </flowPara></flowRoot>
  <g
     sodipodi:insensitive="true"
     style="display:inline"
     inkscape:label="artwork"
     id="layer1"
     inkscape:groupmode="layer">
    <image
       sodipodi:absref="/home/kraftwerk/Documents/EP 01/lang/gfx_Pepper-and-Carrot_by-David-Revoy_E01P01.png"
       xlink:href="../gfx_Pepper-and-Carrot_by-David-Revoy_E01P01.png"
       y="0"
       x="0"
       id="image3084"
       height="3503"
       width="2481" />
  </g>
  <g
     style="opacity:0.70232556;display:inline"
     inkscape:label="speechbubble"
     id="layer2"
     inkscape:groupmode="layer">
    <path
       sodipodi:nodetypes="csssc"
       inkscape:connector-curvature="0"
       id="path3071"
       d="m 1115.4905,289.94432 c 0,-40.5144 25.0236,-96.5196 147.7584,-98.9028 122.7348,-2.3832 165.6324,50.0472 166.824,92.9448 1.1916,42.8976 -58.3884,88.1784 -151.3332,84.6036 -92.9448,-3.5748 -160.866,-17.874 -163.2492,-78.6456 z"
       style="fill:#dfffd4;fill-opacity:1;stroke:none" />
    <path
       sodipodi:nodetypes="cscscc"
       inkscape:connector-curvature="0"
       id="path3073"
       d="m 1301.3801,345.94952 c 0,0 16.2155,4.7664 29.7286,17.874 13.5129,13.1076 67.565,39.3228 55.4033,103.66908 20.2695,-71.49588 -20.2695,-95.32788 -28.3774,-107.24388 -8.1078,-11.916 -22.9721,-32.1732 -22.9721,-32.1732 z"
       style="color:#000000;display:inline;overflow:visible;visibility:visible;fill:#dfffd4;fill-opacity:1;fill-rule:nonzero;stroke:none;stroke-width:1px;marker:none;enable-background:accumulate" />
    <path
       sodipodi:nodetypes="csscc"
       inkscape:connector-curvature="0"
       id="path3097"
       d="m 1086.5241,1450.6005 c -1.646,-64.406 116.8572,-146.6265 199.1511,-138.4044 82.2939,8.222 166.2337,65.7763 181.0465,108.2569 14.8129,42.4805 65.8351,121.9602 -179.4006,138.4043 -85.5856,4.111 -207.3806,-43.8509 -200.797,-108.2568 z"
       style="color:#000000;display:inline;overflow:visible;visibility:visible;fill:#dfffd4;fill-opacity:1;fill-rule:nonzero;stroke:none;stroke-width:1.09593px;marker:none;enable-background:accumulate" />
    <path
       sodipodi:nodetypes="cccssc"
       inkscape:connector-curvature="0"
       id="path3105"
       d="m 1414.3538,1510.8954 c 15.0738,38.3695 24.6661,42.4806 49.3323,43.8509 9.5924,-1.3703 20.555,6.8517 17.8144,21.9254 16.4441,-23.2957 -6.813,-31.5255 -17.7758,-37.0068 -10.9627,-5.4815 -16.5524,-6.1473 -22.0337,-33.5541 -5.4814,-27.4068 -27.3372,4.7846 -27.3372,4.7846 z"
       style="color:#000000;display:inline;overflow:visible;visibility:visible;fill:#dfffd4;fill-opacity:1;fill-rule:nonzero;stroke:none;stroke-width:1px;marker:none;enable-background:accumulate" />
  </g>
  <g
     style="display:inline"
     inkscape:label="txt"
     id="layer3"
     inkscape:groupmode="layer">
    <flowRoot
       transform="matrix(0.62578859,0,0,0.65468471,1035.4314,-43.962377)"
       style="color:#000000;font-style:normal;font-variant:normal;font-weight:normal;font-stretch:normal;line-height:0.01%;font-family:Arial;-inkscape-font-specification:Arial;letter-spacing:0px;word-spacing:0px;display:inline;overflow:visible;visibility:visible;fill:#3c4036;fill-opacity:1;fill-rule:nonzero;stroke:none;marker:none;enable-background:accumulate"
       id="flowRoot3063-8"
       xml:space="preserve"><flowRegion
         id="flowRegion3065-8"><rect
           style="color:#000000;font-size:72px;display:inline;overflow:visible;visibility:visible;fill:#3c4036;fill-opacity:1;fill-rule:nonzero;stroke:none;marker:none;enable-background:accumulate"
           y="425.30325"
           x="92.642677"
           height="228.46191"
           width="569.74268"
           id="rect3067-6" /></flowRegion><flowPara
         id="flowPara3188"
         style="color:#000000;font-style:normal;font-variant:normal;font-weight:normal;font-stretch:normal;font-size:64px;line-height:1.25;font-family:Lavi;-inkscape-font-specification:Lavi;text-align:center;text-anchor:middle;display:inline;overflow:visible;visibility:visible;fill:#3c4036;fill-opacity:1;fill-rule:nonzero;stroke:none;marker:none;enable-background:accumulate">...ve son dokunuşlar</flowPara></flowRoot>
    <flowRoot
       transform="matrix(0.62578859,0,0,0.65468471,1052.3509,1075.1572)"
       style="color:#000000;font-style:normal;font-variant:normal;font-weight:normal;font-stretch:normal;line-height:0.01%;font-family:Arial;-inkscape-font-specification:Arial;letter-spacing:0px;word-spacing:0px;display:inline;overflow:visible;visibility:visible;fill:#3c4036;fill-opacity:1;fill-rule:nonzero;stroke:none;marker:none;enable-background:accumulate"
       id="flowRoot3063-8-6"
       xml:space="preserve"><flowRegion
         id="flowRegion3065-8-1"><rect
           style="color:#000000;font-size:72px;display:inline;overflow:visible;visibility:visible;fill:#3c4036;fill-opacity:1;fill-rule:nonzero;stroke:none;marker:none;enable-background:accumulate"
           y="425.30325"
           x="92.642677"
           height="288.6394"
           width="526.9325"
           id="rect3067-6-3" /></flowRegion><flowPara
         id="flowPara3224"
         style="color:#000000;font-style:normal;font-variant:normal;font-weight:normal;font-stretch:normal;font-size:64px;line-height:1.25;font-family:Lavi;-inkscape-font-specification:Lavi;text-align:center;text-anchor:middle;display:inline;overflow:visible;visibility:visible;fill:#3c4036;fill-opacity:1;fill-rule:nonzero;stroke:none;marker:none;enable-background:accumulate">...hmm</flowPara><flowPara
         id="flowPara1636"
         style="color:#000000;font-style:normal;font-variant:normal;font-weight:normal;font-stretch:normal;font-size:64px;line-height:1.25;font-family:Lavi;-inkscape-font-specification:Lavi;text-align:center;text-anchor:middle;display:inline;overflow:visible;visibility:visible;fill:#3c4036;fill-opacity:1;fill-rule:nonzero;stroke:none;marker:none;enable-background:accumulate">Yeteri kadar güçlü</flowPara><flowPara
         id="flowPara1638"
         style="color:#000000;font-style:normal;font-variant:normal;font-weight:normal;font-stretch:normal;font-size:64px;line-height:1.25;font-family:Lavi;-inkscape-font-specification:Lavi;text-align:center;text-anchor:middle;display:inline;overflow:visible;visibility:visible;fill:#3c4036;fill-opacity:1;fill-rule:nonzero;stroke:none;marker:none;enable-background:accumulate">olmadı galiba.</flowPara></flowRoot>
    <flowRoot
       transform="matrix(2.5383209,-2.080859,0.65725432,4.9138947,-2500.4118,-2328.2151)"
       style="font-style:normal;font-variant:normal;font-weight:normal;font-stretch:normal;line-height:0.01%;font-family:Arial;-inkscape-font-specification:Arial;letter-spacing:0.00204969px;word-spacing:0px;display:inline;fill:#d0a273;fill-opacity:1;stroke:#d0a273;stroke-width:1;stroke-opacity:1"
       id="flowRoot4133"
       xml:space="preserve"><flowRegion
         style="stroke-width:1"
         id="flowRegion4135"><rect
           style="letter-spacing:0.00204969px;fill:#d0a273;fill-opacity:1;stroke:#d0a273;stroke-width:1;stroke-opacity:1"
           y="1078.5308"
           x="1125.3193"
           height="106.53911"
           width="122.07606"
           id="rect4137" /></flowRegion><flowPara
         style="font-style:normal;font-variant:normal;font-weight:normal;font-stretch:normal;font-size:12px;line-height:125%;font-family:Lavi;-inkscape-font-specification:Lavi;letter-spacing:0.00204969px;word-spacing:0.00204969px;fill:#d0a273;fill-opacity:1;stroke:#d0a273;stroke-width:1.06873;stroke-miterlimit:4;stroke-dasharray:none;stroke-opacity:1"
         id="flowPara4139">SHH</flowPara></flowRoot>
    <flowRoot
       transform="matrix(2.0707435,-1.7739035,0.50514841,4.4852558,-1740.0626,-2239.0058)"
       style="font-style:normal;font-variant:normal;font-weight:normal;font-stretch:normal;line-height:0.01%;font-family:Arial;-inkscape-font-specification:Arial;letter-spacing:0.00204969px;word-spacing:0px;display:inline;fill:#d0a273;fill-opacity:1;stroke:#d0a273;stroke-width:1.16579;stroke-opacity:1"
       id="flowRoot4133-6"
       xml:space="preserve"><flowRegion
         style="stroke-width:1.16579"
         id="flowRegion4135-2"><rect
           style="letter-spacing:0.00204969px;fill:#d0a273;fill-opacity:1;stroke:#d0a273;stroke-width:1.16579425;stroke-opacity:1"
           y="1078.5308"
           x="1125.3193"
           height="106.53911"
           width="122.07606"
           id="rect4137-1" /></flowRegion><flowPara
         style="font-style:normal;font-variant:normal;font-weight:normal;font-stretch:normal;font-size:12px;line-height:125%;font-family:Lavi;-inkscape-font-specification:Lavi;letter-spacing:0.00204969px;word-spacing:0.00204969px;fill:#d0a273;fill-opacity:1;stroke:#d0a273;stroke-width:1.24592;stroke-miterlimit:4;stroke-dasharray:none;stroke-opacity:1"
         id="flowPara4139-2">SHH</flowPara></flowRoot>
    <flowRoot
       transform="matrix(2.669076,0.3687627,-1.2224488,4.8865866,-285.11722,-2719.1648)"
       style="font-style:normal;font-variant:normal;font-weight:normal;font-stretch:normal;line-height:0.01%;font-family:Arial;-inkscape-font-specification:Arial;letter-spacing:0.00204969px;word-spacing:0px;display:inline;fill:#daa761;fill-opacity:1;stroke:#daa761;stroke-width:1.01278;stroke-opacity:1"
       id="flowRoot4133-6-9"
       xml:space="preserve"><flowRegion
         style="stroke-width:1.01278"
         id="flowRegion4135-2-9"><rect
           style="letter-spacing:0.00204969px;fill:#daa761;fill-opacity:1;stroke:#daa761;stroke-width:1.01278496;stroke-opacity:1"
           y="1078.5308"
           x="1125.3193"
           height="24.039366"
           width="51.856533"
           id="rect4137-1-7" /></flowRegion><flowPara
         style="font-style:normal;font-variant:normal;font-weight:normal;font-stretch:normal;font-size:12px;line-height:125%;font-family:Lavi;-inkscape-font-specification:Lavi;letter-spacing:0.00204969px;word-spacing:0.00204969px;fill:#daa761;fill-opacity:1;stroke:#daa761;stroke-width:1.08239;stroke-miterlimit:4;stroke-dasharray:none;stroke-opacity:1"
         id="flowPara4139-2-8">PLOP</flowPara></flowRoot>
    <flowRoot
       transform="matrix(2.6541691,-0.95281489,2.0122678,3.6225735,-4203.9629,164.82272)"
       style="font-style:normal;font-variant:normal;font-weight:normal;font-stretch:normal;line-height:0.01%;font-family:Arial;-inkscape-font-specification:Arial;letter-spacing:0.00204969px;word-spacing:0px;display:inline;fill:#daa761;fill-opacity:1;stroke:#daa761;stroke-width:1.09552;stroke-opacity:1"
       id="flowRoot4133-6-9-4"
       xml:space="preserve"><flowRegion
         style="stroke-width:1.09552"
         id="flowRegion4135-2-9-3"><rect
           style="letter-spacing:0.00204969px;fill:#daa761;fill-opacity:1;stroke:#daa761;stroke-width:1.09552455;stroke-opacity:1"
           y="1078.5308"
           x="1125.3193"
           height="24.039366"
           width="51.856533"
           id="rect4137-1-7-1" /></flowRegion><flowPara
         style="font-style:normal;font-variant:normal;font-weight:normal;font-stretch:normal;font-size:12px;line-height:125%;font-family:Lavi;-inkscape-font-specification:Lavi;letter-spacing:0.00204969px;word-spacing:0.00204969px;fill:#daa761;fill-opacity:1;stroke:#daa761;stroke-width:1.17082;stroke-miterlimit:4;stroke-dasharray:none;stroke-opacity:1"
         id="flowPara4139-2-8-6">PLOP</flowPara></flowRoot>
  </g>
</svg>
