<?xml version="1.0" encoding="UTF-8" standalone="no"?>
<svg
   xmlns:dc="http://purl.org/dc/elements/1.1/"
   xmlns:cc="http://creativecommons.org/ns#"
   xmlns:rdf="http://www.w3.org/1999/02/22-rdf-syntax-ns#"
   xmlns:svg="http://www.w3.org/2000/svg"
   xmlns="http://www.w3.org/2000/svg"
   xmlns:xlink="http://www.w3.org/1999/xlink"
   xmlns:sodipodi="http://sodipodi.sourceforge.net/DTD/sodipodi-0.dtd"
   xmlns:inkscape="http://www.inkscape.org/namespaces/inkscape"
   id="svg2"
   version="1.1"
   inkscape:version="0.92.2 (5c3e80d, 2017-08-06)"
   width="2481"
   height="3503"
   sodipodi:docname="E35P11.svg">
  <metadata
     id="metadata8">
    <rdf:RDF>
      <cc:Work
         rdf:about="">
        <dc:format>image/svg+xml</dc:format>
        <dc:type
           rdf:resource="http://purl.org/dc/dcmitype/StillImage" />
        <dc:title />
      </cc:Work>
    </rdf:RDF>
  </metadata>
  <defs
     id="defs6">
    <filter
       style="color-interpolation-filters:sRGB"
       id="filter4375-4-1-1-1-9-3-2-3-8-7-6-4-9"
       inkscape:label="deevad outline effect"
       x="-0.002101149"
       y="-0.0071745174"
       width="1.0042023"
       height="1.014349">
      <feFlood
         id="feFlood4377-7-9-0-8-1-6-9-6-7-5-32-7-4"
         flood-opacity="1"
         flood-color="rgb(95,141,211)"
         result="flood" />
      <feComposite
         id="feComposite4379-3-8-8-2-77-7-1-0-9-9-0-6-8"
         in2="SourceGraphic"
         in="flood"
         operator="in"
         result="composite1" />
      <feMorphology
         id="feMorphology4393-1-0-49-8-9-5-2-6-2-2-6-5-1"
         operator="dilate"
         radius="4"
         result="result3" />
      <feComposite
         id="feComposite4385-9-5-7-0-8-3-7-2-0-2-1-6-2"
         in2="result3"
         in="SourceGraphic"
         operator="over"
         result="composite2" />
    </filter>
  </defs>
  <sodipodi:namedview
     pagecolor="#ffffff"
     bordercolor="#666666"
     borderopacity="1"
     objecttolerance="10"
     gridtolerance="10"
     guidetolerance="10"
     inkscape:pageopacity="0"
     inkscape:pageshadow="2"
     inkscape:window-width="1412"
     inkscape:window-height="1042"
     id="namedview4"
     showgrid="false"
     inkscape:zoom="0.46261216"
     inkscape:cx="1287.8488"
     inkscape:cy="798.18487"
     inkscape:window-x="497"
     inkscape:window-y="-1"
     inkscape:window-maximized="0"
     inkscape:current-layer="layer3"
     inkscape:document-rotation="0"
     inkscape:snap-global="false"
     inkscape:pagecheckerboard="0" />
  <g
     inkscape:groupmode="layer"
     id="layer2"
     inkscape:label="artwork"
     sodipodi:insensitive="true">
    <image
       sodipodi:absref="C:\Users\Kari\Documents\Pepper and Carrot\Episode 35\fi\../lang/de/./../gfx_Pepper-and-Carrot_by-David-Revoy_E35P11.png"
       xlink:href="../gfx_Pepper-and-Carrot_by-David-Revoy_E35P11.png"
       width="2481"
       height="3503"
       id="image10"
       x="0"
       y="0" />
  </g>
  <g
     inkscape:groupmode="layer"
     id="layer3"
     inkscape:label="speechbubbles">
    <path
       style="color:#000000;display:inline;overflow:visible;visibility:visible;fill:#ffffff;fill-opacity:1;fill-rule:nonzero;stroke:none;stroke-width:1.05826px;marker:none;enable-background:accumulate"
       d="m 692.7246,1526.6704 c 28.1693,-24.9106 272.04455,-35.5556 336.641,7.541 53.9173,35.9724 32.8807,122.5341 -15.0706,141.6334 -47.95088,19.099 -207.46599,13.6696 -277.37785,3.2265 -66.56578,-9.9423 -77.74329,-36.2614 -81.01761,-88.8787 -1.33637,-21.4761 8.65558,-38.612 36.82506,-63.5222 z"
       id="path4040-4-9-2"
       inkscape:connector-curvature="0"
       sodipodi:nodetypes="zssssz" />
    <path
       style="color:#000000;display:inline;overflow:visible;visibility:visible;fill:#ffffff;fill-opacity:1;fill-rule:nonzero;stroke:none;stroke-width:1.36564px;marker:none;enable-background:accumulate"
       d="m 672.87343,351.47617 c 33.46845,54.26318 16.77932,109.75225 -42.25383,148.97796 101.91057,-50.70471 112.5118,-145.0271 95.84592,-167.01491 -16.31806,-21.52888 -53.59209,18.03695 -53.59209,18.03695 z"
       id="path5010-4"
       inkscape:connector-curvature="0"
       sodipodi:nodetypes="ccsc" />
    <path
       style="display:inline;fill:#ffffff;stroke:none;stroke-width:0.50610441"
       d="m 1202.0213,91.884362 c -33.1688,0.240008 -66.9259,4.307822 -97.4764,16.977458 -16.718,7.44798 -30.5562,21.76019 -34.1927,39.02333 -3.5025,16.99894 -2.2182,34.78258 3.0803,51.33115 6.3313,15.52849 20.4238,27.31988 36.2301,34.31406 23.2671,11.00897 49.4262,15.05735 75.1936,16.83022 34.9387,2.69174 70.0975,5.32233 105.1369,2.70686 26.8195,-2.0888 53.6989,-8.66676 76.6124,-22.20627 13.1159,-7.89519 25.3852,-17.97673 32.4384,-31.21972 5.9509,-10.78656 7.3374,-23.39391 5.4178,-35.29291 -2.3439,-14.26177 -10.3041,-27.58976 -22.0167,-36.97543 -14.0224,-11.69813 -31.978,-18.01274 -49.7208,-22.98613 -24.1407,-6.564597 -49.2246,-9.456465 -74.2358,-11.164736 -18.7945,-1.159752 -37.6373,-1.375646 -56.4671,-1.337882 z"
       id="path3280-8-1"
       inkscape:connector-curvature="0"
       sodipodi:nodetypes="csssc" />
    <path
       style="color:#000000;display:inline;overflow:visible;visibility:visible;fill:#ffffff;fill-opacity:1;fill-rule:nonzero;stroke:none;stroke-width:0.80813372px;marker:none;enable-background:accumulate"
       d="m 1960.6672,80.042241 c -35.4157,0.406432 -71.8191,6.568789 -101.0053,22.208449 -24.3268,13.16571 -44.6976,31.61855 -52.9035,53.53875 -4.5618,13.03951 -6.0704,26.75881 -4.0046,40.16175 3.5157,21.10953 17.6473,40.74776 37.1238,56.00596 16.2379,12.70148 37.071,22.1213 59.8512,26.47524 55.2966,12.34459 112.9245,17.93543 170.4478,19.84518 54.6733,1.52074 110.1481,-1.50162 162.718,-13.43241 34.4851,-8.85512 67.0321,-24.40452 87.7922,-47.26665 16.9199,-19.38443 21.8525,-43.2101 20.8364,-65.9967 -0.6666,-21.44646 -8.5173,-43.71351 -27.8885,-60.02958 -18.34,-15.127089 -45.3381,-22.876397 -72.0748,-24.641498 -66.0291,-7.607729 -133.019,-5.079663 -199.5497,-6.383948 -27.113,-0.270672 -54.2269,-0.607176 -81.343,-0.484543 z"
       id="path4546-6-7"
       inkscape:connector-curvature="0"
       sodipodi:nodetypes="cscssssc" />
    <path
       style="color:#000000;display:inline;overflow:visible;visibility:visible;fill:#ffffff;fill-opacity:1;fill-rule:nonzero;stroke:none;stroke-width:1.02892327px;marker:none;enable-background:accumulate"
       d="m 543.53449,1388.2962 c 34.79178,-25.3329 336.00132,-39.6345 415.78383,2.4936 66.59328,35.164 40.61083,122.0411 -18.61343,141.8593 -59.22398,19.818 -256.24048,16.7802 -342.58838,7.3854 -82.21508,-8.9443 -96.02041,-35.0958 -100.06452,-87.6639 -1.65053,-21.4561 10.69047,-38.7418 45.4825,-64.0744 z"
       id="path4040-4-9"
       inkscape:connector-curvature="0"
       sodipodi:nodetypes="zssssz" />
    <path
       style="fill:#ffffff;fill-rule:evenodd;stroke:none;stroke-width:0.89936811px;stroke-linecap:butt;stroke-linejoin:miter;stroke-opacity:1"
       d="m 1089.2278,1635.3711 c -29.1095,0.6543 -58.1927,2.353 -87.2513,4.3311 -18.08748,1.4962 -36.4005,3.2443 -53.73416,9.6027 -22.32831,9.0393 -40.10727,29.6983 -49.28653,54.0143 -4.22668,11.34 -7.18654,23.2441 -9.38413,35.2698 -2.00593,12.1244 -1.72257,25.0145 2.59749,36.5008 4.98145,14.094 13.3547,26.2836 22.29787,37.4942 16.90463,20.2167 39.75864,34.5045 64.36567,38.256 21.23129,3.9234 42.68669,6.0371 64.11569,8.0593 35.7089,2.6716 71.536,3.2248 107.3062,2.0946 30.0877,-1.0429 60.1713,-3.334 90.0112,-7.8518 15.86,-2.8512 32.0353,-7.3645 45.3478,-17.8946 12.9373,-10.4824 21.7068,-26.7383 25.0516,-44.1386 3.3707,-13.2549 6.2433,-27.3799 3.4593,-41.1126 -3.4685,-16.4468 -11.1793,-31.1746 -18.4063,-45.8225 -7.5274,-14.3178 -17.3054,-27.8098 -30.5411,-35.817 -16.0189,-10.2598 -34.1463,-15.0007 -51.7335,-20.6173 -27.8123,-8.1391 -56.6302,-10.6826 -85.2775,-11.4662 -12.9735,-0.5451 -25.9537,-1.0294 -38.9383,-0.9022 z"
       id="path1079"
       inkscape:connector-curvature="0" />
    <path
       style="color:#000000;display:inline;overflow:visible;visibility:visible;fill:#ffffff;fill-opacity:1;fill-rule:nonzero;stroke:none;stroke-width:0.939237px;marker:none;enable-background:accumulate"
       d="m 1404.4998,1793.8153 c -45.9909,-29.4273 -78.0349,-27.5278 -104.8526,-18.0354 -25.7868,9.1275 -19.8278,10.3608 -19.8278,10.3608 l 10.5667,-48.0852 c -3.1179,-4.3789 71.5596,-1.8389 114.1137,55.7598 z"
       id="path3072-12"
       inkscape:connector-curvature="0"
       sodipodi:nodetypes="csccc" />
    <path
       style="display:inline;fill:#ffffff;stroke:none;stroke-width:0.8598308"
       d="m 1364.1825,212.39174 c -47.5216,0.63222 -95.6195,5.83487 -139.9311,20.60239 -36.3256,13.84183 -65.7666,40.76533 -75.9487,72.93998 -6.6231,22.23837 -5.9933,45.32647 -5.6241,68.05382 1.6757,25.84194 17.5941,49.94012 39.5473,67.96406 12.9731,10.86936 28.949,18.98157 45.8405,25.02786 38.0716,14.0622 79.8497,20.32435 121.3841,21.35564 31.2129,0.58511 62.4273,-0.33455 93.6318,-0.84298 38.7376,-1.04775 77.7473,-2.70323 115.6398,-9.89135 21.0624,-4.18475 42.3306,-10.2775 59.0668,-22.01359 21.9753,-15.41583 36.1545,-37.29147 43.4215,-60.08965 7.4536,-23.9475 5.6299,-49.30941 -1.6656,-73.12156 -6.2897,-22.76096 -18.2533,-45.21195 -38.9631,-61.56591 -21.4238,-17.13108 -49.3657,-27.57752 -77.8937,-33.90012 -43.9048,-10.16682 -89.6898,-12.77166 -135.0595,-14.16863 -14.4778,-0.35137 -28.9631,-0.37892 -43.446,-0.34996 z"
       id="path3280-8-1-3"
       inkscape:connector-curvature="0"
       sodipodi:nodetypes="csssc" />
    <path
       style="display:inline;fill:#ffffff;stroke:none;stroke-width:0.99689072"
       d="m 2016.9964,226.1866 c -59.5057,0.51905 -120.0668,9.31627 -174.8754,36.71618 -29.9923,16.1073 -54.8184,47.05952 -61.3424,84.39353 -6.2834,36.76262 -3.9795,75.2223 5.5262,111.01093 11.3587,33.5826 36.6407,59.08314 64.9977,74.20908 41.7417,23.80845 88.6719,32.56366 134.8992,36.39776 62.6811,5.82125 125.7569,11.51027 188.6185,5.85396 48.1148,-4.51735 96.3371,-18.74311 137.4446,-48.02423 23.5302,-17.07448 45.5418,-38.87726 58.1955,-67.51711 10.676,-23.32748 13.1633,-50.59266 9.7196,-76.32597 -4.2051,-30.84309 -18.4859,-59.6668 -39.4987,-79.96465 -25.1565,-25.29889 -57.3694,-38.9551 -89.2005,-49.71079 -43.3089,-14.19688 -88.3101,-20.45096 -133.1807,-24.14535 -33.718,-2.50813 -67.5225,-2.97503 -101.3036,-2.89334 z"
       id="path3280-8-1-1"
       inkscape:connector-curvature="0"
       sodipodi:nodetypes="csssc" />
    <path
       style="display:inline;fill:#ffffff;stroke:none;stroke-width:0.75455248"
       d="m 2031.1251,512.42969 c -41.8147,0.18487 -84.0993,6.32564 -122.8406,22.10775 -10.5538,4.24066 -20.7064,9.55499 -29.5245,16.67052 -21.8993,17.13429 -37.3474,42.40621 -40.5782,69.72533 -4.0385,26.74245 1.1589,55.62763 18.1441,77.48593 17.8946,23.18242 44.4383,38.7689 72.4033,47.84477 30.1936,10.56549 62.4064,13.79117 94.2656,15.21843 48.1864,3.83831 96.688,2.99293 144.8222,-1.13563 22.5095,-1.92176 45.2519,-4.64216 66.4915,-12.54448 22.4255,-8.23697 42.5354,-22.40607 57.668,-40.48289 12.8442,-15.45553 21.9628,-34.29083 23.5989,-54.26521 3.35,-34.84717 -12.0489,-71.45215 -41.23,-92.37888 -25.1057,-18.65957 -55.7754,-28.21538 -86.136,-35.26583 -51.4149,-11.61817 -104.5261,-13.15605 -157.0843,-12.97981 z"
       id="path3280-8-1-1-8"
       inkscape:connector-curvature="0"
       sodipodi:nodetypes="csssc" />
    <path
       style="fill:#ffffff;fill-rule:evenodd;stroke:none;stroke-width:1px;stroke-linecap:butt;stroke-linejoin:miter;stroke-opacity:1"
       d="m 1917.1509,703.14914 c -35.1448,34.55495 -40.918,43.76621 -48.2945,59.20991 -7.3765,15.44359 -1.4166,45.82505 15.3336,59.77726 16.7502,13.95231 20.6476,39.75145 6.4656,51.09426 -14.1819,11.34295 -70.6572,56.04997 -12.3413,98.68519 -52.1304,-50.93005 4.6214,-80.3316 15.046,-87.77901 10.4245,-7.44749 30.9525,-25.50425 13.4446,-59.50485 -17.5082,-34.00062 -21.7713,-50.818 31.7495,-83.72489 53.5207,-32.90685 -21.4035,-37.75787 -21.4035,-37.75787 z"
       id="path1081"
       inkscape:connector-curvature="0"
       sodipodi:nodetypes="ccccccssc" />
    <path
       style="color:#000000;display:inline;overflow:visible;visibility:visible;fill:#ffffff;fill-opacity:1;fill-rule:nonzero;stroke:none;stroke-width:1.4638px;marker:none;enable-background:accumulate"
       d="m 1446.9857,482.25247 c 38.5518,83.9689 2.5856,139.06018 -54.1917,168.09629 98.918,-30.2652 116.1188,-134.92733 86.7076,-167.77583 -23.1309,-25.83416 -32.5159,-0.32046 -32.5159,-0.32046 z"
       id="path5010-4-3"
       inkscape:connector-curvature="0"
       sodipodi:nodetypes="ccsc" />
    <path
       style="color:#000000;display:inline;overflow:visible;visibility:visible;fill:#ffffff;fill-opacity:1;fill-rule:nonzero;stroke:none;stroke-width:0.861506px;marker:none;enable-background:accumulate"
       d="m 1708.9341,2344.6889 c 0.1396,-105.6475 -1.9817,-81.2211 156.3841,-79.1966 68.739,0.8787 150.308,10.6222 143.7753,157.3952 -5.1637,116.0161 -130.901,110.3132 -154.2725,113.5955 -23.2236,3.2615 -117.9728,-16.6744 -138.5725,-62.3724 -12.895,-28.6062 -8.0693,-101.383 -7.3144,-129.4217 z"
       id="path4546-6-59"
       inkscape:connector-curvature="0"
       sodipodi:nodetypes="cssssc" />
    <path
       style="fill:#ffffff;stroke:none;stroke-width:1.40498"
       d="m 720.93646,74.334276 c -50.55152,3.08778 -100.03953,15.416754 -149.93195,23.909777 -31.45318,6.242517 -62.81602,17.304637 -88.87367,37.942527 -16.49827,13.20659 -29.33925,31.97773 -35.29672,53.34425 -9.54535,30.12085 -9.93681,62.865 -5.11563,94.04195 3.84814,22.99347 12.27848,45.81666 27.54972,62.71498 15.19086,17.11859 34.15817,30.07813 54.65516,38.33478 17.69799,7.8496 36.26553,13.26302 55.14052,16.50527 42.14937,7.86858 85.03779,9.8885 127.74302,9.45199 43.67122,-0.77799 87.28472,-6.16766 129.93481,-16.42186 21.26672,-4.78213 42.71551,-11.63012 60.62503,-25.42823 19.75792,-15.0267 35.44362,-36.34047 44.53157,-60.59277 3.97062,-10.73934 5.91123,-22.25046 6.27639,-33.7908 0.74213,-14.8313 0.81776,-29.69103 1.10115,-44.53743 0.10717,-44.82775 -3.44038,-89.73925 -11.72081,-133.685824 -3.09725,-3.45486 -7.93984,-1.880213 -11.78697,-3.251442 C 857.91557,82.354172 789.57167,74.056384 720.93646,74.334276 Z"
       id="path3100-2"
       inkscape:connector-curvature="0"
       sodipodi:nodetypes="cccccccccccccc" />
    <path
       style="display:inline;fill:#ffffff;fill-rule:evenodd;stroke:none;stroke-width:1.14884px;stroke-linecap:butt;stroke-linejoin:miter;stroke-opacity:1"
       d="m 1876.2442,2473.0319 c 29.6781,34.3855 -48.3918,61.0872 -32.7914,98.1006 6.1219,14.5249 50.1858,21.814 59.4409,88.3499 -23.107,-54.5774 -70.7535,-56.808 -83.5614,-79.4341 -24.3256,-42.971 15.5983,-74.4437 22.7675,-83.4264 9.5884,-12.0136 34.1444,-23.59 34.1444,-23.59 z"
       id="path4186-80"
       inkscape:connector-curvature="0"
       sodipodi:nodetypes="cscssc" />
    <path
       style="color:#000000;display:inline;overflow:visible;visibility:visible;fill:#ffffff;fill-opacity:1;fill-rule:nonzero;stroke:none;stroke-width:0.472467px;marker:none;enable-background:accumulate"
       d="m 266.97992,2086.542 c 13.37453,-13.964 129.16447,-22.406 159.83419,0.5429 25.59955,19.1552 15.61147,66.8586 -7.1553,77.8463 -22.76671,10.9877 -98.5031,9.7123 -131.69666,4.7305 -31.60485,-4.7428 -36.91183,-19.0595 -38.46644,-47.8849 -0.63452,-11.7653 4.10957,-21.2709 17.48421,-35.2348 z"
       id="path4040-4-9-3"
       inkscape:connector-curvature="0"
       sodipodi:nodetypes="zssssz" />
    <path
       style="color:#000000;display:inline;overflow:visible;visibility:visible;fill:#ffffff;fill-opacity:1;fill-rule:nonzero;stroke:none;stroke-width:0.816531px;marker:none;enable-background:accumulate"
       d="m 354.58902,2078.2586 c 35.58146,-4.2267 52.48817,-58.2989 28.13393,-95.1145 44.43236,49.6051 29.57055,64.2564 4.74971,120.5184 -6.58837,14.934 -32.88364,-25.4039 -32.88364,-25.4039 z"
       id="path5010-4-5"
       inkscape:connector-curvature="0"
       sodipodi:nodetypes="ccsc" />
  </g>
  <g
     inkscape:groupmode="layer"
     id="layer1"
     inkscape:label="txt">
    <text
       xml:space="preserve"
       style="font-style:normal;font-variant:normal;font-weight:normal;font-stretch:normal;font-size:45px;line-height:1.25;font-family:Lavi;-inkscape-font-specification:Lavi;text-align:center;letter-spacing:0px;word-spacing:0px;text-anchor:middle;fill:#000000;fill-opacity:1;stroke:none"
       x="690.90973"
       y="179.30602"
       id="text4246-3-2-2"><tspan
         style="font-size:45px"
         sodipodi:role="line"
         x="690.90973"
         y="179.30602"
         id="tspan873">Kiitos, että annoit</tspan><tspan
         style="font-size:45px"
         sodipodi:role="line"
         x="690.90973"
         y="235.55602"
         id="tspan891">Carrotin hakea</tspan><tspan
         style="font-size:45px"
         sodipodi:role="line"
         x="690.90973"
         y="291.80603"
         id="tspan908">minulle puhtaita</tspan><tspan
         style="font-size:45px"
         sodipodi:role="line"
         x="690.90973"
         y="348.05603"
         id="tspan86">vaihtovaatteita!</tspan></text>
    <text
       xml:space="preserve"
       style="font-style:normal;font-variant:normal;font-weight:normal;font-stretch:normal;font-size:45px;line-height:1.25;font-family:Lavi;-inkscape-font-specification:Lavi;text-align:center;letter-spacing:0px;word-spacing:0px;text-anchor:middle;fill:#000000;fill-opacity:1;stroke:none"
       x="1237.8047"
       y="186.27956"
       id="text4246-3-2-2-3-3-3"><tspan
         style="font-size:45px"
         sodipodi:role="line"
         x="1237.8047"
         y="186.27956"
         id="tspan876-3">Ole hyvä!</tspan></text>
    <text
       xml:space="preserve"
       style="font-style:normal;font-variant:normal;font-weight:normal;font-stretch:normal;font-size:45px;line-height:1.25;font-family:Lavi;-inkscape-font-specification:Lavi;text-align:center;letter-spacing:0px;word-spacing:0px;text-anchor:middle;fill:#000000;fill-opacity:1;stroke:none"
       x="1403.865"
       y="314.35727"
       id="text4246-3-2-2-3-3"><tspan
         style="font-size:45px"
         sodipodi:role="line"
         x="1403.865"
         y="314.35727"
         id="tspan971">Helpotit tehtäväämme,</tspan><tspan
         style="font-size:45px"
         sodipodi:role="line"
         x="1403.865"
         y="370.60727"
         id="tspan941">joten se on vähintä,</tspan><tspan
         style="font-size:45px"
         sodipodi:role="line"
         x="1403.865"
         y="426.85727"
         id="tspan99">mitä voin tehdä.</tspan></text>
    <text
       xml:space="preserve"
       style="font-style:normal;font-variant:normal;font-weight:normal;font-stretch:normal;font-size:45px;line-height:1.25;font-family:Lavi;-inkscape-font-specification:Lavi;text-align:center;letter-spacing:0px;word-spacing:0px;text-anchor:middle;fill:#000000;fill-opacity:1;stroke:none"
       x="2070.6965"
       y="162.92047"
       id="text4246-3-2-2-3-3-67"><tspan
         style="font-size:45px"
         sodipodi:role="line"
         x="2070.6965"
         y="162.92047"
         id="tspan898">Mutta tiedäthän, että</tspan><tspan
         style="font-size:45px"
         sodipodi:role="line"
         x="2070.6965"
         y="219.17047"
         id="tspan105">Wasabi on käärmeissään</tspan><tspan
         style="font-size:45px"
         sodipodi:role="line"
         x="2070.6965"
         y="275.42047"
         id="tspan146">sinulle.</tspan></text>
    <text
       xml:space="preserve"
       style="font-style:normal;font-variant:normal;font-weight:normal;font-stretch:normal;font-size:45px;line-height:1.25;font-family:Lavi;-inkscape-font-specification:Lavi;text-align:center;letter-spacing:0px;word-spacing:0px;text-anchor:middle;fill:#000000;fill-opacity:1;stroke:none"
       x="2072.0078"
       y="340.46967"
       id="text4246-3-2-2-3-3-67-2"><tspan
         style="font-size:45px"
         sodipodi:role="line"
         x="2072.0078"
         y="340.46967"
         id="tspan1010-7">Hän vaatii aina täydelli-</tspan><tspan
         style="font-size:45px"
         sodipodi:role="line"
         x="2072.0078"
         y="396.71967"
         id="tspan114">syyttä. Sinä aiheutit häiriötä</tspan><tspan
         style="font-size:45px"
         sodipodi:role="line"
         x="2072.0078"
         y="452.96967"
         id="tspan1016-9">sopimattomalla asullasi</tspan><tspan
         style="font-size:45px"
         sodipodi:role="line"
         x="2072.0078"
         y="509.21967"
         id="tspan912">ja sisääntulollasi.</tspan></text>
    <text
       xml:space="preserve"
       style="font-style:normal;font-variant:normal;font-weight:normal;font-stretch:normal;font-size:45px;line-height:1.25;font-family:Lavi;-inkscape-font-specification:Lavi;text-align:center;letter-spacing:0px;word-spacing:0px;text-anchor:middle;fill:#000000;fill-opacity:1;stroke:none"
       x="2077.8093"
       y="598.88208"
       id="text4246-3-2-2-3-3-67-2-3"><tspan
         style="font-size:45px"
         sodipodi:role="line"
         x="2077.8093"
         y="598.88208"
         id="tspan1132">Ja hyökkäsit häntä</tspan><tspan
         style="font-size:45px"
         sodipodi:role="line"
         x="2077.8093"
         y="655.13208"
         id="tspan1134">vastaan. Sitä hän ei</tspan><tspan
         style="font-size:45px"
         sodipodi:role="line"
         x="2077.8093"
         y="711.38208"
         id="tspan136">purematta niele.</tspan></text>
    <text
       xml:space="preserve"
       style="font-style:normal;font-variant:normal;font-weight:normal;font-stretch:normal;font-size:45px;line-height:1.25;font-family:Lavi;-inkscape-font-specification:Lavi;text-align:center;letter-spacing:0px;word-spacing:0px;text-anchor:middle;fill:#000000;fill-opacity:1;stroke:none"
       x="349.56961"
       y="2138.6455"
       id="text4246-3-2-2-3-3-6-67"><tspan
         style="font-size:45px"
         sodipodi:role="line"
         x="349.56961"
         y="2138.6455"
         id="tspan1191-3">Tiedän.</tspan></text>
    <text
       xml:space="preserve"
       style="font-style:normal;font-variant:normal;font-weight:normal;font-stretch:normal;font-size:45px;line-height:1.25;font-family:Lavi;-inkscape-font-specification:Lavi;text-align:center;letter-spacing:0px;word-spacing:0px;text-anchor:middle;fill:#000000;fill-opacity:1;stroke:none"
       x="743.62054"
       y="1442.3682"
       id="text4246-3-2-2-3-3-6"><tspan
         style="font-size:45px"
         sodipodi:role="line"
         x="743.62054"
         y="1442.3682"
         id="tspan945">Joka tapauksessa aion</tspan><tspan
         style="font-size:45px"
         sodipodi:role="line"
         x="743.62054"
         y="1498.6182"
         id="tspan909">nyt ottaa nokoset.</tspan></text>
    <text
       xml:space="preserve"
       style="font-style:normal;font-variant:normal;font-weight:normal;font-stretch:normal;font-size:45px;line-height:1.25;font-family:Lavi;-inkscape-font-specification:Lavi;text-align:center;letter-spacing:0px;word-spacing:0px;text-anchor:middle;fill:#000000;fill-opacity:1;stroke:none"
       x="860.92029"
       y="1585.7135"
       id="text4246-3-2-2-3-3-6-6"><tspan
         style="font-size:45px"
         sodipodi:role="line"
         x="860.92029"
         y="1585.7135"
         id="tspan977">Lähdemme sitten</tspan><tspan
         style="font-size:45px"
         sodipodi:role="line"
         x="868.83044"
         y="1641.9635"
         id="tspan949">kun herään. </tspan></text>
    <text
       xml:space="preserve"
       style="font-style:normal;font-variant:normal;font-weight:normal;font-stretch:normal;font-size:45px;line-height:1.25;font-family:Lavi;-inkscape-font-specification:Lavi;text-align:center;letter-spacing:0px;word-spacing:0px;text-anchor:middle;fill:#000000;fill-opacity:1;stroke:none"
       x="1106.4032"
       y="1711.861"
       id="text4246-3-2-2-3-3-6-2"><tspan
         style="font-size:45px"
         sodipodi:role="line"
         x="1106.4032"
         y="1711.861"
         id="tspan986">Tee mitä tahdot,</tspan><tspan
         style="font-size:45px"
         sodipodi:role="line"
         x="1106.4032"
         y="1768.111"
         id="tspan958">kunhan et mene</tspan><tspan
         style="font-size:45px"
         sodipodi:role="line"
         x="1106.4032"
         y="1824.361"
         id="tspan169">kauaksi.</tspan></text>
    <text
       xml:space="preserve"
       style="font-style:normal;font-variant:normal;font-weight:normal;font-stretch:normal;line-height:0%;font-family:Lavi;-inkscape-font-specification:Lavi;letter-spacing:0px;word-spacing:0px;display:inline;fill:#ffffff;fill-opacity:1;stroke:#5f8dd3;stroke-width:0.99236202;stroke-miterlimit:4;stroke-dasharray:none;stroke-opacity:1;filter:url(#filter4375-4-1-1-1-9-3-2-3-8-7-6-4-9)"
       x="787.65729"
       y="1584.5073"
       id="text4580-5-0-6-2-8-5-9-9"
       transform="matrix(0.71138619,-0.38856964,0.42362052,1.0933045,-1095.3818,1936.127)"><tspan
         sodipodi:role="line"
         id="tspan4582-6-9-1-3-9-5-3-3"
         x="787.65729"
         y="1584.5073"
         style="font-size:70px;line-height:1.25;fill:#ffffff;stroke:#5f8dd3">Loiskis!</tspan></text>
    <text
       xml:space="preserve"
       style="font-style:normal;font-variant:normal;font-weight:normal;font-stretch:normal;font-size:45px;line-height:1.25;font-family:Lavi;-inkscape-font-specification:Lavi;text-align:center;letter-spacing:0px;word-spacing:0px;text-anchor:middle;fill:#000000;fill-opacity:1;stroke:none"
       x="1861.7039"
       y="2364.5269"
       id="text4246-3-2-2-3-3-6-2-9"><tspan
         style="font-size:45px"
         sodipodi:role="line"
         x="1861.7039"
         y="2364.5269"
         id="tspan1017-0">Siinäpä</tspan><tspan
         style="font-size:45px"
         sodipodi:role="line"
         x="1861.7039"
         y="2420.7769"
         id="tspan171">erikoinen</tspan><tspan
         style="font-size:45px"
         sodipodi:role="line"
         x="1861.7039"
         y="2477.0269"
         id="tspan1080">noita!</tspan></text>
  </g>
</svg>
