<?xml version="1.0" encoding="UTF-8" standalone="no"?>
<svg
   xmlns:dc="http://purl.org/dc/elements/1.1/"
   xmlns:cc="http://creativecommons.org/ns#"
   xmlns:rdf="http://www.w3.org/1999/02/22-rdf-syntax-ns#"
   xmlns:svg="http://www.w3.org/2000/svg"
   xmlns="http://www.w3.org/2000/svg"
   xmlns:xlink="http://www.w3.org/1999/xlink"
   xmlns:sodipodi="http://sodipodi.sourceforge.net/DTD/sodipodi-0.dtd"
   xmlns:inkscape="http://www.inkscape.org/namespaces/inkscape"
   id="svg2"
   version="1.1"
   inkscape:version="1.0.2 (e86c870879, 2021-01-15)"
   width="2481"
   height="3503"
   sodipodi:docname="E35P11.svg">
  <metadata
     id="metadata8">
    <rdf:RDF>
      <cc:Work
         rdf:about="">
        <dc:format>image/svg+xml</dc:format>
        <dc:type
           rdf:resource="http://purl.org/dc/dcmitype/StillImage" />
        <dc:title />
      </cc:Work>
    </rdf:RDF>
  </metadata>
  <defs
     id="defs6">
    <filter
       style="color-interpolation-filters:sRGB"
       id="filter4375-4-1-1-1-9-3-2-3-8-7-6-4-9"
       inkscape:label="deevad outline effect"
       x="-0.002101149"
       y="-0.0071745174"
       width="1.0042023"
       height="1.014349">
      <feFlood
         id="feFlood4377-7-9-0-8-1-6-9-6-7-5-32-7-4"
         flood-opacity="1"
         flood-color="rgb(95,141,211)"
         result="flood" />
      <feComposite
         id="feComposite4379-3-8-8-2-77-7-1-0-9-9-0-6-8"
         in2="SourceGraphic"
         in="flood"
         operator="in"
         result="composite1" />
      <feMorphology
         id="feMorphology4393-1-0-49-8-9-5-2-6-2-2-6-5-1"
         operator="dilate"
         radius="4"
         result="result3" />
      <feComposite
         id="feComposite4385-9-5-7-0-8-3-7-2-0-2-1-6-2"
         in2="result3"
         in="SourceGraphic"
         operator="over"
         result="composite2" />
    </filter>
  </defs>
  <sodipodi:namedview
     pagecolor="#ffffff"
     bordercolor="#666666"
     borderopacity="1"
     objecttolerance="10"
     gridtolerance="10"
     guidetolerance="10"
     inkscape:pageopacity="0"
     inkscape:pageshadow="2"
     inkscape:window-width="1024"
     inkscape:window-height="546"
     id="namedview4"
     showgrid="false"
     inkscape:zoom="0.32711619"
     inkscape:cx="1328.4817"
     inkscape:cy="1830.7028"
     inkscape:window-x="0"
     inkscape:window-y="25"
     inkscape:window-maximized="1"
     inkscape:current-layer="layer1"
     inkscape:document-rotation="0"
     inkscape:snap-global="false"
     inkscape:pagecheckerboard="0" />
  <g
     inkscape:groupmode="layer"
     id="layer2"
     inkscape:label="artwork"
     sodipodi:insensitive="true">
    <image
       sodipodi:absref="/home/twilight/Descargas/ep35/lang/gfx_Pepper-and-Carrot_by-David-Revoy_E35P11.png"
       xlink:href="../gfx_Pepper-and-Carrot_by-David-Revoy_E35P11.png"
       y="0"
       x="0"
       id="image10"
       height="3503"
       width="2481" />
  </g>
  <g
     inkscape:groupmode="layer"
     id="layer3"
     inkscape:label="speechbubbles">
    <path
       style="color:#000000;display:inline;overflow:visible;visibility:visible;fill:#ffffff;fill-opacity:1;fill-rule:nonzero;stroke:none;stroke-width:1.05826px;marker:none;enable-background:accumulate"
       d="m 690.7246,1562.6704 c 28.1693,-24.9106 272.04455,-35.5556 336.641,7.541 53.9173,35.9724 32.8807,122.5341 -15.0706,141.6334 -47.95088,19.099 -207.46599,13.6696 -277.37785,3.2265 -66.56578,-9.9423 -77.74329,-36.2614 -81.01761,-88.8787 -1.33637,-21.4761 8.65558,-38.612 36.82506,-63.5222 z"
       id="path4040-4-9-2"
       inkscape:connector-curvature="0"
       sodipodi:nodetypes="zssssz" />
    <path
       style="color:#000000;display:inline;overflow:visible;visibility:visible;fill:#ffffff;fill-opacity:1;fill-rule:nonzero;stroke:none;stroke-width:1.36564px;marker:none;enable-background:accumulate"
       d="m 672.87343,351.47617 c 33.46845,54.26318 16.77932,109.75225 -42.25383,148.97796 101.91057,-50.70471 112.5118,-145.0271 95.84592,-167.01491 -16.31806,-21.52888 -53.59209,18.03695 -53.59209,18.03695 z"
       id="path5010-4"
       inkscape:connector-curvature="0"
       sodipodi:nodetypes="ccsc" />
    <path
       style="display:inline;fill:#ffffff;stroke:none;stroke-width:0.5361"
       d="m 1213.4175,57.298558 c -33.7784,0.264441 -68.1558,4.746355 -99.2679,18.705752 -17.0251,8.206171 -31.1177,23.975355 -34.821,42.99587 -3.5668,18.72941 -2.259,38.32341 3.1369,56.55661 6.4477,17.10928 20.7991,30.10102 36.896,37.80721 23.6946,12.12967 50.3345,16.59017 76.5754,18.54352 35.5808,2.96575 71.3859,5.86413 107.0692,2.98242 27.3123,-2.30145 54.6856,-9.54904 78.0202,-24.46685 13.357,-8.69892 25.8519,-19.80675 33.0347,-34.39787 6.0602,-11.88462 7.4722,-25.77538 5.5173,-38.8857 -2.387,-15.71359 -10.4934,-30.39836 -22.4213,-40.73949 -14.2801,-12.888994 -32.5658,-19.84642 -50.6346,-25.326098 -24.5842,-7.232867 -50.1292,-10.419125 -75.6,-12.301296 -19.14,-1.277814 -38.3291,-1.515686 -57.5049,-1.474078 z"
       id="path3280-8-1"
       inkscape:connector-curvature="0"
       sodipodi:nodetypes="csssc" />
    <path
       style="color:#000000;display:inline;overflow:visible;visibility:visible;fill:#ffffff;fill-opacity:1;fill-rule:nonzero;stroke:none;stroke-width:0.768319px;marker:none;enable-background:accumulate"
       d="m 1964.8579,80.042241 c -32.012,0.406432 -64.9167,6.568789 -91.2979,22.208449 -21.9887,13.16571 -40.4018,31.61855 -47.819,53.53875 -4.1234,13.03951 -5.487,26.75881 -3.6198,40.16175 3.1779,21.10953 15.9513,40.74776 33.5559,56.00596 14.6773,12.70148 33.5083,22.1213 54.0991,26.47524 49.9822,12.34459 102.0716,17.93543 154.0665,19.84518 49.4187,1.52074 99.562,-1.50162 147.0796,-13.43241 31.1707,-8.85512 60.5897,-24.40452 79.3546,-47.26665 15.2938,-19.38443 19.7523,-43.2101 18.8339,-65.9967 -0.6025,-21.44646 -7.6988,-43.71351 -25.2082,-60.02958 -16.5773,-15.127089 -40.9807,-22.876397 -65.1478,-24.641498 -59.6833,-7.607729 -120.235,-5.079663 -180.3715,-6.383948 -24.5072,-0.270672 -49.0153,-0.607176 -73.5254,-0.484543 z"
       id="path4546-6-7"
       inkscape:connector-curvature="0"
       sodipodi:nodetypes="cscssssc" />
    <path
       style="color:#000000;display:inline;overflow:visible;visibility:visible;fill:#ffffff;fill-opacity:1;fill-rule:nonzero;stroke:none;stroke-width:1.11714px;marker:none;enable-background:accumulate"
       d="m 530.86438,1393.6341 c 33.61209,-30.9112 324.60849,-48.362 401.68581,3.0427 64.33528,42.9071 39.23382,148.9145 -17.98231,173.0967 -57.21586,24.1819 -247.55211,20.4752 -330.97219,9.0116 -79.42742,-10.9138 -92.76464,-42.8238 -96.67162,-106.9674 -1.59457,-26.1808 10.32798,-47.2728 43.94031,-78.1836 z"
       id="path4040-4-9"
       inkscape:connector-curvature="0"
       sodipodi:nodetypes="zssssz" />
    <path
       style="fill:#ffffff;fill-rule:evenodd;stroke:none;stroke-width:0.952453px;stroke-linecap:butt;stroke-linejoin:miter;stroke-opacity:1"
       d="m 1085.5371,1667.3711 c -32.6473,0.6543 -65.265,2.353 -97.85522,4.3311 -20.28572,1.4962 -40.82438,3.2443 -60.26466,9.6027 -25.04193,9.0393 -44.98163,29.6983 -55.27648,54.0143 -4.74036,11.34 -8.05994,23.2441 -10.52461,35.2698 -2.24972,12.1244 -1.93192,25.0145 2.91317,36.5008 5.58687,14.094 14.97774,26.2836 25.00781,37.4942 18.95909,20.2167 44.59063,34.5045 72.18823,38.256 23.81155,3.9234 47.87446,6.0371 71.90786,8.0593 40.0487,2.6716 80.2301,3.2248 120.3475,2.0946 33.7443,-1.0429 67.4841,-3.334 100.9505,-7.8518 17.7876,-2.8512 35.9287,-7.3645 50.8591,-17.8946 14.5097,-10.4824 24.3449,-26.7383 28.0963,-44.1386 3.7802,-13.2549 7.0019,-27.3799 3.8797,-41.1126 -3.8902,-16.4468 -12.5381,-31.1746 -20.6433,-45.8225 -8.4423,-14.3178 -19.4086,-27.8098 -34.253,-35.817 -17.9657,-10.2598 -38.2961,-15.0007 -58.0208,-20.6173 -31.1924,-8.1391 -63.5126,-10.6826 -95.6415,-11.4662 -14.5502,-0.5451 -29.1079,-1.0294 -43.6706,-0.9022 z"
       id="path1079"
       inkscape:connector-curvature="0" />
    <path
       style="color:#000000;display:inline;overflow:visible;visibility:visible;fill:#ffffff;fill-opacity:1;fill-rule:nonzero;stroke:none;stroke-width:0.939237px;marker:none;enable-background:accumulate"
       d="m 1404.4998,1825.8153 c -45.9909,-29.4273 -78.0349,-27.5278 -104.8526,-18.0354 -25.7868,9.1275 -19.8278,10.3608 -19.8278,10.3608 l 10.5667,-48.0852 c -3.1179,-4.3789 71.5596,-1.8389 114.1137,55.7598 z"
       id="path3072-12"
       inkscape:connector-curvature="0"
       sodipodi:nodetypes="csccc" />
    <path
       style="display:inline;fill:#ffffff;stroke:none;stroke-width:0.94473"
       d="m 1359.4614,197.26135 c -50.9838,0.71141 -102.5859,6.56567 -150.126,23.18281 -38.9721,15.5755 -70.5581,45.87113 -81.482,82.0756 -7.1057,25.0237 -6.43,51.00356 -6.0338,76.57747 1.7978,29.0786 18.8759,56.19505 42.4285,76.47645 13.9183,12.23074 31.0581,21.35899 49.1803,28.16258 40.8454,15.82346 85.6672,22.86993 130.2277,24.03039 33.487,0.6584 66.9755,-0.37645 100.4534,-0.94856 41.5599,-1.17898 83.4118,-3.0418 124.065,-11.13023 22.5969,-4.70887 45.4146,-11.56473 63.3702,-24.77076 23.5763,-17.34664 38.7886,-41.96217 46.585,-67.61578 7.9966,-26.9469 6.0401,-55.48535 -1.7869,-82.27993 -6.748,-25.61175 -19.5832,-50.87469 -41.8019,-69.27695 -22.9846,-19.27673 -52.9623,-31.03158 -83.5687,-38.14607 -47.1036,-11.44019 -96.2243,-14.37129 -144.8994,-15.94323 -15.5327,-0.39537 -31.0733,-0.42638 -46.6114,-0.39379 z"
       id="path3280-8-1-3"
       inkscape:connector-curvature="0"
       sodipodi:nodetypes="csssc" />
    <path
       style="display:inline;fill:#ffffff;stroke:none;stroke-width:0.947858"
       d="m 2011.8516,250.18595 c -58.2287,0.47953 -117.4901,8.60705 -171.1225,33.92111 -29.3487,14.88111 -53.642,43.47706 -60.026,77.96897 -6.1486,33.96402 -3.8941,69.4959 5.4076,102.56008 11.1149,31.02608 35.8544,54.58536 63.6028,68.55982 40.8459,21.996 86.769,30.08471 132.0043,33.62694 61.3359,5.3781 123.0581,10.63403 184.5707,5.40832 47.0823,-4.17347 94.2697,-17.31627 134.495,-44.36833 23.0253,-15.77466 44.5645,-35.91768 56.9466,-62.37728 10.4469,-21.55165 12.8809,-46.74123 9.5111,-70.51556 -4.1149,-28.49513 -18.0892,-55.12459 -38.6511,-73.87724 -24.6166,-23.37298 -56.1382,-35.9896 -87.2862,-45.9265 -42.3795,-13.11612 -86.415,-18.8941 -130.3227,-22.30725 -32.9944,-2.3172 -66.0734,-2.74855 -99.1296,-2.67308 z"
       id="path3280-8-1-1"
       inkscape:connector-curvature="0"
       sodipodi:nodetypes="csssc" />
    <path
       style="display:inline;fill:#ffffff;stroke:none;stroke-width:0.72974"
       d="m 2036.5842,507.24583 c -39.1099,0.18487 -78.6594,6.32564 -114.8947,22.10775 -9.8712,4.24066 -19.3671,9.55499 -27.6147,16.67052 -20.4828,17.13429 -34.9316,42.40621 -37.9535,69.72533 -3.7771,26.74245 1.0841,55.62763 16.9705,77.48593 16.7371,23.18242 41.5638,38.7689 67.7199,47.84477 28.2405,10.56549 58.3697,13.79117 88.1681,15.21843 45.0695,3.83831 90.4338,2.99293 135.4543,-1.13563 21.0535,-1.92176 42.3248,-4.64216 62.1906,-12.54448 20.9749,-8.23697 39.784,-22.40607 53.9377,-40.48289 12.0134,-15.45553 20.5422,-34.29083 22.0724,-54.26521 3.1333,-34.84717 -11.2694,-71.45215 -38.563,-92.37888 -23.4818,-18.65957 -52.1676,-28.21538 -80.5643,-35.26583 -48.0891,-11.61817 -97.7649,-13.15605 -146.9233,-12.97981 z"
       id="path3280-8-1-1-8"
       inkscape:connector-curvature="0"
       sodipodi:nodetypes="csssc" />
    <path
       style="fill:#ffffff;fill-rule:evenodd;stroke:none;stroke-width:1px;stroke-linecap:butt;stroke-linejoin:miter;stroke-opacity:1"
       d="m 1917.1509,695.14914 c -35.1448,34.55495 -40.918,43.76621 -48.2945,59.20991 -7.3765,15.44359 -1.4166,45.82505 15.3336,59.77726 16.7502,13.95231 20.6476,39.75145 6.4656,51.09426 -14.1819,11.34295 -70.6572,56.04997 -12.3413,98.68519 -52.1304,-50.93005 4.6214,-80.3316 15.046,-87.77901 10.4245,-7.44749 30.9525,-25.50425 13.4446,-59.50485 -17.5082,-34.00062 -21.7713,-50.818 31.7495,-83.72489 53.5207,-32.90685 -21.4035,-37.75787 -21.4035,-37.75787 z"
       id="path1081"
       inkscape:connector-curvature="0"
       sodipodi:nodetypes="ccccccssc" />
    <path
       style="color:#000000;display:inline;overflow:visible;visibility:visible;fill:#ffffff;fill-opacity:1;fill-rule:nonzero;stroke:none;stroke-width:1.4638px;marker:none;enable-background:accumulate"
       d="m 1446.9857,482.25247 c 38.5518,83.9689 2.5856,139.06018 -54.1917,168.09629 98.918,-30.2652 116.1188,-134.92733 86.7076,-167.77583 -23.1309,-25.83416 -32.5159,-0.32046 -32.5159,-0.32046 z"
       id="path5010-4-3"
       inkscape:connector-curvature="0"
       sodipodi:nodetypes="ccsc" />
    <path
       style="color:#000000;display:inline;overflow:visible;visibility:visible;fill:#ffffff;fill-opacity:1;fill-rule:nonzero;stroke:none;stroke-width:0.767917px;marker:none;enable-background:accumulate"
       d="m 1709.003,2324.7422 c 0.146,-80.2707 -2.0723,-61.7116 163.5339,-60.1734 71.8817,0.6677 157.1799,8.0707 150.3486,119.5885 -5.3998,88.1487 -136.8857,83.8156 -161.3258,86.3095 -24.2853,2.4781 -123.3664,-12.6692 -144.9079,-47.3904 -13.4846,-21.7349 -8.4382,-77.0305 -7.6488,-98.3342 z"
       id="path4546-6-59"
       inkscape:connector-curvature="0"
       sodipodi:nodetypes="cssssc" />
    <path
       style="fill:#ffffff;stroke:none;stroke-width:1.40498"
       d="m 720.93646,74.334276 c -50.55152,3.08778 -100.03953,15.416754 -149.93195,23.909777 -31.45318,6.242517 -62.81602,17.304637 -88.87367,37.942527 -16.49827,13.20659 -29.33925,31.97773 -35.29672,53.34425 -9.54535,30.12085 -9.93681,62.865 -5.11563,94.04195 3.84814,22.99347 12.27848,45.81666 27.54972,62.71498 15.19086,17.11859 34.15817,30.07813 54.65516,38.33478 17.69799,7.8496 36.26553,13.26302 55.14052,16.50527 42.14937,7.86858 85.03779,9.8885 127.74302,9.45199 43.67122,-0.77799 87.28472,-6.16766 129.93481,-16.42186 21.26672,-4.78213 42.71551,-11.63012 60.62503,-25.42823 19.75792,-15.0267 35.44362,-36.34047 44.53157,-60.59277 3.97062,-10.73934 5.91123,-22.25046 6.27639,-33.7908 0.74213,-14.8313 0.81776,-29.69103 1.10115,-44.53743 0.10717,-44.82775 -3.44038,-89.73925 -11.72081,-133.685824 -3.09725,-3.45486 -7.93984,-1.880213 -11.78697,-3.251442 C 857.91557,82.354172 789.57167,74.056384 720.93646,74.334276 Z"
       id="path3100-2"
       inkscape:connector-curvature="0"
       sodipodi:nodetypes="cccccccccccccc" />
    <path
       style="display:inline;fill:#ffffff;fill-rule:evenodd;stroke:none;stroke-width:1.14884px;stroke-linecap:butt;stroke-linejoin:miter;stroke-opacity:1"
       d="m 1876.2442,2449.0319 c 29.6781,34.3855 -48.3918,61.0872 -32.7914,98.1006 6.1219,14.5249 50.1858,21.814 59.4409,88.3499 -23.107,-54.5774 -70.7535,-56.808 -83.5614,-79.4341 -24.3256,-42.971 15.5983,-74.4437 22.7675,-83.4264 9.5884,-12.0136 34.1444,-23.59 34.1444,-23.59 z"
       id="path4186-80"
       inkscape:connector-curvature="0"
       sodipodi:nodetypes="cscssc" />
    <path
       style="color:#000000;display:inline;overflow:visible;visibility:visible;fill:#ffffff;fill-opacity:1;fill-rule:nonzero;stroke:none;stroke-width:0.472467px;marker:none;enable-background:accumulate"
       d="m 266.97992,2086.542 c 13.37453,-13.964 129.16447,-22.406 159.83419,0.5429 25.59955,19.1552 15.61147,66.8586 -7.1553,77.8463 -22.76671,10.9877 -98.5031,9.7123 -131.69666,4.7305 -31.60485,-4.7428 -36.91183,-19.0595 -38.46644,-47.8849 -0.63452,-11.7653 4.10957,-21.2709 17.48421,-35.2348 z"
       id="path4040-4-9-3"
       inkscape:connector-curvature="0"
       sodipodi:nodetypes="zssssz" />
    <path
       style="color:#000000;display:inline;overflow:visible;visibility:visible;fill:#ffffff;fill-opacity:1;fill-rule:nonzero;stroke:none;stroke-width:0.816531px;marker:none;enable-background:accumulate"
       d="m 354.58902,2078.2586 c 35.58146,-4.2267 52.48817,-58.2989 28.13393,-95.1145 44.43236,49.6051 29.57055,64.2564 4.74971,120.5184 -6.58837,14.934 -32.88364,-25.4039 -32.88364,-25.4039 z"
       id="path5010-4-5"
       inkscape:connector-curvature="0"
       sodipodi:nodetypes="ccsc" />
  </g>
  <g
     inkscape:groupmode="layer"
     id="layer1"
     inkscape:label="txt">
    <text
       xml:space="preserve"
       style="font-style:normal;font-variant:normal;font-weight:normal;font-stretch:normal;font-size:45px;line-height:1.25;font-family:Lavi;-inkscape-font-specification:Lavi;text-align:center;letter-spacing:0px;word-spacing:0px;text-anchor:middle;fill:#000000;fill-opacity:1;stroke:none"
       x="690.90973"
       y="179.30602"
       id="text4246-3-2-2"><tspan
         style="font-size:45px"
         sodipodi:role="line"
         x="690.90973"
         y="179.30602"
         id="tspan873">Gracias por dejar</tspan><tspan
         style="font-size:45px"
         sodipodi:role="line"
         x="690.90973"
         y="235.55602"
         id="tspan891"> que Carrot me</tspan><tspan
         style="font-size:45px"
         sodipodi:role="line"
         x="690.90973"
         y="291.80603"
         id="tspan899"> trajera una muda </tspan><tspan
         style="font-size:45px"
         sodipodi:role="line"
         x="690.90973"
         y="348.05603"
         id="tspan908">limpia de ropa.</tspan></text>
    <text
       xml:space="preserve"
       style="font-style:normal;font-variant:normal;font-weight:normal;font-stretch:normal;font-size:45px;line-height:1.25;font-family:Lavi;-inkscape-font-specification:Lavi;text-align:center;letter-spacing:0px;word-spacing:0px;text-anchor:middle;fill:#000000;fill-opacity:1;stroke:none"
       x="1245.6431"
       y="175.79465"
       id="text4246-3-2-2-3-3-3"><tspan
         style="font-size:45px"
         sodipodi:role="line"
         x="1245.6431"
         y="175.79465"
         id="tspan876-3">De nada.</tspan></text>
    <text
       xml:space="preserve"
       style="font-style:normal;font-variant:normal;font-weight:normal;font-stretch:normal;font-size:45px;line-height:1.25;font-family:Lavi;-inkscape-font-specification:Lavi;text-align:center;letter-spacing:0px;word-spacing:0px;text-anchor:middle;fill:#000000;fill-opacity:1;stroke:none"
       x="1403.865"
       y="288.4176"
       id="text4246-3-2-2-3-3"><tspan
         style="font-size:45px"
         sodipodi:role="line"
         x="1403.865"
         y="288.4176"
         id="tspan933">Has facilitado mi </tspan><tspan
         style="font-size:45px"
         sodipodi:role="line"
         x="1403.865"
         y="344.6676"
         id="tspan79">trabajo, así que lo menos</tspan><tspan
         style="font-size:45px"
         sodipodi:role="line"
         x="1403.865"
         y="400.9176"
         id="tspan941">que puedo hacer es </tspan><tspan
         style="font-size:45px"
         sodipodi:role="line"
         x="1403.865"
         y="457.1676"
         id="tspan86">regresarte el favor.</tspan></text>
    <text
       xml:space="preserve"
       style="font-style:normal;font-variant:normal;font-weight:normal;font-stretch:normal;font-size:45px;line-height:1.25;font-family:Lavi;-inkscape-font-specification:Lavi;text-align:center;letter-spacing:0px;word-spacing:0px;text-anchor:middle;fill:#000000;fill-opacity:1;stroke:none"
       x="2070.6965"
       y="162.92047"
       id="text4246-3-2-2-3-3-67"><tspan
         style="font-size:45px"
         sodipodi:role="line"
         x="2070.6965"
         y="162.92047"
         id="tspan1178">Pero, ¿sabes?, de</tspan><tspan
         style="font-size:45px"
         sodipodi:role="line"
         x="2070.6965"
         y="219.17047"
         id="tspan898">verdad molestaste a</tspan><tspan
         style="font-size:45px"
         sodipodi:role="line"
         x="2070.6965"
         y="275.42047"
         id="tspan88"> Wasabi.</tspan></text>
    <text
       xml:space="preserve"
       style="font-style:normal;font-variant:normal;font-weight:normal;font-stretch:normal;font-size:45px;line-height:1.25;font-family:Lavi;-inkscape-font-specification:Lavi;text-align:center;letter-spacing:0px;word-spacing:0px;text-anchor:middle;fill:#000000;fill-opacity:1;stroke:none"
       x="2069.8462"
       y="350.0451"
       id="text4246-3-2-2-3-3-67-2"><tspan
         style="font-size:45px"
         sodipodi:role="line"
         x="2069.8462"
         y="350.0451"
         id="tspan1004-2">Ella exige perfección.</tspan><tspan
         style="font-size:45px"
         sodipodi:role="line"
         x="2069.8462"
         y="406.2951"
         id="tspan1010-7"> Tú la perturbaste con tu</tspan><tspan
         style="font-size:45px"
         sodipodi:role="line"
         x="2069.8462"
         y="462.5451"
         id="tspan1016-9"> suciedad, tu vestimenta, </tspan><tspan
         style="font-size:45px"
         sodipodi:role="line"
         x="2069.8462"
         y="518.7951"
         id="tspan912">y tu entrada.</tspan></text>
    <text
       xml:space="preserve"
       style="font-style:normal;font-variant:normal;font-weight:normal;font-stretch:normal;font-size:45px;line-height:1.25;font-family:Lavi;-inkscape-font-specification:Lavi;text-align:center;letter-spacing:0px;word-spacing:0px;text-anchor:middle;fill:#000000;fill-opacity:1;stroke:none"
       x="2080.2942"
       y="602.01355"
       id="text4246-3-2-2-3-3-67-2-3"><tspan
         style="font-size:45px"
         sodipodi:role="line"
         x="2080.2942"
         y="602.01355"
         id="tspan1132">¡Y la atacaste! </tspan><tspan
         style="font-size:45px"
         sodipodi:role="line"
         x="2080.2942"
         y="658.26355"
         id="tspan1134">Ella no te dejará</tspan><tspan
         style="font-size:45px"
         sodipodi:role="line"
         x="2080.2942"
         y="714.51355"
         id="tspan110">tan fácilmente.</tspan></text>
    <text
       xml:space="preserve"
       style="font-style:normal;font-variant:normal;font-weight:normal;font-stretch:normal;font-size:45px;line-height:1.25;font-family:Lavi;-inkscape-font-specification:Lavi;text-align:center;letter-spacing:0px;word-spacing:0px;text-anchor:middle;fill:#000000;fill-opacity:1;stroke:none"
       x="349.56961"
       y="2138.6455"
       id="text4246-3-2-2-3-3-6-67"><tspan
         style="font-size:45px"
         sodipodi:role="line"
         x="349.56961"
         y="2138.6455"
         id="tspan1191-3">Lo sé.</tspan></text>
    <text
       xml:space="preserve"
       style="font-style:normal;font-variant:normal;font-weight:normal;font-stretch:normal;font-size:45px;line-height:1.25;font-family:Lavi;-inkscape-font-specification:Lavi;text-align:center;letter-spacing:0px;word-spacing:0px;text-anchor:middle;fill:#000000;fill-opacity:1;stroke:none"
       x="733.62054"
       y="1444.3682"
       id="text4246-3-2-2-3-3-6"><tspan
         style="font-size:45px"
         sodipodi:role="line"
         x="733.62054"
         y="1444.3682"
         id="tspan945">Igualmente, necesito</tspan><tspan
         style="font-size:45px"
         sodipodi:role="line"
         x="733.62054"
         y="1500.6182"
         id="tspan909"> tomar una pequena</tspan><tspan
         style="font-size:45px"
         sodipodi:role="line"
         x="733.62054"
         y="1556.8682"
         id="tspan118"> siesta.</tspan></text>
    <text
       xml:space="preserve"
       style="font-style:normal;font-variant:normal;font-weight:normal;font-stretch:normal;font-size:45px;line-height:1.25;font-family:Lavi;-inkscape-font-specification:Lavi;text-align:center;letter-spacing:0px;word-spacing:0px;text-anchor:middle;fill:#000000;fill-opacity:1;stroke:none"
       x="865.08191"
       y="1619.2286"
       id="text4246-3-2-2-3-3-6-6"><tspan
         style="font-size:45px"
         sodipodi:role="line"
         x="865.08191"
         y="1619.2286"
         id="tspan977">Nos iremos  </tspan><tspan
         style="font-size:45px"
         sodipodi:role="line"
         x="872.11316"
         y="1675.4786"
         id="tspan949">cuando despierte. </tspan></text>
    <text
       xml:space="preserve"
       style="font-style:normal;font-variant:normal;font-weight:normal;font-stretch:normal;font-size:45px;line-height:1.25;font-family:Lavi;-inkscape-font-specification:Lavi;text-align:center;letter-spacing:0px;word-spacing:0px;text-anchor:middle;fill:#000000;fill-opacity:1;stroke:none"
       x="1106.4032"
       y="1743.861"
       id="text4246-3-2-2-3-3-6-2"><tspan
         style="font-size:45px"
         sodipodi:role="line"
         x="1106.4032"
         y="1743.861"
         id="tspan986">Haz lo que quieras </tspan><tspan
         style="font-size:45px"
         sodipodi:role="line"
         x="1106.4032"
         y="1800.111"
         id="tspan956">mientras no vayas </tspan><tspan
         style="font-size:45px"
         sodipodi:role="line"
         x="1106.4032"
         y="1856.361"
         id="tspan958">muy lejos…</tspan></text>
    <text
       xml:space="preserve"
       style="font-style:normal;font-variant:normal;font-weight:normal;font-stretch:normal;line-height:0%;font-family:Lavi;-inkscape-font-specification:Lavi;letter-spacing:0px;word-spacing:0px;display:inline;fill:#ffffff;fill-opacity:1;stroke:#5f8dd3;stroke-width:0.992362;stroke-miterlimit:4;stroke-dasharray:none;stroke-opacity:1;filter:url(#filter4375-4-1-1-1-9-3-2-3-8-7-6-4-9)"
       x="787.65729"
       y="1584.5073"
       id="text4580-5-0-6-2-8-5-9-9"
       transform="matrix(0.71138619,-0.38856964,0.42362052,1.0933045,-1095.3818,1936.127)"><tspan
         sodipodi:role="line"
         id="tspan4582-6-9-1-3-9-5-3-3"
         x="787.65729"
         y="1584.5073"
         style="font-size:70px;line-height:1.25;fill:#ffffff;stroke:#5f8dd3">Sploosh</tspan></text>
    <text
       xml:space="preserve"
       style="font-style:normal;font-variant:normal;font-weight:normal;font-stretch:normal;font-size:45px;line-height:1.25;font-family:Lavi;-inkscape-font-specification:Lavi;text-align:center;letter-spacing:0px;word-spacing:0px;text-anchor:middle;fill:#000000;fill-opacity:1;stroke:none"
       x="1865.7039"
       y="2354.5269"
       id="text4246-3-2-2-3-3-6-2-9"><tspan
         style="font-size:45px"
         sodipodi:role="line"
         x="1865.7039"
         y="2354.5269"
         id="tspan1078">Qué bruja </tspan><tspan
         style="font-size:45px"
         sodipodi:role="line"
         x="1865.7039"
         y="2410.7769"
         id="tspan1080">tan curiousa.</tspan></text>
  </g>
</svg>
