<?xml version="1.0" encoding="UTF-8" standalone="no"?>
<svg
   xmlns:dc="http://purl.org/dc/elements/1.1/"
   xmlns:cc="http://creativecommons.org/ns#"
   xmlns:rdf="http://www.w3.org/1999/02/22-rdf-syntax-ns#"
   xmlns:svg="http://www.w3.org/2000/svg"
   xmlns="http://www.w3.org/2000/svg"
   xmlns:xlink="http://www.w3.org/1999/xlink"
   xmlns:sodipodi="http://sodipodi.sourceforge.net/DTD/sodipodi-0.dtd"
   xmlns:inkscape="http://www.inkscape.org/namespaces/inkscape"
   sodipodi:docname="E36P08.svg"
   height="3503"
   width="2481"
   inkscape:version="1.0 (4035a4fb49, 2020-05-01)"
   version="1.1"
   id="svg2">
  <metadata
     id="metadata8">
    <rdf:RDF>
      <cc:Work
         rdf:about="">
        <dc:format>image/svg+xml</dc:format>
        <dc:type
           rdf:resource="http://purl.org/dc/dcmitype/StillImage" />
        <dc:title />
      </cc:Work>
    </rdf:RDF>
  </metadata>
  <defs
     id="defs6">
    <filter
       inkscape:label="army-sound"
       height="1.250862"
       y="-0.12543101"
       width="1.0603363"
       x="-0.030168127"
       id="filter1058"
       style="color-interpolation-filters:sRGB"
       inkscape:collect="always">
      <feGaussianBlur
         id="feGaussianBlur1060"
         stdDeviation="0.67074246"
         inkscape:collect="always" />
    </filter>
    <filter
       inkscape:label="army-sound_background"
       height="1.387291"
       y="-0.19364548"
       width="1.1059417"
       x="-0.052970837"
       id="filter987"
       style="color-interpolation-filters:sRGB"
       inkscape:collect="always">
      <feGaussianBlur
         id="feGaussianBlur989"
         stdDeviation="1.036897"
         inkscape:collect="always" />
    </filter>
    <filter
       inkscape:label="army-sound"
       height="1.251488"
       y="-0.125744"
       width="1.0650194"
       x="-0.032509702"
       id="filter1058-6"
       style="color-interpolation-filters:sRGB"
       inkscape:collect="always">
      <feGaussianBlur
         id="feGaussianBlur1060-2"
         stdDeviation="0.67074246"
         inkscape:collect="always" />
    </filter>
    <filter
       inkscape:label="army-sound_background"
       height="1.4185079"
       y="-0.20925394"
       width="1.081213"
       x="-0.040606492"
       id="filter987-9"
       style="color-interpolation-filters:sRGB"
       inkscape:collect="always">
      <feGaussianBlur
         id="feGaussianBlur989-1"
         stdDeviation="1.036897"
         inkscape:collect="always" />
    </filter>
    <filter
       inkscape:label="army-sound_background"
       height="1.4120969"
       y="-0.20604846"
       width="1.0849736"
       x="-0.042486781"
       id="filter987-2"
       style="color-interpolation-filters:sRGB"
       inkscape:collect="always">
      <feGaussianBlur
         id="feGaussianBlur989-7"
         stdDeviation="1.036897"
         inkscape:collect="always" />
    </filter>
    <filter
       inkscape:label="army-sound_background"
       height="1.4185079"
       y="-0.20925394"
       width="1.1006577"
       x="-0.050328858"
       id="filter987-9-0"
       style="color-interpolation-filters:sRGB"
       inkscape:collect="always">
      <feGaussianBlur
         id="feGaussianBlur989-1-9"
         stdDeviation="1.036897"
         inkscape:collect="always" />
    </filter>
    <filter
       inkscape:label="army-sound_background"
       height="1.4120969"
       y="-0.20604846"
       width="1.0849736"
       x="-0.042486781"
       id="filter987-2-0"
       style="color-interpolation-filters:sRGB"
       inkscape:collect="always">
      <feGaussianBlur
         id="feGaussianBlur989-7-6"
         stdDeviation="1.036897"
         inkscape:collect="always" />
    </filter>
    <filter
       inkscape:label="army-sound_background"
       height="1.4120969"
       y="-0.20604846"
       width="1.0849736"
       x="-0.042486781"
       id="filter987-2-0-1"
       style="color-interpolation-filters:sRGB"
       inkscape:collect="always">
      <feGaussianBlur
         id="feGaussianBlur989-7-6-8"
         stdDeviation="1.036897"
         inkscape:collect="always" />
    </filter>
    <filter
       inkscape:label="army-sound_background"
       height="1.4133633"
       y="-0.20668167"
       width="1.0930021"
       x="-0.046501025"
       id="filter987-9-0-2"
       style="color-interpolation-filters:sRGB"
       inkscape:collect="always">
      <feGaussianBlur
         id="feGaussianBlur989-1-9-0"
         stdDeviation="1.036897"
         inkscape:collect="always" />
    </filter>
    <filter
       inkscape:label="army-sound_background"
       height="1.4133633"
       y="-0.20668167"
       width="1.0982749"
       x="-0.049137463"
       id="filter987-2-7"
       style="color-interpolation-filters:sRGB"
       inkscape:collect="always">
      <feGaussianBlur
         id="feGaussianBlur989-7-5"
         stdDeviation="1.036897"
         inkscape:collect="always" />
    </filter>
    <filter
       height="1.0252408"
       width="1.0142174"
       y="-0.012620398"
       x="-0.007108724"
       inkscape:label="deevad outline effect"
       id="filter4375-4-1-1-1-9-6-9-2-1-5-4"
       style="color-interpolation-filters:sRGB">
      <feFlood
         result="flood"
         flood-color="rgb(23,27,52)"
         flood-opacity="1"
         id="feFlood4377-7-9-0-8-1-0-2-2-06-5-3" />
      <feComposite
         result="composite1"
         operator="in"
         in="flood"
         in2="SourceGraphic"
         id="feComposite4379-3-8-8-2-77-6-0-8-3-8-64" />
      <feMorphology
         result="result3"
         radius="4"
         operator="dilate"
         id="feMorphology4393-1-0-49-8-9-2-2-9-2-7-3" />
      <feComposite
         result="composite2"
         operator="over"
         in="SourceGraphic"
         in2="result3"
         id="feComposite4385-9-5-7-0-8-6-3-7-0-1-1" />
    </filter>
    <filter
       inkscape:auto-region="false"
       y="-0.080000000000000002"
       x="-0.080000000000000002"
       style="color-interpolation-filters:sRGB"
       id="filter4375-4-1-1-1-9-5-8"
       inkscape:label="horn-FX"
       width="1.1600000000000001"
       height="1.1600000000000001">
      <feFlood
         id="feFlood4377-7-9-0-8-1-7-3"
         flood-opacity="1"
         flood-color="rgb(46,52,54)"
         result="flood" />
      <feComposite
         id="feComposite4379-3-8-8-2-77-4-1"
         in2="SourceGraphic"
         operator="in"
         result="composite1" />
      <feMorphology
         id="feMorphology4393-1-0-49-8-9-3-0"
         operator="dilate"
         radius="4.4217631697438895"
         result="result3" />
      <feComposite
         id="feComposite4385-9-5-7-0-8-8-7"
         in2="result3"
         in="SourceGraphic"
         operator="over"
         result="fbSourceGraphic" />
      <feColorMatrix
         result="fbSourceGraphicAlpha"
         in="fbSourceGraphic"
         values="0 0 0 -1 0 0 0 0 -1 0 0 0 0 -1 0 0 0 0 1 0"
         id="feColorMatrix4544" />
      <feTurbulence
         id="feTurbulence4546"
         type="fractalNoise"
         numOctaves="3"
         seed="37"
         baseFrequency="0.129 0.0050000000000000001"
         result="turbulence" />
      <feDisplacementMap
         id="feDisplacementMap4548"
         in2="turbulence"
         in="fbSourceGraphic"
         scale="12.6"
         yChannelSelector="G"
         xChannelSelector="R"
         result="fbSourceGraphic" />
      <feColorMatrix
         result="fbSourceGraphicAlpha"
         in="fbSourceGraphic"
         values="0 0 0 -1 0 0 0 0 -1 0 0 0 0 -1 0 0 0 0 1 0"
         id="feColorMatrix4670" />
      <feComposite
         id="feComposite4674"
         in2="fbSourceGraphic"
         in="flood"
         operator="in"
         result="composite1" />
      <feMorphology
         in="composite1"
         result="result4"
         radius="5"
         operator="dilate"
         id="feMorphology854" />
      <feComposite
         id="feComposite4680"
         in2="result4"
         in="fbSourceGraphic"
         operator="over"
         result="composite2" />
    </filter>
    <filter
       height="1.0569605"
       width="1.0141582"
       y="-0.0044975116"
       x="-0.012763625"
       inkscape:label="Drop Shadow"
       id="filter4375-4-1-1-1-9-5-8-8-3-2"
       style="color-interpolation-filters:sRGB">
      <feFlood
         radius="5.0999999999999996"
         result="flood"
         flood-color="rgb(224,116,57)"
         flood-opacity="1"
         id="feFlood4377-7-9-0-8-1-7-3-1-6-6" />
      <feComposite
         baseFrequency="0.053999999999999999 0.053999999999999999"
         result="composite1"
         operator="in"
         in="flood"
         in2="SourceGraphic"
         id="feComposite4379-3-8-8-2-77-4-1-0-7-1" />
      <feMorphology
         result="result3"
         radius="5.1272503082614058"
         operator="dilate"
         id="feMorphology4393-1-0-49-8-9-3-0-1-5-8" />
      <feComposite
         numOctaves="4"
         result="fbSourceGraphic"
         operator="over"
         in="SourceGraphic"
         in2="result3"
         id="feComposite4385-9-5-7-0-8-8-7-5-3-7" />
      <feColorMatrix
         id="feColorMatrix4544-9-5-9"
         values="0 0 0 -1 0 0 0 0 -1 0 0 0 0 -1 0 0 0 0 1 0"
         in="fbSourceGraphic"
         result="fbSourceGraphicAlpha" />
      <feTurbulence
         result="turbulence"
         baseFrequency="0.062 0.054054054054054057"
         seed="172"
         numOctaves="4.4123222748815163"
         type="fractalNoise"
         id="feTurbulence4546-3-6-2" />
      <feDisplacementMap
         result="fbSourceGraphic"
         xChannelSelector="R"
         yChannelSelector="G"
         scale="10.781991"
         in="fbSourceGraphic"
         in2="turbulence"
         id="feDisplacementMap4548-8-2-0" />
      <feColorMatrix
         scale="10.800000000000001"
         id="feColorMatrix4670-7-9-2"
         values="0 0 0 -1 0 0 0 0 -1 0 0 0 0 -1 0 0 0 0 1 0"
         in="fbSourceGraphic"
         result="fbSourceGraphicAlpha" />
      <feFlood
         dx="-2.3999999999999999"
         in="fbSourceGraphic"
         result="flood"
         flood-color="rgb(45,8,0)"
         flood-opacity="1"
         id="feFlood4672-4-1-3" />
      <feComposite
         result="composite1"
         operator="in"
         in="flood"
         in2="fbSourceGraphic"
         id="feComposite4674-8-2-7" />
      <feGaussianBlur
         result="blur"
         stdDeviation="0"
         in="composite1"
         id="feGaussianBlur4676-3-7-5" />
      <feOffset
         result="offset"
         dy="3.1000000000000001"
         dx="-2.3696682464454994"
         id="feOffset4678-6-0-9" />
      <feComposite
         result="composite2"
         operator="over"
         in="fbSourceGraphic"
         in2="offset"
         id="feComposite4680-4-9-2" />
    </filter>
    <filter
       height="1.0569605"
       width="1.01903"
       y="-0.0044975116"
       x="-0.01715553"
       inkscape:label="Drop Shadow"
       id="filter4375-4-1-1-1-9-5-8-8-3-2-2"
       style="color-interpolation-filters:sRGB">
      <feFlood
         radius="5.0999999999999996"
         result="flood"
         flood-color="rgb(224,116,57)"
         flood-opacity="1"
         id="feFlood4377-7-9-0-8-1-7-3-1-6-6-8" />
      <feComposite
         baseFrequency="0.053999999999999999 0.053999999999999999"
         result="composite1"
         operator="in"
         in="flood"
         in2="SourceGraphic"
         id="feComposite4379-3-8-8-2-77-4-1-0-7-1-9" />
      <feMorphology
         result="result3"
         radius="5.1272503082614058"
         operator="dilate"
         id="feMorphology4393-1-0-49-8-9-3-0-1-5-8-7" />
      <feComposite
         numOctaves="4"
         result="fbSourceGraphic"
         operator="over"
         in="SourceGraphic"
         in2="result3"
         id="feComposite4385-9-5-7-0-8-8-7-5-3-7-3" />
      <feColorMatrix
         id="feColorMatrix4544-9-5-9-6"
         values="0 0 0 -1 0 0 0 0 -1 0 0 0 0 -1 0 0 0 0 1 0"
         in="fbSourceGraphic"
         result="fbSourceGraphicAlpha" />
      <feTurbulence
         result="turbulence"
         baseFrequency="0.062 0.054054054054054057"
         seed="172"
         numOctaves="4.4123222748815163"
         type="fractalNoise"
         id="feTurbulence4546-3-6-2-1" />
      <feDisplacementMap
         result="fbSourceGraphic"
         xChannelSelector="R"
         yChannelSelector="G"
         scale="10.781991"
         in="fbSourceGraphic"
         in2="turbulence"
         id="feDisplacementMap4548-8-2-0-2" />
      <feColorMatrix
         scale="10.800000000000001"
         id="feColorMatrix4670-7-9-2-9"
         values="0 0 0 -1 0 0 0 0 -1 0 0 0 0 -1 0 0 0 0 1 0"
         in="fbSourceGraphic"
         result="fbSourceGraphicAlpha" />
      <feFlood
         dx="-2.3999999999999999"
         in="fbSourceGraphic"
         result="flood"
         flood-color="rgb(45,8,0)"
         flood-opacity="1"
         id="feFlood4672-4-1-3-3" />
      <feComposite
         result="composite1"
         operator="in"
         in="flood"
         in2="fbSourceGraphic"
         id="feComposite4674-8-2-7-1" />
      <feGaussianBlur
         result="blur"
         stdDeviation="0"
         in="composite1"
         id="feGaussianBlur4676-3-7-5-9" />
      <feOffset
         result="offset"
         dy="3.1000000000000001"
         dx="-2.3696682464454994"
         id="feOffset4678-6-0-9-4" />
      <feComposite
         result="composite2"
         operator="over"
         in="fbSourceGraphic"
         in2="offset"
         id="feComposite4680-4-9-2-7" />
    </filter>
    <filter
       height="1.0513727"
       width="1.0119459"
       y="-0.0024101746"
       x="-0.011233353"
       inkscape:label="Drop Shadow"
       id="filter4375-4-1-1-1-9-5-8-8-1"
       style="color-interpolation-filters:sRGB">
      <feFlood
         radius="5.0999999999999996"
         result="flood"
         flood-color="rgb(19,8,20)"
         flood-opacity="1"
         id="feFlood4377-7-9-0-8-1-7-3-1-0" />
      <feComposite
         baseFrequency="0.053999999999999999 0.053999999999999999"
         result="composite1"
         operator="in"
         in="flood"
         in2="SourceGraphic"
         id="feComposite4379-3-8-8-2-77-4-1-0-6" />
      <feMorphology
         result="result3"
         radius="5.1272503082614058"
         operator="dilate"
         id="feMorphology4393-1-0-49-8-9-3-0-1-3" />
      <feComposite
         numOctaves="4"
         result="fbSourceGraphic"
         operator="over"
         in="SourceGraphic"
         in2="result3"
         id="feComposite4385-9-5-7-0-8-8-7-5-2" />
      <feColorMatrix
         id="feColorMatrix4544-9-0"
         values="0 0 0 -1 0 0 0 0 -1 0 0 0 0 -1 0 0 0 0 1 0"
         in="fbSourceGraphic"
         result="fbSourceGraphicAlpha" />
      <feTurbulence
         result="turbulence"
         baseFrequency="0.062 0.054054054054054057"
         seed="172"
         numOctaves="4.4123222748815163"
         type="fractalNoise"
         id="feTurbulence4546-3-61" />
      <feDisplacementMap
         result="fbSourceGraphic"
         xChannelSelector="R"
         yChannelSelector="G"
         scale="10.781991"
         in="fbSourceGraphic"
         in2="turbulence"
         id="feDisplacementMap4548-8-5" />
      <feColorMatrix
         scale="10.800000000000001"
         id="feColorMatrix4670-7-5"
         values="0 0 0 -1 0 0 0 0 -1 0 0 0 0 -1 0 0 0 0 1 0"
         in="fbSourceGraphic"
         result="fbSourceGraphicAlpha" />
      <feFlood
         dx="-2.3999999999999999"
         in="fbSourceGraphic"
         result="flood"
         flood-color="rgb(45,8,0)"
         flood-opacity="1"
         id="feFlood4672-4-4" />
      <feComposite
         result="composite1"
         operator="in"
         in="flood"
         in2="fbSourceGraphic"
         id="feComposite4674-8-7" />
      <feGaussianBlur
         result="blur"
         stdDeviation="0"
         in="composite1"
         id="feGaussianBlur4676-3-6" />
      <feOffset
         result="offset"
         dy="3.1000000000000001"
         dx="-2.3696682464454994"
         id="feOffset4678-6-56" />
      <feComposite
         result="composite2"
         operator="over"
         in="fbSourceGraphic"
         in2="offset"
         id="feComposite4680-4-93" />
    </filter>
    <filter
       height="1.0513727"
       width="1.0119459"
       y="-0.0024101746"
       x="-0.011233353"
       inkscape:label="Drop Shadow"
       id="filter4375-4-1-1-1-9-5-8-8-1-0"
       style="color-interpolation-filters:sRGB">
      <feFlood
         radius="5.0999999999999996"
         result="flood"
         flood-color="rgb(19,8,20)"
         flood-opacity="1"
         id="feFlood4377-7-9-0-8-1-7-3-1-0-6" />
      <feComposite
         baseFrequency="0.053999999999999999 0.053999999999999999"
         result="composite1"
         operator="in"
         in="flood"
         in2="SourceGraphic"
         id="feComposite4379-3-8-8-2-77-4-1-0-6-1" />
      <feMorphology
         result="result3"
         radius="5.1272503082614058"
         operator="dilate"
         id="feMorphology4393-1-0-49-8-9-3-0-1-3-5" />
      <feComposite
         numOctaves="4"
         result="fbSourceGraphic"
         operator="over"
         in="SourceGraphic"
         in2="result3"
         id="feComposite4385-9-5-7-0-8-8-7-5-2-5" />
      <feColorMatrix
         id="feColorMatrix4544-9-0-4"
         values="0 0 0 -1 0 0 0 0 -1 0 0 0 0 -1 0 0 0 0 1 0"
         in="fbSourceGraphic"
         result="fbSourceGraphicAlpha" />
      <feTurbulence
         result="turbulence"
         baseFrequency="0.062 0.054054054054054057"
         seed="172"
         numOctaves="4.4123222748815163"
         type="fractalNoise"
         id="feTurbulence4546-3-61-7" />
      <feDisplacementMap
         result="fbSourceGraphic"
         xChannelSelector="R"
         yChannelSelector="G"
         scale="10.781991"
         in="fbSourceGraphic"
         in2="turbulence"
         id="feDisplacementMap4548-8-5-6" />
      <feColorMatrix
         scale="10.800000000000001"
         id="feColorMatrix4670-7-5-5"
         values="0 0 0 -1 0 0 0 0 -1 0 0 0 0 -1 0 0 0 0 1 0"
         in="fbSourceGraphic"
         result="fbSourceGraphicAlpha" />
      <feFlood
         dx="-2.3999999999999999"
         in="fbSourceGraphic"
         result="flood"
         flood-color="rgb(45,8,0)"
         flood-opacity="1"
         id="feFlood4672-4-4-6" />
      <feComposite
         result="composite1"
         operator="in"
         in="flood"
         in2="fbSourceGraphic"
         id="feComposite4674-8-7-9" />
      <feGaussianBlur
         result="blur"
         stdDeviation="0"
         in="composite1"
         id="feGaussianBlur4676-3-6-3" />
      <feOffset
         result="offset"
         dy="3.1000000000000001"
         dx="-2.3696682464454994"
         id="feOffset4678-6-56-7" />
      <feComposite
         result="composite2"
         operator="over"
         in="fbSourceGraphic"
         in2="offset"
         id="feComposite4680-4-93-4" />
    </filter>
    <filter
       height="1.0604765"
       width="1.0098337"
       y="-0.00283728"
       x="-0.009247153"
       inkscape:label="Drop Shadow"
       id="filter4375-4-1-1-1-9-5-8-8-1-0-7"
       style="color-interpolation-filters:sRGB">
      <feFlood
         radius="5.0999999999999996"
         result="flood"
         flood-color="rgb(9,15,22)"
         flood-opacity="1"
         id="feFlood4377-7-9-0-8-1-7-3-1-0-6-4" />
      <feComposite
         baseFrequency="0.053999999999999999 0.053999999999999999"
         result="composite1"
         operator="in"
         in="flood"
         in2="SourceGraphic"
         id="feComposite4379-3-8-8-2-77-4-1-0-6-1-4" />
      <feMorphology
         result="result3"
         radius="5.1272503082614058"
         operator="dilate"
         id="feMorphology4393-1-0-49-8-9-3-0-1-3-5-3" />
      <feComposite
         numOctaves="4"
         result="fbSourceGraphic"
         operator="over"
         in="SourceGraphic"
         in2="result3"
         id="feComposite4385-9-5-7-0-8-8-7-5-2-5-0" />
      <feColorMatrix
         id="feColorMatrix4544-9-0-4-7"
         values="0 0 0 -1 0 0 0 0 -1 0 0 0 0 -1 0 0 0 0 1 0"
         in="fbSourceGraphic"
         result="fbSourceGraphicAlpha" />
      <feTurbulence
         result="turbulence"
         baseFrequency="0.062 0.054054054054054057"
         seed="172"
         numOctaves="4.4123222748815163"
         type="fractalNoise"
         id="feTurbulence4546-3-61-7-8" />
      <feDisplacementMap
         result="fbSourceGraphic"
         xChannelSelector="R"
         yChannelSelector="G"
         scale="10.781991"
         in="fbSourceGraphic"
         in2="turbulence"
         id="feDisplacementMap4548-8-5-6-6" />
      <feColorMatrix
         scale="10.800000000000001"
         id="feColorMatrix4670-7-5-5-8"
         values="0 0 0 -1 0 0 0 0 -1 0 0 0 0 -1 0 0 0 0 1 0"
         in="fbSourceGraphic"
         result="fbSourceGraphicAlpha" />
      <feFlood
         dx="-2.3999999999999999"
         in="fbSourceGraphic"
         result="flood"
         flood-color="rgb(45,8,0)"
         flood-opacity="1"
         id="feFlood4672-4-4-6-8" />
      <feComposite
         result="composite1"
         operator="in"
         in="flood"
         in2="fbSourceGraphic"
         id="feComposite4674-8-7-9-4" />
      <feGaussianBlur
         result="blur"
         stdDeviation="0"
         in="composite1"
         id="feGaussianBlur4676-3-6-3-3" />
      <feOffset
         result="offset"
         dy="3.1000000000000001"
         dx="-2.3696682464454994"
         id="feOffset4678-6-56-7-1" />
      <feComposite
         result="composite2"
         operator="over"
         in="fbSourceGraphic"
         in2="offset"
         id="feComposite4680-4-93-4-4" />
    </filter>
    <filter
       height="1.0604765"
       width="1.009555"
       y="-0.00283728"
       x="-0.0089850017"
       inkscape:label="Drop Shadow"
       id="filter4375-4-1-1-1-9-5-8-8-1-0-7-9"
       style="color-interpolation-filters:sRGB">
      <feFlood
         radius="5.0999999999999996"
         result="flood"
         flood-color="rgb(9,15,22)"
         flood-opacity="1"
         id="feFlood4377-7-9-0-8-1-7-3-1-0-6-4-2" />
      <feComposite
         baseFrequency="0.053999999999999999 0.053999999999999999"
         result="composite1"
         operator="in"
         in="flood"
         in2="SourceGraphic"
         id="feComposite4379-3-8-8-2-77-4-1-0-6-1-4-6" />
      <feMorphology
         result="result3"
         radius="5.1272503082614058"
         operator="dilate"
         id="feMorphology4393-1-0-49-8-9-3-0-1-3-5-3-6" />
      <feComposite
         numOctaves="4"
         result="fbSourceGraphic"
         operator="over"
         in="SourceGraphic"
         in2="result3"
         id="feComposite4385-9-5-7-0-8-8-7-5-2-5-0-4" />
      <feColorMatrix
         id="feColorMatrix4544-9-0-4-7-9"
         values="0 0 0 -1 0 0 0 0 -1 0 0 0 0 -1 0 0 0 0 1 0"
         in="fbSourceGraphic"
         result="fbSourceGraphicAlpha" />
      <feTurbulence
         result="turbulence"
         baseFrequency="0.062 0.054054054054054057"
         seed="172"
         numOctaves="4.4123222748815163"
         type="fractalNoise"
         id="feTurbulence4546-3-61-7-8-5" />
      <feDisplacementMap
         result="fbSourceGraphic"
         xChannelSelector="R"
         yChannelSelector="G"
         scale="10.781991"
         in="fbSourceGraphic"
         in2="turbulence"
         id="feDisplacementMap4548-8-5-6-6-0" />
      <feColorMatrix
         scale="10.800000000000001"
         id="feColorMatrix4670-7-5-5-8-4"
         values="0 0 0 -1 0 0 0 0 -1 0 0 0 0 -1 0 0 0 0 1 0"
         in="fbSourceGraphic"
         result="fbSourceGraphicAlpha" />
      <feFlood
         dx="-2.3999999999999999"
         in="fbSourceGraphic"
         result="flood"
         flood-color="rgb(45,8,0)"
         flood-opacity="1"
         id="feFlood4672-4-4-6-8-8" />
      <feComposite
         result="composite1"
         operator="in"
         in="flood"
         in2="fbSourceGraphic"
         id="feComposite4674-8-7-9-4-7" />
      <feGaussianBlur
         result="blur"
         stdDeviation="0"
         in="composite1"
         id="feGaussianBlur4676-3-6-3-3-1" />
      <feOffset
         result="offset"
         dy="3.1000000000000001"
         dx="-2.3696682464454994"
         id="feOffset4678-6-56-7-1-7" />
      <feComposite
         result="composite2"
         operator="over"
         in="fbSourceGraphic"
         in2="offset"
         id="feComposite4680-4-93-4-4-2" />
    </filter>
    <filter
       inkscape:auto-region="false"
       height="1.1600000000000001"
       width="1.1600000000000001"
       y="-0.080000000000000002"
       x="-0.089999999999999997"
       inkscape:label="Drop Shadow"
       id="filter4375-4-1-1-1-9-5-8-8-1-0-1"
       style="color-interpolation-filters:sRGB">
      <feFlood
         radius="5.0999999999999996"
         result="flood"
         flood-color="rgb(19,8,20)"
         flood-opacity="1"
         id="feFlood4377-7-9-0-8-1-7-3-1-0-6-1" />
      <feComposite
         baseFrequency="0.053999999999999999 0.053999999999999999"
         result="composite1"
         operator="in"
         in="flood"
         in2="SourceGraphic"
         id="feComposite4379-3-8-8-2-77-4-1-0-6-1-5" />
      <feMorphology
         result="result3"
         radius="5.1272503082614058"
         operator="dilate"
         id="feMorphology4393-1-0-49-8-9-3-0-1-3-5-9" />
      <feComposite
         numOctaves="4"
         result="fbSourceGraphic"
         operator="over"
         in="SourceGraphic"
         in2="result3"
         id="feComposite4385-9-5-7-0-8-8-7-5-2-5-7" />
      <feColorMatrix
         id="feColorMatrix4544-9-0-4-76"
         values="0 0 0 -1 0 0 0 0 -1 0 0 0 0 -1 0 0 0 0 1 0"
         in="fbSourceGraphic"
         result="fbSourceGraphicAlpha" />
      <feTurbulence
         result="turbulence"
         baseFrequency="0.062 0.054054054054054057"
         seed="172"
         numOctaves="4.4123222748815163"
         type="fractalNoise"
         id="feTurbulence4546-3-61-7-7" />
      <feDisplacementMap
         result="fbSourceGraphic"
         xChannelSelector="R"
         yChannelSelector="G"
         scale="10.781991"
         in="fbSourceGraphic"
         in2="turbulence"
         id="feDisplacementMap4548-8-5-6-3" />
      <feColorMatrix
         scale="10.800000000000001"
         id="feColorMatrix4670-7-5-5-6"
         values="0 0 0 -1 0 0 0 0 -1 0 0 0 0 -1 0 0 0 0 1 0"
         in="fbSourceGraphic"
         result="fbSourceGraphicAlpha" />
      <feFlood
         dx="-2.3999999999999999"
         in="fbSourceGraphic"
         result="flood"
         flood-color="rgb(45,8,0)"
         flood-opacity="1"
         id="feFlood4672-4-4-6-5" />
      <feComposite
         result="composite1"
         operator="in"
         in="flood"
         in2="fbSourceGraphic"
         id="feComposite4674-8-7-9-6" />
      <feGaussianBlur
         result="blur"
         stdDeviation="0"
         in="composite1"
         id="feGaussianBlur4676-3-6-3-39" />
      <feOffset
         result="offset"
         dy="3.1000000000000001"
         dx="-2.3696682464454994"
         id="feOffset4678-6-56-7-4" />
      <feComposite
         result="composite2"
         operator="over"
         in="fbSourceGraphic"
         in2="offset"
         id="feComposite4680-4-93-4-8" />
    </filter>
    <filter
       inkscape:auto-region="false"
       height="1.1500000000000001"
       width="1.1500000000000001"
       y="-0.080000000000000002"
       x="-0.089999999999999997"
       inkscape:label="Drop Shadow"
       id="filter4375-4-1-1-1-9-5-8-8-1-1"
       style="color-interpolation-filters:sRGB">
      <feFlood
         radius="5.0999999999999996"
         result="flood"
         flood-color="rgb(19,8,20)"
         flood-opacity="1"
         id="feFlood4377-7-9-0-8-1-7-3-1-0-2" />
      <feComposite
         baseFrequency="0.053999999999999999 0.053999999999999999"
         result="composite1"
         operator="in"
         in="flood"
         in2="SourceGraphic"
         id="feComposite4379-3-8-8-2-77-4-1-0-6-9" />
      <feMorphology
         result="result3"
         radius="5.1272503082614058"
         operator="dilate"
         id="feMorphology4393-1-0-49-8-9-3-0-1-3-3" />
      <feComposite
         numOctaves="4"
         result="fbSourceGraphic"
         operator="over"
         in="SourceGraphic"
         in2="result3"
         id="feComposite4385-9-5-7-0-8-8-7-5-2-9" />
      <feColorMatrix
         id="feColorMatrix4544-9-0-0"
         values="0 0 0 -1 0 0 0 0 -1 0 0 0 0 -1 0 0 0 0 1 0"
         in="fbSourceGraphic"
         result="fbSourceGraphicAlpha" />
      <feTurbulence
         result="turbulence"
         baseFrequency="0.062 0.054054054054054057"
         seed="172"
         numOctaves="4.4123222748815163"
         type="fractalNoise"
         id="feTurbulence4546-3-61-8" />
      <feDisplacementMap
         result="fbSourceGraphic"
         xChannelSelector="R"
         yChannelSelector="G"
         scale="10.781991"
         in="fbSourceGraphic"
         in2="turbulence"
         id="feDisplacementMap4548-8-5-8" />
      <feColorMatrix
         scale="10.800000000000001"
         id="feColorMatrix4670-7-5-50"
         values="0 0 0 -1 0 0 0 0 -1 0 0 0 0 -1 0 0 0 0 1 0"
         in="fbSourceGraphic"
         result="fbSourceGraphicAlpha" />
      <feFlood
         dx="-2.3999999999999999"
         in="fbSourceGraphic"
         result="flood"
         flood-color="rgb(45,8,0)"
         flood-opacity="1"
         id="feFlood4672-4-4-9" />
      <feComposite
         result="composite1"
         operator="in"
         in="flood"
         in2="fbSourceGraphic"
         id="feComposite4674-8-7-6" />
      <feGaussianBlur
         result="blur"
         stdDeviation="0"
         in="composite1"
         id="feGaussianBlur4676-3-6-38" />
      <feOffset
         result="offset"
         dy="3.1000000000000001"
         dx="-2.3696682464454994"
         id="feOffset4678-6-56-5" />
      <feComposite
         result="composite2"
         operator="over"
         in="fbSourceGraphic"
         in2="offset"
         id="feComposite4680-4-93-6" />
    </filter>
    <filter
       inkscape:auto-region="false"
       height="1.1500000000000001"
       width="1.1500000000000001"
       y="-0.080000000000000002"
       x="-0.050000000000000003"
       inkscape:label="Drop Shadow"
       id="filter4375-4-1-1-1-9-5-8-8-1-0-7-1"
       style="color-interpolation-filters:sRGB">
      <feFlood
         radius="5.0999999999999996"
         result="flood"
         flood-color="rgb(9,15,22)"
         flood-opacity="1"
         id="feFlood4377-7-9-0-8-1-7-3-1-0-6-4-1" />
      <feComposite
         baseFrequency="0.053999999999999999 0.053999999999999999"
         result="composite1"
         operator="in"
         in="flood"
         in2="SourceGraphic"
         id="feComposite4379-3-8-8-2-77-4-1-0-6-1-4-5" />
      <feMorphology
         result="result3"
         radius="5.1272503082614058"
         operator="dilate"
         id="feMorphology4393-1-0-49-8-9-3-0-1-3-5-3-9" />
      <feComposite
         numOctaves="4"
         result="fbSourceGraphic"
         operator="over"
         in="SourceGraphic"
         in2="result3"
         id="feComposite4385-9-5-7-0-8-8-7-5-2-5-0-8" />
      <feColorMatrix
         id="feColorMatrix4544-9-0-4-7-4"
         values="0 0 0 -1 0 0 0 0 -1 0 0 0 0 -1 0 0 0 0 1 0"
         in="fbSourceGraphic"
         result="fbSourceGraphicAlpha" />
      <feTurbulence
         result="turbulence"
         baseFrequency="0.062 0.054054054054054057"
         seed="172"
         numOctaves="4.4123222748815163"
         type="fractalNoise"
         id="feTurbulence4546-3-61-7-8-8" />
      <feDisplacementMap
         result="fbSourceGraphic"
         xChannelSelector="R"
         yChannelSelector="G"
         scale="10.781991"
         in="fbSourceGraphic"
         in2="turbulence"
         id="feDisplacementMap4548-8-5-6-6-1" />
      <feColorMatrix
         scale="10.800000000000001"
         id="feColorMatrix4670-7-5-5-8-0"
         values="0 0 0 -1 0 0 0 0 -1 0 0 0 0 -1 0 0 0 0 1 0"
         in="fbSourceGraphic"
         result="fbSourceGraphicAlpha" />
      <feFlood
         dx="-2.3999999999999999"
         in="fbSourceGraphic"
         result="flood"
         flood-color="rgb(45,8,0)"
         flood-opacity="1"
         id="feFlood4672-4-4-6-8-3" />
      <feComposite
         result="composite1"
         operator="in"
         in="flood"
         in2="fbSourceGraphic"
         id="feComposite4674-8-7-9-4-0" />
      <feGaussianBlur
         result="blur"
         stdDeviation="0"
         in="composite1"
         id="feGaussianBlur4676-3-6-3-3-4" />
      <feOffset
         result="offset"
         dy="3.1000000000000001"
         dx="-2.3696682464454994"
         id="feOffset4678-6-56-7-1-4" />
      <feComposite
         result="composite2"
         operator="over"
         in="fbSourceGraphic"
         in2="offset"
         id="feComposite4680-4-93-4-4-4" />
    </filter>
    <filter
       inkscape:auto-region="false"
       height="1.1600000000000001"
       width="1.1600000000000001"
       y="-0.080000000000000002"
       x="-0.089999999999999997"
       inkscape:label="Drop Shadow"
       id="filter4375-4-1-1-1-9-5-8-8-1-0-7-9-4"
       style="color-interpolation-filters:sRGB">
      <feFlood
         radius="5.0999999999999996"
         result="flood"
         flood-color="rgb(9,15,22)"
         flood-opacity="1"
         id="feFlood4377-7-9-0-8-1-7-3-1-0-6-4-2-7" />
      <feComposite
         baseFrequency="0.053999999999999999 0.053999999999999999"
         result="composite1"
         operator="in"
         in="flood"
         in2="SourceGraphic"
         id="feComposite4379-3-8-8-2-77-4-1-0-6-1-4-6-6" />
      <feMorphology
         result="result3"
         radius="5.1272503082614058"
         operator="dilate"
         id="feMorphology4393-1-0-49-8-9-3-0-1-3-5-3-6-3" />
      <feComposite
         numOctaves="4"
         result="fbSourceGraphic"
         operator="over"
         in="SourceGraphic"
         in2="result3"
         id="feComposite4385-9-5-7-0-8-8-7-5-2-5-0-4-1" />
      <feColorMatrix
         id="feColorMatrix4544-9-0-4-7-9-7"
         values="0 0 0 -1 0 0 0 0 -1 0 0 0 0 -1 0 0 0 0 1 0"
         in="fbSourceGraphic"
         result="fbSourceGraphicAlpha" />
      <feTurbulence
         result="turbulence"
         baseFrequency="0.062 0.054054054054054057"
         seed="172"
         numOctaves="4.4123222748815163"
         type="fractalNoise"
         id="feTurbulence4546-3-61-7-8-5-5" />
      <feDisplacementMap
         result="fbSourceGraphic"
         xChannelSelector="R"
         yChannelSelector="G"
         scale="10.781991"
         in="fbSourceGraphic"
         in2="turbulence"
         id="feDisplacementMap4548-8-5-6-6-0-9" />
      <feColorMatrix
         scale="10.800000000000001"
         id="feColorMatrix4670-7-5-5-8-4-6"
         values="0 0 0 -1 0 0 0 0 -1 0 0 0 0 -1 0 0 0 0 1 0"
         in="fbSourceGraphic"
         result="fbSourceGraphicAlpha" />
      <feFlood
         dx="-2.3999999999999999"
         in="fbSourceGraphic"
         result="flood"
         flood-color="rgb(45,8,0)"
         flood-opacity="1"
         id="feFlood4672-4-4-6-8-8-2" />
      <feComposite
         result="composite1"
         operator="in"
         in="flood"
         in2="fbSourceGraphic"
         id="feComposite4674-8-7-9-4-7-1" />
      <feGaussianBlur
         result="blur"
         stdDeviation="0"
         in="composite1"
         id="feGaussianBlur4676-3-6-3-3-1-7" />
      <feOffset
         result="offset"
         dy="3.1000000000000001"
         dx="-2.3696682464454994"
         id="feOffset4678-6-56-7-1-7-8" />
      <feComposite
         result="composite2"
         operator="over"
         in="fbSourceGraphic"
         in2="offset"
         id="feComposite4680-4-93-4-4-2-5" />
    </filter>
    <filter
       height="1.0569605"
       width="1.01903"
       y="-0.0044975116"
       x="-0.01715553"
       inkscape:label="Drop Shadow"
       id="filter4375-4-1-1-1-9-5-8-8-3-2-2-7"
       style="color-interpolation-filters:sRGB">
      <feFlood
         radius="5.0999999999999996"
         result="flood"
         flood-color="rgb(224,116,57)"
         flood-opacity="1"
         id="feFlood4377-7-9-0-8-1-7-3-1-6-6-8-4" />
      <feComposite
         baseFrequency="0.053999999999999999 0.053999999999999999"
         result="composite1"
         operator="in"
         in="flood"
         in2="SourceGraphic"
         id="feComposite4379-3-8-8-2-77-4-1-0-7-1-9-1" />
      <feMorphology
         result="result3"
         radius="5.1272503082614058"
         operator="dilate"
         id="feMorphology4393-1-0-49-8-9-3-0-1-5-8-7-8" />
      <feComposite
         numOctaves="4"
         result="fbSourceGraphic"
         operator="over"
         in="SourceGraphic"
         in2="result3"
         id="feComposite4385-9-5-7-0-8-8-7-5-3-7-3-5" />
      <feColorMatrix
         id="feColorMatrix4544-9-5-9-6-9"
         values="0 0 0 -1 0 0 0 0 -1 0 0 0 0 -1 0 0 0 0 1 0"
         in="fbSourceGraphic"
         result="fbSourceGraphicAlpha" />
      <feTurbulence
         result="turbulence"
         baseFrequency="0.062 0.054054054054054057"
         seed="172"
         numOctaves="4.4123222748815163"
         type="fractalNoise"
         id="feTurbulence4546-3-6-2-1-7" />
      <feDisplacementMap
         result="fbSourceGraphic"
         xChannelSelector="R"
         yChannelSelector="G"
         scale="10.781991"
         in="fbSourceGraphic"
         in2="turbulence"
         id="feDisplacementMap4548-8-2-0-2-5" />
      <feColorMatrix
         scale="10.800000000000001"
         id="feColorMatrix4670-7-9-2-9-3"
         values="0 0 0 -1 0 0 0 0 -1 0 0 0 0 -1 0 0 0 0 1 0"
         in="fbSourceGraphic"
         result="fbSourceGraphicAlpha" />
      <feFlood
         dx="-2.3999999999999999"
         in="fbSourceGraphic"
         result="flood"
         flood-color="rgb(45,8,0)"
         flood-opacity="1"
         id="feFlood4672-4-1-3-3-8" />
      <feComposite
         result="composite1"
         operator="in"
         in="flood"
         in2="fbSourceGraphic"
         id="feComposite4674-8-2-7-1-8" />
      <feGaussianBlur
         result="blur"
         stdDeviation="0"
         in="composite1"
         id="feGaussianBlur4676-3-7-5-9-3" />
      <feOffset
         result="offset"
         dy="3.1000000000000001"
         dx="-2.3696682464454994"
         id="feOffset4678-6-0-9-4-1" />
      <feComposite
         result="composite2"
         operator="over"
         in="fbSourceGraphic"
         in2="offset"
         id="feComposite4680-4-9-2-7-8" />
    </filter>
    <filter
       height="1.0569605"
       width="1.01903"
       y="-0.0044975116"
       x="-0.01715553"
       inkscape:label="Drop Shadow"
       id="filter4375-4-1-1-1-9-5-8-8-3-2-9"
       style="color-interpolation-filters:sRGB">
      <feFlood
         radius="5.0999999999999996"
         result="flood"
         flood-color="rgb(224,116,57)"
         flood-opacity="1"
         id="feFlood4377-7-9-0-8-1-7-3-1-6-6-6" />
      <feComposite
         baseFrequency="0.053999999999999999 0.053999999999999999"
         result="composite1"
         operator="in"
         in="flood"
         in2="SourceGraphic"
         id="feComposite4379-3-8-8-2-77-4-1-0-7-1-4" />
      <feMorphology
         result="result3"
         radius="5.1272503082614058"
         operator="dilate"
         id="feMorphology4393-1-0-49-8-9-3-0-1-5-8-3" />
      <feComposite
         numOctaves="4"
         result="fbSourceGraphic"
         operator="over"
         in="SourceGraphic"
         in2="result3"
         id="feComposite4385-9-5-7-0-8-8-7-5-3-7-33" />
      <feColorMatrix
         id="feColorMatrix4544-9-5-9-8"
         values="0 0 0 -1 0 0 0 0 -1 0 0 0 0 -1 0 0 0 0 1 0"
         in="fbSourceGraphic"
         result="fbSourceGraphicAlpha" />
      <feTurbulence
         result="turbulence"
         baseFrequency="0.062 0.054054054054054057"
         seed="172"
         numOctaves="4.4123222748815163"
         type="fractalNoise"
         id="feTurbulence4546-3-6-2-6" />
      <feDisplacementMap
         result="fbSourceGraphic"
         xChannelSelector="R"
         yChannelSelector="G"
         scale="10.781991"
         in="fbSourceGraphic"
         in2="turbulence"
         id="feDisplacementMap4548-8-2-0-0" />
      <feColorMatrix
         scale="10.800000000000001"
         id="feColorMatrix4670-7-9-2-4"
         values="0 0 0 -1 0 0 0 0 -1 0 0 0 0 -1 0 0 0 0 1 0"
         in="fbSourceGraphic"
         result="fbSourceGraphicAlpha" />
      <feFlood
         dx="-2.3999999999999999"
         in="fbSourceGraphic"
         result="flood"
         flood-color="rgb(45,8,0)"
         flood-opacity="1"
         id="feFlood4672-4-1-3-8" />
      <feComposite
         result="composite1"
         operator="in"
         in="flood"
         in2="fbSourceGraphic"
         id="feComposite4674-8-2-7-8" />
      <feGaussianBlur
         result="blur"
         stdDeviation="0"
         in="composite1"
         id="feGaussianBlur4676-3-7-5-8" />
      <feOffset
         result="offset"
         dy="3.1000000000000001"
         dx="-2.3696682464454994"
         id="feOffset4678-6-0-9-9" />
      <feComposite
         result="composite2"
         operator="over"
         in="fbSourceGraphic"
         in2="offset"
         id="feComposite4680-4-9-2-77" />
    </filter>
    <filter
       inkscape:auto-region="false"
       height="1.1600000000000001"
       width="1.1600000000000001"
       y="-0.099999999999999992"
       x="-0.089999999999999997"
       inkscape:label="Drop Shadow"
       id="filter4375-4-1-1-1-9-5-8-8-3-2-2-7-6"
       style="color-interpolation-filters:sRGB">
      <feFlood
         radius="5.0999999999999996"
         result="flood"
         flood-color="rgb(224,116,57)"
         flood-opacity="1"
         id="feFlood4377-7-9-0-8-1-7-3-1-6-6-8-4-4" />
      <feComposite
         baseFrequency="0.053999999999999999 0.053999999999999999"
         result="composite1"
         operator="in"
         in="flood"
         in2="SourceGraphic"
         id="feComposite4379-3-8-8-2-77-4-1-0-7-1-9-1-3" />
      <feMorphology
         result="result3"
         radius="5.1272503082614058"
         operator="dilate"
         id="feMorphology4393-1-0-49-8-9-3-0-1-5-8-7-8-0" />
      <feComposite
         numOctaves="4"
         result="fbSourceGraphic"
         operator="over"
         in="SourceGraphic"
         in2="result3"
         id="feComposite4385-9-5-7-0-8-8-7-5-3-7-3-5-3" />
      <feColorMatrix
         id="feColorMatrix4544-9-5-9-6-9-0"
         values="0 0 0 -1 0 0 0 0 -1 0 0 0 0 -1 0 0 0 0 1 0"
         in="fbSourceGraphic"
         result="fbSourceGraphicAlpha" />
      <feTurbulence
         result="turbulence"
         baseFrequency="0.062 0.054054054054054057"
         seed="172"
         numOctaves="4.4123222748815163"
         type="fractalNoise"
         id="feTurbulence4546-3-6-2-1-7-9" />
      <feDisplacementMap
         result="fbSourceGraphic"
         xChannelSelector="R"
         yChannelSelector="G"
         scale="10.781991"
         in="fbSourceGraphic"
         in2="turbulence"
         id="feDisplacementMap4548-8-2-0-2-5-2" />
      <feColorMatrix
         scale="10.800000000000001"
         id="feColorMatrix4670-7-9-2-9-3-5"
         values="0 0 0 -1 0 0 0 0 -1 0 0 0 0 -1 0 0 0 0 1 0"
         in="fbSourceGraphic"
         result="fbSourceGraphicAlpha" />
      <feFlood
         dx="-2.3999999999999999"
         in="fbSourceGraphic"
         result="flood"
         flood-color="rgb(45,8,0)"
         flood-opacity="1"
         id="feFlood4672-4-1-3-3-8-4" />
      <feComposite
         result="composite1"
         operator="in"
         in="flood"
         in2="fbSourceGraphic"
         id="feComposite4674-8-2-7-1-8-0" />
      <feGaussianBlur
         result="blur"
         stdDeviation="0"
         in="composite1"
         id="feGaussianBlur4676-3-7-5-9-3-5" />
      <feOffset
         result="offset"
         dy="3.1000000000000001"
         dx="-2.3696682464454994"
         id="feOffset4678-6-0-9-4-1-9" />
      <feComposite
         result="composite2"
         operator="over"
         in="fbSourceGraphic"
         in2="offset"
         id="feComposite4680-4-9-2-7-8-4" />
    </filter>
    <filter
       inkscape:auto-region="false"
       height="1.1600000000000001"
       width="1.1600000000000001"
       y="-0.080000000000000002"
       x="-0.080000000000000002"
       inkscape:label="Drop Shadow"
       id="filter4375-4-1-1-1-9-5-8-8-3-2-9-6"
       style="color-interpolation-filters:sRGB">
      <feFlood
         radius="5.0999999999999996"
         result="flood"
         flood-color="rgb(224,116,57)"
         flood-opacity="1"
         id="feFlood4377-7-9-0-8-1-7-3-1-6-6-6-9" />
      <feComposite
         baseFrequency="0.053999999999999999 0.053999999999999999"
         result="composite1"
         operator="in"
         in="flood"
         in2="SourceGraphic"
         id="feComposite4379-3-8-8-2-77-4-1-0-7-1-4-2" />
      <feMorphology
         result="result3"
         radius="5.1272503082614058"
         operator="dilate"
         id="feMorphology4393-1-0-49-8-9-3-0-1-5-8-3-2" />
      <feComposite
         numOctaves="4"
         result="fbSourceGraphic"
         operator="over"
         in="SourceGraphic"
         in2="result3"
         id="feComposite4385-9-5-7-0-8-8-7-5-3-7-33-4" />
      <feColorMatrix
         id="feColorMatrix4544-9-5-9-8-7"
         values="0 0 0 -1 0 0 0 0 -1 0 0 0 0 -1 0 0 0 0 1 0"
         in="fbSourceGraphic"
         result="fbSourceGraphicAlpha" />
      <feTurbulence
         result="turbulence"
         baseFrequency="0.062 0.054054054054054057"
         seed="172"
         numOctaves="4.4123222748815163"
         type="fractalNoise"
         id="feTurbulence4546-3-6-2-6-7" />
      <feDisplacementMap
         result="fbSourceGraphic"
         xChannelSelector="R"
         yChannelSelector="G"
         scale="10.781991"
         in="fbSourceGraphic"
         in2="turbulence"
         id="feDisplacementMap4548-8-2-0-0-5" />
      <feColorMatrix
         scale="10.800000000000001"
         id="feColorMatrix4670-7-9-2-4-4"
         values="0 0 0 -1 0 0 0 0 -1 0 0 0 0 -1 0 0 0 0 1 0"
         in="fbSourceGraphic"
         result="fbSourceGraphicAlpha" />
      <feFlood
         dx="-2.3999999999999999"
         in="fbSourceGraphic"
         result="flood"
         flood-color="rgb(45,8,0)"
         flood-opacity="1"
         id="feFlood4672-4-1-3-8-8" />
      <feComposite
         result="composite1"
         operator="in"
         in="flood"
         in2="fbSourceGraphic"
         id="feComposite4674-8-2-7-8-1" />
      <feGaussianBlur
         result="blur"
         stdDeviation="0"
         in="composite1"
         id="feGaussianBlur4676-3-7-5-8-2" />
      <feOffset
         result="offset"
         dy="3.1000000000000001"
         dx="-2.3696682464454994"
         id="feOffset4678-6-0-9-9-8" />
      <feComposite
         result="composite2"
         operator="over"
         in="fbSourceGraphic"
         in2="offset"
         id="feComposite4680-4-9-2-77-9" />
    </filter>
    <filter
       height="1.0252408"
       width="1.0142174"
       y="-0.012620398"
       x="-0.007108724"
       inkscape:label="deevad outline effect"
       id="filter4375-4-1-1-1-9-6-9-2-1-5-4-3"
       style="color-interpolation-filters:sRGB">
      <feFlood
         result="flood"
         flood-color="rgb(23,27,52)"
         flood-opacity="1"
         id="feFlood4377-7-9-0-8-1-0-2-2-06-5-3-6" />
      <feComposite
         result="composite1"
         operator="in"
         in="flood"
         in2="SourceGraphic"
         id="feComposite4379-3-8-8-2-77-6-0-8-3-8-64-8" />
      <feMorphology
         result="result3"
         radius="4"
         operator="dilate"
         id="feMorphology4393-1-0-49-8-9-2-2-9-2-7-3-0" />
      <feComposite
         result="composite2"
         operator="over"
         in="SourceGraphic"
         in2="result3"
         id="feComposite4385-9-5-7-0-8-6-3-7-0-1-1-2" />
    </filter>
    <filter
       id="filter23720"
       style="color-interpolation-filters:sRGB;"
       inkscape:label="Rough Paper"
       inkscape:menu="Textures"
       inkscape:menu-tooltip="Aquarelle paper effect which can be used for pictures as for objects"
       width="1"
       x="0"
       height="1"
       y="0">
      <feTurbulence
         id="feTurbulence23706"
         result="result4"
         seed="0"
         numOctaves="5"
         baseFrequency="0.043586711411187022"
         type="fractalNoise" />
      <feDisplacementMap
         id="feDisplacementMap23708"
         result="result3"
         scale="10"
         xChannelSelector="R"
         yChannelSelector="G"
         in2="result4"
         in="SourceGraphic" />
      <feComposite
         id="feComposite23714"
         result="result2"
         in2="result3"
         in="result3"
         operator="in" />
      <feComposite
         id="feComposite23716"
         k1="1.7"
         operator="arithmetic"
         result="result5"
         in2="result2" />
      <feBlend
         id="feBlend23718"
         mode="normal"
         in2="result3"
         in="result5" />
    </filter>
    <filter
       id="filter23754"
       style="color-interpolation-filters:sRGB;"
       inkscape:label="Rough Paper"
       inkscape:menu="Textures"
       inkscape:menu-tooltip="Aquarelle paper effect which can be used for pictures as for objects"
       width="1"
       x="0"
       height="1"
       y="0">
      <feTurbulence
         id="feTurbulence23740"
         result="result4"
         seed="0"
         numOctaves="5"
         baseFrequency="0.04"
         type="fractalNoise" />
      <feDisplacementMap
         id="feDisplacementMap23742"
         result="result3"
         scale="10"
         xChannelSelector="R"
         yChannelSelector="G"
         in2="result4"
         in="SourceGraphic" />
      <feComposite
         id="feComposite23748"
         result="result2"
         in2="result3"
         in="result3"
         operator="in" />
      <feComposite
         id="feComposite23750"
         k1="1.7"
         operator="arithmetic"
         result="result5"
         in2="result2" />
      <feBlend
         id="feBlend23752"
         mode="normal"
         in2="result3"
         in="result5" />
    </filter>
    <filter
       id="filter23754-3"
       style="color-interpolation-filters:sRGB"
       inkscape:label="Rough Paper"
       inkscape:menu="Textures"
       inkscape:menu-tooltip="Aquarelle paper effect which can be used for pictures as for objects"
       width="1"
       x="0"
       height="1"
       y="0">
      <feTurbulence
         id="feTurbulence23740-6"
         result="result4"
         seed="0"
         numOctaves="5"
         baseFrequency="0.04"
         type="fractalNoise" />
      <feDisplacementMap
         id="feDisplacementMap23742-7"
         result="result3"
         scale="10"
         xChannelSelector="R"
         yChannelSelector="G"
         in2="result4"
         in="SourceGraphic" />
      <feComposite
         id="feComposite23748-5"
         result="result2"
         in2="result3"
         in="result3"
         operator="in" />
      <feComposite
         k4="0"
         k3="0"
         k2="0"
         id="feComposite23750-3"
         k1="1.7"
         operator="arithmetic"
         result="result5"
         in2="result2" />
      <feBlend
         id="feBlend23752-5"
         mode="normal"
         in2="result3"
         in="result5" />
    </filter>
    <filter
       id="filter47349"
       style="color-interpolation-filters:sRGB;"
       x="0"
       width="1"
       y="0"
       height="1"
       inkscape:menu-tooltip="Displace the outside of shapes and pictures without altering their content"
       inkscape:menu="Distort"
       inkscape:label="Torn Edges">
      <feTurbulence
         id="feTurbulence47343"
         result="result91"
         type="fractalNoise"
         numOctaves="5"
         baseFrequency="0.068539926478437235" />
      <feDisplacementMap
         id="feDisplacementMap47345"
         in2="result91"
         in="SourceGraphic"
         xChannelSelector="R"
         result="result5"
         scale="5.5822522063377376" />
      <feComposite
         id="feComposite47347"
         in2="result5"
         operator="atop"
         in="SourceGraphic" />
    </filter>
  </defs>
  <sodipodi:namedview
     inkscape:document-rotation="0"
     inkscape:snap-global="false"
     inkscape:pagecheckerboard="0"
     inkscape:current-layer="layer1"
     inkscape:window-maximized="1"
     inkscape:window-y="-8"
     inkscape:window-x="-8"
     inkscape:cy="1302.1739"
     inkscape:cx="1218.5645"
     inkscape:zoom="0.46000002"
     showgrid="false"
     id="namedview4"
     inkscape:window-height="715"
     inkscape:window-width="1366"
     inkscape:pageshadow="2"
     inkscape:pageopacity="0"
     guidetolerance="10"
     gridtolerance="10"
     objecttolerance="10"
     borderopacity="1"
     bordercolor="#111111"
     pagecolor="#1e1e1e" />
  <g
     sodipodi:insensitive="true"
     inkscape:label="artwork"
     id="layer2"
     inkscape:groupmode="layer">
    <image
       sodipodi:absref="D:\Pepper&amp;Carrot translation\ep36_the-suprise-attack\lang\gfx_Pepper-and-Carrot_by-David-Revoy_E36P08.png"
       xlink:href="../gfx_Pepper-and-Carrot_by-David-Revoy_E36P08.png"
       y="0"
       x="0"
       id="image10"
       height="3503"
       width="2481" />
  </g>
  <g
     style="display:inline"
     inkscape:label="speechbubbles"
     id="layer3"
     inkscape:groupmode="layer">
    <path
       sodipodi:nodetypes="csssc"
       inkscape:connector-curvature="0"
       id="path3280-8-0-3"
       d="m 849.01799,124.08398 c -68.24319,0.81326 -136.26421,3.99163 -204.45061,5.43402 -43.3357,1.62947 -87.83835,4.51731 -126.89342,14.8402 -39.55085,11.72027 -64.16749,34.10973 -68.15349,57.00616 -5.76726,21.13193 1.10683,43.91603 25.92605,61.52364 25.61759,17.41885 66.11908,27.80142 107.51932,31.83803 69.72348,7.84665 141.54015,6.89291 212.368,9.69469 121.1361,3.42039 244.14076,5.98049 363.65086,-6.80644 35.383,-3.69148 70.8495,-11.5489 94.2052,-26.02977 26.0209,-16.30411 35.4234,-37.9294 34.3536,-58.55474 -1.224,-20.437 -17.0443,-41.38115 -48.6186,-54.61888 -28.978,-12.55233 -65.4442,-19.39347 -101.5381,-24.72725 -61.006,-8.17364 -124.6074,-6.48863 -187.04065,-8.12368 -33.75657,-0.76814 -67.52506,-1.66499 -101.32816,-1.47598 z"
       style="fill:#ffffff;stroke:none;stroke-width:1.03993" />
    <path
       sodipodi:nodetypes="csczc"
       inkscape:connector-curvature="0"
       id="path3072-6"
       d="m 1081.7941,416.02205 c 36.2399,-33.05001 12.1081,-79.99657 -19.0717,-99.99148 -42.9428,-27.53838 -40.7325,-40.47907 -40.7325,-40.47907 0,0 -13.2061,24.99718 25.677,3.68046 38.8831,-21.31673 102.981,107.99336 34.1272,136.79009 z"
       style="color:#000000;display:inline;overflow:visible;visibility:visible;fill:#ffffff;fill-opacity:1;fill-rule:nonzero;stroke:none;stroke-width:1.00626px;marker:none;enable-background:accumulate" />
    <path
       sodipodi:nodetypes="ccccccccccccccccccccccccc"
       inkscape:connector-curvature="0"
       id="path4508-2"
       d="m 309.98674,2106.1414 c 69.7755,50.215 104.5583,27.0557 100.069,-7.8444 24.4115,32.4134 43.012,43.6837 56.4409,20.9975 16.32,23.0419 49.6688,27.0616 54.8864,0.991 14.9063,26.8075 33.0185,27.8272 52.4884,-2.8547 3.8966,27.4839 21.4705,27.4211 49.6187,-5.4359 0.6329,32.2069 17.9133,29.0749 44.2667,-1.0641 -10.7471,47.3202 28.6711,20.5144 58.0666,-3.8816 -24.9969,44.0517 -0.4404,35.2445 22.4985,19.3999 -14.1198,26.0548 23.336,11.0792 81.599,-21.6129 -30.0688,24.3423 -95.5594,61.6144 -47.6375,58.806 -7.4704,7.195 -43.3249,16.619 25.7383,29.1038 -55.4358,7.3582 -31.685,22.2364 -5.0327,29.0116 -29.8177,1.7664 -55.6124,0.3319 -12.1693,32.7908 -42.8131,-16.9806 -61.6322,-27.5828 -48.0445,-4.5282 -34.9797,-22.7531 -69.1093,-20.3543 -65.7895,5.7678 -14.0811,-27.3788 -60.1546,-27.5261 -74.7358,4.0886 -3.3662,-30.2677 -24.9512,-39.5141 -80.4782,-6.1007 12.7835,-34.8929 -33.6969,-22.6429 -59.1615,-1.807 18.6832,-24.3949 -19.7104,-26.9019 -56.468,1.7871 23.3765,-29.3035 -15.3109,-40.3506 -62.9061,4.4166 24.6298,-70.049 -36.988,-41.8614 -73.4178,-33.1839 29.5611,-21.3642 84.3723,-36.7231 20.8585,-46.5205 71.8246,-19.3001 59.4873,-13.4586 24.8622,-28.2643 37.7477,6.2471 28.6796,-8.9196 -5.5523,-44.0625 z"
       style="display:inline;fill:#ffffff;fill-rule:evenodd;stroke:none;stroke-width:0.681559px;stroke-linecap:butt;stroke-linejoin:miter;stroke-opacity:1" />
    <path
       sodipodi:nodetypes="ccccccsc"
       inkscape:connector-curvature="0"
       id="path5901"
       d="m 1701.3998,1145.0066 c -56.8308,-4.1789 -152.8803,-24.8445 -217.9407,-22.7474 -37.3022,-0.7062 -140.2183,20.0059 -160.7769,29.8526 -56.3421,-12.3402 -128.9672,-1.1373 -212.6526,16.1438 70.158,-33.5076 163.4843,-43.3509 213.0711,-33.8074 8.0419,-7.4822 87.8347,-27.1136 143.3863,-30.2389 25.0474,-1.2389 207.6828,8.2831 281.7856,9.889 107.5665,2.3312 -46.8728,30.9083 -46.8728,30.9083 z"
       style="color:#000000;display:inline;overflow:visible;visibility:visible;fill:#ffffff;fill-opacity:1;fill-rule:nonzero;stroke:none;stroke-width:1.46762px;marker:none;enable-background:accumulate" />
    <path
       sodipodi:nodetypes="cccccsccccccccccccccccccccccccccccccc"
       inkscape:connector-curvature="0"
       id="path4656"
       d="m 1970.3457,1106.7585 c 14.5309,46.1047 19.5507,42.0553 21.14,19.9163 3.8572,7.6378 5.1712,30.8477 15.0419,1.66 6.9646,20.0541 12.1419,17.0031 15.8549,-4.9792 12.1729,38.0911 18.5372,15.0047 24.3922,5.809 3.9439,5.1447 4.035,9.078 10.4768,11.5011 6.4418,2.4231 13.6985,-7.2419 18.4906,-15.6968 1.6247,17.3221 8.6108,16.1964 15.2102,0.819 1.3082,18.1822 12.5537,8.754 15.1753,-1.7918 5.9155,22.1528 11.8258,3.4457 16.2632,-3.9599 4.1246,9.714 9.9644,23.6328 13.0091,2.4895 5.622,8.3276 12.5387,-4.4858 20.3269,-31.5344 -0.7166,17.2403 -5.7393,46.9328 5.6915,29.0449 1.6483,12.1449 0.9378,28.4481 25.6119,0 -6.5542,35.5184 13.9055,-1.7513 33.7426,-37.3434 -12.3143,30.6315 -29.2305,68.4577 -7.3177,54.7702 -11.906,25.791 -11.7862,42.3077 24.7988,30.7046 -23.6634,17.7435 -41.6044,35.9837 -15.0418,58.0899 -16.2328,0.6733 -20.0207,8.4917 -1.6261,29.0448 -25.6092,-12.501 -27.4796,-5.6188 -20.7335,8.2984 -5.1655,0.6636 -14.5581,-10.8037 -13.0092,9.1285 -14.4585,-11.465 -34.5336,-37.0922 -31.71,-4.9791 -15.3135,-23.5778 -17.6255,-14.4917 -19.1072,-3.3194 -27.0397,-35.3156 -23.1413,-13.2192 -28.0512,-7.4688 -7.8873,-13.2365 -7.4361,-1.8859 -5.6914,13.2778 -7.6156,-15.5993 -14.3227,-21.3068 -18.7007,-1.6599 -4.7429,-8.5366 -9.4859,-20.7925 -14.2288,-1.6594 -6.4859,-9.7021 -13.1736,-13.226 -20.7335,9.9581 -3.7452,-13.3335 -9.0365,-22.7225 -25.6118,-3.3194 -3.8694,-28.9463 -18.3054,-23.0497 -36.1819,-5.809 0.1678,-17.2061 -1.5301,-28.3632 -19.5138,13.2777 3.5261,-17.847 7.5761,-36.6874 -3.6589,-26.5553 6.4158,-34.1191 -19.5073,-2.2263 -34.9622,8.2985 17.2061,-29.5949 42.5404,-65.9157 21.5465,-63.8989 13.9876,-20.6562 15.2829,-30.5174 3.2524,-29.0446 0.8481,-6.1016 15.2349,-18.3445 -1.2196,-16.5972 8.5073,-8.9058 21.3873,-7.587 17.0745,-46.4718 z"
       style="fill:#ffffff;fill-rule:evenodd;stroke:none;stroke-width:0.682718px;stroke-linecap:butt;stroke-linejoin:miter;stroke-opacity:1" />
    <path
       sodipodi:nodetypes="cccccccccccccccccccccccccccccccc"
       inkscape:connector-curvature="0"
       id="path4656-2"
       d="m 2053.0004,1243.6612 c -27.9736,-49.4337 -37.3698,-44.9504 -40.0654,-21.0207 -7.3638,-8.1568 -10.1488,-33.177 -28.3406,-1.4538 -13.3803,-21.4874 -23.0864,-18.0782 -29.7823,5.7299 -23.427,-40.8373 -35.0996,-15.7778 -45.9992,-5.7215 -29.9743,-21.8567 -109.2162,-20.8192 -142.2346,11.5503 -7.8952,-10.3916 -19.0757,-25.2826 -24.5248,-2.3948 -10.6957,-8.8616 -23.5455,5.123 -37.8456,34.4907 1.1182,-18.623 10.1765,-50.7823 -11.1041,-31.2195 -3.2656,-13.0708 -2.1463,-30.6822 -48.2176,0.5752 11.8634,-38.4817 -26.1553,2.2023 -63.0246,41.0615 22.773,-33.3364 54.1132,-74.5411 13.0429,-59.2766 22.0693,-28.103 21.6225,-45.9263 -47.0981,-32.5818 44.3118,-19.6815 77.8437,-39.7707 27.5402,-63.033 30.5513,-1.0912 37.5777,-9.6143 2.6724,-31.3836 48.3799,12.9167 51.809,5.4469 38.9222,-9.4221 9.7158,-0.8322 27.5521,11.3333 24.3692,-10.1442 27.3735,12.0491 65.5106,39.2572 59.7647,4.6616 29.1454,25.1031 33.3764,15.2448 36.0162,3.1533 31.4509,33.9302 59.5358,6.9538 63.447,-7.0271 14.5464,16.6651 27.2496,22.6743 35.2288,1.3714 9.0434,9.1069 18.1369,22.2278 26.8098,1.4717 12.3404,10.3255 24.978,13.9784 38.8998,-11.2135 7.2296,14.3068 17.317,24.3209 48.2621,3.0074 7.6723,31.1543 34.7712,24.4659 68.1948,5.4571 -0.085,18.5738 3.2608,30.5773 36.5594,-14.7686 -6.3992,19.341 -13.7717,39.766 7.244,28.5783 -11.6214,36.9683 36.7549,1.9647 65.7098,-9.7416 -31.9962,32.3275 -79.2047,72.0968 -39.7082,69.4485 -26.0568,22.6081 -28.3631,33.2803 -5.7339,31.4204 -1.515,6.6044 -28.436,20.1409 2.5183,17.8854 -15.8969,9.8031 -40.1628,8.6688 -31.5226,50.5397 z"
       style="fill:#ffffff;fill-rule:evenodd;stroke:none;stroke-width:0.973244px;stroke-linecap:butt;stroke-linejoin:miter;stroke-opacity:1" />
    <path
       inkscape:connector-curvature="0"
       id="path4667"
       d="m 1015.1849,2189.4608 -175.18817,23.6245 19.87046,-24.9089 -120.20022,14.1736 10.11593,-22.9029 144.18035,-9.7054 -21.18671,28.732 z"
       style="fill:#ffffff;fill-rule:evenodd;stroke:none;stroke-width:0.992393px;stroke-linecap:butt;stroke-linejoin:miter;stroke-opacity:1" />
    <path
       sodipodi:nodetypes="zsssssz"
       inkscape:connector-curvature="0"
       id="path3330-06"
       d="m 134.71498,2464.3867 c 30.68512,-32.3061 197.58404,-32.7175 253.11451,-20.0077 55.53011,12.7099 76.19261,36.0008 78.7753,44.3543 2.58269,8.3526 -3.87409,47.4263 -32.28503,55.5952 -28.41069,8.1691 -109.76893,13.5086 -138.17974,14.0397 -28.41082,0.5312 -119.10442,-2.6343 -142.0542,-13.3837 -21.95391,-10.2821 -50.05609,-48.2917 -19.37084,-80.5978 z"
       style="color:#000000;display:inline;overflow:visible;visibility:visible;fill:#ffffff;fill-opacity:1;fill-rule:nonzero;stroke:none;stroke-width:0.94378px;marker:none;enable-background:accumulate" />
    <path
       sodipodi:nodetypes="zsssssz"
       inkscape:connector-curvature="0"
       id="path3330-06-7"
       d="m 1200.255,2526.534 c 19.3718,-36.9992 124.7367,-37.4704 159.7936,-22.9142 35.0565,14.5563 48.101,41.2308 49.7315,50.7978 1.6305,9.5661 -2.4458,54.3162 -20.3818,63.6719 -17.936,9.3558 -69.2981,15.471 -87.2342,16.0793 -17.936,0.6083 -75.1917,-3.017 -89.6801,-15.3281 -13.8597,-11.7757 -31.6008,-55.3072 -12.229,-92.3067 z"
       style="color:#000000;display:inline;overflow:visible;visibility:visible;fill:#ffffff;fill-opacity:1;fill-rule:nonzero;stroke:none;stroke-width:0.802499px;marker:none;enable-background:accumulate" />
    <path
       sodipodi:nodetypes="zssssz"
       inkscape:connector-curvature="0"
       id="path4040-4-5-3"
       d="m 299.09798,2517.0781 c -23.73701,1.3331 -47.82077,3.2314 -70.60336,12.7599 -14.54476,7.9697 -28.57347,18.7602 -39.20057,34.2482 -4.99064,9.369 -4.65674,21.3666 -4.34897,32.2716 0.32489,11.3477 2.66688,23.6494 9.64914,31.15 8.9223,10.0811 20.8126,13.2791 31.9764,16.6118 24.86138,6.8341 50.19241,10.3587 75.52984,12.2941 38.81056,2.6745 77.84235,3.5333 116.54322,-1.8822 11.88801,-1.891 24.00853,-4.2599 34.9335,-11.0193 12.20438,-8.0402 22.10086,-23.4205 23.86427,-41.5303 1.62961,-14.9548 -2.40838,-30.4149 -9.95944,-41.6699 -10.11011,-16.1375 -25.38238,-25.3614 -40.86249,-28.7421 -20.11471,-5.1196 -40.6372,-6.2388 -60.96022,-9.2586 -21.34295,-2.614 -42.72249,-6.004 -64.19497,-5.3572 -0.78878,0.041 -1.57757,0.083 -2.36635,0.124 z"
       style="color:#000000;display:inline;overflow:visible;visibility:visible;fill:#ffffff;fill-opacity:1;fill-rule:nonzero;stroke:none;stroke-width:0.733054px;marker:none;enable-background:accumulate" />
    <path
       sodipodi:nodetypes="cscczc"
       inkscape:connector-curvature="0"
       id="path3063-5"
       d="m 408.21026,2756.4434 c 41.49541,-14.9397 69.63369,-74.7389 44.97759,-106.2013 -12.48911,-15.9367 -15.19836,-7.3949 -15.19836,-7.3949 l 22.4898,-40.1282 c 0,0 -1.8972,-18.2704 14.44816,13.5807 16.34544,31.8513 14.09086,113.2048 -66.71719,140.1437 z"
       style="fill:#ffffff;stroke:none;stroke-width:0.68186" />
    <path
       sodipodi:nodetypes="csssscssssssc"
       inkscape:connector-curvature="0"
       id="path3023-2"
       d="m 1321.7873,2788.7879 c -16.5258,-31.9571 -12.7678,-43.095 -7.7551,-55.2841 5.0127,-12.1894 10.5127,-22.4678 8.7649,-31.311 -1.7478,-8.8431 -7.4039,-18.0835 -12.2478,-24.1391 -4.8437,-6.0556 1.8748,-12.9996 4.0955,-22.2048 2.2206,-9.2053 1.3101,-62.0823 1.3101,-62.0823 0,0 -19.4788,28.1128 -23.4595,39.3728 -3.9808,11.26 -5.4762,15.3478 -6.2014,20.4652 -0.7252,5.1175 -1.222,18.0964 2.6109,26.1588 3.8329,8.0624 10.1541,12.9445 14.005,18.0924 3.8509,5.1479 0.876,15.4465 -1.5463,25.8514 -2.4223,10.405 -3.0096,18.5368 2.5674,35.2227 4.7806,14.3032 17.8563,29.858 17.8563,29.858 z"
       style="fill:#ffffff;stroke:none;stroke-width:1.05222" />
    <path
       sodipodi:nodetypes="ccscc"
       inkscape:connector-curvature="0"
       id="path4035-4"
       d="m 1520.2101,306.67106 c -34.4703,-26.32907 -102.0792,38.51758 -76.1251,79.72636 -29.1408,-21.44933 -28.4418,-101.10367 88.8819,-122.29745 53.071,-9.58682 -8.5044,28.1115 -8.5044,28.1115 z"
       style="color:#000000;font-variation-settings:normal;display:inline;overflow:visible;visibility:visible;opacity:1;vector-effect:none;fill:#b5a898;fill-opacity:1;fill-rule:nonzero;stroke:none;stroke-width:0.787691px;stroke-linecap:butt;stroke-linejoin:miter;stroke-miterlimit:4;stroke-dasharray:none;stroke-dashoffset:0;stroke-opacity:1;-inkscape-stroke:none;marker:none;filter:url(#filter23754);enable-background:accumulate;stop-color:#000000;stop-opacity:1" />
    <path
       sodipodi:nodetypes="cssssc"
       inkscape:connector-curvature="0"
       id="path4546-6-21"
       d="m 1414.0907,262.7903 c 3.0074,-38.40157 45.0979,-67.03407 155.5164,-61.30336 59.1462,3.06909 126.2852,4.70066 122.5653,60.94651 -3.72,56.24586 -100.195,56.10016 -120.0926,57.68185 -19.8978,1.58247 -123.68,-2.91327 -142.0412,-21.78215 -11.4935,-11.81125 -16.1339,-23.65991 -15.9479,-35.54285 z"
       style="color:#000000;display:inline;overflow:visible;visibility:visible;fill:#b6a898;fill-opacity:1;fill-rule:nonzero;stroke:none;stroke-width:0.787691px;marker:none;filter:url(#filter23754);enable-background:accumulate" />
    <path
       id="path1202"
       d="m 1445.6874,307.01836 0.3946,-1.8904 2.4969,-2.27063 13.7884,2.6873 6.4833,3.4624 0.3146,2.10394 -0.01,0.39526 -4.889,1.37827 -12.2504,-0.92906 z"
       style="fill:#ddbc9a;fill-rule:evenodd;stroke:none;stroke-width:1px;stroke-linecap:butt;stroke-linejoin:miter;stroke-opacity:1;fill-opacity:1" />
  </g>
  <g
     style="display:inline"
     inkscape:label="txt"
     id="layer1"
     inkscape:groupmode="layer">
    <text
       xml:space="preserve"
       style="font-style:normal;font-variant:normal;font-weight:normal;font-stretch:normal;line-height:0%;font-family:'Xiaolai SC';-inkscape-font-specification:'Xiaolai SC';text-align:center;letter-spacing:0px;word-spacing:0px;text-anchor:middle;fill:#000000;fill-opacity:1;stroke:none"
       x="875.43378"
       y="203.30875"
       id="text4246-4-2-7"><tspan
         id="tspan6690"
         sodipodi:role="line"
         style="font-style:normal;font-variant:normal;font-weight:normal;font-stretch:normal;font-size:45px;line-height:1.25;font-family:'Xiaolai SC';-inkscape-font-specification:'Xiaolai SC';fill:#000000"
         x="875.43378"
         y="203.30875">把这座塔从艾河洼的地图上夷为平地。</tspan><tspan
         id="tspan20232"
         sodipodi:role="line"
         style="font-style:normal;font-variant:normal;font-weight:normal;font-stretch:normal;font-size:45px;line-height:1.25;font-family:'Xiaolai SC';-inkscape-font-specification:'Xiaolai SC';fill:#000000"
         x="875.43378"
         y="259.55875">并以此复仇来庆祝我们的结盟。</tspan></text>
    <text
       transform="matrix(0.56312247,-0.2879856,-0.10396071,0.76310836,942.94211,-487.48536)"
       id="text4580-1-7-3-6-91"
       y="1584.5073"
       x="787.65729"
       style="font-style:normal;font-variant:normal;font-weight:normal;font-stretch:normal;line-height:0%;font-family:'Xiaolai SC';-inkscape-font-specification:'Xiaolai SC';letter-spacing:0px;word-spacing:0px;display:inline;fill:#ffffff;fill-opacity:1;stroke:#ffffff;stroke-width:1.6559;stroke-miterlimit:4;stroke-dasharray:none;stroke-opacity:1;filter:url(#filter4375-4-1-1-1-9-6-9-2-1-5-4-3)"
       xml:space="preserve"><tspan
         style="font-style:normal;font-variant:normal;font-weight:normal;font-stretch:normal;font-size:70px;line-height:1.25;font-family:'Xiaolai SC';-inkscape-font-specification:'Xiaolai SC';letter-spacing:2.96623px;fill:#ffffff;stroke:#ffffff;stroke-width:1.6559;stroke-miterlimit:4;stroke-dasharray:none;stroke-opacity:1"
         y="1584.5073"
         x="787.65729"
         id="tspan4582-8-5-6-1-0"
         sodipodi:role="line">啪</tspan></text>
    <text
       xml:space="preserve"
       style="font-style:normal;font-variant:normal;font-weight:normal;font-stretch:normal;line-height:0%;font-family:'Xiaolai SC';-inkscape-font-specification:'Xiaolai SC';text-align:center;letter-spacing:0px;word-spacing:0px;text-anchor:middle;fill:#000000;fill-opacity:1;stroke:none;filter:url(#filter47349)"
       x="1559.2574"
       y="275.71851"
       id="text4246-4-2-7-3"><tspan
         id="tspan2289-5"
         sodipodi:role="line"
         style="font-style:normal;font-variant:normal;font-weight:normal;font-stretch:normal;font-size:45px;line-height:1.25;font-family:'Xiaolai SC';-inkscape-font-specification:'Xiaolai SC';fill:#000000"
         x="1559.2574"
         y="275.71851"><tspan
           id="tspan52047"
           style="font-style:normal;font-variant:normal;font-weight:normal;font-stretch:normal;font-size:50px;font-family:'Xiaolai SC';-inkscape-font-specification:'Xiaolai SC';fill:#680000;fill-opacity:1">说得好！</tspan></tspan></text>
    <text
       transform="matrix(0.57277918,-0.25843304,-0.10574349,0.93181927,1743.7442,-784.744)"
       id="use4516-8"
       y="1954.6715"
       x="1302.3322"
       style="font-style:normal;font-variant:normal;font-weight:normal;font-stretch:normal;font-size:8.2448px;line-height:0%;font-family:'Xiaolai SC';-inkscape-font-specification:'Xiaolai SC';letter-spacing:1.83751px;word-spacing:0px;display:inline;opacity:0.708356;fill:#b3cfde;fill-opacity:1;stroke:#302820;stroke-width:6.24756;stroke-miterlimit:4;stroke-dasharray:none;stroke-opacity:1;paint-order:stroke fill markers;filter:url(#filter1058);"
       xml:space="preserve"><tspan
         style="font-style:normal;font-variant:normal;font-weight:normal;font-stretch:normal;font-size:48.0947px;line-height:1.25;font-family:'Xiaolai SC';-inkscape-font-specification:'Xiaolai SC';fill:#ded5c0;fill-opacity:1;stroke:#302820;stroke-width:6.24756;stroke-miterlimit:4;stroke-dasharray:none;stroke-opacity:1;paint-order:stroke fill markers;"
         y="1954.6715"
         x="1302.3322"
         id="tspan4370-3"
         sodipodi:role="line">Ouais !</tspan></text>
    <text
       transform="matrix(0.50551861,-0.22852645,-0.0933262,0.82398656,721.59257,-519.96357)"
       id="use4516-8-2-7"
       y="1954.6715"
       x="1302.3322"
       style="font-style:normal;font-variant:normal;font-weight:normal;font-stretch:normal;font-size:8.2448px;line-height:0%;font-family:'Xiaolai SC';-inkscape-font-specification:'Xiaolai SC';letter-spacing:1.83751px;word-spacing:0px;display:inline;opacity:0.369456;fill:#b3cfde;fill-opacity:1;stroke:#302820;stroke-width:10.8167;stroke-miterlimit:4;stroke-dasharray:none;stroke-opacity:1;paint-order:stroke fill markers;filter:url(#filter987);"
       xml:space="preserve"><tspan
         style="font-style:normal;font-variant:normal;font-weight:normal;font-stretch:normal;font-size:48.0947px;line-height:1.25;font-family:'Xiaolai SC';-inkscape-font-specification:'Xiaolai SC';fill:#ded5c0;fill-opacity:1;stroke:#302820;stroke-width:10.8167;stroke-miterlimit:4;stroke-dasharray:none;stroke-opacity:1;paint-order:stroke fill markers;"
         y="1954.6715"
         x="1302.3322"
         id="tspan4370-3-6-5"
         sodipodi:role="line">Yâaa !</tspan></text>
    <text
       xml:space="preserve"
       style="font-style:normal;font-variant:normal;font-weight:normal;font-stretch:normal;font-size:8.2448px;line-height:0%;font-family:'Xiaolai SC';-inkscape-font-specification:'Xiaolai SC';letter-spacing:1.83751px;word-spacing:0px;display:inline;opacity:0.708356;fill:#b3cfde;fill-opacity:1;stroke:#302820;stroke-width:6.24756;stroke-miterlimit:4;stroke-dasharray:none;stroke-opacity:1;paint-order:stroke fill markers;filter:url(#filter1058-6);"
       x="1302.3322"
       y="1954.6715"
       id="use4516-8-2"
       transform="matrix(0.6170271,-0.27711716,-0.11391231,0.99918767,-460.69245,-804.3923)"><tspan
         sodipodi:role="line"
         id="tspan4370-3-6"
         x="1302.3322"
         y="1954.6715"
         style="font-style:normal;font-variant:normal;font-weight:normal;font-stretch:normal;font-size:48.0947px;line-height:1.25;font-family:'Xiaolai SC';-inkscape-font-specification:'Xiaolai SC';fill:#ded5c0;fill-opacity:1;stroke:#302820;stroke-width:6.24756;stroke-miterlimit:4;stroke-dasharray:none;stroke-opacity:1;paint-order:stroke fill markers;">Yaaa !</tspan></text>
    <text
       xml:space="preserve"
       style="font-style:normal;font-variant:normal;font-weight:normal;font-stretch:normal;font-size:8.2448px;line-height:0%;font-family:'Xiaolai SC';-inkscape-font-specification:'Xiaolai SC';letter-spacing:1.83751px;word-spacing:0px;display:inline;opacity:0.369456;fill:#b3cfde;fill-opacity:1;stroke:#302820;stroke-width:10.8167;stroke-miterlimit:4;stroke-dasharray:none;stroke-opacity:1;paint-order:stroke fill markers;filter:url(#filter987-9);"
       x="1302.3322"
       y="1954.6715"
       id="use4516-8-2-7-1"
       transform="matrix(0.52113112,-0.20283488,-0.16142443,0.86646806,-250.56102,-690.44126)"><tspan
         sodipodi:role="line"
         id="tspan4370-3-6-5-2"
         x="1302.3322"
         y="1954.6715"
         style="font-style:normal;font-variant:normal;font-weight:normal;font-stretch:normal;font-size:48.0947px;line-height:1.25;font-family:'Xiaolai SC';-inkscape-font-specification:'Xiaolai SC';fill:#ded5c0;fill-opacity:1;stroke:#302820;stroke-width:10.8167;stroke-miterlimit:4;stroke-dasharray:none;stroke-opacity:1;paint-order:stroke fill markers;">Ouaiiiis !</tspan></text>
    <text
       xml:space="preserve"
       style="font-style:normal;font-variant:normal;font-weight:normal;font-stretch:normal;font-size:8.2448px;line-height:0%;font-family:'Xiaolai SC';-inkscape-font-specification:'Xiaolai SC';letter-spacing:1.83751px;word-spacing:0px;display:inline;opacity:0.369456;fill:#b3cfde;fill-opacity:1;stroke:#302820;stroke-width:10.8167;stroke-miterlimit:4;stroke-dasharray:none;stroke-opacity:1;paint-order:stroke fill markers;filter:url(#filter987-2);"
       x="1302.3322"
       y="1954.6715"
       id="use4516-8-2-7-1-1-7"
       transform="matrix(0.50551861,-0.22852645,-0.0933262,0.82398656,765.75454,-478.73767)"><tspan
         sodipodi:role="line"
         id="tspan4370-3-6-5-2-5-1"
         x="1302.3322"
         y="1954.6715"
         style="font-style:normal;font-variant:normal;font-weight:normal;font-stretch:normal;font-size:48.0947px;line-height:1.25;font-family:'Xiaolai SC';-inkscape-font-specification:'Xiaolai SC';fill:#ded5c0;fill-opacity:1;stroke:#302820;stroke-width:10.8167;stroke-miterlimit:4;stroke-dasharray:none;stroke-opacity:1;paint-order:stroke fill markers;">Yihaaa !</tspan></text>
    <text
       xml:space="preserve"
       style="font-style:normal;font-variant:normal;font-weight:normal;font-stretch:normal;font-size:8.2448px;line-height:0%;font-family:'Xiaolai SC';-inkscape-font-specification:'Xiaolai SC';letter-spacing:1.83751px;word-spacing:0px;display:inline;opacity:0.369456;fill:#b3cfde;fill-opacity:1;stroke:#302820;stroke-width:10.8167;stroke-miterlimit:4;stroke-dasharray:none;stroke-opacity:1;paint-order:stroke fill markers;filter:url(#filter987-2-7);"
       x="1302.3322"
       y="1954.6715"
       id="use4516-8-2-7-1-1-7-9"
       transform="matrix(0.50551861,-0.22852645,-0.0933262,0.82398656,563.23843,-486.66588)"><tspan
         sodipodi:role="line"
         id="tspan4370-3-6-5-2-5-1-2"
         x="1302.3322"
         y="1954.6715"
         style="font-style:normal;font-variant:normal;font-weight:normal;font-stretch:normal;font-size:48.0947px;line-height:1.25;font-family:'Xiaolai SC';-inkscape-font-specification:'Xiaolai SC';fill:#ded5c0;fill-opacity:1;stroke:#302820;stroke-width:10.8167;stroke-miterlimit:4;stroke-dasharray:none;stroke-opacity:1;paint-order:stroke fill markers;">Yuurr !</tspan></text>
    <text
       xml:space="preserve"
       style="font-style:normal;font-variant:normal;font-weight:normal;font-stretch:normal;font-size:8.2448px;line-height:0%;font-family:'Xiaolai SC';-inkscape-font-specification:'Xiaolai SC';letter-spacing:1.83751px;word-spacing:0px;display:inline;opacity:0.369456;fill:#b3cfde;fill-opacity:1;stroke:#302820;stroke-width:10.8167;stroke-miterlimit:4;stroke-dasharray:none;stroke-opacity:1;paint-order:stroke fill markers;filter:url(#filter987-2-0);"
       x="1302.3322"
       y="1954.6715"
       id="use4516-8-2-7-1-1-7-2"
       transform="matrix(0.50551861,-0.22852645,-0.0933262,0.82398656,-254.75674,-562.28345)"><tspan
         sodipodi:role="line"
         id="tspan4370-3-6-5-2-5-1-6"
         x="1302.3322"
         y="1954.6715"
         style="font-style:normal;font-variant:normal;font-weight:normal;font-stretch:normal;font-size:48.0947px;line-height:1.25;font-family:'Xiaolai SC';-inkscape-font-specification:'Xiaolai SC';fill:#ded5c0;fill-opacity:1;stroke:#302820;stroke-width:10.8167;stroke-miterlimit:4;stroke-dasharray:none;stroke-opacity:1;paint-order:stroke fill markers;">Yihaaa !</tspan></text>
    <text
       xml:space="preserve"
       style="font-style:normal;font-variant:normal;font-weight:normal;font-stretch:normal;font-size:8.2448px;line-height:0%;font-family:'Xiaolai SC';-inkscape-font-specification:'Xiaolai SC';letter-spacing:1.83751px;word-spacing:0px;display:inline;opacity:0.369456;fill:#b3cfde;fill-opacity:1;stroke:#302820;stroke-width:10.8167;stroke-miterlimit:4;stroke-dasharray:none;stroke-opacity:1;paint-order:stroke fill markers;filter:url(#filter987-2-0-1);"
       x="1302.3322"
       y="1954.6715"
       id="use4516-8-2-7-1-1-7-2-7"
       transform="matrix(0.50551861,-0.22852645,-0.0933262,0.82398656,1788.7629,-546.79556)"><tspan
         sodipodi:role="line"
         id="tspan4370-3-6-5-2-5-1-6-9"
         x="1302.3322"
         y="1954.6715"
         style="font-style:normal;font-variant:normal;font-weight:normal;font-stretch:normal;font-size:48.0947px;line-height:1.25;font-family:'Xiaolai SC';-inkscape-font-specification:'Xiaolai SC';fill:#ded5c0;fill-opacity:1;stroke:#302820;stroke-width:10.8167;stroke-miterlimit:4;stroke-dasharray:none;stroke-opacity:1;paint-order:stroke fill markers;">Yihaaa !</tspan></text>
    <text
       xml:space="preserve"
       style="font-style:normal;font-variant:normal;font-weight:normal;font-stretch:normal;font-size:8.2448px;line-height:0%;font-family:'Xiaolai SC';-inkscape-font-specification:'Xiaolai SC';letter-spacing:1.83751px;word-spacing:0px;display:inline;opacity:0.369456;fill:#b3cfde;fill-opacity:1;stroke:#302820;stroke-width:10.8167;stroke-miterlimit:4;stroke-dasharray:none;stroke-opacity:1;paint-order:stroke fill markers;filter:url(#filter987-9-0);"
       x="1302.3322"
       y="1954.6715"
       id="use4516-8-2-7-1-3"
       transform="matrix(0.47108436,-0.22117434,-0.08696913,0.79747739,658.82376,-436.37844)"><tspan
         sodipodi:role="line"
         id="tspan4370-3-6-5-2-6"
         x="1302.3322"
         y="1954.6715"
         style="font-style:normal;font-variant:normal;font-weight:normal;font-stretch:normal;font-size:48.0947px;line-height:1.25;font-family:'Xiaolai SC';-inkscape-font-specification:'Xiaolai SC';fill:#ded5c0;fill-opacity:1;stroke:#302820;stroke-width:10.8167;stroke-miterlimit:4;stroke-dasharray:none;stroke-opacity:1;paint-order:stroke fill markers;">Ouais !</tspan></text>
    <text
       xml:space="preserve"
       style="font-style:normal;font-variant:normal;font-weight:normal;font-stretch:normal;font-size:8.2448px;line-height:0%;font-family:'Xiaolai SC';-inkscape-font-specification:'Xiaolai SC';letter-spacing:1.83751px;word-spacing:0px;display:inline;opacity:0.369456;fill:#b3cfde;fill-opacity:1;stroke:#302820;stroke-width:10.8167;stroke-miterlimit:4;stroke-dasharray:none;stroke-opacity:1;paint-order:stroke fill markers;filter:url(#filter987-9-0-2);"
       x="1302.3322"
       y="1954.6715"
       id="use4516-8-2-7-1-3-2"
       transform="matrix(0.47108436,-0.22117434,-0.08696913,0.79747739,1740.0595,-544.75882)"><tspan
         sodipodi:role="line"
         id="tspan4370-3-6-5-2-6-3"
         x="1302.3322"
         y="1954.6715"
         style="font-style:normal;font-variant:normal;font-weight:normal;font-stretch:normal;font-size:48.0947px;line-height:1.25;font-family:'Xiaolai SC';-inkscape-font-specification:'Xiaolai SC';fill:#ded5c0;fill-opacity:1;stroke:#302820;stroke-width:10.8167;stroke-miterlimit:4;stroke-dasharray:none;stroke-opacity:1;paint-order:stroke fill markers;">Houra !</tspan></text>
    <text
       xml:space="preserve"
       style="font-style:normal;font-variant:normal;font-weight:normal;font-stretch:normal;font-size:16.5593px;line-height:0%;font-family:'Xiaolai SC';-inkscape-font-specification:'Xiaolai SC';text-align:center;letter-spacing:0px;word-spacing:0px;text-anchor:middle;fill:#000000;fill-opacity:1;stroke:#000000;stroke-width:2.15702;stroke-miterlimit:4;stroke-dasharray:none;stroke-opacity:1"
       x="2237.292"
       y="1110.6644"
       id="text4246-6-9-8-8-3-6"
       transform="matrix(0.9493189,0,-0.25523766,1.0533868,0,0)"><tspan
         id="tspan59386"
         sodipodi:role="line"
         style="font-style:normal;font-variant:normal;font-weight:normal;font-stretch:normal;font-size:59.266px;line-height:1.25;font-family:'Xiaolai SC';-inkscape-font-specification:'Xiaolai SC';stroke:#000000;stroke-width:2.15702;stroke-miterlimit:4;stroke-dasharray:none;stroke-opacity:1"
         x="2237.292"
         y="1110.6644">弩炮准备！</tspan></text>
    <text
       xml:space="preserve"
       style="font-style:normal;font-variant:normal;font-weight:normal;font-stretch:normal;font-size:17.4097px;line-height:0%;font-family:'Xiaolai SC';-inkscape-font-specification:'Xiaolai SC';text-align:center;letter-spacing:0px;word-spacing:0px;text-anchor:middle;fill:#000000;fill-opacity:1;stroke:#000000;stroke-width:2.26779;stroke-miterlimit:4;stroke-dasharray:none;stroke-opacity:1"
       x="2523.9399"
       y="1161.1833"
       id="text4246-6-9-8-8-3-6-0"
       transform="matrix(0.95446031,0,-0.25662,1.0477125,0,0)"><tspan
         id="tspan59386-3"
         sodipodi:role="line"
         style="font-style:normal;font-variant:normal;font-weight:normal;font-stretch:normal;font-size:62.3093px;line-height:1.25;font-family:'Xiaolai SC';-inkscape-font-specification:'Xiaolai SC';stroke:#000000;stroke-width:2.26779;stroke-miterlimit:4;stroke-dasharray:none;stroke-opacity:1"
         x="2523.9399"
         y="1161.1833">射！</tspan></text>
    <text
       transform="matrix(0.64745355,-0.05501211,-0.16702718,0.70842118,1818.4946,259.32859)"
       xml:space="preserve"
       style="font-style:normal;font-variant:normal;font-weight:normal;font-stretch:normal;font-size:85.3333px;line-height:0%;font-family:'Xiaolai SC';-inkscape-font-specification:'Xiaolai SC';letter-spacing:4.62069px;word-spacing:0px;display:inline;fill:#ffffff;fill-opacity:1;stroke:#98b9ca;stroke-width:1.20695;stroke-miterlimit:4;stroke-dasharray:none;stroke-opacity:1;filter:url(#filter4375-4-1-1-1-9-5-8)"
       id="text4580-6-0"
       x="128.4707"
       y="1608.6935"><tspan
         style="font-style:normal;font-variant:normal;font-weight:normal;font-stretch:normal;font-size:106.667px;font-family:'Xiaolai SC';-inkscape-font-specification:'Xiaolai SC';stroke-width:1.20695"
         id="tspan884">呜呜呜呜呜~~~~~！</tspan><tspan
         style="font-style:normal;font-variant:normal;font-weight:normal;font-stretch:normal;font-size:134.669px;font-family:'Xiaolai SC';-inkscape-font-specification:'Xiaolai SC';stroke-width:1.20695"
         id="tspan892" /></text>
    <text
       transform="matrix(0.8558538,-0.16659013,-0.40426649,1.2002681,490.3859,54.013969)"
       id="text4580-6-0-0-3-2"
       y="1584.5073"
       x="787.65729"
       style="font-style:normal;font-variant:normal;font-weight:normal;font-stretch:normal;line-height:0%;font-family:'Xiaolai SC';-inkscape-font-specification:'Xiaolai SC';letter-spacing:0px;word-spacing:0px;display:inline;fill:#ffebb6;fill-opacity:1;stroke:#ffe260;stroke-width:0.581347;stroke-miterlimit:4;stroke-dasharray:none;stroke-opacity:1;filter:url(#filter4375-4-1-1-1-9-5-8-8-3-2-9-6)"
       xml:space="preserve"><tspan
         style="font-style:normal;font-variant:normal;font-weight:normal;font-stretch:normal;font-size:70px;line-height:1.25;font-family:'Xiaolai SC';-inkscape-font-specification:'Xiaolai SC';fill:#ffebb6;fill-opacity:1;stroke:#ffe260;stroke-width:0.581347;stroke-opacity:1"
         y="1584.5073"
         x="787.65729"
         id="tspan4582-1-1-0-6-8"
         sodipodi:role="line"><tspan
           id="tspan853-6-9"
           style="font-style:normal;font-variant:normal;font-weight:normal;font-stretch:normal;font-size:58.6346px;font-family:'Xiaolai SC';-inkscape-font-specification:'Xiaolai SC';fill:#ffebb6;fill-opacity:1;stroke-width:0.581347">嗖~~~~~</tspan><tspan
           id="tspan929-6"
           style="font-style:normal;font-variant:normal;font-weight:normal;font-stretch:normal;font-size:79.977px;font-family:'Xiaolai SC';-inkscape-font-specification:'Xiaolai SC';fill:#ffebb6;fill-opacity:1;stroke-width:0.581347" /></tspan></text>
    <text
       transform="matrix(0.9140663,-0.15065992,-0.49892437,1.1898885,1040.4871,87.083387)"
       id="text4580-6-0-0-3-2-8"
       y="1584.5073"
       x="787.65729"
       style="font-style:normal;font-variant:normal;font-weight:normal;font-stretch:normal;line-height:0%;font-family:'Xiaolai SC';-inkscape-font-specification:'Xiaolai SC';letter-spacing:0px;word-spacing:0px;display:inline;fill:#ffebb6;fill-opacity:1;stroke:#ffe260;stroke-width:0.581347;stroke-miterlimit:4;stroke-dasharray:none;stroke-opacity:1;filter:url(#filter4375-4-1-1-1-9-5-8-8-3-2-2-7-6)"
       xml:space="preserve"><tspan
         style="font-style:normal;font-variant:normal;font-weight:normal;font-stretch:normal;font-size:70px;line-height:1.25;font-family:'Xiaolai SC';-inkscape-font-specification:'Xiaolai SC';fill:#ffebb6;fill-opacity:1;stroke:#ffe260;stroke-width:0.581347;stroke-opacity:1"
         y="1584.5073"
         x="787.65729"
         id="tspan4582-1-1-0-6-8-4"
         sodipodi:role="line"><tspan
           id="tspan853-6-9-5"
           style="font-style:normal;font-variant:normal;font-weight:normal;font-stretch:normal;font-size:58.6346px;font-family:'Xiaolai SC';-inkscape-font-specification:'Xiaolai SC';fill:#ffebb6;fill-opacity:1;stroke-width:0.581347">嗖~~~~~~</tspan><tspan
           id="tspan929-6-3"
           style="font-style:normal;font-variant:normal;font-weight:normal;font-stretch:normal;font-size:79.977px;font-family:'Xiaolai SC';-inkscape-font-specification:'Xiaolai SC';fill:#ffebb6;fill-opacity:1;stroke-width:0.581347" /></tspan></text>
    <text
       xml:space="preserve"
       style="font-style:normal;font-variant:normal;font-weight:normal;font-stretch:normal;font-size:12.8473px;line-height:0%;font-family:'Xiaolai SC';-inkscape-font-specification:'Xiaolai SC';text-align:center;letter-spacing:0px;word-spacing:0px;text-anchor:middle;fill:#000000;fill-opacity:1;stroke:#000000;stroke-width:1.6735;stroke-miterlimit:4;stroke-dasharray:none;stroke-opacity:1"
       x="1140.8142"
       y="2089.9453"
       id="text4246-6-9-8-8-3"
       transform="matrix(0.9493189,0,-0.25523766,1.0533868,0,0)"><tspan
         sodipodi:role="line"
         style="font-style:normal;font-variant:normal;font-weight:normal;font-stretch:normal;font-size:45.9806px;line-height:1.25;font-family:'Xiaolai SC';-inkscape-font-specification:'Xiaolai SC';stroke:#000000;stroke-width:1.6735;stroke-miterlimit:4;stroke-dasharray:none;stroke-opacity:1"
         x="1140.8142"
         y="2089.9453"
         id="tspan4395-0-6">冲啊~~~~~！！！</tspan></text>
    <text
       xml:space="preserve"
       style="font-style:normal;font-variant:normal;font-weight:normal;font-stretch:normal;line-height:0%;font-family:'Xiaolai SC';-inkscape-font-specification:'Xiaolai SC';text-align:center;letter-spacing:0px;word-spacing:0px;text-anchor:middle;fill:#000000;fill-opacity:1;stroke:none"
       x="294.43509"
       y="2505.4846"
       id="text4246-4-2-7-0"><tspan
         id="tspan116891"
         sodipodi:role="line"
         style="font-style:normal;font-variant:normal;font-weight:normal;font-stretch:normal;font-size:45px;line-height:1.25;font-family:'Xiaolai SC';-inkscape-font-specification:'Xiaolai SC';fill:#000000"
         x="294.43509"
         y="2505.4846">出什么事了？</tspan></text>
    <text
       xml:space="preserve"
       style="font-style:normal;font-variant:normal;font-weight:normal;font-stretch:normal;line-height:0%;font-family:'Xiaolai SC';-inkscape-font-specification:'Xiaolai SC';text-align:center;letter-spacing:0px;word-spacing:0px;text-anchor:middle;fill:#000000;fill-opacity:1;stroke:none"
       x="330.63715"
       y="2604.6492"
       id="text4246-4-2-7-0-9"><tspan
         id="tspan116891-9"
         sodipodi:role="line"
         style="font-style:normal;font-variant:normal;font-weight:normal;font-stretch:normal;font-size:45px;line-height:1.25;font-family:'Xiaolai SC';-inkscape-font-specification:'Xiaolai SC';fill:#000000"
         x="330.63715"
         y="2604.6492">有人攻城？</tspan></text>
    <text
       transform="matrix(1.0300873,-0.55928084,0.20243365,1.5973987,-597.30286,718.07851)"
       id="text4580-6-0-0-7"
       y="1584.5073"
       x="787.65729"
       style="font-style:normal;font-variant:normal;font-weight:normal;font-stretch:normal;line-height:0%;font-family:'Xiaolai SC';-inkscape-font-specification:'Xiaolai SC';letter-spacing:0px;word-spacing:0px;display:inline;opacity:0.903052;fill:#cab1e6;fill-opacity:1;stroke:#ffe260;stroke-width:0.320995;stroke-miterlimit:4;stroke-dasharray:none;stroke-opacity:1;filter:url(#filter4375-4-1-1-1-9-5-8-8-1-1)"
       xml:space="preserve"><tspan
         style="font-style:normal;font-variant:normal;font-weight:normal;font-stretch:normal;font-size:70px;line-height:1.25;font-family:'Xiaolai SC';-inkscape-font-specification:'Xiaolai SC';fill:#cab1e6;fill-opacity:1;stroke:#ffe260;stroke-width:0.320995;stroke-opacity:1"
         y="1584.5073"
         x="787.65729"
         id="tspan4582-1-1-0-4"
         sodipodi:role="line"><tspan
           id="tspan855"
           style="font-style:normal;font-variant:normal;font-weight:normal;font-stretch:normal;font-size:88.8128px;font-family:'Xiaolai SC';-inkscape-font-specification:'Xiaolai SC';fill:#cab1e6;fill-opacity:1">砰！</tspan></tspan></text>
    <text
       transform="matrix(1.0300873,-0.55928084,0.20243365,1.5973987,-288.82831,726.38671)"
       id="text4580-6-0-0-7-5"
       y="1584.5073"
       x="787.65729"
       style="font-style:normal;font-variant:normal;font-weight:normal;font-stretch:normal;line-height:0%;font-family:'Xiaolai SC';-inkscape-font-specification:'Xiaolai SC';letter-spacing:0px;word-spacing:0px;display:inline;opacity:0.900558;fill:#cab1e6;fill-opacity:1;stroke:#ffe260;stroke-width:0.320995;stroke-miterlimit:4;stroke-dasharray:none;stroke-opacity:1;filter:url(#filter4375-4-1-1-1-9-5-8-8-1-0-1)"
       xml:space="preserve"><tspan
         style="font-style:normal;font-variant:normal;font-weight:normal;font-stretch:normal;font-size:70px;line-height:1.25;font-family:'Xiaolai SC';-inkscape-font-specification:'Xiaolai SC';fill:#cab1e6;fill-opacity:1;stroke:#ffe260;stroke-width:0.320995;stroke-opacity:1"
         y="1584.5073"
         x="787.65729"
         id="tspan4582-1-1-0-4-2"
         sodipodi:role="line"><tspan
           id="tspan855-5"
           style="font-style:normal;font-variant:normal;font-weight:normal;font-stretch:normal;font-size:88.8128px;font-family:'Xiaolai SC';-inkscape-font-specification:'Xiaolai SC';fill:#cab1e6;fill-opacity:1">砰！</tspan></tspan></text>
    <text
       xml:space="preserve"
       style="font-style:normal;font-variant:normal;font-weight:normal;font-stretch:normal;line-height:0%;font-family:'Xiaolai SC';-inkscape-font-specification:'Xiaolai SC';text-align:center;letter-spacing:0px;word-spacing:0px;text-anchor:middle;fill:#000000;fill-opacity:1;stroke:none"
       x="1299.5797"
       y="2579.0881"
       id="text4246-4-2-7-0-9-1"><tspan
         id="tspan116891-9-7"
         sodipodi:role="line"
         style="font-style:normal;font-variant:normal;font-weight:normal;font-stretch:normal;font-size:45px;line-height:1.25;font-family:'Xiaolai SC';-inkscape-font-specification:'Xiaolai SC';fill:#000000"
         x="1299.5797"
         y="2579.0881">什么?!</tspan></text>
    <text
       transform="matrix(1.4278524,-0.37228159,-0.022617,1.8900881,627.70082,-21.694402)"
       id="text4580-6-0-0-7-5-9"
       y="1584.5073"
       x="787.65729"
       style="font-style:normal;font-variant:normal;font-weight:normal;font-stretch:normal;line-height:0%;font-family:'Xiaolai SC';-inkscape-font-specification:'Xiaolai SC';letter-spacing:0px;word-spacing:0px;display:inline;opacity:0.860477;fill:#b9c4f2;fill-opacity:1;stroke:#ffe260;stroke-width:0.320995;stroke-miterlimit:4;stroke-dasharray:none;stroke-opacity:1;filter:url(#filter4375-4-1-1-1-9-5-8-8-1-0-7-1)"
       xml:space="preserve"><tspan
         style="font-style:normal;font-variant:normal;font-weight:normal;font-stretch:normal;font-size:70px;line-height:1.25;font-family:'Xiaolai SC';-inkscape-font-specification:'Xiaolai SC';fill:#b9c4f2;fill-opacity:1;stroke:#ffe260;stroke-width:0.320995;stroke-opacity:1"
         y="1584.5073"
         x="787.65729"
         id="tspan4582-1-1-0-4-2-2"
         sodipodi:role="line"><tspan
   id="tspan853-4-6"
   style="font-style:normal;font-variant:normal;font-weight:normal;font-stretch:normal;font-size:58.94px;font-family:'Xiaolai SC';-inkscape-font-specification:'Xiaolai SC';fill:#b9c4f2;fill-opacity:1;stroke-width:0.320995">啪啦啦</tspan> !</tspan></text>
    <text
       transform="matrix(1.1220561,-0.26848231,-0.01777323,1.3630951,873.22941,1217.2855)"
       id="text4580-6-0-0-7-5-9-7"
       y="1584.5073"
       x="787.65729"
       style="font-style:normal;font-variant:normal;font-weight:normal;font-stretch:normal;line-height:0%;font-family:'Xiaolai SC';-inkscape-font-specification:'Xiaolai SC';letter-spacing:0px;word-spacing:0px;display:inline;opacity:0.860477;fill:#b9c4f2;fill-opacity:1;stroke:#ffe260;stroke-width:0.320995;stroke-miterlimit:4;stroke-dasharray:none;stroke-opacity:1;filter:url(#filter4375-4-1-1-1-9-5-8-8-1-0-7-9-4)"
       xml:space="preserve"><tspan
         style="font-style:normal;font-variant:normal;font-weight:normal;font-stretch:normal;font-size:70px;line-height:1.25;font-family:'Xiaolai SC';-inkscape-font-specification:'Xiaolai SC';fill:#b9c4f2;fill-opacity:1;stroke:#ffe260;stroke-width:0.320995;stroke-opacity:1"
         y="1584.5073"
         x="787.65729"
         id="tspan4582-1-1-0-4-2-2-2"
         sodipodi:role="line">嘭！ !</tspan></text>
  </g>
</svg>
