<?xml version="1.0" encoding="UTF-8" standalone="no"?>
<svg
   xmlns:dc="http://purl.org/dc/elements/1.1/"
   xmlns:cc="http://creativecommons.org/ns#"
   xmlns:rdf="http://www.w3.org/1999/02/22-rdf-syntax-ns#"
   xmlns:svg="http://www.w3.org/2000/svg"
   xmlns="http://www.w3.org/2000/svg"
   xmlns:xlink="http://www.w3.org/1999/xlink"
   xmlns:sodipodi="http://sodipodi.sourceforge.net/DTD/sodipodi-0.dtd"
   xmlns:inkscape="http://www.inkscape.org/namespaces/inkscape"
   sodipodi:docname="E36P05.svg"
   height="3503"
   width="2481"
   inkscape:version="1.0 (4035a4fb49, 2020-05-01)"
   version="1.1"
   id="svg2">
  <metadata
     id="metadata8">
    <rdf:RDF>
      <cc:Work
         rdf:about="">
        <dc:format>image/svg+xml</dc:format>
        <dc:type
           rdf:resource="http://purl.org/dc/dcmitype/StillImage" />
        <dc:title />
      </cc:Work>
    </rdf:RDF>
  </metadata>
  <defs
     id="defs6">
    <filter
       height="1.1123089"
       width="1.0341249"
       y="-0.056154443"
       x="-0.017062446"
       id="filter71410"
       style="color-interpolation-filters:sRGB"
       inkscape:collect="always">
      <feGaussianBlur
         id="feGaussianBlur71412"
         stdDeviation="2.9583482"
         inkscape:collect="always" />
    </filter>
    <filter
       height="1.0801105"
       width="1.0206821"
       y="-0.0055581411"
       x="-0.0014349399"
       inkscape:label="soundFX1-Hippiah"
       id="filter4375-4-1-1-1-9-5-8-8-53"
       style="color-interpolation-filters:sRGB">
      <feFlood
         result="flood"
         flood-color="rgb(43,143,96)"
         flood-opacity="1"
         id="feFlood4377-7-9-0-8-1-7-3-1-4" />
      <feComposite
         baseFrequency="0.053999999999999999 0.053999999999999999"
         result="composite1"
         operator="in"
         in="flood"
         in2="SourceGraphic"
         id="feComposite4379-3-8-8-2-77-4-1-0-9" />
      <feMorphology
         result="result3"
         radius="6.2000000000000002"
         operator="dilate"
         id="feMorphology4393-1-0-49-8-9-3-0-1-0" />
      <feComposite
         result="fbSourceGraphic"
         operator="over"
         in="SourceGraphic"
         in2="result3"
         id="feComposite4385-9-5-7-0-8-8-7-5-20" />
      <feColorMatrix
         id="feColorMatrix4544-9-1"
         values="0 0 0 -1 0 0 0 0 -1 0 0 0 0 -1 0 0 0 0 1 0"
         in="fbSourceGraphic"
         result="fbSourceGraphicAlpha" />
      <feTurbulence
         result="turbulence"
         baseFrequency="0.053999999999999999 0.054054054054054057"
         seed="174"
         numOctaves="5"
         type="fractalNoise"
         id="feTurbulence4546-3-96" />
      <feDisplacementMap
         result="fbSourceGraphic"
         xChannelSelector="R"
         yChannelSelector="G"
         scale="6.6"
         in="fbSourceGraphic"
         in2="turbulence"
         id="feDisplacementMap4548-8-21" />
      <feColorMatrix
         id="feColorMatrix4670-7-2"
         values="0 0 0 -1 0 0 0 0 -1 0 0 0 0 -1 0 0 0 0 1 0"
         in="fbSourceGraphic"
         result="fbSourceGraphicAlpha" />
      <feFlood
         in="fbSourceGraphic"
         result="flood"
         flood-color="rgb(39,84,60)"
         flood-opacity="1"
         id="feFlood4672-4-0" />
      <feComposite
         result="composite1"
         operator="in"
         in="flood"
         in2="fbSourceGraphic"
         id="feComposite4674-8-73" />
      <feGaussianBlur
         result="blur"
         stdDeviation="0"
         in="composite1"
         id="feGaussianBlur4676-3-1" />
      <feOffset
         result="offset"
         dy="6"
         dx="6"
         id="feOffset4678-6-1" />
      <feComposite
         result="composite2"
         operator="over"
         in="fbSourceGraphic"
         in2="offset"
         id="feComposite4680-4-90" />
    </filter>
    <filter
       height="1.0773592"
       width="1.0242552"
       y="-0.0053672555"
       x="-0.0016828449"
       inkscape:label="soundFX1-Hippiah"
       id="filter4375-4-1-1-1-9-5-8-8-53-3"
       style="color-interpolation-filters:sRGB">
      <feFlood
         result="flood"
         flood-color="rgb(47,114,125)"
         flood-opacity="1"
         id="feFlood4377-7-9-0-8-1-7-3-1-4-1" />
      <feComposite
         baseFrequency="0.053999999999999999 0.053999999999999999"
         result="composite1"
         operator="in"
         in="flood"
         in2="SourceGraphic"
         id="feComposite4379-3-8-8-2-77-4-1-0-9-9" />
      <feMorphology
         result="result3"
         radius="6.2000000000000002"
         operator="dilate"
         id="feMorphology4393-1-0-49-8-9-3-0-1-0-4" />
      <feComposite
         result="fbSourceGraphic"
         operator="over"
         in="SourceGraphic"
         in2="result3"
         id="feComposite4385-9-5-7-0-8-8-7-5-20-7" />
      <feColorMatrix
         id="feColorMatrix4544-9-1-8"
         values="0 0 0 -1 0 0 0 0 -1 0 0 0 0 -1 0 0 0 0 1 0"
         in="fbSourceGraphic"
         result="fbSourceGraphicAlpha" />
      <feTurbulence
         result="turbulence"
         baseFrequency="0.053999999999999999 0.054054054054054057"
         seed="174"
         numOctaves="5"
         type="fractalNoise"
         id="feTurbulence4546-3-96-4" />
      <feDisplacementMap
         result="fbSourceGraphic"
         xChannelSelector="R"
         yChannelSelector="G"
         scale="6.6"
         in="fbSourceGraphic"
         in2="turbulence"
         id="feDisplacementMap4548-8-21-5" />
      <feColorMatrix
         id="feColorMatrix4670-7-2-0"
         values="0 0 0 -1 0 0 0 0 -1 0 0 0 0 -1 0 0 0 0 1 0"
         in="fbSourceGraphic"
         result="fbSourceGraphicAlpha" />
      <feFlood
         in="fbSourceGraphic"
         result="flood"
         flood-color="rgb(39,84,60)"
         flood-opacity="1"
         id="feFlood4672-4-0-3" />
      <feComposite
         result="composite1"
         operator="in"
         in="flood"
         in2="fbSourceGraphic"
         id="feComposite4674-8-73-6" />
      <feGaussianBlur
         result="blur"
         stdDeviation="0"
         in="composite1"
         id="feGaussianBlur4676-3-1-1" />
      <feOffset
         result="offset"
         dy="6"
         dx="6"
         id="feOffset4678-6-1-0" />
      <feComposite
         result="composite2"
         operator="over"
         in="fbSourceGraphic"
         in2="offset"
         id="feComposite4680-4-90-6" />
    </filter>
    <filter
       height="1.014977"
       width="1.0032848"
       y="-0.0074885244"
       x="-0.0016424109"
       inkscape:label="Roughen"
       id="filter5561-7-8-9"
       style="color-interpolation-filters:sRGB">
      <feFlood
         result="flood"
         flood-color="rgb(88,149,175)"
         flood-opacity="1"
         id="feFlood5563-4-9-0" />
      <feComposite
         result="composite1"
         operator="in"
         in="flood"
         in2="SourceGraphic"
         id="feComposite5565-6-3-0" />
      <feMorphology
         result="result3"
         radius="5.2907629363257902"
         operator="dilate"
         id="feMorphology5567-3-48-3" />
      <feComposite
         result="fbSourceGraphic"
         operator="over"
         in="SourceGraphic"
         in2="result3"
         id="feComposite5569-6-6-5" />
      <feColorMatrix
         id="feColorMatrix4681-5-3"
         values="0 0 0 -1 0 0 0 0 -1 0 0 0 0 -1 0 0 0 0 1 0"
         in="fbSourceGraphic"
         result="fbSourceGraphicAlpha" />
      <feTurbulence
         result="turbulence"
         baseFrequency="0.016687459970111018 0.019900000000000001"
         seed="33"
         numOctaves="1"
         type="fractalNoise"
         id="feTurbulence4683-3-9" />
      <feDisplacementMap
         xChannelSelector="R"
         yChannelSelector="G"
         scale="37.8"
         in="fbSourceGraphic"
         in2="turbulence"
         id="feDisplacementMap4685-0-6" />
    </filter>
    <filter
       height="1.0160672"
       width="1.0022454"
       y="-0.0080335752"
       x="-0.0011227167"
       inkscape:label="Roughen"
       id="filter5561-7-8-9-6"
       style="color-interpolation-filters:sRGB">
      <feFlood
         result="flood"
         flood-color="rgb(145,96,23)"
         flood-opacity="1"
         id="feFlood5563-4-9-0-9" />
      <feComposite
         result="composite1"
         operator="in"
         in="flood"
         in2="SourceGraphic"
         id="feComposite5565-6-3-0-3" />
      <feMorphology
         result="result3"
         radius="5.2907629363257902"
         operator="dilate"
         id="feMorphology5567-3-48-3-7" />
      <feComposite
         result="fbSourceGraphic"
         operator="over"
         in="SourceGraphic"
         in2="result3"
         id="feComposite5569-6-6-5-4" />
      <feColorMatrix
         id="feColorMatrix4681-5-3-5"
         values="0 0 0 -1 0 0 0 0 -1 0 0 0 0 -1 0 0 0 0 1 0"
         in="fbSourceGraphic"
         result="fbSourceGraphicAlpha" />
      <feTurbulence
         result="turbulence"
         baseFrequency="0.025919978584009393 0.010629603437233135"
         seed="33"
         numOctaves="3"
         type="fractalNoise"
         id="feTurbulence4683-3-9-2" />
      <feDisplacementMap
         xChannelSelector="R"
         yChannelSelector="G"
         scale="37.8"
         in="fbSourceGraphic"
         in2="turbulence"
         id="feDisplacementMap4685-0-6-5" />
    </filter>
    <filter
       height="1.0151831"
       width="1.0022184"
       y="-0.0075915363"
       x="-0.0011091827"
       inkscape:label="Roughen"
       id="filter5561-7-8-9-4"
       style="color-interpolation-filters:sRGB">
      <feFlood
         result="flood"
         flood-color="rgb(88,149,175)"
         flood-opacity="1"
         id="feFlood5563-4-9-0-3" />
      <feComposite
         result="composite1"
         operator="in"
         in="flood"
         in2="SourceGraphic"
         id="feComposite5565-6-3-0-0" />
      <feMorphology
         result="result3"
         radius="5.2907629363257902"
         operator="dilate"
         id="feMorphology5567-3-48-3-78" />
      <feComposite
         result="fbSourceGraphic"
         operator="over"
         in="SourceGraphic"
         in2="result3"
         id="feComposite5569-6-6-5-6" />
      <feColorMatrix
         id="feColorMatrix4681-5-3-8"
         values="0 0 0 -1 0 0 0 0 -1 0 0 0 0 -1 0 0 0 0 1 0"
         in="fbSourceGraphic"
         result="fbSourceGraphicAlpha" />
      <feTurbulence
         result="turbulence"
         baseFrequency="0.016687459970111018 0.019900000000000001"
         seed="33"
         numOctaves="1"
         type="fractalNoise"
         id="feTurbulence4683-3-9-8" />
      <feDisplacementMap
         xChannelSelector="R"
         yChannelSelector="G"
         scale="37.8"
         in="fbSourceGraphic"
         in2="turbulence"
         id="feDisplacementMap4685-0-6-4" />
    </filter>
    <filter
       height="1.0815659"
       width="1.0162791"
       y="-0.0039836934"
       x="-0.0007950749"
       inkscape:label="Drop Shadow"
       id="filter4375-4-1-1-1-9-5-8-3-4"
       style="color-interpolation-filters:sRGB">
      <feFlood
         result="flood"
         flood-color="rgb(39,39,39)"
         flood-opacity="1"
         id="feFlood4377-7-9-0-8-1-7-3-6" />
      <feComposite
         result="composite1"
         operator="in"
         in="flood"
         in2="SourceGraphic"
         id="feComposite4379-3-8-8-2-77-4-1-7" />
      <feMorphology
         result="result3"
         radius="6.2000000000000002"
         operator="dilate"
         id="feMorphology4393-1-0-49-8-9-3-0-5" />
      <feComposite
         result="fbSourceGraphic"
         operator="over"
         in="SourceGraphic"
         in2="result3"
         id="feComposite4385-9-5-7-0-8-8-7-3" />
      <feColorMatrix
         id="feColorMatrix4544-5"
         values="0 0 0 -1 0 0 0 0 -1 0 0 0 0 -1 0 0 0 0 1 0"
         in="fbSourceGraphic"
         result="fbSourceGraphicAlpha" />
      <feTurbulence
         result="turbulence"
         baseFrequency="0.129 0.0050000000000000001"
         seed="37"
         numOctaves="3"
         type="fractalNoise"
         id="feTurbulence4546-6" />
      <feDisplacementMap
         result="fbSourceGraphic"
         xChannelSelector="R"
         yChannelSelector="G"
         scale="6.6"
         in="fbSourceGraphic"
         in2="turbulence"
         id="feDisplacementMap4548-2" />
      <feColorMatrix
         id="feColorMatrix4670-9-3"
         values="0 0 0 -1 0 0 0 0 -1 0 0 0 0 -1 0 0 0 0 1 0"
         in="fbSourceGraphic"
         result="fbSourceGraphicAlpha" />
      <feFlood
         in="fbSourceGraphic"
         result="flood"
         flood-color="rgb(34,52,102)"
         flood-opacity="0.40999999999999998"
         id="feFlood4672-1-0" />
      <feComposite
         result="composite1"
         operator="in"
         in="flood"
         in2="fbSourceGraphic"
         id="feComposite4674-2-3" />
      <feGaussianBlur
         result="blur"
         stdDeviation="0"
         in="composite1"
         id="feGaussianBlur4676-7" />
      <feOffset
         result="offset"
         dy="6"
         dx="6"
         id="feOffset4678-0-0" />
      <feComposite
         result="composite2"
         operator="over"
         in="fbSourceGraphic"
         in2="offset"
         id="feComposite4680-9" />
    </filter>
    <filter
       height="1.0815659"
       width="1.0162791"
       y="-0.0039836934"
       x="-0.0007950749"
       inkscape:label="Drop Shadow"
       id="filter4375-4-1-1-1-9-5-8-3-4-2"
       style="color-interpolation-filters:sRGB">
      <feFlood
         result="flood"
         flood-color="rgb(39,39,39)"
         flood-opacity="1"
         id="feFlood4377-7-9-0-8-1-7-3-6-0" />
      <feComposite
         result="composite1"
         operator="in"
         in="flood"
         in2="SourceGraphic"
         id="feComposite4379-3-8-8-2-77-4-1-7-6" />
      <feMorphology
         result="result3"
         radius="6.2000000000000002"
         operator="dilate"
         id="feMorphology4393-1-0-49-8-9-3-0-5-8" />
      <feComposite
         result="fbSourceGraphic"
         operator="over"
         in="SourceGraphic"
         in2="result3"
         id="feComposite4385-9-5-7-0-8-8-7-3-9" />
      <feColorMatrix
         id="feColorMatrix4544-5-2"
         values="0 0 0 -1 0 0 0 0 -1 0 0 0 0 -1 0 0 0 0 1 0"
         in="fbSourceGraphic"
         result="fbSourceGraphicAlpha" />
      <feTurbulence
         result="turbulence"
         baseFrequency="0.129 0.0050000000000000001"
         seed="37"
         numOctaves="3"
         type="fractalNoise"
         id="feTurbulence4546-6-6" />
      <feDisplacementMap
         result="fbSourceGraphic"
         xChannelSelector="R"
         yChannelSelector="G"
         scale="6.6"
         in="fbSourceGraphic"
         in2="turbulence"
         id="feDisplacementMap4548-2-6" />
      <feColorMatrix
         id="feColorMatrix4670-9-3-4"
         values="0 0 0 -1 0 0 0 0 -1 0 0 0 0 -1 0 0 0 0 1 0"
         in="fbSourceGraphic"
         result="fbSourceGraphicAlpha" />
      <feFlood
         in="fbSourceGraphic"
         result="flood"
         flood-color="rgb(34,52,102)"
         flood-opacity="0.40999999999999998"
         id="feFlood4672-1-0-9" />
      <feComposite
         result="composite1"
         operator="in"
         in="flood"
         in2="fbSourceGraphic"
         id="feComposite4674-2-3-5" />
      <feGaussianBlur
         result="blur"
         stdDeviation="0"
         in="composite1"
         id="feGaussianBlur4676-7-0" />
      <feOffset
         result="offset"
         dy="6"
         dx="6"
         id="feOffset4678-0-0-4" />
      <feComposite
         result="composite2"
         operator="over"
         in="fbSourceGraphic"
         in2="offset"
         id="feComposite4680-9-8" />
    </filter>
    <filter
       height="1.0815659"
       width="1.0162791"
       y="-0.0039836934"
       x="-0.0007950749"
       inkscape:label="Drop Shadow"
       id="filter4375-4-1-1-1-9-5-8-3-4-2-2"
       style="color-interpolation-filters:sRGB">
      <feFlood
         result="flood"
         flood-color="rgb(39,39,39)"
         flood-opacity="1"
         id="feFlood4377-7-9-0-8-1-7-3-6-0-2" />
      <feComposite
         result="composite1"
         operator="in"
         in="flood"
         in2="SourceGraphic"
         id="feComposite4379-3-8-8-2-77-4-1-7-6-6" />
      <feMorphology
         result="result3"
         radius="6.2000000000000002"
         operator="dilate"
         id="feMorphology4393-1-0-49-8-9-3-0-5-8-1" />
      <feComposite
         result="fbSourceGraphic"
         operator="over"
         in="SourceGraphic"
         in2="result3"
         id="feComposite4385-9-5-7-0-8-8-7-3-9-0" />
      <feColorMatrix
         id="feColorMatrix4544-5-2-6"
         values="0 0 0 -1 0 0 0 0 -1 0 0 0 0 -1 0 0 0 0 1 0"
         in="fbSourceGraphic"
         result="fbSourceGraphicAlpha" />
      <feTurbulence
         result="turbulence"
         baseFrequency="0.129 0.0050000000000000001"
         seed="37"
         numOctaves="3"
         type="fractalNoise"
         id="feTurbulence4546-6-6-1" />
      <feDisplacementMap
         result="fbSourceGraphic"
         xChannelSelector="R"
         yChannelSelector="G"
         scale="6.6"
         in="fbSourceGraphic"
         in2="turbulence"
         id="feDisplacementMap4548-2-6-5" />
      <feColorMatrix
         id="feColorMatrix4670-9-3-4-9"
         values="0 0 0 -1 0 0 0 0 -1 0 0 0 0 -1 0 0 0 0 1 0"
         in="fbSourceGraphic"
         result="fbSourceGraphicAlpha" />
      <feFlood
         in="fbSourceGraphic"
         result="flood"
         flood-color="rgb(34,52,102)"
         flood-opacity="0.40999999999999998"
         id="feFlood4672-1-0-9-4" />
      <feComposite
         result="composite1"
         operator="in"
         in="flood"
         in2="fbSourceGraphic"
         id="feComposite4674-2-3-5-9" />
      <feGaussianBlur
         result="blur"
         stdDeviation="0"
         in="composite1"
         id="feGaussianBlur4676-7-0-0" />
      <feOffset
         result="offset"
         dy="6"
         dx="6"
         id="feOffset4678-0-0-4-9" />
      <feComposite
         result="composite2"
         operator="over"
         in="fbSourceGraphic"
         in2="offset"
         id="feComposite4680-9-8-1" />
    </filter>
    <filter
       height="1.0815659"
       width="1.0162791"
       y="-0.0039836934"
       x="-0.0007950749"
       inkscape:label="Drop Shadow"
       id="filter4375-4-1-1-1-9-5-8-3-4-2-2-9"
       style="color-interpolation-filters:sRGB">
      <feFlood
         result="flood"
         flood-color="rgb(39,39,39)"
         flood-opacity="1"
         id="feFlood4377-7-9-0-8-1-7-3-6-0-2-7" />
      <feComposite
         result="composite1"
         operator="in"
         in="flood"
         in2="SourceGraphic"
         id="feComposite4379-3-8-8-2-77-4-1-7-6-6-7" />
      <feMorphology
         result="result3"
         radius="6.2000000000000002"
         operator="dilate"
         id="feMorphology4393-1-0-49-8-9-3-0-5-8-1-6" />
      <feComposite
         result="fbSourceGraphic"
         operator="over"
         in="SourceGraphic"
         in2="result3"
         id="feComposite4385-9-5-7-0-8-8-7-3-9-0-7" />
      <feColorMatrix
         id="feColorMatrix4544-5-2-6-3"
         values="0 0 0 -1 0 0 0 0 -1 0 0 0 0 -1 0 0 0 0 1 0"
         in="fbSourceGraphic"
         result="fbSourceGraphicAlpha" />
      <feTurbulence
         result="turbulence"
         baseFrequency="0.129 0.0050000000000000001"
         seed="37"
         numOctaves="3"
         type="fractalNoise"
         id="feTurbulence4546-6-6-1-6" />
      <feDisplacementMap
         result="fbSourceGraphic"
         xChannelSelector="R"
         yChannelSelector="G"
         scale="6.6"
         in="fbSourceGraphic"
         in2="turbulence"
         id="feDisplacementMap4548-2-6-5-5" />
      <feColorMatrix
         id="feColorMatrix4670-9-3-4-9-6"
         values="0 0 0 -1 0 0 0 0 -1 0 0 0 0 -1 0 0 0 0 1 0"
         in="fbSourceGraphic"
         result="fbSourceGraphicAlpha" />
      <feFlood
         in="fbSourceGraphic"
         result="flood"
         flood-color="rgb(34,52,102)"
         flood-opacity="0.40999999999999998"
         id="feFlood4672-1-0-9-4-3" />
      <feComposite
         result="composite1"
         operator="in"
         in="flood"
         in2="fbSourceGraphic"
         id="feComposite4674-2-3-5-9-9" />
      <feGaussianBlur
         result="blur"
         stdDeviation="0"
         in="composite1"
         id="feGaussianBlur4676-7-0-0-4" />
      <feOffset
         result="offset"
         dy="6"
         dx="6"
         id="feOffset4678-0-0-4-9-8" />
      <feComposite
         result="composite2"
         operator="over"
         in="fbSourceGraphic"
         in2="offset"
         id="feComposite4680-9-8-1-1" />
    </filter>
    <filter
       height="1.0815659"
       width="1.0162791"
       y="-0.0039836934"
       x="-0.0007950749"
       inkscape:label="Drop Shadow"
       id="filter4375-4-1-1-1-9-5-8-3-4-2-2-9-8"
       style="color-interpolation-filters:sRGB">
      <feFlood
         result="flood"
         flood-color="rgb(39,39,39)"
         flood-opacity="1"
         id="feFlood4377-7-9-0-8-1-7-3-6-0-2-7-8" />
      <feComposite
         result="composite1"
         operator="in"
         in="flood"
         in2="SourceGraphic"
         id="feComposite4379-3-8-8-2-77-4-1-7-6-6-7-5" />
      <feMorphology
         result="result3"
         radius="6.2000000000000002"
         operator="dilate"
         id="feMorphology4393-1-0-49-8-9-3-0-5-8-1-6-0" />
      <feComposite
         result="fbSourceGraphic"
         operator="over"
         in="SourceGraphic"
         in2="result3"
         id="feComposite4385-9-5-7-0-8-8-7-3-9-0-7-9" />
      <feColorMatrix
         id="feColorMatrix4544-5-2-6-3-6"
         values="0 0 0 -1 0 0 0 0 -1 0 0 0 0 -1 0 0 0 0 1 0"
         in="fbSourceGraphic"
         result="fbSourceGraphicAlpha" />
      <feTurbulence
         result="turbulence"
         baseFrequency="0.129 0.0050000000000000001"
         seed="37"
         numOctaves="3"
         type="fractalNoise"
         id="feTurbulence4546-6-6-1-6-3" />
      <feDisplacementMap
         result="fbSourceGraphic"
         xChannelSelector="R"
         yChannelSelector="G"
         scale="6.6"
         in="fbSourceGraphic"
         in2="turbulence"
         id="feDisplacementMap4548-2-6-5-5-8" />
      <feColorMatrix
         id="feColorMatrix4670-9-3-4-9-6-5"
         values="0 0 0 -1 0 0 0 0 -1 0 0 0 0 -1 0 0 0 0 1 0"
         in="fbSourceGraphic"
         result="fbSourceGraphicAlpha" />
      <feFlood
         in="fbSourceGraphic"
         result="flood"
         flood-color="rgb(34,52,102)"
         flood-opacity="0.40999999999999998"
         id="feFlood4672-1-0-9-4-3-6" />
      <feComposite
         result="composite1"
         operator="in"
         in="flood"
         in2="fbSourceGraphic"
         id="feComposite4674-2-3-5-9-9-1" />
      <feGaussianBlur
         result="blur"
         stdDeviation="0"
         in="composite1"
         id="feGaussianBlur4676-7-0-0-4-1" />
      <feOffset
         result="offset"
         dy="6"
         dx="6"
         id="feOffset4678-0-0-4-9-8-5" />
      <feComposite
         result="composite2"
         operator="over"
         in="fbSourceGraphic"
         in2="offset"
         id="feComposite4680-9-8-1-1-9" />
    </filter>
  </defs>
  <sodipodi:namedview
     inkscape:document-rotation="0"
     inkscape:snap-global="false"
     inkscape:pagecheckerboard="0"
     inkscape:current-layer="layer3"
     inkscape:window-maximized="1"
     inkscape:window-y="-8"
     inkscape:window-x="-8"
     inkscape:cy="2702.9825"
     inkscape:cx="1227.9576"
     inkscape:zoom="0.45"
     showgrid="false"
     id="namedview4"
     inkscape:window-height="715"
     inkscape:window-width="1366"
     inkscape:pageshadow="2"
     inkscape:pageopacity="0"
     guidetolerance="10"
     gridtolerance="10"
     objecttolerance="10"
     borderopacity="1"
     bordercolor="#111111"
     pagecolor="#1e1e1e" />
  <g
     sodipodi:insensitive="true"
     inkscape:label="artwork"
     id="layer2"
     inkscape:groupmode="layer">
    <image
       sodipodi:absref="D:\Pepper&amp;Carrot translation\ep36_the-suprise-attack\lang\gfx_Pepper-and-Carrot_by-David-Revoy_E36P05.png"
       xlink:href="../gfx_Pepper-and-Carrot_by-David-Revoy_E36P05.png"
       y="0"
       x="0"
       id="image10"
       height="3503"
       width="2481" />
  </g>
  <g
     style="display:inline;opacity:0.7;mix-blend-mode:screen;filter:url(#filter71410)"
     inkscape:label="speechbubbles-whisper"
     id="layer4"
     inkscape:groupmode="layer">
    <path
       sodipodi:nodetypes="csssc"
       inkscape:connector-curvature="0"
       id="path3280-8-0"
       d="m 1539.7233,743.50725 c -58.0874,0.19819 -116.5776,0.41875 -173.9011,5.83016 -25.0203,2.32394 -49.3035,8.07991 -67.2667,17.48497 -14.7494,8.2515 -21.7158,19.47484 -23.2963,30.49958 -1.0992,7.825 0.3055,15.80365 4.9245,23.29596 4.8704,7.27458 14.4116,13.89023 27.7005,17.58236 17.6215,5.30994 38.1158,7.07902 58.0515,8.49758 44.9254,3.02255 90.3267,2.22994 135.5085,2.74075 55.7004,0.28363 111.3857,-0.6398 167.0777,-0.92418 17.0987,-0.25063 34.6698,-0.86456 50.5918,-4.36435 12.6917,-2.74494 24.0454,-7.35358 31.1289,-13.4932 7.9675,-6.63892 11.1047,-14.50628 11.5249,-22.22985 1.5964,-10.88517 0.6539,-22.23313 -8.0457,-32.35184 -8.2247,-9.13549 -23.9317,-16.0809 -41.7119,-20.01374 -20.2957,-4.75254 -42.1877,-7.36502 -64.0776,-9.29154 -35.7469,-2.98922 -72.0757,-3.31239 -108.209,-3.26266 z"
       style="fill:#cdf0ff;fill-opacity:1;stroke:none;stroke-width:0.504661" />
    <path
       transform="matrix(0.72992857,0,0,0.59334092,428.90749,284.98287)"
       sodipodi:nodetypes="csssc"
       inkscape:connector-curvature="0"
       id="path3280-8-0-5"
       d="m 1510.5889,648.50693 c -57.9256,0.32037 -116.2529,0.67687 -173.4167,9.42412 -24.9506,3.75651 -49.1663,13.06071 -67.0794,28.26344 -14.7083,13.33809 -21.6553,31.47996 -23.2313,49.30083 -1.0962,12.64866 0.3045,25.54568 4.9107,37.65657 4.8569,11.75895 14.3714,22.45277 27.6234,28.42089 17.5723,8.58321 38.0095,11.44282 57.8897,13.73586 44.8003,4.88577 90.0751,3.60455 135.1312,4.43026 55.5452,0.45847 111.0753,-1.03421 166.6123,-1.49391 17.0511,-0.40512 34.5732,-1.39749 50.4508,-7.05471 12.6564,-4.43702 23.9784,-11.88663 31.0422,-21.81098 7.9453,-10.73144 11.0738,-23.44857 11.4929,-35.93328 1.5918,-17.59524 0.6519,-35.93857 -8.0235,-52.29489 -8.2017,-14.76698 -23.865,-25.99384 -41.5956,-32.35105 -20.2391,-7.68221 -42.0703,-11.90514 -63.8991,-15.01926 -35.6474,-4.8319 -71.8749,-5.35427 -107.9076,-5.27389 z"
       style="display:inline;opacity:1;mix-blend-mode:normal;fill:#cdf0ff;fill-opacity:1;stroke:none;stroke-width:0.640728;filter:url(#filter71410)" />
    <path
       sodipodi:nodetypes="cscsccc"
       inkscape:connector-curvature="0"
       id="path3365-7"
       d="m 348.5165,376.01425 c -43.8552,0.81315 -87.77771,2.70814 -131.12995,7.68511 -17.65182,2.21696 -35.51974,5.06666 -51.36615,11.263 -14.86023,6.24338 -25.75828,16.61785 -31.89488,28.00432 -3.68508,7.11629 -5.85976,14.5784 -7.80185,22.02052 -3.74245,15.43679 -4.76751,31.13224 -5.2101,46.76949 0.28544,13.8456 2.9319,28.11198 12.31557,40.43969 11.71054,15.05738 30.74905,27.4476 53.57883,33.30558 25.76449,6.19607 53.21817,6.98323 80.16072,7.49531 99.54068,1.9058 199.26479,0.95736 298.56446,-4.59342 25.4191,-1.52915 50.99671,-2.78498 75.96334,-6.71691 12.19742,-1.98846 24.34174,-4.56055 35.47491,-8.696 10.14521,-4.07404 18.06797,-10.65243 22.80353,-18.20558 7.86529,-11.68884 11.39286,-24.54228 14.33365,-37.24872 4.61042,-23.06985 2.51985,-47.19542 -9.60138,-68.99357 -6.30145,-11.38442 -16.22953,-22.19788 -30.83965,-28.94533 -11.71785,-5.59171 -25.59208,-8.31287 -39.41793,-9.70375 -26.29707,-3.25728 -52.99968,-4.17849 -79.51925,-6.0954 -62.35515,-3.63737 -124.79741,-6.84488 -187.357,-7.90093 -6.35421,-0.0604 -12.705,-0.0168 -19.05687,0.11659 z"
       style="color:#000000;display:inline;overflow:visible;visibility:visible;fill:#cdf0ff;fill-opacity:1;fill-rule:nonzero;stroke:none;stroke-width:1.38239px;marker:none;enable-background:accumulate" />
    <path
       sodipodi:nodetypes="cssssc"
       inkscape:connector-curvature="0"
       id="path4546-6-21"
       d="m 133.63329,304.74624 c 5.45731,-52.30469 60.81972,-89.75145 202.7163,-77.62792 76.00756,6.49326 162.36299,11.3354 155.25145,87.97148 -7.11165,76.63608 -131.29042,72.67968 -156.96845,74.06386 -25.67818,1.38525 -159.08341,-8.79398 -181.93884,-35.26692 -14.30701,-16.57112 -19.79082,-32.92641 -19.06046,-49.1405 z"
       style="color:#000000;display:inline;overflow:visible;visibility:visible;fill:#cdf0ff;fill-opacity:1;fill-rule:nonzero;stroke:none;stroke-width:1.04463px;marker:none;enable-background:accumulate" />
    <path
       sodipodi:nodetypes="ccszc"
       inkscape:connector-curvature="0"
       id="path4064-5"
       d="m 715.34574,677.04103 c 14.20538,41.64223 72.80893,79.82704 140.54241,43.45444 -32.92118,40.55438 -124.53586,65.24089 -171.50403,-17.32961 -18.24642,-32.07739 1.78122,-26.52969 8.86289,-31.46294 7.08181,-4.9333 22.09873,5.33811 22.09873,5.33811 z"
       style="color:#000000;display:inline;overflow:visible;visibility:visible;fill:#cdf0ff;fill-opacity:1;fill-rule:nonzero;stroke:none;stroke-width:1.16605px;marker:none;enable-background:accumulate" />
    <path
       sodipodi:nodetypes="cssssssscc"
       inkscape:connector-curvature="0"
       id="path4546-6-2"
       d="m 513.71384,538.49096 c -49.53733,1.23102 -99.15712,2.19017 -148.75453,1.41775 -54.07962,0.42326 -108.59638,6.0459 -156.95188,18.5459 -25.32454,7.11771 -44.81531,19.35029 -52.95982,33.41748 -8.85492,14.53271 -7.58764,29.97431 -5.41652,44.95333 1.78022,11.49775 4.55343,22.96875 8.66366,34.31269 7.15621,14.99303 26.63476,28.11828 51.85992,36.6434 23.27749,8.03155 50.60432,12.3504 77.89346,15.38313 41.67488,5.21718 84.33459,8.74886 127.32352,9.19502 51.39938,1.0727 103.02737,0.10049 153.98383,-3.56234 31.77511,-2.0638 63.65719,-3.80433 95.23686,-6.55638 28.67023,-2.9883 56.30705,-9.40879 77.84286,-19.55163 29.71604,-13.5187 49.92528,-32.7249 52.54548,-53.01781 0.88856,-13.65991 1.66281,-27.34371 0.40588,-41.0036 -1.05604,-9.59989 -3.63997,-19.48164 -13.03206,-28.00851 -11.32692,-10.68671 -30.11654,-19.10585 -51.75913,-24.20651 -28.19035,-6.89654 -59.23135,-9.87614 -89.78869,-12.76598 -41.91938,-3.74732 -84.54134,-5.34086 -127.09284,-5.19594 z"
       style="color:#000000;display:inline;overflow:visible;visibility:visible;fill:#cdf0ff;fill-opacity:1;fill-rule:nonzero;stroke:none;stroke-width:0.995832px;marker:none;enable-background:accumulate" />
    <path
       id="path4040-0"
       d="m 1550.7033,101.80337 -23.3981,27.04329 -0.7307,-6.75989 -8.7789,5.21811 c -36.8975,-6.60013 -83.8758,-5.22468 -120.6429,-0.48508 l -10.2376,-4.73303 -1.4853,6.41047 c -1.6762,0.26529 -3.334,0.53528 -4.9484,0.8137 l -11.115,-5.87295 1.3901,7.70679 c -0.2011,0.041 -0.399,0.083 -0.5986,0.12463 l -15.4146,-6.47893 2.8487,9.48193 c -0.7198,0.19862 -1.4246,0.39791 -2.1114,0.59876 l -19.7487,-14.13681 7.9861,18.46172 c -1.1636,0.57189 -2.1679,1.14514 -3.0218,1.71905 l -10.0831,-6.6598 4.9457,11.1778 c -1.1204,1.06818 -2.1789,2.1119 -3.1937,3.13868 l -12.7191,-1.46981 7.0612,7.6176 c -8.3456,9.91765 -11.4204,18.31754 -10.8151,28.05866 0.1214,1.95526 0.3496,3.84951 0.6712,5.68962 l -2.7669,4.60721 4.4291,2.04767 c 0.7148,2.17072 1.5795,4.25591 2.5872,6.2578 l -11.4044,12.65364 h 13.8925 l -11.6991,10.81735 21.843,-7.57239 c 0.2771,0.24201 0.5615,0.47956 0.8443,0.71837 l -7.3321,12.93953 15.3552,-4.05738 -14.6232,14.87473 29.9784,-8.78922 -4.3868,15.55037 19.0114,-10.1417 1.7374,-0.0254 c 5.2267,1.74068 10.6711,3.35241 16.2961,4.85646 29.672,7.93381 85.1123,2.68289 124.7087,-5.66279 l 19.5835,7.59314 -6.3887,-10.63164 c 0.4179,-0.10577 0.814,-0.21383 1.2261,-0.32011 l 20.5176,11.62732 -4.3868,-9.46479 19.7421,8.11238 -12.4298,-16.22602 10.967,4.73302 -7.7297,-8.16854 c 0.9047,-0.47867 1.8051,-0.97994 2.7008,-1.50284 l 10.1479,2.23465 -6.287,-4.65001 c 1.4895,-0.99449 2.9535,-2.04544 4.3789,-3.15329 l 15.8005,3.74585 -8.6455,-10.12462 c 0.8644,-0.88589 1.7039,-1.79237 2.5092,-2.72086 h 11.9859 l -5.4889,-9.22657 c 7.7986,-14.16969 7.6163,-31.28727 -9.9918,-47.65425 l 3.0508,-5.99512 -8.7749,0.67564 0.7321,-18.92972 -13.8938,6.7599 4.388,-14.19789 -8.775,6.76115 0.7307,-25.0153 z"
       style="color:#000000;display:inline;overflow:visible;visibility:visible;fill:#cdf0ff;fill-opacity:1;fill-rule:nonzero;stroke:none;stroke-width:0.766576px;marker:none;enable-background:accumulate"
       inkscape:connector-curvature="0" />
    <path
       inkscape:connector-curvature="0"
       id="path3525"
       d="m 1555.5293,187.06396 c -30.0498,0.11683 -60.6481,4.85061 -87.1444,16.97028 -21.9823,10.84887 -36.6351,31.29585 -37.0815,52.51254 -0.6183,9.54938 1.1798,19.84255 8.7388,27.44604 7.6146,7.9071 17.9613,13.6889 28.704,18.32386 18.867,7.35179 40.0732,8.07668 60.5185,9.34063 52.3494,3.08134 104.9162,1.90588 157.2542,-0.71092 15.9432,-0.98614 32.4245,-3.29892 46.0738,-10.60708 11.6881,-6.36267 19.8672,-16.81831 22.2456,-28.21042 2.6957,-12.19992 0.2547,-24.83182 -4.5774,-36.45127 -3.5252,-8.05689 -8.3279,-15.9164 -15.3958,-22.25491 -7.1182,-6.10138 -16.6958,-9.9721 -26.7027,-11.57556 -15.4223,-3.1774 -31.2306,-4.79219 -46.7564,-7.56221 -34.9269,-5.08354 -70.4235,-7.3591 -105.8767,-7.22098 z"
       style="color:#000000;display:inline;overflow:visible;visibility:visible;fill:#cdf0ff;fill-opacity:1;fill-rule:nonzero;stroke:none;stroke-width:1.0095px;marker:none;enable-background:accumulate" />
    <path
       transform="matrix(1.1327308,0,0,1.0389355,-223.53206,-7.8474403)"
       inkscape:connector-curvature="0"
       id="path3525-3"
       d="m 1558.7077,251.21979 c -38.5028,0.11683 -77.7085,4.85061 -111.6582,16.97028 -28.166,10.84887 -46.9406,31.29585 -47.5126,52.51254 -0.7922,9.54938 1.5117,19.84255 11.1971,27.44604 9.7566,7.9071 23.0138,13.6889 36.7784,18.32386 24.1743,7.35179 51.3458,8.07668 77.5425,9.34063 67.0753,3.08134 134.4293,1.90588 201.49,-0.71092 20.428,-0.98614 41.5455,-3.29892 59.0344,-10.60708 14.9759,-6.36267 25.4559,-16.81831 28.5034,-28.21042 3.4539,-12.19992 0.3262,-24.83182 -5.8651,-36.45127 -4.5169,-8.05689 -10.6705,-15.9164 -19.7266,-22.25491 -9.1206,-6.10138 -21.3924,-9.9721 -34.2142,-11.57556 -19.7606,-3.1774 -40.0159,-4.79219 -59.909,-7.56221 -44.752,-5.08354 -90.2339,-7.3591 -135.6601,-7.22098 z"
       style="color:#000000;display:inline;overflow:visible;visibility:visible;opacity:1;mix-blend-mode:normal;fill:#cdf0ff;fill-opacity:1;fill-rule:nonzero;stroke:none;stroke-width:1.1427px;marker:none;filter:url(#filter71410);enable-background:accumulate" />
    <path
       sodipodi:nodetypes="cccccccc"
       inkscape:transform-center-y="74.621182"
       inkscape:transform-center-x="-84.299102"
       inkscape:connector-curvature="0"
       id="path5066"
       d="m 1628.3669,382.81865 c 10.4512,19.41838 40.774,81.79773 50.6468,88.07436 2.8896,-9.82512 5.7473,-17.90146 11.17,-24.35407 7.0349,9.03181 16.3243,42.36729 48.0374,59.29587 -29.3145,-31.82897 -38.9085,-82.28038 -41.2774,-102.11115 -7.0014,10.53422 -13.5965,22.36641 -19.0054,34.45882 -8.2948,-14.89318 -25.007,-65.72521 -25.007,-65.72521 z"
       style="color:#000000;display:inline;overflow:visible;visibility:visible;fill:#cdf0ff;fill-opacity:1;fill-rule:nonzero;stroke:none;stroke-width:1.01303px;marker:none;enable-background:accumulate" />
    <path
       sodipodi:nodetypes="cssssc"
       inkscape:connector-curvature="0"
       id="path4546"
       d="m 1886.1751,774.34026 c -60.6824,0.92676 -123.7415,-1.64102 -180.8992,28.06603 -14.72,7.91142 -30.081,16.13755 -40.7279,31.78361 -18.143,25.75138 -21.2138,64.69208 -11.048,95.95942 7.5933,24.49746 23.4316,44.87125 43.1856,54.01645 47.3653,29.96113 101.7282,27.39343 153.2111,33.32673 93.6781,5.256 188.6456,4.7717 280.5751,-21.10943 32.3543,-13.7521 54.1528,-56.09829 53.2608,-98.43968 1.5116,-33.71978 -9.1366,-70.31874 -32.3531,-89.31921 -11.9439,-9.07016 -25.8103,-13.12776 -39.2801,-17.07719 -29.8671,-7.67327 -60.4786,-8.33001 -90.693,-12.62156 -45.0094,-3.69922 -90.1332,-4.8093 -135.2313,-4.58517 z"
       style="color:#000000;display:inline;overflow:visible;visibility:visible;fill:#cdf0ff;fill-opacity:1;fill-rule:nonzero;stroke:none;stroke-width:1.3405px;marker:none;enable-background:accumulate" />
    <path
       sodipodi:nodetypes="cccsc"
       inkscape:connector-curvature="0"
       id="path3072-7"
       d="m 1506.5532,595.26091 c 75.4519,60.39743 56.9468,85.78975 35.0694,108.60088 -9.7816,43.4519 27.8915,11.49337 27.8915,11.49337 0,0 16.3645,5.723 18.2949,-4.40932 5.7529,-30.19196 13.8625,-84.43858 -81.2558,-115.68493 z"
       style="color:#000000;display:inline;overflow:visible;visibility:visible;fill:#cdf0ff;fill-opacity:1;fill-rule:nonzero;stroke:none;stroke-width:0.842081px;marker:none;enable-background:accumulate" />
    <path
       sodipodi:nodetypes="zssssz"
       inkscape:connector-curvature="0"
       id="path4040-5"
       d="m 297.56237,1145.215 c 21.54299,-15.7636 243.901,-30.9961 296.30395,3.7944 40.82669,27.1049 22.54772,105.0589 -8.91651,124.2324 -31.46427,19.1743 -183.37147,29.4293 -226.54612,21.6731 -38.82493,-6.9737 -79.57745,-23.4385 -81.726,-70.8683 -0.87686,-19.3575 -0.65831,-63.0679 20.88468,-78.8316 z"
       style="color:#000000;display:inline;overflow:visible;visibility:visible;fill:#cdf0ff;fill-opacity:1;fill-rule:nonzero;stroke:none;stroke-width:0.817346px;marker:none;enable-background:accumulate" />
    <path
       sodipodi:nodetypes="ccszc"
       inkscape:connector-curvature="0"
       id="path4064-5-1"
       d="m 406.87389,1255.1023 c 7.94954,36.9036 7.20414,99.0576 -50.66037,104.8276 39.14102,-0.7724 74.40634,-0.2804 77.3845,-97.7159 0.96501,-31.5719 -10.96916,-19.1536 -16.68888,-19.9997 -5.7198,-0.8461 -10.03525,12.888 -10.03525,12.888 z"
       style="color:#000000;display:inline;overflow:visible;visibility:visible;fill:#cdf0ff;fill-opacity:1;fill-rule:nonzero;stroke:none;stroke-width:0.872516px;marker:none;enable-background:accumulate" />
    <path
       sodipodi:nodetypes="ccccccccccccccc"
       inkscape:connector-curvature="0"
       id="path3549-3-3"
       d="m 730.74522,1249.4441 c 6.47179,-5.9701 34.9189,-24.0438 31.83381,-3.5846 45.88114,-26.1636 79.62975,-16.1529 114.06795,-8.1987 11.27502,-7.9276 15.15378,-20.2625 45.1963,-17.006 -2.52844,-8.0185 9.02715,-13.3723 33.15048,-16.349 -30.02175,-5.1804 -34.62217,-10.2131 24.30121,-14.8745 -43.81689,-1.0346 -84.57577,-2.5806 -28.97702,-20.1937 -16.07219,-0.6313 -57.82112,14.121 -30.0272,-30.1635 -30.97678,13.9167 -62.38245,21.4274 -92.94277,-8.8505 -14.05743,11.6469 -32.919,19.4006 -62.23177,2.9372 -9.63843,11.6112 -49.54359,12.1106 -63.62076,9.5613 26.53043,13.43 23.70968,21.5438 -16.54671,22.3337 61.7901,24.3693 7.79754,20.168 -4.33923,26.0185 50.82923,8.7464 25.02912,18.5677 13.41633,28.5233 60.42563,1.0597 37.0306,16.9649 36.71938,29.8465 z"
       style="color:#000000;display:inline;overflow:visible;visibility:visible;fill:#cdf0ff;fill-opacity:1;fill-rule:nonzero;stroke:none;stroke-width:1.31264px;marker:none;enable-background:accumulate" />
    <path
       inkscape:connector-curvature="0"
       id="path3525-0"
       d="m 1042.5563,1170.9287 c -23.4377,0.2141 -46.86676,0.9574 -70.27075,1.9668 -23.16645,1.0722 -46.60755,2.9548 -68.63302,9.1243 -22.22238,6.3998 -40.41317,21.3887 -47.38971,39.4535 -3.16592,8.8592 -4.27637,18.1482 -4.04112,27.3415 0.42633,11.2392 3.13923,22.5146 8.71837,32.8607 7.68996,11.8899 21.12449,20.5429 34.95329,27.6747 22.16312,10.9423 48.17416,15.6999 73.89074,17.4236 28.39606,2.147 56.9368,2.4727 85.4155,3.4687 37.8999,0.6147 76.4298,-3.5063 111.5127,-15.3887 16.1807,-5.5304 31.8977,-13.3015 42.1368,-25.0058 9.4585,-10.8996 13.0429,-24.5739 11.5381,-37.6778 -1.0693,-9.2624 -3.6239,-18.4988 -8.3094,-27.0383 -5.057,-9.1937 -13.0426,-17.3733 -23.2689,-23.2518 -16.412,-9.8957 -35.9739,-15.6214 -55.3702,-20.6008 -29.3795,-7.217 -60.1674,-10.5535 -90.8824,-10.3506 z"
       style="color:#000000;display:inline;overflow:visible;visibility:visible;fill:#cdf0ff;fill-opacity:1;fill-rule:nonzero;stroke:none;stroke-width:0.938946px;marker:none;enable-background:accumulate" />
    <path
       sodipodi:nodetypes="ccszc"
       inkscape:connector-curvature="0"
       id="path4064-5-5"
       d="m 857.93027,1278.1338 c -25.84472,-12.074 -72.33153,-26.7304 -120.7757,37.9223 2.50649,-13.8385 51.01915,-90.6993 133.13792,-64.4425 23.82869,7.6191 8.70285,12.8385 5.48327,18.4333 -3.21963,5.5949 -17.84549,8.0869 -17.84549,8.0869 z"
       style="color:#000000;display:inline;overflow:visible;visibility:visible;fill:#cdf0ff;fill-opacity:1;fill-rule:nonzero;stroke:none;stroke-width:0.826729px;marker:none;enable-background:accumulate" />
  </g>
  <g
     style="display:inline"
     inkscape:label="speechbubbles"
     id="layer3"
     inkscape:groupmode="layer">
    <path
       sodipodi:nodetypes="cccccccccccc"
       inkscape:connector-curvature="0"
       id="path1087"
       d="m 1769.7468,2272.4595 c 1.1285,-22.1113 -9.6724,-63.1783 -48.4987,-20.2826 20.8633,-51.1394 6.264,-57.6216 -11.5917,-60.0028 16.9868,-18.4342 32.2701,-37.5994 18.3461,-69.2988 25.6249,-10.3624 35.0645,-36.1309 32.2911,-73.5246 20.0636,29.2108 39.5648,45.3444 55.5127,-21.1279 0.3918,52.0385 28.0473,61.4392 50.5536,5.9159 -8.3861,43.3235 -1.8397,54.4 15.8506,41.4104 -13.145,27.2641 -13.5592,47.9501 -0.5367,61.693 -30.034,28.839 -28.9937,46.3692 -3.3138,54.932 -44.3667,7.5195 -43.7153,43.308 -49.4378,70.1441 -14.905,-41.7496 -62.9392,-0.094 -59.1754,10.1413 z"
       style="fill:#ffffff;fill-rule:evenodd;stroke:none;stroke-width:1.12112px;stroke-linecap:butt;stroke-linejoin:miter;stroke-opacity:1" />
    <path
       sodipodi:nodetypes="csccccscccc"
       inkscape:connector-curvature="0"
       id="path1089"
       d="m 1770.2493,2231.6638 c -19.0777,43.0082 -23.2758,54.3372 -25.8221,64.7397 -2.5463,10.4023 5.6859,6.8223 12.1263,2.8326 4.2084,-2.5888 21.9688,-21.8087 3.3636,9.5674 -18.6054,31.376 -43.0605,75.0078 -50.224,88.7479 16.3572,-24.1323 43.1378,-61.7395 51.3165,-73.8057 8.1784,-12.066 21.9004,-34.2199 25.6816,-40.8795 4.5995,-8.1013 6.3566,-16.4311 -2.0206,-15.2185 -13.6412,3.4217 -32.7515,33.0786 -0.2047,-18.3826 32.5467,-51.461 43.1335,-129.6409 43.1335,-129.6409 z"
       style="fill:#ffffff;fill-rule:evenodd;stroke:none;stroke-width:1.06373px;stroke-linecap:butt;stroke-linejoin:miter;stroke-opacity:1" />
    <path
       sodipodi:nodetypes="cccccccccccccc"
       inkscape:connector-curvature="0"
       id="path4489"
       d="m 2089.1948,2042.5405 c 9.4166,21.5114 20.7662,29.1104 37.7343,-3.7245 2.3125,14.6705 13.7478,28.4717 59.0934,-5.2702 -26.0259,38.4364 -15.1091,39.8147 0,36.9882 -21.9503,48.2289 -6.7376,48.3526 4.9838,44.1126 -26.9012,30.947 -23.3763,43.3188 -10.6795,50.0906 -9.0703,17.7859 -15.4069,34.7091 3.5597,43.6527 -14.8331,6.4979 -35.836,7.2569 -29.1906,33.7361 -19.617,-30.1872 -29.9942,-12.4155 -45.3597,6.4619 -12.1812,-14.2433 -30.8229,-32.8743 -64.9953,-4.1024 18.9252,-29.3587 11.4374,-41.8271 -3.5599,-49.4934 28.1754,-29.7325 6.1806,-35.852 -15.6633,-42.0415 39.4909,-8.3812 28.2675,-35.6906 17.7993,-62.7193 18.4904,3.2477 37.0465,6.9038 46.2778,-47.6908 z"
       style="fill:#ffffff;fill-rule:evenodd;stroke:none;stroke-width:0.831706px;stroke-linecap:butt;stroke-linejoin:miter;stroke-opacity:1" />
    <path
       sodipodi:nodetypes="cccc"
       id="path1881"
       d="m 2050.4839,2346.9651 c 30.4226,-62.3404 57.7024,-138.4267 45.1473,-145.322 l 45.6441,-4.5536 c 12.2842,-6.1841 -67.8344,105.652 -90.7914,149.8756 z"
       style="display:inline;fill:#ffffff;fill-rule:evenodd;stroke:none;stroke-width:0.613269px;stroke-linecap:butt;stroke-linejoin:miter;stroke-opacity:1" />
    <path
       sodipodi:nodetypes="cccccccccccccccccccccc"
       id="path740849"
       d="m 331.53456,2783.4913 c 47.37853,20.7317 117.31069,64.6268 55.44892,-26.8357 35.43953,20.2385 82.64481,61.9894 90.10217,23.7923 13.19599,12.7623 19.50301,7.4172 10.2614,-21.0537 35.8338,33.1891 50.02317,17.6559 68.14372,10.9718 24.37751,23.8822 39.08261,17.1455 44.76523,-18.1525 1.42308,72.3742 52.67864,15.308 94.45392,-19.0223 -1.12918,16.6602 -23.03623,64.8544 18.37981,16.945 -1.59077,24.0233 1.16728,43.3527 96.8046,-37.567 -38.37712,68.202 -18.41209,51.6854 3.78412,31.929 -30.62908,72.5991 60.56136,20.8012 85.81937,11.6358 -62.78776,39.8258 -118.83669,77.9724 4.53331,71.4097 -58.6529,25.5349 -58.91164,23.4186 -58.79826,37.8952 -27.10377,9.2217 -57.97235,27.7579 -69.21968,60.9096 -50.22004,-17.8323 -63.88138,2.5852 -62.20495,39.05 -50.53815,-51.1525 -78.1982,-48.2409 -79.95638,15.8807 -31.74107,-51.4483 -59.89554,-59.7096 -82.72744,-3.8812 -8.98251,-66.5615 -46.85682,-36.8846 -76.71107,-33.9225 -11.57232,-24.7391 -49.21866,-4.2797 -88.86286,19.6428 57.26179,-61.9722 12.38084,-53.5621 -60.17645,-26.0816 84.56595,-49.079 69.39327,-65.0024 -21.58397,-55.7266 110.46713,-15.7503 83.87905,-54.3244 27.74449,-97.8188 z"
       style="fill:#ffffff;fill-rule:evenodd;stroke:none;stroke-width:0.78251px;stroke-linecap:butt;stroke-linejoin:miter;stroke-opacity:1" />
    <path
       sodipodi:nodetypes="cccccccc"
       id="path743009"
       d="m 110.50303,3153.0574 c 78.68664,-57.6007 123.21997,-82.1486 205.1307,-133.2401 -7.83771,1.1428 -16.85169,0.5498 -33.95583,2.4746 44.40967,-31.9361 127.98192,-84.356 177.31274,-111.978 l 39.30638,8.6938 c -33.90117,21.5568 -100.1754,49.5671 -144.53011,78.987 13.36537,1.1076 45.30961,-6.8913 51.44897,-3.6006 -109.39776,65.0579 -192.92074,101.1133 -294.71285,158.6633 z"
       style="fill:#ffffff;fill-rule:evenodd;stroke:none;stroke-width:0.848683px;stroke-linecap:butt;stroke-linejoin:miter;stroke-opacity:1" />
    <path
       sodipodi:nodetypes="cccccccccccccccccccccc"
       id="path745117"
       d="m 968.21887,2822.249 c 53.54623,22.4423 92.12263,32.3983 38.57103,-34.4884 49.0503,21.4047 82.4592,23.2038 65.0978,-38.634 64.1796,42.8884 91.0498,41.0504 100.6081,18.459 65.8548,31.6059 115.4129,-0.3872 129.0004,-20.2571 31.294,21.0495 95.9471,22.9353 145.0227,-11.2686 -5.1758,20.4319 -25.0767,50.5249 88.4648,-6.9341 -45.907,45.2042 -7.5245,48.866 66.235,30.9344 -44.0725,29.6527 -75.9997,57.805 -9.3622,58.5725 -33.9394,12.5686 -21.2521,19.9586 -12.9597,22.1271 -28.9316,8.4851 -5.3769,14.094 18.9056,19.6629 -67.504,26.1377 -47.1222,36.9193 -49.8587,51.7403 -55.9191,5.9299 -49.9243,17.2137 -52.3416,27.7701 -55.6766,-42.8838 -59.3104,8.6436 -55.2464,21.656 -25.2599,-41.9737 -69.7462,-16.7722 -100.7528,13.2157 22.4395,-42.7927 -11.202,-65.0551 -72.3372,-13.1546 4.5871,-19.1694 -17.6244,-54.0985 -82.8449,-2.9254 7.6421,-23.257 -3.9918,-20.7189 -25.5378,-4.9163 20.4951,-41.5815 -45.0967,-24.8204 -81.1097,-7.2328 4.8564,-20.4044 3.9782,-18.7998 -19.3089,-19.5449 -5.8851,-31.7658 -37.5379,-49.6884 -62.5786,-66.5512 18.009,-10.1712 -19.75932,-29.6797 -27.66693,-38.2306 z"
       style="fill:#ffffff;fill-rule:evenodd;stroke:none;stroke-width:0.815245px;stroke-linecap:butt;stroke-linejoin:miter;stroke-opacity:1" />
    <path
       sodipodi:nodetypes="cccccccccccccccccccccccccccc"
       inkscape:connector-curvature="0"
       id="path4508"
       d="m 167.61558,2697.2946 c 36.29617,21.6368 56.971,8.3633 56.34797,-52.5065 17.31667,63.6753 29.33367,76.888 36.46051,43.5373 22.92612,24.9975 37.24543,15.3651 48.61398,-6.1391 4.23737,25.2745 13.32442,13.7119 21.18875,11.4366 2.5902,5.5123 -6.30604,21.143 29.63491,-2.7246 2.32811,7.4349 5.46426,13.6947 26.51669,-6.0995 5.45403,30.6817 22.95306,-4.6372 40.87999,-42.3005 -11.16899,44.9309 -6.53764,50.4931 7.73407,32.0347 -6.52494,18.7461 -10.42749,33.1127 14.36314,-0.4382 -8.48702,34.1522 13.77878,8.6341 49.7189,-43.4165 -17.9778,37.3908 -65.65089,102.6042 -34.25076,93.7312 -4.37894,10.9066 -19.99838,21.9 26.51669,32.4137 -8.68373,8.1225 -35.19493,1.2036 -13.07979,28.1581 2.96296,3.1031 -6.95637,6.4792 11.97496,13.2457 -11.17538,0.7883 -18.02892,3.8794 -7.73406,16.107 -20.39916,1.8446 -12.76668,15.1053 2.20974,31.3568 -29.54085,-19.5416 -31.16656,-10.8782 -32.0411,-1.4556 -37.02333,-27.0523 -39.19662,-16.7885 -44.19441,-9.5492 -18.04613,2.5265 -36.09226,0.8099 -54.13839,38.4728 -4.72605,-21.411 -14.20118,-37.1548 -54.13823,-16.5463 17.53542,-30.2123 -7.41103,-9.2244 -26.5167,4.724 10.46265,-36.2974 -16.09018,-9.9894 -49.71889,28.2865 18.83194,-41.0019 -2.5567,-24.3491 -34.25077,7.0762 11.97497,-39.456 -7.52745,-55.3433 -54.1383,-50.9333 22.3094,-16.504 35.31897,-35.3714 12.15356,-63.4312 26.11404,5.8259 33.90349,-3.6324 15.46805,-34.9648 28.48345,24.0313 15.53311,-14.4067 4.41949,-50.0753 z"
       style="display:inline;fill:#ffffff;fill-rule:evenodd;stroke:none;stroke-width:0.952153px;stroke-linecap:butt;stroke-linejoin:miter;stroke-opacity:1" />
  </g>
  <g
     style="display:inline"
     inkscape:label="txt"
     id="layer1"
     inkscape:groupmode="layer">
    <text
       xml:space="preserve"
       style="font-style:normal;font-variant:normal;font-weight:normal;font-stretch:normal;line-height:0%;font-family:'Xiaolai SC';-inkscape-font-specification:'Xiaolai SC';text-align:center;letter-spacing:0px;word-spacing:0px;text-anchor:middle;fill:#000000;fill-opacity:1;stroke:none"
       x="325.38736"
       y="293.57663"
       id="text4246-4-2"><tspan
         id="tspan2721"
         sodipodi:role="line"
         style="font-style:normal;font-variant:normal;font-weight:normal;font-stretch:normal;font-size:45px;line-height:1.25;font-family:'Xiaolai SC';-inkscape-font-specification:'Xiaolai SC'"
         x="325.38736"
         y="293.57663">小辣椒，</tspan><tspan
         id="tspan256"
         sodipodi:role="line"
         style="font-style:normal;font-variant:normal;font-weight:normal;font-stretch:normal;font-size:45px;line-height:1.25;font-family:'Xiaolai SC';-inkscape-font-specification:'Xiaolai SC'"
         x="325.38736"
         y="349.82663">事情很严重！</tspan></text>
    <text
       xml:space="preserve"
       style="font-style:normal;font-variant:normal;font-weight:normal;font-stretch:normal;line-height:0%;font-family:'Xiaolai SC';-inkscape-font-specification:'Xiaolai SC';text-align:center;letter-spacing:0px;word-spacing:0px;text-anchor:middle;fill:#000000;fill-opacity:1;stroke:none"
       x="420.93097"
       y="455.72699"
       id="text4246-4-2-3"><tspan
         id="tspan536142"
         sodipodi:role="line"
         style="font-style:normal;font-variant:normal;font-weight:normal;font-stretch:normal;font-size:45px;line-height:1.25;font-family:'Xiaolai SC';-inkscape-font-specification:'Xiaolai SC'"
         x="420.93097"
         y="455.72699">绿芥末想简单暴力地</tspan><tspan
         id="tspan264"
         sodipodi:role="line"
         style="font-style:normal;font-variant:normal;font-weight:normal;font-stretch:normal;font-size:45px;line-height:1.25;font-family:'Xiaolai SC';-inkscape-font-specification:'Xiaolai SC'"
         x="420.93097"
         y="511.97699">掌控所有魔法学校…</tspan></text>
    <text
       xml:space="preserve"
       style="font-style:normal;font-variant:normal;font-weight:normal;font-stretch:normal;line-height:0%;font-family:'Xiaolai SC';-inkscape-font-specification:'Xiaolai SC';text-align:center;letter-spacing:0px;word-spacing:0px;text-anchor:middle;fill:#000000;fill-opacity:1;stroke:none"
       x="457.88342"
       y="626.53766"
       id="text4246-4-2-3-2-0"><tspan
         id="tspan558833"
         sodipodi:role="line"
         style="font-style:normal;font-variant:normal;font-weight:normal;font-stretch:normal;font-size:45px;line-height:1.25;font-family:'Xiaolai SC';-inkscape-font-specification:'Xiaolai SC'"
         x="457.88342"
         y="626.53766">她明天一早就会带领</tspan><tspan
         id="tspan270"
         sodipodi:role="line"
         style="font-style:normal;font-variant:normal;font-weight:normal;font-stretch:normal;font-size:45px;line-height:1.25;font-family:'Xiaolai SC';-inkscape-font-specification:'Xiaolai SC'"
         x="457.88342"
         y="682.78766">巫师向质城进军。</tspan></text>
    <text
       xml:space="preserve"
       style="font-style:normal;font-variant:normal;font-weight:normal;font-stretch:normal;line-height:0%;font-family:'Xiaolai SC';-inkscape-font-specification:'Xiaolai SC';text-align:center;letter-spacing:0px;word-spacing:0px;text-anchor:middle;fill:#000000;fill-opacity:1;stroke:none"
       x="1458.209"
       y="200.74683"
       id="text4246-4-2-3-2-8-2"><tspan
         id="tspan397614-2"
         sodipodi:role="line"
         style="font-style:normal;font-variant:normal;font-weight:normal;font-stretch:normal;font-size:45px;line-height:1.25;font-family:'Xiaolai SC';-inkscape-font-specification:'Xiaolai SC'"
         x="1458.209"
         y="200.74683">完了！</tspan></text>
    <text
       xml:space="preserve"
       style="font-style:normal;font-variant:normal;font-weight:normal;font-stretch:normal;font-size:12.7131px;line-height:0%;font-family:'Xiaolai SC';-inkscape-font-specification:'Xiaolai SC';text-align:center;letter-spacing:0px;word-spacing:0px;text-anchor:middle;fill:#000000;fill-opacity:1;stroke:none;stroke-width:1.05942"
       x="1582.8933"
       y="263.21609"
       id="text4246-4-2-3-2-8"><tspan
         id="tspan397614"
         sodipodi:role="line"
         style="font-style:normal;font-variant:normal;font-weight:normal;font-stretch:normal;font-size:47.674px;line-height:1.25;font-family:'Xiaolai SC';-inkscape-font-specification:'Xiaolai SC';stroke-width:1.05942"
         x="1582.8933"
         y="263.21609">香菜叶</tspan></text>
    <text
       xml:space="preserve"
       style="font-style:normal;font-variant:normal;font-weight:normal;font-stretch:normal;line-height:0%;font-family:'Xiaolai SC';-inkscape-font-specification:'Xiaolai SC';text-align:center;letter-spacing:0px;word-spacing:0px;text-anchor:middle;display:inline;fill:#000000;fill-opacity:1;stroke:none"
       x="1621.1071"
       y="349.00693"
       id="text4246-4-2-3-2-8-2-6"><tspan
         id="tspan397614-2-7"
         sodipodi:role="line"
         style="font-style:normal;font-variant:normal;font-weight:normal;font-stretch:normal;font-size:45px;line-height:1.25;font-family:'Xiaolai SC';-inkscape-font-specification:'Xiaolai SC'"
         x="1621.1071"
         y="349.00693">和她的王国。</tspan></text>
    <text
       xml:space="preserve"
       style="font-style:normal;font-variant:normal;font-weight:normal;font-stretch:normal;line-height:0%;font-family:'Xiaolai SC';-inkscape-font-specification:'Xiaolai SC';text-align:center;letter-spacing:0px;word-spacing:0px;text-anchor:middle;display:inline;fill:#000000;fill-opacity:1;stroke:none"
       x="1523.0699"
       y="737.54456"
       id="text4246-4-2-3-2-89-3"><tspan
         id="tspan437866-6"
         sodipodi:role="line"
         style="font-style:normal;font-variant:normal;font-weight:normal;font-stretch:normal;font-size:45px;line-height:1.25;font-family:'Xiaolai SC';-inkscape-font-specification:'Xiaolai SC'"
         x="1523.0699"
         y="737.54456">还有僵尸阿！</tspan></text>
    <text
       xml:space="preserve"
       style="font-style:normal;font-variant:normal;font-weight:normal;font-stretch:normal;line-height:0%;font-family:'Xiaolai SC';-inkscape-font-specification:'Xiaolai SC';text-align:center;letter-spacing:0px;word-spacing:0px;text-anchor:middle;fill:#000000;fill-opacity:1;stroke:none"
       x="1524.615"
       y="815.92712"
       id="text4246-4-2-3-2-89"><tspan
         id="tspan437866"
         sodipodi:role="line"
         style="font-style:normal;font-variant:normal;font-weight:normal;font-stretch:normal;font-size:45px;line-height:1.25;font-family:'Xiaolai SC';-inkscape-font-specification:'Xiaolai SC'"
         x="1524.615"
         y="815.92712">我们必需赶紧通知她！</tspan></text>
    <text
       xml:space="preserve"
       style="font-style:normal;font-variant:normal;font-weight:normal;font-stretch:normal;line-height:0%;font-family:'Xiaolai SC';-inkscape-font-specification:'Xiaolai SC';text-align:center;letter-spacing:0px;word-spacing:0px;text-anchor:middle;fill:#000000;fill-opacity:1;stroke:none"
       x="1930.8403"
       y="849.15509"
       id="text4246-4-2-3-2-89-1"><tspan
         id="tspan589172"
         sodipodi:role="line"
         style="font-style:normal;font-variant:normal;font-weight:normal;font-stretch:normal;font-size:45px;line-height:1.25;font-family:'Xiaolai SC';-inkscape-font-specification:'Xiaolai SC'"
         x="1930.8403"
         y="849.15509">外面的平台上</tspan><tspan
         id="tspan278"
         sodipodi:role="line"
         style="font-style:normal;font-variant:normal;font-weight:normal;font-stretch:normal;font-size:45px;line-height:1.25;font-family:'Xiaolai SC';-inkscape-font-specification:'Xiaolai SC'"
         x="1930.8403"
         y="905.40509">有一条龙和它的骑手，</tspan><tspan
         id="tspan280"
         sodipodi:role="line"
         style="font-style:normal;font-variant:normal;font-weight:normal;font-stretch:normal;font-size:45px;line-height:1.25;font-family:'Xiaolai SC';-inkscape-font-specification:'Xiaolai SC'"
         x="1930.8403"
         y="961.65509">她们会接应咱们离开。</tspan></text>
    <text
       xml:space="preserve"
       style="font-style:normal;font-variant:normal;font-weight:normal;font-stretch:normal;font-size:42px;line-height:0%;font-family:'Xiaolai SC';-inkscape-font-specification:'Xiaolai SC';text-align:center;letter-spacing:0px;word-spacing:0px;text-anchor:middle;fill:#000000;fill-opacity:1;stroke:none"
       x="444.24368"
       y="1199.1016"
       id="text4246-4-2-3-2-89-1-3"><tspan
         id="tspan601787"
         sodipodi:role="line"
         style="font-style:normal;font-variant:normal;font-weight:normal;font-stretch:normal;font-size:42px;line-height:1.25;font-family:'Xiaolai SC';-inkscape-font-specification:'Xiaolai SC'"
         x="444.24368"
         y="1199.1016">啊，终于</tspan><tspan
         id="tspan284"
         sodipodi:role="line"
         style="font-style:normal;font-variant:normal;font-weight:normal;font-stretch:normal;font-size:42px;line-height:1.25;font-family:'Xiaolai SC';-inkscape-font-specification:'Xiaolai SC'"
         x="444.24368"
         y="1251.6016">把锁打开了！</tspan></text>
    <text
       transform="matrix(0.38167106,-0.131018,-0.06124078,0.5210622,213.83481,667.63947)"
       id="text4580-6-0-0-5"
       y="1584.5073"
       x="787.65729"
       style="font-style:normal;font-variant:normal;font-weight:normal;font-stretch:normal;line-height:0%;font-family:'Xiaolai SC';-inkscape-font-specification:'Xiaolai SC';letter-spacing:0px;word-spacing:0px;opacity:1;fill:#c6fffd;fill-opacity:1;stroke:#ffffff;stroke-width:0.966714;stroke-miterlimit:4;stroke-dasharray:none;stroke-opacity:1;filter:url(#filter4375-4-1-1-1-9-5-8-8-53-3)"
       xml:space="preserve"><tspan
         style="font-style:normal;font-variant:normal;font-weight:normal;font-stretch:normal;font-size:70px;line-height:1.25;font-family:'Xiaolai SC';-inkscape-font-specification:'Xiaolai SC';fill:#c6fffd;fill-opacity:1;stroke:#ffffff;stroke-width:0.966714;stroke-miterlimit:4;stroke-dasharray:none;stroke-opacity:1"
         y="1584.5073"
         x="787.65729"
         id="tspan4582-1-1-0-67"
         sodipodi:role="line"><tspan
           id="tspan4315-8-9-7"
           style="font-style:normal;font-variant:normal;font-weight:normal;font-stretch:normal;font-size:93.1495px;font-family:'Xiaolai SC';-inkscape-font-specification:'Xiaolai SC';fill:#c6fffd;fill-opacity:1;stroke:#ffffff;stroke-width:0.966714;stroke-miterlimit:4;stroke-dasharray:none;stroke-opacity:1">喀嚓！!</tspan></tspan></text>
    <text
       xml:space="preserve"
       style="font-style:normal;font-variant:normal;font-weight:normal;font-stretch:normal;font-size:42px;line-height:0%;font-family:'Xiaolai SC';-inkscape-font-specification:'Xiaolai SC';text-align:center;letter-spacing:0px;word-spacing:0px;text-anchor:middle;fill:#000000;fill-opacity:1;stroke:none;stroke-width:0.892381"
       x="804.57953"
       y="1197.2087"
       id="text4246-4-2-3-2-89-1-3-5"><tspan
         id="tspan601787-4"
         sodipodi:role="line"
         style="font-style:normal;font-variant:normal;font-weight:normal;font-stretch:normal;font-size:42px;line-height:1.25;font-family:'Xiaolai SC';-inkscape-font-specification:'Xiaolai SC';stroke-width:0.892381"
         x="804.57953"
         y="1197.2087">厉害！</tspan></text>
    <text
       xml:space="preserve"
       style="font-style:normal;font-variant:normal;font-weight:normal;font-stretch:normal;font-size:42px;line-height:0%;font-family:'Xiaolai SC';-inkscape-font-specification:'Xiaolai SC';text-align:center;letter-spacing:0px;word-spacing:0px;text-anchor:middle;fill:#000000;fill-opacity:1;stroke:none;stroke-width:0.892381"
       x="1045.485"
       y="1236.6519"
       id="text4246-4-2-3-2-89-1-3-5-7"><tspan
         id="tspan610317"
         sodipodi:role="line"
         style="font-style:normal;font-variant:normal;font-weight:normal;font-stretch:normal;font-size:42px;line-height:1.25;font-family:'Xiaolai SC';-inkscape-font-specification:'Xiaolai SC';stroke-width:0.892381"
         x="1045.485"
         y="1236.6519">我去把帽子</tspan><tspan
         id="tspan290"
         sodipodi:role="line"
         style="font-style:normal;font-variant:normal;font-weight:normal;font-stretch:normal;font-size:42px;line-height:1.25;font-family:'Xiaolai SC';-inkscape-font-specification:'Xiaolai SC';stroke-width:0.892381"
         x="1045.485"
         y="1289.1519">和萝卜头带来。</tspan></text>
    <text
       transform="matrix(0.46605294,-0.42399792,0.36516967,0.87774403,-33.337748,673.92331)"
       id="text4251-9-3"
       y="1742.2045"
       x="1705.2566"
       style="color:#000000;font-style:normal;font-variant:normal;font-weight:normal;font-stretch:normal;line-height:0%;font-family:Arial;-inkscape-font-specification:Arial;letter-spacing:9.01069px;word-spacing:0px;clip-rule:nonzero;display:inline;overflow:visible;visibility:visible;isolation:auto;mix-blend-mode:normal;color-interpolation:sRGB;color-interpolation-filters:linearRGB;solid-color:#000000;solid-opacity:1;fill:#d7e3f4;fill-opacity:1;fill-rule:nonzero;stroke:#ffffff;stroke-width:1.1156;stroke-linecap:butt;stroke-linejoin:miter;stroke-miterlimit:4;stroke-dasharray:none;stroke-dashoffset:0;stroke-opacity:1;marker:none;filter:url(#filter5561-7-8-9);color-rendering:auto;image-rendering:auto;shape-rendering:auto;text-rendering:auto;enable-background:accumulate"
       xml:space="preserve"><tspan
         style="font-style:normal;font-variant:normal;font-weight:normal;font-stretch:normal;font-size:160.12px;line-height:1.25;font-family:'Xiaolai SC';-inkscape-font-specification:'Xiaolai SC';fill:#d7e3f4;fill-opacity:1"
         y="1742.2045"
         x="1705.2566"
         id="tspan4253-3-7"
         sodipodi:role="line"><tspan
           id="tspan4349-9-9"
           style="font-style:normal;font-variant:normal;font-weight:normal;font-stretch:normal;font-size:90px;font-family:'Xiaolai SC';-inkscape-font-specification:'Xiaolai SC';fill:#d7e3f4;fill-opacity:1">吱吱吱吱！</tspan></tspan></text>
    <text
       transform="matrix(0.38674208,-0.29679826,0.72566441,0.90119606,145.36064,473.61438)"
       id="text4251-9-3-4"
       y="1742.2045"
       x="1705.2566"
       style="color:#000000;font-style:normal;font-variant:normal;font-weight:normal;font-stretch:normal;font-size:85.2269px;line-height:0%;font-family:Arial;-inkscape-font-specification:Arial;letter-spacing:9.01069px;word-spacing:0px;clip-rule:nonzero;display:inline;overflow:visible;visibility:visible;isolation:auto;mix-blend-mode:normal;color-interpolation:sRGB;color-interpolation-filters:linearRGB;solid-color:#000000;solid-opacity:1;fill:#eaeab1;fill-opacity:1;fill-rule:nonzero;stroke:#ffffff;stroke-width:1.1156;stroke-linecap:butt;stroke-linejoin:miter;stroke-miterlimit:4;stroke-dasharray:none;stroke-dashoffset:0;stroke-opacity:1;marker:none;filter:url(#filter5561-7-8-9-6);color-rendering:auto;image-rendering:auto;shape-rendering:auto;text-rendering:auto;enable-background:accumulate"
       xml:space="preserve"><tspan
         style="font-style:normal;font-variant:normal;font-weight:normal;font-stretch:normal;font-size:85.2269px;line-height:1.25;font-family:'Xiaolai SC';-inkscape-font-specification:'Xiaolai SC';fill:#eaeab1;fill-opacity:1"
         y="1742.2045"
         x="1705.2566"
         id="tspan4253-3-7-7"
         sodipodi:role="line"><tspan
           id="tspan4349-9-9-4"
           style="font-style:normal;font-variant:normal;font-weight:normal;font-stretch:normal;font-size:85.2269px;font-family:'Xiaolai SC';-inkscape-font-specification:'Xiaolai SC';fill:#eaeab1;fill-opacity:1"><tspan
             id="tspan687173"
             style="font-style:normal;font-variant:normal;font-weight:normal;font-stretch:normal;font-size:85.2269px;font-family:'Xiaolai SC';-inkscape-font-specification:'Xiaolai SC'">嘶嘶嘶嘶！</tspan></tspan></tspan></text>
    <text
       transform="matrix(0.45234231,-0.40915268,0.35442689,0.84701199,774.29606,888.05157)"
       id="text4251-9-3-3"
       y="1742.2045"
       x="1705.2566"
       style="color:#000000;font-style:normal;font-variant:normal;font-weight:normal;font-stretch:normal;line-height:0%;font-family:Arial;-inkscape-font-specification:Arial;letter-spacing:9.01069px;word-spacing:0px;clip-rule:nonzero;display:inline;overflow:visible;visibility:visible;isolation:auto;mix-blend-mode:normal;color-interpolation:sRGB;color-interpolation-filters:linearRGB;solid-color:#000000;solid-opacity:1;fill:#d7e3f4;fill-opacity:1;fill-rule:nonzero;stroke:#ffffff;stroke-width:1.1156;stroke-linecap:butt;stroke-linejoin:miter;stroke-miterlimit:4;stroke-dasharray:none;stroke-dashoffset:0;stroke-opacity:1;marker:none;filter:url(#filter5561-7-8-9-4);color-rendering:auto;image-rendering:auto;shape-rendering:auto;text-rendering:auto;enable-background:accumulate"
       xml:space="preserve"><tspan
         style="font-style:normal;font-variant:normal;font-weight:normal;font-stretch:normal;font-size:160.12px;line-height:1.25;font-family:'Xiaolai SC';-inkscape-font-specification:'Xiaolai SC';fill:#d7e3f4;fill-opacity:1"
         y="1742.2045"
         x="1705.2566"
         id="tspan4253-3-7-1"
         sodipodi:role="line"><tspan
           id="tspan4349-9-9-49"
           style="font-style:normal;font-variant:normal;font-weight:normal;font-stretch:normal;font-size:90px;font-family:'Xiaolai SC';-inkscape-font-specification:'Xiaolai SC';fill:#d7e3f4;fill-opacity:1">吱吱吱吱！</tspan></tspan></text>
    <g
       transform="translate(-294.71653,-1245.0637)"
       id="text4251-g894">
      <text
         inkscape:transform-center-y="0.58615246"
         inkscape:transform-center-x="-5.9254429"
         transform="matrix(0.56396936,0.29200899,-0.49083985,0.74440634,2281.3949,1535.2837)"
         id="text4580-6-0-3"
         y="1584.5073"
         x="787.65729"
         style="font-style:normal;font-variant:normal;font-weight:normal;font-stretch:normal;line-height:0%;font-family:'Xiaolai SC';-inkscape-font-specification:'Xiaolai SC';letter-spacing:0px;word-spacing:0px;display:inline;fill:#ffffff;fill-opacity:1;stroke:#000000;stroke-width:0.649528;stroke-miterlimit:4;stroke-dasharray:none;stroke-opacity:1;filter:url(#filter4375-4-1-1-1-9-5-8-3-4)"
         xml:space="preserve"><tspan
           style="font-style:normal;font-variant:normal;font-weight:normal;font-stretch:normal;font-size:70px;line-height:1.25;font-family:'Xiaolai SC';-inkscape-font-specification:'Xiaolai SC';fill:#ffffff;fill-opacity:1;stroke:#000000;stroke-width:0.649528;stroke-opacity:1"
           y="1584.5073"
           x="787.65729"
           id="tspan4582-1-1-6"
           sodipodi:role="line"><tspan
             id="tspan4315-8-0"
             style="font-style:normal;font-variant:normal;font-weight:normal;font-stretch:normal;font-size:93.1495px;font-family:'Xiaolai SC';-inkscape-font-specification:'Xiaolai SC';fill:#ffffff;fill-opacity:1;stroke:#000000;stroke-width:0.649528;stroke-opacity:1">哐当！</tspan><tspan
             id="tspan4313-2-6"
             style="font-style:normal;font-variant:normal;font-weight:normal;font-stretch:normal;font-size:114.732px;font-family:'Xiaolai SC';-inkscape-font-specification:'Xiaolai SC';fill:#ffffff;fill-opacity:1;stroke:#000000;stroke-width:0.649528;stroke-opacity:1" /></tspan></text>
    </g>
    <g
       transform="matrix(0.08279068,-0.70073798,0.69675909,0.08896039,-1012.5833,3236.9208)"
       id="text4251-g894-7-7-2-8">
      <text
         inkscape:transform-center-y="0.58615246"
         inkscape:transform-center-x="-5.9254429"
         transform="matrix(0.56396936,0.29200899,-0.49083985,0.74440634,2281.3949,1535.2837)"
         id="text4580-6-0-3-1-7-9-4"
         y="1584.5073"
         x="787.65729"
         style="font-style:normal;font-variant:normal;font-weight:normal;font-stretch:normal;line-height:0%;font-family:'Xiaolai SC';-inkscape-font-specification:'Xiaolai SC';letter-spacing:0px;word-spacing:0px;display:inline;fill:#ffffff;fill-opacity:1;stroke:#000000;stroke-width:0.649528;stroke-miterlimit:4;stroke-dasharray:none;stroke-opacity:1;filter:url(#filter4375-4-1-1-1-9-5-8-3-4-2-2-9-8)"
         xml:space="preserve"><tspan
           style="font-style:normal;font-variant:normal;font-weight:normal;font-stretch:normal;font-size:70px;line-height:1.25;font-family:'Xiaolai SC';-inkscape-font-specification:'Xiaolai SC';fill:#ffffff;fill-opacity:1;stroke:#000000;stroke-width:0.649528;stroke-opacity:1"
           y="1584.5073"
           x="787.65729"
           id="tspan4582-1-1-6-7-1-3-8"
           sodipodi:role="line"><tspan
             id="tspan4315-8-0-2-1-9-1"
             style="font-style:normal;font-variant:normal;font-weight:normal;font-stretch:normal;font-size:93.1495px;font-family:'Xiaolai SC';-inkscape-font-specification:'Xiaolai SC';fill:#ffffff;fill-opacity:1;stroke:#000000;stroke-width:0.649528;stroke-opacity:1">哐当 </tspan><tspan
             id="tspan4313-2-6-7-5-0-0"
             style="font-style:normal;font-variant:normal;font-weight:normal;font-stretch:normal;font-size:114.732px;font-family:'Xiaolai SC';-inkscape-font-specification:'Xiaolai SC';fill:#ffffff;fill-opacity:1;stroke:#000000;stroke-width:0.649528;stroke-opacity:1">!</tspan></tspan></text>
    </g>
    <g
       transform="matrix(0.2660753,-0.65352272,0.64804701,0.27096543,-962.9723,2539.9528)"
       id="text4251-g894-7">
      <text
         inkscape:transform-center-y="0.58615246"
         inkscape:transform-center-x="-5.9254429"
         transform="matrix(0.56396936,0.29200899,-0.49083985,0.74440634,2281.3949,1535.2837)"
         id="text4580-6-0-3-1"
         y="1584.5073"
         x="787.65729"
         style="font-style:normal;font-variant:normal;font-weight:normal;font-stretch:normal;line-height:0%;font-family:'Xiaolai SC';-inkscape-font-specification:'Xiaolai SC';letter-spacing:0px;word-spacing:0px;display:inline;fill:#ffffff;fill-opacity:1;stroke:#000000;stroke-width:0.649528;stroke-miterlimit:4;stroke-dasharray:none;stroke-opacity:1;filter:url(#filter4375-4-1-1-1-9-5-8-3-4-2)"
         xml:space="preserve"><tspan
           style="font-style:normal;font-variant:normal;font-weight:normal;font-stretch:normal;font-size:70px;line-height:1.25;font-family:'Xiaolai SC';-inkscape-font-specification:'Xiaolai SC';fill:#ffffff;fill-opacity:1;stroke:#000000;stroke-width:0.649528;stroke-opacity:1"
           y="1584.5073"
           x="787.65729"
           id="tspan4582-1-1-6-7"
           sodipodi:role="line"><tspan
             id="tspan4315-8-0-2"
             style="font-style:normal;font-variant:normal;font-weight:normal;font-stretch:normal;font-size:93.1495px;font-family:'Xiaolai SC';-inkscape-font-specification:'Xiaolai SC';fill:#ffffff;fill-opacity:1;stroke:#000000;stroke-width:0.649528;stroke-opacity:1">哐当 </tspan><tspan
             id="tspan4313-2-6-7"
             style="font-style:normal;font-variant:normal;font-weight:normal;font-stretch:normal;font-size:114.732px;font-family:'Xiaolai SC';-inkscape-font-specification:'Xiaolai SC';fill:#ffffff;fill-opacity:1;stroke:#000000;stroke-width:0.649528;stroke-opacity:1">!</tspan></tspan></text>
    </g>
    <g
       transform="matrix(0.45457311,-0.53967703,0.53296055,0.45753715,-1047.5736,1867.716)"
       id="text4251-g894-7-7">
      <text
         inkscape:transform-center-y="0.58615246"
         inkscape:transform-center-x="-5.9254429"
         transform="matrix(0.56396936,0.29200899,-0.49083985,0.74440634,2281.3949,1535.2837)"
         id="text4580-6-0-3-1-7"
         y="1584.5073"
         x="787.65729"
         style="font-style:normal;font-variant:normal;font-weight:normal;font-stretch:normal;line-height:0%;font-family:'Xiaolai SC';-inkscape-font-specification:'Xiaolai SC';letter-spacing:0px;word-spacing:0px;display:inline;fill:#ffffff;fill-opacity:1;stroke:#000000;stroke-width:0.649528;stroke-miterlimit:4;stroke-dasharray:none;stroke-opacity:1;filter:url(#filter4375-4-1-1-1-9-5-8-3-4-2-2)"
         xml:space="preserve"><tspan
           style="font-style:normal;font-variant:normal;font-weight:normal;font-stretch:normal;font-size:70px;line-height:1.25;font-family:'Xiaolai SC';-inkscape-font-specification:'Xiaolai SC';fill:#ffffff;fill-opacity:1;stroke:#000000;stroke-width:0.649528;stroke-opacity:1"
           y="1584.5073"
           x="787.65729"
           id="tspan4582-1-1-6-7-1"
           sodipodi:role="line"><tspan
             id="tspan4315-8-0-2-1"
             style="font-style:normal;font-variant:normal;font-weight:normal;font-stretch:normal;font-size:93.1495px;font-family:'Xiaolai SC';-inkscape-font-specification:'Xiaolai SC';fill:#ffffff;fill-opacity:1;stroke:#000000;stroke-width:0.649528;stroke-opacity:1">哐当 </tspan><tspan
             id="tspan4313-2-6-7-5"
             style="font-style:normal;font-variant:normal;font-weight:normal;font-stretch:normal;font-size:114.732px;font-family:'Xiaolai SC';-inkscape-font-specification:'Xiaolai SC';fill:#ffffff;fill-opacity:1;stroke:#000000;stroke-width:0.649528;stroke-opacity:1">!</tspan></tspan></text>
    </g>
    <g
       transform="matrix(0.23227068,-0.66628698,0.66106879,0.23743471,-795.20186,2810.7658)"
       id="text4251-g894-7-7-2">
      <text
         inkscape:transform-center-y="0.58615246"
         inkscape:transform-center-x="-5.9254429"
         transform="matrix(0.56396936,0.29200899,-0.49083985,0.74440634,2281.3949,1535.2837)"
         id="text4580-6-0-3-1-7-9"
         y="1584.5073"
         x="787.65729"
         style="font-style:normal;font-variant:normal;font-weight:normal;font-stretch:normal;line-height:0%;font-family:'Xiaolai SC';-inkscape-font-specification:'Xiaolai SC';letter-spacing:0px;word-spacing:0px;display:inline;fill:#ffffff;fill-opacity:1;stroke:#000000;stroke-width:0.649528;stroke-miterlimit:4;stroke-dasharray:none;stroke-opacity:1;filter:url(#filter4375-4-1-1-1-9-5-8-3-4-2-2-9)"
         xml:space="preserve"><tspan
           style="font-style:normal;font-variant:normal;font-weight:normal;font-stretch:normal;font-size:70px;line-height:1.25;font-family:'Xiaolai SC';-inkscape-font-specification:'Xiaolai SC';fill:#ffffff;fill-opacity:1;stroke:#000000;stroke-width:0.649528;stroke-opacity:1"
           y="1584.5073"
           x="787.65729"
           id="tspan4582-1-1-6-7-1-3"
           sodipodi:role="line"><tspan
             id="tspan4315-8-0-2-1-9"
             style="font-style:normal;font-variant:normal;font-weight:normal;font-stretch:normal;font-size:93.1495px;font-family:'Xiaolai SC';-inkscape-font-specification:'Xiaolai SC';fill:#ffffff;fill-opacity:1;stroke:#000000;stroke-width:0.649528;stroke-opacity:1">哐当 </tspan><tspan
             id="tspan4313-2-6-7-5-0"
             style="font-style:normal;font-variant:normal;font-weight:normal;font-stretch:normal;font-size:114.732px;font-family:'Xiaolai SC';-inkscape-font-specification:'Xiaolai SC';fill:#ffffff;fill-opacity:1;stroke:#000000;stroke-width:0.649528;stroke-opacity:1">!</tspan></tspan></text>
    </g>
    <text
       transform="matrix(0.81263366,0,-0.31508537,1.2305668,0,0)"
       id="text4246-3-5"
       y="1786.5194"
       x="2884.5964"
       style="font-style:normal;font-variant:normal;font-weight:normal;font-stretch:normal;font-size:27.2915px;line-height:0%;font-family:'Xiaolai SC';-inkscape-font-specification:'Xiaolai SC';text-align:center;letter-spacing:0px;word-spacing:0px;text-anchor:middle;display:inline;fill:#000000;fill-opacity:1;stroke:none;stroke-width:1.12112;"
       xml:space="preserve"><tspan
         id="tspan872-2"
         y="1786.5194"
         x="2884.5964"
         style="font-style:normal;font-variant:normal;font-weight:normal;font-stretch:normal;font-size:102.343px;line-height:1.2;font-family:'Xiaolai SC';-inkscape-font-specification:'Xiaolai SC';stroke-width:1.12112;"
         sodipodi:role="line"><tspan
   style="font-style:normal;font-variant:normal;font-weight:normal;font-stretch:normal;font-size:70.343px;font-family:'Xiaolai SC';-inkscape-font-specification:'Xiaolai SC';"
   id="tspan714918">!</tspan><tspan
   id="tspan706548"
   style="font-style:normal;font-variant:normal;font-weight:normal;font-stretch:normal;font-size:82.343px;font-family:'Xiaolai SC';-inkscape-font-specification:'Xiaolai SC';">!</tspan>!</tspan></text>
    <text
       transform="matrix(0.81263366,0,-0.31508537,1.2305668,0,0)"
       id="text4246-3-5-3"
       y="1775.1808"
       x="3270.3779"
       style="font-style:normal;font-variant:normal;font-weight:normal;font-stretch:normal;font-size:27.2915px;line-height:0%;font-family:'Xiaolai SC';-inkscape-font-specification:'Xiaolai SC';text-align:center;letter-spacing:0px;word-spacing:0px;text-anchor:middle;fill:#000000;fill-opacity:1;stroke:none;stroke-width:1.12112;"
       xml:space="preserve"><tspan
         id="tspan872-2-0"
         y="1775.1808"
         x="3270.3779"
         style="font-style:normal;font-variant:normal;font-weight:normal;font-stretch:normal;font-size:102.343px;line-height:1.2;font-family:'Xiaolai SC';-inkscape-font-specification:'Xiaolai SC';stroke-width:1.12112;"
         sodipodi:role="line"><tspan
   style="font-style:normal;font-variant:normal;font-weight:normal;font-stretch:normal;font-size:70.343px;font-family:'Xiaolai SC';-inkscape-font-specification:'Xiaolai SC';"
   id="tspan714918-4">!</tspan><tspan
   id="tspan706548-4"
   style="font-style:normal;font-variant:normal;font-weight:normal;font-stretch:normal;font-size:82.343px;font-family:'Xiaolai SC';-inkscape-font-specification:'Xiaolai SC';">!</tspan>!</tspan></text>
    <text
       transform="matrix(0.93037166,-0.07161155,-0.19071907,1.0895191,0,0)"
       xml:space="preserve"
       style="font-style:normal;font-variant:normal;font-weight:normal;font-stretch:normal;font-size:77.051px;line-height:0%;font-family:'Xiaolai SC';-inkscape-font-specification:'Xiaolai SC';text-align:center;letter-spacing:2.03292px;word-spacing:0px;text-anchor:middle;display:inline;fill:#000000;fill-opacity:1;stroke:none;stroke-width:1.14598"
       x="883.66992"
       y="2633.3904"
       id="text4246-4-2-3-2-89-1-3-5-7-4-36"><tspan
         id="tspan719137-75"
         sodipodi:role="line"
         style="font-style:normal;font-variant:normal;font-weight:normal;font-stretch:normal;font-size:77.051px;font-family:'Xiaolai SC';-inkscape-font-specification:'Xiaolai SC';stroke-width:1.14598"
         x="884.6864"
         y="2633.3904">守卫！</tspan></text>
    <text
       transform="matrix(0.91868263,-0.07375478,-0.20298419,1.1048114,0,0)"
       xml:space="preserve"
       style="font-style:normal;font-variant:normal;font-weight:normal;font-stretch:normal;font-size:82.9794px;line-height:0%;font-family:'Xiaolai SC';-inkscape-font-specification:'Xiaolai SC';text-align:center;letter-spacing:2px;word-spacing:0px;text-anchor:middle;fill:#000000;fill-opacity:1;stroke:none;stroke-width:1.23414"
       x="1270.4561"
       y="2696.2839"
       id="text4246-4-2-3-2-89-1-3-5-7-4"><tspan
         id="tspan719137"
         sodipodi:role="line"
         style="font-style:normal;font-variant:normal;font-weight:normal;font-stretch:normal;font-size:82.9794px;line-height:1.25;font-family:'Xiaolai SC';-inkscape-font-specification:'Xiaolai SC';stroke-width:1.23414"
         x="1271.4561"
         y="2696.2839">紧急集合！</tspan></text>
    <text
       transform="matrix(0.97563945,-0.08959889,-0.08011561,1.0323263,0,0)"
       xml:space="preserve"
       style="font-style:normal;font-variant:normal;font-weight:normal;font-stretch:normal;font-size:48.9104px;line-height:0%;font-family:'Xiaolai SC';-inkscape-font-specification:'Xiaolai SC';text-align:center;letter-spacing:0px;word-spacing:0px;text-anchor:middle;fill:#000000;fill-opacity:1;stroke:none;stroke-width:0.727446"
       x="1581.9813"
       y="2908.8728"
       id="text4246-4-2-3-2-89-1-3-5-7-4-3"><tspan
         id="tspan733263"
         sodipodi:role="line"
         style="font-style:normal;font-variant:normal;font-weight:normal;font-stretch:normal;font-size:48.9104px;line-height:1.25;font-family:'Xiaolai SC';-inkscape-font-specification:'Xiaolai SC';stroke-width:0.727446"
         x="1581.9813"
         y="2908.8728">有人潜入协助犯人越狱！</tspan></text>
  </g>
</svg>
