<?xml version="1.0" encoding="UTF-8" standalone="no"?>
<svg
   xmlns:dc="http://purl.org/dc/elements/1.1/"
   xmlns:cc="http://creativecommons.org/ns#"
   xmlns:rdf="http://www.w3.org/1999/02/22-rdf-syntax-ns#"
   xmlns:svg="http://www.w3.org/2000/svg"
   xmlns="http://www.w3.org/2000/svg"
   xmlns:xlink="http://www.w3.org/1999/xlink"
   xmlns:sodipodi="http://sodipodi.sourceforge.net/DTD/sodipodi-0.dtd"
   xmlns:inkscape="http://www.inkscape.org/namespaces/inkscape"
   sodipodi:docname="E36P11.svg"
   height="3503"
   width="2481"
   inkscape:version="1.0 (4035a4fb49, 2020-05-01)"
   version="1.1"
   id="svg2">
  <metadata
     id="metadata8">
    <rdf:RDF>
      <cc:Work
         rdf:about="">
        <dc:format>image/svg+xml</dc:format>
        <dc:type
           rdf:resource="http://purl.org/dc/dcmitype/StillImage" />
        <dc:title />
      </cc:Work>
    </rdf:RDF>
  </metadata>
  <defs
     id="defs6" />
  <sodipodi:namedview
     inkscape:document-rotation="0"
     inkscape:snap-global="false"
     inkscape:pagecheckerboard="0"
     inkscape:current-layer="layer3"
     inkscape:window-maximized="1"
     inkscape:window-y="-8"
     inkscape:window-x="-8"
     inkscape:cy="2803.8853"
     inkscape:cx="1240.5"
     inkscape:zoom="0.41053452"
     showgrid="false"
     id="namedview4"
     inkscape:window-height="715"
     inkscape:window-width="1366"
     inkscape:pageshadow="2"
     inkscape:pageopacity="0"
     guidetolerance="10"
     gridtolerance="10"
     objecttolerance="10"
     borderopacity="1"
     bordercolor="#111111"
     pagecolor="#1e1e1e" />
  <g
     sodipodi:insensitive="true"
     inkscape:label="artwork"
     id="layer2"
     inkscape:groupmode="layer">
    <image
       sodipodi:absref="D:\Pepper&amp;Carrot translation\ep36_the-suprise-attack\lang\gfx_Pepper-and-Carrot_by-David-Revoy_E36P11.png"
       xlink:href="../gfx_Pepper-and-Carrot_by-David-Revoy_E36P11.png"
       y="0"
       x="0"
       id="image10"
       height="3503"
       width="2481" />
  </g>
  <g
     style="display:inline"
     inkscape:label="speechbubbles"
     id="layer3"
     inkscape:groupmode="layer">
    <path
       sodipodi:nodetypes="zssssz"
       inkscape:connector-curvature="0"
       id="path4040-40"
       d="m 384.22008,288.03031 c -36.52082,15.18402 -81.08506,12.43329 -121.80587,11.71476 -42.52036,-2.44203 -93.06761,-11.82116 -112.2994,-41.51123 -17.96129,-27.49916 2.10016,-61.76773 40.45297,-74.60752 35.18838,-12.04003 75.64954,-13.23608 114.10065,-13.79874 49.92399,0.82867 104.76155,22.92629 112.49934,59.97333 4.21244,21.6859 -9.514,44.102 -32.94769,58.2294 z"
       style="color:#000000;display:inline;overflow:visible;visibility:visible;fill:#ffffff;fill-opacity:1;fill-rule:nonzero;stroke:none;stroke-width:0.546853px;marker:none;enable-background:accumulate" />
    <path
       sodipodi:nodetypes="csssssc"
       inkscape:connector-curvature="0"
       id="path3365-90"
       d="m 607.18359,157.03679 c -23.06907,0.37266 -46.66545,1.53948 -68.35156,8.14383 -16.26445,4.85018 -30.88775,13.57803 -39.5636,25.37749 -9.10223,11.66469 -12.86405,25.21173 -15.18695,38.55535 -3.16634,15.89057 -4.60595,32.43495 0.97021,48.11511 8.5575,22.40171 34.01301,40.07999 63.4159,45.1387 38.47082,8.39713 79.73598,10.32273 118.82878,3.28506 22.41704,-4.354 44.18838,-11.9461 61.55567,-23.89321 11.7099,-9.19678 17.23271,-22.09472 18.48164,-34.73962 2.512,-19.3097 3.01365,-39.2058 -4.07707,-58.01234 -6.75102,-17.63948 -24.82707,-32.10836 -46.77478,-38.98316 -17.03414,-5.56158 -35.26383,-8.48839 -53.42291,-10.89029 -11.8572,-1.45079 -23.86746,-2.19961 -35.87533,-2.09692 z"
       style="color:#000000;display:inline;overflow:visible;visibility:visible;fill:#ffffff;fill-opacity:1;fill-rule:nonzero;stroke:none;stroke-width:0.72277px;marker:none;enable-background:accumulate" />
    <path
       sodipodi:nodetypes="csssc"
       inkscape:connector-curvature="0"
       id="path5026-3"
       d="m 845.88509,248.73921 c 0.56728,-53.37318 11.61767,-103.84716 109.57707,-102.10038 73.45044,1.30895 93.01074,42.43199 94.63804,96.38138 1.1469,38.01967 -38.5903,73.2116 -101.69685,71.34686 -60.31774,-1.78194 -98.1071,-24.9245 -102.51826,-65.62786 z"
       style="color:#000000;display:inline;overflow:visible;visibility:visible;fill:#ffffff;fill-opacity:1;fill-rule:nonzero;stroke:none;stroke-width:0.944496px;marker:none;enable-background:accumulate" />
    <path
       sodipodi:nodetypes="ccscc"
       inkscape:connector-curvature="0"
       id="path4035-4"
       d="m 958.1944,309.83323 c -43.34053,0.0194 -52.18434,75.22752 -14.63328,128.2568 -16.5114,-21.59304 -72.61174,-61.13455 -7.77479,-172.66812 29.32893,-50.45175 14.74185,29.39163 14.74185,29.39163 z"
       style="color:#000000;display:inline;overflow:visible;visibility:visible;fill:#ffffff;fill-opacity:1;fill-rule:nonzero;stroke:none;stroke-width:1.06703px;marker:none;enable-background:accumulate" />
    <path
       sodipodi:nodetypes="csssssc"
       inkscape:connector-curvature="0"
       id="path3365-90-4"
       d="m 1002.5391,1065.3552 c -31.05429,0.9154 -62.5481,6.1798 -89.6059,18.757 -19.26574,9.8669 -31.64319,26.6592 -36.64252,44.2108 -9.33129,30.7792 -12.56742,63.0607 -6.04822,94.4158 2.76896,12.7947 6.95647,25.5459 14.29866,37.1898 4.88511,7.3603 12.35742,13.6477 21.60182,17.5889 12.53649,5.9317 26.10764,10.3075 39.66098,14.512 26.81146,7.6086 55.31118,10.3649 83.56408,11.9124 13.3509,0.6601 26.7342,-0.6029 39.7242,-3.0485 16.971,-3.1564 33.4642,-7.8479 49.3916,-13.4518 21.013,-7.9188 40.6912,-19.5596 52.5379,-35.7934 11.5776,-15.8016 15.3102,-34.2639 17.0298,-52.2542 2.4417,-23.3734 1.5282,-47.5028 -8.3954,-69.8094 -9.0647,-19.7121 -27.9868,-36.4971 -51.9595,-45.3243 -27.919,-10.7918 -58.9511,-14.7323 -89.4822,-17.6413 -11.8411,-0.9957 -23.7685,-1.5138 -35.6753,-1.2638 z"
       style="color:#000000;display:inline;overflow:visible;visibility:visible;fill:#ffffff;fill-opacity:1;fill-rule:nonzero;stroke:none;stroke-width:0.949832px;marker:none;enable-background:accumulate" />
    <path
       sodipodi:nodetypes="ccscc"
       inkscape:connector-curvature="0"
       id="path4248"
       d="m 1048.455,1075.2666 c 1.6237,-24.8303 2.7154,-51.2197 28.6113,-64.146 -20.0938,4.5574 -50.5407,19.6541 -55.3048,46.5586 -7.4355,41.9896 24.9637,19.5655 24.9637,19.5655 z"
       style="fill:#ffffff;fill-rule:evenodd;stroke:none;stroke-width:1.18884px;stroke-linecap:butt;stroke-linejoin:miter;stroke-opacity:1" />
    <path
       sodipodi:nodetypes="cssssc"
       inkscape:connector-curvature="0"
       id="path4546-6-5"
       d="M 1739.4121 1155.6973 C 1688.3395 1157.0181 1637.4407 1161.9357 1586.6919 1167.5905 C 1564.4698 1170.4501 1541.385 1174.0343 1522.1582 1186.334 C 1492.8236 1205.0672 1473.4779 1239.1113 1473.9719 1274.0989 C 1472.8975 1300.1046 1477.0728 1327.4639 1491.995 1349.3584 C 1508.1402 1372.6464 1534.7437 1387.1453 1562.2855 1392.0923 C 1600.3465 1400.0338 1639.2715 1402.3136 1677.599 1408.5815 C 1738.3711 1416.7462 1799.0014 1426.5624 1860.2095 1430.9203 C 1919.7109 1433.391 1979.1013 1422.0654 2035.3022 1403.0341 C 2059.2686 1395.6812 2083.8797 1387.2961 2103.0537 1370.5062 C 2121.4845 1354.5765 2132.0714 1330.6228 2133.1685 1306.4418 C 2135.5719 1282.4153 2133.8082 1257.3971 2124.2662 1234.9897 C 2115.5601 1216.4004 2099.4528 1201.7449 2080.6248 1193.7991 C 2054.0067 1181.2706 2024.8528 1175.8613 1996.2139 1170.0957 C 1945.4984 1160.8809 1893.8565 1158.638 1842.4178 1157.7616 C 1808.0878 1156.8632 1773.7591 1155.6106 1739.4121 1155.6973 z "
       style="color:#000000;display:inline;overflow:visible;visibility:visible;fill:#ffffff;fill-opacity:1;fill-rule:nonzero;stroke:none;stroke-width:1.50987px;marker:none;enable-background:accumulate" />
    <path
       sodipodi:nodetypes="cssssc"
       inkscape:connector-curvature="0"
       id="path4546-6-5-7-9"
       d="m 1675.7812,1378.7198 c -18.8883,0.7686 -38.0131,1.5531 -56.4413,6.4878 -23.2538,6.7228 -45.1102,21.5376 -57.1265,43.0811 -8.3065,15.3973 -8.7587,34.7592 -0.5696,49.9925 8.9159,17.3844 25.4653,29.2546 42.694,37.5218 28.0884,13.303 59.5719,17.0248 90.4059,19.2006 37.3571,2.4153 74.8724,1.7256 112.3148,2.3266 70.8101,0.3822 141.6774,1.051 212.4956,-2.7314 27.1702,-1.8246 54.5035,-4.3611 81.0083,-11.3215 19.6286,-5.5469 39.235,-14.8541 52.5318,-30.9849 14.5935,-18.2228 17.6026,-44.8387 7.115,-65.318 -8.8169,-18.297 -26.0348,-31.6625 -45.3932,-37.2899 -41.2822,-14.7003 -86.0796,-19.0046 -129.9028,-14.3817 -26.9579,2.5405 -54.0068,6.3149 -81.0639,4.5964 -30.4502,-1.2172 -60.8602,-3.4825 -91.3834,-3.1143 -43.9937,-0.3109 -88.0077,0.9637 -132.0105,1.7698 -1.558,0.055 -3.1161,0.1102 -4.6742,0.1654 z"
       style="color:#000000;display:inline;overflow:visible;visibility:visible;fill:#ffffff;fill-opacity:1;fill-rule:nonzero;stroke:none;stroke-width:1.12524px;marker:none;enable-background:accumulate" />
    <path
       sodipodi:nodetypes="ccccc"
       inkscape:connector-curvature="0"
       id="path3072-56"
       d="m 1834.6759,1063.9074 c -58.4661,16.7056 -74.2086,55.188 -42.9987,96.676 31.21,41.487 10.2962,43.1429 10.2962,43.1429 l -38.5277,-15.376 c 0,0 -61.7873,-122.5503 71.2302,-124.4429 z"
       style="color:#000000;display:inline;overflow:visible;visibility:visible;fill:#ffffff;fill-opacity:1;fill-rule:nonzero;stroke:none;stroke-width:1.16782px;marker:none;enable-background:accumulate" />
    <path
       sodipodi:nodetypes="zssssz"
       inkscape:connector-curvature="0"
       id="path4040-5"
       d="m 126.58488,1627.5134 c 16.24533,-13.7787 216.64551,-23.5914 262.94014,7.571 32.26279,21.7169 19.81677,63.3637 -7.83656,74.2047 -27.65333,10.8417 -161.16169,13.8952 -199.10707,8.3737 -34.12248,-4.9645 -69.93911,-15.6511 -71.82742,-44.0939 -0.77066,-11.6083 -0.41442,-32.2773 15.83091,-46.0555 z"
       style="color:#000000;display:inline;overflow:visible;visibility:visible;fill:#ffffff;fill-opacity:1;fill-rule:nonzero;stroke:none;stroke-width:0.592925px;marker:none;enable-background:accumulate" />
    <path
       sodipodi:nodetypes="zssssz"
       inkscape:connector-curvature="0"
       id="path4040-5-3"
       d="m 197.10449,1712.5896 c 21.61401,-22.517 288.24142,-38.5528 349.83526,12.3724 42.92484,35.4896 26.36572,103.5483 -10.42633,121.2646 -36.79207,17.7174 -214.4216,22.7074 -264.90698,13.6842 -45.3991,-8.1128 -93.05224,-25.5768 -95.56458,-72.0577 -1.02534,-18.9703 -0.55137,-52.7473 21.06263,-75.2635 z"
       style="color:#000000;display:inline;overflow:visible;visibility:visible;fill:#ffffff;fill-opacity:1;fill-rule:nonzero;stroke:none;stroke-width:0.874288px;marker:none;enable-background:accumulate" />
    <path
       sodipodi:nodetypes="csczc"
       inkscape:connector-curvature="0"
       id="path3072-6"
       d="m 481.26449,1942.4649 c 13.3495,-41.5666 52.33232,-60.4288 7.51958,-104.8642 -33.47159,-33.1897 12.91326,-29.7973 12.91326,-29.7973 0,0 5.02259,-41.3782 24.01835,27.0751 18.99576,68.4534 -9.8869,64.3755 -44.45119,107.5864 z"
       style="color:#000000;display:inline;overflow:visible;visibility:visible;fill:#ffffff;fill-opacity:1;fill-rule:nonzero;stroke:none;stroke-width:0.855677px;marker:none;enable-background:accumulate" />
    <path
       sodipodi:nodetypes="csssssssc"
       inkscape:connector-curvature="0"
       id="path3286-6"
       d="m 620.49758,1759.7407 c -12.46539,-56.1786 78.66177,-84.592 145.68797,-82.7786 98.6247,-6.3895 198.39818,-3.9228 296.69835,3.2822 73.8709,7.9149 121.1939,69.2067 79.8515,114.7943 -46.8629,47.2456 -138.8155,41.5805 -211.24596,46.2438 -84.27812,1.2838 -172.36685,-0.026 -251.41792,-22.3576 -31.22459,-12.2522 -51.703,-35.084 -59.57394,-59.1841 z"
       style="fill:#ffffff;stroke:none;stroke-width:0.959804" />
    <path
       sodipodi:nodetypes="csssssssc"
       inkscape:connector-curvature="0"
       id="path3286-6-7"
       d="m 660.3512,1859.3328 c -11.4945,-49.8552 72.53508,-75.0703 134.34083,-73.4611 90.94317,-5.6702 182.94566,-3.4812 273.58947,2.9128 68.1174,7.024 111.7546,61.4169 73.6322,101.8732 -43.213,41.9277 -128.0036,36.9002 -194.79272,41.0386 -77.71396,1.1393 -158.94183,-0.023 -231.83584,-19.841 -28.79262,-10.873 -47.67604,-31.135 -54.93394,-52.5225 z"
       style="fill:#ffffff;stroke:none;stroke-width:0.868247" />
    <path
       sodipodi:nodetypes="csssssssc"
       inkscape:connector-curvature="0"
       id="path3286-6-7-4"
       d="m 732.8615,1970.722 c -3.42445,-42.5523 69.70244,-64.0738 121.00146,-62.7003 76.47527,-4.8396 152.86314,-2.9712 227.60004,2.4861 55.8897,5.9952 85.536,52.4205 48.7788,86.9506 -41.1804,35.7861 -111.209,31.4949 -167.36952,35.0272 -64.89327,0.9724 -132.43031,-0.02 -190.72101,-16.9347 -22.6486,-9.2803 -35.88194,-26.5743 -39.28977,-44.8289 z"
       style="fill:#ffffff;stroke:none;stroke-width:0.732199" />
    <path
       sodipodi:nodetypes="csssssssc"
       inkscape:connector-curvature="0"
       id="path3286-6-7-4-2-5"
       d="m 1559.8648,2274.68 c -40.5776,0.9856 -81.571,1.4285 -121.3541,8.2171 -23.4836,5.0646 -46.516,14.6572 -60.3222,30.3859 -12.0378,15.0743 -10.4346,34.6485 0.032,49.9505 8.638,14.5227 26.7065,25.5007 47.2516,28.7663 46.3375,10.8118 95.2925,11.8471 143.394,11.8441 44.0679,-0.2085 88.1393,-2.118 131.9173,-5.9578 24.2957,-2.6624 49.3393,-8.0568 67.8913,-20.8645 22.4519,-15.4056 32.2393,-41.4194 21.0864,-63.0951 -7.7078,-14.8343 -25.3174,-25.8059 -45.0785,-30.5955 -20.8526,-5.1627 -43.0509,-4.7949 -64.6804,-6.0981 -39.6502,-1.8463 -79.3882,-3.227 -119.119,-2.5776 -0.3394,0.011 -0.6788,0.016 -1.0182,0.025 z"
       style="fill:#ffffff;stroke:none;stroke-width:0.755494" />
    <path
       sodipodi:nodetypes="csssssssc"
       inkscape:connector-curvature="0"
       id="path3286-6-7-4-2-5-3"
       d="m 1575.734,2344.7678 c -43.2545,1.4132 -86.9522,2.0482 -129.3599,11.7827 -25.0329,7.2621 -49.5847,21.0173 -64.3017,43.571 -12.832,21.6154 -11.123,49.6833 0.034,71.6252 9.2078,20.8245 28.4683,36.566 50.3688,41.2486 49.3944,15.5033 101.5791,16.9879 152.8538,16.9837 46.9752,-0.299 93.954,-3.0372 140.6201,-8.5431 25.8985,-3.8177 52.5942,-11.5528 72.3702,-29.9181 23.9331,-22.0905 34.3661,-59.3923 22.4775,-90.4736 -8.2164,-21.2712 -26.9876,-37.0037 -48.0525,-43.8716 -22.2282,-7.403 -45.8909,-6.8756 -68.9474,-8.7441 -42.2659,-2.6475 -84.6255,-4.6274 -126.9774,-3.6962 -0.3617,0.016 -0.7236,0.023 -1.0853,0.036 z"
       style="display:inline;fill:#ffffff;stroke:none;stroke-width:0.934042" />
    <path
       sodipodi:nodetypes="ccscc"
       inkscape:connector-curvature="0"
       id="path4035-4-5"
       d="m 1109.0561,1984.7544 c -8.1997,41.8065 59.3043,70.6591 115.2035,48.7714 -22.9931,10.09 -81.6027,63.8105 -171.9044,-28.8625 -40.8476,-41.9203 41.4313,-16.5735 41.4313,-16.5735 z"
       style="color:#000000;display:inline;overflow:visible;visibility:visible;fill:#ffffff;fill-opacity:1;fill-rule:nonzero;stroke:none;stroke-width:1.03365px;marker:none;enable-background:accumulate" />
    <path
       sodipodi:nodetypes="ccsc"
       inkscape:connector-curvature="0"
       id="path4008-7"
       d="m 1640.0206,2360.0065 c 85.321,-69.4317 155.0537,-160.9776 126.0876,-275.9291 50.0818,114.8531 -29.8722,233.4391 -50.2498,258.0963 -21.5049,26.0213 -75.8378,17.8328 -75.8378,17.8328 z"
       style="color:#000000;display:inline;overflow:visible;visibility:visible;fill:#ffffff;fill-opacity:1;fill-rule:nonzero;stroke:none;stroke-width:1.14715px;marker:none;enable-background:accumulate" />
    <path
       sodipodi:nodetypes="cssssc"
       inkscape:connector-curvature="0"
       id="path4546-6-89"
       d="m 1999.7453,2479.444 c 2.2875,-52.9884 41.423,-91.9961 145.2212,-82.6965 55.6,4.9822 118.6875,8.0781 115.9805,85.6986 -2.7071,77.6207 -93.3297,76.2069 -111.9978,78.1417 -18.668,1.9348 -116.2154,-5.5768 -133.7262,-31.8622 -10.9614,-16.4544 -15.4862,-32.8745 -15.4777,-49.2816 z"
       style="color:#000000;display:inline;overflow:visible;visibility:visible;fill:#ffffff;fill-opacity:1;fill-rule:nonzero;stroke:none;stroke-width:0.90414px;marker:none;enable-background:accumulate" />
    <path
       sodipodi:nodetypes="cscscc"
       inkscape:transform-center-y="-52.12792"
       inkscape:transform-center-x="-1.8067567"
       inkscape:connector-curvature="0"
       id="path1367"
       d="m 2127.4405,2420.4639 c 0,0 -20.8561,-32.9672 -21.8804,-43.1562 -1.0243,-10.189 2.4576,-31.6896 11.9397,-43.6552 -22.2118,19.0145 -28.0641,35.9803 -27.9104,44.0276 0.1532,8.0482 12.5159,40.8376 12.5159,40.8376 z"
       style="fill:#ffffff;fill-rule:evenodd;stroke:none;stroke-width:1px;stroke-linecap:butt;stroke-linejoin:miter;stroke-opacity:1" />
    <path
       sodipodi:nodetypes="cssssc"
       inkscape:connector-curvature="0"
       id="path4546-7"
       d="m 351.38534,2714.8856 c -53.20058,0.4806 -107.25745,1.9425 -158.65805,17.0945 -25.36349,7.847 -49.44585,23.0484 -63.60168,45.9902 -12.73177,20.6381 -16.10952,47.6984 -5.70418,70.0054 9.2026,20.6644 29.03387,35.7115 51.00812,40.403 29.55109,8.5963 60.05832,13.2577 90.48376,17.502 82.01564,10.4421 165.74863,10.0518 247.19454,-4.8606 22.97129,-4.3578 46.09077,-11.4473 64.94861,-25.7526 15.15929,-11.1896 27.3815,-27.2228 31.28121,-45.9145 6.65411,-28.5397 -2.71711,-61.2182 -26.06366,-79.6529 -16.91802,-13.2401 -38.32829,-18.5208 -59.05096,-22.3774 -34.62281,-6.1661 -69.7945,-8.1793 -104.82441,-10.6248 -22.31517,-1.2106 -44.66391,-1.8958 -67.0133,-1.8123 z"
       style="color:#000000;display:inline;overflow:visible;visibility:visible;fill:#ffffff;fill-opacity:1;fill-rule:nonzero;stroke:none;stroke-width:0.886757px;marker:none;enable-background:accumulate" />
    <path
       sodipodi:nodetypes="cssssc"
       inkscape:connector-curvature="0"
       id="path4546-6-5-4"
       d="m 328.21161,2860.4247 c -45.61556,0.5475 -92.15711,4.1244 -134.39105,17.2506 -25.94717,8.2795 -49.94814,21.3094 -63.86685,39.3662 -13.22513,16.7825 -18.44787,37.3947 -10.44929,56.0614 5.03326,12.2868 14.00266,23.9351 26.92048,32.8563 13.34001,7.7706 30.06449,11.5377 46.23978,15.1209 35.22975,7.2646 71.77601,10.4122 108.16365,12.9592 28.44512,1.8253 56.98136,3.2041 85.54773,3.3205 24.84285,-0.3654 49.68053,-1.4437 74.3817,-3.3849 33.83337,-2.892 67.9178,-8.364 97.9226,-20.3287 20.9569,-8.529 39.45361,-21.3932 47.84646,-37.8674 8.23894,-15.9419 8.63657,-33.6509 3.22742,-50.0991 -5.28951,-14.8741 -18.68032,-28.0943 -36.65785,-36.422 -25.33575,-12.204 -55.74674,-17.0897 -85.44168,-20.5593 -37.02204,-4.1987 -74.50242,-5.5865 -111.84439,-7.5293 -15.84982,-0.6084 -31.72653,-0.8856 -47.59871,-0.7444 z"
       style="color:#000000;display:inline;overflow:visible;visibility:visible;fill:#ffffff;fill-opacity:1;fill-rule:nonzero;stroke:none;stroke-width:1.08909px;marker:none;enable-background:accumulate" />
    <path
       sodipodi:nodetypes="ccszc"
       inkscape:connector-curvature="0"
       id="path4064-5"
       d="m 597.94043,2853.7282 c 0.70291,-20.5931 2.79564,-98.204 79.29359,-67.917 -12.96153,-15.3177 -101.3034,-57.4847 -117.55274,67.9555 -4.05901,31.3344 6.93857,21.4416 13.2428,23.8225 6.30431,2.3809 25.01635,-23.861 25.01635,-23.861 z"
       style="color:#000000;display:inline;overflow:visible;visibility:visible;fill:#ffffff;fill-opacity:1;fill-rule:nonzero;stroke:none;stroke-width:0.94912px;marker:none;enable-background:accumulate" />
    <path
       sodipodi:nodetypes="csssc"
       inkscape:connector-curvature="0"
       id="path3280-8-0"
       d="m 1417.9743,2749.7357 c -67.9685,0.6473 -136.2342,2.1082 -203.3695,9.6651 -25.339,2.9689 -51.2433,6.7811 -73.2184,16.0216 -12.6839,5.3387 -23.2947,12.8166 -30.0645,21.6975 -11.4847,14.3585 -15.7565,30.9462 -14.2387,47.0601 1.8108,15.876 11.2762,31.8061 29.2426,42.7582 18.9419,11.8866 43.9023,18.4522 68.7874,22.9026 33.3259,5.779 67.8863,7.3845 102.18,8.4849 49.7484,1.2928 99.546,0.4174 149.2969,-0.3341 55.8129,-1.1891 112.0722,-3.6011 166.2972,-12.9567 25.7131,-4.6576 51.4673,-11.0015 72.3312,-22.2427 13.4449,-7.4946 23.9103,-17.9698 25.6275,-29.7226 2.1971,-11.3037 0.5045,-22.7992 -2.8232,-33.9296 -5.583,-15.792 -19.6474,-30.3578 -39.8377,-39.751 -24.5944,-12.1057 -54.6067,-18.0661 -84.3162,-22.066 -44.2427,-5.7957 -89.4763,-7.2069 -134.478,-7.6518 -10.4728,-0.083 -20.9447,-0.051 -31.4166,0.064 z"
       style="fill:#ffffff;stroke:none;stroke-width:0.695729" />
    <path
       sodipodi:nodetypes="cccsc"
       inkscape:connector-curvature="0"
       id="path3072-7"
       d="m 1202.4146,2978.9707 c 74.1686,10.5665 125.3056,-20.8953 125.9336,-99.1299 24.1747,-37.6874 37.9622,-13.5927 37.9622,-13.5927 0,0 11.7636,14.3466 12.7847,24.636 3.9766,40.0726 -80.3955,126.8937 -176.6805,88.0866 z"
       style="color:#000000;display:inline;overflow:visible;visibility:visible;fill:#ffffff;fill-opacity:1;fill-rule:nonzero;stroke:none;stroke-width:1px;marker:none;enable-background:accumulate" />
    <path
       sodipodi:nodetypes="csssssssc"
       inkscape:connector-curvature="0"
       id="path4272-2"
       d="m 611.87816,457.91854 c -12.3953,-22.626 4.8341,-35.579 4.6846,-49.244 -0.1543,-14.107 -33.2797,-25.956 -34.0153,-39.032 -0.7356,-13.076 20.5032,-26.957 19.032,-47.388 -1.4712,-20.432 -25.011,-24.518 -22.8041,-0.818 2.2069,23.701 -15.6571,27.839 -11.7699,46.584 6.483,31.261 30.8848,30.638 38.523,39.431 5.057,5.822 -4.6847,18.594 -2.4778,32.487 2.2069,13.894 8.8275,17.98 8.8275,17.98 z"
       style="fill:#ffffff;fill-rule:evenodd;stroke:none;stroke-width:1px;stroke-linecap:butt;stroke-linejoin:miter;stroke-opacity:1" />
    <path
       sodipodi:nodetypes="csccc"
       inkscape:connector-curvature="0"
       id="path3063-1-0"
       d="M 395.5572,452.67668 C 407.56611,407.77396 413.32098,333.81277 360.54542,296.86263 333.08948,277.6397 320.11233,262.96148 320.11233,262.96148 l 22.24546,-19.14958 c 105.35115,77.35453 72.21397,163.85407 53.19941,208.86478 z"
       style="display:inline;fill:#ffffff;stroke:none;stroke-width:0.877336" />
  </g>
  <g
     inkscape:label="txt"
     id="layer1"
     inkscape:groupmode="layer">
    <text
       xml:space="preserve"
       style="font-style:normal;font-variant:normal;font-weight:normal;font-stretch:normal;line-height:0%;font-family:'Xiaolai SC';-inkscape-font-specification:'Xiaolai SC';text-align:center;letter-spacing:0px;word-spacing:0px;text-anchor:middle;fill:#000000;fill-opacity:1;stroke:none"
       x="291.05917"
       y="249.3871"
       id="text4246-4-2-7"><tspan
         id="tspan1639"
         sodipodi:role="line"
         style="font-style:normal;font-variant:normal;font-weight:normal;font-stretch:normal;font-size:45px;line-height:1.25;font-family:'Xiaolai SC';-inkscape-font-specification:'Xiaolai SC';fill:#000000"
         x="291.05917"
         y="249.3871">她怎么了？</tspan></text>
    <text
       xml:space="preserve"
       style="font-style:normal;font-variant:normal;font-weight:normal;font-stretch:normal;line-height:0%;font-family:'Xiaolai SC';-inkscape-font-specification:'Xiaolai SC';text-align:center;letter-spacing:0px;word-spacing:0px;text-anchor:middle;fill:#000000;fill-opacity:1;stroke:none"
       x="625.38574"
       y="231.53754"
       id="text4246-4-2-7-3"><tspan
         id="tspan3727"
         sodipodi:role="line"
         style="font-style:normal;font-variant:normal;font-weight:normal;font-stretch:normal;font-size:45px;line-height:1.25;font-family:'Xiaolai SC';-inkscape-font-specification:'Xiaolai SC';fill:#000000"
         x="625.38574"
         y="231.53754">小辣椒？</tspan><tspan
         id="tspan102"
         sodipodi:role="line"
         style="font-style:normal;font-variant:normal;font-weight:normal;font-stretch:normal;font-size:45px;line-height:1.25;font-family:'Xiaolai SC';-inkscape-font-specification:'Xiaolai SC';fill:#000000"
         x="625.38574"
         y="287.78754">还好么？</tspan></text>
    <text
       xml:space="preserve"
       style="font-style:normal;font-variant:normal;font-weight:normal;font-stretch:normal;line-height:0%;font-family:'Xiaolai SC';-inkscape-font-specification:'Xiaolai SC';text-align:center;letter-spacing:0px;word-spacing:0px;text-anchor:middle;fill:#000000;fill-opacity:1;stroke:none"
       x="962.49579"
       y="209.38994"
       id="text4246-4-2-7-3-5"><tspan
         id="tspan6111"
         sodipodi:role="line"
         style="font-style:normal;font-variant:normal;font-weight:normal;font-stretch:normal;font-size:45px;line-height:1.25;font-family:'Xiaolai SC';-inkscape-font-specification:'Xiaolai SC';fill:#000000"
         x="962.49579"
         y="209.38994">嗯，</tspan><tspan
         id="tspan106"
         sodipodi:role="line"
         style="font-style:normal;font-variant:normal;font-weight:normal;font-stretch:normal;font-size:45px;line-height:1.25;font-family:'Xiaolai SC';-inkscape-font-specification:'Xiaolai SC';fill:#000000"
         x="962.49579"
         y="265.63992">还好。</tspan></text>
    <text
       xml:space="preserve"
       style="font-style:normal;font-variant:normal;font-weight:normal;font-stretch:normal;line-height:0%;font-family:'Xiaolai SC';-inkscape-font-specification:'Xiaolai SC';text-align:center;letter-spacing:0px;word-spacing:0px;text-anchor:middle;fill:#000000;fill-opacity:1;stroke:none"
       x="1027.3202"
       y="1141.6528"
       id="text4246-4-2-7-3-5-2"><tspan
         id="tspan9293"
         sodipodi:role="line"
         style="font-style:normal;font-variant:normal;font-weight:normal;font-stretch:normal;font-size:45px;line-height:1.25;font-family:'Xiaolai SC';-inkscape-font-specification:'Xiaolai SC';fill:#000000"
         x="1027.3202"
         y="1141.6528">我只不过</tspan><tspan
         id="tspan114"
         sodipodi:role="line"
         style="font-style:normal;font-variant:normal;font-weight:normal;font-stretch:normal;font-size:45px;line-height:1.25;font-family:'Xiaolai SC';-inkscape-font-specification:'Xiaolai SC';fill:#000000"
         x="1027.3202"
         y="1197.9028">突然意识到</tspan><tspan
         id="tspan116"
         sodipodi:role="line"
         style="font-style:normal;font-variant:normal;font-weight:normal;font-stretch:normal;font-size:45px;line-height:1.25;font-family:'Xiaolai SC';-inkscape-font-specification:'Xiaolai SC';fill:#000000"
         x="1027.3202"
         y="1254.1528">一件事。</tspan></text>
    <text
       xml:space="preserve"
       style="font-style:normal;font-variant:normal;font-weight:normal;font-stretch:normal;line-height:0%;font-family:'Xiaolai SC';-inkscape-font-specification:'Xiaolai SC';text-align:center;letter-spacing:0px;word-spacing:0px;text-anchor:middle;fill:#000000;fill-opacity:1;stroke:none"
       x="1818.0691"
       y="1237.4406"
       id="text4246-4-2-7-3-5-2-2"><tspan
         id="tspan360675"
         sodipodi:role="line"
         style="font-style:normal;font-variant:normal;font-weight:normal;font-stretch:normal;font-size:45px;line-height:1.25;font-family:'Xiaolai SC';-inkscape-font-specification:'Xiaolai SC';fill:#000000"
         x="1818.0691"
         y="1237.4406">这一切直接或者间接的结果，</tspan><tspan
         id="tspan122"
         sodipodi:role="line"
         style="font-style:normal;font-variant:normal;font-weight:normal;font-stretch:normal;font-size:45px;line-height:1.25;font-family:'Xiaolai SC';-inkscape-font-specification:'Xiaolai SC';fill:#000000"
         x="1818.0691"
         y="1293.6906">都源自我当初做过的</tspan><tspan
         id="tspan124"
         sodipodi:role="line"
         style="font-style:normal;font-variant:normal;font-weight:normal;font-stretch:normal;font-size:45px;line-height:1.25;font-family:'Xiaolai SC';-inkscape-font-specification:'Xiaolai SC';fill:#000000"
         x="1818.0691"
         y="1349.9406">选择和决定…</tspan></text>
    <text
       xml:space="preserve"
       style="font-style:normal;font-variant:normal;font-weight:normal;font-stretch:normal;line-height:0%;font-family:'Xiaolai SC';-inkscape-font-specification:'Xiaolai SC';text-align:center;letter-spacing:0px;word-spacing:0px;text-anchor:middle;fill:#000000;fill-opacity:1;stroke:none"
       x="1878.3903"
       y="1475.4415"
       id="text4246-4-2-7-3-5-2-2-6"><tspan
         id="tspan269298"
         sodipodi:role="line"
         style="font-style:normal;font-variant:normal;font-weight:normal;font-stretch:normal;font-size:45px;line-height:1.25;font-family:'Xiaolai SC';-inkscape-font-specification:'Xiaolai SC';fill:#000000"
         x="1878.3903"
         y="1475.4415">…换言之，就是连锁反应。</tspan></text>
    <text
       xml:space="preserve"
       style="font-style:normal;font-variant:normal;font-weight:normal;font-stretch:normal;line-height:0%;font-family:'Xiaolai SC';-inkscape-font-specification:'Xiaolai SC';text-align:center;letter-spacing:0px;word-spacing:0px;text-anchor:middle;fill:#000000;fill-opacity:1;stroke:none"
       x="256.14807"
       y="1679.4132"
       id="text4246-4-2-7-3-5-2-2-6-7-2"><tspan
         id="tspan104696-2-8"
         sodipodi:role="line"
         style="font-style:normal;font-variant:normal;font-weight:normal;font-stretch:normal;font-size:45px;line-height:1.25;font-family:'Xiaolai SC';-inkscape-font-specification:'Xiaolai SC';fill:#000000"
         x="256.14807"
         y="1679.4132">真的么？</tspan></text>
    <text
       xml:space="preserve"
       style="font-style:normal;font-variant:normal;font-weight:normal;font-stretch:normal;line-height:0%;font-family:'Xiaolai SC';-inkscape-font-specification:'Xiaolai SC';text-align:center;letter-spacing:0px;word-spacing:0px;text-anchor:middle;fill:#000000;fill-opacity:1;stroke:none"
       x="374.07385"
       y="1767.0973"
       id="text4246-4-2-7-3-5-2-2-6-7-2-9"><tspan
         id="tspan168035"
         sodipodi:role="line"
         style="font-style:normal;font-variant:normal;font-weight:normal;font-stretch:normal;font-size:45px;line-height:1.25;font-family:'Xiaolai SC';-inkscape-font-specification:'Xiaolai SC';fill:#000000"
         x="374.07385"
         y="1767.0973">那你得给我</tspan><tspan
         id="tspan130"
         sodipodi:role="line"
         style="font-style:normal;font-variant:normal;font-weight:normal;font-stretch:normal;font-size:45px;line-height:1.25;font-family:'Xiaolai SC';-inkscape-font-specification:'Xiaolai SC';fill:#000000"
         x="374.07385"
         y="1823.3473">好好解释一下。</tspan></text>
    <text
       xml:space="preserve"
       style="font-style:normal;font-variant:normal;font-weight:normal;font-stretch:normal;line-height:0%;font-family:'Xiaolai SC';-inkscape-font-specification:'Xiaolai SC';text-align:center;letter-spacing:0px;word-spacing:0px;text-anchor:middle;fill:#000000;fill-opacity:1;stroke:none"
       x="920.74133"
       y="1763.3354"
       id="text4246-4-2-7-3-5-2-2-6-7-2-9-3"><tspan
         id="tspan171941"
         sodipodi:role="line"
         style="font-style:normal;font-variant:normal;font-weight:normal;font-stretch:normal;font-size:45px;line-height:1.25;font-family:'Xiaolai SC';-inkscape-font-specification:'Xiaolai SC';fill:#000000"
         x="920.74133"
         y="1763.3354">战场可不是聊天的地方。</tspan></text>
    <text
       xml:space="preserve"
       style="font-style:normal;font-variant:normal;font-weight:normal;font-stretch:normal;line-height:0%;font-family:'Xiaolai SC';-inkscape-font-specification:'Xiaolai SC';text-align:center;letter-spacing:0px;word-spacing:0px;text-anchor:middle;fill:#000000;fill-opacity:1;stroke:none"
       x="923.89789"
       y="1873.3923"
       id="text4246-4-2-7-3-5-2-2-6-7-2-9-3-2"><tspan
         id="tspan184397"
         sodipodi:role="line"
         style="font-style:normal;font-variant:normal;font-weight:normal;font-stretch:normal;font-size:45px;line-height:1.25;font-family:'Xiaolai SC';-inkscape-font-specification:'Xiaolai SC';fill:#000000"
         x="923.89789"
         y="1873.3923">我们起飞以后再说吧。</tspan></text>
    <text
       xml:space="preserve"
       style="font-style:normal;font-variant:normal;font-weight:normal;font-stretch:normal;line-height:0%;font-family:'Xiaolai SC';-inkscape-font-specification:'Xiaolai SC';text-align:center;letter-spacing:0px;word-spacing:0px;text-anchor:middle;fill:#000000;fill-opacity:1;stroke:none"
       x="944.72784"
       y="1987.5563"
       id="text4246-4-2-7-3-5-2-2-6-7-2-9-3-2-9"><tspan
         id="tspan184397-7"
         sodipodi:role="line"
         style="font-style:normal;font-variant:normal;font-weight:normal;font-stretch:normal;font-size:45px;line-height:1.25;font-family:'Xiaolai SC';-inkscape-font-specification:'Xiaolai SC';fill:#000000"
         x="944.72784"
         y="1987.5563">小辣椒，上来！</tspan></text>
    <text
       xml:space="preserve"
       style="font-style:normal;font-variant:normal;font-weight:normal;font-stretch:normal;line-height:0%;font-family:'Xiaolai SC';-inkscape-font-specification:'Xiaolai SC';text-align:center;letter-spacing:0px;word-spacing:0px;text-anchor:middle;fill:#000000;fill-opacity:1;stroke:none"
       x="1582.0555"
       y="2344.3713"
       id="text4246-4-2-7-3-5-2-2-6-7-2-9-3-2-9-8"><tspan
         id="tspan189870"
         sodipodi:role="line"
         style="font-style:normal;font-variant:normal;font-weight:normal;font-stretch:normal;font-size:45px;line-height:1.25;font-family:'Xiaolai SC';-inkscape-font-specification:'Xiaolai SC';fill:#000000"
         x="1582.0555"
         y="2344.3713">香榧子说的对。</tspan></text>
    <text
       xml:space="preserve"
       style="font-style:normal;font-variant:normal;font-weight:normal;font-stretch:normal;line-height:0%;font-family:'Xiaolai SC';-inkscape-font-specification:'Xiaolai SC';text-align:center;letter-spacing:0px;word-spacing:0px;text-anchor:middle;fill:#000000;fill-opacity:1;stroke:none"
       x="1610.3887"
       y="2427.0361"
       id="text4246-4-2-7-3-5-2-2-6-7-2-9-3-2-9-8-3"><tspan
         id="tspan33972"
         sodipodi:role="line"
         style="font-style:normal;font-variant:normal;font-weight:normal;font-stretch:normal;font-size:45px;line-height:1.25;font-family:'Xiaolai SC';-inkscape-font-specification:'Xiaolai SC';fill:#000000"
         x="1610.3887"
         y="2427.0361">无论如何，</tspan><tspan
         id="tspan142"
         sodipodi:role="line"
         style="font-style:normal;font-variant:normal;font-weight:normal;font-stretch:normal;font-size:45px;line-height:1.25;font-family:'Xiaolai SC';-inkscape-font-specification:'Xiaolai SC';fill:#000000"
         x="1610.3887"
         y="2483.2861">我们得先去质城。</tspan></text>
    <text
       xml:space="preserve"
       style="font-style:normal;font-variant:normal;font-weight:normal;font-stretch:normal;line-height:0%;font-family:'Xiaolai SC';-inkscape-font-specification:'Xiaolai SC';text-align:center;letter-spacing:0px;word-spacing:0px;text-anchor:middle;fill:#000000;fill-opacity:1;stroke:none"
       x="2148.6191"
       y="2465.1724"
       id="text4246-4-2-7-3-5-2-2-6-7-2-9-3-2-9-8-5"><tspan
         id="tspan194276"
         sodipodi:role="line"
         style="font-style:normal;font-variant:normal;font-weight:normal;font-stretch:normal;font-size:45px;line-height:1.25;font-family:'Xiaolai SC';-inkscape-font-specification:'Xiaolai SC';fill:#000000"
         x="2148.6191"
         y="2465.1724">不，</tspan><tspan
         id="tspan146"
         sodipodi:role="line"
         style="font-style:normal;font-variant:normal;font-weight:normal;font-stretch:normal;font-size:45px;line-height:1.25;font-family:'Xiaolai SC';-inkscape-font-specification:'Xiaolai SC';fill:#000000"
         x="2148.6191"
         y="2521.4224">等一下。</tspan></text>
    <text
       xml:space="preserve"
       style="font-style:normal;font-variant:normal;font-weight:normal;font-stretch:normal;line-height:0%;font-family:'Xiaolai SC';-inkscape-font-specification:'Xiaolai SC';text-align:center;letter-spacing:0px;word-spacing:0px;text-anchor:middle;fill:#000000;fill-opacity:1;stroke:none"
       x="368.46533"
       y="2791.4211"
       id="text4246-4-2-7-3-5-2-2-6-7-2-9-3-2-9-8-5-1"><tspan
         id="tspan199194"
         sodipodi:role="line"
         style="font-style:normal;font-variant:normal;font-weight:normal;font-stretch:normal;font-size:45px;line-height:1.25;font-family:'Xiaolai SC';-inkscape-font-specification:'Xiaolai SC';fill:#000000"
         x="368.46533"
         y="2791.4211">绿芥末的军队</tspan><tspan
         id="tspan150"
         sodipodi:role="line"
         style="font-style:normal;font-variant:normal;font-weight:normal;font-stretch:normal;font-size:45px;line-height:1.25;font-family:'Xiaolai SC';-inkscape-font-specification:'Xiaolai SC';fill:#000000"
         x="368.46533"
         y="2847.6711">已经准备好要反击了。</tspan></text>
    <text
       xml:space="preserve"
       style="font-style:normal;font-variant:normal;font-weight:normal;font-stretch:normal;line-height:0%;font-family:'Xiaolai SC';-inkscape-font-specification:'Xiaolai SC';text-align:center;letter-spacing:0px;word-spacing:0px;text-anchor:middle;fill:#000000;fill-opacity:1;stroke:none"
       x="362.23334"
       y="2937.0781"
       id="text4246-4-2-7-3-5-2-2-6-7-2-9-3-2-9-8-5-1-3"><tspan
         id="tspan207740"
         sodipodi:role="line"
         style="font-style:normal;font-variant:normal;font-weight:normal;font-stretch:normal;font-size:45px;line-height:1.25;font-family:'Xiaolai SC';-inkscape-font-specification:'Xiaolai SC';fill:#000000"
         x="362.23334"
         y="2937.0781">我们不能眼睁睁地</tspan><tspan
         id="tspan156"
         sodipodi:role="line"
         style="font-style:normal;font-variant:normal;font-weight:normal;font-stretch:normal;font-size:45px;line-height:1.25;font-family:'Xiaolai SC';-inkscape-font-specification:'Xiaolai SC';fill:#000000"
         x="362.23334"
         y="2993.3281">看着他们互相残杀。</tspan></text>
    <text
       xml:space="preserve"
       style="font-style:normal;font-variant:normal;font-weight:normal;font-stretch:normal;line-height:0%;font-family:'Xiaolai SC';-inkscape-font-specification:'Xiaolai SC';text-align:center;letter-spacing:0px;word-spacing:0px;text-anchor:middle;fill:#000000;fill-opacity:1;stroke:none"
       x="1425.1486"
       y="2816.2253"
       id="text4246-4-2-7-3-5-2-2-6-7-2-9-3-2-9-8-5-1-3-6"><tspan
         id="tspan216256"
         sodipodi:role="line"
         style="font-style:normal;font-variant:normal;font-weight:normal;font-stretch:normal;font-size:45px;line-height:1.25;font-family:'Xiaolai SC';-inkscape-font-specification:'Xiaolai SC';fill:#000000"
         x="1425.1486"
         y="2816.2253">我的直觉告诉我，</tspan><tspan
         id="tspan162"
         sodipodi:role="line"
         style="font-style:normal;font-variant:normal;font-weight:normal;font-stretch:normal;font-size:45px;line-height:1.25;font-family:'Xiaolai SC';-inkscape-font-specification:'Xiaolai SC';fill:#000000"
         x="1425.1486"
         y="2872.4753">制止这场战争是我的责任。</tspan></text>
  </g>
</svg>
