<?xml version="1.0" encoding="UTF-8" standalone="no"?>
<svg
   xmlns:dc="http://purl.org/dc/elements/1.1/"
   xmlns:cc="http://creativecommons.org/ns#"
   xmlns:rdf="http://www.w3.org/1999/02/22-rdf-syntax-ns#"
   xmlns:svg="http://www.w3.org/2000/svg"
   xmlns="http://www.w3.org/2000/svg"
   xmlns:xlink="http://www.w3.org/1999/xlink"
   xmlns:sodipodi="http://sodipodi.sourceforge.net/DTD/sodipodi-0.dtd"
   xmlns:inkscape="http://www.inkscape.org/namespaces/inkscape"
   sodipodi:docname="E36P03.svg"
   height="3503"
   width="2481"
   inkscape:version="1.0 (4035a4fb49, 2020-05-01)"
   version="1.1"
   id="svg2">
  <metadata
     id="metadata8">
    <rdf:RDF>
      <cc:Work
         rdf:about="">
        <dc:format>image/svg+xml</dc:format>
        <dc:type
           rdf:resource="http://purl.org/dc/dcmitype/StillImage" />
        <dc:title />
      </cc:Work>
    </rdf:RDF>
  </metadata>
  <defs
     id="defs6">
    <filter
       height="1.058486"
       width="1.0485156"
       y="-0.029242994"
       x="-0.024257822"
       id="filter51433"
       style="color-interpolation-filters:sRGB"
       inkscape:collect="always">
      <feGaussianBlur
         id="feGaussianBlur51435"
         stdDeviation="2.6637087"
         inkscape:collect="always" />
    </filter>
    <filter
       y="-0.099582237"
       style="color-interpolation-filters:sRGB"
       id="filter4375-4-1-1-1-9-5-8-8-3-3-3-6-6"
       inkscape:label="magic-Fx-blue"
       height="1.2861297"
       width="1.0703807"
       x="-0.036401986">
      <feFlood
         id="feFlood4377-7-9-0-8-1-7-3-1-6-61-6-2-1"
         flood-opacity="1"
         flood-color="rgb(86,110,161)"
         result="flood"
         radius="5.0999999999999996" />
      <feComposite
         id="feComposite4379-3-8-8-2-77-4-1-0-7-2-7-6-8"
         in2="SourceGraphic"
         in="flood"
         operator="in"
         result="composite1"
         baseFrequency="0.053999999999999999 0.053999999999999999" />
      <feMorphology
         id="feMorphology4393-1-0-49-8-9-3-0-1-5-9-5-1-7"
         operator="dilate"
         radius="0.96959439099754563"
         result="result3" />
      <feComposite
         id="feComposite4385-9-5-7-0-8-8-7-5-3-3-3-8-9"
         in2="result3"
         in="SourceGraphic"
         operator="over"
         result="fbSourceGraphic"
         numOctaves="4" />
      <feColorMatrix
         result="fbSourceGraphicAlpha"
         in="fbSourceGraphic"
         values="0 0 0 -1 0 0 0 0 -1 0 0 0 0 -1 0 0 0 0 1 0"
         id="feColorMatrix4544-9-5-1-5-7-2" />
      <feTurbulence
         id="feTurbulence4546-3-6-9-6-9-0"
         type="fractalNoise"
         numOctaves="4.4123222748815163"
         seed="172"
         baseFrequency="0.062 0.054054054054054057"
         result="turbulence" />
      <feDisplacementMap
         id="feDisplacementMap4548-8-2-4-2-2-2"
         in2="turbulence"
         in="fbSourceGraphic"
         scale="11.642079"
         yChannelSelector="G"
         xChannelSelector="R"
         result="fbSourceGraphic" />
      <feColorMatrix
         result="fbSourceGraphicAlpha"
         in="fbSourceGraphic"
         values="0 0 0 -1 0 0 0 0 -1 0 0 0 0 -1 0 0 0 0 1 0"
         id="feColorMatrix4670-7-9-7-9-0-3"
         scale="10.800000000000001" />
      <feComposite
         id="feComposite4674-8-2-4-1-2-7"
         in2="fbSourceGraphic"
         in="flood"
         operator="in"
         result="composite1" />
      <feGaussianBlur
         id="feGaussianBlur4676-3-7-50-2-3-5"
         in="composite1"
         stdDeviation="1.6836129"
         result="blur" />
      <feOffset
         id="feOffset4678-6-0-3-7-7-9"
         dx="-0.42771311737301687"
         dy="5.2374444725016502"
         result="offset" />
      <feComposite
         id="feComposite4680-4-9-6-0-5-2"
         in2="offset"
         in="fbSourceGraphic"
         operator="over"
         result="composite2" />
      <feGaussianBlur
         id="feGaussianBlur58-9-9-2"
         stdDeviation="0.60935760846819198" />
      <feOffset
         id="feOffset60-3-2-8"
         dy="0"
         dx="0" />
    </filter>
  </defs>
  <sodipodi:namedview
     inkscape:document-rotation="0"
     inkscape:snap-global="false"
     inkscape:pagecheckerboard="0"
     inkscape:current-layer="layer1"
     inkscape:window-maximized="1"
     inkscape:window-y="-8"
     inkscape:window-x="-8"
     inkscape:cy="2846.5018"
     inkscape:cx="1246.7712"
     inkscape:zoom="0.45"
     showgrid="false"
     id="namedview4"
     inkscape:window-height="715"
     inkscape:window-width="1366"
     inkscape:pageshadow="2"
     inkscape:pageopacity="0"
     guidetolerance="10"
     gridtolerance="10"
     objecttolerance="10"
     borderopacity="1"
     bordercolor="#111111"
     pagecolor="#1e1e1e" />
  <g
     sodipodi:insensitive="true"
     inkscape:label="artwork"
     id="layer2"
     inkscape:groupmode="layer">
    <image
       sodipodi:absref="D:\Pepper&amp;Carrot translation\ep36_the-suprise-attack\lang\gfx_Pepper-and-Carrot_by-David-Revoy_E36P03.png"
       xlink:href="../gfx_Pepper-and-Carrot_by-David-Revoy_E36P03.png"
       y="0"
       x="0"
       id="image10"
       height="3503"
       width="2481" />
  </g>
  <g
     style="display:inline;opacity:0.7;mix-blend-mode:screen;filter:url(#filter51433)"
     inkscape:label="speechbubble-whisper"
     id="layer4"
     inkscape:groupmode="layer">
    <path
       sodipodi:nodetypes="csssc"
       inkscape:connector-curvature="0"
       id="path3280-5"
       d="m 1740.0156,187.2451 c -29.6001,1.27749 -60.2717,7.20119 -85.1299,24.11835 -21.1377,17.19334 -27.7311,45.68909 -29.2225,71.70859 -1.0295,23.84603 1.6516,47.97428 8.1435,70.93705 5.0136,15.3296 17.0778,27.39522 31.5547,34.0922 29.9501,15.04314 64.2339,18.26027 97.2911,18.17252 30.4741,-0.85562 61.9396,-3.67596 89.7472,-17.14071 18.1082,-8.56666 32.0782,-25.78162 34.8645,-45.82889 4.551,-27.83186 2.7088,-56.27796 -1.1447,-84.06565 -4.0456,-22.34987 -16.3456,-44.57066 -37.3235,-54.91527 -26.7111,-14.27163 -57.8347,-14.89424 -87.3377,-16.72979 -7.1438,-0.27434 -14.2937,-0.39144 -21.4427,-0.3484 z"
       style="display:inline;fill:#cdf0ff;fill-opacity:1;stroke:none;stroke-width:0.536241" />
    <path
       transform="matrix(1.1165924,0,0,0.92917234,-174.25777,0.36978685)"
       sodipodi:nodetypes="csssc"
       inkscape:connector-curvature="0"
       id="path3280-5-2"
       d="m 1708.9863,394.91211 c -28.6289,1.41051 -57.9874,7.77024 -82.0896,23.91063 -21.878,17.61185 -28.0694,47.08568 -29.3856,73.78778 -0.819,23.28018 1.9507,46.79415 8.4069,69.17298 5.0997,15.56893 17.5867,27.59295 32.3165,34.23134 33.0998,16.06632 70.8778,18.15667 107.0647,17.36983 28.0108,-1.4647 57.9867,-5.61777 80.2927,-24.16397 18.9047,-14.83119 30.8715,-37.4229 33.57,-61.21118 3.2126,-25.33324 2.6561,-52.184 -7.2872,-76.06123 -9.8072,-23.8171 -30.4068,-43.43965 -55.8409,-49.3229 -28.3333,-6.89167 -57.997,-7.5903 -87.0475,-7.71328 z"
       style="display:inline;opacity:1;fill:#cdf0ff;fill-opacity:1;stroke:none;stroke-width:0.536241;filter:url(#filter51433)" />
    <path
       sodipodi:nodetypes="ccscc"
       inkscape:connector-curvature="0"
       id="path4035-4"
       d="m 1719.3194,532.89168 c 36.6025,26.98252 13.0291,94.40607 -44.5247,110.04187 25.0213,-8.11557 100.3251,-9.20388 96.6789,-117.06904 -1.8701,-55.32427 -32.7694,7.35791 -32.7694,7.35791 z"
       style="color:#000000;display:inline;overflow:visible;visibility:visible;fill:#cdf0ff;fill-opacity:1;fill-rule:nonzero;stroke:none;stroke-width:1.0259px;marker:none;enable-background:accumulate" />
    <path
       sodipodi:nodetypes="zsssssz"
       inkscape:connector-curvature="0"
       id="path3330-0"
       d="m 215.64625,2235.707 c 40.04673,-36.929 262.11434,-31.2809 331.18643,-21.7693 75.37971,10.3799 98.588,25.0876 101.95869,57.3231 1.04118,9.9567 -5.05608,55.1083 -42.13473,63.997 -37.07859,8.8881 -143.25804,13.3325 -180.33668,13.3325 -37.07854,0 -155.44149,-5.6571 -185.39313,-18.666 -28.65157,-12.4434 -65.32741,-57.2889 -25.28058,-94.2173 z"
       style="color:#000000;display:inline;overflow:visible;visibility:visible;fill:#cdf0ff;fill-opacity:1;fill-rule:nonzero;stroke:none;stroke-width:0.796939px;marker:none;enable-background:accumulate" />
    <path
       sodipodi:nodetypes="csssssc"
       inkscape:connector-curvature="0"
       id="path3365-74"
       d="m 534.62765,2385.4022 c -1.8206,-13.2121 18.14104,-68.8282 129.20018,-60.0198 111.05914,8.8083 122.65903,19.8978 127.7265,67.3196 1.87291,17.5255 -15.40997,43.06 -31.79577,47.4636 -16.38579,4.4046 -64.29486,16.8373 -91.60442,13.3138 -27.30963,-3.5236 -67.62248,-2.6871 -107.80321,-21.1612 -24.25119,-11.1504 -23.9026,-43.3926 -25.72328,-46.916 z"
       style="color:#000000;display:inline;overflow:visible;visibility:visible;fill:#cdf0ff;fill-opacity:1;fill-rule:nonzero;stroke:none;stroke-width:0.889042px;marker:none;enable-background:accumulate" />
    <path
       sodipodi:nodetypes="cssssc"
       inkscape:connector-curvature="0"
       id="path4546-6-5-3"
       d="m 846.34287,2446.1294 c -1.12753,-56.1369 48.23579,-90.3305 183.69513,-81.0384 70.2676,4.8203 155.7576,10.3587 144.1498,94.6402 -10.2305,74.2833 -125.0024,63.2841 -148.2131,64.1607 -23.2111,0.8766 -143.42337,-3.3479 -163.48515,-29.5505 -12.55812,-16.4028 -17.15581,-32.4335 -16.14668,-48.212 z"
       style="color:#000000;display:inline;overflow:visible;visibility:visible;fill:#cdf0ff;fill-opacity:1;fill-rule:nonzero;stroke:none;stroke-width:0.807145px;marker:none;enable-background:accumulate" />
    <path
       id="path66187"
       d="m 516.26303,2305.3302 c 77.73786,71.3301 343.81979,137.4338 468.03666,123.7816 56.20701,1.4325 107.09181,112.3825 -77.57388,181.9225 103.18649,-73.9231 107.10899,-112.2062 84.55661,-152.9846 -231.13158,-14.8725 -410.95516,-78.9759 -490.52973,-138.3793 -1.44988,-34.5447 15.51034,-14.3402 15.51034,-14.3402 z"
       style="fill:#cdf0ff;fill-opacity:1;fill-rule:evenodd;stroke:none;stroke-width:0.992195px;stroke-linecap:butt;stroke-linejoin:miter;stroke-opacity:1" />
    <path
       sodipodi:nodetypes="csccscc"
       inkscape:connector-curvature="0"
       id="path3357-3"
       d="m 1460.1997,3074.7623 c -0.9883,-25.7873 4.0515,-42.8878 26.685,-56.5883 20.6047,-12.4718 65.9767,-15.9189 96.2518,-15.9189 48.9354,-0.1761 174.5497,-4.8173 159.7271,75.7445 -0.5854,38.2111 -73.5808,39.8773 -88.4059,42.9714 -14.825,3.0942 -74.0901,3.777 -87.9268,2.7457 -50.8675,1.8751 -104.5644,-17.5274 -106.3312,-48.9544 z"
       style="color:#000000;display:inline;overflow:visible;visibility:visible;fill:#cdf0ff;fill-opacity:1;fill-rule:nonzero;stroke:none;stroke-width:0.863748px;marker:none;enable-background:accumulate" />
    <path
       sodipodi:nodetypes="csssscsssssscccc"
       inkscape:connector-curvature="0"
       id="path3023"
       d="m 1793.5726,3174.4599 c -12.6309,0.9948 -21.7509,-0.1689 -30.6236,-4.0923 -5.2932,-2.3406 -7.6656,-9.8926 -9.5288,-15.0858 -2.9414,-8.0739 -4.6252,-17.2277 -11.1432,-23.3655 -5.5035,-4.7753 -12.7976,-6.8331 -19.8235,-8.1246 -4.9899,-0.7939 -10.0745,-0.9258 -15.1082,-0.5301 -12.5231,-2.2362 -12.1613,-15.2606 -16.0589,-20.888 -3.2358,-4.3315 -6.0568,-1.4455 -9.6096,-5.5051 -6.9289,-7.2641 -9.6595,-1.2352 -14.3778,5.5886 -4.8023,6.9455 -3.5286,10.258 5.0592,26.7368 5.5996,11.3289 18.3851,19.618 31.2363,17.5947 3.9927,-0.6908 7.5859,-2.9978 11.7217,-3.0257 6.5594,-0.6097 13.6771,2.3908 16.7872,8.4135 4.512,6.5347 6.7951,14.4886 12.1799,20.426 2.8451,3.1564 6.8355,4.9172 10.9372,5.738 12.7279,3.2922 26.4259,1.3706 38.3521,-3.8805 z"
       style="fill:#cdf0ff;fill-opacity:1;stroke:none;stroke-width:0.742591" />
  </g>
  <g
     style="display:inline;mix-blend-mode:normal"
     inkscape:label="speechbubbles"
     id="layer3"
     inkscape:groupmode="layer">
    <path
       style="display:inline;fill:#ffffff;fill-rule:evenodd;stroke:none;stroke-width:0.820606px;stroke-linecap:butt;stroke-linejoin:miter;stroke-opacity:1"
       d="m 615.89003,195.24638 c 62.64898,17.14938 43.44562,-5.79076 44.53396,-22.18543 23.39847,20.40008 53.55533,39.22566 53.98087,-0.83191 20.94243,28.67833 31.33023,46.01276 57.55092,6.76033 11.4155,23.32626 18.33391,30.06685 88.73052,-20.67521 -6.29145,19.34517 -26.1931,56.80406 69.31985,13.15987 -6.37521,6.43008 -59.69932,48.59488 56.71684,-4.53114 -38.09449,23.94636 -84.48931,62.23185 8.95438,32.25348 -44.40739,28.07336 -59.25212,49.83279 24.97783,50.43169 -33.51023,18.21389 -66.12934,36.31175 3.9932,41.03179 -32.47328,1.20237 -62.20375,7.01282 -6.9155,24.46448 -49.98908,-9.5484 -66.76052,2.26607 -21.12324,24.3588 -64.83132,-4.18248 -79.03449,-12.26444 -26.25065,23.62065 -48.30338,-17.70741 -69.21831,-17.91329 -61.16381,3.69681 -54.37298,-38.4679 -42.95079,-1.35616 -34.6719,9.10259 -55.86929,-45.32539 -59.52781,-9.39316 -65.61894,0.1429 -31.18981,-37.58158 -97.20277,-43.18711 -113.83322,-0.017 -9.46574,-23.14336 -40.11422,-32.39898 -83.76116,-2.25713 13.42411,-26.68419 -9.79725,-37.73275 -56.63608,-24.83232 34.75866,-23.06489 3.78699,-28.05806 -42.75909,-17.04556 31.56747,-20.82629 30.50742,-29.3321 0.46505,-31.80679 50.76459,-18.42376 15.64042,-30.03129 -37.58469,-40.20237 37.7377,-4.76091 86.35566,-7.62555 24.22608,-29.79167 49.6106,4.17143 74.65808,2.57177 26.90224,-16.13305 32.86368,7.04994 67.57905,4.41389 38.74816,-18.64825 60.94188,19.82579 58.4862,6.56084 51.21838,-0.0653 z"
       id="path1399"
       sodipodi:nodetypes="ccccccccccccccccccccccccccc" />
    <path
       sodipodi:nodetypes="cccc"
       inkscape:connector-curvature="0"
       id="path4008-4"
       d="m 870.68739,303.25484 c 7.72209,41.35398 49.55771,207.43487 191.58001,156.97532 -166.83095,83.10976 -227.9252,-160.66263 -237.22492,-188.52404 -11.65313,-16.49189 45.64491,31.54872 45.64491,31.54872 z"
       style="color:#000000;display:inline;overflow:visible;visibility:visible;fill:#ffffff;fill-opacity:1;fill-rule:nonzero;stroke:none;stroke-width:0.617876px;marker:none;enable-background:accumulate" />
    <path
       sodipodi:nodetypes="cccccccccccccccccccccccccccc"
       inkscape:connector-curvature="0"
       id="path4508-2"
       d="m 1129.9084,1284.7936 c 28.1865,22.0255 44.2419,13.0685 43.7581,-38.1297 13.4476,55.3264 22.7796,67.7003 28.3142,40.4407 17.8037,23.4304 28.9236,16.8577 37.7521,0 3.2906,21.6804 11.5932,17.8192 16.4545,11.8545 -1.1357,6.5168 -0.7838,15.1306 23.0136,0.8554 -0.8313,6.2852 4.2433,12.0832 20.592,-2.311 4.2354,26.3522 17.8247,-1.4609 31.7462,-31.1968 -8.6735,36.5578 -5.0769,41.7218 6.0061,27.7307 -5.0671,15.0549 -8.0977,26.7093 11.1539,1.1551 -6.5908,27.7882 10.7002,8.7147 38.6102,-31.1968 -13.961,29.5027 -50.9824,79.2257 -26.598,75.1036 -3.4006,8.6972 -15.5303,16.2749 20.592,30.041 -7.2233,0.4555 -33.7342,3.1683 -7.384,21.7043 -13.9483,-0.4945 -8.1755,5.2669 6.526,12.9593 -8.6784,-0.5239 -14.0007,1.3461 -6.006,12.7092 -15.8414,-0.6138 -18.8339,3.0112 -7.2036,18.251 -19.7677,-12.6946 -25.1466,-15.0016 -16.9712,9.5156 -28.7512,-26.6527 -35.6436,-29.9121 -22.2335,0.3 -38.0017,-29.153 -39.1061,-21.971 -53.1202,7.7521 -3.67,-18.4869 -11.0282,-32.7173 -42.0421,-19.642 7.6281,-18.5214 -11.0149,-7.1366 -24.1711,5.529 8.9913,-16.4652 -9.505,-13.6029 -35.0311,14.113 14.6243,-32.4448 -1.9855,-20.7246 -26.5981,2.311 9.2994,-31.874 -5.8457,-47.2883 -42.0422,-48.5287 17.3248,-11.4966 27.4276,-25.9656 9.4381,-51.9939 20.2794,7.6636 26.3284,0.545 12.012,-27.7308 22.1194,23.2085 12.0626,-10.4541 3.4321,-41.5958 z"
       style="display:inline;fill:#ffffff;fill-rule:evenodd;stroke:none;stroke-width:0.644725px;stroke-linecap:butt;stroke-linejoin:miter;stroke-opacity:1" />
    <path
       sodipodi:nodetypes="cccccccccccc"
       inkscape:connector-curvature="0"
       id="path4032-1"
       d="m 1529.2043,1531.0318 c -26.9474,-31.2708 -59.9834,-60.3698 -79.8554,-94.1658 l -3.285,30.7651 c -15.0498,-9.9953 -21.7942,-24.8956 -31.3589,-38.1306 l -6.317,18.293 c -32.9632,-27.3415 -57.8887,-59.7803 -86.4652,-88.7225 l -7.9573,35.8506 c 38.968,18.6225 72.2495,52.1917 98.1736,81.2762 l 8.7127,-17.1146 c 10.6542,9.2624 20.8921,18.8192 29.2707,29.6888 l 8.2295,-22.5142 z"
       style="color:#000000;display:inline;overflow:visible;visibility:visible;fill:#ffffff;fill-opacity:1;fill-rule:nonzero;stroke:none;stroke-width:0.926668px;marker:none;enable-background:accumulate" />
  </g>
  <g
     style="display:inline"
     inkscape:label="txt"
     id="layer1"
     inkscape:groupmode="layer">
    <text
       inkscape:label="pepperB"
       xml:space="preserve"
       style="font-style:normal;font-variant:normal;font-weight:normal;font-stretch:normal;line-height:0%;font-family:'Xiaolai SC';-inkscape-font-specification:'Xiaolai SC';text-align:center;letter-spacing:0px;word-spacing:0px;text-anchor:middle;fill:#000000;fill-opacity:1;stroke:none"
       x="782.20367"
       y="299.89035"
       id="text4246-4-2-7"><tspan
         id="tspan3279"
         sodipodi:role="line"
         style="font-style:normal;font-variant:normal;font-weight:normal;font-stretch:normal;font-size:45px;line-height:1.25;font-family:'Xiaolai SC';-inkscape-font-specification:'Xiaolai SC'"
         x="782.20367"
         y="299.89035">我怎么会这么幼稚！</tspan></text>
    <text
       inkscape:label="pepperB"
       xml:space="preserve"
       style="font-style:normal;font-variant:normal;font-weight:normal;font-stretch:normal;line-height:0%;font-family:'Xiaolai SC';-inkscape-font-specification:'Xiaolai SC';text-align:center;letter-spacing:0px;word-spacing:0px;text-anchor:middle;fill:#000000;fill-opacity:1;stroke:none"
       x="1766.772"
       y="271.54745"
       id="text4246-4-2-7-3"><tspan
         id="tspan15762"
         sodipodi:role="line"
         style="font-style:normal;font-variant:normal;font-weight:normal;font-stretch:normal;font-size:45px;line-height:1.25;font-family:'Xiaolai SC';-inkscape-font-specification:'Xiaolai SC'"
         x="1766.772"
         y="271.54745">嘘~~~</tspan><tspan
         id="tspan68"
         sodipodi:role="line"
         style="font-style:normal;font-variant:normal;font-weight:normal;font-stretch:normal;font-size:45px;line-height:1.25;font-family:'Xiaolai SC';-inkscape-font-specification:'Xiaolai SC'"
         x="1766.772"
         y="327.79745">小辣椒！</tspan></text>
    <text
       inkscape:label="pepperB"
       xml:space="preserve"
       style="font-style:normal;font-variant:normal;font-weight:normal;font-stretch:normal;line-height:0%;font-family:'Xiaolai SC';-inkscape-font-specification:'Xiaolai SC';text-align:center;letter-spacing:0px;word-spacing:0px;text-anchor:middle;display:inline;fill:#000000;fill-opacity:1;stroke:none"
       x="1773.9813"
       y="485.27756"
       id="text4246-4-2-7-3-36"><tspan
         id="tspan15762-5"
         sodipodi:role="line"
         style="font-style:normal;font-variant:normal;font-weight:normal;font-stretch:normal;font-size:45px;line-height:1.25;font-family:'Xiaolai SC';-inkscape-font-specification:'Xiaolai SC'"
         x="1773.9813"
         y="485.27756">别出声！</tspan></text>
    <text
       inkscape:label="pepperB"
       xml:space="preserve"
       style="font-style:normal;font-variant:normal;font-weight:normal;font-stretch:normal;font-size:55px;line-height:0%;font-family:'Xiaolai SC';-inkscape-font-specification:'Xiaolai SC';text-align:center;letter-spacing:0px;word-spacing:0px;text-anchor:middle;fill:#000000;fill-opacity:1;stroke:none;stroke-width:1.26378"
       x="1248.106"
       y="1385.4877"
       id="text4246-4-2-7-3-3"><tspan
         id="tspan15762-9"
         sodipodi:role="line"
         style="font-style:normal;font-variant:normal;font-weight:normal;font-stretch:normal;font-size:55px;line-height:1.25;font-family:'Xiaolai SC';-inkscape-font-specification:'Xiaolai SC';stroke-width:1.26378"
         x="1248.106"
         y="1385.4877">是谁？</tspan></text>
    <text
       inkscape:label="pepperB"
       xml:space="preserve"
       style="font-style:normal;font-variant:normal;font-weight:normal;font-stretch:normal;line-height:0%;font-family:'Xiaolai SC';-inkscape-font-specification:'Xiaolai SC';text-align:center;letter-spacing:0px;word-spacing:0px;text-anchor:middle;fill:#000000;fill-opacity:1;stroke:none"
       x="428.54575"
       y="2261.7256"
       id="text4246-4-2-7-3-1"><tspan
         id="tspan15762-93"
         sodipodi:role="line"
         style="font-style:normal;font-variant:normal;font-weight:normal;font-stretch:normal;font-size:45px;line-height:1.25;font-family:'Xiaolai SC';-inkscape-font-specification:'Xiaolai SC'"
         x="428.54575"
         y="2261.7256">嘘~~~！</tspan><tspan
         id="tspan72"
         sodipodi:role="line"
         style="font-style:normal;font-variant:normal;font-weight:normal;font-stretch:normal;font-size:45px;line-height:1.25;font-family:'Xiaolai SC';-inkscape-font-specification:'Xiaolai SC'"
         x="428.54575"
         y="2317.9756">跟你说了别出声！</tspan></text>
    <text
       inkscape:label="pepperB"
       xml:space="preserve"
       style="font-style:normal;font-variant:normal;font-weight:normal;font-stretch:normal;line-height:0%;font-family:'Xiaolai SC';-inkscape-font-specification:'Xiaolai SC';text-align:center;letter-spacing:0px;word-spacing:0px;text-anchor:middle;fill:#000000;fill-opacity:1;stroke:none"
       x="656.43939"
       y="2402.084"
       id="text4246-4-2-7-3-1-6"><tspan
         id="tspan15762-93-0"
         sodipodi:role="line"
         style="font-style:normal;font-variant:normal;font-weight:normal;font-stretch:normal;font-size:45px;line-height:1.25;font-family:'Xiaolai SC';-inkscape-font-specification:'Xiaolai SC'"
         x="656.43939"
         y="2402.084">过来</tspan></text>
    <text
       inkscape:label="pepperB"
       xml:space="preserve"
       style="font-style:normal;font-variant:normal;font-weight:normal;font-stretch:normal;line-height:0%;font-family:'Xiaolai SC';-inkscape-font-specification:'Xiaolai SC';text-align:center;letter-spacing:0px;word-spacing:0px;text-anchor:middle;fill:#000000;fill-opacity:1;stroke:none"
       x="1017.1805"
       y="2431.4963"
       id="text4246-4-2-7-3-1-6-6"><tspan
         id="tspan62504"
         sodipodi:role="line"
         style="font-style:normal;font-variant:normal;font-weight:normal;font-stretch:normal;font-size:45px;line-height:1.25;font-family:'Xiaolai SC';-inkscape-font-specification:'Xiaolai SC'"
         x="1017.1805"
         y="2431.4963">我是来</tspan><tspan
         id="tspan76"
         sodipodi:role="line"
         style="font-style:normal;font-variant:normal;font-weight:normal;font-stretch:normal;font-size:45px;line-height:1.25;font-family:'Xiaolai SC';-inkscape-font-specification:'Xiaolai SC'"
         x="1017.1805"
         y="2487.7463">放你出去的。</tspan></text>
    <text
       inkscape:label="FXC"
       xml:space="preserve"
       style="font-style:normal;font-variant:normal;font-weight:normal;font-stretch:normal;line-height:0%;font-family:'Xiaolai SC';-inkscape-font-specification:'Xiaolai SC';letter-spacing:3.03024px;word-spacing:0px;opacity:1;mix-blend-mode:normal;fill:#e5fffe;fill-opacity:1;stroke:#4082aa;stroke-width:0.988344;stroke-miterlimit:4;stroke-dasharray:none;stroke-opacity:1;filter:url(#filter4375-4-1-1-1-9-5-8-8-3-3-3-6-6)"
       x="787.65729"
       y="1584.5073"
       id="text4580-6-0-0-3-3-63"
       transform="matrix(1.1333577,-0.39613562,0.12835025,1.2373956,849.39304,747.66885)"><tspan
         sodipodi:role="line"
         id="tspan4582-1-1-0-6-9-9"
         x="787.65729"
         y="1584.5073"
         style="font-style:normal;font-variant:normal;font-weight:normal;font-stretch:normal;font-size:70px;line-height:1.25;font-family:'Xiaolai SC';-inkscape-font-specification:'Xiaolai SC';fill:#e5fffe;fill-opacity:1;stroke:#4082aa;stroke-width:0.988344;stroke-miterlimit:4;stroke-dasharray:none;stroke-opacity:1">呲呲~~~</tspan></text>
    <text
       id="text4246-70-2-2-2"
       y="3082.3967"
       x="1612.7946"
       style="font-style:normal;font-variant:normal;font-weight:normal;font-stretch:normal;line-height:0%;font-family:'Xiaolai SC';-inkscape-font-specification:'Xiaolai SC';text-align:center;letter-spacing:0px;word-spacing:0px;text-anchor:middle;fill:#000000;fill-opacity:1;stroke:none"
       xml:space="preserve"><tspan
         id="tspan4406-9"
         y="3082.3967"
         x="1612.7946"
         style="font-style:normal;font-variant:normal;font-weight:normal;font-stretch:normal;font-size:45px;line-height:1.25;font-family:'Xiaolai SC';-inkscape-font-specification:'Xiaolai SC'"
         sodipodi:role="line">七味粉？</tspan></text>
  </g>
</svg>
