<?xml version="1.0" encoding="UTF-8" standalone="no"?>
<!-- Created with Inkscape (http://www.inkscape.org/) -->

<svg
   xmlns:osb="http://www.openswatchbook.org/uri/2009/osb"
   xmlns:dc="http://purl.org/dc/elements/1.1/"
   xmlns:cc="http://creativecommons.org/ns#"
   xmlns:rdf="http://www.w3.org/1999/02/22-rdf-syntax-ns#"
   xmlns:svg="http://www.w3.org/2000/svg"
   xmlns="http://www.w3.org/2000/svg"
   xmlns:xlink="http://www.w3.org/1999/xlink"
   xmlns:sodipodi="http://sodipodi.sourceforge.net/DTD/sodipodi-0.dtd"
   xmlns:inkscape="http://www.inkscape.org/namespaces/inkscape"
   id="svg2"
   version="1.1"
   inkscape:version="0.92.4 (5da689c313, 2019-01-14)"
   width="2481"
   height="3503"
   sodipodi:docname="E03P03.svg"
   enable-background="new">
  <sodipodi:namedview
     pagecolor="#ffffff"
     bordercolor="#666666"
     inkscape:pageopacity="0"
     inkscape:pageshadow="2"
     inkscape:window-width="1813"
     inkscape:window-height="955"
     id="namedview70"
     showgrid="false"
     inkscape:zoom="0.56249126"
     inkscape:cx="1027.1019"
     inkscape:cy="832.29626"
     inkscape:current-layer="layer1"
     inkscape:window-x="0"
     inkscape:window-y="26"
     inkscape:window-maximized="0" />
  <metadata
     id="metadata8">
    <rdf:RDF>
      <cc:Work
         rdf:about="">
        <dc:format>image/svg+xml</dc:format>
        <dc:type
           rdf:resource="http://purl.org/dc/dcmitype/StillImage" />
        <dc:title />
      </cc:Work>
    </rdf:RDF>
  </metadata>
  <defs
     id="defs6">
    <linearGradient
       id="linearGradient5427">
      <stop
         style="stop-color:#ad5d0f;stop-opacity:1;"
         offset="0"
         id="stop5429" />
      <stop
         id="stop5437"
         offset="0.25"
         style="stop-color:#84470b;stop-opacity:1;" />
      <stop
         id="stop5435"
         offset="0.5"
         style="stop-color:#8a4a0c;stop-opacity:1;" />
      <stop
         style="stop-color:#7a420b;stop-opacity:1;"
         offset="1"
         id="stop5431" />
    </linearGradient>
    <linearGradient
       id="linearGradient5350"
       osb:paint="solid">
      <stop
         style="stop-color:#9a530e;stop-opacity:1;"
         offset="0"
         id="stop5352" />
    </linearGradient>
    <linearGradient
       inkscape:collect="always"
       xlink:href="#linearGradient5427"
       id="linearGradient5433"
       x1="618.94147"
       y1="2316.8098"
       x2="1024.5358"
       y2="1619.6255"
       gradientUnits="userSpaceOnUse" />
    <linearGradient
       inkscape:collect="always"
       xlink:href="#linearGradient5427"
       id="linearGradient5443"
       gradientUnits="userSpaceOnUse"
       x1="618.94147"
       y1="2316.8098"
       x2="1024.5358"
       y2="1619.6255" />
    <linearGradient
       inkscape:collect="always"
       xlink:href="#linearGradient5427"
       id="linearGradient5445"
       gradientUnits="userSpaceOnUse"
       x1="618.94147"
       y1="2316.8098"
       x2="1024.5358"
       y2="1619.6255" />
    <linearGradient
       inkscape:collect="always"
       xlink:href="#linearGradient5427"
       id="linearGradient5447"
       gradientUnits="userSpaceOnUse"
       x1="618.94147"
       y1="2316.8098"
       x2="1024.5358"
       y2="1619.6255" />
    <linearGradient
       inkscape:collect="always"
       xlink:href="#linearGradient5427"
       id="linearGradient5449"
       gradientUnits="userSpaceOnUse"
       x1="618.94147"
       y1="2316.8098"
       x2="1024.5358"
       y2="1619.6255" />
    <linearGradient
       inkscape:collect="always"
       xlink:href="#linearGradient5427"
       id="linearGradient5451"
       gradientUnits="userSpaceOnUse"
       x1="618.94147"
       y1="2316.8098"
       x2="1024.5358"
       y2="1619.6255" />
    <linearGradient
       inkscape:collect="always"
       xlink:href="#linearGradient5427"
       id="linearGradient5453"
       gradientUnits="userSpaceOnUse"
       x1="618.94147"
       y1="2316.8098"
       x2="1024.5358"
       y2="1619.6255" />
    <linearGradient
       inkscape:collect="always"
       xlink:href="#linearGradient5427"
       id="linearGradient5455"
       gradientUnits="userSpaceOnUse"
       x1="618.94147"
       y1="2316.8098"
       x2="1024.5358"
       y2="1619.6255" />
    <linearGradient
       inkscape:collect="always"
       xlink:href="#linearGradient5427"
       id="linearGradient5457"
       gradientUnits="userSpaceOnUse"
       x1="618.94147"
       y1="2316.8098"
       x2="1024.5358"
       y2="1619.6255" />
    <linearGradient
       id="linearGradient5427-1">
      <stop
         style="stop-color:#ad5d0f;stop-opacity:1;"
         offset="0"
         id="stop5429-2" />
      <stop
         id="stop5437-1"
         offset="0.25"
         style="stop-color:#84470b;stop-opacity:1;" />
      <stop
         id="stop5435-6"
         offset="0.5"
         style="stop-color:#8a4a0c;stop-opacity:1;" />
      <stop
         style="stop-color:#7a420b;stop-opacity:1;"
         offset="1"
         id="stop5431-8" />
    </linearGradient>
    <linearGradient
       inkscape:collect="always"
       xlink:href="#linearGradient5427-1"
       id="linearGradient5443-3"
       gradientUnits="userSpaceOnUse"
       x1="618.94147"
       y1="2316.8098"
       x2="1024.5358"
       y2="1619.6255" />
    <linearGradient
       inkscape:collect="always"
       xlink:href="#linearGradient5427-1"
       id="linearGradient5445-2"
       gradientUnits="userSpaceOnUse"
       x1="618.94147"
       y1="2316.8098"
       x2="1024.5358"
       y2="1619.6255" />
    <linearGradient
       inkscape:collect="always"
       xlink:href="#linearGradient5427-1"
       id="linearGradient5449-7"
       gradientUnits="userSpaceOnUse"
       x1="618.94147"
       y1="2316.8098"
       x2="1024.5358"
       y2="1619.6255" />
    <linearGradient
       inkscape:collect="always"
       xlink:href="#linearGradient5427-1"
       id="linearGradient5451-9"
       gradientUnits="userSpaceOnUse"
       x1="618.94147"
       y1="2316.8098"
       x2="1024.5358"
       y2="1619.6255" />
    <linearGradient
       inkscape:collect="always"
       xlink:href="#linearGradient5427-1"
       id="linearGradient5455-2"
       gradientUnits="userSpaceOnUse"
       x1="618.94147"
       y1="2316.8098"
       x2="1024.5358"
       y2="1619.6255" />
    <linearGradient
       inkscape:collect="always"
       xlink:href="#linearGradient5427-1"
       id="linearGradient5457-0"
       gradientUnits="userSpaceOnUse"
       x1="618.94147"
       y1="2316.8098"
       x2="1024.5358"
       y2="1619.6255" />
    <linearGradient
       y2="1619.6255"
       x2="1024.5358"
       y1="2316.8098"
       x1="618.94147"
       gradientUnits="userSpaceOnUse"
       id="linearGradient5608"
       xlink:href="#linearGradient5427-1"
       inkscape:collect="always" />
    <linearGradient
       y2="1619.6255"
       x2="1024.5358"
       y1="2316.8098"
       x1="618.94147"
       gradientUnits="userSpaceOnUse"
       id="linearGradient5608-2"
       xlink:href="#linearGradient5427-1-2"
       inkscape:collect="always" />
    <linearGradient
       id="linearGradient5427-1-2">
      <stop
         style="stop-color:#ad5d0f;stop-opacity:1;"
         offset="0"
         id="stop5429-2-5" />
      <stop
         id="stop5437-1-2"
         offset="0.25"
         style="stop-color:#84470b;stop-opacity:1;" />
      <stop
         id="stop5435-6-0"
         offset="0.5"
         style="stop-color:#8a4a0c;stop-opacity:1;" />
      <stop
         style="stop-color:#7a420b;stop-opacity:1;"
         offset="1"
         id="stop5431-8-6" />
    </linearGradient>
    <linearGradient
       inkscape:collect="always"
       xlink:href="#linearGradient5427-1-2"
       id="linearGradient5441"
       gradientUnits="userSpaceOnUse"
       x1="618.94147"
       y1="2316.8098"
       x2="1024.5358"
       y2="1619.6255" />
    <linearGradient
       id="linearGradient3064">
      <stop
         style="stop-color:#ad5d0f;stop-opacity:1;"
         offset="0"
         id="stop3066" />
      <stop
         id="stop3068"
         offset="0.25"
         style="stop-color:#84470b;stop-opacity:1;" />
      <stop
         id="stop3070"
         offset="0.5"
         style="stop-color:#8a4a0c;stop-opacity:1;" />
      <stop
         style="stop-color:#7a420b;stop-opacity:1;"
         offset="1"
         id="stop3072" />
    </linearGradient>
    <linearGradient
       id="linearGradient3075">
      <stop
         style="stop-color:#ad5d0f;stop-opacity:1;"
         offset="0"
         id="stop3077" />
      <stop
         id="stop3079"
         offset="0.25"
         style="stop-color:#84470b;stop-opacity:1;" />
      <stop
         id="stop3081"
         offset="0.5"
         style="stop-color:#8a4a0c;stop-opacity:1;" />
      <stop
         style="stop-color:#7a420b;stop-opacity:1;"
         offset="1"
         id="stop3083" />
    </linearGradient>
    <linearGradient
       inkscape:collect="always"
       xlink:href="#linearGradient5427-1-2"
       id="linearGradient5443-3-4"
       gradientUnits="userSpaceOnUse"
       x1="618.94147"
       y1="2316.8098"
       x2="1024.5358"
       y2="1619.6255" />
    <linearGradient
       id="linearGradient3086">
      <stop
         style="stop-color:#ad5d0f;stop-opacity:1;"
         offset="0"
         id="stop3088" />
      <stop
         id="stop3090"
         offset="0.25"
         style="stop-color:#84470b;stop-opacity:1;" />
      <stop
         id="stop3092"
         offset="0.5"
         style="stop-color:#8a4a0c;stop-opacity:1;" />
      <stop
         style="stop-color:#7a420b;stop-opacity:1;"
         offset="1"
         id="stop3094" />
    </linearGradient>
    <linearGradient
       id="linearGradient3097">
      <stop
         style="stop-color:#ad5d0f;stop-opacity:1;"
         offset="0"
         id="stop3099" />
      <stop
         id="stop3101"
         offset="0.25"
         style="stop-color:#84470b;stop-opacity:1;" />
      <stop
         id="stop3103"
         offset="0.5"
         style="stop-color:#8a4a0c;stop-opacity:1;" />
      <stop
         style="stop-color:#7a420b;stop-opacity:1;"
         offset="1"
         id="stop3105" />
    </linearGradient>
    <linearGradient
       id="linearGradient3108">
      <stop
         style="stop-color:#ad5d0f;stop-opacity:1;"
         offset="0"
         id="stop3110" />
      <stop
         id="stop3112"
         offset="0.25"
         style="stop-color:#84470b;stop-opacity:1;" />
      <stop
         id="stop3114"
         offset="0.5"
         style="stop-color:#8a4a0c;stop-opacity:1;" />
      <stop
         style="stop-color:#7a420b;stop-opacity:1;"
         offset="1"
         id="stop3116" />
    </linearGradient>
    <linearGradient
       id="linearGradient3119">
      <stop
         style="stop-color:#ad5d0f;stop-opacity:1;"
         offset="0"
         id="stop3121" />
      <stop
         id="stop3123"
         offset="0.25"
         style="stop-color:#84470b;stop-opacity:1;" />
      <stop
         id="stop3125"
         offset="0.5"
         style="stop-color:#8a4a0c;stop-opacity:1;" />
      <stop
         style="stop-color:#7a420b;stop-opacity:1;"
         offset="1"
         id="stop3127" />
    </linearGradient>
    <linearGradient
       inkscape:collect="always"
       xlink:href="#linearGradient5427-1-2"
       id="linearGradient5451-9-2"
       gradientUnits="userSpaceOnUse"
       x1="618.94147"
       y1="2316.8098"
       x2="1024.5358"
       y2="1619.6255" />
    <linearGradient
       id="linearGradient3130">
      <stop
         style="stop-color:#ad5d0f;stop-opacity:1;"
         offset="0"
         id="stop3132" />
      <stop
         id="stop3134"
         offset="0.25"
         style="stop-color:#84470b;stop-opacity:1;" />
      <stop
         id="stop3136"
         offset="0.5"
         style="stop-color:#8a4a0c;stop-opacity:1;" />
      <stop
         style="stop-color:#7a420b;stop-opacity:1;"
         offset="1"
         id="stop3138" />
    </linearGradient>
    <linearGradient
       id="linearGradient3141">
      <stop
         style="stop-color:#ad5d0f;stop-opacity:1;"
         offset="0"
         id="stop3143" />
      <stop
         id="stop3145"
         offset="0.25"
         style="stop-color:#84470b;stop-opacity:1;" />
      <stop
         id="stop3147"
         offset="0.5"
         style="stop-color:#8a4a0c;stop-opacity:1;" />
      <stop
         style="stop-color:#7a420b;stop-opacity:1;"
         offset="1"
         id="stop3149" />
    </linearGradient>
    <linearGradient
       id="linearGradient3152">
      <stop
         style="stop-color:#ad5d0f;stop-opacity:1;"
         offset="0"
         id="stop3154" />
      <stop
         id="stop3156"
         offset="0.25"
         style="stop-color:#84470b;stop-opacity:1;" />
      <stop
         id="stop3158"
         offset="0.5"
         style="stop-color:#8a4a0c;stop-opacity:1;" />
      <stop
         style="stop-color:#7a420b;stop-opacity:1;"
         offset="1"
         id="stop3160" />
    </linearGradient>
    <linearGradient
       id="linearGradient3163">
      <stop
         style="stop-color:#ad5d0f;stop-opacity:1;"
         offset="0"
         id="stop3165" />
      <stop
         id="stop3167"
         offset="0.25"
         style="stop-color:#84470b;stop-opacity:1;" />
      <stop
         id="stop3169"
         offset="0.5"
         style="stop-color:#8a4a0c;stop-opacity:1;" />
      <stop
         style="stop-color:#7a420b;stop-opacity:1;"
         offset="1"
         id="stop3171" />
    </linearGradient>
    <filter
       inkscape:collect="always"
       id="filter3347">
      <feBlend
         inkscape:collect="always"
         mode="multiply"
         in2="BackgroundImage"
         id="feBlend3349" />
    </filter>
    <linearGradient
       inkscape:collect="always"
       xlink:href="#linearGradient5427-1-2"
       id="linearGradient3375"
       gradientUnits="userSpaceOnUse"
       x1="618.94147"
       y1="2316.8098"
       x2="1024.5358"
       y2="1619.6255" />
    <linearGradient
       inkscape:collect="always"
       xlink:href="#linearGradient5427-1-2"
       id="linearGradient3419"
       gradientUnits="userSpaceOnUse"
       x1="618.94147"
       y1="2316.8098"
       x2="1024.5358"
       y2="1619.6255" />
    <linearGradient
       inkscape:collect="always"
       xlink:href="#linearGradient5427-1-2"
       id="linearGradient3457"
       gradientUnits="userSpaceOnUse"
       x1="618.94147"
       y1="2316.8098"
       x2="1024.5358"
       y2="1619.6255" />
  </defs>
  <sodipodi:namedview
     pagecolor="#ffffff"
     bordercolor="#666666"
     borderopacity="1"
     objecttolerance="10"
     gridtolerance="10"
     guidetolerance="10"
     inkscape:pageopacity="0"
     inkscape:pageshadow="2"
     inkscape:window-width="1920"
     inkscape:window-height="1025"
     id="namedview4"
     showgrid="false"
     inkscape:zoom="0.41451838"
     inkscape:cx="1195.2101"
     inkscape:cy="1543.9004"
     inkscape:window-x="0"
     inkscape:window-y="26"
     inkscape:window-maximized="1"
     inkscape:current-layer="layer4" />
  <g
     inkscape:groupmode="layer"
     id="layer2"
     inkscape:label="artwork"
     sodipodi:insensitive="true">
    <image
       sodipodi:absref="D:\work\webcomics\ep03_The-secret-ingredients\lang\ie\../gfx_Pepper-and-Carrot_by-David-Revoy_E03P03.png"
       xlink:href="../gfx_Pepper-and-Carrot_by-David-Revoy_E03P03.png"
       width="2481"
       height="3503"
       id="image10"
       x="0"
       y="0" />
    <flowRoot
       xml:space="preserve"
       id="flowRoot5790"
       style="font-style:normal;font-variant:normal;font-weight:normal;font-stretch:normal;line-height:0.01%;font-family:Lavi;-inkscape-font-specification:Lavi;letter-spacing:0px;word-spacing:0px;fill:#000000;fill-opacity:1;stroke:none"><flowRegion
         id="flowRegion5792"><rect
           id="rect5794"
           width="698.64941"
           height="222.5463"
           x="1276.9049"
           y="2673.0117"
           style="font-style:normal;font-variant:normal;font-weight:normal;font-stretch:normal;font-size:48px;font-family:Lavi;-inkscape-font-specification:Lavi" /></flowRegion><flowPara
         id="flowPara5796"
         style="font-size:48px;line-height:1.25"> </flowPara></flowRoot>  </g>
  <g
     inkscape:groupmode="layer"
     id="layer3"
     inkscape:label="speechbubbles">
    <path
       style="fill:#ffffff;fill-opacity:1;stroke:none;stroke-width:1px;stroke-linecap:butt;stroke-linejoin:miter;stroke-opacity:1"
       d="m 1268.3681,3059.9358 c 23.2564,8.3485 32.2011,16.1006 28.0269,20.8712 9.5411,2.3852 13.119,64.4023 4.1742,75.7323 -0.5963,1.1927 -4.7705,4.7706 -2.9816,5.3669 1.789,0.5963 12.5227,-1.1926 14.3117,1.1926 1.7889,2.3853 -16.1006,36.3754 -13.7154,37.5681 2.3853,1.1926 57.2466,-21.4675 64.9987,-16.1006 7.7521,5.3668 3.5779,19.0821 5.9632,19.6785 2.3852,0.5963 24.449,-2.9816 27.4306,-2.3853 2.9816,0.5963 8.3484,18.4858 11.33,19.0822 2.9816,0.5963 16.6969,-7.7522 19.0822,-7.1559 2.3853,0.5964 1.1926,15.5043 4.1742,16.1006 2.9816,0.5963 16.1006,-12.5226 17.8896,-11.9263 1.7889,0.5963 8.3484,30.4122 11.33,32.2011 2.9816,1.789 22.0638,-32.7974 23.8527,-33.3938 1.789,-0.5963 13.119,40.5496 15.5043,41.146 2.3853,0.5963 14.3116,-28.027 16.1006,-27.4307 1.7889,0.5964 13.119,17.2933 15.5042,18.4859 2.3853,1.1926 17.8896,-36.9717 20.2748,-36.9717 2.3853,0 22.6601,16.1006 24.4491,19.0822 1.7889,2.9816 3.5779,-15.5043 5.9631,-15.5043 2.3853,0 29.8159,10.7337 30.4123,10.1374 0.5963,-0.5963 -4.1743,-11.9264 -2.3853,-11.9264 1.7889,0 29.8159,14.908 31.0085,11.9264 1.1926,-2.9816 60.8244,14.9079 64.9987,12.5227 4.1742,-2.3853 -26.8343,-48.8981 -23.8528,-52.476 2.9816,-3.5779 13.7154,0.5963 14.3117,-1.1926 0.5963,-1.789 -6.5595,-9.5411 -4.7706,-11.9264 1.789,-2.3853 22.0638,-11.9263 23.8527,-14.9079 1.789,-2.9816 -8.9447,-10.7338 -6.5595,-12.5227 2.3853,-1.789 37.5681,-13.119 38.1644,-16.1006 0.5963,-2.9816 -17.8895,-17.2932 -15.5043,-21.4674 2.3853,-4.1743 8.9448,-5.9632 8.3485,-8.9448 -0.5963,-2.9816 -11.9264,-6.5595 -11.3301,-9.5411 0.5964,-2.9816 6.5595,-17.8895 8.3485,-20.2748 1.7889,-2.3853 -12.5227,-1.1926 -12.5227,-3.5779 0,-2.3853 52.476,-66.1913 51.2833,-84.0808 -18.4858,11.33 -81.6955,31.6048 -101.374,26.8343 -19.6785,-4.7706 -11.9263,-34.5864 -14.9079,-36.3754 -2.9816,-1.789 -25.0454,10.1374 -28.027,5.9632 -2.9816,-4.1742 -4.1742,-11.9264 -6.5595,-11.9264 -2.3852,0 -16.1006,16.6969 -19.0821,16.1006 -2.9816,-0.5963 -31.0086,-26.8343 -35.1828,-27.4306 -4.1742,-0.5963 -20.2748,10.1374 -23.8527,10.7337 -3.5779,0.5963 -6.5595,-14.3116 -9.5411,-13.119 -2.9816,1.1926 -22.0638,11.9264 -25.0453,10.7337 -2.9816,-1.1926 -5.3669,-5.9631 -7.7522,-4.7705 -2.3852,1.1926 -13.119,5.9632 -13.119,5.9632 0,0 -7.7521,-3.5779 -11.33,-3.5779 -3.5779,0 -28.0269,19.6784 -31.0085,20.8711 -2.9816,1.1926 -28.6233,-45.3202 -26.8343,-48.8981 1.7889,-3.5779 -26.8343,49.4944 -31.0086,51.2834 -4.1742,1.7889 -16.6969,-3.578 -17.8895,-1.789 -1.1926,1.789 -4.7705,11.33 -8.3485,11.9264 -3.5779,0.5963 -11.9263,2.9815 -11.9263,2.9815 l 1.1926,3.578 c 0,0 -25.0453,-9.5411 -28.0269,-13.119 -2.9816,-3.5779 1.7889,15.5042 3.5779,20.2748 -10.7337,-4.7706 -42.3386,-14.908 -44.7238,-17.8896 -2.3853,-2.9816 4.1742,10.7338 7.7521,14.908 -4.7706,-1.789 -8.9448,-2.3853 -8.9448,-2.3853 l 13.7153,14.3116 -4.1742,1.1927 c 0,0 8.9448,6.5595 8.9448,9.5411 0,2.9815 -23.2564,6.5595 -23.2564,6.5595 0,0 9.5411,5.3668 7.1558,8.3484 -2.3853,2.9816 -8.3485,4.7705 -8.3485,4.7705 l -1.1926,7.7522 z"
       id="path5888"
       inkscape:connector-curvature="0" />
    <path
       style="color:#000000;display:inline;overflow:visible;visibility:visible;fill:#ffffff;fill-opacity:1;fill-rule:nonzero;stroke:none;stroke-width:1px;marker:none;enable-background:accumulate"
       d="m 1309.514,3089.1554 c -23.8527,25.0454 -75.7324,71.5582 -90.044,77.5213 -14.908,-23.2564 -51.2833,-56.0538 -55.4576,-53.0723 -4.1742,2.9816 -42.3385,78.1177 -50.0907,77.5214 -7.7521,-0.5964 -32.2011,-11.3301 -39.3569,-19.0822 23.2564,20.2748 42.3385,33.9901 53.6686,31.6048 7.7521,-1.1926 36.9717,-60.2281 38.7606,-64.4023 18.4859,15.5043 53.0723,51.2834 62.0171,54.265 11.33,-4.1742 54.8612,-20.2749 98.3924,-59.0355 43.5312,-38.7607 -17.8895,-45.3202 -17.8895,-45.3202 z"
       id="path5901"
       inkscape:connector-curvature="0"
       sodipodi:nodetypes="ccccccccsc" />
    <path
       style="color:#000000;display:inline;overflow:visible;visibility:visible;fill:#ffffff;fill-opacity:1;fill-rule:nonzero;stroke:none;stroke-width:1px;stroke-linecap:butt;stroke-linejoin:miter;stroke-opacity:1;marker:none;enable-background:accumulate"
       d="m 1294.1424,2775.8828 c 8.6749,-44.9519 41.0088,-71.7653 59.1473,-81.2289 18.1385,-9.4636 227.9142,-20.5044 273.6547,-22.0817 45.7406,-1.5772 178.2305,-2.3659 235.8005,25.2362 57.57,27.6021 78.863,64.6677 79.6517,85.9607 0.7886,21.293 -20.5044,78.0744 -129.3354,95.4243 -108.831,17.3499 -221.6052,14.984 -263.4026,11.8294 -41.7974,-3.1545 -170.3441,-5.5204 -209.7756,-42.586 -39.4316,-37.0656 -44.952,-45.7406 -45.7406,-72.554 z"
       id="path5909"
       inkscape:connector-curvature="0" />
    <path
       style="color:#000000;display:inline;overflow:visible;visibility:visible;fill:#ffffff;fill-opacity:1;fill-rule:nonzero;stroke:none;stroke-width:1px;marker:none;enable-background:accumulate"
       d="m 1534.3348,2988.0244 c 9.2065,-24.4476 30.9671,-78.8631 20.0868,-113.5628 -10.8803,-34.6997 26.7822,-22.0816 26.7822,-22.0816 0,0 -2.5108,-7.0977 -0.8369,16.5612 1.6739,23.6589 -9.2064,100.9447 -38.4995,122.2377 -29.2931,21.2931 -7.5326,-3.1545 -7.5326,-3.1545 z"
       id="path5917"
       inkscape:connector-curvature="0"
       sodipodi:nodetypes="cscssc" />
  </g>
  <g
     inkscape:groupmode="layer"
     id="layer1"
     inkscape:label="txt">
    <flowRoot
       xml:space="preserve"
       id="flowRoot5798"
       style="font-style:normal;font-variant:normal;font-weight:normal;font-stretch:normal;line-height:0.01%;font-family:Arial;-inkscape-font-specification:Arial;letter-spacing:0px;word-spacing:0px;fill:#000000;fill-opacity:1;stroke:none"
       transform="translate(77.8572,56.047961)"><flowRegion
         id="flowRegion5800"><rect
           id="rect5802"
           width="729.65997"
           height="244.4361"
           x="1291.4982"
           y="2671.1877" /></flowRegion><flowPara
         id="flowPara5804"
         style="font-style:normal;font-variant:normal;font-weight:normal;font-stretch:normal;font-size:48px;line-height:1.25;font-family:Lavi;-inkscape-font-specification:Lavi">Felici yo, Yo ja have un</flowPara><flowPara
         style="font-style:normal;font-variant:normal;font-weight:normal;font-stretch:normal;font-size:48px;line-height:1.25;font-family:Lavi;-inkscape-font-specification:Lavi"
         id="flowPara5806">  tot die a preparar !</flowPara></flowRoot>    <flowRoot
       xml:space="preserve"
       id="flowRoot5798-2"
       style="font-style:normal;font-variant:normal;font-weight:normal;font-stretch:normal;line-height:0.01%;font-family:Arial;-inkscape-font-specification:Arial;letter-spacing:0px;word-spacing:0px;fill:#000000;fill-opacity:1;stroke:none"
       transform="matrix(1.2105727,0,0,1.3236545,-246.91693,-522.67163)"><flowRegion
         id="flowRegion5800-2"><rect
           id="rect5802-6"
           width="729.65997"
           height="244.4361"
           x="1291.4982"
           y="2671.1877" /></flowRegion><flowPara
         style="font-style:normal;font-variant:normal;font-weight:normal;font-stretch:normal;font-size:48px;line-height:1.25;font-family:Lavi;-inkscape-font-specification:Lavi"
         id="flowPara5806-3">Lass nos victer</flowPara><flowPara
         style="font-style:normal;font-variant:normal;font-weight:normal;font-stretch:normal;font-size:48px;line-height:1.25;font-family:Lavi;-inkscape-font-specification:Lavi"
         id="flowPara5840">  ti concurse !</flowPara></flowRoot>  </g>
  <g
     inkscape:groupmode="layer"
     id="layer4"
     inkscape:label="fx"
     style="opacity:0.7265625;filter:url(#filter3347)">
    <flowRoot
       xml:space="preserve"
       id="flowRoot3755"
       style="font-style:normal;font-variant:normal;font-weight:normal;font-stretch:normal;line-height:0.01%;font-family:Arial;-inkscape-font-specification:Arial;text-align:center;letter-spacing:0px;word-spacing:0px;text-anchor:middle;opacity:1;fill:#ba894f;fill-opacity:1;stroke:#7b441d;stroke-width:3.74319696;stroke-miterlimit:4;stroke-dasharray:none;stroke-opacity:1"
       transform="matrix(0.83356571,-0.18786255,0.51502494,0.89936295,-846.33474,389.93173)"><flowRegion
         id="flowRegion3757"
         style="fill:url(#linearGradient5441);fill-opacity:1"><rect
           id="rect3759"
           width="943.26337"
           height="841.94098"
           x="296.72992"
           y="1655.0723"
           style="font-size:67.07809448px;text-align:center;text-anchor:middle;fill:#ba894f;fill-opacity:1;stroke:#7b441d;stroke-width:3.74319696;stroke-miterlimit:4;stroke-dasharray:none;stroke-opacity:1" /></flowRegion><flowPara
         id="flowPara3761"
         style="font-style:normal;font-variant:normal;font-weight:normal;font-stretch:normal;font-size:67.07809448px;line-height:1.25;font-family:Fondamento;-inkscape-font-specification:Fondamento;fill:#ba894f;fill-opacity:1;stroke:#7b441d;stroke-width:3.74319696;stroke-miterlimit:4;stroke-dasharray:none;stroke-opacity:1">Komona </flowPara><flowPara
         style="font-style:normal;font-variant:normal;font-weight:normal;font-stretch:normal;font-size:67.07809448px;line-height:1.25;font-family:Fondamento;-inkscape-font-specification:Fondamento;fill:#ba894f;fill-opacity:1;stroke:#7b441d;stroke-width:3.74319696;stroke-miterlimit:4;stroke-dasharray:none;stroke-opacity:1"
         id="flowPara946">Concurse de Potiones</flowPara></flowRoot>    <flowRoot
       transform="matrix(0.76226518,-0.19066182,0.58337307,0.8770208,-720.55284,599.12845)"
       style="color:#000000;font-style:normal;font-variant:normal;font-weight:normal;font-stretch:normal;line-height:0.01%;font-family:Arial;-inkscape-font-specification:Arial;text-align:center;letter-spacing:0px;word-spacing:0px;text-anchor:middle;clip-rule:nonzero;display:inline;overflow:visible;visibility:visible;opacity:1;isolation:auto;mix-blend-mode:normal;color-interpolation:sRGB;color-interpolation-filters:linearRGB;solid-color:#000000;solid-opacity:1;fill:#ba894f;fill-opacity:1;fill-rule:nonzero;stroke:#7b441d;stroke-width:4.78367996;stroke-linecap:butt;stroke-linejoin:miter;stroke-miterlimit:4;stroke-dasharray:none;stroke-dashoffset:0;stroke-opacity:1;color-rendering:auto;image-rendering:auto;shape-rendering:auto;text-rendering:auto;enable-background:accumulate"
       id="flowRoot3351"
       xml:space="preserve"><flowRegion
         style="fill:url(#linearGradient3375);fill-opacity:1"
         id="flowRegion3353"><rect
           style="color:#000000;font-size:67.07809448px;text-align:center;text-anchor:middle;clip-rule:nonzero;display:inline;overflow:visible;visibility:visible;isolation:auto;mix-blend-mode:normal;color-interpolation:sRGB;color-interpolation-filters:linearRGB;solid-color:#000000;solid-opacity:1;fill:#ba894f;fill-opacity:1;fill-rule:nonzero;stroke:#7b441d;stroke-width:4.78367996;stroke-linecap:butt;stroke-linejoin:miter;stroke-miterlimit:4;stroke-dasharray:none;stroke-dashoffset:0;stroke-opacity:1;color-rendering:auto;image-rendering:auto;shape-rendering:auto;text-rendering:auto;enable-background:accumulate"
           y="1655.0723"
           x="296.72992"
           height="779.58618"
           width="743.04053"
           id="rect3355" /></flowRegion><flowPara
         style="color:#000000;font-style:normal;font-variant:normal;font-weight:normal;font-stretch:normal;font-size:67.07809448px;line-height:1.25;font-family:Fondamento;-inkscape-font-specification:Fondamento;clip-rule:nonzero;display:inline;overflow:visible;visibility:visible;isolation:auto;mix-blend-mode:normal;color-interpolation:sRGB;color-interpolation-filters:linearRGB;solid-color:#000000;solid-opacity:1;fill:#ba894f;fill-opacity:1;fill-rule:nonzero;stroke:#7b441d;stroke-width:4.78367996;stroke-linecap:butt;stroke-linejoin:miter;stroke-miterlimit:4;stroke-dasharray:none;stroke-dashoffset:0;stroke-opacity:1;color-rendering:auto;image-rendering:auto;shape-rendering:auto;text-rendering:auto;enable-background:accumulate"
         id="flowPara3363">50 000Ko  grand prise</flowPara><flowPara
         style="color:#000000;font-style:normal;font-variant:normal;font-weight:normal;font-stretch:normal;font-size:67.07809448px;line-height:1.25;font-family:Fondamento;-inkscape-font-specification:Fondamento;clip-rule:nonzero;display:inline;overflow:visible;visibility:visible;isolation:auto;mix-blend-mode:normal;color-interpolation:sRGB;color-interpolation-filters:linearRGB;solid-color:#000000;solid-opacity:1;fill:#ba894f;fill-opacity:1;fill-rule:nonzero;stroke:#7b441d;stroke-width:4.78367996;stroke-linecap:butt;stroke-linejoin:miter;stroke-miterlimit:4;stroke-dasharray:none;stroke-dashoffset:0;stroke-opacity:1;color-rendering:auto;image-rendering:auto;shape-rendering:auto;text-rendering:auto;enable-background:accumulate"
         id="flowPara3371">POR LI MAX BON POTION</flowPara></flowRoot>    <flowRoot
       xml:space="preserve"
       id="flowRoot3395"
       style="color:#000000;font-style:normal;font-variant:normal;font-weight:normal;font-stretch:normal;line-height:0.01%;font-family:Arial;-inkscape-font-specification:Arial;text-align:center;letter-spacing:0px;word-spacing:0px;text-anchor:middle;clip-rule:nonzero;display:inline;overflow:visible;visibility:visible;opacity:1;isolation:auto;mix-blend-mode:normal;color-interpolation:sRGB;color-interpolation-filters:linearRGB;solid-color:#000000;solid-opacity:1;fill:#ba894f;fill-opacity:1;fill-rule:nonzero;stroke:#7b441d;stroke-width:4.50359678;stroke-linecap:butt;stroke-linejoin:miter;stroke-miterlimit:4;stroke-dasharray:none;stroke-dashoffset:0;stroke-opacity:1;color-rendering:auto;image-rendering:auto;shape-rendering:auto;text-rendering:auto;enable-background:accumulate"
       transform="matrix(0.73981395,-0.16569197,0.58529146,0.81100502,-596.72708,989.34744)"><flowRegion
         id="flowRegion3397"
         style="fill:url(#linearGradient3419);fill-opacity:1"><rect
           id="rect3399"
           width="943.26337"
           height="841.94098"
           x="296.72992"
           y="1655.0723"
           style="color:#000000;font-size:67.07809448px;text-align:center;text-anchor:middle;clip-rule:nonzero;display:inline;overflow:visible;visibility:visible;isolation:auto;mix-blend-mode:normal;color-interpolation:sRGB;color-interpolation-filters:linearRGB;solid-color:#000000;solid-opacity:1;fill:#ba894f;fill-opacity:1;fill-rule:nonzero;stroke:#7b441d;stroke-width:4.50359678;stroke-linecap:butt;stroke-linejoin:miter;stroke-miterlimit:4;stroke-dasharray:none;stroke-dashoffset:0;stroke-opacity:1;color-rendering:auto;image-rendering:auto;shape-rendering:auto;text-rendering:auto;enable-background:accumulate" /></flowRegion><flowPara
         id="flowPara3413"
         style="color:#000000;font-style:normal;font-variant:normal;font-weight:normal;font-stretch:normal;font-size:67.07809448px;line-height:1.25;font-family:Fondamento;-inkscape-font-specification:Fondamento;clip-rule:nonzero;display:inline;overflow:visible;visibility:visible;isolation:auto;mix-blend-mode:normal;color-interpolation:sRGB;color-interpolation-filters:linearRGB;solid-color:#000000;solid-opacity:1;fill:#ba894f;fill-opacity:1;fill-rule:nonzero;stroke:#7b441d;stroke-width:4.50359678;stroke-linecap:butt;stroke-linejoin:miter;stroke-miterlimit:4;stroke-dasharray:none;stroke-dashoffset:0;stroke-opacity:1;color-rendering:auto;image-rendering:auto;shape-rendering:auto;text-rendering:auto;enable-background:accumulate">Ye Azardie, 3 Rosilune</flowPara><flowPara
         id="flowPara3415"
         style="color:#000000;font-style:normal;font-variant:normal;font-weight:normal;font-stretch:normal;font-size:67.07809448px;line-height:1.25;font-family:Fondamento;-inkscape-font-specification:Fondamento;clip-rule:nonzero;display:inline;overflow:visible;visibility:visible;isolation:auto;mix-blend-mode:normal;color-interpolation:sRGB;color-interpolation-filters:linearRGB;solid-color:#000000;solid-opacity:1;fill:#ba894f;fill-opacity:1;fill-rule:nonzero;stroke:#7b441d;stroke-width:4.50359678;stroke-linecap:butt;stroke-linejoin:miter;stroke-miterlimit:4;stroke-dasharray:none;stroke-dashoffset:0;stroke-opacity:1;color-rendering:auto;image-rendering:auto;shape-rendering:auto;text-rendering:auto;enable-background:accumulate">Grand Plazza de Komona</flowPara></flowRoot>  </g>
</svg>
