<?xml version="1.0" encoding="UTF-8" standalone="no"?>
<svg
   xmlns:dc="http://purl.org/dc/elements/1.1/"
   xmlns:cc="http://creativecommons.org/ns#"
   xmlns:rdf="http://www.w3.org/1999/02/22-rdf-syntax-ns#"
   xmlns:svg="http://www.w3.org/2000/svg"
   xmlns="http://www.w3.org/2000/svg"
   xmlns:xlink="http://www.w3.org/1999/xlink"
   xmlns:sodipodi="http://sodipodi.sourceforge.net/DTD/sodipodi-0.dtd"
   xmlns:inkscape="http://www.inkscape.org/namespaces/inkscape"
   id="svg2"
   version="1.1"
   inkscape:version="0.92.5 (2060ec1f9f, 2020-04-08)"
   width="2481"
   height="3503"
   sodipodi:docname="E34P05.svg">
  <metadata
     id="metadata8">
    <rdf:RDF>
      <cc:Work
         rdf:about="">
        <dc:format>image/svg+xml</dc:format>
        <dc:type
           rdf:resource="http://purl.org/dc/dcmitype/StillImage" />
        <dc:title />
      </cc:Work>
    </rdf:RDF>
  </metadata>
  <defs
     id="defs6">
    <filter
       style="color-interpolation-filters:sRGB"
       id="filter4375-4-1-1-1-9-5-8-8-5-5-3-3"
       inkscape:label="soundFX1">
      <feFlood
         id="feFlood4377-7-9-0-8-1-7-3-1-2-7-6-6"
         flood-opacity="1"
         flood-color="rgb(52,52,52)"
         result="flood" />
      <feComposite
         id="feComposite4379-3-8-8-2-77-4-1-0-6-4-7-7"
         in2="SourceGraphic"
         in="flood"
         operator="in"
         result="composite1"
         baseFrequency="0.053999999999999999 0.053999999999999999" />
      <feMorphology
         id="feMorphology4393-1-0-49-8-9-3-0-1-9-9-5-5"
         operator="dilate"
         radius="4.0330969769021738"
         result="result3" />
      <feComposite
         id="feComposite4385-9-5-7-0-8-8-7-5-4-9-3-3"
         in2="result3"
         in="SourceGraphic"
         operator="over"
         result="fbSourceGraphic" />
      <feColorMatrix
         result="fbSourceGraphicAlpha"
         in="fbSourceGraphic"
         values="0 0 0 -1 0 0 0 0 -1 0 0 0 0 -1 0 0 0 0 1 0"
         id="feColorMatrix4544-9-4-4-5-5" />
      <feTurbulence
         id="feTurbulence4546-3-6-5-6-6"
         type="fractalNoise"
         numOctaves="4"
         seed="147"
         baseFrequency="0.053999999999999999 0.054054054054054057"
         result="turbulence" />
      <feDisplacementMap
         id="feDisplacementMap4548-8-0-9-2-2"
         in2="turbulence"
         in="fbSourceGraphic"
         scale="10.561763"
         yChannelSelector="G"
         xChannelSelector="R"
         result="fbSourceGraphic" />
      <feColorMatrix
         result="fbSourceGraphicAlpha"
         in="fbSourceGraphic"
         values="0 0 0 -1 0 0 0 0 -1 0 0 0 0 -1 0 0 0 0 1 0"
         id="feColorMatrix4670-7-7-3-9-9" />
      <feFlood
         id="feFlood4672-4-4-5-1-1"
         flood-opacity="1"
         flood-color="rgb(28,28,28)"
         result="flood"
         in="fbSourceGraphic" />
      <feComposite
         id="feComposite4674-8-3-7-2-2"
         in2="fbSourceGraphic"
         in="flood"
         operator="in"
         result="composite1" />
      <feGaussianBlur
         id="feGaussianBlur4676-3-7-08-7-7"
         in="composite1"
         stdDeviation="0"
         result="blur" />
      <feOffset
         id="feOffset4678-6-9-1-0-0"
         dx="-10.48377497279229"
         dy="0.39217365321829334"
         result="offset" />
      <feComposite
         id="feComposite4680-4-0-9-9-9"
         in2="offset"
         in="fbSourceGraphic"
         operator="over"
         result="composite2" />
    </filter>
    <filter
       inkscape:collect="always"
       style="color-interpolation-filters:sRGB"
       id="filter1624"
       x="-0.066465521"
       width="1.132931"
       y="-0.12921093"
       height="1.2584219">
      <feGaussianBlur
         inkscape:collect="always"
         stdDeviation="4.7367523"
         id="feGaussianBlur1626" />
    </filter>
    <filter
       inkscape:collect="always"
       style="color-interpolation-filters:sRGB"
       id="filter1624-1"
       x="-0.066465519"
       width="1.132931"
       y="-0.12921093"
       height="1.2584219">
      <feGaussianBlur
         inkscape:collect="always"
         stdDeviation="4.7367523"
         id="feGaussianBlur1626-9" />
    </filter>
    <filter
       inkscape:collect="always"
       style="color-interpolation-filters:sRGB"
       id="filter1624-1-7"
       x="-0.066465519"
       width="1.132931"
       y="-0.12921093"
       height="1.2584219">
      <feGaussianBlur
         inkscape:collect="always"
         stdDeviation="4.7367523"
         id="feGaussianBlur1626-9-8" />
    </filter>
  </defs>
  <sodipodi:namedview
     pagecolor="#ffffff"
     bordercolor="#666666"
     borderopacity="1"
     objecttolerance="10"
     gridtolerance="10"
     guidetolerance="10"
     inkscape:pageopacity="0"
     inkscape:pageshadow="2"
     inkscape:window-width="1920"
     inkscape:window-height="1023"
     id="namedview4"
     showgrid="false"
     inkscape:zoom="0.3740595"
     inkscape:cx="1040.989"
     inkscape:cy="2688.6907"
     inkscape:window-x="0"
     inkscape:window-y="0"
     inkscape:window-maximized="1"
     inkscape:current-layer="layer1"
     inkscape:document-rotation="0"
     inkscape:snap-global="false"
     borderlayer="true" />
  <g
     inkscape:groupmode="layer"
     id="layer2"
     inkscape:label="artwork"
     sodipodi:insensitive="true">
    <image
       sodipodi:absref="/home/peppercarrot/webcomics/"
       xlink:href="../gfx_Pepper-and-Carrot_by-David-Revoy_E34P05.png"
       y="0"
       x="0"
       id="image10"
       height="3503"
       width="2481" />
  </g>
  <g
     inkscape:groupmode="layer"
     id="layer3"
     inkscape:label="speechbubbles"
     style="display:inline">
    <path
       style="display:inline;fill:#ffffff;fill-rule:evenodd;stroke:none;stroke-width:1.17918408px;stroke-linecap:butt;stroke-linejoin:miter;stroke-opacity:1"
       d="m 2149.5435,845.63173 c -29.6039,0.0437 -59.1754,1.71396 -88.6255,4.37725 -15.6757,1.12217 -30.7969,5.41603 -45.6949,9.73518 -13.9337,4.27526 -27.846,8.88101 -40.7981,15.25976 -16.772,8.51113 -31.7974,21.03894 -39.3718,37.32747 -6.3617,13.05538 -10.1026,27.02366 -13.0194,41.00167 -4.3666,27.08009 2.9178,56.11584 22.1936,77.48714 22.0097,24.9308 56.8086,39.6244 91.8744,40.2364 73.9716,6.2304 148.8863,8.6769 222.6599,-0.8354 24.7153,-3.2627 49.6194,-10.1908 69.4464,-24.4259 21.7157,-15.8171 33.3567,-41.301 33.1856,-66.29475 0.1062,-23.70521 -10.574,-46.73696 -27.0594,-64.87963 -19.6236,-22.12941 -46.7486,-37.88058 -75.5546,-48.45815 -27.9722,-10.67283 -57.6106,-18.38972 -88.0216,-20.01511 -7.0602,-0.43467 -14.1392,-0.58715 -21.2146,-0.51593 z"
       id="path1076"
       inkscape:connector-curvature="0" />
    <path
       style="color:#000000;display:inline;overflow:visible;visibility:visible;fill:#ffffff;fill-opacity:1;fill-rule:nonzero;stroke:none;stroke-width:1.41699779px;marker:none;enable-background:accumulate"
       d="m 1428.3359,65.120549 c -17.4739,0.888114 -33.9438,9.689697 -51.7052,7.190769 -13.5923,-1.337041 -28.6989,-1.314705 -40.1845,6.655796 -10.1979,7.500399 -15.4914,19.383245 -18.2438,30.971736 -2.7629,13.01775 -2.7947,26.35901 -3.7368,39.55986 -2.3167,52.21888 3.6249,104.30373 5.8333,156.43029 1.1212,21.63724 2.1958,43.58111 8.6503,64.503 2.6591,6.13558 8.461,10.49084 14.002,14.30336 9.986,6.23206 21.2245,10.35931 32.1014,14.97592 33.6218,12.86566 70.0113,17.04008 105.8597,20.42906 47.6939,3.55602 95.1741,-3.83895 142.5674,-7.7259 27.2304,-2.65054 55.2912,-5.85618 79.8449,-18.04935 23.5389,-12.57568 39.6102,-34.39315 50.6191,-57.13271 15.8279,-32.15296 22.4633,-69.18278 13.7868,-104.00876 -7.1937,-31.32264 -19.2131,-62.72073 -41.8965,-87.19995 -14.93,-15.89535 -34.9453,-27.14386 -56.4439,-33.28431 -22.5258,-7.26413 -45.4883,-13.354242 -67.6178,-21.679468 -25.47,-8.789091 -51.8893,-15.545853 -78.9735,-17.898273 -22.8567,-2.371777 -45.7862,-4.11627 -68.6015,-6.832905 -8.5944,-0.776318 -17.2238,-1.290045 -25.8614,-1.208165 z"
       id="path4546-6-5-5"
       inkscape:connector-curvature="0"
       sodipodi:nodetypes="cssssccccccccccccc" />
    <path
       style="color:#000000;display:inline;overflow:visible;visibility:visible;fill:#ffffff;fill-opacity:1;fill-rule:nonzero;stroke:none;stroke-width:0.600991px;marker:none;enable-background:accumulate"
       d="m 670.35742,769.71094 c -12.2973,0.9647 -24.88043,3.61674 -35.31645,10.49777 -8.26937,6.01073 -15.67977,13.16759 -22.32417,20.92215 -6.62645,7.92618 -12.45435,16.68654 -16.1348,26.37998 -3.14551,10.49958 -1.35181,21.73717 1.78536,32.01289 2.82779,8.96948 7.68064,17.87175 15.78303,23.07197 6.94429,4.14841 15.32919,4.36127 23.18225,3.9754 9.46419,-0.29273 19.23433,0.27025 28.00976,4.15103 9.04638,3.43181 18.21763,7.73729 28.11679,7.43852 13.77277,-0.35998 26.75813,-6.06737 38.3739,-13.09874 14.74173,-9.08988 26.7992,-23.24144 31.53588,-40.07628 2.84106,-10.03042 2.47383,-20.87049 -0.8408,-30.74109 -3.01302,-9.29937 -7.98249,-18.10356 -15.00292,-24.96219 -5.74301,-5.42623 -13.1915,-8.71524 -20.86833,-10.30244 -10.75987,-2.41067 -21.91535,-2.58388 -32.57378,-5.52158 -7.80876,-1.66324 -15.63484,-4.45051 -23.72572,-3.74739 z"
       id="path4040-41"
       inkscape:connector-curvature="0"
       sodipodi:nodetypes="zssssz" />
    <path
       style="color:#000000;display:inline;overflow:visible;visibility:visible;fill:#ffffff;fill-opacity:1;fill-rule:nonzero;stroke:none;stroke-width:0.93836462px;marker:none;enable-background:accumulate"
       d="m 550.34475,294.92188 c -30.45332,0.52894 -61.21936,1.20542 -91.02665,10.07138 -8.76528,2.5029 -17.32565,7.05158 -24.16152,14.64504 -6.51475,6.92199 -11.80001,16.57887 -12.55603,27.62133 -0.83909,10.00446 0.47772,20.03515 1.75356,29.88295 1.72065,10.72435 5.53758,21.50126 12.6264,28.10742 8.77778,8.67822 19.53313,12.92409 29.8071,17.75407 20.95845,8.97683 43.26834,10.74304 65.21754,10.72165 34.32073,0.24417 68.6958,-2.07645 102.7025,-8.12962 15.55725,-3.52183 30.19469,-15.03886 38.77827,-32.15893 5.20359,-10.8684 7.16921,-24.51234 4.25213,-36.83872 -5.1115,-25.29193 -22.09764,-45.27497 -41.66447,-51.78308 -12.85824,-4.49459 -26.20836,-5.75471 -39.40373,-7.66458 -15.39927,-1.76751 -30.86903,-2.30343 -46.3251,-2.22891 z"
       id="path4040-4-5-3-6"
       inkscape:connector-curvature="0"
       sodipodi:nodetypes="zssssz" />
    <path
       style="fill:#ffffff;fill-rule:evenodd;stroke:none;stroke-width:1.17792189px;stroke-linecap:butt;stroke-linejoin:miter;stroke-opacity:1"
       d="m 567.78489,115.87537 c -34.10271,0.06 -68.10156,2.8147 -102.18765,3.42681 -32.09998,0.84502 -64.36321,1.35134 -96.12411,5.90823 -23.15316,3.13687 -45.75765,10.8338 -64.33049,23.47331 -9.20877,6.22774 -16.81248,14.01096 -24.42547,21.65588 -7.549,7.95388 -14.68521,16.45959 -19.06107,26.13538 -6.76668,15.90957 -6.80733,33.60907 -2.21023,49.97304 4.09822,13.49569 13.57521,25.61939 26.39702,33.91414 14.53426,9.66713 31.98258,15.32538 49.54647,19.16744 26.63377,5.43648 54.13428,5.41581 81.30268,6.60693 84.03776,2.79181 168.15147,0.29158 252.13068,-2.76757 38.50053,-2.1954 77.36208,-4.74322 114.62767,-14.0351 17.45949,-6.93639 31.23782,-19.50206 41.50275,-33.44455 8.97422,-14.08632 10.46316,-30.81679 8.60262,-46.59384 -1.98634,-20.68371 -13.21387,-40.82827 -31.69027,-54.019 -24.08366,-18.88432 -55.45677,-29.66935 -87.33047,-33.0504 -22.91211,-2.8886 -45.97997,-5.09385 -69.13022,-5.66153 -22.56284,-0.0157 -45.11957,-0.50445 -67.68018,-0.68357 -3.3132,-0.0229 -6.62647,-0.007 -9.93973,-0.006 z"
       id="path1299"
       inkscape:connector-curvature="0" />
    <path
       style="color:#000000;display:inline;overflow:visible;visibility:visible;fill:#ffffff;fill-opacity:1;fill-rule:nonzero;stroke:none;stroke-width:1px;marker:none;enable-background:accumulate"
       d="m 601.64274,401.13421 c -14.17455,40.88456 44.77094,72.82978 100.67006,54.05497 -23.16137,8.79652 -79.7912,49.66875 -144.52484,-46.85819 -30.03766,-44.79037 28.99451,-4.6799 28.99451,-4.6799 z"
       id="path4035-4"
       inkscape:connector-curvature="0"
       sodipodi:nodetypes="ccscc" />
    <path
       style="color:#000000;display:inline;overflow:visible;visibility:visible;fill:#ffffff;fill-opacity:1;fill-rule:nonzero;stroke:none;stroke-width:0.65663px;marker:none;enable-background:accumulate"
       d="m 611.41244,701.29174 c 17.11413,0.19349 18.72502,1.92575 19.18724,12.28702 0.46185,10.36191 -1.67076,26.02679 10.09463,35.89667 11.76506,9.87056 19.1963,13.36617 25.49665,11.79439 -5.19491,13.1306 -2.83584,31.62853 -10.75775,36.51466 -7.9219,4.88611 26.05967,-2.07377 26.05967,-2.07377 0,0 9.21399,-27.86213 6.82755,-44.34007 -2.3864,-16.4779 -28.23087,-11.38908 -37.42309,-16.46871 -9.19219,-5.07958 -7.20814,-26.722 -13.49221,-32.72081 -6.28377,-5.99953 -17.59228,-2.98484 -25.99269,-0.88938 z"
       id="path4538-7"
       inkscape:connector-curvature="0"
       sodipodi:nodetypes="ccscccsscc" />
    <path
       style="color:#000000;display:inline;overflow:visible;visibility:visible;fill:#ffffff;fill-opacity:1;fill-rule:nonzero;stroke:none;stroke-width:1.07261443px;marker:none;enable-background:accumulate"
       d="m 1598.5835,596.86203 c 14.1467,-12.76923 29.0076,-25.85934 38.4486,-44.75394 2.5984,-5.43485 4.9981,-11.26143 6.0756,-17.35491 0.016,-6.55541 -3.8969,-11.57942 -8.4908,-13.63549 -6.4361,-3.57044 -14.5628,-3.84038 -19.4026,-10.78351 -3.4195,-5.17032 -1.8272,-12.48221 -0.9156,-18.7227 2.5699,-15.86984 6.8395,-31.54191 7.4104,-47.67347 1.5793,-18.19108 2.1988,-37.38567 -3.7408,-53.86666 -2.4394,-6.46371 -5.7341,-12.73204 -10.8601,-16.1446 -12.7918,-9.53501 -30.6307,-9.55809 -43.8564,1.90974 -7.9407,8.27857 -10.3193,24.68946 -3.5557,33.85635 3.5085,4.91117 9.2515,5.8083 14.4155,4.6941 9.6748,0.16695 18.2991,7.4496 22.6959,17.79583 3.7428,8.4537 5.2552,18.48833 4.6927,28.44196 2.0644,13.54401 -3.5504,26.79429 -6.6517,39.78133 -1.3509,5.95278 -2.467,12.37473 -1.4466,18.30651 3.0779,7.88239 10.5313,9.99558 17.0498,10.84925 6.6944,1.10162 14.6099,1.41483 18.9566,8.54852 3.5752,4.39136 -0.1424,10.78169 -1.3852,15.87331 -5.6681,15.88179 -15.0865,29.66694 -26.0468,40.33574 -1.0987,0.92307 -2.2436,1.73398 -3.3927,2.5426 z"
       id="path4496-9"
       inkscape:connector-curvature="0"
       inkscape:transform-center-x="21.004464"
       inkscape:transform-center-y="-29.003376" />
    <path
       style="color:#000000;display:inline;overflow:visible;visibility:visible;fill:#ffffff;fill-opacity:1;fill-rule:nonzero;stroke:none;stroke-width:1.03729px;marker:none;enable-background:accumulate"
       d="m 2109.2559,751.99134 c -20.4103,6.10083 -40.0468,16.85113 -53.8,33.41265 -10.7709,14.46078 -16.5835,31.98514 -19.9326,49.53175 -1.4068,8.93082 -2.2092,18.35818 0.5,27.10829 3.2554,6.18918 11.8987,8.09797 17.7559,4.53442 7.5966,-3.5917 11.8306,-12.98928 9.3278,-21.03888 -1.6093,-16.53808 1.3652,-33.26989 6.7533,-48.89003 5.7833,-15.14652 16.5635,-28.06938 29.7192,-37.41611 3.7487,-2.79439 7.6932,-5.31046 11.6413,-7.81045 -0.655,0.18946 -1.3099,0.37891 -1.9649,0.56836 z"
       id="path5010-4"
       inkscape:connector-curvature="0"
       sodipodi:nodetypes="ccsc" />
    <path
       style="fill:#ffffff;stroke:none;stroke-width:1.00962"
       d="m 1694.6966,1472.3525 c -45.2399,1.9207 -89.88,23.5759 -116.9189,59.5519 -10.3545,14.1662 -14.9862,31.5853 -16.061,48.8011 -2.6607,26.1893 -2.2577,52.5488 -2.6945,78.8283 0.848,18.42 7.3076,37.3301 21.215,50.2307 17.3346,17.5119 41.5517,26.7038 65.7103,30.6406 38.0695,7.059 77.0071,5.6894 115.5163,4.3047 30.2772,-1.6408 61.4003,-8.243 86.5428,-25.6654 20.7623,-14.2178 35.9747,-36.832 38.7768,-61.7555 3.0873,-23.3392 -0.8243,-46.7948 -3.8998,-69.9242 -3.7,-23.9268 -10.133,-48.3988 -25.3614,-67.9404 -18.9343,-24.1142 -48.5635,-38.5823 -78.9201,-42.8707 -27.7199,-4.3314 -55.9144,-4.3212 -83.9055,-4.2011 z"
       id="path3280-10"
       inkscape:connector-curvature="0"
       sodipodi:nodetypes="csssc" />
    <path
       style="color:#000000;display:inline;overflow:visible;visibility:visible;fill:#ffffff;fill-opacity:1;fill-rule:nonzero;stroke:none;stroke-width:0.730994px;marker:none;enable-background:accumulate"
       d="m 1701.3359,1182.3633 c -23.6044,0.4972 -47.5014,8.2194 -65.537,23.7485 -16.8972,15.2472 -21.3862,42.7399 -9.3936,62.2553 7.3737,12.546 20.5403,20.6735 34.317,24.5048 22.0738,8.2236 45.7993,10.6274 69.1919,11.348 21.8322,0.47 44.2156,-1.001 64.7362,-9.0519 13.7438,-5.6802 26.0669,-16.1754 31.5122,-30.2834 6.1857,-15.1026 4.6669,-33.4624 -5.1548,-46.703 -9.4277,-13.4338 -24.3106,-21.9676 -39.6896,-26.8896 -23.7701,-7.8332 -49.0614,-8.7336 -73.8752,-8.9512 -2.0358,-7e-4 -4.0715,-0.013 -6.1071,0.023 z"
       id="path4546-6-89"
       inkscape:connector-curvature="0"
       sodipodi:nodetypes="cssssc" />
    <path
       style="fill:#ffffff;fill-rule:evenodd;stroke:none;stroke-width:0.479277px;stroke-linecap:butt;stroke-linejoin:miter;stroke-opacity:1"
       d="m 893.13501,1534.7305 c 27.51836,-11.7764 54.23289,-20.9661 71.61477,-23.4902 -3.55561,10.1642 -5.56972,16.3128 -14.89804,25.0191 24.30441,1.9047 70.63976,-18.9809 95.44776,-31.1705 -33.9587,5.7956 -60.1404,12.1497 -70.78238,13.5607 4.97656,-8.3585 6.96879,-14.5328 9.86224,-23.8449 -15.1281,3.6171 -70.65358,12.0504 -83.85269,9.4593 -13.19922,-2.5913 -7.39166,30.4665 -7.39166,30.4665 z"
       id="path1305"
       inkscape:connector-curvature="0"
       sodipodi:nodetypes="ccccccsc" />
    <path
       style="fill:#ffffff;fill-opacity:1;fill-rule:evenodd;stroke:none;stroke-width:1.07431px;stroke-linecap:butt;stroke-linejoin:miter;stroke-opacity:1"
       d="m 465.74707,1569.9179 c 28.87183,-10.521 24.32313,29.0854 7.08566,87.6907 19.83535,-42.7253 58.62076,-54.5706 24.69692,26.6768 53.33209,-60.6901 91.37058,-85.7432 83.00707,-2.6705 70.72385,-79.5477 74.65488,-42.486 69.66817,10.1446 28.08575,-75.6211 54.57913,-83.9057 79.14209,-10.5586 -6.93201,-78.0763 30.95517,-75.972 111.70601,2.8146 -36.07719,-82.423 8.61948,-53.0558 53.75735,-23.0779 -37.94547,-70.5513 14.27698,-31.4196 34.75897,-30.8979 -76.36992,-108.9326 -11.22818,-67.7368 29.89142,-52.0259 -39.46749,-30.7464 -58.64539,-59.0586 9.88191,-68.7458 -60.75668,-12.0507 -35.2302,-38.0924 24.24399,-68.2115 -32.45545,5.098 -94.63626,-15.3443 12.21427,-45.3995 -41.56582,5.4023 -82.33845,-12.8563 -34.95925,-34.29 -15.60965,4.7236 -101.52369,-3.5691 -31.53248,-30.5201 -43.29633,5.5599 -58.96456,3.015 38.1249,-32.6078 -150.7151,30.9765 -41.25336,-16.6513 -14.86102,-39.1823 -62.25583,18.1964 -167.4658,76.6905 -78.41792,-47.06 -124.10967,123.4237 -109.53608,49.4763 -102.58613,-13.6214 -42.77091,98.984 -57.68546,85.536 -61.35602,26.7059 -19.97379,37.9213 -22.58532,10.5965 -24.77223,-18.3239 -19.92787,54.5096 -39.28645,83.9303 -55.98572,-3.8445 -9.18339,101.4459 -41.61144,81.7174 -79.15518,35.321 6.77104,35.8651 -14.43617,19.1419 -45.11533,-15.3849 25.30032,91.5621 -23.64469,69.919 -40.67727,45.1678 13.49987,35.08 19.42837,57.2941 -2.44747,32.2608 13.27872,48.4683 14.69227,78.266 -8.1228,69.9386 26.82013,39.3443 18.18516,35.3206 7.96165,29.3537 10.06784,18.8013 7.71873,39.4912 -10.5109,50.1391 9.5137,17.2849 27.87758,31.8693 3.88482,59.3783 20.75982,-3.5137 22.61196,2.6462 1.12563,20.7466 29.51571,-21.1225 16.91582,6.6004 -0.65111,40.084 z"
       id="path1798"
       sodipodi:nodetypes="cccccccccccccccccccccccccccccccc" />
    <path
       style="fill:#ffffff;fill-rule:evenodd;stroke:none;stroke-width:0.960637px;stroke-linecap:butt;stroke-linejoin:miter;stroke-opacity:1"
       d="m 1778.0933,1289.0282 c 0,0 -3.9407,28.9212 8.0996,38.6226 12.0408,9.7023 15.4867,13.5023 36.0798,21.9048 -30.1647,-5.7228 -44.5902,-13.4046 -52.5226,-23.226 -7.9325,-9.8214 -20.0355,-30.3233 -22.8091,-36.2438 -2.7736,-5.9205 31.1523,-1.0576 31.1523,-1.0576 z"
       id="path1359"
       inkscape:connector-curvature="0" />
    <path
       style="fill:#ffffff;fill-rule:evenodd;stroke:none;stroke-width:1.51642px;stroke-linecap:butt;stroke-linejoin:miter;stroke-opacity:1"
       d="m 1879.5739,1605.0433 c 0,0 29.1528,33.6868 52.9454,28.1474 23.7942,-5.5388 31.7815,-6.1077 63.0487,-23.7148 -38.2213,32.3304 -62.191,42.8809 -81.8135,43.1241 -19.6227,0.2433 -55.9116,-4.864 -65.6341,-7.2483 -9.7228,-2.3842 31.4535,-40.3084 31.4535,-40.3084 z"
       id="path1359-6"
       inkscape:connector-curvature="0" />
    <path
       style="fill:#ffffff;fill-rule:evenodd;stroke:none;stroke-width:1.04628003px;stroke-linecap:butt;stroke-linejoin:miter;stroke-opacity:1;filter:url(#filter1624-1-7)"
       d="m 304.54727,1936.8855 c 5.39109,-32.111 32.34599,-42.814 51.75368,-46.025 19.40768,-3.211 83.0216,-3.211 100.27283,9.633 17.25112,12.844 22.6421,36.392 16.17294,43.884 -6.46926,7.493 -15.09476,29.97 -38.81515,31.04 -23.7206,1.071 -74.39599,5.352 -94.88185,-6.422 -20.48586,-11.774 -36.6588,-14.985 -34.50245,-32.11 z"
       id="path1285-4-4"
       inkscape:connector-curvature="0"
       transform="matrix(1.3712893,0,0,1.0451734,25.850384,-4.4278905)" />
    <path
       style="fill:#ffffff;fill-rule:evenodd;stroke:none;stroke-width:1.04628003px;stroke-linecap:butt;stroke-linejoin:miter;stroke-opacity:1;filter:url(#filter1624-1)"
       d="m 304.54727,1936.8855 c 5.39109,-32.111 32.34599,-42.814 51.75368,-46.025 19.40768,-3.211 83.0216,-3.211 100.27283,9.633 17.25112,12.844 22.6421,36.392 16.17294,43.884 -6.46926,7.493 -15.09476,29.97 -38.81515,31.04 -23.7206,1.071 -74.39599,5.352 -94.88185,-6.422 -20.48586,-11.774 -36.6588,-14.985 -34.50245,-32.11 z"
       id="path1285-4"
       inkscape:connector-curvature="0"
       transform="matrix(1.3204171,0,0,0.96602545,-115.32043,64.314747)" />
    <path
       style="fill:#ffffff;fill-rule:evenodd;stroke:none;stroke-width:1.04628px;stroke-linecap:butt;stroke-linejoin:miter;stroke-opacity:1;filter:url(#filter1624)"
       d="m 115.7959,1883.6103 c 5.39109,-32.111 32.34599,-42.814 51.75368,-46.025 19.40768,-3.211 83.0216,-3.211 100.27283,9.633 17.25112,12.844 22.6421,36.392 16.17294,43.884 -6.46926,7.493 -15.09476,29.97 -38.81515,31.04 -23.7206,1.071 -74.39599,5.352 -94.88185,-6.422 -20.48586,-11.774 -36.6588,-14.985 -34.50245,-32.11 z"
       id="path1285"
       inkscape:connector-curvature="0"
       transform="matrix(1.0933918,0,0,0.98960959,-10.339256,19.531819)" />
    <path
       style="color:#000000;display:inline;overflow:visible;visibility:visible;fill:#ffffff;fill-opacity:1;fill-rule:nonzero;stroke:none;stroke-width:0.921112px;marker:none;enable-background:accumulate"
       d="m 1241.0664,2352.3233 c -36.2286,-32.2998 -77.602,-59.113 -107.8532,-97.7871 l 6.9677,43.9112 c -17.7743,-7.7018 -29.1706,-25.5756 -42.7328,-39.995 l -0.057,27.888 c -41.735,-18.7232 -69.4761,-51.7603 -103.98103,-77.8792 l 3.66035,48.6148 c 37.88508,22.0665 78.75808,37.3542 113.28208,67.0437 l 2.7503,-27.2332 c 13.303,8.4793 26.3021,17.5344 37.9439,29.1641 l 0.5073,-34.5085 z"
       id="path4032-8"
       inkscape:connector-curvature="0"
       sodipodi:nodetypes="cccccccccccc" />
    <path
       style="opacity:1;fill:#ffffff;fill-rule:evenodd;stroke:none;stroke-width:1.2637769px;stroke-linecap:butt;stroke-linejoin:miter;stroke-opacity:1"
       d="m 597.64614,2153.1312 c 75.05427,-4.2607 75.28972,-25.7657 22.97804,-59.3815 37.91036,0.1565 25.02046,-20.8158 -1.82559,-47.5926 100.14849,32.9727 117.65075,-23.5447 89.36565,-89.0672 80.6359,77.1409 81.58772,32.6165 110.96607,-60.9278 16.76353,34.423 38.94584,141.0406 132.95616,48.7022 -16.20934,76.856 34.5996,23.6734 75.20203,-3.1228 7.282,11.0721 -65.8459,74.963 40.6114,-4.2361 -76.8293,104.9902 41.8485,18.5805 78.6408,-10.5061 -38.2356,49.6555 -122.1886,124.0774 -9.5999,95.4689 -81.8754,57.4464 -9.4854,35.8269 26.9772,33.1973 -46.244,23.885 -48.0692,47.5454 -0.926,37.9799 -68.731,44.6996 -15.2338,48.4466 17.8828,49.7781 -25.7562,3.4222 -89.1845,23.0521 -7.3565,27.0758 -56.5506,14.2728 -39.9449,52.3266 -31.8532,67.8928 -62.554,-5.4185 -18.154,46.7025 5.1517,80.2887 -43.194,-14.3828 -110.5418,-51.527 -62.9314,14.0663 -105.91533,-39.2075 -64.1599,0.7714 -40.5547,48.2694 -77.74095,-39.802 -89.66425,-59.1778 -113.50676,-26.2493 -26.28919,-27.6825 -30.96146,-3.4237 -39.04968,25.9517 -16.20069,-59.3747 -43.74776,-23.2709 -73.01858,12.6712 -15.16702,-61.865 -45.05265,-35.8871 -73.05093,-19.1531 0.11185,-71.0802 -37.64865,-53.8208 -113.96669,-1.0302 59.93109,-49.6755 92.74459,-98.8806 -6.65878,-69.8268 31.92904,-14.457 61.71905,-57.9598 19.17864,-42.1539 18.99201,-10.981 36.85711,-35.9464 -19.52288,-28.8451 52.49208,-15.2296 46.19665,-27.5314 -10.82462,-37.3069 98.1688,-13.642 54.2749,-28.3402 -15.26428,-41.9429 z"
       id="path523"
       sodipodi:nodetypes="cccccccccccccccccccccccccccc"
       inkscape:connector-curvature="0" />
  </g>
  <g
     inkscape:groupmode="layer"
     id="layer1"
     inkscape:label="txt">
    <text
       xml:space="preserve"
       style="font-style:normal;font-variant:normal;font-weight:normal;font-stretch:normal;font-size:45px;line-height:1.25;font-family:Lavi;-inkscape-font-specification:Lavi;text-align:center;letter-spacing:0px;word-spacing:0px;text-anchor:middle;fill:#000000;fill-opacity:1;stroke:none"
       x="548.5365"
       y="215.91747"
       id="text4246-3-2-2-6-3-7-9-3"><tspan
         style="font-size:45px"
         sodipodi:role="line"
         x="555.56775"
         y="215.91747"
         id="tspan919">Tha mi duilich, a Pheabar, </tspan><tspan
         style="font-size:45px"
         sodipodi:role="line"
         x="548.5365"
         y="272.16748"
         id="tspan899">ach feumaidh tu falbh.</tspan></text>
    <text
       xml:space="preserve"
       style="font-style:normal;font-variant:normal;font-weight:normal;font-stretch:normal;font-size:45px;line-height:1.25;font-family:Lavi;-inkscape-font-specification:Lavi;text-align:center;letter-spacing:0px;word-spacing:0px;text-anchor:middle;fill:#000000;fill-opacity:1;stroke:none"
       x="552.62341"
       y="348.66003"
       id="text4246-3-2-2-6-3-7-9-3-3"><tspan
         style="font-size:45px"
         sodipodi:role="line"
         x="559.65466"
         y="348.66003"
         id="tspan901">Làrach </tspan><tspan
         style="font-size:45px"
         sodipodi:role="line"
         x="552.62341"
         y="404.91003"
         id="tspan905">nam bonn.</tspan></text>
    <text
       xml:space="preserve"
       style="font-style:normal;font-variant:normal;font-weight:normal;font-stretch:normal;font-size:45px;line-height:1.25;font-family:Lavi;-inkscape-font-specification:Lavi;text-align:center;letter-spacing:0px;word-spacing:0px;text-anchor:middle;fill:#000000;fill-opacity:1;stroke:none"
       x="680.57495"
       y="848.57025"
       id="text4246-3-2-2-6-3-7-9-3-3-5"><tspan
         style="font-size:45px"
         sodipodi:role="line"
         x="680.57495"
         y="848.57025"
         id="tspan27-7-3">Gu dè?</tspan></text>
    <text
       xml:space="preserve"
       style="font-style:normal;font-variant:normal;font-weight:normal;font-stretch:normal;font-size:45px;line-height:1.25;font-family:Lavi;-inkscape-font-specification:Lavi;text-align:center;letter-spacing:0px;word-spacing:0px;text-anchor:middle;fill:#000000;fill-opacity:1;stroke:none"
       x="1542.2219"
       y="181.04332"
       id="text4246-3-2-2-6-3-7-9-3-3-56"><tspan
         style="font-size:45px"
         sodipodi:role="line"
         x="1549.2532"
         y="181.04332"
         id="tspan923">Dad thusa! </tspan><tspan
         style="font-size:45px"
         sodipodi:role="line"
         x="1549.2532"
         y="237.29332"
         id="tspan909">Air do shocair ort! </tspan><tspan
         style="font-size:45px"
         sodipodi:role="line"
         x="1549.2532"
         y="293.54333"
         id="tspan942">Feumaidh gur e </tspan><tspan
         style="font-size:45px"
         sodipodi:role="line"
         x="1542.2219"
         y="349.79333"
         id="tspan913">mì-thuigse a th’ ann.</tspan></text>
    <text
       xml:space="preserve"
       style="font-style:normal;font-variant:normal;font-weight:normal;font-stretch:normal;font-size:45px;line-height:1.25;font-family:Lavi;-inkscape-font-specification:Lavi;text-align:center;letter-spacing:0px;word-spacing:0px;text-anchor:middle;fill:#000000;fill-opacity:1;stroke:none"
       x="2148.061"
       y="923.79041"
       id="text4246-3-2-2-6-3-7-9-3-3-56-9"><tspan
         style="font-size:45px"
         sodipodi:role="line"
         x="2155.0923"
         y="923.79041"
         id="tspan946">A Pheabar </tspan><tspan
         style="font-size:45px"
         sodipodi:role="line"
         x="2155.0923"
         y="980.04041"
         id="tspan922">a charaid, na dèan </tspan><tspan
         style="font-size:45px"
         sodipodi:role="line"
         x="2148.061"
         y="1036.2904"
         id="tspan926">cùis dhuilich dheth.</tspan></text>
    <text
       xml:space="preserve"
       style="font-style:normal;font-variant:normal;font-weight:normal;font-stretch:normal;font-size:45px;line-height:1.25;font-family:Lavi;-inkscape-font-specification:Lavi;text-align:center;letter-spacing:0px;word-spacing:0px;text-anchor:middle;fill:#000000;fill-opacity:1;stroke:none"
       x="705.56104"
       y="1321.6949"
       id="text4246-3-2-2-6-3-7-9-3-3-56-9-3"><tspan
         style="font-size:45px"
         sodipodi:role="line"
         x="712.59229"
         y="1321.6949"
         id="tspan969">Haoigh! Sibhse, </tspan><tspan
         style="font-size:45px"
         sodipodi:role="line"
         x="712.59229"
         y="1377.9449"
         id="tspan957">air a’ chathair ud. </tspan><tspan
         style="font-size:45px"
         sodipodi:role="line"
         x="712.59229"
         y="1434.1949"
         id="tspan979">Ma tha duilgheadas </tspan><tspan
         style="font-size:45px"
         sodipodi:role="line"
         x="712.59229"
         y="1490.4449"
         id="tspan961">agaibh leam, a-nuas </tspan><tspan
         style="font-size:45px"
         sodipodi:role="line"
         x="712.59229"
         y="1546.6949"
         id="tspan965">leibh is innsibh fhèin </tspan><tspan
         style="font-size:45px"
         sodipodi:role="line"
         x="705.56104"
         y="1602.9449"
         id="tspan997">dhomh e!</tspan></text>
    <text
       xml:space="preserve"
       style="font-style:normal;font-variant:normal;font-weight:normal;font-stretch:normal;font-size:52.73070145px;line-height:1.25;font-family:Lavi;-inkscape-font-specification:Lavi;text-align:center;letter-spacing:0px;word-spacing:0px;text-anchor:middle;fill:#000000;fill-opacity:1;stroke:none;stroke-width:1.17179"
       x="1726.7211"
       y="1258.5393"
       id="text4246-3-2-2-6-3-7-9-3-3-56-9-3-2"><tspan
         style="font-size:52.73070145px;stroke-width:1.17179"
         sodipodi:role="line"
         x="1726.7211"
         y="1258.5393"
         id="tspan222-9">Tsss…</tspan></text>
    <text
       xml:space="preserve"
       style="font-style:normal;font-variant:normal;font-weight:normal;font-stretch:normal;font-size:45px;line-height:1.25;font-family:Lavi;-inkscape-font-specification:Lavi;text-align:center;letter-spacing:0px;word-spacing:0px;text-anchor:middle;fill:#000000;fill-opacity:1;stroke:none"
       x="1732.0173"
       y="1569.9558"
       id="text4246-3-2-2-6-3-7-9-3-3-56-9-3-20"><tspan
         style="font-size:45px"
         sodipodi:role="line"
         x="1739.0486"
         y="1569.9558"
         id="tspan1028">A Shidimi, </tspan><tspan
         style="font-size:45px"
         sodipodi:role="line"
         x="1739.0486"
         y="1626.2058"
         id="tspan332">tha deich </tspan><tspan
         style="font-size:45px"
         sodipodi:role="line"
         x="1732.0173"
         y="1682.4558"
         id="tspan334">diogan agad…</tspan></text>
    <text
       xml:space="preserve"
       style="font-style:normal;font-variant:normal;font-weight:normal;font-stretch:normal;font-size:45px;line-height:1.25;font-family:Lavi;-inkscape-font-specification:Lavi;text-align:center;letter-spacing:0px;word-spacing:0px;text-anchor:middle;fill:#000000;fill-opacity:1;stroke:none"
       x="210.39514"
       y="1889.5347"
       id="text4246-3-2-2-6-3-7-9-3-3-56-9-3-20-2"><tspan
         style="font-size:45px"
         sodipodi:role="line"
         x="210.39514"
         y="1889.5347"
         id="tspan334-7">a naoi…</tspan></text>
    <text
       xml:space="preserve"
       style="font-style:normal;font-variant:normal;font-weight:normal;font-stretch:normal;font-size:45px;line-height:1.25;font-family:Lavi;-inkscape-font-specification:Lavi;text-align:center;letter-spacing:0px;word-spacing:0px;text-anchor:middle;fill:#000000;fill-opacity:1;stroke:none"
       x="399.80328"
       y="1942.1443"
       id="text4246-3-2-2-6-3-7-9-3-3-56-9-3-20-2-3"><tspan
         style="font-size:45px"
         sodipodi:role="line"
         x="399.80328"
         y="1942.1443"
         id="tspan334-7-6">a h-ochd…</tspan></text>
    <text
       xml:space="preserve"
       style="font-style:normal;font-variant:normal;font-weight:normal;font-stretch:normal;font-size:45px;line-height:1.25;font-family:Lavi;-inkscape-font-specification:Lavi;text-align:center;letter-spacing:0px;word-spacing:0px;text-anchor:middle;fill:#000000;fill-opacity:1;stroke:none"
       x="564.68182"
       y="2025.6428"
       id="text4246-3-2-2-6-3-7-9-3-3-56-9-3-20-2-3-1"><tspan
         style="font-size:45px"
         sodipodi:role="line"
         x="564.68182"
         y="2025.6428"
         id="tspan334-7-6-2">a seachd…</tspan></text>
    <text
       xml:space="preserve"
       style="font-style:normal;font-variant:normal;font-weight:normal;font-stretch:normal;font-size:55.95299911px;line-height:1.25;font-family:Lavi;-inkscape-font-specification:Lavi;text-align:center;letter-spacing:0px;word-spacing:0px;text-anchor:middle;fill:#000000;fill-opacity:1;stroke:none;stroke-width:0.90246803"
       x="1073.8251"
       y="2109.1938"
       id="text4246-3-2-2-6-3-7-9-3-3-56-9-3-20-2-3-1-9"
       transform="skewX(-4.8400228)"><tspan
         style="font-style:normal;font-variant:normal;font-weight:bold;font-stretch:normal;font-size:55.95299911px;font-family:Lavi;-inkscape-font-specification:'Lavi Bold';stroke-width:0.90246803"
         sodipodi:role="line"
         x="1082.5677"
         y="2109.1938"
         id="tspan457">FÒGHNAIDH NA </tspan><tspan
         style="font-style:normal;font-variant:normal;font-weight:bold;font-stretch:normal;font-size:55.95299911px;font-family:Lavi;-inkscape-font-specification:'Lavi Bold';stroke-width:0.90246803"
         sodipodi:role="line"
         x="1082.5677"
         y="2179.135"
         id="tspan1036">DH’FHÒGHNAS, </tspan><tspan
         style="font-style:normal;font-variant:normal;font-weight:bold;font-stretch:normal;font-size:55.95299911px;font-family:Lavi;-inkscape-font-specification:'Lavi Bold';stroke-width:0.90246803"
         sodipodi:role="line"
         x="1073.8251"
         y="2249.0764"
         id="tspan1034">A PHEABAR!</tspan><tspan
         style="font-style:normal;font-variant:normal;font-weight:bold;font-stretch:normal;font-size:55.95299911px;font-family:Lavi;-inkscape-font-specification:'Lavi Bold';stroke-width:0.90246803"
         sodipodi:role="line"
         x="1073.8251"
         y="2319.0176"
         id="tspan918">THALLA!!!</tspan></text>
    <text
       xml:space="preserve"
       style="font-style:normal;font-variant:normal;font-weight:normal;font-stretch:normal;font-size:180px;line-height:1.25;font-family:Lavi;-inkscape-font-specification:Lavi;letter-spacing:0px;word-spacing:0px;fill:#ffffff;fill-opacity:1;stroke:#ffffff;stroke-width:0.74523997;stroke-miterlimit:4;stroke-dasharray:none;stroke-opacity:1;filter:url(#filter4375-4-1-1-1-9-5-8-8-5-5-3-3)"
       id="text4580-6-0-0-0-9-3-3"
       transform="matrix(0.88341196,-0.53750677,0,1.1213027,-74.551071,722.92786)"
       x="418.61386"
       y="279.76691"><textPath
         xlink:href="#path974"
         id="textPath2837"
         style="font-size:180px;stroke-width:0.74523997"><tspan
   style="font-size:180px;fill:#ffffff;fill-opacity:1;stroke:#ffffff;stroke-width:0.74523997;stroke-miterlimit:4;stroke-dasharray:none;stroke-opacity:1"
   id="tspan876-6-6"
   rotate="325 325 325 325 325 325 325 325 0">SRRIiii!</tspan></textPath></text>
    <path
       style="fill:none;fill-rule:evenodd;stroke:none;stroke-width:1.13654px;stroke-linecap:butt;stroke-linejoin:miter;stroke-opacity:1"
       d="m 2062.1793,2191.5476 c 235.3161,220.1206 417.0174,422.7368 620.7004,632.5297"
       id="path974"
       sodipodi:nodetypes="cc" />
  </g>
</svg>
