<?xml version="1.0" encoding="UTF-8" standalone="no"?>
<!-- Created with Inkscape (http://www.inkscape.org/) -->

<svg
   xmlns:dc="http://purl.org/dc/elements/1.1/"
   xmlns:cc="http://creativecommons.org/ns#"
   xmlns:rdf="http://www.w3.org/1999/02/22-rdf-syntax-ns#"
   xmlns:svg="http://www.w3.org/2000/svg"
   xmlns="http://www.w3.org/2000/svg"
   xmlns:xlink="http://www.w3.org/1999/xlink"
   xmlns:sodipodi="http://sodipodi.sourceforge.net/DTD/sodipodi-0.dtd"
   xmlns:inkscape="http://www.inkscape.org/namespaces/inkscape"
   id="svg2"
   version="1.1"
   inkscape:version="0.92.4 (5da689c313, 2019-01-14)"
   width="2481"
   height="3503"
   sodipodi:docname="E36P11.svg">
  <metadata
     id="metadata8">
    <rdf:RDF>
      <cc:Work
         rdf:about="">
        <dc:format>image/svg+xml</dc:format>
        <dc:type
           rdf:resource="http://purl.org/dc/dcmitype/StillImage" />
        <dc:title />
      </cc:Work>
    </rdf:RDF>
  </metadata>
  <defs
     id="defs6" />
  <sodipodi:namedview
     pagecolor="#1e1e1e"
     bordercolor="#111111"
     borderopacity="1"
     objecttolerance="10"
     gridtolerance="10"
     guidetolerance="10"
     inkscape:pageopacity="0"
     inkscape:pageshadow="2"
     inkscape:window-width="1858"
     inkscape:window-height="1057"
     id="namedview4"
     showgrid="false"
     inkscape:zoom="0.46000002"
     inkscape:cx="1028.2609"
     inkscape:cy="786.95652"
     inkscape:window-x="54"
     inkscape:window-y="-8"
     inkscape:window-maximized="1"
     inkscape:current-layer="layer3"
     inkscape:pagecheckerboard="0"
     inkscape:snap-global="false" />
  <g
     inkscape:groupmode="layer"
     id="layer2"
     inkscape:label="artwork"
     sodipodi:insensitive="true">
    <image
       sodipodi:absref="D:\Documents\Others\webcomics\new-ep36_Title-Here\lang\id\../gfx_Pepper-and-Carrot_by-David-Revoy_E36P11.png"
       xlink:href="../gfx_Pepper-and-Carrot_by-David-Revoy_E36P11.png"
       width="2481"
       height="3503"
       id="image10"
       x="0"
       y="0" />
  </g>
  <g
     inkscape:groupmode="layer"
     id="layer3"
     inkscape:label="speechbubbles"
     style="display:inline">
    <path
       style="color:#000000;display:inline;overflow:visible;visibility:visible;fill:#ffffff;fill-opacity:1;fill-rule:nonzero;stroke:none;stroke-width:0.649444px;marker:none;enable-background:accumulate"
       d="m 384.22008,282.95177 c -36.52082,21.41551 -81.08506,17.53589 -121.80587,16.52247 -42.52036,-3.44423 -93.06761,-16.67254 -112.2994,-58.54734 -17.96129,-38.78476 2.10016,-87.11707 40.45297,-105.22628 35.18838,-16.98124 75.64954,-18.66814 114.10065,-19.46171 49.92399,1.16875 104.76155,32.33519 112.49934,84.58625 4.21244,30.58574 -9.514,62.20135 -32.94769,82.12661 z"
       id="path4040-40"
       inkscape:connector-curvature="0"
       sodipodi:nodetypes="zssssz" />
    <path
       style="color:#000000;display:inline;overflow:visible;visibility:visible;fill:#ffffff;fill-opacity:1;fill-rule:nonzero;stroke:none;stroke-width:0.895703px;marker:none;enable-background:accumulate"
       d="m 617.61025,105.88672 c -27.34146,0.48289 -55.30789,1.99485 -81.01026,10.55273 -19.27663,6.28483 -36.60817,17.59434 -46.89078,32.88401 -10.78797,15.11503 -15.24648,32.66921 -17.99958,49.9598 -3.75274,20.5909 -5.45897,42.02901 1.14989,62.34728 10.14236,29.028 40.31222,51.93542 75.16053,58.49046 45.59561,10.88095 94.50308,13.37614 140.83587,4.25676 26.56867,-5.64189 52.37207,-15.47968 72.95579,-30.96068 13.87857,-11.91714 20.4242,-28.63021 21.90443,-45.0154 2.97723,-25.0214 3.57178,-50.80265 -4.83215,-75.17205 -8.00131,-22.85714 -29.42504,-41.60583 -55.43746,-50.51416 -20.18886,-7.20666 -41.79469,-10.9992 -63.31684,-14.11157 -14.05315,-1.87992 -28.28771,-2.85024 -42.51944,-2.71718 z"
       id="path3365-90"
       inkscape:connector-curvature="0"
       sodipodi:nodetypes="csssssc" />
    <path
       style="color:#000000;display:inline;overflow:visible;visibility:visible;fill:#ffffff;fill-opacity:1;fill-rule:nonzero;stroke:none;stroke-width:0.976718px;marker:none;enable-background:accumulate"
       d="m 841.7647,253.23429 c 0.60665,-53.37318 12.42387,-103.84716 117.18111,-102.10038 78.54749,1.30895 99.46519,42.43199 101.20539,96.38138 1.2265,38.01967 -41.2683,73.2116 -108.75404,71.34686 -64.50346,-1.78194 -104.91519,-24.9245 -109.63246,-65.62786 z"
       id="path5026-3"
       inkscape:connector-curvature="0"
       sodipodi:nodetypes="csssc" />
    <path
       style="color:#000000;display:inline;overflow:visible;visibility:visible;fill:#ffffff;fill-opacity:1;fill-rule:nonzero;stroke:none;stroke-width:1.06703px;marker:none;enable-background:accumulate"
       d="m 958.1944,309.83323 c -43.34053,0.0194 -52.18434,75.22752 -14.63328,128.2568 -16.5114,-21.59304 -72.61174,-61.13455 -7.77479,-172.66812 29.32893,-50.45175 14.74185,29.39163 14.74185,29.39163 z"
       id="path4035-4"
       inkscape:connector-curvature="0"
       sodipodi:nodetypes="ccscc" />
    <path
       style="color:#000000;display:inline;overflow:visible;visibility:visible;fill:#ffffff;fill-opacity:1;fill-rule:nonzero;stroke:none;stroke-width:0.9173px;marker:none;enable-background:accumulate"
       d="m 1009.012,1094.6247 c -26.43581,1.0029 -53.24587,6.7706 -76.27963,20.5504 -16.40054,10.8103 -26.93722,29.2081 -31.19305,48.4378 -7.94354,33.722 -10.6984,69.09 -5.14873,103.443 2.35716,14.018 5.9219,27.9883 12.17216,40.7455 4.1586,8.0641 10.51963,14.9526 18.3892,19.2706 10.67207,6.4988 22.22492,11.293 33.76261,15.8995 22.82406,8.3361 47.08524,11.3559 71.13634,13.0514 11.3654,0.7232 22.7583,-0.6605 33.8165,-3.3399 14.447,-3.4583 28.4874,-8.5983 42.046,-14.738 17.888,-8.6759 34.6397,-21.4297 44.7245,-39.2156 9.8558,-17.3125 13.0333,-37.54 14.4971,-57.2503 2.0786,-25.6082 1.301,-52.0446 -7.1468,-76.484 -7.7166,-21.5968 -23.8246,-39.9866 -44.2321,-49.6577 -23.7669,-11.8236 -50.1839,-16.1409 -76.1744,-19.3281 -10.0801,-1.0909 -20.2336,-1.6584 -30.3697,-1.3846 z"
       id="path3365-90-4"
       inkscape:connector-curvature="0"
       sodipodi:nodetypes="csssssc" />
    <path
       style="fill:#ffffff;fill-rule:evenodd;stroke:none;stroke-width:1.18884px;stroke-linecap:butt;stroke-linejoin:miter;stroke-opacity:1"
       d="m 1051.5368,1104.645 c -7.0579,-18.4075 1.4646,-58.4739 28.7582,-72.4342 -20.0938,4.5574 -50.5407,19.6541 -55.3048,46.5586 -7.4355,41.9896 24.8168,27.8537 24.8168,27.8537 z"
       id="path4248"
       inkscape:connector-curvature="0"
       sodipodi:nodetypes="ccscc" />
    <path
       style="color:#000000;display:inline;overflow:visible;visibility:visible;fill:#ffffff;fill-opacity:1;fill-rule:nonzero;stroke:none;stroke-width:1.666875px;marker:none;enable-background:accumulate"
       d="m 1763.9574,1162.76 c -56.3611,1.4588 -112.5304,6.8897 -168.5344,13.1349 -24.5232,3.1582 -49.9985,7.1166 -71.2162,20.7004 -32.3721,20.6891 -53.7211,58.2871 -53.176,96.9278 -1.1856,28.7207 3.4221,58.9363 19.8893,83.1166 17.8172,25.7194 47.1755,41.732 77.5693,47.1954 42.0022,8.7706 84.958,11.2886 127.2542,18.2107 67.0651,9.017 133.9737,19.858 201.52,24.6709 65.6628,2.7288 131.203,-9.7794 193.2235,-30.7976 26.4481,-8.1205 53.6078,-17.3809 74.7673,-35.9238 20.3392,-17.5928 32.0225,-44.0472 33.2332,-70.7529 2.6522,-26.5349 0.7059,-54.165 -9.8242,-78.9116 -9.6077,-20.5301 -27.3829,-36.7159 -48.1605,-45.491 -29.3744,-13.8365 -61.5472,-19.8107 -93.1517,-26.1783 -55.9671,-10.1767 -112.9564,-12.6537 -169.7216,-13.6218 -37.8849,-0.9919 -75.7684,-2.3754 -113.6722,-2.2797 z"
       id="path4546-6-5"
       inkscape:connector-curvature="0"
       sodipodi:nodetypes="cssssc" />
    <path
       style="color:#000000;display:inline;overflow:visible;visibility:visible;fill:#ffffff;fill-opacity:1;fill-rule:nonzero;stroke:none;stroke-width:1.04338956px;marker:none;enable-background:accumulate"
       d="m 1683.984,1422.1981 c -16.2407,0.7686 -32.6847,1.5531 -48.5297,6.4878 -19.9942,6.7228 -38.7868,21.5376 -49.1186,43.0811 -7.1422,15.3973 -7.531,34.7592 -0.4897,49.9925 7.6661,17.3844 21.8955,29.2546 36.7092,37.5218 24.1511,13.303 51.2214,17.0248 77.7331,19.2006 32.1206,2.4153 64.3771,1.7256 96.571,2.3266 60.8842,0.3822 121.8175,1.051 182.7088,-2.7314 23.3615,-1.8246 46.8634,-4.3611 69.6526,-11.3215 16.8772,-5.5469 33.7353,-14.8541 45.1682,-30.9849 12.5478,-18.2228 15.1352,-44.8387 6.1177,-65.318 -7.5811,-18.297 -22.3854,-31.6625 -39.0302,-37.2899 -35.4955,-14.7003 -74.0133,-19.0046 -111.6934,-14.3817 -23.1791,2.5405 -46.4363,6.3149 -69.7008,4.5964 -26.1817,-1.2172 -52.3289,-3.4825 -78.5735,-3.1143 -37.8269,-0.3109 -75.6711,0.9637 -113.5058,1.7698 -1.3397,0.055 -2.6793,0.1102 -4.0189,0.1654 z"
       id="path4546-6-5-7-9"
       inkscape:connector-curvature="0"
       sodipodi:nodetypes="cssssc" />
    <path
       style="color:#000000;display:inline;overflow:visible;visibility:visible;fill:#ffffff;fill-opacity:1;fill-rule:nonzero;stroke:none;stroke-width:1.16782px;marker:none;enable-background:accumulate"
       d="m 1834.6759,1063.9074 c -58.4661,16.7056 -74.2086,55.188 -42.9987,96.676 31.21,41.487 10.2962,43.1429 10.2962,43.1429 l -38.5277,-15.376 c 0,0 -61.7873,-122.5503 71.2302,-124.4429 z"
       id="path3072-56"
       inkscape:connector-curvature="0"
       sodipodi:nodetypes="ccccc" />
    <path
       style="color:#000000;display:inline;overflow:visible;visibility:visible;fill:#ffffff;fill-opacity:1;fill-rule:nonzero;stroke:none;stroke-width:0.58626193px;marker:none;enable-background:accumulate"
       d="m 135.21071,1627.5134 c 15.88229,-13.7787 211.80394,-23.5914 257.06396,7.571 31.54178,21.7169 19.37392,63.3637 -7.66141,74.2047 -27.03535,10.8417 -157.56006,13.8952 -194.65744,8.3737 -33.35991,-4.9645 -68.37612,-15.6511 -70.22222,-44.0939 -0.75345,-11.6083 -0.40517,-32.2773 15.47711,-46.0555 z"
       id="path4040-5"
       inkscape:connector-curvature="0"
       sodipodi:nodetypes="zssssz" />
    <path
       style="color:#000000;display:inline;overflow:visible;visibility:visible;fill:#ffffff;fill-opacity:1;fill-rule:nonzero;stroke:none;stroke-width:0.85779953px;marker:none;enable-background:accumulate"
       d="m 208.00731,1712.5896 c 20.80644,-22.517 277.47179,-38.5528 336.76428,12.3724 41.32103,35.4896 25.38061,103.5483 -10.03676,121.2646 -35.41741,17.7174 -206.41012,22.7074 -255.00919,13.6842 -43.70286,-8.1128 -89.57551,-25.5768 -91.99398,-72.0577 -0.98703,-18.9703 -0.53078,-52.7473 20.27565,-75.2635 z"
       id="path4040-5-3"
       inkscape:connector-curvature="0"
       sodipodi:nodetypes="zssssz" />
    <path
       style="color:#000000;display:inline;overflow:visible;visibility:visible;fill:#ffffff;fill-opacity:1;fill-rule:nonzero;stroke:none;stroke-width:0.855677px;marker:none;enable-background:accumulate"
       d="m 467.32955,1948.136 c 13.3495,-41.5666 52.33232,-60.4288 7.51958,-104.8642 -33.47159,-33.1897 12.91326,-29.7973 12.91326,-29.7973 0,0 5.02259,-41.3782 24.01835,27.0751 18.99576,68.4534 -9.8869,64.3755 -44.45119,107.5864 z"
       id="path3072-6"
       inkscape:connector-curvature="0"
       sodipodi:nodetypes="csczc" />
    <path
       style="fill:#ffffff;stroke:none;stroke-width:1.17575657"
       d="m 594.74241,1730.1201 c -13.73669,-76.5007 86.68424,-115.1924 160.54623,-112.723 108.68312,-8.7008 218.63218,-5.3418 326.95776,4.4695 81.4047,10.7781 133.554,94.2417 87.9952,156.3201 -51.6424,64.3363 -152.9728,56.6219 -232.79027,62.9721 -92.87337,1.7482 -189.94598,-0.035 -277.05922,-30.4452 -34.40909,-16.6843 -56.97602,-47.7754 -65.6497,-80.5935 z"
       id="path3286-6"
       inkscape:connector-curvature="0"
       sodipodi:nodetypes="csssssssc" />
    <path
       style="fill:#ffffff;stroke:none;stroke-width:1.01763785"
       d="m 643.03443,1881.1107 c -12.29928,-64.0059 77.61359,-96.378 143.74664,-94.312 97.31051,-7.2797 195.75451,-4.4694 292.74473,3.7395 72.8866,9.0177 119.579,78.8493 78.7875,130.7884 -46.2385,53.8283 -136.9657,47.3739 -208.43105,52.6869 -83.15506,1.4627 -170.07006,-0.029 -248.06771,-25.4726 -30.80852,-13.9592 -51.01405,-39.9722 -58.78011,-67.4302 z"
       id="path3286-6-7"
       inkscape:connector-curvature="0"
       sodipodi:nodetypes="csssssssc" />
    <path
       style="fill:#ffffff;stroke:none;stroke-width:0.86463583"
       d="m 717.65573,1988.2364 c -3.76763,-53.9327 76.68787,-81.2101 133.12796,-79.4692 84.13945,-6.134 168.18271,-3.7659 250.40961,3.151 61.4908,7.5985 94.1082,66.44 53.6673,110.205 -45.3074,45.3569 -122.3541,39.9181 -184.14291,44.3951 -71.39674,1.2324 -145.70219,-0.025 -209.83465,-21.4638 -24.91839,-11.7623 -39.47794,-33.6814 -43.22731,-56.8181 z"
       id="path3286-6-7-4"
       inkscape:connector-curvature="0"
       sodipodi:nodetypes="csssssssc" />
    <path
       style="fill:#ffffff;stroke:none;stroke-width:0.755494"
       d="m 1556.1078,2263.7186 c -40.5776,0.9856 -81.571,1.4285 -121.3541,8.2171 -23.4836,5.0646 -46.516,14.6572 -60.3222,30.3859 -12.0378,15.0743 -10.4346,34.6485 0.032,49.9505 8.638,14.5227 26.7065,25.5007 47.2516,28.7663 46.3375,10.8118 95.2925,11.8471 143.394,11.8441 44.0679,-0.2085 88.1393,-2.118 131.9173,-5.9578 24.2957,-2.6624 49.3393,-8.0568 67.8913,-20.8645 22.4519,-15.4056 32.2393,-41.4194 21.0864,-63.0951 -7.7078,-14.8343 -25.3174,-25.8059 -45.0785,-30.5955 -20.8526,-5.1627 -43.0509,-4.7949 -64.6804,-6.0981 -39.6502,-1.8463 -79.3882,-3.227 -119.119,-2.5776 -0.3394,0.011 -0.6788,0.016 -1.0182,0.025 z"
       id="path3286-6-7-4-2-5"
       inkscape:connector-curvature="0"
       sodipodi:nodetypes="csssssssc" />
    <path
       style="display:inline;fill:#ffffff;stroke:none;stroke-width:1.15139389"
       d="m 1570.2732,2336.9936 c -52.6023,1.7659 -105.7439,2.5593 -157.3163,14.7227 -30.4429,9.0742 -45.0834,41.479 -62.9809,69.6603 -15.6052,27.0089 -20.0485,64.2542 -6.4807,91.6711 11.1977,26.0206 10.7077,34.8204 37.3411,40.6714 60.0693,19.3717 117.0571,16.6225 179.3659,19.0475 46.2576,1.8003 138.1718,2.7268 194.923,-4.1529 31.4955,-4.7703 68.3084,-5.7399 92.3582,-28.6877 29.1053,-27.6025 11.3584,-80.7336 -3.0994,-119.5703 -9.9921,-26.5789 -28.4723,-44.063 -54.0896,-52.6446 -27.032,-9.2502 -36.2434,-23.8086 -64.2826,-26.1434 -51.4003,-3.3081 -102.9144,-5.782 -154.419,-4.6184 -0.4399,0.02 -0.8799,0.029 -1.3198,0.045 z"
       id="path3286-6-7-4-2-5-3"
       inkscape:connector-curvature="0"
       sodipodi:nodetypes="cssssssscccccc" />
    <path
       style="color:#000000;display:inline;overflow:visible;visibility:visible;fill:#ffffff;fill-opacity:1;fill-rule:nonzero;stroke:none;stroke-width:1.03365px;marker:none;enable-background:accumulate"
       d="m 1109.0561,1984.7544 c -8.1997,41.8065 59.3043,70.6591 115.2035,48.7714 -22.9931,10.09 -81.6027,63.8105 -171.9044,-28.8625 -40.8476,-41.9203 41.4313,-16.5735 41.4313,-16.5735 z"
       id="path4035-4-5"
       inkscape:connector-curvature="0"
       sodipodi:nodetypes="ccscc" />
    <path
       style="color:#000000;display:inline;overflow:visible;visibility:visible;fill:#ffffff;fill-opacity:1;fill-rule:nonzero;stroke:none;stroke-width:1.14715px;marker:none;enable-background:accumulate"
       d="m 1640.0206,2360.0065 c 85.321,-69.4317 155.0537,-160.9776 126.0876,-275.9291 50.0818,114.8531 -29.8722,233.4391 -50.2498,258.0963 -21.5049,26.0213 -75.8378,17.8328 -75.8378,17.8328 z"
       id="path4008-7"
       inkscape:connector-curvature="0"
       sodipodi:nodetypes="ccsc" />
    <path
       style="color:#000000;display:inline;overflow:visible;visibility:visible;fill:#ffffff;fill-opacity:1;fill-rule:nonzero;stroke:none;stroke-width:0.923908px;marker:none;enable-background:accumulate"
       d="m 1999.7453,2481.5298 c 2.3308,-54.303 42.207,-94.2785 147.9697,-84.7482 56.6523,5.1058 120.9338,8.2785 118.1755,87.8248 -2.7583,79.5464 -95.096,78.0975 -114.1175,80.0803 -19.0213,1.9828 -118.4149,-5.7151 -136.2571,-32.6526 -11.1688,-16.8627 -15.7793,-33.6902 -15.7706,-50.5043 z"
       id="path4546-6-89"
       inkscape:connector-curvature="0"
       sodipodi:nodetypes="cssssc" />
    <path
       style="fill:#ffffff;fill-rule:evenodd;stroke:none;stroke-width:1px;stroke-linecap:butt;stroke-linejoin:miter;stroke-opacity:1"
       d="m 2127.4405,2420.4639 c 0,0 -20.8561,-32.9672 -21.8804,-43.1562 -1.0243,-10.189 2.4576,-31.6896 11.9397,-43.6552 -22.2118,19.0145 -28.0641,35.9803 -27.9104,44.0276 0.1532,8.0482 12.5159,40.8376 12.5159,40.8376 z"
       id="path1367"
       inkscape:connector-curvature="0"
       inkscape:transform-center-x="-1.8067567"
       inkscape:transform-center-y="-52.12792"
       sodipodi:nodetypes="cscscc" />
    <path
       style="color:#000000;display:inline;overflow:visible;visibility:visible;fill:#ffffff;fill-opacity:1;fill-rule:nonzero;stroke:none;stroke-width:0.96386015px;marker:none;enable-background:accumulate"
       d="m 344.6648,2677.6186 c -50.60513,0.5972 -102.02477,2.4129 -150.91773,21.2325 -24.12609,9.7464 -47.03358,28.6273 -60.49879,57.1224 -12.11064,25.6337 -15.32361,59.2442 -5.42591,86.9507 8.75364,25.6663 27.61742,44.3558 48.51963,50.1828 28.10941,10.677 57.1283,16.4668 86.0694,21.7385 78.01441,12.9697 157.66238,12.4849 235.13485,-6.0371 21.85061,-5.4127 43.84218,-14.2183 61.78001,-31.9862 14.41973,-13.8981 26.04566,-33.8123 29.75511,-57.0284 6.32949,-35.448 -2.58454,-76.0366 -24.7921,-98.9334 -16.09266,-16.445 -36.4584,-23.0039 -56.17009,-27.7941 -32.93369,-7.6586 -66.38948,-10.1592 -99.71042,-13.1966 -21.2265,-1.5036 -42.48493,-2.3547 -63.74396,-2.2511 z"
       id="path4546-7"
       inkscape:connector-curvature="0"
       sodipodi:nodetypes="cssssc" />
    <path
       style="color:#000000;display:inline;overflow:visible;visibility:visible;fill:#ffffff;fill-opacity:1;fill-rule:nonzero;stroke:none;stroke-width:1.44545913px;marker:none;enable-background:accumulate"
       d="m 299.53517,2871.5168 c -46.69713,0.9403 -93.91897,7.0851 -135.38485,29.6346 -25.44513,14.2232 -48.22855,36.607 -59.96886,67.6267 -11.207778,28.8305 -13.672952,64.2402 -2.85393,96.3074 6.88388,21.1073 17.71432,41.1179 32.21106,56.4436 14.76832,13.3491 32.4457,19.8204 49.53413,25.9759 37.14297,12.4799 75.0586,17.8872 112.72735,22.2624 29.42337,3.1358 58.87755,5.5044 88.18564,5.7044 25.42246,-0.6277 50.73963,-2.4801 75.79586,-5.8149 34.287,-4.9682 68.46968,-14.3684 97.55874,-34.9227 20.29314,-14.6518 37.45581,-36.751 43.75181,-65.052 6.21286,-27.3862 4.13749,-57.8084 -3.7153,-86.0646 -7.50942,-25.5521 -23.09394,-48.2628 -42.69566,-62.569 -27.69031,-20.9651 -59.55856,-29.3582 -90.49403,-35.3186 -38.55089,-7.213 -77.17759,-9.597 -115.74021,-12.9346 -16.3376,-1.0452 -32.65633,-1.5212 -48.91175,-1.2786 z"
       id="path4546-6-5-4"
       inkscape:connector-curvature="0"
       sodipodi:nodetypes="cssssc" />
    <path
       style="color:#000000;display:inline;overflow:visible;visibility:visible;fill:#ffffff;fill-opacity:1;fill-rule:nonzero;stroke:none;stroke-width:0.94912px;marker:none;enable-background:accumulate"
       d="m 570.40008,2788.5105 c 0.70291,-20.5931 2.79564,-98.204 79.29359,-67.917 -12.96153,-15.3177 -101.3034,-57.4847 -117.55274,67.9555 -4.05901,31.3344 6.93857,21.4416 13.2428,23.8225 6.30431,2.3809 25.01635,-23.861 25.01635,-23.861 z"
       id="path4064-5"
       inkscape:connector-curvature="0"
       sodipodi:nodetypes="ccszc" />
    <path
       style="fill:#ffffff;stroke:none;stroke-width:0.83803439"
       d="m 1430.4869,2662.0926 c -69.1343,0.9233 -138.5709,3.0072 -206.8578,13.7868 -25.7735,4.2349 -52.122,9.6729 -74.4742,22.854 -12.9014,7.6153 -23.6942,18.2822 -30.58,30.9504 -11.6818,20.4817 -16.0269,44.1433 -14.4831,67.129 1.8419,22.6463 11.4696,45.3697 29.7443,60.9924 19.2667,16.9557 44.6552,26.3212 69.9671,32.6695 33.8976,8.2434 69.0508,10.5336 103.9327,12.1032 50.6017,1.8442 101.2534,0.5955 151.8576,-0.4765 56.7703,-1.6962 113.9946,-5.1368 169.1497,-18.4821 26.1541,-6.6438 52.3501,-15.6931 73.5718,-31.7281 13.6755,-10.6908 24.3204,-25.6331 26.0671,-42.3978 2.2347,-16.1243 0.5131,-32.522 -2.8716,-48.399 -5.6788,-22.5265 -19.9844,-43.304 -40.521,-56.7029 -25.0163,-17.2682 -55.5434,-25.7704 -85.7625,-31.476 -45.0015,-8.2674 -91.011,-10.2803 -136.7845,-10.915 -10.6524,-0.1186 -21.3039,-0.073 -31.9556,0.092 z"
       id="path3280-8-0"
       inkscape:connector-curvature="0"
       sodipodi:nodetypes="csssc" />
    <path
       style="color:#000000;display:inline;overflow:visible;visibility:visible;fill:#ffffff;fill-opacity:1;fill-rule:nonzero;stroke:none;stroke-width:1px;marker:none;enable-background:accumulate"
       d="m 1190.5649,2938.1193 c 71.9512,20.8726 126.9981,-3.0998 138.6013,-80.4717 29.2254,-33.921 39.4944,-8.1295 39.4944,-8.1295 0,0 9.6333,15.8558 9.2,26.1866 -1.6876,40.2341 -97.4111,114.3526 -187.2957,62.4146 z"
       id="path3072-7"
       inkscape:connector-curvature="0"
       sodipodi:nodetypes="cccsc" />
    <path
       style="fill:#ffffff;fill-rule:evenodd;stroke:none;stroke-width:1px;stroke-linecap:butt;stroke-linejoin:miter;stroke-opacity:1"
       d="m 611.87816,457.91854 c -12.3953,-22.626 4.8341,-35.579 4.6846,-49.244 -0.1543,-14.107 -33.2797,-25.956 -34.0153,-39.032 -0.7356,-13.076 20.5032,-26.957 19.032,-47.388 -1.4712,-20.432 -25.011,-24.518 -22.8041,-0.818 2.2069,23.701 -15.6571,27.839 -11.7699,46.584 6.483,31.261 30.8848,30.638 38.523,39.431 5.057,5.822 -4.6847,18.594 -2.4778,32.487 2.2069,13.894 8.8275,17.98 8.8275,17.98 z"
       id="path4272-2"
       inkscape:connector-curvature="0"
       sodipodi:nodetypes="csssssssc" />
    <path
       style="display:inline;fill:#ffffff;stroke:none;stroke-width:0.877336"
       d="M 395.5572,452.67668 C 407.56611,407.77396 413.32098,333.81277 360.54542,296.86263 333.08948,277.6397 320.11233,262.96148 320.11233,262.96148 l 22.24546,-19.14958 c 105.35115,77.35453 72.21397,163.85407 53.19941,208.86478 z"
       id="path3063-1-0"
       inkscape:connector-curvature="0"
       sodipodi:nodetypes="csccc" />
  </g>
  <g
     inkscape:groupmode="layer"
     id="layer1"
     inkscape:label="txt">
    <text
       id="text4246-4-2-7"
       y="195.79843"
       x="276.44409"
       style="font-style:normal;font-variant:normal;font-weight:normal;font-stretch:normal;line-height:0%;font-family:Lavi;-inkscape-font-specification:Lavi;text-align:center;letter-spacing:0px;word-spacing:0px;text-anchor:middle;fill:#000000;fill-opacity:1;stroke:none"
       xml:space="preserve"><tspan
         y="195.79843"
         x="276.44409"
         style="font-size:45px;line-height:1.25;fill:#000000"
         sodipodi:role="line"
         id="tspan1639">Kenapa</tspan><tspan
         y="252.04843"
         x="276.44409"
         style="font-size:45px;line-height:1.25;fill:#000000"
         sodipodi:role="line"
         id="tspan2967">dia?</tspan></text>
    <text
       id="text4246-4-2-7-3"
       y="176.08881"
       x="630.43268"
       style="font-style:normal;font-variant:normal;font-weight:normal;font-stretch:normal;line-height:0%;font-family:Lavi;-inkscape-font-specification:Lavi;text-align:center;letter-spacing:0px;word-spacing:0px;text-anchor:middle;fill:#000000;fill-opacity:1;stroke:none"
       xml:space="preserve"><tspan
         y="176.08881"
         x="630.43268"
         style="font-size:45px;line-height:1.25;fill:#000000"
         sodipodi:role="line"
         id="tspan3727">Pepper?</tspan><tspan
         y="232.33881"
         x="630.43268"
         style="font-size:45px;line-height:1.25;fill:#000000"
         sodipodi:role="line"
         id="tspan7366">Semuanya</tspan><tspan
         y="288.58881"
         x="630.43268"
         style="font-size:45px;line-height:1.25;fill:#000000"
         sodipodi:role="line"
         id="tspan10316">oke?</tspan></text>
    <text
       id="text4246-4-2-7-3-5"
       y="216.69748"
       x="952.75238"
       style="font-style:normal;font-variant:normal;font-weight:normal;font-stretch:normal;line-height:0%;font-family:Lavi;-inkscape-font-specification:Lavi;text-align:center;letter-spacing:0px;word-spacing:0px;text-anchor:middle;fill:#000000;fill-opacity:1;stroke:none"
       xml:space="preserve"><tspan
         y="216.69748"
         x="952.75238"
         style="font-size:45px;line-height:1.25;fill:#000000"
         sodipodi:role="line"
         id="tspan6111">Ya,</tspan><tspan
         y="272.94748"
         x="952.75238"
         style="font-size:45px;line-height:1.25;fill:#000000"
         sodipodi:role="line"
         id="tspan17268">tak apa.</tspan></text>
    <text
       id="text4246-4-2-7-3-5-2"
       y="1182.4652"
       x="1034.8293"
       style="font-style:normal;font-variant:normal;font-weight:normal;font-stretch:normal;line-height:0%;font-family:Lavi;-inkscape-font-specification:Lavi;text-align:center;letter-spacing:0px;word-spacing:0px;text-anchor:middle;fill:#000000;fill-opacity:1;stroke:none"
       xml:space="preserve"><tspan
         y="1182.4652"
         x="1041.9924"
         style="font-size:45px;line-height:1.25;fill:#000000"
         sodipodi:role="line"
         id="tspan9293">Aku baru </tspan><tspan
         y="1238.7152"
         x="1034.8293"
         style="font-size:45px;line-height:1.25;fill:#000000"
         sodipodi:role="line"
         id="tspan23627">saja sadar</tspan><tspan
         y="1294.9652"
         x="1034.8293"
         style="font-size:45px;line-height:1.25;fill:#000000"
         sodipodi:role="line"
         id="tspan25929">sesuatu.</tspan></text>
    <text
       id="text4246-4-2-7-3-5-2-2"
       y="1243.312"
       x="1830.1265"
       style="font-style:normal;font-variant:normal;font-weight:normal;font-stretch:normal;line-height:0%;font-family:Lavi;-inkscape-font-specification:Lavi;text-align:center;letter-spacing:0px;word-spacing:0px;text-anchor:middle;fill:#000000;fill-opacity:1;stroke:none"
       xml:space="preserve"><tspan
         y="1243.312"
         x="1830.1265"
         style="font-size:45px;line-height:1.25;fill:#000000"
         sodipodi:role="line"
         id="tspan10626">Semua yang terjadi di sini,</tspan><tspan
         y="1299.562"
         x="1830.1265"
         style="font-size:45px;line-height:1.25;fill:#000000"
         sodipodi:role="line"
         id="tspan5516">langsung atau tidak langsung,</tspan><tspan
         y="1355.812"
         x="1830.1265"
         style="font-size:45px;line-height:1.25;fill:#000000"
         sodipodi:role="line"
         id="tspan10142">adalah hasil dari tindakanku,</tspan><tspan
         y="1412.062"
         x="1830.1265"
         style="font-size:45px;line-height:1.25;fill:#000000"
         sodipodi:role="line"
         id="tspan2901">keputusanku...</tspan></text>
    <text
       id="text4246-4-2-7-3-5-2-2-6"
       y="1476.4728"
       x="1849.402"
       style="font-style:normal;font-variant:normal;font-weight:normal;font-stretch:normal;line-height:0%;font-family:Lavi;-inkscape-font-specification:Lavi;text-align:center;letter-spacing:0px;word-spacing:0px;text-anchor:middle;fill:#000000;fill-opacity:1;stroke:none"
       xml:space="preserve"><tspan
         y="1476.4728"
         x="1849.402"
         style="font-style:normal;font-variant:normal;font-weight:normal;font-stretch:normal;font-size:45px;line-height:1.25;font-family:Lavi;-inkscape-font-specification:Lavi;fill:#000000"
         sodipodi:role="line"
         id="tspan48292">...dengan kata lain,</tspan><tspan
         y="1532.7228"
         x="1849.402"
         style="font-style:normal;font-variant:normal;font-weight:bold;font-stretch:normal;font-size:45px;line-height:1.25;font-family:Lavi;-inkscape-font-specification:Lavi;fill:#000000"
         sodipodi:role="line"
         id="tspan16620">reaksi berantaiku!</tspan></text>
    <text
       id="text4246-4-2-7-3-5-2-2-6-7-2"
       y="1679.4132"
       x="256.14807"
       style="font-style:normal;font-variant:normal;font-weight:normal;font-stretch:normal;line-height:0%;font-family:Lavi;-inkscape-font-specification:Lavi;text-align:center;letter-spacing:0px;word-spacing:0px;text-anchor:middle;fill:#000000;fill-opacity:1;stroke:none"
       xml:space="preserve"><tspan
         y="1679.4132"
         x="256.14807"
         style="font-style:normal;font-variant:normal;font-weight:normal;font-stretch:normal;font-size:45px;line-height:1.25;font-family:Lavi;-inkscape-font-specification:Lavi;fill:#000000"
         sodipodi:role="line"
         id="tspan104696-2-8">Benarkah?</tspan></text>
    <text
       id="text4246-4-2-7-3-5-2-2-6-7-2-9"
       y="1764.6151"
       x="378.92795"
       style="font-style:normal;font-variant:normal;font-weight:normal;font-stretch:normal;line-height:0%;font-family:Lavi;-inkscape-font-specification:Lavi;text-align:center;letter-spacing:0px;word-spacing:0px;text-anchor:middle;fill:#000000;fill-opacity:1;stroke:none"
       xml:space="preserve"><tspan
         y="1764.6151"
         x="378.92795"
         style="font-style:normal;font-variant:normal;font-weight:normal;font-stretch:normal;font-size:45px;line-height:1.25;font-family:Lavi;-inkscape-font-specification:Lavi;fill:#000000"
         sodipodi:role="line"
         id="tspan168035">Kamu harus</tspan><tspan
         y="1820.8651"
         x="378.92795"
         style="font-style:normal;font-variant:normal;font-weight:normal;font-stretch:normal;font-size:45px;line-height:1.25;font-family:Lavi;-inkscape-font-specification:Lavi;fill:#000000"
         sodipodi:role="line"
         id="tspan55293">jelaskan nanti.</tspan></text>
    <text
       id="text4246-4-2-7-3-5-2-2-6-7-2-9-3"
       y="1676.4771"
       x="897.13013"
       style="font-style:normal;font-variant:normal;font-weight:normal;font-stretch:normal;line-height:0%;font-family:Lavi;-inkscape-font-specification:Lavi;text-align:center;letter-spacing:0px;word-spacing:0px;text-anchor:middle;fill:#000000;fill-opacity:1;stroke:none"
       xml:space="preserve"><tspan
         y="1676.4771"
         x="904.29321"
         style="font-style:normal;font-variant:normal;font-weight:normal;font-stretch:normal;font-size:45px;line-height:1.25;font-family:Lavi;-inkscape-font-specification:Lavi;fill:#000000"
         sodipodi:role="line"
         id="tspan64017">Cukup ngobrolnya, </tspan><tspan
         y="1732.7271"
         x="897.13013"
         style="font-style:normal;font-variant:normal;font-weight:normal;font-stretch:normal;font-size:45px;line-height:1.25;font-family:Lavi;-inkscape-font-specification:Lavi;fill:#000000"
         sodipodi:role="line"
         id="tspan68765">kita sekarang di tengah-</tspan><tspan
         y="1788.9771"
         x="897.13013"
         style="font-style:normal;font-variant:normal;font-weight:normal;font-stretch:normal;font-size:45px;line-height:1.25;font-family:Lavi;-inkscape-font-specification:Lavi;fill:#000000"
         sodipodi:role="line"
         id="tspan72039">tengah pertempuran.</tspan></text>
    <text
       id="text4246-4-2-7-3-5-2-2-6-7-2-9-3-2"
       y="1868.5121"
       x="910.66687"
       style="font-style:normal;font-variant:normal;font-weight:normal;font-stretch:normal;line-height:0%;font-family:Lavi;-inkscape-font-specification:Lavi;text-align:center;letter-spacing:0px;word-spacing:0px;text-anchor:middle;fill:#000000;fill-opacity:1;stroke:none"
       xml:space="preserve"><tspan
         y="1868.5121"
         x="910.66687"
         style="font-style:normal;font-variant:normal;font-weight:normal;font-stretch:normal;font-size:45px;line-height:1.25;font-family:Lavi;-inkscape-font-specification:Lavi;fill:#000000"
         sodipodi:role="line"
         id="tspan184397">Kita bisa lanjutkan</tspan><tspan
         y="1924.7621"
         x="910.66687"
         style="font-style:normal;font-variant:normal;font-weight:normal;font-stretch:normal;font-size:45px;line-height:1.25;font-family:Lavi;-inkscape-font-specification:Lavi;fill:#000000"
         sodipodi:role="line"
         id="tspan78621"> setelah kita terbang.</tspan></text>
    <text
       id="text4246-4-2-7-3-5-2-2-6-7-2-9-3-2-9"
       y="2008.9945"
       x="945.51813"
       style="font-style:normal;font-variant:normal;font-weight:normal;font-stretch:normal;line-height:0%;font-family:Lavi;-inkscape-font-specification:Lavi;text-align:center;letter-spacing:0px;word-spacing:0px;text-anchor:middle;fill:#000000;fill-opacity:1;stroke:none"
       xml:space="preserve"><tspan
         y="2008.9945"
         x="945.51813"
         style="font-style:normal;font-variant:normal;font-weight:normal;font-stretch:normal;font-size:45px;line-height:1.25;font-family:Lavi;-inkscape-font-specification:Lavi;fill:#000000"
         sodipodi:role="line"
         id="tspan184397-7">Ayo naik, Pepper!</tspan></text>
    <text
       id="text4246-4-2-7-3-5-2-2-6-7-2-9-3-2-9-8"
       y="2333.4099"
       x="1578.2986"
       style="font-style:normal;font-variant:normal;font-weight:normal;font-stretch:normal;line-height:0%;font-family:Lavi;-inkscape-font-specification:Lavi;text-align:center;letter-spacing:0px;word-spacing:0px;text-anchor:middle;fill:#000000;fill-opacity:1;stroke:none"
       xml:space="preserve"><tspan
         y="2333.4099"
         x="1578.2986"
         style="font-style:normal;font-variant:normal;font-weight:normal;font-stretch:normal;font-size:45px;line-height:1.25;font-family:Lavi;-inkscape-font-specification:Lavi;fill:#000000"
         sodipodi:role="line"
         id="tspan189870">Torreya benar.</tspan></text>
    <text
       id="text4246-4-2-7-3-5-2-2-6-7-2-9-3-2-9-8-3"
       y="2416.0747"
       x="1606.6317"
       style="font-style:normal;font-variant:normal;font-weight:normal;font-stretch:normal;line-height:0%;font-family:Lavi;-inkscape-font-specification:Lavi;text-align:center;letter-spacing:0px;word-spacing:0px;text-anchor:middle;fill:#000000;fill-opacity:1;stroke:none"
       xml:space="preserve"><tspan
         y="2416.0747"
         x="1606.6317"
         style="font-style:normal;font-variant:normal;font-weight:normal;font-stretch:normal;font-size:45px;line-height:1.25;font-family:Lavi;-inkscape-font-specification:Lavi;fill:#000000"
         sodipodi:role="line"
         id="tspan88679">Kita perlu ke</tspan><tspan
         y="2472.3247"
         x="1613.7948"
         style="font-style:normal;font-variant:normal;font-weight:normal;font-stretch:normal;font-size:45px;line-height:1.25;font-family:Lavi;-inkscape-font-specification:Lavi;fill:#000000"
         sodipodi:role="line"
         id="tspan93587">Qualicity, </tspan><tspan
         y="2528.5747"
         x="1606.6317"
         style="font-style:normal;font-variant:normal;font-weight:normal;font-stretch:normal;font-size:45px;line-height:1.25;font-family:Lavi;-inkscape-font-specification:Lavi;fill:#000000"
         sodipodi:role="line"
         id="tspan97393">bagaimanapun juga.</tspan></text>
    <text
       id="text4246-4-2-7-3-5-2-2-6-7-2-9-3-2-9-8-5"
       y="2464.9375"
       x="2133.2007"
       style="font-style:normal;font-variant:normal;font-weight:normal;font-stretch:normal;line-height:0%;font-family:Lavi;-inkscape-font-specification:Lavi;text-align:center;letter-spacing:0px;word-spacing:0px;text-anchor:middle;fill:#000000;fill-opacity:1;stroke:none"
       xml:space="preserve"><tspan
         y="2464.9375"
         x="2133.2007"
         style="font-style:normal;font-variant:normal;font-weight:normal;font-stretch:normal;font-size:45px;line-height:1.25;font-family:Lavi;-inkscape-font-specification:Lavi;fill:#000000"
         sodipodi:role="line"
         id="tspan194276">Tunggu</tspan><tspan
         y="2521.1875"
         x="2133.2007"
         style="font-style:normal;font-variant:normal;font-weight:normal;font-stretch:normal;font-size:45px;line-height:1.25;font-family:Lavi;-inkscape-font-specification:Lavi;fill:#000000"
         sodipodi:role="line"
         id="tspan106897">sebentar.</tspan></text>
    <text
       id="text4246-4-2-7-3-5-2-2-6-7-2-9-3-2-9-8-5-1"
       y="2749.7256"
       x="353.28015"
       style="font-style:normal;font-variant:normal;font-weight:normal;font-stretch:normal;line-height:0%;font-family:Lavi;-inkscape-font-specification:Lavi;text-align:center;letter-spacing:0px;word-spacing:0px;text-anchor:middle;fill:#000000;fill-opacity:1;stroke:none"
       xml:space="preserve"><tspan
         y="2749.7256"
         x="353.28015"
         style="font-style:normal;font-variant:normal;font-weight:normal;font-stretch:normal;font-size:45px;line-height:1.25;font-family:Lavi;-inkscape-font-specification:Lavi;fill:#000000"
         sodipodi:role="line"
         id="tspan132233">Tentara Wasabi</tspan><tspan
         y="2805.9756"
         x="353.28015"
         style="font-style:normal;font-variant:normal;font-weight:normal;font-stretch:normal;font-size:45px;line-height:1.25;font-family:Lavi;-inkscape-font-specification:Lavi;fill:#000000"
         sodipodi:role="line"
         id="tspan143707">baru mau</tspan><tspan
         y="2862.2256"
         x="353.28015"
         style="font-style:normal;font-variant:normal;font-weight:normal;font-stretch:normal;font-size:45px;line-height:1.25;font-family:Lavi;-inkscape-font-specification:Lavi;fill:#000000"
         sodipodi:role="line"
         id="tspan145655">menyerang balik.</tspan></text>
    <text
       id="text4246-4-2-7-3-5-2-2-6-7-2-9-3-2-9-8-5-1-3"
       y="2968.9463"
       x="356.77548"
       style="font-style:normal;font-variant:normal;font-weight:normal;font-stretch:normal;line-height:0%;font-family:Lavi;-inkscape-font-specification:Lavi;text-align:center;letter-spacing:0px;word-spacing:0px;text-anchor:middle;fill:#000000;fill-opacity:1;stroke:none"
       xml:space="preserve"><tspan
         y="2968.9463"
         x="363.93857"
         style="font-style:normal;font-variant:normal;font-weight:normal;font-stretch:normal;font-size:45px;line-height:1.25;font-family:Lavi;-inkscape-font-specification:Lavi;fill:#000000"
         sodipodi:role="line"
         id="tspan207740">Kita tak bisa </tspan><tspan
         y="3025.1963"
         x="363.93857"
         style="font-style:normal;font-variant:normal;font-weight:normal;font-stretch:normal;font-size:45px;line-height:1.25;font-family:Lavi;-inkscape-font-specification:Lavi;fill:#000000"
         sodipodi:role="line"
         id="tspan157996">membiarkan mereka </tspan><tspan
         y="3081.4463"
         x="356.77548"
         style="font-style:normal;font-variant:normal;font-weight:normal;font-stretch:normal;font-size:45px;line-height:1.25;font-family:Lavi;-inkscape-font-specification:Lavi;fill:#000000"
         sodipodi:role="line"
         id="tspan166612">membunuh satu</tspan><tspan
         y="3137.6963"
         x="356.77548"
         style="font-style:normal;font-variant:normal;font-weight:normal;font-stretch:normal;font-size:45px;line-height:1.25;font-family:Lavi;-inkscape-font-specification:Lavi;fill:#000000"
         sodipodi:role="line"
         id="tspan2911">sama lain.</tspan></text>
    <text
       id="text4246-4-2-7-3-5-2-2-6-7-2-9-3-2-9-8-5-1-3-6"
       y="2739.7092"
       x="1412.0334"
       style="font-style:normal;font-variant:normal;font-weight:normal;font-stretch:normal;line-height:0%;font-family:Lavi;-inkscape-font-specification:Lavi;text-align:center;letter-spacing:0px;word-spacing:0px;text-anchor:middle;fill:#000000;fill-opacity:1;stroke:none"
       xml:space="preserve"><tspan
         y="2739.7092"
         x="1412.0334"
         style="font-style:normal;font-variant:normal;font-weight:normal;font-stretch:normal;font-size:45px;line-height:1.25;font-family:Lavi;-inkscape-font-specification:Lavi;fill:#000000"
         sodipodi:role="line"
         id="tspan216256">Aku rasa ini adalah</tspan><tspan
         y="2795.9592"
         x="1419.1965"
         style="font-style:normal;font-variant:normal;font-weight:normal;font-stretch:normal;font-size:45px;line-height:1.25;font-family:Lavi;-inkscape-font-specification:Lavi;fill:#000000"
         sodipodi:role="line"
         id="tspan174001">tanggung jawabku untuk </tspan><tspan
         y="2852.2092"
         x="1412.0334"
         style="font-style:normal;font-variant:normal;font-weight:normal;font-stretch:normal;font-size:45px;line-height:1.25;font-family:Lavi;-inkscape-font-specification:Lavi;fill:#000000"
         sodipodi:role="line"
         id="tspan179595">mengakhiri perang ini.</tspan></text>
  </g>
</svg>
