<?xml version="1.0" encoding="UTF-8" standalone="no"?>
<!-- Created with Inkscape (http://www.inkscape.org/) -->

<svg
   xmlns:dc="http://purl.org/dc/elements/1.1/"
   xmlns:cc="http://creativecommons.org/ns#"
   xmlns:rdf="http://www.w3.org/1999/02/22-rdf-syntax-ns#"
   xmlns:svg="http://www.w3.org/2000/svg"
   xmlns="http://www.w3.org/2000/svg"
   xmlns:xlink="http://www.w3.org/1999/xlink"
   xmlns:sodipodi="http://sodipodi.sourceforge.net/DTD/sodipodi-0.dtd"
   xmlns:inkscape="http://www.inkscape.org/namespaces/inkscape"
   id="svg2"
   version="1.1"
   inkscape:version="0.92.1 r15371"
   width="2481"
   height="3503"
   sodipodi:docname="E26P01.svg">
  <metadata
     id="metadata8">
    <rdf:RDF>
      <cc:Work
         rdf:about="">
        <dc:format>image/svg+xml</dc:format>
        <dc:type
           rdf:resource="http://purl.org/dc/dcmitype/StillImage" />
        <dc:title />
      </cc:Work>
    </rdf:RDF>
  </metadata>
  <defs
     id="defs6" />
  <sodipodi:namedview
     pagecolor="#ffffff"
     bordercolor="#666666"
     borderopacity="1"
     objecttolerance="10"
     gridtolerance="10"
     guidetolerance="10"
     inkscape:pageopacity="0"
     inkscape:pageshadow="2"
     inkscape:window-width="1920"
     inkscape:window-height="1137"
     id="namedview4"
     showgrid="false"
     inkscape:zoom="0.48912286"
     inkscape:cx="1365.152"
     inkscape:cy="1412.3005"
     inkscape:window-x="-8"
     inkscape:window-y="384"
     inkscape:window-maximized="1"
     inkscape:current-layer="layer1"
     inkscape:snap-global="false"
     showguides="false" />
  <g
     inkscape:groupmode="layer"
     id="layer2"
     inkscape:label="artwork"
     sodipodi:insensitive="true">
    <image
       sodipodi:absref="C:\Users\Xan\Documents\Git\peppercarrot\ep26_Books-Are-Great\lang\pt\../gfx_Pepper-and-Carrot_by-David-Revoy_E26P01.png"
       xlink:href="../gfx_Pepper-and-Carrot_by-David-Revoy_E26P01.png"
       y="0"
       x="0"
       id="image10"
       height="3503"
       width="2481" />
  </g>
  <g
     inkscape:groupmode="layer"
     id="layer3"
     inkscape:label="speechbubbles"
     style="display:inline;opacity:1">
    <path
       style="fill:#ffffff;fill-opacity:1;stroke:none;stroke-width:1.33979297"
       d="m 261.91033,1886.1776 c -70.25404,0.4163 -103.28886,-10.1327 -119.80262,-19.4702 -27.40102,-15.4936 -32.75993,-108.6848 22.45255,-127.2534 55.50305,-18.6663 163.74161,-14.5153 208.1649,21.3805 44.42312,35.8958 12.74043,83.1585 2.52612,92.8715 -10.21448,9.7129 -37.3362,32.099 -113.34095,32.4716 z"
       id="path3659-8"
       inkscape:connector-curvature="0"
       sodipodi:nodetypes="cssssc" />
    <path
       style="color:#000000;display:inline;overflow:visible;visibility:visible;fill:#ffffff;fill-opacity:1;fill-rule:nonzero;stroke:none;stroke-width:0.77001458px;marker:none;enable-background:accumulate"
       d="m 274.67689,1855.3732 c 11.17842,15.8247 25.32183,43.4204 25.79652,49.4209 -6.73911,-0.5556 -13.09406,0.387 -18.03883,1.0204 1.81058,10.7946 32.21158,51.6223 41.64451,56.3046 -23.83945,-10.0592 -58.27989,-45.5693 -59.88737,-63.8703 6.68489,-2.1454 10.75049,-2.4727 14.26692,-3.6967 -0.36416,-9.3034 -20.80365,-30.8908 -20.80365,-30.8908 z"
       id="path5066"
       inkscape:connector-curvature="0"
       sodipodi:nodetypes="cccccccc" />
    <path
       style="color:#000000;display:inline;overflow:visible;visibility:visible;fill:#ffffff;fill-opacity:1;fill-rule:nonzero;stroke:none;stroke-width:1.12914014px;marker:none;enable-background:accumulate"
       d="m 1769.4196,1959.3191 c -40.2549,-49.7059 -38.839,-154.5338 -27.3374,-176.9014 17.9863,-41.8224 61.0791,-49.2864 115.7109,-49.2864 54.6317,0 442.4098,-25.3961 498.4792,26.7951 56.0693,52.1912 38.4195,149.3892 -10.4615,210.2788 -48.8811,60.8897 -320.2658,48.4632 -320.2658,48.4632 0,0 -194.3052,4.0256 -256.1254,-59.3493 z"
       id="path3992"
       inkscape:connector-curvature="0"
       sodipodi:nodetypes="ccscccc" />
    <path
       style="color:#000000;display:inline;overflow:visible;visibility:visible;fill:#ffffff;fill-opacity:1;fill-rule:nonzero;stroke:none;stroke-width:1px;marker:none;enable-background:accumulate"
       d="m 1984.9695,2224.8076 c 97.5172,-13.4683 140.8945,-73.5032 173.5649,-113.8088 15.274,-18.8437 -32.2063,-50.3843 -32.2063,-50.3843 l -20.4844,64.3961 c 4.4776,5.3732 -31.2523,71.0033 -120.8742,99.797 z"
       id="path4000"
       inkscape:connector-curvature="0"
       sodipodi:nodetypes="csccc" />
    <path
       style="color:#000000;display:inline;overflow:visible;visibility:visible;fill:#ffffff;fill-opacity:1;fill-rule:nonzero;stroke:none;stroke-width:0.83059144px;marker:none;enable-background:accumulate"
       d="m 1986.9871,2045.8133 c 16.1003,-23.0063 28.0556,-67.3113 146.6344,-51.7323 63.5172,8.3448 135.7326,7.6994 128.2439,88.2216 -7.4887,80.5222 -112.6372,70.1622 -134.1673,71.1095 -21.53,0.9474 -123.0936,0.012 -141.7025,-28.3054 -11.6488,-17.7262 -15.0761,-57.9183 0.9915,-79.2934 z"
       id="path4546-6"
       inkscape:connector-curvature="0"
       sodipodi:nodetypes="cssssc" />
    <path
       style="color:#000000;display:inline;overflow:visible;visibility:visible;opacity:1;vector-effect:none;fill:#ffffff;fill-opacity:1;fill-rule:nonzero;stroke:none;stroke-width:1.09742534;stroke-linecap:butt;stroke-linejoin:miter;stroke-miterlimit:4;stroke-dasharray:none;stroke-dashoffset:0;stroke-opacity:1;marker:none;paint-order:stroke fill markers;enable-background:accumulate"
       d="m 892.15013,2690.5487 c -38.71503,-50.7299 -34.56706,-149.6531 -23.50553,-172.4815 -6.48685,-34.1094 17.8463,-62.4869 78.81276,-57.0711 52.33566,4.6491 428.44094,-29.6046 482.36544,23.6617 53.9243,53.2664 51.6137,156.328 4.6026,218.4721 -47.0112,62.1442 -308.6025,44.4898 -308.6025,44.4898 -0.247,0.3529 -182.98149,20.1295 -233.67277,-57.071 z"
       id="path3992-0"
       inkscape:connector-curvature="0"
       sodipodi:nodetypes="ccscscc" />
    <path
       style="color:#000000;display:inline;overflow:visible;visibility:visible;fill:#ffffff;fill-opacity:1;fill-rule:nonzero;stroke:none;stroke-width:1.1471467px;marker:none;enable-background:accumulate"
       d="m 1107.7917,2663.674 c -41.0805,41.3971 -74.3212,126.4523 -32.6058,262.3106 -64.481,-107.4324 -40.7404,-218.5665 -31.5488,-251.0486 9.1915,-32.4819 64.1546,-11.262 64.1546,-11.262 z"
       id="path4008"
       inkscape:connector-curvature="0" />
    <path
       style="color:#000000;display:inline;overflow:visible;visibility:visible;fill:#ffffff;fill-opacity:1;fill-rule:nonzero;stroke:none;stroke-width:1.1471467px;marker:none;enable-background:accumulate"
       d="m 1891.9827,2656.832 c -40.4116,58.3597 -53.3089,167.7072 24.2468,263.2149 -108.4132,-99.3198 -82.2954,-214.0613 -72.6196,-244.9782 2.0322,-33.6961 48.3728,-18.2367 48.3728,-18.2367 z"
       id="path4008-0"
       inkscape:connector-curvature="0"
       sodipodi:nodetypes="cccc" />
    <path
       style="color:#000000;display:inline;overflow:visible;visibility:visible;opacity:1;fill:#ffffff;fill-opacity:1;fill-rule:nonzero;stroke:none;stroke-width:1.51103187px;marker:none;enable-background:accumulate"
       d="m 1845.3514,2796.9119 c -85.6293,-13.4264 -99.8946,-39.0435 -120.3181,-100.821 -20.4236,-61.7774 17.7873,-234.8647 35.6615,-248.9293 11.3819,-5.3697 198.495,-1.9695 272.5373,12.2304 74.0423,14.2001 107.6533,4.8661 131.9719,101.5136 21.0739,83.7512 -25.7194,210.0411 -123.6327,229.6996 -97.9134,19.6587 -196.2199,6.3067 -196.2199,6.3067 z"
       id="path3970"
       inkscape:connector-curvature="0"
       sodipodi:nodetypes="csccssc" />
  </g>
  <g
     inkscape:groupmode="layer"
     id="layer1"
     inkscape:label="txt">
    <text
       xml:space="preserve"
       style="font-style:normal;font-variant:normal;font-weight:normal;font-stretch:normal;line-height:0%;font-family:Lavi;-inkscape-font-specification:Lavi;text-align:center;letter-spacing:0px;word-spacing:0px;text-anchor:middle;fill:#000000;fill-opacity:1;stroke:none"
       x="255.58946"
       y="1794.8776"
       id="text4246"><tspan
         sodipodi:role="line"
         style="font-size:45px;line-height:1.25"
         x="255.58946"
         y="1794.8776"
         id="tspan825">Livros são</tspan><tspan
         sodipodi:role="line"
         style="font-size:45px;line-height:1.25"
         x="255.58946"
         y="1851.1276"
         id="tspan5649">ótimos!</tspan></text>
    <text
       xml:space="preserve"
       style="font-style:normal;font-variant:normal;font-weight:normal;font-stretch:normal;line-height:0%;font-family:Lavi;-inkscape-font-specification:Lavi;text-align:center;letter-spacing:0px;word-spacing:0px;text-anchor:middle;fill:#000000;fill-opacity:1;stroke:none"
       x="2120.7769"
       y="2060.2957"
       id="text4246-3-5-9"><tspan
         sodipodi:role="line"
         style="font-size:45px;line-height:1.25"
         x="2120.7769"
         y="2060.2957"
         id="tspan958">Isto é</tspan><tspan
         sodipodi:role="line"
         style="font-size:45px;line-height:1.25"
         x="2120.7769"
         y="2116.5457"
         id="tspan5678">ouro puro!</tspan></text>
    <text
       xml:space="preserve"
       style="font-style:normal;font-variant:normal;font-weight:normal;font-stretch:normal;line-height:0%;font-family:Lavi;-inkscape-font-specification:Lavi;text-align:center;letter-spacing:0px;word-spacing:0px;text-anchor:middle;fill:#000000;fill-opacity:1;stroke:none"
       x="2062.4443"
       y="1797.9629"
       id="text4246-3-3"><tspan
         sodipodi:role="line"
         style="font-size:45px;line-height:1.25"
         x="2062.4443"
         y="1797.9629"
         id="tspan5653">Este livro raro contém</tspan><tspan
         sodipodi:role="line"
         style="font-size:45px;line-height:1.25"
         x="2062.4443"
         y="1854.2129"
         id="tspan5657">anotações de um aventureiro</tspan><tspan
         sodipodi:role="line"
         style="font-size:45px;line-height:1.25"
         x="2062.4443"
         y="1910.4629"
         id="tspan5661">habilidoso; ele descreve tudo</tspan><tspan
         sodipodi:role="line"
         style="font-size:45px;line-height:1.25"
         x="2062.4443"
         y="1966.7129"
         id="tspan5665">sobre este calabouço.</tspan><tspan
         sodipodi:role="line"
         style="font-size:45px;line-height:1.25"
         x="2062.4443"
         y="1985.2465"
         id="tspan1107" /></text>
    <text
       xml:space="preserve"
       style="font-style:normal;font-variant:normal;font-weight:normal;font-stretch:normal;line-height:0%;font-family:Lavi;-inkscape-font-specification:Lavi;text-align:center;letter-spacing:0px;word-spacing:0px;text-anchor:middle;fill:#000000;fill-opacity:1;stroke:none"
       x="1155.2523"
       y="2510.0872"
       id="text4246-3-3-1"><tspan
         sodipodi:role="line"
         style="font-size:42.66666667px;line-height:1.25"
         x="1155.2523"
         y="2510.0872"
         id="tspan5682">Por exemplo: este olho mal</tspan><tspan
         sodipodi:role="line"
         style="font-size:42.66666667px;line-height:1.25"
         x="1155.2523"
         y="2566.3372"
         id="tspan5684">na frente da porta atira</tspan><tspan
         sodipodi:role="line"
         style="font-size:42.66666667px;line-height:1.25"
         x="1155.2523"
         y="2622.5872"
         id="tspan5696">bolas de fogo mortais</tspan><tspan
         sodipodi:role="line"
         style="font-size:42.66666667px;line-height:1.25"
         x="1155.2523"
         y="2678.8372"
         id="tspan5686">para espantar visitantes</tspan><tspan
         sodipodi:role="line"
         style="font-size:42.66666667px;line-height:1.25"
         x="1155.2523"
         y="2735.0872"
         id="tspan1244">não autorizados.</tspan></text>
    <text
       xml:space="preserve"
       style="font-style:normal;font-variant:normal;font-weight:normal;font-stretch:normal;line-height:0%;font-family:Lavi;-inkscape-font-specification:Lavi;text-align:center;letter-spacing:0px;word-spacing:0px;text-anchor:middle;fill:#000000;fill-opacity:1;stroke:none"
       x="1932.8992"
       y="2517.8335"
       id="text4246-3-3-1-2"><tspan
         sodipodi:role="line"
         style="font-size:41.33333206px;line-height:1.25"
         x="1932.8992"
         y="2517.8335"
         id="tspan5711">Mas se você</tspan><tspan
         sodipodi:role="line"
         style="font-size:41.33333206px;line-height:1.25"
         x="1932.8992"
         y="2569.5002"
         id="tspan5739">aproximar-se</tspan><tspan
         sodipodi:role="line"
         style="font-size:41.33333206px;line-height:1.25"
         x="1932.8992"
         y="2621.1667"
         id="tspan1230">cuidadosamente pelo</tspan><tspan
         sodipodi:role="line"
         style="font-size:41.33333206px;line-height:1.25"
         x="1940.1648"
         y="2672.8335"
         id="tspan5743">lado da porta, </tspan><tspan
         sodipodi:role="line"
         style="font-size:41.33333206px;line-height:1.25"
         x="1932.8992"
         y="2724.5002"
         id="tspan5735">fora do campo de</tspan><tspan
         sodipodi:role="line"
         style="font-size:41.33333206px;line-height:1.25"
         x="1932.8992"
         y="2776.1667"
         id="tspan5737">visão dele...</tspan></text>
  </g>
</svg>
