<?xml version="1.0" encoding="UTF-8" standalone="no"?>
<svg
   xmlns:dc="http://purl.org/dc/elements/1.1/"
   xmlns:cc="http://creativecommons.org/ns#"
   xmlns:rdf="http://www.w3.org/1999/02/22-rdf-syntax-ns#"
   xmlns:svg="http://www.w3.org/2000/svg"
   xmlns="http://www.w3.org/2000/svg"
   xmlns:xlink="http://www.w3.org/1999/xlink"
   xmlns:sodipodi="http://sodipodi.sourceforge.net/DTD/sodipodi-0.dtd"
   xmlns:inkscape="http://www.inkscape.org/namespaces/inkscape"
   id="svg2"
   version="1.1"
   inkscape:version="1.0.2-2 (e86c870879, 2021-01-15)"
   width="2481"
   height="3503"
   sodipodi:docname="E21P05.svg">
  <sodipodi:namedview
     pagecolor="#ffffff"
     bordercolor="#666666"
     inkscape:pageopacity="0"
     inkscape:pageshadow="2"
     inkscape:window-width="1920"
     inkscape:window-height="1057"
     id="namedview70"
     showgrid="false"
     inkscape:zoom="0.8"
     inkscape:cx="1269.0906"
     inkscape:cy="2999.7401"
     inkscape:current-layer="layer1"
     inkscape:document-rotation="0"
     inkscape:window-x="1358"
     inkscape:window-y="-8"
     inkscape:window-maximized="1" />
  <metadata
     id="metadata8">
    <rdf:RDF>
      <cc:Work
         rdf:about="">
        <dc:format>image/svg+xml</dc:format>
        <dc:type
           rdf:resource="http://purl.org/dc/dcmitype/StillImage" />
        <dc:title />
      </cc:Work>
    </rdf:RDF>
  </metadata>
  <defs
     id="defs6">
    <filter
       style="color-interpolation-filters:sRGB"
       id="filter4375-4-1-1-1-9-6-9-2-2"
       inkscape:label="deevad outline effect">
      <feFlood
         id="feFlood4377-7-9-0-8-1-0-2-2-0"
         flood-opacity="1"
         flood-color="rgb(0,0,0)"
         result="flood" />
      <feComposite
         id="feComposite4379-3-8-8-2-77-6-0-8-6"
         in2="SourceGraphic"
         in="flood"
         operator="in"
         result="composite1" />
      <feMorphology
         id="feMorphology4393-1-0-49-8-9-2-2-9-1"
         operator="dilate"
         radius="4"
         result="result3" />
      <feComposite
         id="feComposite4385-9-5-7-0-8-6-3-7-5"
         in2="result3"
         in="SourceGraphic"
         operator="over"
         result="composite2" />
    </filter>
    <filter
       style="color-interpolation-filters:sRGB"
       id="filter4375-4-1-1-1-9-6-9-2"
       inkscape:label="deevad outline effect">
      <feFlood
         id="feFlood4377-7-9-0-8-1-0-2-2"
         flood-opacity="1"
         flood-color="rgb(0,0,0)"
         result="flood" />
      <feComposite
         id="feComposite4379-3-8-8-2-77-6-0-8"
         in2="SourceGraphic"
         in="flood"
         operator="in"
         result="composite1" />
      <feMorphology
         id="feMorphology4393-1-0-49-8-9-2-2-9"
         operator="dilate"
         radius="4"
         result="result3" />
      <feComposite
         id="feComposite4385-9-5-7-0-8-6-3-7"
         in2="result3"
         in="SourceGraphic"
         operator="over"
         result="composite2" />
    </filter>
    <filter
       style="color-interpolation-filters:sRGB"
       id="filter4375-4-1-1-1-9-6-9"
       inkscape:label="deevad outline effect">
      <feFlood
         id="feFlood4377-7-9-0-8-1-0-2"
         flood-opacity="1"
         flood-color="rgb(0,0,0)"
         result="flood" />
      <feComposite
         id="feComposite4379-3-8-8-2-77-6-0"
         in2="SourceGraphic"
         in="flood"
         operator="in"
         result="composite1" />
      <feMorphology
         id="feMorphology4393-1-0-49-8-9-2-2"
         operator="dilate"
         radius="4"
         result="result3" />
      <feComposite
         id="feComposite4385-9-5-7-0-8-6-3"
         in2="result3"
         in="SourceGraphic"
         operator="over"
         result="composite2" />
    </filter>
    <filter
       style="color-interpolation-filters:sRGB"
       id="filter4375-4-1-1-1-9"
       inkscape:label="deevad outline effect">
      <feFlood
         id="feFlood4377-7-9-0-8-1"
         flood-opacity="1"
         flood-color="rgb(0,0,0)"
         result="flood" />
      <feComposite
         id="feComposite4379-3-8-8-2-77"
         in2="SourceGraphic"
         in="flood"
         operator="in"
         result="composite1" />
      <feMorphology
         id="feMorphology4393-1-0-49-8-9"
         operator="dilate"
         radius="4"
         result="result3" />
      <feComposite
         id="feComposite4385-9-5-7-0-8"
         in2="result3"
         in="SourceGraphic"
         operator="over"
         result="composite2" />
    </filter>
    <filter
       style="color-interpolation-filters:sRGB"
       id="filter4375-4-1-1-1-9-6-9-2-3"
       inkscape:label="deevad outline effect">
      <feFlood
         id="feFlood4377-7-9-0-8-1-0-2-2-6"
         flood-opacity="1"
         flood-color="rgb(0,0,0)"
         result="flood" />
      <feComposite
         id="feComposite4379-3-8-8-2-77-6-0-8-7"
         in2="SourceGraphic"
         in="flood"
         operator="in"
         result="composite1" />
      <feMorphology
         id="feMorphology4393-1-0-49-8-9-2-2-9-5"
         operator="dilate"
         radius="4"
         result="result3" />
      <feComposite
         id="feComposite4385-9-5-7-0-8-6-3-7-3"
         in2="result3"
         in="SourceGraphic"
         operator="over"
         result="composite2" />
    </filter>
    <filter
       style="color-interpolation-filters:sRGB"
       id="filter4375-4-1-1-1-9-6-9-2-1"
       inkscape:label="deevad outline effect">
      <feFlood
         id="feFlood4377-7-9-0-8-1-0-2-2-2"
         flood-opacity="1"
         flood-color="rgb(0,0,0)"
         result="flood" />
      <feComposite
         id="feComposite4379-3-8-8-2-77-6-0-8-70"
         in2="SourceGraphic"
         in="flood"
         operator="in"
         result="composite1" />
      <feMorphology
         id="feMorphology4393-1-0-49-8-9-2-2-9-9"
         operator="dilate"
         radius="4"
         result="result3" />
      <feComposite
         id="feComposite4385-9-5-7-0-8-6-3-7-36"
         in2="result3"
         in="SourceGraphic"
         operator="over"
         result="composite2" />
    </filter>
    <filter
       style="color-interpolation-filters:sRGB"
       id="filter4375-4-1-1-1-9-6-9-2-2-0"
       inkscape:label="deevad outline effect">
      <feFlood
         id="feFlood4377-7-9-0-8-1-0-2-2-0-6"
         flood-opacity="1"
         flood-color="rgb(0,0,0)"
         result="flood" />
      <feComposite
         id="feComposite4379-3-8-8-2-77-6-0-8-6-2"
         in2="SourceGraphic"
         in="flood"
         operator="in"
         result="composite1" />
      <feMorphology
         id="feMorphology4393-1-0-49-8-9-2-2-9-1-6"
         operator="dilate"
         radius="4"
         result="result3" />
      <feComposite
         id="feComposite4385-9-5-7-0-8-6-3-7-5-1"
         in2="result3"
         in="SourceGraphic"
         operator="over"
         result="composite2" />
    </filter>
    <filter
       style="color-interpolation-filters:sRGB"
       id="filter4375-4-1-1-1-9-6-9-8"
       inkscape:label="deevad outline effect">
      <feFlood
         id="feFlood4377-7-9-0-8-1-0-2-7"
         flood-opacity="1"
         flood-color="rgb(0,0,0)"
         result="flood" />
      <feComposite
         id="feComposite4379-3-8-8-2-77-6-0-9"
         in2="SourceGraphic"
         in="flood"
         operator="in"
         result="composite1" />
      <feMorphology
         id="feMorphology4393-1-0-49-8-9-2-2-2"
         operator="dilate"
         radius="4"
         result="result3" />
      <feComposite
         id="feComposite4385-9-5-7-0-8-6-3-0"
         in2="result3"
         in="SourceGraphic"
         operator="over"
         result="composite2" />
    </filter>
    <filter
       style="color-interpolation-filters:sRGB"
       id="filter4375-4-1-1-1-9-6-9-2-3-2"
       inkscape:label="deevad outline effect">
      <feFlood
         id="feFlood4377-7-9-0-8-1-0-2-2-6-3"
         flood-opacity="1"
         flood-color="rgb(0,0,0)"
         result="flood" />
      <feComposite
         id="feComposite4379-3-8-8-2-77-6-0-8-7-7"
         in2="SourceGraphic"
         in="flood"
         operator="in"
         result="composite1" />
      <feMorphology
         id="feMorphology4393-1-0-49-8-9-2-2-9-5-5"
         operator="dilate"
         radius="4"
         result="result3" />
      <feComposite
         id="feComposite4385-9-5-7-0-8-6-3-7-3-9"
         in2="result3"
         in="SourceGraphic"
         operator="over"
         result="composite2" />
    </filter>
    <filter
       style="color-interpolation-filters:sRGB"
       id="filter4375-4-1-1-1-9-6-9-2-1-3"
       inkscape:label="deevad outline effect">
      <feFlood
         id="feFlood4377-7-9-0-8-1-0-2-2-06"
         flood-opacity="1"
         flood-color="rgb(0,0,0)"
         result="flood" />
      <feComposite
         id="feComposite4379-3-8-8-2-77-6-0-8-3"
         in2="SourceGraphic"
         in="flood"
         operator="in"
         result="composite1" />
      <feMorphology
         id="feMorphology4393-1-0-49-8-9-2-2-9-2"
         operator="dilate"
         radius="4"
         result="result3" />
      <feComposite
         id="feComposite4385-9-5-7-0-8-6-3-7-0"
         in2="result3"
         in="SourceGraphic"
         operator="over"
         result="composite2" />
    </filter>
  </defs>
  <sodipodi:namedview
     pagecolor="#ffffff"
     bordercolor="#666666"
     borderopacity="1"
     objecttolerance="10"
     gridtolerance="10"
     guidetolerance="10"
     inkscape:pageopacity="0"
     inkscape:pageshadow="2"
     inkscape:window-width="1920"
     inkscape:window-height="1025"
     id="namedview4"
     showgrid="false"
     inkscape:zoom="0.71817042"
     inkscape:cx="1437.3736"
     inkscape:cy="1138.574"
     inkscape:window-x="0"
     inkscape:window-y="26"
     inkscape:window-maximized="1"
     inkscape:current-layer="layer1"
     showguides="false" />
  <g
     inkscape:groupmode="layer"
     id="layer2"
     inkscape:label="artwork"
     sodipodi:insensitive="true">
    <image
       sodipodi:absref="C:\Users\quentinlipeck\Downloads\webcomics-master-ec7d62e6553c2c63bb1cf2e799ee31f9cb9ce5e2\webcomics-master-ec7d62e6553c2c63bb1cf2e799ee31f9cb9ce5e2\ep21_The-Magic-Contest\lang\gfx_Pepper-and-Carrot_by-David-Revoy_E21P05.png"
       xlink:href="../gfx_Pepper-and-Carrot_by-David-Revoy_E21P05.png"
       width="2481"
       height="3503"
       id="image10"
       x="0"
       y="0" />
  </g>
  <g
     inkscape:groupmode="layer"
     id="layer4"
     inkscape:label="transla-notes">
    <path
       style="color:#000000;clip-rule:nonzero;display:inline;overflow:visible;visibility:visible;opacity:0.481;isolation:auto;mix-blend-mode:normal;color-interpolation:sRGB;color-interpolation-filters:linearRGB;solid-color:#000000;solid-opacity:1;fill:#ffe680;fill-opacity:1;fill-rule:nonzero;stroke:#565656;stroke-width:1.20000005;stroke-linecap:butt;stroke-linejoin:miter;stroke-miterlimit:4;stroke-dasharray:none;stroke-dashoffset:0;stroke-opacity:1;marker:none;color-rendering:auto;image-rendering:auto;shape-rendering:auto;text-rendering:auto;enable-background:accumulate"
       d="m -465.52729,1467.3488 0,189.0351 203.83,0 0,-90.9805 10,0 0,15.6308 30.9825,-26.9824 -30.9825,-26.9804 0,16.6171 -10,0 0,-76.3397 -203.83,0 z"
       id="rect4191-6"
       inkscape:connector-curvature="0" />
    <flowRoot
       xml:space="preserve"
       id="flowRoot4212-7"
       style="font-style:normal;font-variant:normal;font-weight:normal;font-stretch:normal;line-height:0.01%;font-family:Lavi;-inkscape-font-specification:'Lavi, Normal';text-align:center;letter-spacing:0px;word-spacing:0px;writing-mode:lr-tb;text-anchor:middle;display:inline;opacity:0.481;fill:#000000;fill-opacity:1;stroke:none;stroke-width:1px;stroke-linecap:butt;stroke-linejoin:miter;stroke-opacity:1"
       transform="translate(-235.83689,459.1052)"><flowRegion
         id="flowRegion4214-5"><rect
           id="rect4216-3"
           width="291.95547"
           height="247.52747"
           x="-275.14545"
           y="1061.6674" /></flowRegion><flowPara
         id="flowPara4218-5"
         style="font-size:25.3242px;line-height:1.25">Edit this one,</flowPara><flowPara
         id="flowPara4562"
         style="font-size:25.3242px;line-height:1.25">all other one</flowPara><flowPara
         id="flowPara4564"
         style="font-size:25.3242px;line-height:1.25">are linked</flowPara></flowRoot>
    <text
       xml:space="preserve"
       style="font-style:normal;font-variant:normal;font-weight:normal;font-stretch:normal;line-height:0%;font-family:Lavi;-inkscape-font-specification:Lavi;letter-spacing:0px;word-spacing:0px;display:inline;fill:#000000;fill-opacity:1;stroke:#000000;stroke-width:0.992362;stroke-miterlimit:4;stroke-dasharray:none;stroke-opacity:1;filter:url(#filter4375-4-1-1-1-9-6-9-2-1-3)"
       x="787.65729"
       y="1584.5073"
       id="text4580-1-7-3-6"
       transform="matrix(0.96380061,-0.56217228,-0.1779318,1.4896521,-681.35295,-300.2468)"><tspan
         sodipodi:role="line"
         id="tspan4582-8-5-6-1"
         x="787.65729"
         y="1584.5073"
         style="font-size:70px;line-height:1.25;fill:#ffffff">Luka</tspan></text>
  </g>
  <g
     inkscape:groupmode="layer"
     id="layer3"
     inkscape:label="speechbubbles"
     style="display:inline">
    <path
       style="fill:#ffffff;stroke:none"
       d="m 736.51191,1188.4171 c -45.48157,-7.8653 -49.80145,-21.3317 -53.4388,-37.0835 -3.6374,-15.7517 -5.16203,-30.4687 -14.32474,-35.8289 -9.16272,-5.3602 -23.37699,-6.6454 -34.06986,-6.2062 -10.69301,0.4392 -13.97989,-8.9853 -18.62286,-19.1174 -4.64306,-10.1321 -41.97641,-56.8354 -41.97641,-56.8354 0,0 -1.20376,45.2512 2.94367,59.0698 4.14744,13.8186 5.59223,18.8919 8.79041,23.9507 3.19826,5.0588 12.93629,16.3762 24.00316,18.7395 11.06682,2.3635 22.61467,-0.7131 31.38172,-0.7856 8.76701,-0.073 19.23906,8.8101 24.59357,20.1638 5.35451,11.3537 21.40439,35.2793 39.65729,37.2326 18.25291,1.9532 31.06285,-3.2994 31.06285,-3.2994 z"
       id="path3023"
       inkscape:connector-curvature="0"
       sodipodi:nodetypes="csssscssssssc" />
    <g
       transform="matrix(1.8873716,-0.50924587,0.6224069,1.6727079,-2899.8774,-2748.5374)"
       id="g3487">
      <g
         style="display:inline;opacity:1;fill:#ffffff;fill-opacity:1"
         transform="matrix(1.1175556,0.1528418,-0.22733454,1.1392281,200.31774,-1231.9554)"
         id="g5381">
        <path
           sodipodi:nodetypes="csccccccccsccccssccccccsssssscssscc"
           style="color:#000000;display:inline;overflow:visible;visibility:visible;fill:#ffffff;fill-opacity:1;fill-rule:nonzero;stroke:none;stroke-width:1px;marker:none;enable-background:accumulate"
           d="m 1225.2771,3157.962 c -4.7051,-6.6655 -4.7051,-15.2915 -4.7051,-16.8598 0,-1.5684 0.3921,-7.4497 0.3921,-7.4497 l -3.1367,-1.1763 2.7446,-5.0971 -3.1367,0.3921 c 0,0 7.4497,-9.0181 9.018,-11.7627 1.5684,-2.7446 4.313,-9.018 4.313,-9.018 0,0 14.5073,-1.9605 17.644,-3.1368 3.1367,-1.1762 12.5468,-11.3705 12.5468,-11.3705 0,0 11.3706,5.4892 15.6836,6.2734 4.3129,0.7842 24.3095,1.9604 27.8383,0 3.5288,-1.9605 7.0576,-4.7051 7.0576,-4.7051 0,0 9.018,-0.7841 11.3705,-1.9604 2.3526,-1.1763 6.6655,-3.9209 6.6655,-3.9209 0,0 7.4497,0.7842 10.5864,0.3921 3.1367,-0.3921 17.644,0 19.2124,0 1.5683,0 12.5468,6.6655 12.5468,6.6655 l 7.0576,6.6655 c 0,0 5.8813,-0.3921 8.626,-1.1763 2.7446,-0.7841 5.0971,3.1367 5.0971,3.1367 0,0 10.5864,23.9175 12.1548,28.6225 1.5683,4.7051 2.3525,14.1152 2.3525,14.1152 0,0 -4.313,7.4497 -6.6655,10.5864 -2.3525,3.1367 -9.018,10.5864 -12.5468,13.331 -3.5288,2.7446 -7.8418,7.0576 -12.1548,4.313 -4.313,-2.7446 -8.6259,-2.3525 -10.1943,-0.3921 -1.5684,1.9604 -11.8039,13.5779 -15.7248,12.0095 -3.9209,-1.5684 -10.9988,-3.9226 -14.9197,-7.4514 -3.9209,-3.5288 -17.5824,6.8125 -20.327,4.4599 -2.7446,-2.3525 -6.6655,-6.6655 -9.4102,-6.6655 -2.7446,0 -35.68,9.8023 -39.6009,8.2339 -3.9209,-1.5684 -24.7016,-14.5073 -27.0541,-16.0756 -2.3526,-1.5684 -8.2339,-10.9785 -8.2339,-10.9785 z"
           id="path5263"
           inkscape:connector-curvature="0" />
        <path
           sodipodi:nodetypes="cccccccccc"
           style="color:#000000;font-style:normal;font-variant:normal;font-weight:normal;font-stretch:normal;font-size:medium;line-height:normal;font-family:Sans;-inkscape-font-specification:Sans;text-indent:0;text-align:start;text-decoration:none;text-decoration-line:none;letter-spacing:normal;word-spacing:normal;text-transform:none;writing-mode:lr-tb;direction:ltr;baseline-shift:baseline;text-anchor:start;display:inline;overflow:visible;visibility:visible;fill:#ffffff;fill-opacity:1;fill-rule:nonzero;stroke:none;stroke-width:1px;marker:none;enable-background:accumulate"
           d="m 1236.8125,3095.4062 c -0.053,0.01 -0.1046,0.019 -0.1563,0.031 l -9.875,1.375 c -0.5664,0.074 -1.0819,0.3653 -1.4374,0.8125 l -12.9688,16.3438 c -1.8333,2.3125 1.6355,5.0625 3.4688,2.75 l 12.375,-15.6876 9.111,-3.4944 c 2.7893,-0.3937 2.2948,-2.297 -0.5173,-2.1306 z"
           id="path5271"
           inkscape:connector-curvature="0" />
        <path
           sodipodi:nodetypes="cccccccccccc"
           style="color:#000000;font-style:normal;font-variant:normal;font-weight:normal;font-stretch:normal;font-size:medium;line-height:normal;font-family:Sans;-inkscape-font-specification:Sans;text-indent:0;text-align:start;text-decoration:none;text-decoration-line:none;letter-spacing:normal;word-spacing:normal;text-transform:none;writing-mode:lr-tb;direction:ltr;baseline-shift:baseline;text-anchor:start;display:inline;overflow:visible;visibility:visible;fill:#ffffff;fill-opacity:1;fill-rule:nonzero;stroke:none;stroke-width:1px;marker:none;enable-background:accumulate"
           d="m 1252.1562,3077.3125 c -0.649,0.047 -1.244,0.3788 -1.625,0.9063 l -7.8124,10.5312 -11.3438,-5.0625 c -0.7671,-0.3468 -1.6649,-0.2255 -2.3125,0.3125 l -14.6563,12.2812 c -2.4947,1.8493 0.5439,5.4954 2.8126,3.375 l 13.5937,-11.4062 11.7187,5.25 c 0.9445,0.412 2.0484,0.1133 2.6563,-0.7188 l 8.037,-13.4205 c 1.1526,-1.5067 0.8237,-2.1851 -1.0683,-2.0482 z"
           id="path5273"
           inkscape:connector-curvature="0" />
        <path
           sodipodi:nodetypes="cccccccccccc"
           style="color:#000000;font-style:normal;font-variant:normal;font-weight:normal;font-stretch:normal;font-size:medium;line-height:normal;font-family:Sans;-inkscape-font-specification:Sans;text-indent:0;text-align:start;text-decoration:none;text-decoration-line:none;letter-spacing:normal;word-spacing:normal;text-transform:none;writing-mode:lr-tb;direction:ltr;baseline-shift:baseline;text-anchor:start;display:inline;overflow:visible;visibility:visible;fill:#ffffff;fill-opacity:1;fill-rule:nonzero;stroke:none;stroke-width:1px;marker:none;enable-background:accumulate"
           d="m 1267.9375,3079.7188 c -0.351,0.013 -0.6939,0.109 -1,0.2812 l -10.2187,5.4375 c -2.8742,1.2804 -0.605,5.544 2.0624,3.875 l 8.8126,-4.6563 6.3437,6.3438 c 0.3294,0.3327 0.7563,0.5516 1.2187,0.625 l 3.1345,-1.3807 c 3.0849,0.6795 3.0481,-2.4327 -0.1032,-2.6505 l -1.6875,-0.25 -6.9688,-6.9688 c -0.4199,-0.4264 -0.9953,-0.6633 -1.5937,-0.6562 z"
           id="path5275"
           inkscape:connector-curvature="0" />
        <path
           sodipodi:nodetypes="cccccccccc"
           style="color:#000000;font-style:normal;font-variant:normal;font-weight:normal;font-stretch:normal;font-size:medium;line-height:normal;font-family:Sans;-inkscape-font-specification:Sans;text-indent:0;text-align:start;text-decoration:none;text-decoration-line:none;letter-spacing:normal;word-spacing:normal;text-transform:none;writing-mode:lr-tb;direction:ltr;baseline-shift:baseline;text-anchor:start;display:inline;overflow:visible;visibility:visible;fill:#ffffff;fill-opacity:1;fill-rule:nonzero;stroke:none;stroke-width:1px;marker:none;enable-background:accumulate"
           d="m 1265.2812,3072.9062 c -2.5126,0.2333 -2.7193,3.8238 -0.25,4.3438 l 14.375,3.8438 6.8551,8.543 c 1.3125,2.6249 3.0824,1.4256 1.7699,-1.1993 l -5.125,-10.2187 c -0.2798,-0.5704 -0.7925,-0.992 -1.4062,-1.1563 L 1266.1562,3073 c -0.2824,-0.09 -0.58,-0.1219 -0.875,-0.094 z"
           id="path5277"
           inkscape:connector-curvature="0" />
        <path
           sodipodi:nodetypes="cccccc"
           style="color:#000000;font-style:normal;font-variant:normal;font-weight:normal;font-stretch:normal;font-size:medium;line-height:normal;font-family:Sans;-inkscape-font-specification:Sans;text-indent:0;text-align:start;text-decoration:none;text-decoration-line:none;letter-spacing:normal;word-spacing:normal;text-transform:none;writing-mode:lr-tb;direction:ltr;baseline-shift:baseline;text-anchor:start;display:inline;overflow:visible;visibility:visible;fill:#ffffff;fill-opacity:1;fill-rule:nonzero;stroke:none;stroke-width:1px;marker:none;enable-background:accumulate"
           d="m 1343.875,3078.6875 c -0.2717,0.024 -0.5366,0.098 -0.7812,0.2187 l -4.4376,2.0626 c -3.0843,1.0553 -1.8531,3.8515 0.9426,2.175 l 5.3387,-0.2376 c 2.3246,-0.9763 1.4472,-4.46 -1.0625,-4.2187 z"
           id="path5279"
           inkscape:connector-curvature="0" />
        <path
           sodipodi:nodetypes="sscccccs"
           style="color:#000000;font-style:normal;font-variant:normal;font-weight:normal;font-stretch:normal;font-size:medium;line-height:normal;font-family:Sans;-inkscape-font-specification:Sans;text-indent:0;text-align:start;text-decoration:none;text-decoration-line:none;letter-spacing:normal;word-spacing:normal;text-transform:none;writing-mode:lr-tb;direction:ltr;baseline-shift:baseline;text-anchor:start;display:inline;overflow:visible;visibility:visible;fill:#ffffff;fill-opacity:1;fill-rule:nonzero;stroke:none;stroke-width:1px;marker:none;enable-background:accumulate"
           d="m 1353.5625,3079.375 c -2.9375,0 -3.1534,5.1954 -0.2229,5.0779 l 16.7542,-0.6717 9.7927,7.1201 c 2.1875,1.9588 4.2702,-0.4741 2.0823,-2.4325 l -9.5626,-8.5313 c -0.4035,-0.362 -0.9266,-0.5624 -1.4687,-0.5625 z"
           id="path5281"
           inkscape:connector-curvature="0" />
        <path
           sodipodi:nodetypes="cccccccccc"
           style="color:#000000;font-style:normal;font-variant:normal;font-weight:normal;font-stretch:normal;font-size:medium;line-height:normal;font-family:Sans;-inkscape-font-specification:Sans;text-indent:0;text-align:start;text-decoration:none;text-decoration-line:none;letter-spacing:normal;word-spacing:normal;text-transform:none;writing-mode:lr-tb;direction:ltr;baseline-shift:baseline;text-anchor:start;display:inline;overflow:visible;visibility:visible;fill:#ffffff;fill-opacity:1;fill-rule:nonzero;stroke:none;stroke-width:1px;marker:none;enable-background:accumulate"
           d="m 1365,3069.8438 c -2.9378,0.062 -2.8438,4.4693 0.094,4.4062 l 10,0.3125 6.2206,4.1383 c 1.998,2.1997 3.8644,0.1343 1.8106,-2.0133 l -5.4688,-5.8125 c -0.3995,-0.4225 -0.95,-0.6697 -1.5312,-0.6875 l -10.9062,-0.3437 c -0.073,0 -0.1459,0 -0.2188,0 z"
           id="path5283"
           inkscape:connector-curvature="0" />
        <path
           sodipodi:nodetypes="cccccccccc"
           style="color:#000000;font-style:normal;font-variant:normal;font-weight:normal;font-stretch:normal;font-size:medium;line-height:normal;font-family:Sans;-inkscape-font-specification:Sans;text-indent:0;text-align:start;text-decoration:none;text-decoration-line:none;letter-spacing:normal;word-spacing:normal;text-transform:none;writing-mode:lr-tb;direction:ltr;baseline-shift:baseline;text-anchor:start;display:inline;overflow:visible;visibility:visible;fill:#ffffff;fill-opacity:1;fill-rule:nonzero;stroke:none;stroke-width:1px;marker:none;enable-background:accumulate"
           d="m 1397.4375,3095.0625 c -2.6759,0.091 -2.5495,2.1775 0.099,2.5732 l 15.1514,4.3018 2.125,12.0937 c 0.5208,2.8958 4.8645,2.1146 4.3437,-0.7812 l -2.4062,-13.625 c -0.1656,-0.9179 -0.8919,-1.6317 -1.8125,-1.7812 l -17.0625,-2.75 c -0.1444,-0.025 -0.291,-0.035 -0.4375,-0.031 z"
           id="path5285"
           inkscape:connector-curvature="0" />
        <path
           sodipodi:nodetypes="ccccccccc"
           style="color:#000000;font-style:normal;font-variant:normal;font-weight:normal;font-stretch:normal;font-size:medium;line-height:normal;font-family:Sans;-inkscape-font-specification:Sans;text-indent:0;text-align:start;text-decoration:none;text-decoration-line:none;letter-spacing:normal;word-spacing:normal;text-transform:none;writing-mode:lr-tb;direction:ltr;baseline-shift:baseline;text-anchor:start;display:inline;overflow:visible;visibility:visible;fill:#ffffff;fill-opacity:1;fill-rule:nonzero;stroke:none;stroke-width:1px;marker:none;enable-background:accumulate"
           d="m 1397.875,3101.1875 c -2.3206,-0.025 -3.0946,3.0941 -1.0312,4.1563 l 3.5937,1.9062 5.875,22.9688 c 0.7292,2.8542 3.3019,2.1492 2.5727,-0.705 l -4.4477,-24.2638 c -0.1578,-0.5903 -0.554,-1.0884 -1.0937,-1.375 l -4.4063,-2.4062 c -0.3247,-0.1821 -0.6902,-0.2789 -1.0625,-0.2813 z"
           id="path5287"
           inkscape:connector-curvature="0" />
        <path
           sodipodi:nodetypes="ccccccccc"
           style="color:#000000;font-style:normal;font-variant:normal;font-weight:normal;font-stretch:normal;font-size:medium;line-height:normal;font-family:Sans;-inkscape-font-specification:Sans;text-indent:0;text-align:start;text-decoration:none;text-decoration-line:none;letter-spacing:normal;word-spacing:normal;text-transform:none;writing-mode:lr-tb;direction:ltr;baseline-shift:baseline;text-anchor:start;display:inline;overflow:visible;visibility:visible;fill:#ffffff;fill-opacity:1;fill-rule:nonzero;stroke:none;stroke-width:1px;marker:none;enable-background:accumulate"
           d="m 1412.125,3144.4688 c -0.9591,0.041 -1.7811,0.6982 -2.0312,1.625 l -2.9688,10.1874 -3.875,5.5313 c -1.8826,2.4274 0.2658,3.9104 1.9173,1.3203 l 5.7702,-4.5703 c 0.1398,-0.1999 0.2454,-0.4217 0.3125,-0.6563 l 3.0625,-10.5937 c 0.4441,-1.4482 -0.6739,-2.9015 -2.1875,-2.8437 z"
           id="path5289"
           inkscape:connector-curvature="0" />
        <path
           sodipodi:nodetypes="ccccccccc"
           style="color:#000000;font-style:normal;font-variant:normal;font-weight:normal;font-stretch:normal;font-size:medium;line-height:normal;font-family:Sans;-inkscape-font-specification:Sans;text-indent:0;text-align:start;text-decoration:none;text-decoration-line:none;letter-spacing:normal;word-spacing:normal;text-transform:none;writing-mode:lr-tb;direction:ltr;baseline-shift:baseline;text-anchor:start;display:inline;overflow:visible;visibility:visible;fill:#ffffff;fill-opacity:1;fill-rule:nonzero;stroke:none;stroke-width:1px;marker:none;enable-background:accumulate"
           d="m 1417.4062,3142.0938 c -1.0392,0.1213 -1.8492,0.9575 -1.9374,2 l -1,9.5624 -3.2813,7.9063 c -1.2238,2.7484 0.9066,3.9744 1.9903,1.1678 l 5.4784,-7.6678 c 0.083,-0.1995 0.1351,-0.4101 0.1563,-0.625 l 1.0313,-9.875 c 0.1844,-1.4201 -1.0153,-2.6351 -2.4376,-2.4687 z"
           id="path5291"
           inkscape:connector-curvature="0" />
        <path
           sodipodi:nodetypes="ccccccccc"
           style="color:#000000;font-style:normal;font-variant:normal;font-weight:normal;font-stretch:normal;font-size:medium;line-height:normal;font-family:Sans;-inkscape-font-specification:Sans;text-indent:0;text-align:start;text-decoration:none;text-decoration-line:none;letter-spacing:normal;word-spacing:normal;text-transform:none;writing-mode:lr-tb;direction:ltr;baseline-shift:baseline;text-anchor:start;display:inline;overflow:visible;visibility:visible;fill:#ffffff;fill-opacity:1;fill-rule:nonzero;stroke:none;stroke-width:1px;marker:none;enable-background:accumulate"
           d="m 1390.5662,3179.5714 c -0.351,0.013 -1,0.2813 -1,0.2813 l -7.125,3.875 -7.3437,0.6562 c -3.1313,0.063 -2.7214,4.8457 0.375,4.375 l 7.8437,-0.6875 c 0.3059,-0.021 0.6039,-0.1066 0.875,-0.25 l 8.0065,-5.119 c 2.1196,-1.0821 0.7445,-3.2657 -1.6315,-3.131 z"
           id="path5293"
           inkscape:connector-curvature="0" />
        <path
           sodipodi:nodetypes="cccccccccccc"
           style="color:#000000;font-style:normal;font-variant:normal;font-weight:normal;font-stretch:normal;font-size:medium;line-height:normal;font-family:Sans;-inkscape-font-specification:Sans;text-indent:0;text-align:start;text-decoration:none;text-decoration-line:none;letter-spacing:normal;word-spacing:normal;text-transform:none;writing-mode:lr-tb;direction:ltr;baseline-shift:baseline;text-anchor:start;display:inline;overflow:visible;visibility:visible;fill:#ffffff;fill-opacity:1;fill-rule:nonzero;stroke:none;stroke-width:1px;marker:none;enable-background:accumulate"
           d="m 1280.7221,3188.5748 c -0.4982,-0.2647 -1.0898,0.1011 -1.6873,0.2377 l -9.4568,5.0098 -11.166,-4.9199 -7.8481,-7.3221 c -0.8757,-2.5874 -2.2771,-0.2485 -1.4013,2.3389 l 5.8014,8.0075 c 0.108,0.3279 0.5511,0.4423 0.829,0.6681 l 12.6908,5.6184 c 0.5337,0.4324 1.3256,0.06 2.0722,-0.1113 3.6662,-1.0699 3.4682,-3.4305 9.9622,-6.6196 2.0978,-0.4518 1.9543,-1.9874 0.2039,-2.9075 z"
           id="path5295"
           inkscape:connector-curvature="0" />
        <path
           sodipodi:nodetypes="cccccccccccc"
           style="color:#000000;font-style:normal;font-variant:normal;font-weight:normal;font-stretch:normal;font-size:medium;line-height:normal;font-family:Sans;-inkscape-font-specification:Sans;text-indent:0;text-align:start;text-decoration:none;text-decoration-line:none;letter-spacing:normal;word-spacing:normal;text-transform:none;writing-mode:lr-tb;direction:ltr;baseline-shift:baseline;text-anchor:start;display:inline;overflow:visible;visibility:visible;fill:#ffffff;fill-opacity:1;fill-rule:nonzero;stroke:none;stroke-width:1px;marker:none;enable-background:accumulate"
           d="m 1299.0938,3181.6562 c -1.9894,0.1923 -2.7125,2.7233 -1.125,3.9376 l 11.9374,9.5312 c 0.4208,0.3468 0.9553,0.525 1.5,0.5 l 5.4688,-0.3438 c 0.5905,-0.034 1.1423,-0.3044 1.5312,-0.75 l 2.375,-2.7187 c 1.9375,-2.2083 -0.191,-3.9463 -2.1285,-1.7381 l -2.9652,0.8631 -3.6875,0.2187 -11.2812,-9 c -0.4528,-0.3777 -1.0382,-0.5578 -1.625,-0.5 z"
           id="path5297"
           inkscape:connector-curvature="0" />
        <path
           style="color:#000000;font-style:normal;font-variant:normal;font-weight:normal;font-stretch:normal;font-size:medium;line-height:normal;font-family:Sans;-inkscape-font-specification:Sans;text-indent:0;text-align:start;text-decoration:none;text-decoration-line:none;letter-spacing:normal;word-spacing:normal;text-transform:none;writing-mode:lr-tb;direction:ltr;baseline-shift:baseline;text-anchor:start;display:inline;overflow:visible;visibility:visible;fill:#ffffff;fill-opacity:1;fill-rule:nonzero;stroke:none;stroke-width:1px;marker:none;enable-background:accumulate"
           d="m 1229.0625,3164.9375 a 2.20022,2.20022 0 0 0 -1.3125,3.9375 l 3.4062,2.75 a 2.201074,2.201074 0 1 0 2.75,-3.4375 l -3.4062,-2.75 a 2.20022,2.20022 0 0 0 -1.4375,-0.5 z"
           id="path5301"
           inkscape:connector-curvature="0" />
      </g>
      <path
         inkscape:connector-curvature="0"
         id="path4295"
         d="m 1040.7186,2593.0113 c -5.5317,9.4907 -18.0351,11.6413 -21.4746,15.2859 5.7949,6.8978 14.8495,-2.0477 20.5137,-5.6272 2.9757,-2.0944 5.2706,-7.1056 0.9609,-9.6587 z"
         style="color:#000000;clip-rule:nonzero;display:inline;overflow:visible;visibility:visible;opacity:1;isolation:auto;mix-blend-mode:normal;color-interpolation:sRGB;color-interpolation-filters:linearRGB;solid-color:#000000;solid-opacity:1;fill:#ffffff;fill-opacity:1;fill-rule:nonzero;stroke:none;stroke-width:2.807;stroke-linecap:round;stroke-linejoin:round;stroke-miterlimit:4;stroke-dasharray:none;stroke-dashoffset:0;stroke-opacity:1;marker:none;color-rendering:auto;image-rendering:auto;shape-rendering:auto;text-rendering:auto;enable-background:accumulate"
         sodipodi:nodetypes="cccc" />
      <path
         inkscape:connector-curvature="0"
         id="path4297"
         d="m 838.01363,2551.4901 c -3.91523,-6.7821 -5.95361,-15.045 -3.86702,-22.5868 2.65752,-5.6153 5.33509,-2.5587 4.02293,2.0566 0.10065,6.6089 1.23208,13.1512 1.85409,19.7253 -0.67001,0.2683 -1.34,0.5365 -2.01,0.8049 z"
         style="color:#000000;clip-rule:nonzero;display:inline;overflow:visible;visibility:visible;opacity:1;isolation:auto;mix-blend-mode:normal;color-interpolation:sRGB;color-interpolation-filters:linearRGB;solid-color:#000000;solid-opacity:1;fill:#ffffff;fill-opacity:1;fill-rule:nonzero;stroke:none;stroke-width:2.807;stroke-linecap:round;stroke-linejoin:round;stroke-miterlimit:4;stroke-dasharray:none;stroke-dashoffset:0;stroke-opacity:1;marker:none;color-rendering:auto;image-rendering:auto;shape-rendering:auto;text-rendering:auto;enable-background:accumulate" />
    </g>
    <path
       style="fill:#ffffff;fill-rule:evenodd;stroke:none;stroke-width:0.904716"
       d="m 1313.9511,358.33407 c 24.5748,8.09445 46.7889,13.12701 39.2365,-20.44606 43.4993,45.58042 37.2593,14.36403 44.1413,3.40765 25.8618,32.19785 48.1138,27.60942 67.4378,-6.81531 10.9243,49.65605 33.7841,25.59738 53.9504,18.17428 -0.05,13.96406 -5.5555,29.97634 53.9504,21.58199 -17.0142,12.61195 -23.3607,24.06121 14.7136,30.66917 -26.4481,10.14043 -40.973,20.93059 -12.2614,34.07688 -15.2528,19.15103 -5.0511,30.53242 15.9399,38.62042 -49.1487,1.12002 -37.3125,11.65605 -29.4275,21.58198 -41.8448,-20.40767 -47.6994,-12.2372 -44.1412,3.40766 -19.4763,-8.97465 -33.8718,-30.18714 -68.6639,-2.27171 -10.3476,-9.26471 -19.8859,-20.96608 -42.9151,7.95123 -1.6245,-25.22383 -18.4619,-24.27494 -42.9152,-10.22304 -6.4496,-23.65527 -30.6683,-11.64471 -56.4026,3.40773 21.005,-23.08805 22.5271,-42.37624 -18.3921,-53.38709 39.6542,-13.20804 32.4335,-23.86173 17.166,-34.07682 15.0838,-9.60581 24.9186,-20.06963 -14.7137,-38.62046 23.172,2.88397 47.8448,6.60217 23.2968,-17.0385 z"
       id="path4582-1"
       inkscape:connector-curvature="0"
       sodipodi:nodetypes="ccccccccccccccccccc" />
    <path
       style="fill:#ffffff;fill-rule:evenodd;stroke:none;stroke-width:1.18788px;stroke-linecap:butt;stroke-linejoin:miter;stroke-opacity:1"
       d="m 1238.8534,214.77507 c 35.0125,10.5408 55.6071,12.13307 44.8471,-31.58657 61.9746,59.35594 53.0844,18.70516 62.8893,4.43752 36.8462,41.92882 68.5494,35.95367 96.0809,-8.87506 15.564,64.66333 48.1331,33.33352 76.8647,23.66698 -0.071,18.18435 -7.9149,39.03591 76.8646,28.10461 -24.2406,16.42358 -33.2826,31.33309 20.963,39.93813 -37.6814,13.2051 -65.0081,28.91008 -24.1018,46.0295 -48.5896,19.93153 -29.6258,34.56014 1.7068,46.1581 -34.6498,3.93913 -16.6811,21.79374 -5.4469,34.71954 -59.6176,-26.57538 -76.8023,-20.06993 -71.7327,0.30319 -27.7485,-11.68703 -48.2584,-39.31043 -97.8277,-2.95829 -14.7425,-12.06472 -28.3319,-27.30253 -61.1424,10.3543 -2.3145,-32.84709 -26.303,-31.61142 -61.1423,-13.31269 -9.1891,-30.80448 -43.6943,-15.16402 -80.3586,4.43763 29.9263,-30.06583 32.095,-55.1834 -26.2038,-69.52198 56.4964,-17.19985 46.2089,-31.07334 24.457,-44.37566 21.4902,-12.50894 35.5021,-26.13516 -20.9631,-50.29253 33.0139,3.75559 79.2202,13.55875 44.2459,-17.22672 z"
       id="path4582"
       inkscape:connector-curvature="0"
       sodipodi:nodetypes="ccccccccccccccccccc" />
    <path
       style="fill:#ffffff;fill-rule:evenodd;stroke:none;stroke-width:1.22609px;stroke-linecap:butt;stroke-linejoin:miter;stroke-opacity:1"
       d="m 1600.2928,268.55726 c -32.576,-15.85476 -40.8943,-35.74842 -2.4684,-37.12153 -35.0809,-8.8381 -20.3307,-14.9975 -0.4322,-18.03696 -36.251,-38.78621 -10.1669,-47.74302 12.0098,-69.45909 -54.6932,7.43324 -50.2661,-12.69568 -58.7865,-26.78855 -20.1701,25.9421 -20.1645,8.54943 -14.5296,-20.935111 -23.0155,33.690991 -31.9847,35.946401 -28.1449,9.535551 -18.2468,21.09777 -35.2918,28.60672 -50.9554,20.496 -40.7644,18.26027 -44.3075,-10.26609 -59.8811,-23.67024 -15.9531,22.24788 -31.7222,22.01532 -47.432,14.6156 -11.9328,9.10582 -23.3977,22.70126 -38.5646,0.78327 -11.9864,18.43771 -18.5625,4.50208 -26.8011,0.51491 7.7008,11.30023 -13.4518,13.12811 -67.7938,4.0602 19.8073,6.83395 15.4313,14.06419 -17.4864,21.76229 29.2457,11.77251 24.6943,23.31847 2.3879,34.74535 30.7121,20.81045 -1.5996,23.4071 -44.1149,39.4068 49.1036,0.67829 76.8082,9.74797 73.621,37.54307 65.665,-18.0125 52.7466,-6.80544 43.411,3.06951 45.3322,-23.64358 34.917,-1.17125 41.1021,7.56875 110.0728,-26.0367 94.5379,6.13551 108.388,24.69011 21.8651,-36.63228 37.2643,-21.1993 52.6368,-5.55105 10.8922,-31.38415 20.0476,-21.58857 29.2395,-12.65381 6.6073,-13.43674 20.2627,-16.71824 43.4211,-6.30742 -14.798,-12.10782 -2.3991,-13.38563 51.1737,1.73242 z"
       id="path4289"
       inkscape:connector-curvature="0"
       sodipodi:nodetypes="ccccccccccccccccccccccccc"
       inkscape:transform-center-x="96.70188"
       inkscape:transform-center-y="43.241007" />
    <path
       style="fill:#ffffff;fill-rule:evenodd;stroke:none"
       d="m 1308.6334,665.32092 c 23.0371,2.70381 38.6275,-25.53739 21.472,-74.32929 63.6791,46.0444 87.5233,25.79487 165.7529,-23.27439 -6.5008,68.36955 28.4638,61.98177 59.9852,48.85565 -30.2517,23.00686 19.3075,46.83938 48.5178,48.13173 -25.9419,30.03664 -44.253,76.16549 -19.9051,94.90808 -40.4636,-4.0041 -30.4526,15.87376 -37.7059,31.76189 -52.094,-35.99851 -89.9784,-27.45483 -119.9083,6.02364 -15.6536,-18.20654 -20.5672,-55.8362 -78.2733,2.00784 21.22,-49.93606 -6.5947,-44.6946 -51.6272,-20.07865 7.0576,-17.0089 49.0039,-42.87337 -21.65,-40.15754 44.1317,-16.16955 47.7616,-49.86566 33.3419,-73.84896 z"
       id="path4584"
       inkscape:connector-curvature="0"
       sodipodi:nodetypes="cccccccccccc" />
    <path
       style="color:#000000;display:inline;overflow:visible;visibility:visible;fill:#ffffff;fill-opacity:1;fill-rule:nonzero;stroke:none;stroke-width:1px;marker:none;enable-background:accumulate"
       d="m 1377.144,651.73915 c 5.5403,-10.4024 29.4845,-40.898 25.9626,-3.098 38.4692,-43.6161 65.3028,-21.1504 92.7977,-2.4408 9.5286,-13.5107 13.287,-36.0725 37.4567,-26.6174 -1.647,-15.2365 7.9802,-23.918 27.6673,-26.751 -24.0567,-13.0401 -27.531,-22.9407 20.4263,-24.9964 -35.4372,-6.8651 -68.3719,-14.3367 -22.4597,-40.915 -12.9857,-2.988 -47.5375,19.8163 -22.8115,-59.6234 -25.7852,22.459 -51.5974,32.9257 -74.8351,-26.9701 -11.9681,20.1327 -27.6325,32.4653 -50.5506,-1.5323 -8.3872,20.5642 -40.7328,17.001 -52.0069,10.6621 20.8163,28.0281 18.1259,42.8398 -14.5187,39.7796 48.8273,52.3955 5.3069,38.4815 -4.8157,48.0242 40.731,22.0328 19.3434,37.4375 9.4399,54.6929 48.8879,8.7813 29.144,35.8023 28.2477,59.7856 z"
       id="path3549-3"
       inkscape:connector-curvature="0"
       sodipodi:nodetypes="ccccccccccccccc" />
    <path
       style="color:#000000;display:inline;overflow:visible;visibility:visible;fill:#ffffff;fill-opacity:1;fill-rule:nonzero;stroke:none;stroke-width:1px;marker:none;enable-background:accumulate"
       d="m 1344.1263,622.42535 c -24.799,-19.38207 -51.6203,-44.8622 -57.3837,-51.43281 10.7696,-2.65715 19.694,-6.82543 26.7223,-9.95499 -11.8306,-11.35372 -70.0488,-61.24849 -88.6803,-67.43551 46.6169,13.55518 93.6115,48.5209 111.4329,68.48268 -8.4189,5.6927 -14.3598,8.04667 -18.7084,11.14923 8.3672,10.36876 43.1768,38.31839 43.1768,38.31839 z"
       id="path5066"
       inkscape:connector-curvature="0" />
    <rect
       style="color:#000000;clip-rule:nonzero;display:inline;overflow:visible;visibility:visible;opacity:1;isolation:auto;mix-blend-mode:normal;color-interpolation:sRGB;color-interpolation-filters:linearRGB;solid-color:#000000;solid-opacity:1;fill:#fff6d5;fill-opacity:1;fill-rule:nonzero;stroke:none;stroke-width:2.40566;stroke-linecap:butt;stroke-linejoin:miter;stroke-miterlimit:4;stroke-dasharray:none;stroke-dashoffset:0;stroke-opacity:1;marker:none;color-rendering:auto;image-rendering:auto;shape-rendering:auto;text-rendering:auto;enable-background:accumulate"
       id="rect4632-8"
       width="599.51697"
       height="209.51712"
       x="1705.855"
       y="127.11808"
       ry="54.368874"
       rx="46.545174" />
    <path
       style="color:#000000;display:inline;overflow:visible;visibility:visible;fill:#fff6d5;fill-opacity:1;fill-rule:nonzero;stroke:none;stroke-width:1px;marker:none;enable-background:accumulate"
       d="m 1886.862,304.94642 c -7.7341,16.23212 -51.3553,17.59325 -67.4135,14.29379 32.3696,18.15861 31.2411,29.44085 -12.7076,31.19263 73.7027,32.72657 13.4738,27.77427 1.594,36.0728 57.8704,11.27829 31.9786,25.31442 21.6758,39.28713 66.5161,0.47994 44.7484,22.87774 47.552,40.71615 5.6389,-8.37058 32.4281,-33.85431 34.04,-5.47988 43.9966,-27.07074 96.9894,-44.55708 101.1972,2.81681 17.7269,-23.83251 35.4007,-33.9051 34.0401,-5.47988 43.9219,-36.97058 96.5496,-32.12149 140.0128,-4.75505 -22.4665,-20.55702 -5.2741,-36.76001 28.4629,-32.74268 -4.7303,-11.06017 6.6607,-18.66289 32.3855,-23.1777 -34.1841,-6.68113 -40.4841,-13.57256 22.9881,-20.9888 -48.2987,-0.71736 -93.3375,-2.18707 -36.6727,-27.47863 -17.7773,-0.61198 -59.9558,20.49198 -40.2906,-41.26923 -30.5691,19.77192 -63.1835,30.68462 -104.0851,-10.73251 -19.3566,20.69118 -52.9303,30.93 -67.5366,5.08507 -5.2497,11.01815 -27.0182,15.1619 -45.4978,15.66442 -7.1461,-4.37663 -14.5166,-10.32118 -22.208,-18.10951 -12.5708,16.35342 -31.3755,27.3978 -67.5365,5.08507 z"
       id="path3549-3-7"
       inkscape:connector-curvature="0"
       sodipodi:nodetypes="cccccccccccccccccccc" />
    <path
       style="display:inline;fill:#ffffff;fill-rule:evenodd;stroke:none;stroke-width:1.06799px;stroke-linecap:butt;stroke-linejoin:miter;stroke-opacity:1"
       d="m 1131.7584,2119.6996 c 44.5541,29.5875 51.6332,12.5838 15.0355,-46.1337 50.8776,55.9217 61.7863,58.5111 70.5347,21.8932 28.1422,31.4746 45.7194,22.6457 59.6744,0 5.2014,29.124 16.356,17.3715 26.0095,15.9248 3.1795,6.5891 -7.7407,22.9593 36.3774,1.1484 2.8577,8.7213 6.7074,16.232 32.5496,-3.1042 6.695,35.399 28.1753,-1.9619 50.1808,-41.907 -13.71,49.1091 -8.0249,56.0455 9.4938,37.2505 -8.0095,20.2237 -12.8,35.879 17.631,1.5523 -10.4181,37.3286 16.9136,11.7064 61.0307,-41.9069 -22.0681,39.6306 -80.5875,106.425 -42.0434,100.8871 -5.3751,11.6832 -24.5483,21.8626 32.5497,40.3549 -31.6991,-4.3696 -68.3701,-1.9705 -8.7641,17.7056 -65.4278,-14.1098 -25.4738,4.6897 7.4079,28.8576 -61.1512,-26.4865 -81.388,-29.6185 -9.4937,17.0732 -58.353,-27.7261 -15.6713,15.2258 2.7126,35.6985 -77.2436,-59.5292 -58.9157,-33.4866 -39.3311,-6.2084 -45.4467,-35.8022 -70.0308,-29.1416 -63.0158,-10.9244 -14.2621,-15.8612 -35.5373,-10.378 -57.6892,29.5498 -5.8014,-24.834 -17.4322,-43.9498 -66.4556,-26.3859 21.5251,-31.5933 -9.0971,-11.465 -32.5496,1.5521 12.843,-39.4677 -19.751,-13.5652 -61.0308,24.8338 23.1166,-43.5836 -3.1384,-27.8401 -42.0433,3.1042 25.4071,-53.2473 13.1625,-85.3467 -66.4557,-65.1887 45.9541,-19.5143 69.8522,-40.6885 14.9187,-69.845 32.0553,10.2954 41.617,0.7324 18.9872,-37.2505 34.964,31.1761 64.4332,12.0584 33.7788,-28.5313 z"
       id="path4508"
       inkscape:connector-curvature="0"
       sodipodi:nodetypes="cccccccccccccccccccccccccccc" />
    <path
       style="display:inline;fill:#ffffff;fill-rule:evenodd;stroke:none;stroke-width:1px;stroke-linecap:butt;stroke-linejoin:miter;stroke-opacity:1"
       d="m 1616.2662,2393.3738 -82.1467,-100.338 -11.5302,24.9569 -58.2718,-67.6007 -15.4563,18.9483 76.7395,76.6314 14.3318,-27.9374 z"
       id="path4667"
       inkscape:connector-curvature="0" />
    <path
       style="color:#000000;display:inline;overflow:visible;visibility:visible;fill:#fff6d5;fill-opacity:1;fill-rule:nonzero;stroke:none;stroke-width:1px;marker:none;enable-background:accumulate"
       d="m 1676.615,107.53053 c 25.5976,6.24589 31.2912,12.86185 40.1634,18.5179 -3.4513,0.92732 -11.7678,5.06676 -11.7678,5.06676 0,0 34.4713,17.92982 38.1302,23.38411 3.6593,5.45436 -14.4691,9.50373 -14.4691,9.50373 0,0 -32.3622,-23.77029 -46.4224,-30.3366 2.4635,-2.48427 10.2324,-6.85233 15.7201,-9.67037 0,0 -4.4966,-11.9823 -21.3544,-16.46553 z"
       id="path4456-3-7-5"
       inkscape:connector-curvature="0"
       sodipodi:nodetypes="cccscccc" />
  </g>
  <g
     inkscape:groupmode="layer"
     id="layer1"
     inkscape:label="txt"
     style="display:inline">
    <text
       xml:space="preserve"
       style="color:#000000;font-style:normal;font-variant:normal;font-weight:normal;font-stretch:normal;line-height:0%;font-family:Arial;-inkscape-font-specification:Arial;letter-spacing:0px;word-spacing:0px;display:inline;overflow:visible;visibility:visible;opacity:1;fill:#000000;fill-opacity:1;fill-rule:nonzero;stroke:#000000;stroke-width:5.04432;stroke-miterlimit:4;stroke-dasharray:none;stroke-opacity:1;marker:none;enable-background:accumulate"
       x="577.47418"
       y="1102.7402"
       id="text4190-8"
       transform="matrix(0.95367168,-0.22417593,-0.04967286,1.0602553,0,0)"><tspan
         sodipodi:role="line"
         id="tspan4192-5"
         x="581.39874"
         y="1102.7402"
         style="font-style:normal;font-variant:normal;font-weight:normal;font-stretch:normal;font-size:98.8251px;line-height:1.25;font-family:Lavi;-inkscape-font-specification:Lavi;text-align:center;letter-spacing:7.84905px;text-anchor:middle;fill:#000000;fill-opacity:1;stroke:#000000;stroke-width:5.04432;stroke-miterlimit:4;stroke-dasharray:none;stroke-opacity:1">Mu<tspan
   style="font-size:81.25px"
   id="tspan4479">u</tspan><tspan
   id="tspan4483"
   style="font-size:62.5px">m</tspan><tspan
   id="tspan4487"
   style="font-size:50px">oku</tspan></tspan></text>
    <text
       xml:space="preserve"
       style="font-style:normal;font-variant:normal;font-weight:normal;font-stretch:normal;line-height:0%;font-family:Lavi;-inkscape-font-specification:Lavi;text-align:center;letter-spacing:0px;word-spacing:0px;text-anchor:middle;fill:#000000;fill-opacity:1;stroke:#000000;stroke-width:3.29278;stroke-miterlimit:4;stroke-dasharray:none;stroke-opacity:1"
       x="1553.2152"
       y="187.8098"
       id="text4246-2-3-1-3-9-3-7-9-9"
       transform="matrix(0.91522609,0,-0.12030087,1.0926262,0,0)"><tspan
         sodipodi:role="line"
         style="font-size:56.9905px;line-height:1.25;stroke:#000000;stroke-width:3.29278;stroke-miterlimit:4;stroke-dasharray:none;stroke-opacity:1"
         x="1553.2152"
         y="187.8098"
         id="tspan4814-3-4">soweli Kawa o!</tspan></text>
    <text
       xml:space="preserve"
       style="font-style:normal;font-variant:normal;font-weight:normal;font-stretch:normal;line-height:0%;font-family:Lavi;-inkscape-font-specification:Lavi;text-align:center;letter-spacing:0px;word-spacing:0px;text-anchor:middle;fill:#000000;fill-opacity:1;stroke:none"
       x="1411.5325"
       y="295.64645"
       id="text4246-2-3-1-3-9-3-7-6-7"><tspan
         sodipodi:role="line"
         style="font-size:45px;line-height:1.25"
         x="1411.5325"
         y="295.64645"
         id="tspan162">tenpo mi li kama </tspan><tspan
         sodipodi:role="line"
         style="font-size:45px;line-height:1.25"
         x="1411.5325"
         y="351.89645"
         id="tspan166">lon tenpo lili! </tspan><tspan
         sodipodi:role="line"
         style="font-size:45px;line-height:1.25"
         x="1418.5637"
         y="408.14645"
         id="tspan4556"> </tspan></text>
    <text
       xml:space="preserve"
       style="font-style:normal;font-variant:normal;font-weight:normal;font-stretch:normal;line-height:0%;font-family:Lavi;-inkscape-font-specification:Lavi;text-align:center;letter-spacing:0px;word-spacing:0px;text-anchor:middle;fill:#000000;fill-opacity:1;stroke:none"
       x="1443.0558"
       y="465.93301"
       id="text4246-2-3-1-3-9-3-7-6-7-0"><tspan
         sodipodi:role="line"
         style="font-size:45px;line-height:1.25"
         x="1443.0558"
         y="465.93301"
         id="tspan4225">o awen! </tspan><tspan
         sodipodi:role="line"
         style="font-size:45px;line-height:1.25"
         x="1450.087"
         y="522.18298"
         id="tspan4556-1"> </tspan></text>
    <text
       xml:space="preserve"
       style="font-style:normal;font-variant:normal;font-weight:normal;font-stretch:normal;line-height:0%;font-family:Lavi;-inkscape-font-specification:Lavi;text-align:center;letter-spacing:0px;word-spacing:0px;text-anchor:middle;fill:#000000;fill-opacity:1;stroke:none"
       x="1451.0759"
       y="578.92029"
       id="text4246-2-3-1-3-9-3-7-6-7-0-0"><tspan
         sodipodi:role="line"
         style="font-size:45px;line-height:1.25"
         x="1451.0759"
         y="578.92029"
         id="tspan3466">o pona!</tspan><tspan
         sodipodi:role="line"
         style="font-size:45px;line-height:1.25"
         x="1458.1072"
         y="635.17029"
         id="tspan4556-1-2"> </tspan></text>
    <text
       xml:space="preserve"
       style="font-style:normal;font-variant:normal;font-weight:normal;font-stretch:normal;line-height:0%;font-family:Lavi;-inkscape-font-specification:Lavi;text-align:center;letter-spacing:0px;word-spacing:0px;text-anchor:middle;fill:#000000;fill-opacity:1;stroke:#000000;stroke-width:2.78762;stroke-miterlimit:4;stroke-dasharray:none;stroke-opacity:1"
       x="1555.5231"
       y="673.2926"
       id="text4246-2-3-1-3-9-3-7-9-9-0"
       transform="matrix(0.98883458,0,-0.12997626,1.0112915,0,0)"><tspan
         sodipodi:role="line"
         style="font-size:48.2473px;line-height:1.25;stroke:#000000;stroke-width:2.78762;stroke-miterlimit:4;stroke-dasharray:none;stroke-opacity:1"
         x="1555.5231"
         y="673.2926"
         id="tspan4229">lon tenpo </tspan><tspan
         sodipodi:role="line"
         style="font-size:48.2473px;line-height:1.25;stroke:#000000;stroke-width:2.78762;stroke-miterlimit:4;stroke-dasharray:none;stroke-opacity:1"
         x="1555.5231"
         y="733.60175"
         id="tspan140">ni taso!</tspan></text>
    <text
       xml:space="preserve"
       style="font-style:normal;font-variant:normal;font-weight:normal;font-stretch:normal;line-height:0%;font-family:Lavi;-inkscape-font-specification:Lavi;text-align:center;letter-spacing:0px;word-spacing:0px;text-anchor:middle;fill:#000000;fill-opacity:1;stroke:none"
       x="2014.2786"
       y="192.92317"
       id="text4246-2-3-1-3-9-3-7-6"><tspan
         sodipodi:role="line"
         style="font-size:45px;line-height:1.25"
         x="2014.2786"
         y="192.92317"
         id="tspan4241">nasin Aa pi wawa nasa li </tspan><tspan
         sodipodi:role="line"
         style="font-size:45px;line-height:1.25"
         x="2014.2786"
         y="249.17317"
         id="tspan175">nasin sewi, li nasin pona. </tspan><tspan
         sodipodi:role="line"
         style="font-size:45px;line-height:1.25"
         x="2014.2786"
         y="305.42316"
         id="tspan177">jan ona pona li ...</tspan></text>
    <text
       xml:space="preserve"
       style="font-style:normal;font-variant:normal;font-weight:normal;font-stretch:normal;line-height:0%;font-family:Lavi;-inkscape-font-specification:Lavi;text-align:center;letter-spacing:0px;word-spacing:0px;text-anchor:middle;fill:#000000;fill-opacity:1;stroke:#000000;stroke-width:3.53218;stroke-miterlimit:4;stroke-dasharray:none;stroke-opacity:1"
       x="2197.5864"
       y="379.56216"
       id="text4246-2-3-1-3-9-3-7-9"
       transform="matrix(0.93835319,0,-0.12334078,1.0656968,0,0)"><tspan
         sodipodi:role="line"
         style="font-size:61.134px;line-height:1.25;stroke:#000000;stroke-width:3.53218;stroke-miterlimit:4;stroke-dasharray:none;stroke-opacity:1"
         x="2197.5864"
         y="379.56216"
         id="tspan4814-3"> JAN SISIMI!</tspan></text>
    <use
       x="0"
       y="0"
       xlink:href="#text4580-1-7-3-6"
       id="use4348"
       transform="matrix(0.76815873,-8.499295e-5,9.2939206e-5,0.83999533,328.18729,191.98041)"
       width="100%"
       height="100%" />
    <use
       x="0"
       y="0"
       xlink:href="#use4348"
       id="use4352"
       transform="matrix(1.2869892,-0.13005214,0.1168656,1.1564957,-95.028073,-226.53505)"
       width="100%"
       height="100%" />
    <use
       x="0"
       y="0"
       xlink:href="#use4352"
       id="use4354"
       transform="matrix(0.90888933,0,0,0.92156478,-21.137187,247.94912)"
       width="100%"
       height="100%" />
    <use
       x="0"
       y="0"
       xlink:href="#use4354"
       id="use4356"
       transform="matrix(0.83539183,0,0,0.82928292,195.10667,199.84211)"
       width="100%"
       height="100%" />
    <use
       x="0"
       y="0"
       xlink:href="#use4356"
       id="use4358"
       transform="matrix(0.79958346,0,0,0.84858719,850.96564,377.52491)"
       width="100%"
       height="100%" />
    <use
       x="0"
       y="0"
       xlink:href="#use4358"
       id="use4360"
       transform="matrix(1.1302563,0,0,1.1533505,-87.515462,-230.41211)"
       width="100%"
       height="100%" />
    <text
       xml:space="preserve"
       style="font-style:normal;font-variant:normal;font-weight:normal;font-stretch:normal;line-height:0%;font-family:Lavi;-inkscape-font-specification:Lavi;text-align:center;letter-spacing:0px;word-spacing:0px;text-anchor:middle;fill:#000000;fill-opacity:1;stroke:#000000;stroke-width:3.16285;stroke-miterlimit:4;stroke-dasharray:none;stroke-opacity:1"
       x="1644.7952"
       y="2055.5349"
       id="text4246-2-3-1-3-9-3-7-9-9-3"
       transform="matrix(0.94298727,0,-0.12394991,1.0604597,0,0)"><tspan
         sodipodi:role="line"
         style="font-size:54.7417px;line-height:1.25;stroke:#000000;stroke-width:3.16285;stroke-miterlimit:4;stroke-dasharray:none;stroke-opacity:1"
         x="1644.7952"
         y="2055.5349"
         id="tspan4814-3-4-7">soweli Kawa </tspan><tspan
         sodipodi:role="line"
         style="font-size:54.7417px;line-height:1.25;stroke:#000000;stroke-width:3.16285;stroke-miterlimit:4;stroke-dasharray:none;stroke-opacity:1"
         x="1644.7952"
         y="2123.9622"
         id="tspan4769">O PINI!!!</tspan></text>
  </g>
</svg>
