<?xml version="1.0" encoding="UTF-8" standalone="no"?>
<svg
   xmlns:dc="http://purl.org/dc/elements/1.1/"
   xmlns:cc="http://creativecommons.org/ns#"
   xmlns:rdf="http://www.w3.org/1999/02/22-rdf-syntax-ns#"
   xmlns:svg="http://www.w3.org/2000/svg"
   xmlns="http://www.w3.org/2000/svg"
   xmlns:xlink="http://www.w3.org/1999/xlink"
   xmlns:sodipodi="http://sodipodi.sourceforge.net/DTD/sodipodi-0.dtd"
   xmlns:inkscape="http://www.inkscape.org/namespaces/inkscape"
   sodipodi:docname="E12P05.svg"
   height="2753"
   width="2481"
   inkscape:version="1.0 (4035a4fb49, 2020-05-01)"
   version="1.1"
   id="svg2">
  <sodipodi:namedview
     inkscape:document-rotation="0"
     inkscape:window-maximized="0"
     inkscape:window-y="0"
     inkscape:window-x="0"
     inkscape:current-layer="layer3"
     inkscape:cy="1609.8396"
     inkscape:cx="1466.5498"
     inkscape:zoom="0.4"
     showgrid="false"
     id="namedview70"
     inkscape:window-height="955"
     inkscape:window-width="1287"
     inkscape:pageshadow="2"
     inkscape:pageopacity="0"
     bordercolor="#666666"
     pagecolor="#ffffff" />
  <metadata
     id="metadata8">
    <rdf:RDF>
      <cc:Work
         rdf:about="">
        <dc:format>image/svg+xml</dc:format>
        <dc:type
           rdf:resource="http://purl.org/dc/dcmitype/StillImage" />
        <dc:title />
      </cc:Work>
    </rdf:RDF>
  </metadata>
  <defs
     id="defs6">
    <filter
       inkscape:label="deevad outline effect"
       id="filter4375-4-1-1-15-1-3-3"
       style="color-interpolation-filters:sRGB">
      <feFlood
         result="flood"
         flood-color="rgb(255,255,255)"
         flood-opacity="1"
         id="feFlood4377-7-9-0-4-4-4-7" />
      <feComposite
         result="composite1"
         operator="in"
         in="flood"
         in2="SourceGraphic"
         id="feComposite4379-3-8-8-6-0-7-4" />
      <feMorphology
         result="result3"
         radius="0.69999999999999996"
         operator="dilate"
         id="feMorphology4393-1-0-49-8-2-7-3" />
      <feComposite
         result="composite2"
         operator="over"
         in="SourceGraphic"
         in2="result3"
         id="feComposite4385-9-5-7-2-1-2-9" />
    </filter>
    <filter
       inkscape:label="deevad outline effect"
       id="filter4375-4-1-1-15-1-3-3-5"
       style="color-interpolation-filters:sRGB">
      <feFlood
         result="flood"
         flood-color="rgb(255,255,255)"
         flood-opacity="1"
         id="feFlood4377-7-9-0-4-4-4-7-2" />
      <feComposite
         result="composite1"
         operator="in"
         in="flood"
         in2="SourceGraphic"
         id="feComposite4379-3-8-8-6-0-7-4-9" />
      <feMorphology
         result="result3"
         radius="0.69999999999999996"
         operator="dilate"
         id="feMorphology4393-1-0-49-8-2-7-3-8" />
      <feComposite
         result="composite2"
         operator="over"
         in="SourceGraphic"
         in2="result3"
         id="feComposite4385-9-5-7-2-1-2-9-9" />
    </filter>
    <linearGradient
       gradientTransform="matrix(1.3563276,-0.13268864,0.8109775,1.1333236,-1338.8958,15.30079)"
       y2="1088.5996"
       x2="1246.5587"
       y1="1088.5996"
       x1="1115.3353"
       gradientUnits="userSpaceOnUse"
       id="linearGradient4254"
       xlink:href="#linearGradient4240"
       inkscape:collect="always" />
    <linearGradient
       inkscape:collect="always"
       id="linearGradient4240">
      <stop
         style="stop-color:#507e72;stop-opacity:1;"
         offset="0"
         id="stop4282" />
      <stop
         style="stop-color:#507e72;stop-opacity:0;"
         offset="1"
         id="stop4284" />
    </linearGradient>
    <filter
       inkscape:label="deevad outline effect"
       id="filter4375-4-1-7-3-7-6"
       style="color-interpolation-filters:sRGB">
      <feFlood
         result="flood"
         flood-color="rgb(60,100,48)"
         flood-opacity="1"
         id="feFlood4377-7-9-2-4-1-8" />
      <feComposite
         result="composite1"
         operator="in"
         in="flood"
         in2="SourceGraphic"
         id="feComposite4379-3-8-5-4-75-5" />
      <feMorphology
         result="result3"
         radius="4"
         operator="dilate"
         id="feMorphology4393-1-0-4-5-8-4" />
      <feComposite
         result="composite2"
         operator="over"
         in="SourceGraphic"
         in2="result3"
         id="feComposite4385-9-5-2-1-5-1" />
    </filter>
    <filter
       inkscape:label="deevad outline effect"
       id="filter4375-4-1-1-15-1-3-3-5-9"
       style="color-interpolation-filters:sRGB">
      <feFlood
         result="flood"
         flood-color="rgb(255,255,255)"
         flood-opacity="1"
         id="feFlood4377-7-9-0-4-4-4-7-2-5" />
      <feComposite
         result="composite1"
         operator="in"
         in="flood"
         in2="SourceGraphic"
         id="feComposite4379-3-8-8-6-0-7-4-9-7" />
      <feMorphology
         result="result3"
         radius="0.69999999999999996"
         operator="dilate"
         id="feMorphology4393-1-0-49-8-2-7-3-8-2" />
      <feComposite
         result="composite2"
         operator="over"
         in="SourceGraphic"
         in2="result3"
         id="feComposite4385-9-5-7-2-1-2-9-9-6" />
    </filter>
    <linearGradient
       gradientTransform="matrix(1.552431,-0.06570507,0.80657008,1.4670405,-1679.9507,-558.01827)"
       y2="1088.5996"
       x2="1246.5587"
       y1="1088.5996"
       x1="1115.3353"
       gradientUnits="userSpaceOnUse"
       id="linearGradient4254-1"
       xlink:href="#linearGradient4240"
       inkscape:collect="always" />
    <filter
       inkscape:label="deevad outline effect"
       id="filter4375-4-1-7-3-7-6-6"
       style="color-interpolation-filters:sRGB">
      <feFlood
         result="flood"
         flood-color="rgb(210,24,2)"
         flood-opacity="1"
         id="feFlood4377-7-9-2-4-1-8-6" />
      <feComposite
         result="composite1"
         operator="in"
         in="flood"
         in2="SourceGraphic"
         id="feComposite4379-3-8-5-4-75-5-4" />
      <feMorphology
         result="result3"
         radius="4"
         operator="dilate"
         id="feMorphology4393-1-0-4-5-8-4-3" />
      <feComposite
         result="composite2"
         operator="over"
         in="SourceGraphic"
         in2="result3"
         id="feComposite4385-9-5-2-1-5-1-4" />
    </filter>
  </defs>
  <sodipodi:namedview
     inkscape:current-layer="layer3"
     inkscape:window-maximized="1"
     inkscape:window-y="26"
     inkscape:window-x="0"
     inkscape:cy="1292.4305"
     inkscape:cx="1454.3055"
     inkscape:zoom="0.4"
     showgrid="false"
     id="namedview4"
     inkscape:window-height="1025"
     inkscape:window-width="1920"
     inkscape:pageshadow="2"
     inkscape:pageopacity="0"
     guidetolerance="10"
     gridtolerance="10"
     objecttolerance="10"
     borderopacity="1"
     bordercolor="#666666"
     pagecolor="#ffffff" />
  <g
     sodipodi:insensitive="true"
     inkscape:label="artwork"
     id="layer2"
     inkscape:groupmode="layer">
    <image
       sodipodi:absref="C:\Users\stero\Documents\Kernewek\Pepper and Carrot\webcomics\ep12_Autumn-Clearout\lang\gfx_Pepper-and-Carrot_by-David-Revoy_E12P05.png"
       xlink:href="../gfx_Pepper-and-Carrot_by-David-Revoy_E12P05.png"
       width="2481"
       height="2753"
       id="image10"
       x="0"
       y="0" />
  </g>
  <g
     inkscape:label="speechbubbles"
     id="layer3"
     inkscape:groupmode="layer">
    <path
       inkscape:connector-curvature="0"
       id="path3278-1-8-8-1-7"
       d="m 1619.3027,1814.0402 c -0.7844,-76.8081 -44.7011,-111.7535 -64.9896,-123.6645 -20.2883,-11.9113 -108.1561,-32.4501 -166.5328,-35.1658 -58.3768,-2.7158 -203.5896,-3.9878 -228.1765,-2.3894 -24.5872,1.5981 -94.5097,53.1817 -98.3096,102.3581 -3.7999,49.1765 6.2209,82.5447 38.9456,114.2272 32.7247,31.6829 243.1015,55.1789 256.3898,53.0554 13.2881,-2.1238 189.164,-13.1345 200.7819,-20.8197 11.6182,-7.6852 57.6651,-27.4774 61.8912,-87.6013 z"
       style="fill:#ffffff;stroke:none;stroke-width:0.95028073" />
    <flowRoot
       transform="matrix(5.6080074,-2.1990123,-4.8835593,12.092115,-425.78786,-9011.02)"
       style="color:#000000;font-style:normal;font-variant:normal;font-weight:normal;font-stretch:normal;line-height:0.01%;font-family:Arial;-inkscape-font-specification:Arial;letter-spacing:0.00204969px;word-spacing:0px;display:inline;overflow:visible;visibility:visible;fill:#000000;fill-opacity:1;fill-rule:nonzero;stroke:none;stroke-width:0.109599;stroke-linecap:butt;stroke-linejoin:miter;stroke-miterlimit:4;stroke-dasharray:none;stroke-dashoffset:0;stroke-opacity:1;marker:none;filter:url(#filter4375-4-1-1-15-1-3-3-5-9);enable-background:accumulate"
       id="flowRoot4133-6-9-4-8-5-3-8"
       xml:space="preserve"><flowRegion
         style="fill:url(#linearGradient4254-1);fill-opacity:1;stroke-width:0.866467"
         id="flowRegion4135-2-9-3-5-2-6-3"><rect
           style="color:#000000;letter-spacing:0.00204969px;display:inline;overflow:visible;visibility:visible;fill:#000000;fill-opacity:1;fill-rule:nonzero;stroke:none;stroke-width:0.10959909;stroke-linecap:butt;stroke-linejoin:miter;stroke-miterlimit:4;stroke-dasharray:none;stroke-dashoffset:0;stroke-opacity:1;marker:none;enable-background:accumulate"
           y="1078.5308"
           x="1125.3193"
           height="39.051064"
           width="200.00224"
           id="rect4137-1-7-1-2-1-4-2" /></flowRegion><flowPara
         style="color:#000000;font-style:normal;font-variant:normal;font-weight:normal;font-stretch:normal;font-size:17.8541px;line-height:125%;font-family:Lavi;-inkscape-font-specification:Lavi;letter-spacing:0.00204969px;word-spacing:0.00204969px;display:inline;overflow:visible;visibility:visible;fill:#000000;fill-opacity:1;fill-rule:nonzero;stroke:none;stroke-width:0.109599;stroke-linecap:butt;stroke-linejoin:miter;stroke-miterlimit:4;stroke-dasharray:none;stroke-dashoffset:0;stroke-opacity:1;marker:none;enable-background:accumulate"
         id="flowPara4139-2-8-6-8-6-3-1">wo<flowSpan
   id="flowSpan3145-5"
   style="font-size:15.7181px;fill:#000000;fill-opacity:1;stroke:none;stroke-width:0.109599;stroke-miterlimit:4;stroke-dasharray:none">oo</flowSpan><flowSpan
   id="flowSpan3137-4"
   style="font-size:10.7341px;fill:#000000;fill-opacity:1;stroke:none;stroke-width:0.109599;stroke-miterlimit:4;stroke-dasharray:none">wo</flowSpan><flowSpan
   id="flowSpan3133-5"
   style="font-size:7.88612px;fill:#000000;fill-opacity:1;stroke:none;stroke-width:0.109599;stroke-miterlimit:4;stroke-dasharray:none">owo</flowSpan><flowSpan
   id="flowSpan3127-2"
   style="font-size:6.46213px;fill:#000000;fill-opacity:1;stroke:none;stroke-width:0.109599;stroke-miterlimit:4;stroke-dasharray:none">owoo</flowSpan></flowPara></flowRoot>
    <flowRoot
       transform="matrix(6.0069187,-1.6117164,-6.6288254,15.24104,1022.2165,-14455.53)"
       style="color:#000000;font-style:normal;font-variant:normal;font-weight:normal;font-stretch:normal;line-height:0.01%;font-family:Arial;-inkscape-font-specification:Arial;letter-spacing:0.00204969px;word-spacing:0px;display:inline;overflow:visible;visibility:visible;fill:#000000;fill-opacity:1;fill-rule:nonzero;stroke:none;stroke-width:0.109599;stroke-linecap:butt;stroke-linejoin:miter;stroke-miterlimit:4;stroke-dasharray:none;stroke-dashoffset:0;stroke-opacity:1;marker:none;filter:url(#filter4375-4-1-1-15-1-3-3-5);enable-background:accumulate"
       id="flowRoot4133-6-9-4-8-5-3"
       xml:space="preserve"><flowRegion
         style="fill:url(#linearGradient4254);fill-opacity:1;stroke-width:0.866467"
         id="flowRegion4135-2-9-3-5-2-6"><rect
           style="color:#000000;letter-spacing:0.00204969px;display:inline;overflow:visible;visibility:visible;fill:#000000;fill-opacity:1;fill-rule:nonzero;stroke:none;stroke-width:0.10959909;stroke-linecap:butt;stroke-linejoin:miter;stroke-miterlimit:4;stroke-dasharray:none;stroke-dashoffset:0;stroke-opacity:1;marker:none;enable-background:accumulate"
           y="1078.5308"
           x="1125.3193"
           height="39.051064"
           width="200.00224"
           id="rect4137-1-7-1-2-1-4" /></flowRegion><flowPara
         style="color:#000000;font-style:normal;font-variant:normal;font-weight:normal;font-stretch:normal;font-size:17.8541px;line-height:125%;font-family:Lavi;-inkscape-font-specification:Lavi;letter-spacing:0.00204969px;word-spacing:0.00204969px;display:inline;overflow:visible;visibility:visible;fill:#000000;fill-opacity:1;fill-rule:nonzero;stroke:none;stroke-width:0.109599;stroke-linecap:butt;stroke-linejoin:miter;stroke-miterlimit:4;stroke-dasharray:none;stroke-dashoffset:0;stroke-opacity:1;marker:none;enable-background:accumulate"
         id="flowPara4139-2-8-6-8-6-3">wo<flowSpan
   id="flowSpan3145"
   style="font-size:15.7181px;fill:#000000;fill-opacity:1;stroke:none;stroke-width:0.109599;stroke-miterlimit:4;stroke-dasharray:none">oo</flowSpan><flowSpan
   id="flowSpan3137"
   style="font-size:10.7341px;fill:#000000;fill-opacity:1;stroke:none;stroke-width:0.109599;stroke-miterlimit:4;stroke-dasharray:none">wo</flowSpan><flowSpan
   id="flowSpan3133"
   style="font-size:7.88612px;fill:#000000;fill-opacity:1;stroke:none;stroke-width:0.109599;stroke-miterlimit:4;stroke-dasharray:none">owo</flowSpan><flowSpan
   id="flowSpan3127"
   style="font-size:6.46213px;fill:#000000;fill-opacity:1;stroke:none;stroke-width:0.109599;stroke-miterlimit:4;stroke-dasharray:none">owoo</flowSpan></flowPara></flowRoot>
    <path
       inkscape:connector-curvature="0"
       id="path3278"
       d="m 768.59135,172.96873 c 3.58394,-49.442 46.59019,-70.63143 66.3014,-77.694449 19.71122,-7.06314 103.93193,-17.65792 159.48177,-17.65792 55.54998,0 193.52828,3.53151 216.82338,5.29745 23.295,1.76582 87.8045,37.081279 89.5965,68.865489 1.7919,31.78408 -8.9597,52.97339 -41.2144,72.397 -32.2548,19.42374 -232.9507,28.25257 -245.4942,26.48676 -12.5435,-1.76582 -179.19305,-14.12617 -189.94461,-19.42362 -10.75156,-5.29732 -53.7578,-19.42349 -55.54984,-58.27071 z"
       style="fill:#ffffff;stroke:none" />
    <path
       inkscape:connector-curvature="0"
       id="path3278-1"
       d="m 916.09138,270.52629 c 3.25021,-35.4172 42.25185,-50.596 60.12762,-55.65551 17.87576,-5.0596 94.2541,-12.64904 144.6313,-12.64904 50.3773,0 175.5075,2.52975 196.6334,3.79476 21.1259,1.26493 79.6285,26.56275 81.2536,49.33099 1.625,22.76815 -8.1255,37.94687 -37.3766,51.86075 -29.2514,13.91396 -211.2591,20.23839 -222.6346,18.97347 -11.3755,-1.26492 -162.5071,-10.11912 -172.2575,-13.91388 -9.75042,-3.79467 -48.75205,-13.91379 -50.37722,-41.74154 z"
       style="fill:#ffffff;stroke:none" />
    <path
       inkscape:connector-curvature="0"
       id="path3278-1-8"
       d="m 1078.5914,369.21872 c 3.5867,-49.442 46.6274,-70.63143 66.3543,-77.69445 19.727,-7.06314 104.015,-17.65792 159.6092,-17.65792 55.5943,0 193.6828,3.53151 216.9965,5.29745 23.3137,1.76582 87.8747,37.08128 89.6681,68.86549 1.7933,31.78408 -8.9668,52.97339 -41.2472,72.397 -32.2807,19.42374 -233.1369,28.25257 -245.6904,26.48676 -12.5535,-1.76582 -179.3362,-14.12617 -190.0963,-19.42362 -10.7601,-5.29732 -53.8007,-19.42349 -55.5942,-58.27071 z"
       style="fill:#ffffff;stroke:none;stroke-width:0.93820471" />
    <path
       inkscape:connector-curvature="0"
       id="path3278-1-8-8"
       d="m 1657.4532,533.14034 c -4.7073,-58.17746 -61.1927,-83.11065 -87.0821,-91.42158 -25.8893,-8.31106 -136.5071,-20.77774 -209.4679,-20.77774 -72.9607,0 -254.1855,4.15546 -284.7818,6.23342 -30.5965,2.07779 -115.32516,43.63283 -117.67873,81.03271 -2.35337,37.39972 11.76807,62.33278 54.13213,85.18818 42.3645,22.85554 305.9643,33.24425 322.4391,31.16646 16.475,-2.07781 235.3572,-16.62199 249.4784,-22.85541 14.1215,-6.23325 70.6072,-22.85524 72.9609,-68.56604 z"
       style="fill:#ffffff;stroke:none;stroke-width:1.05415463" />
    <flowRoot
       inkscape:transform-center-y="-79.772276"
       inkscape:transform-center-x="159.45651"
       transform="matrix(0.5891546,-0.22646943,-0.18155182,0.95514375,2198.6609,974.75851)"
       style="font-style:normal;font-variant:normal;font-weight:normal;font-stretch:normal;line-height:0.01%;font-family:Lavi;-inkscape-font-specification:Lavi;letter-spacing:0px;word-spacing:0px;fill:#000000;fill-opacity:1;stroke:#000000;stroke-width:1.41363;stroke-miterlimit:4;stroke-dasharray:none;stroke-opacity:1;filter:url(#filter4375-4-1-7-3-7-6)"
       id="flowRoot2987-7-9-9-7-0-3-5-2-6-5"
       xml:space="preserve"><flowRegion
         style="stroke-width:7.69644"
         id="flowRegion2989-4-5-8-7-41-7-68-63-1-5"><rect
           style="font-style:normal;font-variant:normal;font-weight:normal;font-stretch:normal;font-family:Lavi;-inkscape-font-specification:Lavi;fill:#000000;fill-opacity:1;stroke:#000000;stroke-width:1.41363204;stroke-miterlimit:4;stroke-dasharray:none;stroke-opacity:1"
           y="265.53046"
           x="120.55251"
           height="56.089447"
           width="319.66232"
           id="rect2991-45-1-3-3-8-0-3-6-32-1" /></flowRegion><flowPara
         style="font-weight:normal;font-size:48px;line-height:1.25;-inkscape-font-specification:Lavi;letter-spacing:7.06853px;fill:#ffffff;fill-opacity:1;stroke:#ffffff;stroke-width:1.41363;stroke-linejoin:miter;stroke-miterlimit:4;stroke-dasharray:none;stroke-opacity:1"
         id="flowPara2995-4-1-5-0-7-2-5-3-0-4">Bamm</flowPara></flowRoot>
    <path
       inkscape:connector-curvature="0"
       id="path3278-1-8-8-1"
       d="m 1699.5777,1581.5155 c -5.745,-87.6551 -74.6864,-125.2216 -106.2847,-137.7438 -31.5984,-12.5219 -166.6089,-31.3053 -255.6583,-31.3053 -89.0497,0 -310.2366,6.261 -347.58005,9.3917 -37.34328,3.1306 -140.75583,65.7411 -143.62842,122.0908 -2.87227,56.3496 14.36316,93.9159 66.06911,128.3518 51.70627,34.4361 373.43306,50.0885 393.54096,46.9579 20.1078,-3.1306 287.2567,-25.044 304.4918,-34.4359 17.2353,-9.3916 86.1768,-34.4355 89.0496,-103.3072 z"
       style="fill:#ffffff;stroke:none;stroke-width:1.04205704" />
    <flowRoot
       transform="translate(809.04366,1198.3246)"
       style="font-style:normal;font-variant:normal;font-weight:normal;font-stretch:normal;line-height:0.01%;font-family:Lavi;-inkscape-font-specification:Lavi;text-align:center;letter-spacing:0px;word-spacing:0px;text-anchor:middle;fill:#000000;fill-opacity:1;stroke:none"
       id="flowRoot2987-4-9-3-1-0-2-9-5-2-5"
       xml:space="preserve"><flowRegion
         id="flowRegion2989-5-4-5-6-5-0-4-0-2-0"><rect
           style="font-style:normal;font-variant:normal;font-weight:normal;font-stretch:normal;font-family:Lavi;-inkscape-font-specification:Lavi;text-align:center;text-anchor:middle;stroke:none"
           y="235.09567"
           x="120.55251"
           height="261.04257"
           width="698.59161"
           id="rect2991-7-9-6-4-5-0-8-8-4-9" /></flowRegion><flowPara
         id="flowPara4406-6"
         style="font-size:45px;line-height:1.25;text-align:center;text-anchor:middle;stroke:none">Hag yndelma:</flowPara><flowPara
         id="flowPara4482"
         style="font-size:45px;line-height:1.25;text-align:center;text-anchor:middle;stroke:none">Ogas ha puptra a wra stumma troha resegvaow fast po poyntys Lagrange ha pesya neuvella a-dro.</flowPara></flowRoot>
    <flowRoot
       inkscape:transform-center-y="-68.610248"
       inkscape:transform-center-x="221.5852"
       transform="matrix(0.76790941,-0.19478108,-0.15035117,0.82149688,2106.3248,2146.2916)"
       style="font-style:normal;font-variant:normal;font-weight:normal;font-stretch:normal;line-height:0.01%;font-family:Lavi;-inkscape-font-specification:Lavi;letter-spacing:0px;word-spacing:0px;fill:#000000;fill-opacity:1;stroke:#000000;stroke-width:1.31636;stroke-miterlimit:4;stroke-dasharray:none;stroke-opacity:1;filter:url(#filter4375-4-1-7-3-7-6-6)"
       id="flowRoot2987-7-9-9-7-0-3-5-2-6-5-0"
       xml:space="preserve"><flowRegion
         style="stroke-width:7.16684"
         id="flowRegion2989-4-5-8-7-41-7-68-63-1-5-5"><rect
           style="font-style:normal;font-variant:normal;font-weight:normal;font-stretch:normal;font-family:Lavi;-inkscape-font-specification:Lavi;fill:#000000;fill-opacity:1;stroke:#000000;stroke-width:1.31635857;stroke-miterlimit:4;stroke-dasharray:none;stroke-opacity:1"
           y="265.53046"
           x="120.55251"
           height="56.089447"
           width="319.66232"
           id="rect2991-45-1-3-3-8-0-3-6-32-1-1" /></flowRegion><flowPara
         style="font-weight:normal;font-size:48px;line-height:1.25;-inkscape-font-specification:Lavi;letter-spacing:7.06853px;fill:#ffffff;fill-opacity:1;stroke:#ffffff;stroke-width:1.31636;stroke-linejoin:miter;stroke-miterlimit:4;stroke-dasharray:none;stroke-opacity:1"
         id="flowPara2995-4-1-5-0-7-2-5-3-0-4-9">?!</flowPara></flowRoot>
  </g>
  <g
     inkscape:label="txt"
     id="layer1"
     inkscape:groupmode="layer">
    <path
       inkscape:connector-curvature="0"
       id="path5002"
       d="m 1542.6918,1978.7505 c -23.5239,-11.1209 -47.3263,-22.1625 -68.631,-37.2577 -13.8627,-9.8561 -26.3376,-22.6047 -32.6733,-38.6498 -6.7592,-16.8449 -7.6403,-35.3512 -7.1522,-53.2877 0.6811,-12.418 3.068,-25.7204 11.6939,-35.2524 7.6429,-8.5397 20.1613,-10.9047 31.0001,-8.4349 4.0363,0.2274 -1.4641,4.3023 -1.6728,6.5427 -12.7185,24.8701 -18.1367,54.2103 -11.4736,81.6335 5.8285,24.5885 21.7446,45.7666 41.3302,61.2744 11.5441,9.2618 24.3106,16.9164 37.5787,23.4319 z"
       style="color:#000000;display:inline;overflow:visible;visibility:visible;fill:#ffffff;fill-opacity:1;fill-rule:nonzero;stroke:none;stroke-width:1px;marker:none;enable-background:accumulate" />
    <path
       sodipodi:nodetypes="cscc"
       inkscape:connector-curvature="0"
       id="path3984"
       d="m 1573.5471,709.7989 c -90.6618,-25.67208 -117.8362,-31.32311 -132.6544,-97.94835 -13.6852,-61.53108 -39.1014,-8.58271 -39.1014,-8.58271 0,0 -7.8461,95.91633 171.7558,106.53106 z"
       style="color:#000000;fill:#ffffff;fill-opacity:1;fill-rule:nonzero;stroke:none;stroke-width:1px;marker:none;visibility:visible;display:inline;overflow:visible;enable-background:accumulate" />
    <flowRoot
       transform="translate(603.1774,-132.0178)"
       style="font-style:normal;font-variant:normal;font-weight:normal;font-stretch:normal;line-height:0.01%;font-family:Lavi;-inkscape-font-specification:Lavi;text-align:center;letter-spacing:0px;word-spacing:0px;text-anchor:middle;fill:#000000;fill-opacity:1;stroke:none"
       id="flowRoot2987-4-9-3-1-0-2"
       xml:space="preserve"><flowRegion
         id="flowRegion2989-5-4-5-6-5-0"><rect
           style="font-style:normal;font-variant:normal;font-weight:normal;font-stretch:normal;font-family:Lavi;-inkscape-font-specification:Lavi;text-align:center;text-anchor:middle;stroke:none"
           y="265.53046"
           x="120.55251"
           height="310.73996"
           width="602.40173"
           id="rect2991-7-9-6-4-5-0" /></flowRegion><flowPara
         id="flowPara4444"
         style="font-size:45px;line-height:1.25;text-align:center;text-anchor:middle;stroke:none">...Mir orth hemma.</flowPara></flowRoot>
    <flowRoot
       transform="translate(756.04399,-34.308125)"
       style="font-style:normal;font-variant:normal;font-weight:normal;font-stretch:normal;line-height:0.01%;font-family:Lavi;-inkscape-font-specification:Lavi;text-align:center;letter-spacing:0px;word-spacing:0px;text-anchor:middle;fill:#000000;fill-opacity:1;stroke:none"
       id="flowRoot2987-4-9-3-1-0-2-9"
       xml:space="preserve"><flowRegion
         id="flowRegion2989-5-4-5-6-5-0-4"><rect
           style="font-style:normal;font-variant:normal;font-weight:normal;font-stretch:normal;font-family:Lavi;-inkscape-font-specification:Lavi;text-align:center;text-anchor:middle;stroke:none"
           y="265.53046"
           x="120.55251"
           height="60.614937"
           width="576.52673"
           id="rect2991-7-9-6-4-5-0-8" /></flowRegion><flowPara
         id="flowPara4444-7"
         style="font-size:45px;line-height:1.25;text-align:center;text-anchor:middle;stroke:none">Gronnedh anlowr!</flowPara></flowRoot>
    <flowRoot
       transform="translate(883.77264,46.588572)"
       style="font-style:normal;font-variant:normal;font-weight:normal;font-stretch:normal;line-height:0.01%;font-family:Lavi;-inkscape-font-specification:Lavi;text-align:center;letter-spacing:0px;word-spacing:0px;text-anchor:middle;fill:#000000;fill-opacity:1;stroke:none"
       id="flowRoot2987-4-9-3-1-0-2-9-5"
       xml:space="preserve"><flowRegion
         id="flowRegion2989-5-4-5-6-5-0-4-0"><rect
           style="font-style:normal;font-variant:normal;font-weight:normal;font-stretch:normal;font-family:Lavi;-inkscape-font-specification:Lavi;text-align:center;text-anchor:middle;stroke:none"
           y="265.53046"
           x="120.55251"
           height="146.86493"
           width="682.90173"
           id="rect2991-7-9-6-4-5-0-8-8" /></flowRegion><flowPara
         id="flowPara3622"
         style="font-size:45px;line-height:1.25;text-align:center;text-anchor:middle;stroke:none">Dihevelepter park </flowPara><flowPara
         id="flowPara102"
         style="font-size:45px;line-height:1.25;text-align:center;text-anchor:middle;stroke:none">gravedhel gwann!</flowPara></flowRoot>
    <flowRoot
       transform="translate(841.50606,206.39165)"
       style="font-style:normal;font-variant:normal;font-weight:normal;font-stretch:normal;line-height:0.01%;font-family:Lavi;-inkscape-font-specification:Lavi;text-align:center;letter-spacing:0px;word-spacing:0px;text-anchor:middle;fill:#000000;fill-opacity:1;stroke:none"
       id="flowRoot2987-4-9-3-1-0-2-9-5-2"
       xml:space="preserve"><flowRegion
         id="flowRegion2989-5-4-5-6-5-0-4-0-2"><rect
           style="font-style:normal;font-variant:normal;font-weight:normal;font-stretch:normal;font-family:Lavi;-inkscape-font-specification:Lavi;text-align:center;text-anchor:middle;stroke:none"
           y="265.53046"
           x="120.55251"
           height="182.78175"
           width="694.24384"
           id="rect2991-7-9-6-4-5-0-8-8-4" /></flowRegion><flowPara
         id="flowPara3637"
         style="font-size:45px;line-height:1.25;text-align:center;text-anchor:middle;stroke:none">Ha'n ogassa resegva gylghek </flowPara><flowPara
         id="flowPara106"
         style="font-size:45px;line-height:1.25;text-align:center;text-anchor:middle;stroke:none">fast yw re vyghan!</flowPara></flowRoot>
    <flowRoot
       transform="translate(867.04371,1442.0746)"
       style="font-style:normal;font-variant:normal;font-weight:normal;font-stretch:normal;line-height:0.01%;font-family:Lavi;-inkscape-font-specification:Lavi;text-align:center;letter-spacing:0px;word-spacing:0px;text-anchor:middle;fill:#000000;fill-opacity:1;stroke:none"
       id="flowRoot2987-4-9-3-1-0-2-9-5-2-50"
       xml:space="preserve"><flowRegion
         id="flowRegion2989-5-4-5-6-5-0-4-0-2-3"><rect
           style="font-style:normal;font-variant:normal;font-weight:normal;font-stretch:normal;font-family:Lavi;-inkscape-font-specification:Lavi;text-align:center;text-anchor:middle;stroke:none"
           y="265.53046"
           x="120.55251"
           height="182.78175"
           width="694.24384"
           id="rect2991-7-9-6-4-5-0-8-8-4-7" /></flowRegion><flowPara
         id="flowPara3652"
         style="font-size:45px;line-height:1.25;text-align:center;text-anchor:middle;stroke:none">Gorwel Hwarvos saw</flowPara><flowPara
         id="flowPara116"
         style="font-size:45px;line-height:1.25;text-align:center;text-anchor:middle;stroke:none"> <flowSpan
   id="flowSpan3656"
   style="font-style:italic">temmik</flowSpan> brassa </flowPara><flowPara
         id="flowPara119"
         style="font-size:45px;line-height:1.25;text-align:center;text-anchor:middle;stroke:none">a wrussa seweni!</flowPara></flowRoot>
  </g>
</svg>
