<?xml version="1.0" encoding="UTF-8" standalone="no"?>
<!-- Created with Inkscape (http://www.inkscape.org/) -->

<svg
   xmlns:dc="http://purl.org/dc/elements/1.1/"
   xmlns:cc="http://creativecommons.org/ns#"
   xmlns:rdf="http://www.w3.org/1999/02/22-rdf-syntax-ns#"
   xmlns:svg="http://www.w3.org/2000/svg"
   xmlns="http://www.w3.org/2000/svg"
   xmlns:xlink="http://www.w3.org/1999/xlink"
   xmlns:sodipodi="http://sodipodi.sourceforge.net/DTD/sodipodi-0.dtd"
   xmlns:inkscape="http://www.inkscape.org/namespaces/inkscape"
   id="svg2"
   version="1.1"
   inkscape:version="0.92.2 2405546, 2018-03-11"
   width="2481"
   height="3503"
   sodipodi:docname="E26P01.svg">
  <metadata
     id="metadata8">
    <rdf:RDF>
      <cc:Work
         rdf:about="">
        <dc:format>image/svg+xml</dc:format>
        <dc:type
           rdf:resource="http://purl.org/dc/dcmitype/StillImage" />
        <dc:title />
      </cc:Work>
    </rdf:RDF>
  </metadata>
  <defs
     id="defs6" />
  <sodipodi:namedview
     pagecolor="#ffffff"
     bordercolor="#666666"
     borderopacity="1"
     objecttolerance="10"
     gridtolerance="10"
     guidetolerance="10"
     inkscape:pageopacity="0"
     inkscape:pageshadow="2"
     inkscape:window-width="1920"
     inkscape:window-height="1033"
     id="namedview4"
     showgrid="false"
     inkscape:zoom="0.6956522"
     inkscape:cx="1508.7053"
     inkscape:cy="785.46911"
     inkscape:window-x="0"
     inkscape:window-y="47"
     inkscape:window-maximized="0"
     inkscape:current-layer="layer1"
     inkscape:snap-global="false" />
  <g
     inkscape:groupmode="layer"
     id="layer2"
     inkscape:label="artwork"
     sodipodi:insensitive="true">
    <image
       sodipodi:absref="/home/midgard/git/peppercarrot/comics/new-ep26_Books-Are-Great/lang/nl/../gfx_Pepper-and-Carrot_by-David-Revoy_E26P01.png"
       xlink:href="../gfx_Pepper-and-Carrot_by-David-Revoy_E26P01.png"
       width="2481"
       height="3503"
       id="image10"
       x="0"
       y="0" />
  </g>
  <g
     inkscape:groupmode="layer"
     id="layer3"
     inkscape:label="speechbubbles"
     style="display:inline;opacity:1">
    <path
       style="fill:#ffffff;fill-opacity:1;stroke:none;stroke-width:1.44473469"
       d="m 277.7016,1883.3026 c -86.12534,0.4163 -126.62316,-10.1327 -146.86759,-19.4702 -33.591267,-15.4936 -40.160819,-108.6848 27.52487,-127.2534 68.04191,-18.6663 200.73297,-14.5153 255.19206,21.3805 54.45886,35.8958 15.61865,83.1585 3.09678,92.8715 -12.52205,9.7129 -45.77092,32.099 -138.94612,32.4716 z"
       id="path3659-8"
       inkscape:connector-curvature="0"
       sodipodi:nodetypes="cssssc" />
    <path
       style="color:#000000;display:inline;overflow:visible;visibility:visible;fill:#ffffff;fill-opacity:1;fill-rule:nonzero;stroke:none;stroke-width:0.77001458px;marker:none;enable-background:accumulate"
       d="m 274.67689,1855.3732 c 11.17842,15.8247 25.32183,43.4204 25.79652,49.4209 -6.73911,-0.5556 -13.09406,0.387 -18.03883,1.0204 1.81058,10.7946 32.21158,51.6223 41.64451,56.3046 -23.83945,-10.0592 -58.27989,-45.5693 -59.88737,-63.8703 6.68489,-2.1454 10.75049,-2.4727 14.26692,-3.6967 -0.36416,-9.3034 -20.80365,-30.8908 -20.80365,-30.8908 z"
       id="path5066"
       inkscape:connector-curvature="0"
       sodipodi:nodetypes="cccccccc" />
    <path
       style="color:#000000;display:inline;overflow:visible;visibility:visible;fill:#ffffff;fill-opacity:1;fill-rule:nonzero;stroke:none;stroke-width:1.0684917px;marker:none;enable-background:accumulate"
       d="m 1842.9725,1947.9956 c -36.0467,-49.7059 -37.6993,-122.9088 -27.4,-145.2764 16.106,-41.8224 50.6691,-80.9114 99.5898,-80.9114 48.9205,0 390.7892,-23.9586 440.9971,28.2326 50.2079,52.1912 56.286,169.5142 21.5256,211.7163 -43.7711,60.8897 -311.2428,49.9007 -311.2428,49.9007 0,0 -168.1121,-0.2869 -223.4697,-63.6618 z"
       id="path3992"
       inkscape:connector-curvature="0"
       sodipodi:nodetypes="ccscccc" />
    <path
       style="color:#000000;display:inline;overflow:visible;visibility:visible;fill:#ffffff;fill-opacity:1;fill-rule:nonzero;stroke:none;stroke-width:1px;marker:none;enable-background:accumulate"
       d="m 1954.782,2240.5466 c 97.5172,-13.4683 140.8945,-73.5032 173.5649,-113.8088 15.274,-18.8437 -32.2063,-50.3843 -32.2063,-50.3843 l -20.4844,64.3961 c 4.4776,5.3732 -31.2523,71.0033 -120.8742,99.797 z"
       id="path4000"
       inkscape:connector-curvature="0"
       sodipodi:nodetypes="csccc" />
    <path
       style="color:#000000;display:inline;overflow:visible;visibility:visible;fill:#ffffff;fill-opacity:1;fill-rule:nonzero;stroke:none;stroke-width:1.03432143px;marker:none;enable-background:accumulate"
       d="m 1971.701,2007.9761 c 18.5907,-36.8924 32.395,-107.939 169.3144,-82.957 73.3415,13.3817 156.7264,12.3467 148.0795,141.4705 -8.6471,129.1238 -130.0589,112.5108 -154.9191,114.0298 -24.8601,1.5193 -142.1325,0.019 -163.6196,-45.3898 -13.4505,-28.4256 -17.4079,-92.8767 1.1448,-127.1535 z"
       id="path4546-6"
       inkscape:connector-curvature="0"
       sodipodi:nodetypes="cssssc" />
    <path
       style="color:#000000;display:inline;overflow:visible;visibility:visible;opacity:1;vector-effect:none;fill:#ffffff;fill-opacity:1;fill-rule:nonzero;stroke:none;stroke-width:1.09742534;stroke-linecap:butt;stroke-linejoin:miter;stroke-miterlimit:4;stroke-dasharray:none;stroke-dashoffset:0;stroke-opacity:1;marker:none;paint-order:stroke fill markers;enable-background:accumulate"
       d="m 886.05133,2696.6475 c -38.71503,-50.7299 -16.27067,-146.6037 -5.20914,-169.4321 11.06141,-22.8284 26.27081,-57.0711 78.81276,-57.0711 52.54175,0 421.52995,-24.5442 475.45445,28.7221 53.9243,53.2664 46.3271,142.1194 -0.684,204.2635 -47.0112,62.1442 -308.6025,44.4898 -308.6025,44.4898 -0.247,0.3529 -189.08029,26.2283 -239.77157,-50.9722 z"
       id="path3992-0"
       inkscape:connector-curvature="0"
       sodipodi:nodetypes="ccscscc" />
    <path
       style="color:#000000;display:inline;overflow:visible;visibility:visible;fill:#ffffff;fill-opacity:1;fill-rule:nonzero;stroke:none;stroke-width:1.1471467px;marker:none;enable-background:accumulate"
       d="m 1107.7917,2663.674 c -41.0805,41.3971 -74.3212,126.4523 -32.6058,262.3106 -64.481,-107.4324 -40.7404,-218.5665 -31.5488,-251.0486 9.1915,-32.4819 64.1546,-11.262 64.1546,-11.262 z"
       id="path4008"
       inkscape:connector-curvature="0" />
    <path
       style="color:#000000;display:inline;overflow:visible;visibility:visible;fill:#ffffff;fill-opacity:1;fill-rule:nonzero;stroke:none;stroke-width:1.1471467px;marker:none;enable-background:accumulate"
       d="m 1891.9827,2656.832 c -40.4116,58.3597 -53.3089,167.7072 24.2468,263.2149 -108.4132,-99.3198 -82.2954,-214.0613 -72.6196,-244.9782 2.0322,-33.6961 48.3728,-18.2367 48.3728,-18.2367 z"
       id="path4008-0"
       inkscape:connector-curvature="0"
       sodipodi:nodetypes="cccc" />
    <path
       style="color:#000000;display:inline;overflow:visible;visibility:visible;opacity:1;fill:#ffffff;fill-opacity:1;fill-rule:nonzero;stroke:none;stroke-width:1.3938657px;marker:none;enable-background:accumulate"
       d="m 1851.6429,2744.4158 c -89.8993,-11.4249 -104.8759,-33.2233 -126.3179,-85.7917 -21.442,-52.5684 18.6743,-199.8538 37.4398,-211.8218 11.9495,-4.5693 152.2364,-1.6759 229.9709,10.4072 77.7344,12.0833 169.1783,4.1407 194.7096,86.3811 22.1247,71.2666 -1.127,178.7306 -103.9228,195.4587 -102.796,16.7282 -231.8796,5.3665 -231.8796,5.3665 z"
       id="path3970"
       inkscape:connector-curvature="0"
       sodipodi:nodetypes="csccssc" />
  </g>
  <g
     inkscape:groupmode="layer"
     id="layer1"
     inkscape:label="txt">
    <text
       xml:space="preserve"
       style="font-style:normal;font-variant:normal;font-weight:normal;font-stretch:normal;line-height:0%;font-family:Lavi;-inkscape-font-specification:Lavi;text-align:center;letter-spacing:0px;word-spacing:0px;text-anchor:middle;fill:#000000;fill-opacity:1;stroke:none"
       x="266.09955"
       y="1786.0026"
       id="text4246"><tspan
         sodipodi:role="line"
         style="font-size:45px;line-height:1.25"
         x="266.09955"
         y="1786.0026"
         id="tspan4252">Boeken</tspan><tspan
         sodipodi:role="line"
         style="font-size:45px;line-height:1.25"
         x="266.09955"
         y="1842.2526"
         id="tspan825">zijn geweldig!</tspan></text>
    <text
       xml:space="preserve"
       style="font-style:normal;font-variant:normal;font-weight:normal;font-stretch:normal;line-height:0%;font-family:Lavi;-inkscape-font-specification:Lavi;text-align:center;letter-spacing:0px;word-spacing:0px;text-anchor:middle;fill:#000000;fill-opacity:1;stroke:none"
       x="2119.3066"
       y="2032.8772"
       id="text4246-3-5-9"><tspan
         sodipodi:role="line"
         style="font-size:45px;line-height:1.25"
         x="2119.3066"
         y="2032.8772"
         id="tspan927-2">Dit is van</tspan><tspan
         sodipodi:role="line"
         style="font-size:45px;line-height:1.25"
         x="2119.3066"
         y="2089.1272"
         id="tspan958">onschatbare</tspan><tspan
         sodipodi:role="line"
         style="font-size:45px;line-height:1.25"
         x="2119.3066"
         y="2145.3772"
         id="tspan57">waarde!</tspan></text>
    <text
       xml:space="preserve"
       style="font-style:normal;font-variant:normal;font-weight:normal;font-stretch:normal;line-height:0%;font-family:Lavi;-inkscape-font-specification:Lavi;text-align:center;letter-spacing:0px;word-spacing:0px;text-anchor:middle;fill:#000000;fill-opacity:1;stroke:none"
       x="2101.8193"
       y="1794.7019"
       id="text4246-3-3"><tspan
         sodipodi:role="line"
         style="font-size:45px;line-height:1.25"
         x="2101.8193"
         y="1794.7019"
         id="tspan1093">In dit zeldzame boek</tspan><tspan
         sodipodi:role="line"
         style="font-size:45px;line-height:1.25"
         x="2101.8193"
         y="1850.9519"
         id="tspan44">beschrijft een avonturier</tspan><tspan
         sodipodi:role="line"
         style="font-size:45px;line-height:1.25"
         x="2101.8193"
         y="1907.2019"
         id="tspan47">hoe je dit kasteel kunt</tspan><tspan
         sodipodi:role="line"
         style="font-size:45px;line-height:1.25"
         x="2101.8193"
         y="1963.4519"
         id="tspan43">binnendringen.</tspan></text>
    <text
       xml:space="preserve"
       style="font-style:normal;font-variant:normal;font-weight:normal;font-stretch:normal;line-height:0%;font-family:Lavi;-inkscape-font-specification:Lavi;text-align:center;letter-spacing:0px;word-spacing:0px;text-anchor:middle;fill:#000000;fill-opacity:1;stroke:none"
       x="1163.4302"
       y="2534.7097"
       id="text4246-3-3-1"><tspan
         sodipodi:role="line"
         style="font-size:45px;line-height:1.25"
         x="1163.4302"
         y="2534.7097"
         id="tspan1149">Bijvoorbeeld: dit</tspan><tspan
         sodipodi:role="line"
         style="font-size:45px;line-height:1.25"
         x="1163.4302"
         y="2590.9597"
         id="tspan61">kwade oog op de voordeur</tspan><tspan
         sodipodi:role="line"
         style="font-size:45px;line-height:1.25"
         x="1163.4302"
         y="2647.2097"
         id="tspan65">schiet vuurballen af tegen</tspan><tspan
         sodipodi:role="line"
         style="font-size:45px;line-height:1.25"
         x="1163.4302"
         y="2703.4597"
         id="tspan1244">ongewenste bezoekers.</tspan></text>
    <text
       xml:space="preserve"
       style="font-style:normal;font-variant:normal;font-weight:normal;font-stretch:normal;line-height:0%;font-family:Lavi;-inkscape-font-specification:Lavi;text-align:center;letter-spacing:0px;word-spacing:0px;text-anchor:middle;fill:#000000;fill-opacity:1;stroke:none"
       x="1949.1216"
       y="2534.2783"
       id="text4246-3-3-1-2"><tspan
         sodipodi:role="line"
         style="font-size:45px;line-height:1.25"
         x="1949.1216"
         y="2534.2783"
         id="tspan1222">Maar als je</tspan><tspan
         sodipodi:role="line"
         style="font-size:45px;line-height:1.25"
         x="1949.1216"
         y="2590.5283"
         id="tspan78">voorzichtig van de</tspan><tspan
         sodipodi:role="line"
         style="font-size:45px;line-height:1.25"
         x="1949.1216"
         y="2646.7783"
         id="tspan80">zijkant komt, zodat</tspan><tspan
         sodipodi:role="line"
         style="font-size:45px;line-height:1.25"
         x="1949.1216"
         y="2703.0283"
         id="tspan1230">het je niet ziet …</tspan></text>
  </g>
</svg>
