<?xml version="1.0" encoding="UTF-8" standalone="no"?>
<svg
   xmlns:dc="http://purl.org/dc/elements/1.1/"
   xmlns:cc="http://creativecommons.org/ns#"
   xmlns:rdf="http://www.w3.org/1999/02/22-rdf-syntax-ns#"
   xmlns:svg="http://www.w3.org/2000/svg"
   xmlns="http://www.w3.org/2000/svg"
   xmlns:xlink="http://www.w3.org/1999/xlink"
   xmlns:sodipodi="http://sodipodi.sourceforge.net/DTD/sodipodi-0.dtd"
   xmlns:inkscape="http://www.inkscape.org/namespaces/inkscape"
   id="svg2"
   version="1.1"
   inkscape:version="1.0 (4035a4fb49, 2020-05-01)"
   width="2481"
   height="3503"
   sodipodi:docname="E34P03.svg">
  <metadata
     id="metadata8">
    <rdf:RDF>
      <cc:Work
         rdf:about="">
        <dc:format>image/svg+xml</dc:format>
        <dc:type
           rdf:resource="http://purl.org/dc/dcmitype/StillImage" />
        <dc:title />
      </cc:Work>
    </rdf:RDF>
  </metadata>
  <defs
     id="defs6" />
  <sodipodi:namedview
     pagecolor="#ffffff"
     bordercolor="#666666"
     borderopacity="1"
     objecttolerance="10"
     gridtolerance="10"
     guidetolerance="10"
     inkscape:pageopacity="0"
     inkscape:pageshadow="2"
     inkscape:window-width="960"
     inkscape:window-height="1027"
     id="namedview4"
     showgrid="false"
     inkscape:zoom="0.40000002"
     inkscape:cx="1160.0541"
     inkscape:cy="2648.4014"
     inkscape:window-x="-8"
     inkscape:window-y="-8"
     inkscape:window-maximized="0"
     inkscape:current-layer="layer1"
     inkscape:document-rotation="0"
     borderlayer="true" />
  <g
     inkscape:groupmode="layer"
     id="layer2"
     inkscape:label="artwork"
     sodipodi:insensitive="true">
    <image
       sodipodi:absref="D:\Pepper&amp;Carrot translation\peppercarrot_ep34_The-Knighting-of-Shichimi\lang\gfx_Pepper-and-Carrot_by-David-Revoy_E34P03.png"
       xlink:href="../gfx_Pepper-and-Carrot_by-David-Revoy_E34P03.png"
       y="0"
       x="0"
       id="image10"
       height="3503"
       width="2481" />
  </g>
  <g
     inkscape:groupmode="layer"
     id="layer3"
     inkscape:label="speechbubbles"
     style="display:inline">
    <path
       style="color:#000000;display:inline;overflow:visible;visibility:visible;fill:#ffffff;fill-opacity:1;fill-rule:nonzero;stroke:none;stroke-width:1.12872px;marker:none;enable-background:accumulate"
       d="m 1182.6997,2131.3371 c -62.6586,2.0795 -124.7916,8.8882 -186.39811,17.0407 -24.37339,4.4297 -48.06276,12.826 -64.9073,26.4381 -16.70084,13.8051 -25.3152,31.6939 -28.67043,49.5651 -4.61759,23.5015 3.78654,47.7621 20.7831,67.9836 11.21991,14.5376 27.01026,27.8176 47.86562,35.5939 26.77773,10.6779 56.68452,16.2688 86.12942,21.8374 27.95,4.9017 56.4653,7.9423 84.9996,10.4856 35.2648,2.802 70.942,3.4297 106.2761,0.8739 26.8908,-1.8923 53.7756,-4.7216 79.7999,-10.0245 31.3747,-6.5468 61.5852,-17.3016 85.3941,-33.5043 17.7512,-12.1312 31.155,-27.5313 38.0001,-44.4063 7.5258,-17.6539 10.0659,-36.4413 6.9701,-54.7742 -3.562,-18.7725 -15.7416,-37.0395 -36.0072,-49.5168 -18.9425,-11.786 -42.792,-18.4668 -66.5598,-23.5836 -28.082,-6.024 -57.2921,-8.7324 -86.4466,-10.3833 -18.6322,-1.0519 -37.2566,-2.2042 -55.912,-3.0264 -10.4281,-0.417 -20.8716,-0.6493 -31.3166,-0.5989 z"
       id="path4546-6-08-2"
       inkscape:connector-curvature="0"
       sodipodi:nodetypes="cssssc" />
    <path
       style="color:#000000;display:inline;overflow:visible;visibility:visible;fill:#ffffff;fill-opacity:1;fill-rule:nonzero;stroke:none;stroke-width:0.586403px;marker:none;enable-background:accumulate"
       d="m 786.34677,2123.5123 c 5.02464,-42.62 47.16918,-72.3401 153.25243,-60.2559 56.824,6.4733 121.4295,11.7571 114.7301,74.2181 -6.6996,62.4603 -99.65607,57.3161 -118.91724,58.0513 -19.26129,0.7346 -119.01807,-9.6322 -135.66614,-31.5981 -10.42127,-13.7499 -14.23657,-27.1885 -13.39915,-40.4154 z"
       id="path4546-6-08"
       inkscape:connector-curvature="0"
       sodipodi:nodetypes="cssssc" />
    <path
       style="fill:#ffffff;fill-rule:evenodd;stroke:none;stroke-width:1.25695px;stroke-linecap:butt;stroke-linejoin:miter;stroke-opacity:1"
       d="m 1538.8459,2361.5997 c -67.1764,-16.6519 -104.4231,-46.199 -116.7263,-96.6707 l -26.7459,22.416 c 34.4783,64.0674 88.4565,69.7439 143.4722,74.2547 z"
       id="path1291"
       inkscape:connector-curvature="0"
       sodipodi:nodetypes="cccc" />
    <path
       style="fill:#ffffff;stroke:none;stroke-width:0.83135"
       d="m 1987.4712,245.48856 c -39.6592,0.63741 -79.2406,3.01211 -118.6411,6.30849 -28.0761,2.52472 -56.6998,6.39998 -81.6288,16.65707 -17.1243,7.2052 -30.928,18.744 -38.0389,32.24058 -3.2439,6.17484 -5.0977,12.86678 -3.6698,19.47377 2.5878,14.94429 16.297,28.26624 34.5305,35.07696 23.5697,9.52782 50.5265,12.68097 76.6085,16.48589 54.2988,7.44584 109.7958,9.29556 164.9351,8.04842 25.6859,-0.69047 51.3777,-1.98118 76.8507,-4.53132 23.5879,-2.59372 47.3991,-6.82172 68.0381,-15.85834 17.7212,-8.34566 30.0651,-23.07564 30.1199,-38.65288 0.4824,-19.25917 -14.7234,-37.50513 -36.1599,-48.19943 -10.8413,-5.57463 -23.4313,-8.90849 -36.1123,-11.48207 -37.7184,-8.45048 -76.8489,-13.51037 -116.2156,-15.28856 -6.8665,-0.24015 -13.7425,-0.32699 -20.6164,-0.27858 z"
       id="path3100-2-0"
       inkscape:connector-curvature="0" />
    <path
       style="fill:#ffffff;stroke:none;stroke-width:0.89107"
       d="m 1987.4712,217.99331 c -5.8616,42.42276 -89.3779,53.91376 -148.8004,53.96319 -101.0529,3.18085 -203.4551,-2.12827 -302.0289,-15.73699 -63.6541,-11.74941 -94.593,-66.33321 -41.7843,-93.83992 54.1642,-21.41915 123.7368,-19.5768 186.2422,-23.69532 88.4053,-2.16761 179.974,1.79072 262.7571,21.63792 36.8793,10.79846 49.6574,34.80887 43.6143,57.67112 z"
       id="path3100-2"
       inkscape:connector-curvature="0" />
    <path
       style="color:#000000;display:inline;overflow:visible;visibility:visible;fill:#ffffff;fill-opacity:1;fill-rule:nonzero;stroke:none;stroke-width:0.892px;marker:none;enable-background:accumulate"
       d="m 954.3418,195.82201 c -45.87505,1.45391 -90.50389,10.89967 -132.65874,23.48482 -15.88073,4.45279 -32.79797,8.18547 -45.81804,16.42125 -14.02348,9.04908 -22.59215,21.57002 -28.17223,34.28286 -8.54435,20.48449 -10.7449,41.9771 -11.54367,63.2432 -0.41844,10.4701 -0.22398,21.00427 2.27607,31.3526 2.82333,11.9454 7.67467,23.7082 15.09561,34.61683 11.30881,15.60208 30.71463,27.50277 52.13963,35.71924 21.39559,8.19963 45.2899,12.58995 69.33549,14.41651 23.84715,1.99227 47.88886,2.66877 71.88735,2.53366 32.30255,-0.45057 64.91303,-3.34658 95.38533,-11.31609 26.8709,-7.7166 48.2885,-23.57338 60.4625,-42.18428 13.0838,-19.00937 21.7985,-39.56077 25.7259,-60.55731 3.6767,-21.25954 1.7999,-43.33398 -8.6815,-63.53257 -8.6775,-16.20056 -24.0909,-30.42987 -43.5152,-40.79124 -22.4585,-12.58105 -47.7099,-22.40697 -73.7901,-30.56811 -15.25658,-4.39786 -31.57975,-7.37742 -48.1284,-7.12137 z"
       id="path4040-40"
       inkscape:connector-curvature="0"
       sodipodi:nodetypes="zssssz" />
    <path
       style="fill:#ffffff;stroke:none;stroke-width:1.20008"
       d="m 902.4631,88.826334 c -22.08321,0.336902 -44.41536,3.363847 -65.4296,13.397696 -12.52738,5.96492 -24.89492,13.84832 -34.88216,26.26982 -7.00883,8.95523 -12.21027,20.99968 -13.6846,34.25248 -2.21993,17.39156 1.22319,35.79962 8.70962,49.90043 10.33427,20.82892 27.47737,34.44258 45.43519,36.76059 27.4645,5.3918 55.26408,4.07814 82.91174,4.28932 21.5492,-0.11683 43.32771,-0.50982 64.43904,-7.2605 14.41597,-4.74747 28.56747,-13.23746 39.56737,-27.44646 8.1491,-10.80905 13.579,-26.23856 13.2147,-42.17946 -0.2217,-19.07421 -7.0704,-37.26922 -17.1861,-49.721 C 1014.27,112.77404 999.93349,104.19671 985.38664,98.722601 964.13403,90.78696 942.01273,89.725482 920.14806,88.993105 914.25393,88.832917 908.35825,88.74929 902.4631,88.826334 Z"
       id="path3280-1"
       inkscape:connector-curvature="0"
       sodipodi:nodetypes="csssc" />
    <path
       style="color:#000000;display:inline;overflow:visible;visibility:visible;fill:#ffffff;fill-opacity:1;fill-rule:nonzero;stroke:none;stroke-width:0.990091px;marker:none;enable-background:accumulate"
       d="m 493.9942,518.75992 c -18.78498,50.92279 -2.84901,105.08842 13.19711,114.63467 -28.06687,-12.75099 -51.50197,-72.60161 -41.41962,-110.56135 11.40195,-31.85325 28.22251,-4.07332 28.22251,-4.07332 z"
       id="path4480-2"
       inkscape:connector-curvature="0"
       sodipodi:nodetypes="cccc"
       inkscape:transform-center-x="54.91025"
       inkscape:transform-center-y="-145.58616" />
    <path
       style="color:#000000;display:inline;overflow:visible;visibility:visible;fill:#ffffff;fill-opacity:1;fill-rule:nonzero;stroke:none;stroke-width:1.06269px;marker:none;enable-background:accumulate"
       d="m 500.64648,297.68695 c -34.49589,0.96717 -69.4681,2.14923 -102.8418,10.56123 -15.69075,3.95148 -30.64795,10.42593 -43.11437,19.72764 -13.48066,9.8305 -23.69532,22.75301 -30.65054,36.79172 -11.02599,22.02342 -14.66035,46.62532 -12.04685,70.48129 2.84889,22.50805 14.42686,43.80892 31.07411,60.9911 7.8848,7.99311 17.65056,14.48342 28.4604,19.15127 20.1191,9.18519 41.73212,15.76937 63.82625,20.20361 28.80114,5.65812 58.32381,8.51119 87.8365,8.64148 18.75376,0.044 37.60238,-1.2419 55.84896,-5.19519 24.70365,-5.12333 48.64801,-13.33596 70.44929,-24.75665 21.52208,-12.12377 38.73713,-30.85317 45.07535,-52.77678 8.56816,-26.70619 9.14614,-55.33948 1.87645,-82.32642 -3.77229,-13.43181 -10.90739,-26.2234 -21.51688,-36.53845 -10.29623,-10.31088 -23.62623,-18.05916 -38.04559,-23.24118 -25.65476,-9.90301 -53.41879,-14.50401 -80.94724,-18.38201 -18.30362,-2.27956 -36.79545,-3.41207 -55.28404,-3.33266 z"
       id="path4546-6-5-5"
       inkscape:connector-curvature="0"
       sodipodi:nodetypes="cssssc" />
    <path
       style="color:#000000;display:inline;overflow:visible;visibility:visible;fill:#ffffff;fill-opacity:1;fill-rule:nonzero;stroke:none;stroke-width:0.718967px;marker:none;enable-background:accumulate"
       d="m 269.62877,122.34941 c -35.39689,0.43882 -71.25455,2.941 -104.50228,10.73233 -18.04899,4.41161 -34.75868,12.07687 -43.61728,22.85154 -10.35141,13.19893 -10.94837,28.8066 -3.77074,42.64786 4.74601,8.58835 14.41982,16.25559 27.52462,20.65056 20.41465,7.38987 43.75779,11.13945 67.10956,13.11164 17.98506,1.52255 36.09477,2.40067 54.15926,3.48286 33.06609,1.64089 66.4326,1.86524 99.3999,-0.65011 30.2653,-2.27137 60.57988,-5.76433 88.97365,-12.73483 15.34104,-3.77726 30.45411,-8.6914 41.52633,-16.36934 15.19428,-10.22922 19.78767,-25.20102 14.70997,-38.44416 -3.77083,-10.20712 -13.52567,-19.63953 -27.64596,-25.661 -17.20497,-7.54132 -38.14772,-10.84729 -58.64974,-13.25794 -31.62637,-3.63705 -63.84947,-4.55496 -95.91294,-5.68557 -19.75054,-0.57581 -39.53175,-0.86631 -59.30435,-0.67384 z"
       id="path4546-6-5-3"
       inkscape:connector-curvature="0"
       sodipodi:nodetypes="cssssc" />
    <path
       id="path1081"
       style="fill:#ffffff;fill-rule:evenodd;stroke:none;stroke-width:1px;stroke-linecap:butt;stroke-linejoin:miter;stroke-opacity:1"
       d="m 273.67188,208.28125 c -10.34602,0.0639 -20.49884,2.27426 -30.72657,3.55078 -2.69982,4.93778 -4.08222,10.48922 -6.23101,15.68234 -5.67931,15.85263 -11.23804,31.88728 -14.15471,48.50943 -1.55744,12.04107 -0.85288,24.84605 5.20433,35.64519 9.1497,17.95023 22.70579,33.83652 27.94646,53.6304 3.09231,10.90551 5.52274,22.36337 4.35032,33.73572 -2.11881,9.59327 -8.21891,17.62309 -11.87847,26.63366 -6.87167,15.32803 -10.49807,32.77889 -6.43519,49.37594 1.01596,4.68537 2.40213,9.28257 3.95804,13.81467 -2.44284,-26.62563 4.52474,-54.43511 21.1636,-75.60842 5.87927,-7.58781 10.3557,-16.41037 11.5087,-26.03213 2.42129,-15.20105 -1.52987,-30.55332 -7.50308,-44.47184 -6.35087,-15.65438 -14.74681,-30.53834 -19.38839,-46.84497 -2.53518,-14.1623 4.48464,-27.52853 11.07638,-39.5497 6.64471,-12.19187 14.72253,-23.64193 20.19033,-36.44305 2.35665,-5.59735 -3.25033,-12.19349 -9.08074,-11.62802 z" />
    <path
       style="color:#000000;display:inline;overflow:visible;visibility:visible;fill:#ffffff;fill-opacity:1;fill-rule:nonzero;stroke:none;stroke-width:0.747612px;marker:none;enable-background:accumulate"
       d="m 907.09119,409.43305 c -2.31202,46.97432 46.46212,99.91514 106.27011,73.88577 -68.51547,11.60614 -80.86302,-50.88993 -74.49691,-77.22915 6.052,-16.0625 -31.7732,3.34338 -31.7732,3.34338 z"
       id="path3978-4"
       inkscape:connector-curvature="0"
       sodipodi:nodetypes="cccc" />
    <path
       style="fill:#ffffff;fill-rule:evenodd;stroke:none;stroke-width:1.17292px;stroke-linecap:butt;stroke-linejoin:miter;stroke-opacity:1"
       d="m 1975.6372,374.67287 c 46.9908,56.36735 25.0644,96.94489 0.9732,119.18809 57.8143,-39.15954 50.7085,-84.22782 24.8731,-138.46075 -6.4903,-8.77797 -25.8463,19.27266 -25.8463,19.27266 z"
       id="path1359"
       inkscape:connector-curvature="0"
       sodipodi:nodetypes="cccc" />
    <path
       style="color:#000000;display:inline;overflow:visible;visibility:visible;fill:#ffffff;fill-opacity:1;fill-rule:nonzero;stroke:none;stroke-width:0.548604px;marker:none;enable-background:accumulate"
       d="m 744.76298,1784.4258 c -23.02506,0.867 -46.48161,5.9216 -66.15692,18.3531 -13.76056,9.5893 -21.22853,26.9834 -19.51803,43.572 0.55586,13.3373 5.069,27.3028 15.40829,36.2633 11.35879,9.28 26.10401,12.594 40.21935,15.0694 20.44819,3.3542 41.14494,5.3796 61.8703,5.6186 27.626,-0.1737 55.35589,-5.0256 81.04299,-15.3087 10.63803,-4.6176 20.97892,-11.9976 25.494,-23.0724 9.52705,-22.3457 0.0239,-50.8982 -20.95407,-63.133 -15.20341,-9.2197 -33.11596,-12.1995 -50.49797,-14.2998 -22.2016,-2.4933 -44.57871,-3.2792 -66.90794,-3.0625 z"
       id="path4546-6-5-3-5"
       inkscape:connector-curvature="0"
       sodipodi:nodetypes="cssssc" />
    <path
       style="color:#000000;display:inline;overflow:visible;visibility:visible;fill:#ffffff;fill-opacity:1;fill-rule:nonzero;stroke:none;stroke-width:0.710537px;marker:none;enable-background:accumulate"
       d="m 849.98651,1849.2956 c 26.9288,18.2447 60.46856,37.1401 111.40082,-0.4118 -51.33263,27.0778 -81.7058,-0.5873 -98.47579,-20.0818 -9.1535,-13.7188 -12.92502,20.4935 -12.92503,20.4936 z"
       id="path3978-4-3"
       inkscape:connector-curvature="0"
       sodipodi:nodetypes="cccc" />
  </g>
  <g
     inkscape:groupmode="layer"
     id="layer1"
     inkscape:label="txt">
    <text
       xml:space="preserve"
       style="font-style:normal;font-variant:normal;font-weight:normal;font-stretch:normal;font-size:45px;line-height:1.25;font-family:'小赖字体 SC';-inkscape-font-specification:'小赖字体 SC';text-align:center;letter-spacing:0px;word-spacing:0px;text-anchor:middle;fill:#000000;fill-opacity:1;stroke:none"
       x="318.19693"
       y="194.99399"
       id="text4246-3-2-2-6-3-7-9-3"><tspan
         id="tspan59"
         style="font-style:normal;font-variant:normal;font-weight:normal;font-stretch:normal;font-size:45px;font-family:'小赖字体 SC';-inkscape-font-specification:'小赖字体 SC'"
         sodipodi:role="line"
         x="318.19693"
         y="194.99399">这位是你邀请的？</tspan></text>
    <text
       xml:space="preserve"
       style="font-style:normal;font-variant:normal;font-weight:normal;font-stretch:normal;font-size:45px;line-height:1.25;font-family:'小赖字体 SC';-inkscape-font-specification:'小赖字体 SC';text-align:center;letter-spacing:0px;word-spacing:0px;text-anchor:middle;fill:#000000;fill-opacity:1;stroke:none"
       x="507.4679"
       y="381.7894"
       id="text4246-3-2-2-6-3-7-9-3-3"><tspan
         style="font-style:normal;font-variant:normal;font-weight:normal;font-stretch:normal;font-size:45px;font-family:'小赖字体 SC';-inkscape-font-specification:'小赖字体 SC'"
         sodipodi:role="line"
         x="507.4679"
         y="381.7894"
         id="tspan73">对。是我的朋友</tspan><tspan
         id="tspan65"
         style="font-style:normal;font-variant:normal;font-weight:normal;font-stretch:normal;font-size:45px;font-family:'小赖字体 SC';-inkscape-font-specification:'小赖字体 SC'"
         sodipodi:role="line"
         x="507.4679"
         y="438.0394">小辣椒。</tspan><tspan
         id="tspan67"
         style="font-style:normal;font-variant:normal;font-weight:normal;font-stretch:normal;font-size:45px;font-family:'小赖字体 SC';-inkscape-font-specification:'小赖字体 SC'"
         sodipodi:role="line"
         x="507.4679"
         y="494.2894">没问题的。</tspan></text>
    <text
       xml:space="preserve"
       style="font-style:normal;font-variant:normal;font-weight:normal;font-stretch:normal;font-size:45px;line-height:1.25;font-family:'小赖字体 SC';-inkscape-font-specification:'小赖字体 SC';text-align:center;letter-spacing:0px;word-spacing:0px;text-anchor:middle;fill:#000000;fill-opacity:1;stroke:none"
       x="919.74799"
       y="152.51166"
       id="text4246-3-2-2-6-3-7-9-3-3-5"><tspan
         style="font-style:normal;font-variant:normal;font-weight:normal;font-stretch:normal;font-size:45px;font-family:'小赖字体 SC';-inkscape-font-specification:'小赖字体 SC'"
         sodipodi:role="line"
         x="919.74799"
         y="152.51166"
         id="tspan77">萝卜头，</tspan><tspan
         id="tspan71"
         style="font-style:normal;font-variant:normal;font-weight:normal;font-stretch:normal;font-size:45px;font-family:'小赖字体 SC';-inkscape-font-specification:'小赖字体 SC'"
         sodipodi:role="line"
         x="919.74799"
         y="208.76166">还好吧？</tspan></text>
    <text
       xml:space="preserve"
       style="font-style:normal;font-variant:normal;font-weight:normal;font-stretch:normal;font-size:40px;line-height:1.25;font-family:'小赖字体 SC';-inkscape-font-specification:'小赖字体 SC';text-align:center;letter-spacing:0px;word-spacing:0px;text-anchor:middle;fill:#000000;fill-opacity:1;stroke:none"
       x="940.85266"
       y="283.84482"
       id="text4246-3-2-2-6-3-7-9-3-3-5-9"><tspan
         sodipodi:role="line"
         x="940.85266"
         y="283.84482"
         style="font-style:normal;font-variant:normal;font-weight:normal;font-stretch:normal;font-size:40px;font-family:'小赖字体 SC';-inkscape-font-specification:'小赖字体 SC'"
         id="tspan127">不好意思，</tspan><tspan
         id="tspan82"
         sodipodi:role="line"
         x="940.85266"
         y="333.84482"
         style="font-style:normal;font-variant:normal;font-weight:normal;font-stretch:normal;font-size:40px;font-family:'小赖字体 SC';-inkscape-font-specification:'小赖字体 SC'">超速飞行的降落</tspan><tspan
         id="tspan84"
         sodipodi:role="line"
         x="940.85266"
         y="383.84482"
         style="font-style:normal;font-variant:normal;font-weight:normal;font-stretch:normal;font-size:40px;font-family:'小赖字体 SC';-inkscape-font-specification:'小赖字体 SC'">我掌握的还不够好。</tspan></text>
    <text
       xml:space="preserve"
       style="font-style:normal;font-variant:normal;font-weight:normal;font-stretch:normal;font-size:45px;line-height:1.25;font-family:'小赖字体 SC';-inkscape-font-specification:'小赖字体 SC';text-align:center;letter-spacing:0px;word-spacing:0px;text-anchor:middle;fill:#000000;fill-opacity:1;stroke:none"
       x="1744.1462"
       y="221.09926"
       id="text4246-3-2-2-6-3-7-9-3-3-5-9-2"><tspan
         style="font-style:normal;font-variant:normal;font-weight:normal;font-stretch:normal;font-size:45px;font-family:'小赖字体 SC';-inkscape-font-specification:'小赖字体 SC'"
         sodipodi:role="line"
         x="1744.1462"
         y="221.09926"
         id="tspan81">再次抱歉打扰了会场，</tspan></text>
    <text
       xml:space="preserve"
       style="font-style:normal;font-variant:normal;font-weight:normal;font-stretch:normal;font-size:45px;line-height:1.25;font-family:'小赖字体 SC';-inkscape-font-specification:'小赖字体 SC';text-align:center;letter-spacing:0px;word-spacing:0px;text-anchor:middle;fill:#000000;fill-opacity:1;stroke:none"
       x="1981.5015"
       y="337.36926"
       id="text4246-3-2-2-6-3-7-9-3-3-5-9-2-6"><tspan
         style="font-style:normal;font-variant:normal;font-weight:normal;font-stretch:normal;font-size:45px;font-family:'小赖字体 SC';-inkscape-font-specification:'小赖字体 SC'"
         sodipodi:role="line"
         x="1981.5015"
         y="337.36926"
         id="tspan85">还有我的衣着也……</tspan></text>
    <text
       xml:space="preserve"
       style="font-style:normal;font-variant:normal;font-weight:normal;font-stretch:normal;font-size:45px;line-height:1.25;font-family:'小赖字体 SC';-inkscape-font-specification:'小赖字体 SC';text-align:center;letter-spacing:0px;word-spacing:0px;text-anchor:middle;fill:#000000;fill-opacity:1;stroke:none"
       x="767.77356"
       y="1855.4686"
       id="text4246-3-2-2-6-3-7-9-3-3-5-9-2-6-3"><tspan
         style="font-style:normal;font-variant:normal;font-weight:normal;font-stretch:normal;font-size:45px;font-family:'小赖字体 SC';-inkscape-font-specification:'小赖字体 SC'"
         sodipodi:role="line"
         x="767.77356"
         y="1855.4686"
         id="tspan8459-7">嘿嘿…</tspan></text>
    <text
       xml:space="preserve"
       style="font-style:normal;font-variant:normal;font-weight:normal;font-stretch:normal;font-size:45px;line-height:1.25;font-family:'小赖字体 SC';-inkscape-font-specification:'小赖字体 SC';text-align:center;letter-spacing:0px;word-spacing:0px;text-anchor:middle;fill:#000000;fill-opacity:1;stroke:none"
       x="922.21698"
       y="2143.4609"
       id="text4246-3-2-2-6-3-7-9-3-3-5-9-2-6-1"><tspan
         style="font-style:normal;font-variant:normal;font-weight:normal;font-stretch:normal;font-size:45px;font-family:'小赖字体 SC';-inkscape-font-specification:'小赖字体 SC'"
         sodipodi:role="line"
         x="922.21698"
         y="2143.4609"
         id="tspan1077-7">七味粉，</tspan></text>
    <text
       xml:space="preserve"
       style="font-style:normal;font-variant:normal;font-weight:normal;font-stretch:normal;font-size:45px;line-height:1.25;font-family:'小赖字体 SC';-inkscape-font-specification:'小赖字体 SC';text-align:center;letter-spacing:0px;word-spacing:0px;text-anchor:middle;fill:#000000;fill-opacity:1;stroke:none"
       x="1200.3296"
       y="2243.157"
       id="text4246-3-2-2-6-3-7-9-3-3-5-9-2-6-1-9"><tspan
         style="font-style:normal;font-variant:normal;font-weight:normal;font-stretch:normal;font-size:45px;font-family:'小赖字体 SC';-inkscape-font-specification:'小赖字体 SC'"
         x="1200.3296"
         y="2243.157"
         sodipodi:role="line"
         id="tspan105">刚刚入场的这位年轻女士，</tspan><tspan
         id="tspan96"
         style="font-style:normal;font-variant:normal;font-weight:normal;font-stretch:normal;font-size:45px;font-family:'小赖字体 SC';-inkscape-font-specification:'小赖字体 SC'"
         x="1200.3296"
         y="2299.407"
         sodipodi:role="line">确实是你的朋友么？</tspan></text>
  </g>
</svg>
