<?xml version="1.0" encoding="UTF-8" standalone="no"?>
<svg
   xmlns:dc="http://purl.org/dc/elements/1.1/"
   xmlns:cc="http://creativecommons.org/ns#"
   xmlns:rdf="http://www.w3.org/1999/02/22-rdf-syntax-ns#"
   xmlns:svg="http://www.w3.org/2000/svg"
   xmlns="http://www.w3.org/2000/svg"
   xmlns:xlink="http://www.w3.org/1999/xlink"
   xmlns:sodipodi="http://sodipodi.sourceforge.net/DTD/sodipodi-0.dtd"
   xmlns:inkscape="http://www.inkscape.org/namespaces/inkscape"
   sodipodi:docname="E34P01.svg"
   height="3503"
   width="2481"
   inkscape:version="1.0 (4035a4fb49, 2020-05-01)"
   version="1.1"
   id="svg2">
  <metadata
     id="metadata8">
    <rdf:RDF>
      <cc:Work
         rdf:about="">
        <dc:format>image/svg+xml</dc:format>
        <dc:type
           rdf:resource="http://purl.org/dc/dcmitype/StillImage" />
        <dc:title />
      </cc:Work>
    </rdf:RDF>
  </metadata>
  <defs
     id="defs6">
    <filter
       inkscape:label="blur-layer-whisper"
       height="1.0251678"
       y="-0.012583922"
       width="1.0076725"
       x="-0.0038362744"
       id="filter7961"
       style="color-interpolation-filters:sRGB"
       inkscape:collect="always">
      <feGaussianBlur
         id="feGaussianBlur7963"
         stdDeviation="2.6222679"
         inkscape:collect="always" />
    </filter>
    <filter
       height="1.5"
       width="1.3"
       id="filter8274"
       inkscape:label="narrator-drop-shadow"
       style="color-interpolation-filters:sRGB;">
      <feFlood
         id="feFlood8264"
         result="flood"
         flood-color="rgb(0,21,64)"
         flood-opacity="0.603922" />
      <feComposite
         id="feComposite8266"
         result="composite1"
         operator="in"
         in2="SourceGraphic"
         in="flood" />
      <feGaussianBlur
         id="feGaussianBlur8268"
         result="blur"
         stdDeviation="2.0230825044646368"
         in="composite1" />
      <feOffset
         id="feOffset8270"
         result="offset"
         dy="4.8380533854166714"
         dx="-7.4077921838061513" />
      <feComposite
         id="feComposite8272"
         result="fbSourceGraphic"
         operator="over"
         in2="offset"
         in="SourceGraphic" />
      <feColorMatrix
         id="feColorMatrix8420"
         values="0 0 0 -1 0 0 0 0 -1 0 0 0 0 -1 0 0 0 0 1 0"
         in="fbSourceGraphic"
         result="fbSourceGraphicAlpha" />
      <feFlood
         in="fbSourceGraphic"
         result="flood"
         flood-color="rgb(0,12,37)"
         flood-opacity="0.061934527228860295"
         id="feFlood8422" />
      <feComposite
         result="composite1"
         operator="in"
         in="flood"
         id="feComposite8424"
         in2="fbSourceGraphic" />
      <feGaussianBlur
         result="blur"
         stdDeviation="1"
         in="composite1"
         id="feGaussianBlur8426" />
      <feOffset
         result="offset"
         dy="-2.8318869588504754"
         dx="-3.3194756113327486"
         id="feOffset8428" />
      <feComposite
         result="composite2"
         operator="over"
         in="fbSourceGraphic"
         id="feComposite8430"
         in2="offset" />
    </filter>
  </defs>
  <sodipodi:namedview
     inkscape:snap-global="false"
     borderlayer="true"
     inkscape:document-rotation="0"
     inkscape:current-layer="layer1"
     inkscape:window-maximized="0"
     inkscape:window-y="-8"
     inkscape:window-x="-8"
     inkscape:cy="1800.1099"
     inkscape:cx="1100.1522"
     inkscape:zoom="0.33589188"
     showgrid="false"
     id="namedview4"
     inkscape:window-height="1027"
     inkscape:window-width="960"
     inkscape:pageshadow="2"
     inkscape:pageopacity="0"
     guidetolerance="10"
     gridtolerance="10"
     objecttolerance="10"
     borderopacity="1"
     bordercolor="#666666"
     pagecolor="#ffffff" />
  <g
     sodipodi:insensitive="true"
     inkscape:label="artwork"
     id="layer2"
     inkscape:groupmode="layer">
    <image
       sodipodi:absref="D:\Pepper&amp;Carrot translation\peppercarrot_ep34_The-Knighting-of-Shichimi\lang\gfx_Pepper-and-Carrot_by-David-Revoy_E34P01.png"
       xlink:href="../gfx_Pepper-and-Carrot_by-David-Revoy_E34P01.png"
       y="0"
       x="0"
       id="image10"
       height="3503.7233"
       width="2481" />
  </g>
  <g
     style="display:inline;opacity:0.65;filter:url(#filter7961)"
     inkscape:label="speechbubbles-whisper"
     id="layer3"
     inkscape:groupmode="layer">
    <path
       d="m 1493.991,2604.2578 c -45.7325,2.4162 -91.8597,4.118 -136.7463,13.2431 -37.0838,9.0431 -72.8294,23.3231 -103.5684,43.6637 -24.7172,17.9523 -41.7756,44.3781 -43.4425,72.1587 -1.4709,31.2221 19.359,61.6198 50.7876,76.5102 23.2542,11.6214 48.7103,19.5075 73.832,27.6741 36.5607,10.8381 75.5399,14.9115 114.3007,14.9724 47.2797,0.5355 94.5515,-2.3702 141.7819,-4.696 37.547,-2.0545 75.5213,-4.7404 111.7468,-14.522 21.6552,-6.0847 41.9266,-16.4339 57.6643,-30.7785 12.6716,-10.9865 24.6291,-23.5703 29.3791,-38.7195 5.0618,-16.7847 2.1379,-34.3995 -3.5028,-50.6207 -7.2737,-20.1505 -21.7505,-37.9064 -39.845,-51.9042 -19.9273,-15.5428 -42.4309,-28.9555 -67.5802,-37.596 -12.7435,-4.4989 -26.1763,-7.4438 -39.7934,-9.3918 -34.499,-5.4548 -69.6046,-7.7181 -104.639,-9.6482 -13.44,-0.5215 -26.9094,-0.5924 -40.3748,-0.3453 z"
       style="fill:#e0ffff;fill-rule:evenodd;stroke:none;stroke-width:1.32607px;stroke-linecap:butt;stroke-linejoin:miter;stroke-opacity:1"
       id="path1299" />
    <path
       inkscape:connector-curvature="0"
       id="path1285"
       d="m 1288.637,2508.4424 c -20.6915,0.7253 -41.73,3.9645 -60.6242,13.4124 -22.3365,11.8463 -37.822,37.557 -37.7682,64.2691 0.5025,13.927 6.7685,27.0907 15.5687,37.1742 6.3224,7.2054 14.2595,12.5131 22.5374,16.7901 16.6664,8.8992 35.3437,13.0303 53.9211,13.2584 29.6008,1.7503 59.5433,-0.4378 88.3519,-8.1165 13.5577,-3.7706 27.0559,-9.787 37.1029,-20.5101 10.2844,-10.5912 17.8224,-24.9033 18.7119,-40.3148 0.273,-13.8166 -5.3471,-26.9355 -12.665,-38.0359 -9.3254,-14.7414 -23.5761,-26.2584 -39.9667,-30.2538 -19.9408,-5.8187 -40.7451,-6.4817 -61.2768,-7.4228 -7.962,-0.2469 -15.9281,-0.2786 -23.893,-0.2503 z"
       style="fill:#e0ffff;fill-rule:evenodd;stroke:none;stroke-width:1.60083px;stroke-linecap:butt;stroke-linejoin:miter;stroke-opacity:1" />
    <path
       sodipodi:nodetypes="csssc"
       inkscape:connector-curvature="0"
       id="path3280-8-90"
       d="m 245.77602,2520.078 c -30.99659,1.2291 -62.11718,10.5086 -86.26898,28.6668 -20.34636,14.7836 -37.37871,34.2765 -45.26797,57.1712 -13.094,41.1822 2.89983,88.8641 39.40267,115.8559 19.79106,14.8981 44.32906,23.2898 68.98411,28.7186 41.67525,8.8386 85.27962,9.8436 127.43422,3.2781 25.53976,-4.6715 50.58429,-14.492 69.57249,-31.142 20.59035,-18.074 34.04065,-43.3618 34.98007,-69.6182 0.65639,-14.7078 -1.26209,-29.4332 -4.39866,-43.8387 -5.35122,-22.4903 -18.36132,-43.7064 -37.95032,-58.3422 -13.06219,-9.8917 -28.74741,-16.6035 -45.12709,-20.4038 -27.95924,-7.1055 -57.07872,-9.146 -85.96458,-10.0843 -11.79593,-0.2861 -23.5969,-0.2664 -35.39596,-0.2614 z"
       style="font-variation-settings:normal;vector-effect:none;fill:#e0ffff;fill-opacity:1;stroke:none;stroke-width:1.33846px;stroke-linecap:butt;stroke-linejoin:miter;stroke-miterlimit:4;stroke-dasharray:none;stroke-dashoffset:0;stroke-opacity:1;stop-color:#000000" />
    <path
       sodipodi:nodetypes="csccccc"
       inkscape:connector-curvature="0"
       id="path1291"
       d="m 405.61348,2631.9631 c 42.85265,-5.0607 58.06957,-2.3086 68.49973,0.7202 10.42915,3.0295 34.5561,33.0962 43.85358,53.3011 -34.06156,-36.1486 -48.52756,-39.3772 -65.05064,-34.4498 -16.52311,4.9273 -63.29994,23.4366 -63.29994,23.4366 l 11.09296,-45.4041 z"
       style="fill:#e0ffff;fill-opacity:1;fill-rule:evenodd;stroke:none;stroke-width:1.28082px;stroke-linecap:butt;stroke-linejoin:miter;stroke-opacity:1" />
    <path
       sodipodi:nodetypes="cccc"
       inkscape:connector-curvature="0"
       id="path1291-6"
       d="m 1434.2038,2989.2388 c 48.3667,-37.0134 81.9085,-79.2404 77.928,-171.8638 l 30.8393,-3.1198 c -4.7727,67.6875 -17.9327,144.5385 -108.7673,174.9836 z"
       style="fill:#e0ffff;fill-rule:evenodd;stroke:none;stroke-width:0.964753px;stroke-linecap:butt;stroke-linejoin:miter;stroke-opacity:1" />
  </g>
  <g
     style="display:inline"
     inkscape:label="speechbubbles"
     id="layer4"
     inkscape:groupmode="layer">
    <path
       d="m 416.44208,1885.3756 c -59.94557,0.5452 -120.30588,0.3392 -179.55953,9.8165 -35.05796,6.1917 -68.55217,22.2531 -92.14937,47.1105 -10.75437,11.452 -18.33908,25.3972 -21.49452,40.2603 -5.56313,23.7666 -3.27017,48.573 3.04066,72.0095 6.6916,23.6445 19.82801,46.3429 40.41029,62.214 18.60671,14.6965 41.92044,23.7071 65.93238,27.7347 23.8653,4.3793 48.08853,6.921 72.31942,8.8408 67.65161,4.8929 135.54871,2.0669 203.29919,1.191 39.50169,-0.9569 79.5168,-4.427 116.95039,-16.7461 20.82571,-6.4932 41.83993,-14.539 58.07747,-28.558 14.56802,-13.7777 21.58968,-32.4971 26.48988,-50.7724 5.88211,-23.1852 7.73984,-47.4062 3.96243,-71.0104 -4.46827,-23.1139 -18.4365,-44.4504 -38.3754,-59.1108 -16.91184,-12.8155 -37.50037,-20.7893 -58.52192,-25.982 -59.82689,-16.3034 -122.83233,-16.9604 -184.72366,-17.0285 -5.21931,-0.015 -10.43847,0.011 -15.65771,0.031 z"
       style="color:#000000;display:inline;overflow:visible;visibility:visible;fill:#ffffff;fill-opacity:1;fill-rule:nonzero;stroke:none;stroke-width:0.890232px;marker:none;enable-background:accumulate"
       id="path4040-4-1" />
    <path
       sodipodi:nodetypes="ccscc"
       inkscape:connector-curvature="0"
       id="path4440-1"
       d="m 539.19946,1927.3519 c 7.55014,-44.8382 62.74837,-99.1824 137.61984,-61.3131 -80.77928,-16.5552 -107.19343,39.0539 -106.74645,81.3775 0.39562,37.4602 -16.36437,17.1598 -16.36437,17.1598 z"
       style="color:#000000;display:inline;overflow:visible;visibility:visible;fill:#ffffff;fill-opacity:1;fill-rule:nonzero;stroke:none;stroke-width:1.80075px;marker:none;enable-background:accumulate" />
    <path
       sodipodi:nodetypes="zssssz"
       inkscape:connector-curvature="0"
       id="path4040-2"
       d="m 1797.9375,2838.742 c -22.8492,2.5941 -45.8484,6.1471 -67.4347,15.0673 -11.3653,5.0192 -20.5875,15.2749 -26.1294,27.5302 -4.328,9.6259 -6.4433,20.8902 -4.554,31.7544 2.882,17.7548 14.0353,33.6763 28.7112,40.7039 13.988,7.3046 29.3003,9.9763 44.3773,11.8771 34.7472,4.1258 69.6173,2.1775 104.4199,3.6831 15.2916,0.5793 30.9039,-1.5255 44.8109,-8.7592 11.7296,-5.9879 22.2511,-15.7271 28.3179,-28.7969 4.3985,-9.1181 6.0825,-20.0225 4.2773,-30.4029 -1.4495,-9.349 -5.4856,-18.1027 -11.1057,-25.1567 -8.5876,-11.1973 -20.3816,-18.6282 -32.665,-22.9969 -16.5956,-6.3166 -33.8225,-9.99 -51.0693,-12.6239 -20.5825,-2.8848 -41.3458,-3.1672 -61.9564,-1.8795 z"
       style="color:#000000;display:inline;overflow:visible;visibility:visible;fill:#ffffff;fill-opacity:1;fill-rule:nonzero;stroke:none;stroke-width:0.774122px;marker:none;enable-background:accumulate" />
    <path
       sodipodi:nodetypes="ccsc"
       inkscape:connector-curvature="0"
       id="path5010-4"
       d="m 1970.7532,2998.2521 c 42.5246,54.5422 86.7334,47.5024 118.7066,15.8691 -23.32,34.399 -69.359,69.3478 -144.2603,0.1036 -14.3413,-13.258 25.5537,-15.9727 25.5537,-15.9727 z"
       style="color:#000000;display:inline;overflow:visible;visibility:visible;fill:#ffffff;fill-opacity:1;fill-rule:nonzero;stroke:none;stroke-width:0.811733px;marker:none;enable-background:accumulate" />
    <path
       sodipodi:nodetypes="zssssz"
       inkscape:connector-curvature="0"
       id="path4040-2-5"
       d="M 1882.7598 2929.8555 C 1857.2423 2930.7872 1830.9583 2936.0641 1809.571 2950.6995 C 1796.3603 2960.1081 1789.0194 2975.2738 1783.5442 2990.0859 C 1777.0611 3007.1968 1774.2022 3026.7381 1780.7185 3044.2828 C 1787.4578 3062.4282 1802.7725 3075.9924 1819.4826 3084.9541 C 1855.9515 3104.6292 1899.262 3109.128 1939.7514 3102.1636 C 1952.8715 3099.9299 1966.1078 3096.55 1977.3758 3089.1873 C 1992.1403 3079.9899 2003.6727 3065.8018 2009.575 3049.4301 C 2018.9367 3024.6765 2016.5866 2995.0392 2000.8867 2973.3398 C 1988.1465 2955.4968 1968.0844 2944.1536 1947.1895 2938.5996 C 1926.31 2932.4846 1904.5082 2929.595 1882.7598 2929.8555 z "
       style="color:#000000;display:inline;overflow:visible;visibility:visible;fill:#ffffff;fill-opacity:1;fill-rule:nonzero;stroke:none;stroke-width:0.866707px;marker:none;enable-background:accumulate" />
    <rect
       y="127.99652"
       x="128.97966"
       height="86.261734"
       width="417.40149"
       id="rect8238"
       style="color:#000000;overflow:visible;fill:#eeffdb;fill-opacity:0.89322001;stroke:#807e00;stroke-width:8.05223;paint-order:stroke fill markers;stop-color:#000000;filter:url(#filter8274);stroke-opacity:1" />
  </g>
  <g
     inkscape:label="txt"
     id="layer1"
     inkscape:groupmode="layer">
    <text
       id="text4246-3-2-2-35"
       y="186.49605"
       x="327.29865"
       style="font-style:normal;font-variant:normal;font-weight:normal;font-stretch:normal;font-size:45px;line-height:1.25;font-family:'小赖字体 SC';-inkscape-font-specification:'小赖字体 SC';text-align:center;letter-spacing:0px;word-spacing:0px;text-anchor:middle;fill:#000000;fill-opacity:1;stroke:none"
       xml:space="preserve"><tspan
         id="tspan905-2"
         y="186.49605"
         x="327.29865"
         sodipodi:role="line"
         style="font-style:normal;font-variant:normal;font-weight:normal;font-stretch:normal;font-size:45px;font-family:'小赖字体 SC';-inkscape-font-specification:'小赖字体 SC'">当天晚上…</tspan></text>
    <text
       id="text4246-3-2-2"
       y="1976.6698"
       x="411.95737"
       style="font-style:normal;font-variant:normal;font-weight:normal;font-stretch:normal;font-size:45px;line-height:1.25;font-family:'小赖字体 SC';-inkscape-font-specification:'小赖字体 SC';text-align:center;letter-spacing:0px;word-spacing:0px;text-anchor:middle;fill:#000000;fill-opacity:1;stroke:none"
       xml:space="preserve"><tspan
         id="tspan80"
         y="1976.6698"
         x="411.95737"
         sodipodi:role="line"
         style="font-style:normal;font-variant:normal;font-weight:normal;font-stretch:normal;font-size:45px;font-family:'小赖字体 SC';-inkscape-font-specification:'小赖字体 SC'">…七味粉，今晚你将以</tspan><tspan
         y="2032.9198"
         x="411.95737"
         sodipodi:role="line"
         style="font-style:normal;font-variant:normal;font-weight:normal;font-stretch:normal;font-size:45px;font-family:'小赖字体 SC';-inkscape-font-specification:'小赖字体 SC'"
         id="tspan75">最年轻的骑士的身份</tspan><tspan
         y="2089.1699"
         x="411.95737"
         sodipodi:role="line"
         style="font-style:normal;font-variant:normal;font-weight:normal;font-stretch:normal;font-size:45px;font-family:'小赖字体 SC';-inkscape-font-specification:'小赖字体 SC'"
         id="tspan98">进入阿魔法界。</tspan></text>
    <text
       id="text4246-3-2-2-3"
       y="2592.4832"
       x="281.69833"
       style="font-style:normal;font-variant:normal;font-weight:normal;font-stretch:normal;font-size:45px;line-height:1.25;font-family:'小赖字体 SC';-inkscape-font-specification:'小赖字体 SC';text-align:center;letter-spacing:0px;word-spacing:0px;text-anchor:middle;fill:#000000;fill-opacity:1;stroke:none"
       xml:space="preserve"><tspan
         rotate="0 0 0"
         dy="0 0"
         dx="0 0"
         id="tspan101"
         y="2592.4832"
         x="281.69833"
         sodipodi:role="line"
         style="font-style:normal;font-variant:normal;font-weight:normal;font-stretch:normal;font-size:45px;font-family:'小赖字体 SC';-inkscape-font-specification:'小赖字体 SC';fill:#000000;fill-opacity:1">还没有</tspan><tspan
         y="2648.7332"
         x="281.69833"
         sodipodi:role="line"
         style="font-style:normal;font-variant:normal;font-weight:normal;font-stretch:normal;font-size:45px;font-family:'小赖字体 SC';-inkscape-font-specification:'小赖字体 SC';fill:#000000;fill-opacity:1"
         id="tspan81">小辣椒</tspan><tspan
         y="2704.9832"
         x="281.69833"
         sodipodi:role="line"
         style="font-style:normal;font-variant:normal;font-weight:normal;font-stretch:normal;font-size:45px;font-family:'小赖字体 SC';-inkscape-font-specification:'小赖字体 SC';fill:#000000;fill-opacity:1"
         id="tspan83">的消息么？</tspan></text>
    <text
       transform="translate(9.1976821,-0.0240224)"
       id="text4246-3-2-2-3-5"
       y="2594.489"
       x="1320.327"
       style="font-style:normal;font-variant:normal;font-weight:normal;font-stretch:normal;font-size:45px;line-height:1.25;font-family:'小赖字体 SC';-inkscape-font-specification:'小赖字体 SC';text-align:center;letter-spacing:0px;word-spacing:0px;text-anchor:middle;white-space:pre;inline-size:253.323;fill:#000000;fill-opacity:1;stroke:none"
       xml:space="preserve"><tspan
         x="1320.327"
         y="2594.489"><tspan
           style="font-style:normal;font-variant:normal;font-weight:normal;font-stretch:normal;font-family:'小赖字体 SC';-inkscape-font-specification:'小赖字体 SC'">没有。</tspan></tspan></text>
    <text
       id="text4246-3-2-2-3-5-1"
       y="2692.6243"
       x="1513.1879"
       style="font-style:normal;font-variant:normal;font-weight:normal;font-stretch:normal;font-size:45px;line-height:1.25;font-family:'小赖字体 SC';-inkscape-font-specification:'小赖字体 SC';text-align:center;letter-spacing:0px;word-spacing:0px;text-anchor:middle;fill:#000000;fill-opacity:1;stroke:none"
       xml:space="preserve"><tspan
         id="tspan114"
         y="2692.6243"
         x="1513.1879"
         sodipodi:role="line"
         style="font-style:normal;font-variant:normal;font-weight:normal;font-stretch:normal;font-size:45px;font-family:'小赖字体 SC';-inkscape-font-specification:'小赖字体 SC';fill:#000000;fill-opacity:1">她最好是赶紧过来，</tspan><tspan
         y="2748.8743"
         x="1513.1879"
         sodipodi:role="line"
         style="font-style:normal;font-variant:normal;font-weight:normal;font-stretch:normal;font-size:45px;font-family:'小赖字体 SC';-inkscape-font-specification:'小赖字体 SC';fill:#000000;fill-opacity:1"
         id="tspan90">否则就错过七味粉的</tspan><tspan
         y="2805.1243"
         x="1513.1879"
         sodipodi:role="line"
         style="font-style:normal;font-variant:normal;font-weight:normal;font-stretch:normal;font-size:45px;font-family:'小赖字体 SC';-inkscape-font-specification:'小赖字体 SC';fill:#000000;fill-opacity:1"
         id="tspan92">册封感言了。</tspan></text>
    <text
       id="text4246-3-2-2-3-5-1-7"
       y="2920.397"
       x="1847.3441"
       style="font-style:normal;font-variant:normal;font-weight:normal;font-stretch:normal;font-size:45px;line-height:1.25;font-family:'小赖字体 SC';-inkscape-font-specification:'小赖字体 SC';text-align:center;letter-spacing:0px;word-spacing:0px;text-anchor:middle;fill:#000000;fill-opacity:1;stroke:none"
       xml:space="preserve"><tspan
         id="tspan7676"
         y="2920.397"
         x="1847.3441"
         sodipodi:role="line"
         style="font-style:normal;font-variant:normal;font-weight:normal;font-stretch:normal;font-size:45px;font-family:'小赖字体 SC';-inkscape-font-specification:'小赖字体 SC'">谢谢。</tspan></text>
    <text
       id="text4246-3-2-2-3-5-1-7-3"
       y="3039.5779"
       x="1907.2046"
       style="font-style:normal;font-variant:normal;font-weight:normal;font-stretch:normal;font-size:45px;line-height:1.25;font-family:'小赖字体 SC';-inkscape-font-specification:'小赖字体 SC';text-align:center;letter-spacing:0px;word-spacing:0px;text-anchor:middle;fill:#000000;fill-opacity:1;stroke:none"
       xml:space="preserve"><tspan
         id="tspan118"
         y="3039.5779"
         x="1907.2046"
         sodipodi:role="line"
         style="font-style:normal;font-variant:normal;font-weight:normal;font-stretch:normal;font-size:45px;font-family:'小赖字体 SC';-inkscape-font-specification:'小赖字体 SC'">我想……</tspan></text>
  </g>
</svg>
