<?xml version="1.0" encoding="UTF-8" standalone="no"?>
<svg
   id="svg2"
   version="1.1"
   inkscape:version="1.1 (c68e22c387, 2021-05-23)"
   width="2481"
   height="3503"
   sodipodi:docname="E11P02.svg"
   xmlns:inkscape="http://www.inkscape.org/namespaces/inkscape"
   xmlns:sodipodi="http://sodipodi.sourceforge.net/DTD/sodipodi-0.dtd"
   xmlns:xlink="http://www.w3.org/1999/xlink"
   xmlns="http://www.w3.org/2000/svg"
   xmlns:svg="http://www.w3.org/2000/svg"
   xmlns:rdf="http://www.w3.org/1999/02/22-rdf-syntax-ns#"
   xmlns:cc="http://creativecommons.org/ns#"
   xmlns:dc="http://purl.org/dc/elements/1.1/">
  <sodipodi:namedview
     pagecolor="#ffffff"
     bordercolor="#666666"
     inkscape:pageopacity="0"
     inkscape:pageshadow="2"
     inkscape:window-width="1920"
     inkscape:window-height="1057"
     id="namedview70"
     showgrid="false"
     inkscape:zoom="0.2"
     inkscape:cx="590.00001"
     inkscape:cy="1452.5"
     inkscape:current-layer="layer1"
     inkscape:document-rotation="0"
     inkscape:window-x="1358"
     inkscape:window-y="-8"
     inkscape:window-maximized="1"
     borderopacity="1.0"
     inkscape:pagecheckerboard="0" />
  <metadata
     id="metadata8">
    <rdf:RDF>
      <cc:Work
         rdf:about="">
        <dc:format>image/svg+xml</dc:format>
        <dc:type
           rdf:resource="http://purl.org/dc/dcmitype/StillImage" />
        <dc:title />
      </cc:Work>
    </rdf:RDF>
  </metadata>
  <defs
     id="defs6">
    <filter
       style="color-interpolation-filters:sRGB"
       id="filter4375-4-1-1-1"
       inkscape:label="deevad outline effect"
       x="-0.010491745"
       y="-0.014788418"
       width="1.0209835"
       height="1.0295768">
      <feFlood
         id="feFlood4377-7-9-0-8"
         flood-opacity="1"
         flood-color="rgb(55,104,53)"
         result="flood" />
      <feComposite
         id="feComposite4379-3-8-8-2"
         in2="SourceGraphic"
         in="flood"
         operator="in"
         result="composite1" />
      <feMorphology
         id="feMorphology4393-1-0-49-8"
         operator="dilate"
         radius="4"
         result="result3" />
      <feComposite
         id="feComposite4385-9-5-7-0"
         in2="result3"
         in="SourceGraphic"
         operator="over"
         result="composite2" />
    </filter>
  </defs>
  <sodipodi:namedview
     pagecolor="#ffffff"
     bordercolor="#666666"
     borderopacity="1"
     objecttolerance="10"
     gridtolerance="10"
     guidetolerance="10"
     inkscape:pageopacity="0"
     inkscape:pageshadow="2"
     inkscape:window-width="1920"
     inkscape:window-height="1025"
     id="namedview4"
     showgrid="false"
     inkscape:zoom="0.40000002"
     inkscape:cx="868.936"
     inkscape:cy="1108.9305"
     inkscape:window-x="0"
     inkscape:window-y="26"
     inkscape:window-maximized="1"
     inkscape:current-layer="layer1" />
  <g
     inkscape:groupmode="layer"
     id="layer2"
     inkscape:label="artwork"
     sodipodi:insensitive="true">
    <image
       xlink:href="../gfx_Pepper-and-Carrot_by-David-Revoy_E11P02.png"
       y="0"
       x="0"
       id="image10"
       height="3503"
       width="2481" />
  </g>
  <g
     inkscape:groupmode="layer"
     id="layer3"
     inkscape:label="speechbubbles">
    <path
       style="fill:#ffffff;fill-opacity:1;stroke:none;stroke-width:0.909746"
       d="m 117.17998,267.41742 c -7.55953,-80.72604 34.48866,-81.90175 79.05752,-92.91162 46.50386,-11.48787 387.05548,-32.17526 448.45603,22.51577 33.71184,30.02799 32.21868,144.77436 -58.1503,178.43672 -59.39781,22.12563 -289.48669,38.97112 -381.76011,2.57422 -29.93827,-11.80904 -76.0862,-47.09338 -87.60314,-110.61509 z"
       id="path3659"
       inkscape:connector-curvature="0"
       sodipodi:nodetypes="cssssc" />
    <path
       style="fill:#ffffff;fill-opacity:1;stroke:none"
       d="m 860.66799,464.16801 c 7.38509,77.68893 -25.32109,108.21817 -69.53634,118.77522 -46.13489,11.01539 -395.14111,35.82866 -455.95768,-16.85239 -33.39121,-28.92441 -76.72947,-153.1944 12.93821,-185.51113 58.93687,-21.24116 329.61326,-25.8471 448.32008,-3.88537 32.23937,5.96455 52.90215,26.3371 64.23573,87.47367 z"
       id="path3659-3"
       inkscape:connector-curvature="0"
       sodipodi:nodetypes="cssssc" />
    <path
       style="color:#000000;display:inline;overflow:visible;visibility:visible;fill:#ffffff;fill-opacity:1;fill-rule:nonzero;stroke:none;stroke-width:1px;marker:none;enable-background:accumulate"
       d="m 725.76198,560.62095 c 15.2137,41.75381 60.90819,86.34357 149.80787,69.67515 -89.85178,-4.43964 -113.17241,-40.85544 -119.9781,-76.16592 -6.8056,-35.31052 -14.65449,-50.62321 -14.65449,-50.62321 z"
       id="path4440"
       inkscape:connector-curvature="0"
       sodipodi:nodetypes="ccscc" />
    <path
       style="fill:#ffffff;fill-opacity:1;stroke:none;stroke-width:0.969499"
       d="m 1550.7318,822.88567 c 33.7425,8.22512 46.8643,16.39264 41.0068,21.82448 13.8101,2.22864 20.9283,70.41769 8.4118,83.27741 -0.8207,1.33944 -1.3993,2.0226 -4.1219,6.03894 6.6139,-1.14648 17.9885,-1.83877 20.6395,0.71454 2.6508,2.55363 -22.0227,40.75809 -18.5513,41.9724 3.4716,1.21419 81.7253,-26.05423 93.0546,-20.46499 11.3295,5.58913 8.7939,17.24113 9.2084,21.43472 4.2119,-1.26098 35.6694,-4.9159 39.4107,-3.7778 4.121,2.14836 16.0215,16.78836 16.9149,20.5527 2.7919,-2.49793 25.3083,-8.23174 27.2418,-8.68467 2.3132,1.97133 6.0062,13.60068 6.5195,17.5669 3.5514,-3.71007 22.7794,-14.47361 25.3737,-13.8916 2.5939,0.58222 15.451,30.9407 17.3311,35.009 2.0703,-3.6079 30.7202,-37.065 33.2765,-37.79714 2.5562,-0.73211 22.2598,37.66924 23.6238,44.69064 2.883,-6.513 19.7122,-31.48358 22.3065,-30.9014 2.5941,0.5821 20.003,16.6884 22.9046,19.7207 0.4335,-6.2602 24.5791,-41.48991 28.0126,-41.58984 3.4337,-0.0999 33.13,16.79248 35.7999,20.003 -0.748,-7.09211 4.6583,-17.2346 8.092,-17.33454 3.4336,-0.0999 40.0325,8.55862 44.1,9.89671 -2.1986,-2.70227 -6.3873,-12.96725 -3.8122,-13.0422 2.5753,-0.0749 37.3169,7.30007 45.0153,11.84301 -2.7451,-9.19384 80.8142,8.82904 93.9626,11.07616 -7.9278,-8.45989 -40.1794,-52.75848 -36.001,-56.82599 4.1785,-4.06763 15.7749,-2.13974 20.5639,-1.91383 -5.9365,-6.36825 -9.7451,-10.23888 -7.2458,-12.94229 2.4997,-2.70333 18.7145,-16.64318 33.863,-17.42682 -10.4851,-7.65208 -9.8398,-13.52461 -9.8398,-13.52461 0,0 44.739,-15.6262 54.4269,-19.34074 -7.6188,-3.17584 -26.3006,-18.30637 -22.9995,-23.00608 3.3011,-4.69971 4.1908,-6.45595 11.7337,-10.20638 -5.51,-1.64446 -17.3761,-6.72859 -16.6122,-10.03911 0.7638,-3.31054 2.419,-18.77586 11.3742,-22.69127 -7.5641,1.33684 -18.0642,-0.78959 -18.1398,-3.41807 -0.076,-2.62836 15.6397,-50.96713 28.5453,-63.15581 -26.2508,13.25944 -44.8099,-14.17622 -73.137,-13.3518 -28.3275,0.82444 -17.2028,-0.7071 -21.4947,-0.58218 -4.292,0.1249 -36.0472,1.24712 -40.3392,1.37202 -4.2919,0.1249 -6.0201,-0.22078 -9.4538,-0.12085 -3.4334,0.0999 -23.1613,1.20869 -27.4532,1.3336 -4.2919,0.12491 -44.6629,0.38911 -50.6719,0.56399 -6.0087,0.17487 -29.1751,1.2055 -34.3257,1.35541 -5.1503,0.14989 -9.4547,-0.16042 -13.7468,-0.0355 -4.292,0.12491 -31.7504,1.28047 -36.0423,1.40536 -4.292,0.12492 -11.1969,-1.00192 -14.6305,-0.90198 -3.4335,0.0999 -15.4124,1.81596 -15.4124,1.81596 0,0 -11.1626,0.20608 -16.313,0.35597 -5.1503,0.14991 -40.3247,1.8666 -44.6166,1.99152 -4.2921,0.12492 -42.3354,1.65055 -39.7603,1.5756 2.5753,-0.0749 -37.4935,0.75201 -43.5021,0.92689 -6.0087,0.1749 -17.1508,1.14387 -18.8676,1.19384 -1.7168,0.05 -13.7419,0.0918 -18.8923,0.24171 -5.1504,0.14992 -17.1651,0.59858 -17.1651,0.59858 l 1.7202,0.0687 c 0,0 -36.0652,0.61408 -40.3573,0.73899 -4.2919,0.1249 2.5947,0.59764 5.1698,0.52272 -15.4511,0.44966 -60.9634,1.1803 -64.3967,1.28022 -3.4338,0.0999 6.0227,0.3197 11.1732,0.1698 -6.8671,0.19986 -12.8784,0.29569 -12.8784,0.29569 l 19.757,-0.0998 -6.0078,0.21447 c 0,0 -15.9523,32.57473 -15.8576,35.86027 0.095,3.28543 -33.2693,8.20247 -33.2693,8.20247 0,0 13.9045,5.51408 10.5655,8.89955 -3.3391,3.38548 -11.8663,5.60662 -11.8663,5.60662 l -1.4706,8.59244 z"
       id="path5888"
       inkscape:connector-curvature="0"
       sodipodi:nodetypes="ccccccccccccccccccscscsccscccccccccscscsscccccccssccccccsccccccsccccc" />
    <path
       style="color:#000000;display:inline;overflow:visible;visibility:visible;fill:#ffffff;fill-opacity:1;fill-rule:nonzero;stroke:none;stroke-width:1.00534px;marker:none;enable-background:accumulate"
       d="m 1978.4694,1256.7971 c 10.4806,-12.3606 79.1567,-47.8623 83.0152,0.7246 49.3929,-59.1692 80.2812,-42.0203 121.773,0.037 5.1663,-41.0197 36.9012,-41.1115 81.4546,-13.7223 -12.4679,-29.8532 15.0961,-28.4203 52.3387,-31.7865 -45.5087,-15.4948 -52.081,-27.2591 38.6408,-29.7017 -67.0372,-8.1574 -129.3405,-17.0355 -42.4877,-48.6168 -24.565,-3.5505 -89.9276,23.5465 -43.1526,-70.8469 -48.7787,26.6867 -105.7776,11.7789 -149.7369,-59.3916 -11.78,55.1545 -45.9277,113.6193 -90.5498,56.5989 -28.7473,66.6788 -79.6675,9.7032 -95.2906,-18.4058 6.9124,40.1017 17.2829,65.4703 -44.4714,61.834 92.3675,62.2584 -3.8751,49.6096 -23.0241,60.9486 77.0516,26.1802 45.8682,40.6004 27.1336,61.1039 63.108,-18.6985 86.0527,2.7269 84.3572,31.2248 z"
       id="path3549-3"
       inkscape:connector-curvature="0"
       sodipodi:nodetypes="cccccccccccccccc" />
    <path
       style="color:#000000;display:inline;overflow:visible;visibility:visible;fill:#ffffff;fill-opacity:1;fill-rule:nonzero;stroke:none;stroke-width:1px;marker:none;enable-background:accumulate"
       d="m 2203.9792,1109.7454 c 31.2445,-19.0795 65.3939,-45.1286 72.8188,-52.0388 -12.6929,-4.9848 -23.0556,-11.472 -31.2287,-16.3975 15.0721,-11.6274 88.769,-61.68328 111.5806,-65.98197 -56.9232,8.44886 -115.9924,42.49157 -138.9231,63.43247 9.6363,8.2294 16.5681,12.0437 21.5327,16.4887 -10.8446,11.026 -54.7604,38.6986 -54.7604,38.6986 z"
       id="path5066"
       inkscape:connector-curvature="0" />
    <flowRoot
       transform="matrix(0.90617713,0,-0.22078013,1.6225798,1704.8105,631.53838)"
       style="font-style:normal;font-variant:normal;font-weight:normal;font-stretch:normal;font-size:82.4689px;line-height:0.01%;font-family:'linja sike';text-align:center;letter-spacing:0px;word-spacing:0px;text-anchor:middle;fill:#000000;fill-opacity:1;stroke:#000000;stroke-width:2.30831;stroke-miterlimit:4;stroke-dasharray:none;stroke-opacity:1"
       id="flowRoot4212-3-7-8-6"
       xml:space="preserve"><flowRegion
         id="flowRegion4214-6-7-8-3"
         style="font-size:82.4689px"><rect
           style="font-style:normal;font-variant:normal;font-weight:normal;font-stretch:normal;font-family:'linja sike';text-align:center;text-anchor:middle;stroke:#000000;stroke-width:2.30830574;stroke-miterlimit:4;stroke-dasharray:none;stroke-opacity:1;font-size:82.46894121px"
           y="265.53046"
           x="120.55251"
           height="355.03918"
           width="798.1947"
           id="rect4216-4-0-26-5" /></flowRegion><flowPara
         style="font-size:82.4689px;line-height:1.25;text-align:center;text-anchor:middle;stroke:#000000;stroke-width:2.30831;stroke-miterlimit:4;stroke-dasharray:none;stroke-opacity:1"
         id="flowPara4358-7-1">o   toki+ala </flowPara></flowRoot>
    <path
       style="color:#000000;display:inline;overflow:visible;visibility:visible;fill:#ffffff;fill-opacity:1;fill-rule:nonzero;stroke:none;stroke-width:1px;marker:none;enable-background:accumulate"
       d="m 1656.6816,860.45168 c -13.9641,31.64222 -47.0315,92.97319 -58.4788,103.42969 -21.9016,-16.83532 -67.233,-35.37975 -70.1513,-31.16101 -2.9182,4.21879 -13.389,87.83874 -20.8852,89.90244 -7.4962,2.0635 -34.1354,0.2416 -43.4933,-4.6298 28.7475,11.2032 51.3462,17.6477 61.1996,11.5672 6.8904,-3.7469 14.3961,-69.18877 14.6661,-73.72212 22.6435,8.32968 67.3012,30.28541 76.7272,30.0624 9.2475,-7.76375 44.7564,-37.65222 72.5931,-88.86226 27.8366,-51.21011 -32.1774,-36.58654 -32.1774,-36.58654 z"
       id="path5901"
       inkscape:connector-curvature="0"
       sodipodi:nodetypes="ccccccccsc" />
    <path
       style="color:#000000;display:inline;overflow:visible;visibility:visible;fill:#ffffff;fill-opacity:1;fill-rule:nonzero;stroke:none;stroke-width:0.945863px;marker:none;enable-background:accumulate"
       d="m 211.45799,1751.9276 c 8.60328,5.6784 22.06496,4.5425 14.76697,-10.4759 12.9591,7.9832 16.77557,9.5897 11.10249,-4.3098 9.89695,7.2851 20.65983,8.1327 19.15476,-8.3375 28.3174,18.4815 112.92834,5.2077 148.93827,7.3406 36.00992,2.1327 132.58211,0.4266 142.403,0 9.82091,-0.4265 85.11427,0 91.66167,0 6.5472,0 32.73622,4.6921 40.92026,7.2513 12.27603,-3.4124 27.44342,-12.8164 27.44342,-12.8164 0,0 0.38231,25.1865 2.83756,26.4662 2.45527,1.2797 14.18496,-1.5097 21.39211,-2.5641 -4.76775,4.2573 -21.39211,17.4935 -18.93684,17.9199 2.45509,0.4267 19.81635,1.5068 26.46897,2.1505 -5.32196,2.6968 -19.92174,14.4851 -19.1035,14.9118 11.31929,13.8916 17.94543,11.3367 27.43721,8.1765 -4.54105,7.3827 -15.8923,11.7884 -18.09816,15.6821 1.58763,3.847 3.53152,5.604 12.276,14.0764 -9.90543,-5.6607 -12.06334,-1.7474 -14.56432,1.8455 1.14853,8.9617 3.20002,18.1964 1.845,33.3638 -1.5998,17.907 -3.14838,76.1347 -10.51411,85.5188 4.09212,4.2655 8.78563,11.9974 15.70135,15.139 -6.40714,1.1747 -14.08297,11.6525 -13.26438,13.785 0.81842,2.133 6.4707,10.1442 15.31455,14.2428 -8.40305,0.4032 -14.58397,1.6836 -19.49432,3.8163 -0.81877,3.4125 4.99819,12.077 6.51116,18.8743 -4.37941,-2.6813 -26.49647,-10.908 -30.15709,-11.34 -1.36134,1.817 -2.39955,9.3175 -1.31759,18.6798 -130.50376,-47.5589 -410.79972,-12.5734 -427.07601,-11.0836 -7.36563,0 -20.32973,0.7972 -33.96629,10.1771 8.69808,-12.9243 11.91037,-22.8184 11.91037,-22.8184 0,0 -19.50191,-2.055 -31.72334,1.6624 8.51259,-7.039 13.51224,-14.433 12.69382,-15.7127 -0.81843,-1.2796 -15.1176,-1.7626 -25.98492,1.2222 4.20905,-4.4519 19.43019,-14.6349 18.61176,-16.7676 -8.46459,0.4682 -31.37882,-73.1811 -18.2844,-172.9945 -0.58687,-8.7898 -6.57855,-13.9595 -17.26835,-18.722 18.22277,-5.0093 43.74024,-7.7989 30.36292,-24.3598 z"
       id="path3915"
       inkscape:connector-curvature="0"
       sodipodi:nodetypes="ccccsssccsccccccccscccccccccccccccccc" />
    <path
       style="color:#000000;display:inline;overflow:visible;visibility:visible;fill:#ffffff;fill-opacity:1;fill-rule:nonzero;stroke:none;stroke-width:1px;marker:none;enable-background:accumulate"
       d="m 1105.0928,1799.5625 c -91.2283,-62.9886 -159.18424,-107.2113 -244.09747,-102.7556 -84.91309,4.4557 -100.49843,21.9951 -109.53087,27.7757 5.18785,12.9068 23.75593,31.6134 30.75182,34.7014 -22.33894,2.4552 -76.54188,62.7404 -110.47938,56.3411 -64.61909,-12.1847 -273.97666,-3.5558 -101.72794,36.5684 172.24873,40.1242 192.34114,-78.0027 263.45059,-85.6848 -16.89501,-9.5809 -49.34755,-27.5154 -45.74516,-34.2065 3.60245,-6.6909 69.55744,-22.806 102.86379,-16.4917 33.30653,6.3141 121.98932,17.5367 214.51462,83.752 z"
       id="path3923"
       inkscape:connector-curvature="0"
       sodipodi:nodetypes="csccszccsc" />
    <path
       style="fill:#ffffff;fill-rule:evenodd;stroke:none;stroke-width:1px;stroke-linecap:butt;stroke-linejoin:miter;stroke-opacity:1"
       d="m 206.04914,1667.4613 c 1.89036,73.724 51.0397,194.707 109.64083,189.0359 58.60114,-5.6711 34.02647,-28.3554 34.02647,-28.3554 0,0 -83.1758,26.465 -117.20227,-160.6805 -34.02646,-187.1456 -26.46503,0 -26.46503,0 z"
       id="path4413"
       inkscape:connector-curvature="0" />
    <path
       style="fill:#ffffff;stroke:none"
       d="m 1375.5352,3211.3901 c -2.4876,45.6378 38.0321,56.4926 79.2493,63.5302 41.217,7.0375 169.9799,1.8141 161.9069,-54.1964 -8.0731,-56.0106 -70.0989,-64.673 -121.5638,-62.9624 -51.4653,1.7105 -111.0706,10.4766 -119.5924,53.6286 z"
       id="path3938"
       inkscape:connector-curvature="0"
       sodipodi:nodetypes="csssc" />
    <path
       style="color:#000000;display:inline;overflow:visible;visibility:visible;fill:#ffffff;fill-opacity:1;fill-rule:nonzero;stroke:none;stroke-width:1px;marker:none;enable-background:accumulate"
       d="m 1540.2936,3223.4008 c 69.6255,-26.0651 66.8892,-87.8398 67.0296,-99.678 -16.9624,16.0862 -19.0601,54.2993 -76.9475,76.9629 -25.1607,9.8509 9.9179,22.7151 9.9179,22.7151 z"
       id="path3940"
       inkscape:connector-curvature="0"
       sodipodi:nodetypes="ccsc" />
    <flowRoot
       xml:space="preserve"
       id="flowRoot3056-6"
       style="font-style:normal;font-variant:normal;font-weight:normal;font-stretch:normal;font-size:87.6836px;line-height:0.01%;font-family:Arial;-inkscape-font-specification:Arial;letter-spacing:0px;word-spacing:0px;fill:#000000;fill-opacity:1;stroke:none"
       transform="matrix(0.92403899,-0.0431397,-0.21669727,0.91096764,430.69829,2629.2462)"><flowRegion
         id="flowRegion3058-8"
         style="font-size:87.6836px"><rect
           id="rect3060-0"
           width="343.2529"
           height="151.69978"
           x="1244.4525"
           y="652.80212"
           style="font-size:87.68360125px" /></flowRegion><flowPara
         id="flowPara3062-10"
         style="font-style:normal;font-variant:normal;font-weight:normal;font-stretch:normal;font-size:87.6836px;line-height:1.25;font-family:'linja sike'">mu-mumu</flowPara></flowRoot>
    <path
       style="fill:#ffffff;stroke:none;stroke-width:1.05983"
       d="m 78.132651,2852.9703 c -40.701872,-258.8288 47.865899,-178.1102 320.456339,-185.8642 213.15159,-6.0633 326.82653,52.6187 330.76661,172.6278 3.81638,116.2416 -90.56,210.4235 -290.68665,213.0707 -200.12666,2.6472 -358.977079,-29.5758 -360.536299,-199.8343 z"
       id="path3270"
       inkscape:connector-curvature="0"
       sodipodi:nodetypes="csssc" />
    <path
       style="fill:#ffffff;stroke:none"
       d="m 740.22487,3061.0768 c -63.31546,24.471 -150.43401,11.8981 -179.52399,-58.4059 -17.62562,-42.5973 -22.73968,-69.8786 -22.73968,-69.8786 l -34.70784,34.4178 16.75558,49.0193 c 0,0 76.59683,114.726 220.21593,44.8474 z"
       id="path3063"
       inkscape:connector-curvature="0"
       sodipodi:nodetypes="cscccc" />
    <path
       style="color:#000000;display:inline;overflow:visible;visibility:visible;fill:#ffffff;fill-opacity:1;fill-rule:nonzero;stroke:none;stroke-width:0.888786px;marker:none;enable-background:accumulate"
       d="m 496.32986,1677.5782 c -7.47591,-5.616 -19.12128,-4.3826 -12.72637,10.5826 -11.25798,-7.8892 -14.56956,-9.468 -9.58688,4.3901 -8.60399,-7.2133 -17.92386,-7.983 -16.53522,8.476 -24.60562,-18.2761 -97.76844,-4.39 -128.94674,-6.2622 -31.17829,-1.8719 -114.75413,0.5333 -123.25204,1.031 -8.49792,0.4976 -73.66773,0.6162 -79.33461,0.6636 -5.66671,0.047 -28.358211,-4.455 -35.454986,-6.9548 -10.607278,3.5012 -23.68581,13.0148 -23.68581,13.0148 0,0 -0.462353,-25.1832 -2.594095,-26.4451 -2.131759,-1.2619 -12.269427,1.6123 -18.501817,2.7189 4.104336,-4.2917 18.423889,-17.648 16.296594,-18.0566 -2.127154,-0.4089 -17.159226,-1.3633 -22.920535,-1.9588 4.592165,-2.7353 17.166976,-14.629 16.45655,-15.0498 -9.869539,-13.8094 -15.591222,-11.2065 -23.789998,-7.9777 3.89181,-7.4154 13.693485,-11.9032 15.582361,-15.8128 -4.723263,-3.5003 -12.143828,-11.1557 -10.698528,-13.9872 1.445216,-2.8311 11.17186,3.1902 18.569295,2.915 -2.196708,-2.4914 -15.910945,-10.6899 -5.833051,-36.6954 6.235921,-16.0916 0.625104,-37.6769 6.951275,-47.1141 -3.564063,-4.2358 -7.666725,-11.9336 -13.668784,-15.025 5.539351,-1.2211 12.128218,-11.7542 11.408581,-13.8808 -0.719502,-2.127 -5.653449,-10.0971 -13.32933,-14.1316 7.27087,-0.464 12.613865,-1.7891 16.852728,-3.9573 0.690835,-3.4184 -4.389062,-12.0406 -5.73404,-18.8268 3.804443,2.6496 22.990049,10.716 26.160635,11.1214 1.168773,-1.8268 2.028213,-9.3346 1.042888,-18.6889 113.201297,46.613 355.619247,9.599 369.698857,7.9914 6.37508,-0.053 17.59154,-0.9444 29.34523,-10.4228 -7.46086,12.987 -10.1895,22.9041 -10.1895,22.9041 0,0 16.88993,1.9138 27.44837,-1.892 -7.33104,7.1005 -11.61972,14.5305 -10.90468,15.8042 0.71503,1.2737 13.09371,1.6532 22.48398,-1.4103 -3.61977,4.4823 -16.74075,14.7753 -16.02126,16.902 7.3238,-0.5294 27.33206,32.9532 16.51962,132.8592 0.55383,8.7854 5.7667,13.9116 15.04375,18.5966 -15.74595,5.1411 -37.81716,8.1154 -26.15244,24.5791 z"
       id="path3915-2"
       inkscape:connector-curvature="0"
       sodipodi:nodetypes="ccccsssccsccccccccscccccccccccccccccc" />
  </g>
  <g
     inkscape:groupmode="layer"
     id="layer1"
     inkscape:label="txt">
    <flowRoot
       xml:space="preserve"
       id="flowRoot2987-4-9-3"
       style="font-style:normal;font-variant:normal;font-weight:normal;font-stretch:normal;font-size:60px;line-height:0.01%;font-family:'linja sike';text-align:center;letter-spacing:0px;word-spacing:0px;text-anchor:middle;fill:#000000;fill-opacity:1;stroke:none"
       transform="translate(28.338554,-65.63334)"><flowRegion
         id="flowRegion2989-5-4-5"
         style="font-size:60px"><rect
           id="rect2991-7-9-6"
           width="518.18622"
           height="309.21344"
           x="120.55251"
           y="265.53046"
           style="font-style:normal;font-variant:normal;font-weight:normal;font-stretch:normal;font-size:60px;font-family:'linja sike';text-align:center;text-anchor:middle" /></flowRegion><flowPara
         style="font-size:60px;line-height:1.25;text-align:center;text-anchor:middle"
         id="flowPara6214">jan [_pana+e_pona+ante] o   pali sina li pali wawa. taso kulupu ni la sina taso li jan sin.</flowPara></flowRoot>
    <flowRoot
       xml:space="preserve"
       id="flowRoot2987-4-9-3-5"
       style="font-style:normal;font-variant:normal;font-weight:normal;font-stretch:normal;font-size:60px;line-height:0.01%;font-family:'linja sike';text-align:center;letter-spacing:0px;word-spacing:0px;text-anchor:middle;fill:#000000;fill-opacity:1;stroke:none"
       transform="translate(236.54252,138.97206)"><flowRegion
         id="flowRegion2989-5-4-5-8"
         style="font-size:60px"><rect
           id="rect2991-7-9-6-5"
           width="449.28259"
           height="263.48093"
           x="120.55251"
           y="265.53046"
           style="font-style:normal;font-variant:normal;font-weight:normal;font-stretch:normal;font-family:'linja sike';text-align:center;text-anchor:middle;font-size:60px" /></flowRegion><flowPara
         style="font-size:60px;line-height:1.25;text-align:center;text-anchor:middle"
         id="flowPara3030-8-1">pali wile kulupu li ni: sina kama jan+namako pi+__wawa __ike pi+__kulupu [_pakala+ante_ken+ante_lawa+ante_a].</flowPara></flowRoot>
    <flowRoot
       xml:space="preserve"
       id="flowRoot2987-4-9-3-5-9"
       style="font-style:normal;font-variant:normal;font-weight:normal;font-stretch:normal;font-size:60px;line-height:0.01%;font-family:'linja sike';text-align:center;letter-spacing:0px;word-spacing:0px;text-anchor:middle;fill:#000000;fill-opacity:1;stroke:none"
       transform="translate(1459.8735,526.25598)"><flowRegion
         id="flowRegion2989-5-4-5-8-9"
         style="font-size:60px"><rect
           id="rect2991-7-9-6-5-7"
           width="629.62537"
           height="271.09805"
           x="120.55251"
           y="265.53046"
           style="font-style:normal;font-variant:normal;font-weight:normal;font-stretch:normal;font-size:60px;font-family:'linja sike';text-align:center;text-anchor:middle" /></flowRegion><flowPara
         style="font-size:60px;line-height:1.25;text-align:center;text-anchor:middle"
         id="flowPara75">taso…  mi wile+ala e wawa ike. ike li…</flowPara><flowPara
         style="font-size:60px;line-height:1.25;text-align:center;text-anchor:middle"
         id="flowPara77"> ike li nasin pi+__pona+ala</flowPara></flowRoot>
    <flowRoot
       xml:space="preserve"
       id="flowRoot2987-4-9-3-5-9-8"
       style="font-style:normal;font-variant:normal;font-weight:normal;font-stretch:normal;font-size:60px;line-height:0.01%;font-family:'linja sike';text-align:center;letter-spacing:0px;word-spacing:0px;text-anchor:middle;fill:#000000;fill-opacity:1;stroke:none"
       transform="translate(-117.1575,1250.1126)"><flowRegion
         id="flowRegion2989-5-4-5-8-9-5"
         style="font-size:60px"><rect
           id="rect2991-7-9-6-5-7-5"
           width="568.84778"
           height="193.91568"
           x="120.55251"
           y="265.53046"
           style="font-style:normal;font-variant:normal;font-weight:normal;font-stretch:normal;font-family:'linja sike';text-align:center;text-anchor:middle;font-size:60px" /></flowRegion><flowPara
         style="font-size:60px;line-height:1.25;text-align:center;text-anchor:middle"
         id="flowPara3348">… mi ken weka e </flowPara><flowPara
         style="font-size:60px;line-height:1.25;text-align:center;text-anchor:middle"
         id="flowPara70">wawa ale sina</flowPara></flowRoot>
    <flowRoot
       xml:space="preserve"
       id="flowRoot2987-4-9-3-5-9-8-3"
       style="font-style:normal;font-variant:normal;font-weight:normal;font-stretch:normal;font-size:60px;line-height:0.01%;font-family:'linja sike';text-align:center;letter-spacing:0px;word-spacing:0px;text-anchor:middle;fill:#000000;fill-opacity:1;stroke:none"
       transform="translate(80.552501,1501.8893)"><flowRegion
         id="flowRegion2989-5-4-5-8-9-5-4"
         style="font-size:60px"><rect
           id="rect2991-7-9-6-5-7-5-4"
           width="525.72278"
           height="228.41568"
           x="114.80252"
           y="256.90546"
           style="font-style:normal;font-variant:normal;font-weight:normal;font-stretch:normal;font-size:60px;font-family:'linja sike';text-align:center;text-anchor:middle;stroke-width:1"
           ry="0" /></flowRegion><flowPara
         style="font-size:60px;line-height:1.25;text-align:center;text-anchor:middle"
         id="flowPara81">wawa weka la sina kama jan+lili pi+__sona+ala </flowPara><flowPara
         style="font-size:60px;line-height:1.25;text-align:center;text-anchor:middle"
         id="flowPara79">tan ma[_pini+ijo_nena+insa] [_soweli+olin_wile+e_lupa+lili]</flowPara><flowPara
         style="font-size:60px;line-height:1.25;text-align:center;text-anchor:middle"
         id="flowPara87">sama ten+pini.</flowPara></flowRoot>
    <flowRoot
       xml:space="preserve"
       id="flowRoot2987-4-9-3-5-9-8-3-5"
       style="font-style:normal;font-variant:normal;font-weight:normal;font-stretch:normal;font-size:60px;line-height:0.01%;font-family:'linja sike';text-align:center;letter-spacing:0px;word-spacing:0px;text-anchor:middle;fill:#000000;fill-opacity:1;stroke:none"
       transform="translate(-8.644787,2477.2102)"><flowRegion
         id="flowRegion2989-5-4-5-8-9-5-4-2"
         style="font-size:60px"><rect
           id="rect2991-7-9-6-5-7-5-4-9"
           width="596.31714"
           height="318.33615"
           x="120.55252"
           y="265.53046"
           style="font-style:normal;font-variant:normal;font-weight:normal;font-stretch:normal;font-size:60px;font-family:'linja sike';text-align:center;text-anchor:middle;stroke-width:1" /></flowRegion><flowPara
         style="font-size:60px;line-height:1.25;text-align:center;text-anchor:middle"
         id="flowPara82">jan[ _kama+uta_musi+insa_nasa] li tawa&gt;__poka __sina. </flowPara><flowPara
         style="font-size:60px;line-height:1.25;text-align:center;text-anchor:middle"
         id="flowPara53159">tan ni la ona li pana e pona tawa&gt;__pali __sina </flowPara><flowPara
         style="font-size:60px;line-height:1.25;text-align:center;text-anchor:middle"
         id="flowPara88">li toki e sin pi+__pali __sina </flowPara><flowPara
         style="font-size:60px;line-height:1.25;text-align:center;text-anchor:middle"
         id="flowPara54681">tawa&gt;__mi.</flowPara></flowRoot>
    <flowRoot
       xml:space="preserve"
       id="flowRoot2987-7-9-9-7-0-3-4-1"
       style="font-style:normal;font-variant:normal;font-weight:normal;font-stretch:normal;line-height:0.01%;font-family:'linja sike';letter-spacing:0px;word-spacing:0px;fill:#000000;fill-opacity:1;stroke:#000000;stroke-width:0.992362;stroke-miterlimit:4;stroke-dasharray:none;stroke-opacity:1;filter:url(#filter4375-4-1-1-1)"
       transform="matrix(1.1967542,-0.56289093,0.22908574,2.2717035,1831.2719,2580.5489)"><flowRegion
         id="flowRegion2989-4-5-8-7-41-7-62-2"
         style="stroke-width:5.40286"><rect
           id="rect2991-45-1-3-3-8-0-4-6"
           width="319.66232"
           height="56.089447"
           x="120.55251"
           y="265.53046"
           style="font-style:normal;font-variant:normal;font-weight:normal;font-stretch:normal;font-family:'linja sike';-inkscape-font-specification:'linja sike;fill:#000000;fill-opacity:1;stroke:#000000;stroke-width:0.99236238;stroke-miterlimit:4;stroke-dasharray:none;stroke-opacity:1" /></flowRegion><flowPara
         id="flowPara2995-4-1-5-0-7-2-6-4"
         style="font-weight:normal;font-size:66.6667px;line-height:1.25;-inkscape-font-specification:Lavi;letter-spacing:7.06853px;fill:#ffffff;fill-opacity:1;stroke:#ffffff;stroke-width:0.992362;stroke-linejoin:miter;stroke-miterlimit:4;stroke-dasharray:none;stroke-opacity:1">Ko!</flowPara></flowRoot>
  </g>
</svg>
