<?xml version="1.0" encoding="UTF-8" standalone="no"?>
<svg
   id="svg2"
   version="1.1"
   inkscape:version="1.1 (c68e22c387, 2021-05-23)"
   width="2481"
   height="900"
   sodipodi:docname="E02P06.svg"
   xmlns:inkscape="http://www.inkscape.org/namespaces/inkscape"
   xmlns:sodipodi="http://sodipodi.sourceforge.net/DTD/sodipodi-0.dtd"
   xmlns:xlink="http://www.w3.org/1999/xlink"
   xmlns="http://www.w3.org/2000/svg"
   xmlns:svg="http://www.w3.org/2000/svg"
   xmlns:rdf="http://www.w3.org/1999/02/22-rdf-syntax-ns#"
   xmlns:cc="http://creativecommons.org/ns#"
   xmlns:dc="http://purl.org/dc/elements/1.1/">
  <sodipodi:namedview
     pagecolor="#ffffff"
     bordercolor="#666666"
     inkscape:pageopacity="0"
     inkscape:pageshadow="2"
     inkscape:window-width="1350"
     inkscape:window-height="729"
     id="namedview70"
     showgrid="false"
     inkscape:zoom="0.40000001"
     inkscape:cx="1462.5"
     inkscape:cy="416.24999"
     inkscape:current-layer="layer1"
     inkscape:document-rotation="0"
     inkscape:window-x="0"
     inkscape:window-y="0"
     inkscape:window-maximized="0"
     borderopacity="1.0"
     inkscape:pagecheckerboard="0" />
  <metadata
     id="metadata8">
    <rdf:RDF>
      <cc:Work
         rdf:about="">
        <dc:format>image/svg+xml</dc:format>
        <dc:type
           rdf:resource="http://purl.org/dc/dcmitype/StillImage" />
        <dc:title />
      </cc:Work>
    </rdf:RDF>
  </metadata>
  <defs
     id="defs6" />
  <sodipodi:namedview
     pagecolor="#ffffff"
     bordercolor="#666666"
     borderopacity="1"
     objecttolerance="10"
     gridtolerance="10"
     guidetolerance="10"
     inkscape:pageopacity="0"
     inkscape:pageshadow="2"
     inkscape:window-width="1920"
     inkscape:window-height="1025"
     id="namedview4"
     showgrid="false"
     inkscape:zoom="0.59209996"
     inkscape:cx="1240.5"
     inkscape:cy="450"
     inkscape:window-x="1920"
     inkscape:window-y="26"
     inkscape:window-maximized="1"
     inkscape:current-layer="layer1" />
  <g
     inkscape:groupmode="layer"
     id="layer2"
     inkscape:label="artwork"
     sodipodi:insensitive="true">
    <image
       xlink:href="../gfx_Pepper-and-Carrot_by-David-Revoy_E02P06.png"
       y="0"
       x="-1.6728083e-06"
       id="image10"
       height="900"
       width="2481" />
  </g>
  <g
     inkscape:groupmode="layer"
     id="layer1"
     inkscape:label="text"
     style="opacity:1">
    <flowRoot
       xml:space="preserve"
       id="flowRoot3574"
       style="font-style:normal;font-variant:normal;font-weight:normal;font-stretch:normal;font-size:56.2855px;line-height:0.01%;font-family:Arial;-inkscape-font-specification:Arial;text-align:center;letter-spacing:0px;word-spacing:0px;text-anchor:middle;fill:#485a48;fill-opacity:1;stroke:none"
       transform="matrix(1.0234171,0,0,1.2112341,50.718687,-18868.31)"><flowRegion
         id="flowRegion3576"
         style="font-size:56.2855px"><rect
           id="rect3578"
           width="2021.3717"
           height="106.51344"
           x="158.58536"
           y="15665.729"
           style="text-align:center;text-anchor:middle;fill:#485a48;fill-opacity:1;font-size:56.28545944px;" /></flowRegion><flowPara
         style="font-style:normal;font-variant:normal;font-weight:normal;font-stretch:normal;font-size:56.2855px;line-height:1.25;font-family:'linja sike';-inkscape-font-specification:'linja sike';text-align:center;text-anchor:middle;fill:#485a48;fill-opacity:1"
         id="flowPara3582">sitelen ni li nasin jo pi+__jan__ale. janmute+wanli pana e mani la lipu+wan ni li lon.</flowPara></flowRoot>
    <flowRoot
       xml:space="preserve"
       id="flowRoot3574-8"
       style="font-style:normal;font-variant:normal;font-weight:normal;font-stretch:normal;line-height:0.01%;font-family:Arial;-inkscape-font-specification:Arial;text-align:center;letter-spacing:0px;word-spacing:0px;text-anchor:middle;fill:#000000;fill-opacity:1;stroke:none"
       transform="matrix(1.0234171,0,0,1.1064124,46.665477,-17138.631)"><flowRegion
         id="flowRegion3576-9"><rect
           id="rect3578-1"
           width="2021.3717"
           height="106.51344"
           x="158.58536"
           y="15665.729"
           style="text-align:center;text-anchor:middle" /></flowRegion><flowPara
         style="font-style:normal;font-variant:normal;font-weight:normal;font-stretch:normal;font-size:56px;line-height:1.25;font-family:Lavi;-inkscape-font-specification:Lavi;text-align:center;text-anchor:middle;fill:#9c0000;fill-opacity:1"
         id="flowPara3582-4">www.patreon.com/davidrevoy</flowPara></flowRoot>
    <flowRoot
       xml:space="preserve"
       id="flowRoot3574-1"
       style="font-style:normal;font-variant:normal;font-weight:normal;font-stretch:normal;line-height:0.01%;font-family:Arial;-inkscape-font-specification:Arial;text-align:center;letter-spacing:0px;word-spacing:0px;text-anchor:middle;fill:#42493d;fill-opacity:1;stroke:none"
       transform="matrix(1.0234171,0,0,1.2112341,24.12438,-18708.829)"><flowRegion
         id="flowRegion3576-97"><rect
           id="rect3578-2"
           width="2021.3717"
           height="106.51344"
           x="158.58536"
           y="15665.729"
           style="text-align:center;text-anchor:middle;fill:#42493d;fill-opacity:1" /></flowRegion><flowPara
         style="font-style:normal;font-variant:normal;font-weight:normal;font-stretch:normal;font-size:56px;line-height:1.25;font-family:'linja sike';-inkscape-font-specification:'linja sike';text-align:center;text-anchor:middle;fill:#42493d;fill-opacity:1"
         id="flowPara3582-2">pona+mute tan jan ni:</flowPara></flowRoot>
    <flowRoot
       xml:space="preserve"
       id="flowRoot3574-1-6"
       style="font-style:normal;font-variant:normal;font-weight:normal;font-stretch:normal;font-size:58.91553083px;line-height:0.01%;font-family:Arial;-inkscape-font-specification:Arial;text-align:center;letter-spacing:0px;word-spacing:0px;text-anchor:middle;fill:#777967;fill-opacity:1;stroke:none"
       transform="matrix(0.73625098,0,0,0.85217362,393.59292,-12615.222)"><flowRegion
         id="flowRegion3576-97-8"
         style="font-size:58.91553083px"><rect
           id="rect3578-2-9"
           width="2021.3717"
           height="106.51344"
           x="158.58536"
           y="15665.729"
           style="text-align:center;text-anchor:middle;fill:#777967;fill-opacity:1;font-size:58.91553083px" /></flowRegion><flowPara
         style="font-style:normal;font-variant:normal;font-weight:normal;font-stretch:normal;line-height:1.25;font-family:'linja sike';-inkscape-font-specification:'linja sike';text-align:center;text-anchor:middle;fill:#777967;fill-opacity:1;font-size:58.91553083px"
         id="flowPara3582-2-8">pali kepeken ilo [<flowSpan
   style="font-style:normal;font-variant:normal;font-weight:normal;font-stretch:normal;font-family:Lavi;-inkscape-font-specification:Lavi;font-size:58.91553083px"
   id="flowSpan26">Krita</flowSpan>] lon ilo [<flowSpan
   style="font-style:normal;font-variant:normal;font-weight:normal;font-stretch:normal;font-family:Lavi;-inkscape-font-specification:Lavi;font-size:58.91553083px"
   id="flowSpan28">GNU/Linux</flowSpan>]</flowPara></flowRoot>
  </g>
</svg>
