<?xml version="1.0" encoding="UTF-8" standalone="no"?>
<!-- Created with Inkscape (http://www.inkscape.org/) -->

<svg
   id="svg2"
   version="1.1"
   inkscape:version="1.1.1 (3bf5ae0d25, 2021-09-20)"
   width="2481"
   height="1572"
   sodipodi:docname="E04P06.svg"
   xmlns:inkscape="http://www.inkscape.org/namespaces/inkscape"
   xmlns:sodipodi="http://sodipodi.sourceforge.net/DTD/sodipodi-0.dtd"
   xmlns:xlink="http://www.w3.org/1999/xlink"
   xmlns="http://www.w3.org/2000/svg"
   xmlns:svg="http://www.w3.org/2000/svg"
   xmlns:rdf="http://www.w3.org/1999/02/22-rdf-syntax-ns#"
   xmlns:cc="http://creativecommons.org/ns#"
   xmlns:dc="http://purl.org/dc/elements/1.1/">
  <sodipodi:namedview
     pagecolor="#ffffff"
     bordercolor="#666666"
     inkscape:pageopacity="0"
     inkscape:pageshadow="2"
     inkscape:window-width="1366"
     inkscape:window-height="768"
     id="namedview70"
     showgrid="false"
     inkscape:zoom="0.4"
     inkscape:cx="1413.75"
     inkscape:cy="436.25"
     inkscape:current-layer="layer3"
     borderopacity="1"
     inkscape:pagecheckerboard="0"
     inkscape:window-x="0"
     inkscape:window-y="0"
     inkscape:window-maximized="0" />
  <metadata
     id="metadata8">
    <rdf:RDF>
      <cc:Work
         rdf:about="">
        <dc:format>image/svg+xml</dc:format>
        <dc:type
           rdf:resource="http://purl.org/dc/dcmitype/StillImage" />
        <dc:title />
      </cc:Work>
    </rdf:RDF>
  </metadata>
  <defs
     id="defs6" />
  <sodipodi:namedview
     pagecolor="#ffffff"
     bordercolor="#666666"
     borderopacity="1"
     objecttolerance="10"
     gridtolerance="10"
     guidetolerance="10"
     inkscape:pageopacity="0"
     inkscape:pageshadow="2"
     inkscape:window-width="1920"
     inkscape:window-height="1025"
     id="namedview4"
     showgrid="false"
     inkscape:zoom="0.33628693"
     inkscape:cx="1052.8337"
     inkscape:cy="672.03869"
     inkscape:window-x="0"
     inkscape:window-y="26"
     inkscape:window-maximized="1"
     inkscape:current-layer="layer3" />
  <g
     inkscape:groupmode="layer"
     id="layer1"
     inkscape:label="artwork"
     sodipodi:insensitive="true">
    <image
       xlink:href="../gfx_Pepper-and-Carrot_by-David-Revoy_E04P06.png"
       y="0"
       x="0"
       id="image10"
       height="1572"
       width="2481" />
  </g>
  <g
     inkscape:groupmode="layer"
     id="layer2"
     inkscape:label="speechbubbles"
     style="display:inline">
    <path
       style="fill:#ffffff;stroke:none;stroke-width:0.976295"
       d="m 1198.1712,715.35137 c -8.9991,-112.55449 26.9974,-108.53468 73.2787,-132.6535 46.2813,-24.11881 295.686,-17.41914 350.9665,9.37955 55.2804,26.79867 74.5643,68.33665 62.994,133.99342 -11.5704,65.65677 -62.994,111.21453 -95.1338,121.934 -32.1398,10.71947 -217.265,41.53796 -304.6852,-1.33994 -87.4202,-42.87789 -87.4202,-131.31353 -87.4202,-131.31353 z"
       id="path3008"
       inkscape:connector-curvature="0" />
    <path
       style="color:#000000;fill:#ffffff;fill-opacity:1;fill-rule:nonzero;stroke:none;stroke-width:1;marker:none;visibility:visible;display:inline;overflow:visible;enable-background:accumulate"
       d="M 824.06411,936.91784 C 923.05465,810.92988 1121.0357,706.79697 1195.6,708.08256 c 74.5643,1.28559 78.4211,-33.42537 78.4211,-33.42537 0,0 -255.8327,-64.27958 -449.95699,262.26065 z"
       id="path3010"
       inkscape:connector-curvature="0" />
    <path
       style="color:#000000;fill:#ffffff;fill-opacity:1;fill-rule:nonzero;stroke:none;stroke-width:1px;marker:none;visibility:visible;display:inline;overflow:visible;enable-background:accumulate"
       d="m 1942.8641,688.631 c 30.5471,-53.4122 196.6954,-48.85248 251.9759,-25.71183 55.2804,23.14065 75.8499,62.99398 78.421,77.13549 2.5712,14.1415 -3.8567,79.70667 -32.1397,92.56258 -28.283,12.85592 -109.2753,19.28387 -137.5583,19.28387 -28.283,0 -118.5686,-8.18268 -141.4151,-26.99742 -21.8551,-17.99828 -49.831,-82.8605 -19.2838,-136.27269 z"
       id="path3330"
       inkscape:connector-curvature="0"
       sodipodi:nodetypes="zsssssz" />
    <path
       style="color:#000000;display:inline;overflow:visible;visibility:visible;fill:#ffffff;fill-opacity:1;fill-rule:nonzero;stroke:none;stroke-width:1px;stroke-linecap:butt;stroke-linejoin:miter;stroke-opacity:1;marker:none;enable-background:accumulate"
       d="m 2044.2371,1093.76 c -25.7119,-17.9983 -34.711,-34.711 -32.1398,-44.9957 2.5712,-10.2847 25.7118,-62.994 53.9948,-69.42195 28.283,-6.42796 101.5617,-14.14151 118.2744,-7.71355 16.7127,6.42795 64.2796,48.8525 64.2796,70.7075 0,21.8551 -8.9991,64.2796 -34.711,77.1355 -25.7118,12.8559 -138.8439,20.5695 -169.698,-25.7118 z"
       id="path3349"
       inkscape:connector-curvature="0" />
    <path
       style="color:#000000;display:inline;overflow:visible;visibility:visible;fill:#ffffff;fill-opacity:1;fill-rule:nonzero;stroke:none;stroke-width:0.941041px;stroke-linecap:butt;stroke-linejoin:miter;stroke-opacity:1;marker:none;enable-background:accumulate"
       d="m 1846.792,1177.3234 c -1.1384,-32.1398 19.3539,-53.9948 30.7385,-64.2795 11.3847,-10.2848 83.108,-33.4254 109.2927,-33.4254 26.1847,0 134.3388,23.1406 153.6927,46.2813 19.3539,23.1406 44.4002,23.1406 31.8771,61.7084 -12.5232,38.5677 -91.0772,57.8516 -108.1542,61.7083 -17.077,3.8568 -66.031,6.428 -81.9695,5.1424 -15.9385,-1.2856 -138.8927,-24.4262 -135.4773,-77.1355 z"
       id="path3357"
       inkscape:connector-curvature="0" />
    <path
       style="fill:#ffffff;stroke:none;stroke-width:1px;stroke-linecap:butt;stroke-linejoin:miter;stroke-opacity:1;color:#000000;fill-opacity:1;fill-rule:nonzero;marker:none;visibility:visible;display:inline;overflow:visible;enable-background:accumulate"
       d="m 1986.2388,1289.1699 c -2.5712,-19.2839 43.7101,-120.8456 200.5522,-107.9897 156.8422,12.8559 187.6964,86.1346 186.4108,111.8465 -1.2856,25.7118 -39.8533,65.5651 -62.994,71.9931 -23.1406,6.4279 -83.5634,21.855 -122.1312,16.7127 -38.5677,-5.1424 -156.8421,-30.8542 -179.9828,-53.9949 -23.1406,-23.1406 -19.2838,-33.4254 -21.855,-38.5677 z"
       id="path3365"
       inkscape:connector-curvature="0" />
    <path
       style="color:#000000;display:inline;overflow:visible;visibility:visible;fill:#ffffff;fill-opacity:1;fill-rule:nonzero;stroke:none;stroke-width:0.915485px;marker:none;enable-background:accumulate"
       d="m 1857.0937,1397.5875 c -1.0775,-31.497 15.0844,-53.9948 60.3377,-74.5643 45.2533,-20.5694 107.746,-15.4271 123.9079,-8.9991 16.1619,6.4279 95.8939,25.7118 112.0558,48.8525 16.162,23.1406 29.0914,32.1397 23.7041,53.9948 -5.3873,21.855 -10.7746,44.9957 -30.1688,52.7092 -19.3943,7.7136 -157.3092,17.9983 -179.9358,12.856 -22.6267,-5.1424 -59.2604,-6.428 -78.6546,-21.8551 -19.6618,-15.6399 -30.1689,-31.497 -31.2463,-62.994 z"
       id="path3373"
       inkscape:connector-curvature="0"
       sodipodi:nodetypes="zsssssssz" />
    <path
       style="font-size:medium;font-style:normal;font-variant:normal;font-weight:normal;font-stretch:normal;text-indent:0;text-align:start;text-decoration:none;line-height:normal;letter-spacing:normal;word-spacing:normal;text-transform:none;direction:ltr;block-progression:tb;writing-mode:lr-tb;text-anchor:start;baseline-shift:baseline;color:#000000;fill:#ffffff;fill-opacity:1;stroke:none;stroke-width:31.89999999999999858;marker:none;visibility:visible;display:inline;overflow:visible;enable-background:accumulate;font-family:Sans;-inkscape-font-specification:Sans;stroke-miterlimit:4;stroke-dasharray:none;fill-rule:nonzero"
       d="m 1638.1562,691.96875 -16.5,27.3125 c 39.9649,24.20406 68.3715,40.00378 95.0313,47.53125 26.6598,7.52747 51.5829,5.36984 77.8125,-5 47.2096,-18.66429 110.0919,-37.57626 158.9375,-20.96875 28.0325,9.53104 66.3123,22.50876 95.7813,41.25 29.4689,18.74124 48.4051,40.4879 46.5937,71.28125 -2.0735,35.24981 -12.0963,53.68385 -19.4063,76.375 -7.3099,22.69115 -9.4829,49.74132 7.3126,87.5312 l 29.1562,-12.9374 c -14.5058,-32.63818 -12.1987,-45.86172 -6.0938,-64.81255 6.105,-18.95083 18.477,-43.51348 20.875,-84.28125 2.6603,-45.22424 -27.0608,-78.27967 -61.3124,-100.0625 -34.2517,-21.78283 -74.7622,-35.05789 -102.625,-44.53125 -62.945,-21.40127 -132.0074,2.15549 -180.9376,21.5 -21.8403,8.63455 -36.5863,9.8249 -57.4374,3.9375 -20.8512,-5.8874 -47.7811,-20.25912 -87.1876,-44.125 z"
       id="path3381"
       inkscape:connector-curvature="0" />
  </g>
  <g
     inkscape:groupmode="layer"
     id="layer3"
     inkscape:label="txt">
    <text
       xml:space="preserve"
       style="font-style:normal;font-variant:normal;font-weight:normal;font-stretch:normal;font-size:55.703px;line-height:0.01%;font-family:Arial;-inkscape-font-specification:Arial;letter-spacing:0px;word-spacing:0px;fill:#000000;fill-opacity:1;stroke:none;stroke-width:1.16048"
       x="675.58899"
       y="277.55737"
       id="text2653"
       transform="matrix(0.97732945,0.15689557,0,1.0231964,0,0)"><tspan
         sodipodi:role="line"
         x="675.58899"
         y="277.55737"
         id="tspan2651"
         style="font-size:55.703px;stroke-width:1.16048"><tspan
           x="675.58899"
           y="277.55737"
           style="font-size:55.703px;line-height:1.25;font-family:Lavi;-inkscape-font-specification:Lavi;stroke-width:1.16048"
           id="tspan2649">Raheb</tspan></tspan></text>
    <text
       xml:space="preserve"
       style="font-style:normal;font-variant:normal;font-weight:normal;font-stretch:normal;font-size:46.9835px;line-height:0.01%;font-family:Arial;-inkscape-font-specification:Arial;text-align:center;letter-spacing:0px;word-spacing:0px;text-anchor:middle;white-space:pre;inline-size:402.663;fill:#000000;fill-opacity:1;stroke:none;stroke-width:0.978822"
       x="1252.4307"
       y="677.74249"
       id="text2647"
       transform="matrix(0.9965406,0,0,1.0034714,186,4)"><tspan
         x="1252.4307"
         y="677.74249"
         id="tspan17125"><tspan
   style="line-height:1.25;font-family:Lavi;-inkscape-font-specification:Lavi"
   id="tspan17123">Ámed! Míi le wa...</tspan><tspan
   y="677.74249"
   id="tspan17127"> </tspan></tspan><tspan
         x="1252.4307"
         y="736.47183"
         id="tspan17131"><tspan
   style="line-height:1.25;font-family:Lavi;-inkscape-font-specification:Lavi"
   id="tspan17129">wohin wohuzh bem</tspan><tspan
   y="736.47183"
   id="tspan17133"> </tspan></tspan><tspan
         x="1252.4307"
         y="795.2012"
         id="tspan17137"><tspan
           style="line-height:1.25;font-family:Lavi;-inkscape-font-specification:Lavi"
           id="tspan17135">wa...</tspan></tspan></text>
    <text
       xml:space="preserve"
       style="font-style:normal;font-variant:normal;font-weight:normal;font-stretch:normal;font-size:48px;line-height:0.01%;font-family:Arial;-inkscape-font-specification:Arial;text-align:center;letter-spacing:0px;word-spacing:0px;text-anchor:middle;white-space:pre;inline-size:240.602;fill:#000000;fill-opacity:1;stroke:none"
       x="1991.8737"
       y="731.78595"
       id="text2617"
       transform="translate(104,2)"><tspan
         x="1991.8737"
         y="731.78595"
         id="tspan17141"><tspan
   style="line-height:1.25;font-family:Lavi;-inkscape-font-specification:Lavi"
   id="tspan17139">Báa... Báa</tspan><tspan
   y="731.78595"
   id="tspan17143"> </tspan></tspan><tspan
         x="1991.8737"
         y="791.78596"
         id="tspan17147"><tspan
           style="line-height:1.25;font-family:Lavi;-inkscape-font-specification:Lavi"
           id="tspan17145">thod ne?</tspan></tspan></text>
    <text
       xml:space="preserve"
       style="font-style:normal;font-variant:normal;font-weight:normal;font-stretch:normal;font-size:63.3326px;line-height:0.01%;font-family:Arial;-inkscape-font-specification:Arial;text-align:center;letter-spacing:0px;word-spacing:0px;text-anchor:middle;white-space:pre;inline-size:116.065;fill:#000000;fill-opacity:1;stroke:none;stroke-width:1.31943"
       x="2013.364"
       y="1093.5564"
       id="text2603"
       transform="matrix(1.0227898,0,0,0.97771802,60,-2.4384526e-5)"><tspan
         x="2013.364"
         y="1093.5564"
         id="tspan17151"><tspan
           style="line-height:1.25;font-family:Lavi;-inkscape-font-specification:Lavi"
           id="tspan17149">E?</tspan></tspan></text>
    <text
       xml:space="preserve"
       style="font-style:normal;font-variant:normal;font-weight:normal;font-stretch:normal;font-size:63.3326px;line-height:0.01%;font-family:Arial;-inkscape-font-specification:Arial;text-align:center;letter-spacing:0px;word-spacing:0px;text-anchor:middle;fill:#000000;fill-opacity:1;stroke:none;stroke-width:1.29958"
       x="1979.0884"
       y="1194.0164"
       id="text2597"
       transform="scale(1.0073994,0.99265495)"><tspan
         sodipodi:role="line"
         x="1979.0884"
         y="1194.0164"
         id="tspan2595"
         style="font-size:63.3326px;stroke-width:1.29958"><tspan
           x="1979.0884"
           y="1194.0164"
           style="font-size:63.3326px;line-height:1.25;font-family:Lavi;-inkscape-font-specification:Lavi;stroke-width:1.29958"
           id="tspan2593">Enin?</tspan></tspan></text>
    <text
       xml:space="preserve"
       style="font-style:normal;font-variant:normal;font-weight:normal;font-stretch:normal;font-size:61.2777px;line-height:0.01%;font-family:Arial;-inkscape-font-specification:Arial;text-align:center;letter-spacing:0px;word-spacing:0px;text-anchor:middle;fill:#000000;fill-opacity:1;stroke:none;stroke-width:1.27662"
       x="2217.0505"
       y="1287.0686"
       id="text2591"
       transform="scale(0.98960421,1.010505)"><tspan
         sodipodi:role="line"
         x="2217.0505"
         y="1287.0686"
         id="tspan2589"
         style="font-size:61.2777px;stroke-width:1.27662"><tspan
           x="2217.0505"
           y="1287.0686"
           style="font-size:61.2777px;line-height:1.25;font-family:Lavi;-inkscape-font-specification:Lavi;stroke-width:1.27662"
           id="tspan2587">Ehath?</tspan></tspan></text>
    <text
       xml:space="preserve"
       style="font-style:normal;font-variant:normal;font-weight:normal;font-stretch:normal;font-size:61.2777px;line-height:0.01%;font-family:Arial;-inkscape-font-specification:Arial;text-align:center;letter-spacing:0px;word-spacing:0px;text-anchor:middle;fill:#000000;fill-opacity:1;stroke:none;stroke-width:1.28897"
       x="2019.5635"
       y="1415.1151"
       id="text2585"
       transform="scale(0.99917499,1.0008257)"><tspan
         sodipodi:role="line"
         x="2019.5635"
         y="1415.1151"
         id="tspan2583"
         style="font-size:61.2777px;stroke-width:1.28897"><tspan
           x="2019.5635"
           y="1415.1151"
           style="font-size:61.2777px;line-height:1.25;font-family:Lavi;-inkscape-font-specification:Lavi;stroke-width:1.28897"
           id="tspan2581">Ewihi?</tspan></tspan></text>
    <text
       xml:space="preserve"
       style="font-style:normal;font-variant:normal;font-weight:normal;font-stretch:normal;font-size:52.2263px;line-height:0.01%;font-family:Arial;-inkscape-font-specification:Arial;letter-spacing:0px;word-spacing:0px;fill:#000000;fill-opacity:1;stroke:none;stroke-width:1.08805"
       x="2308.4836"
       y="-129.89838"
       id="text2579"
       transform="matrix(0.88412794,0.17343492,0,1.131058,0,0)"><tspan
         sodipodi:role="line"
         x="2308.4836"
         y="-129.89838"
         id="tspan2577"
         style="font-size:52.2263px;stroke-width:1.08805"><tspan
           x="2308.4836"
           y="-129.89838"
           style="font-size:52.2263px;line-height:1.25;font-family:Lavi;-inkscape-font-specification:Lavi;stroke-width:1.08805"
           id="tspan2575">Wushshshshsh</tspan></tspan></text>
    <text
       xml:space="preserve"
       style="font-style:normal;font-variant:normal;font-weight:normal;font-stretch:normal;font-size:47.0352px;line-height:0.01%;font-family:Arial;-inkscape-font-specification:Arial;letter-spacing:0px;word-spacing:0px;fill:#000000;fill-opacity:1;stroke:none;stroke-width:0.9799"
       x="1856.922"
       y="704.48767"
       id="text2573"
       transform="matrix(1.0131733,0.16888241,-0.03630262,0.98094682,0,0)"><tspan
         sodipodi:role="line"
         x="1856.922"
         y="704.48767"
         id="tspan2571"
         style="font-size:47.0352px;stroke-width:0.9799"><tspan
           x="1856.922"
           y="704.48767"
           style="font-size:47.0352px;line-height:1.25;font-family:Lavi;-inkscape-font-specification:Lavi;stroke-width:0.9799"
           id="tspan2569">Wushsh</tspan></tspan></text>
  </g>
</svg>
