<?xml version="1.0" encoding="UTF-8" standalone="no"?>
<!-- Created with Inkscape (http://www.inkscape.org/) -->

<svg
   id="svg2"
   version="1.1"
   inkscape:version="1.1.1 (3bf5ae0d25, 2021-09-20)"
   width="2481"
   height="2479"
   sodipodi:docname="E04P08.svg"
   xmlns:inkscape="http://www.inkscape.org/namespaces/inkscape"
   xmlns:sodipodi="http://sodipodi.sourceforge.net/DTD/sodipodi-0.dtd"
   xmlns:xlink="http://www.w3.org/1999/xlink"
   xmlns="http://www.w3.org/2000/svg"
   xmlns:svg="http://www.w3.org/2000/svg"
   xmlns:rdf="http://www.w3.org/1999/02/22-rdf-syntax-ns#"
   xmlns:cc="http://creativecommons.org/ns#"
   xmlns:dc="http://purl.org/dc/elements/1.1/">
  <sodipodi:namedview
     pagecolor="#ffffff"
     bordercolor="#666666"
     inkscape:pageopacity="0"
     inkscape:pageshadow="2"
     inkscape:window-width="1336"
     inkscape:window-height="725"
     id="namedview70"
     showgrid="false"
     inkscape:zoom="0.37516625"
     inkscape:cx="1248.7797"
     inkscape:cy="1540.6503"
     inkscape:current-layer="layer2"
     borderopacity="1"
     inkscape:pagecheckerboard="0"
     inkscape:window-x="15"
     inkscape:window-y="15"
     inkscape:window-maximized="0" />
  <metadata
     id="metadata8">
    <rdf:RDF>
      <cc:Work
         rdf:about="">
        <dc:format>image/svg+xml</dc:format>
        <dc:type
           rdf:resource="http://purl.org/dc/dcmitype/StillImage" />
        <dc:title />
      </cc:Work>
    </rdf:RDF>
  </metadata>
  <defs
     id="defs6" />
  <sodipodi:namedview
     pagecolor="#ffffff"
     bordercolor="#666666"
     borderopacity="1"
     objecttolerance="10"
     gridtolerance="10"
     guidetolerance="10"
     inkscape:pageopacity="0"
     inkscape:pageshadow="2"
     inkscape:window-width="1920"
     inkscape:window-height="1025"
     id="namedview4"
     showgrid="false"
     inkscape:zoom="0.40677062"
     inkscape:cx="1166.5731"
     inkscape:cy="1084.8052"
     inkscape:window-x="0"
     inkscape:window-y="26"
     inkscape:window-maximized="1"
     inkscape:current-layer="layer2"
     inkscape:object-nodes="true" />
  <g
     inkscape:groupmode="layer"
     id="layer1"
     inkscape:label="artwork"
     style="display:inline"
     sodipodi:insensitive="true">
    <image
       xlink:href="../gfx_Pepper-and-Carrot_by-David-Revoy_E04P08.png"
       y="0"
       x="0"
       id="image10"
       height="2479"
       width="2481" />
  </g>
  <g
     inkscape:groupmode="layer"
     id="layer3"
     inkscape:label="speechbubbles"
     style="display:inline">
    <path
       style="fill:#ffffff;stroke:none"
       d="m -2021.8885,646.19917 c 1.0628,-51.0158 26.5707,-103.09442 170.0526,-112.65988 143.4819,-9.56546 203.0004,48.89014 207.2517,90.34047 4.2513,41.45033 -82.9007,96.71744 -162.6129,97.78027 -79.7121,1.06282 -214.6914,-11.69112 -214.6914,-75.46086 z"
       id="path4279"
       inkscape:connector-curvature="0" />
    <path
       style="fill:#ffffff;stroke:none"
       d="m -1788.0661,898.08964 c 70.1467,-44.63882 88.2148,-124.35099 45.7016,-190.24639 -42.5132,-65.8954 -82.9007,-54.20428 -82.9007,-54.20428 l 35.0734,41.45033 c 0,0 97.7803,97.78027 2.1257,203.00034 z"
       id="path4281"
       inkscape:connector-curvature="0"
       sodipodi:nodetypes="csccc" />
  </g>
  <g
     inkscape:groupmode="layer"
     id="layer2"
     inkscape:label="text"
     style="display:inline">
    <text
       xml:space="preserve"
       style="font-style:normal;font-variant:normal;font-weight:normal;font-stretch:normal;font-size:41.1293px;line-height:0.01%;font-family:Arial;-inkscape-font-specification:Arial;letter-spacing:0px;word-spacing:0px;white-space:pre;inline-size:2337.56;fill:#000000;fill-opacity:1;stroke:none;stroke-width:0.856861"
       x="217.80951"
       y="345.78928"
       id="text156420"
       transform="matrix(0.93304259,0,0,1.0717624,-52.889491,0)"><tspan
         x="217.80951"
         y="345.78928"
         id="tspan223654"><tspan
   style="line-height:1.25;font-family:Lavi;-inkscape-font-specification:Lavi;text-align:center;text-anchor:middle"
   id="tspan223646">Алексей - </tspan><tspan
   style="line-height:1.25;font-family:Lavi;-inkscape-font-specification:Lavi;text-align:center;text-anchor:middle"
   id="tspan223648">獨孤欣</tspan><tspan
   style="line-height:1.25;font-family:Lavi;-inkscape-font-specification:Lavi;text-align:center;text-anchor:middle"
   id="tspan223650"> - </tspan><tspan
   dx="0 0 0 0 0 0 0 0 0 0 0 0 0 0 0 0 0 0 0 0 0 0 0 0 0 0 0 0 0 0 0 0 0 0 0 0 0 0 0 0 0 0 0 0 0 0 0 0 0 0 0 0 0 0 0 0 0 0 0 0 0 0 0 0 0.00010681152 0 0 0 0 0 0 0 0 0 0 0 0 0 0 0 0 0 0 0 0 0 0 0 0 0 0.00013065338"
   style="line-height:1.25;font-family:Lavi;-inkscape-font-specification:Lavi;text-align:center;text-anchor:middle"
   id="tspan223652">Adrian Lord - Alan Hardman - Albert Westra - Alejandro Flores Prieto - Alexander Sopicki - Alex Lusco</tspan>
</tspan><tspan
         x="217.80951"
         y="371.3658"
         id="tspan223656">
</tspan><tspan
         x="217.80951"
         y="397.205"
         id="tspan223660"><tspan
   dx="0 0 0 0 0 0 0 0 0 0 0 0 0 0 0 0 0 0 0 0 0 0 0 0 0 0 0 0 0 0 0 0 0 0 0 0 0 0 0 0 0 0 0 0 0 0 0 0 0 0 0 0 0 0 0 0 0 0 0 0 0 0 0 0 0 0 0 0 0 0 0 0 0 0 0 0 0 0 0 0 0 0 0 0 0 0.0001001358 0 -0.00011444092 0 0 0 0 0 0 0 0 0 0 0 0 0 0 0.0001001358 0 -0.00011444092"
   style="line-height:1.25;font-family:Lavi;-inkscape-font-specification:Lavi;text-align:center;text-anchor:middle"
   id="tspan223658">Alex Silver - Alex Vandiver - Alfredo - Alice Queenofcats - Ali Poulton (Aunty Pol) - Alison Harding - Allan Zieser</tspan>
</tspan><tspan
         x="217.80951"
         y="422.78154"
         id="tspan223662">
</tspan><tspan
         x="217.80951"
         y="448.62074"
         id="tspan223666"><tspan
   dx="0 0 0 0 0 0 0 0 0 0 0 0 0 0 0 0 0 0 0 0 0 0 0 0 0 0 0 0 0 0 0 0 0 0 0 0 0 0 0 0 0 0 0 0 0 0 0 0 0 0 0 0 0 0 0 0 0 0 0 0 0 0 0 0 0 0 0 0 0 0 0 0 0 0.0001001358 0 0 0 0 0 0 0 0 0 0 0 0 0 0 0 0 0 0 0 0 0 0 0 0 0 0 0 0 0 0 0 0 -0.00012302399 0 0 0 -0.00016784668 0.00017929077 -0.00011539459"
   style="line-height:1.25;font-family:Lavi;-inkscape-font-specification:Lavi;text-align:center;text-anchor:middle"
   id="tspan223664">Andreas Rieger - Andrew - Andrew Godfrey - Andrey Alekseenko - Angela K - Anna Orlova - anonymous - Antan Karmola</tspan>
</tspan><tspan
         x="217.80951"
         y="474.19728"
         id="tspan223668">
</tspan><tspan
         x="217.80951"
         y="500.03648"
         id="tspan223672"><tspan
   dx="0 0 0 0 0 0 0 0 0 0 0 0 0 0 0 0 0 0 0 0 0 0 0 0 0 0 0 0 0 0 0 0 0 0 0 0 0 0 0 0 0 0 0 0 0 0 0 0 0 0 0 0 0 0 0 0 0 0 0 0 0 0 0 0 0 0 0 0 0 0 0 0 0 0 0 0.0001001358 0 0 0 0 0 0 0 0 0 0 0 0 0 0 0 0 0 0 0 0 0 0 0 0 0 0 0 0 0 0 0 0.00010299683 0 0 0 0 0 0.0002117157"
   style="line-height:1.25;font-family:Lavi;-inkscape-font-specification:Lavi;text-align:center;text-anchor:middle"
   id="tspan223670">Arco - Ardash Crowfoot - Arne Brix - Aslak Kjølås-Sæverud - Axel Bordelon - Axel Philipsenburg - barbix - Ben Evans</tspan>
</tspan><tspan
         x="217.80951"
         y="525.61305"
         id="tspan223674">
</tspan><tspan
         x="217.80951"
         y="551.45222"
         id="tspan223680"><tspan
           dx="0 0 0 0 0 0 0 0 0 0 0 0 0 0 0 0 0 0 0 0 0 0 0 0 0 0 0 0 0 0 0 0 0 0 0 0 0 0 0 0 0 0 0 0 0 0 0 0 0 0 0 0 0 0 0 0 0 0 0 0 0 0 0.0001001358 0 0 0 0 0 0 0 0 0 0 0 0 0 0 0 0 0 0.0001001358 0 0 0 0 0 0 0 0 0 0 0 0 0 0 0 0 0 0 0 0 0 0 0 0 0 0 0 0 0 0 0.00012111664 0 0 0.00013160706 0 -0.00011539459 0 -0.00010967255"
           style="line-height:1.25;font-family:Lavi;-inkscape-font-specification:Lavi;text-align:center;text-anchor:middle"
           id="tspan223676">Bernd - Boonsak Watanavisit - Boudewijn Rempt - Brian Behnke - carlos levischi - Charlotte Lacombe-bar - Chris Radcliff</tspan><tspan
           dx="0.00013446808"
           id="tspan223678">
</tspan></tspan><tspan
         x="217.80951"
         y="577.02876"
         id="tspan223682">
</tspan><tspan
         x="217.80951"
         y="602.86793"
         id="tspan223688"><tspan
           dx="0 0 0 0 0 0 0 0 0 0 0 0 0 0 0 0 0 0 0 0 0 0 0 0 0 0 0 0 0 0 0 0 0 0 0 0 0 0 0 0 0 0 0 0 0 0 0 0 0 0 0 0 0 0 0 0 0 0 0 0 0 0 0 0 0 0 0 0 0 0 0 0 0 0 0 0 0 0 0 0 0 0 0 0 0 0 0.0001001358 0 0 0 0 0 0 0 0 0 0 0 0 0 0 0 0 0 0 0 0 0 0 0 0 0 0 -0.00011539459 0.00012111664 0 0 0.0001449585 -0.00016212463 0 0.00012874603 -0.00011539459"
           style="line-height:1.25;font-family:Lavi;-inkscape-font-specification:Lavi;text-align:center;text-anchor:middle"
           id="tspan223684">Chris Sakkas - Christophe Carré - Clara Dexter - Colby Driedger - Conway Scott Smith - Cyrille Largillier - Cyril Paciullo</tspan><tspan
           dx="0.00017929077"
           id="tspan223686">
</tspan></tspan><tspan
         x="217.80951"
         y="628.44447"
         id="tspan223690">
</tspan><tspan
         x="217.80951"
         y="654.28364"
         id="tspan223694"><tspan
   dx="0 0 0 0 0 0 0 0 0 0 0 0 0 0 0 0 0 0 0 0 0 0 0 0 0 0 0 0 0 0 0 0 0 0 0 0 0 0 0 0 0 0 0 0 0 0 0 0 0 0 0 0 0 0 0 0 0 0 0 0 0 0 0 0 0 0 0 0 0 0 0 0 0 0 0.0001001358"
   style="line-height:1.25;font-family:Lavi;-inkscape-font-specification:Lavi;text-align:center;text-anchor:middle"
   id="tspan223692">Daniel - david - Damien de Lemeny - Dmitry - Donald Hayward - Dubema Ulo - Eitan Goldshtrom - Enrico Billich</tspan>
</tspan><tspan
         x="217.80951"
         y="679.86018"
         id="tspan223696">
</tspan><tspan
         x="217.80951"
         y="705.69935"
         id="tspan223700"><tspan
   dx="0 0 0 0 0 0 0 0 0 0 0 0 0 0 0 0 0 0 0 0 0 0 0 0 0 0 0 0 0 0 0 0 0 0 0 0 0 0 0 0 0 0 0 0 0 0 0 0 0 0 0 0 0 0 0 0 0 0 0 0 0 0 0 0 0 0 0 0 0 0 0 0 0 0 0 0 0.00011634827 0 0 0 0 0 0 0 0 0 0 0 0 0 0 0 0 0 0 0 0 0 0 0 0 0 0 0 0 0 0 0 0 0 0 0 0 0.00023651123 -0.00011634827"
   style="line-height:1.25;font-family:Lavi;-inkscape-font-specification:Lavi;text-align:center;text-anchor:middle"
   id="tspan223698">-epsilon- - Eric Schulz - Garret Patterson - Guillaume - Gustav Strömbom - Guy Davis - Happy Mimic - Helmar Suschka</tspan>
</tspan><tspan
         x="217.80951"
         y="731.27589"
         id="tspan223702">
</tspan><tspan
         x="217.80951"
         y="757.11506"
         id="tspan223706"><tspan
   dx="0 0 0 0 0 0 0 0 0 0 0 0 0 0 0 0 0 0 0 0 0 0 0 0 0 0 0 0 0 0 0 0 0 0 0 0 0 0 0 0 0 0 0 0 0 0 0 0 0 0 0 0 0 0 0 0 0 0 0 0 0 0 0 0 0 0 0 0 0 0 0 0 0 0 0 0 0 0 0 0 0 0 0 0 0 0 0 0 0 0 0 0 0 0 0 0 0 0 0 0 0 0 0 0 0 0 0 0 0 0 0 0 0.00012111664 -0.00010681152 0 -0.00016212463"
   style="line-height:1.25;font-family:Lavi;-inkscape-font-specification:Lavi;text-align:center;text-anchor:middle"
   id="tspan223704">Ilyas Akhmedov - Inga Huang - Irene C. - Ivan Korotkov - Jared Tritsch - JDB - Jean-Baptiste Hebbrecht - Jessey Wright</tspan>
</tspan><tspan
         x="217.80951"
         y="782.6916"
         id="tspan223708">
</tspan><tspan
         x="217.80951"
         y="808.53077"
         id="tspan223714"><tspan
           dx="0 0 0 0 0 0 0 0 0 0 0 0 0 0 0 0 0 0 0 0 0 0 0 0 0 0 0 0 0 0 0 0 0 0 0 0 0 0 0 0 0 0 0 0 0 0 0 0 0 0 0 0 0 0 0 0 0 0 0 0 0 0 0 0 0 0 0 0 0 -0.00011539459 0 0 0 0 0 0 0 0 0 0 0 0 0 0 0 0 0.00011444092 -0.00011539459 0 0.0001001358 0 0 0 0 0 0 0 0 0 0 0 0 0 0 0 0 0 0 0 0 0 0.0001001358 0 0 0 0 0 0 0 -0.00012302399 0 0.0002117157 0 0 -0.00019264221"
           style="line-height:1.25;font-family:Lavi;-inkscape-font-specification:Lavi;text-align:center;text-anchor:middle"
           id="tspan223710">John - Jónatan Nilsson - Jon Brake - Joseph Bowman - Jurgo van den Elzen - Justin Diehl - Kai-Ting (Danil) Ko - Kasper Hansen</tspan><tspan
           dx="0.00017929077"
           id="tspan223712">
</tspan></tspan><tspan
         x="217.80951"
         y="834.10731"
         id="tspan223716">
</tspan><tspan
         x="217.80951"
         y="859.94648"
         id="tspan223720"><tspan
   dx="0 0 0 0 0 0 0 0 0 0 0 0 0 0 0 0 0 0 0 0 0 0 0 0 0 0 0 0 0 0 0 0 0 0 0 0 0 0 0 0 0 0 0 0 0 0 0 0 0 0 0 0 0 0 0 0 0 0 0 0 0 0 0 0 0 0 0 0 0 0 0.0001001358 0 0 0 0 0 0 0 0 0 0 0 0 0 0 0 0 0 0 0 0 0 0 0 0 0 0 0 0 0 0 0 0 0 0 0 0 0 0 -0.00017261505 0 0 0.00012111664"
   style="line-height:1.25;font-family:Lavi;-inkscape-font-specification:Lavi;text-align:center;text-anchor:middle"
   id="tspan223718">Kathryn Wuerstl - Ken Mingyuan Xia - Liselle - Lorentz Grip - MacCoy - Magnus Kronnäs - Mandy - marcus - Martin Owens</tspan>
</tspan><tspan
         x="217.80951"
         y="885.52302"
         id="tspan223722">
</tspan><tspan
         x="217.80951"
         y="911.36219"
         id="tspan223728"><tspan
           dx="0 0 0 0 0 0 0 0 0 0 0 0 0 0 0 0 0 0 0 0 0 0 0 0 0 0 0 0 0 0 0 0 0 0 0 0 0 0 0 0 0 0 0 0 0 0 0 0 0 0 0 0 0 0 0 0 0 0 0 0 0 0 0 0 0 0 0 0 0 0 0 0 0 0.00012111664 0 0 0 0 0 0 0 0 0 0 0 0 0 0 0 0 0 0 0 0 0 0 0 0 0 0 0 0 0 0 0 0 0 0 0 0 -0.00012779236 0 0.00012874603"
           style="line-height:1.25;font-family:Lavi;-inkscape-font-specification:Lavi;text-align:center;text-anchor:middle"
           id="tspan223724">Masked Admirer - Mathias Stærk - mattscribbles - Maurice-Marie Stromer - mefflin ross bullis-bates - Michael Gill</tspan><tspan
           dx="-0.00011539459"
           id="tspan223726">
</tspan></tspan><tspan
         x="217.80951"
         y="936.93874"
         id="tspan223730">
</tspan><tspan
         x="217.80951"
         y="962.7779"
         id="tspan223734"><tspan
   dx="0 0 0 0 0 0 0 0 0 0 0 0 0 0 0 0 0 0 0 0 0 0 0 0 0 0 0 0 0 0 0 0 0 0 0 0 0 0 0 0 0 0 0 0 0 0 0 0 0 0 0 0 0 0 0 0 0 0 0 0 0 0 0 0 0 0 0 0 0 0 0 0 0 0 0 0 0 0 0 0 0 0 0 0 0 0 0 0 0 0 0 0 0.00011634827"
   style="line-height:1.25;font-family:Lavi;-inkscape-font-specification:Lavi;text-align:center;text-anchor:middle"
   id="tspan223732">Michelle Pereira Garcia - Mike Mosher - Morten Hellesø Johansen - Muzyka Dmytro - Nazhif - Nicholas DeLateur</tspan>
</tspan><tspan
         x="217.80951"
         y="988.35445"
         id="tspan223736">
</tspan><tspan
         x="217.80951"
         y="1014.1936"
         id="tspan223740"><tspan
   dx="0 0 0 0 0 0 0 0 0 0 0 0 0 0 0 0 0 0 0 0 0 0 0 0 0 0 0 0 0 0 0 0 0 0 0 0 0 0 0 0 0 0 0 0 0 0 0 0 0 0 0 0 0 0 0 0 0 0 0 0 0 0 0 0 0 0 0 0 0 0 0 0 0 0 0 0 0 0 0 0 0 0 0 0.00012111664"
   style="line-height:1.25;font-family:Lavi;-inkscape-font-specification:Lavi;text-align:center;text-anchor:middle"
   id="tspan223738">Nick Allott - Nicki Aya - Nicolae Berbece - Nicole Heersema - Noah Summers - Noble Hays - Nora Czaykowski</tspan>
</tspan><tspan
         x="217.80951"
         y="1039.7702"
         id="tspan223742">
</tspan><tspan
         x="217.80951"
         y="1065.6094"
         id="tspan223746"><tspan
   dx="0 0 0 0 0 0 0 0 0 0 0 0 0 0 0 0 0 0 0 0 0 0 0 0 0 0 0 0 0 0 0 0 0 0 0 0 0 0 0 0 0 0 0 0 0 0 0 0 0 0 0 0 0 0 0 0 0 0 0 0 0 0 0 0 0 0 0 0 0 0 0 0 0 0 0 0 0.00011634827 0 0 0 0 0 0.00012111664 0 0 0 0 0 0 0 0 0 0 0 0.0001001358"
   style="line-height:1.25;font-family:Lavi;-inkscape-font-specification:Lavi;text-align:center;text-anchor:middle"
   id="tspan223744">Nyx - Olivier Amrein - Olivier Brun - Omar Willey - Oscar Moreno - Öykü Su Gürler - Ozone S. - Paul - Paul</tspan>
</tspan><tspan
         x="217.80951"
         y="1091.1859"
         id="tspan223748">
</tspan><tspan
         x="217.80951"
         y="1117.0252"
         id="tspan223752"><tspan
   style="line-height:1.25;font-family:Lavi;-inkscape-font-specification:Lavi;text-align:center;text-anchor:middle"
   id="tspan223750">Pavel Semenov - Peter - Peter Moonen - Petr Vlašic - Pierre Geier - Pierre Vuillemin - Pranab Shenoy - Rajul Gupta</tspan>
</tspan><tspan
         x="217.80951"
         y="1142.6017"
         id="tspan223754">
</tspan><tspan
         x="217.80951"
         y="1168.4409"
         id="tspan223758"><tspan
           dx="0 0 0 0 0 0 0 0 0 0 0 0 0 0 0 0 0 0 0 0 0 0 0 0 0 0 0 0 0 0 0 0 0 0 0 0 0 0 0 0 0 0 0 0 0 0 0 0 0 0 0 0 0 0 0 0 0 0 0 0 0 0 0 0 0 0 0 0 0 0 0 0 0 0 0 0 0 0 0 0 0 0 0 0 0 0 0 0 0 0 0 0 0 0 0 0 0 0 0 0 0 0 0 0 0 0.0001001358 0 0 0 0 -0.00017261505 0 0.00012111664 -0.00012779236"
           style="line-height:1.25;font-family:Lavi;-inkscape-font-specification:Lavi;text-align:center;text-anchor:middle"
           id="tspan223756">Ret Samys - rictic - RJ van der Weide - Roman - Rumiko Hoshino - Rustin Simons - Sami T - Samuel Mitson - Scott RussSean </tspan></tspan><tspan
         x="217.80951"
         y="1219.8525"
         id="tspan223762"><tspan
           dx="0 0 0 0 0 0 0 0 0 0 0 0 0 0 0 0 0 0 0 0 0 0 0 0 0 0 0 0 0 0 0 0 0 0 0 0 0 0 0 0 0 0 0 0 0 0 0 0 0 0 0 0 0 0 0 0 0 0 0 0 0 0 0 0 0 0 0 0 0 0 0 0 0 0 0 0.0001001358 0 0 0 0 0 0 0 0 0 0 0 0 0 0 0 0 0 0 0 0 0 0 0 0 0 0 0 0 0 0 0 -0.00018692017 0.00017929077 0 0 0 -0.00012302399 0 0 0.00012111664 -0.00014400482"
           style="line-height:1.25;font-family:Lavi;-inkscape-font-specification:Lavi;text-align:center;text-anchor:middle"
           id="tspan223760">Adams - Shadefalcon - Shane Lopez - Shawn Meyer - Sigmundur Þórir Jónsson - Simon Forster - Simon IsenbergSonny W. - </tspan></tspan><tspan
         x="217.80951"
         y="1271.2642"
         id="tspan223766"><tspan
           dx="0 0 0 0 0 0 0 0 0 0 0 0 0 0 0 0 0 0 0 0 0 0 0 0 0 0 0 0 0 0 0 0 0 0 0 0 0 0 0 0 0 0 0 0 0 0 0 0 0 0 0 0 0 0 0 0 0 0 0 0 0 0 0 0 0 0 0 0 0 0 0 0 0 0 0 0 0 0 0 0 0 0 0 0 0 0 0 0 0 0 0 0 0 0 0 0 0 0 0 0 0 0 0 0 0 0 0 0 0 -0.00017166138 0.00012397766 0 0 0 0.00012111664 -0.00014400482 0.00012111664 -0.00011062622 0 0.00017929077 -0.00016784668"
           style="line-height:1.25;font-family:Lavi;-inkscape-font-specification:Lavi;text-align:center;text-anchor:middle"
           id="tspan223764">Stanislav Vodetskyi - Stephen Bates - Steven Bennett - Stuart Dickson - surt - Tadamichi Ohkubo - tar8156TheFaico - Thomas </tspan></tspan><tspan
         x="217.80951"
         y="1322.6758"
         id="tspan223770"><tspan
           dx="0 0 0 0 0 0 0 0 0 0 0 0 0 0 0 0 0 0 0 0 0 0 0 0 0 0 0 0 0 0 0 0 0 0 0 0 0 0 0 0 0 0 0 0 0 0 0 0 0 0 0 0 0 0 0 0 0 0 0 0 0 0 0 0 0 0 0 0 0 0 0 0 0 0 0 0 0 0 0 0 0 0 0 0 0 0 0 0 0 0 0 0 0 0 0 0 0 0 0 0 0 0 0 0 0 0 0 -0.00012302399 0.0001001358 -0.00012302399 0.00015449524 0 -0.00011539459"
           style="line-height:1.25;font-family:Lavi;-inkscape-font-specification:Lavi;text-align:center;text-anchor:middle"
           id="tspan223768">Schwery - Tracey Reuben - Travis Humble - Vespertinus - Victoria - Vlad Tomash - Westen CurryXavier Claude - Yalyn </tspan></tspan><tspan
         x="217.80951"
         y="1374.0874"
         id="tspan223774"><tspan
   style="line-height:1.25;font-family:Lavi;-inkscape-font-specification:Lavi;text-align:center;text-anchor:middle"
   id="tspan223772">Vinkindo</tspan>
</tspan><tspan
         x="217.80951"
         y="1425.499"
         id="tspan223778"><tspan
           style="line-height:1.25;font-family:Lavi;-inkscape-font-specification:Lavi;text-align:center;text-anchor:middle"
           id="tspan223776">i áalahóo Amireeti bedim úwáanú den héedan be neth Inelish bedim!</tspan></tspan></text>
    <text
       xml:space="preserve"
       style="font-style:normal;font-variant:normal;font-weight:normal;font-stretch:normal;font-size:60.4335px;line-height:0.01%;font-family:Arial;-inkscape-font-specification:Arial;text-align:center;letter-spacing:0px;word-spacing:0px;text-anchor:middle;white-space:pre;inline-size:2172.97;fill:#000000;fill-opacity:1;stroke:none;stroke-width:1.25903"
       x="1276.5527"
       y="119.43591"
       id="text156260"
       transform="matrix(0.97964969,0,0,1.0207731,-9.973325,72)"><tspan
         x="1276.5527"
         y="119.43591"
         id="tspan223782"><tspan
           dx="0 0 0 0 0 0 0 0 0 0 0 0 0 0 0 0 0 0 0 0 0 0 0 0 0 0 0 0 0 0 0 0 0 0 0 0 0 0 0.00011444092"
           style="line-height:1.25;font-family:Lavi;-inkscape-font-specification:Lavi"
           id="tspan223780">Bíi dínonehóo Loyud i Ámed wa. Dínon woban betha. Meden wéedaná i meban</tspan><tspan
           y="119.43591"
           id="tspan223784"> </tspan></tspan><tspan
         x="1276.5527"
         y="194.97779"
         id="tspan223788"><tspan
           dx="0 0 0 0 0 0 0 0 0 0 0 0 0 0 0 0 0 0 0 0 0 0 0 0 0 0 0 0 0 0 0 0 0 0 0 0 0 0 0 0 0 0.00011444092"
           style="line-height:1.25;font-family:Lavi;-inkscape-font-specification:Lavi"
           id="tspan223786">ben wothem wolotheth. Áala withedim 156 wudewan hi:</tspan></tspan></text>
    <text
       xml:space="preserve"
       style="font-style:normal;font-variant:normal;font-weight:normal;font-stretch:normal;font-size:59.3739px;line-height:0.01%;font-family:Arial;-inkscape-font-specification:Arial;text-align:center;letter-spacing:0px;word-spacing:0px;text-anchor:middle;white-space:pre;inline-size:1042.11;fill:#a72f14;fill-opacity:1;stroke:none;stroke-width:1.23696"
       x="1261.4487"
       y="1684.2266"
       id="text156238"
       transform="matrix(0.9890584,0,0,1.0110626,-7.1172933,62)"><tspan
         x="1261.4487"
         y="1684.2266"
         id="tspan223792"><tspan
           style="line-height:1.25;font-family:Lavi;-inkscape-font-specification:Lavi"
           id="tspan223790">https://www.patreon.com/davidrevoy</tspan></tspan></text>
    <text
       xml:space="preserve"
       style="font-style:normal;font-variant:normal;font-weight:normal;font-stretch:normal;font-size:44.48px;line-height:0.01%;font-family:Arial;-inkscape-font-specification:Arial;text-align:center;letter-spacing:0px;word-spacing:0px;text-anchor:middle;white-space:pre;inline-size:1421.16;fill:#000000;fill-opacity:1;stroke:none;stroke-width:0.926666"
       x="1053.9769"
       y="1609.5054"
       id="text156224"
       transform="matrix(0.98446186,0,0,1.0157834,203.03926,0)"><tspan
         x="1053.9769"
         y="1609.5054"
         id="tspan223796"><tspan
           dx="0 0 0 0 0 0 0 0 0 0 0 0 0 0 0 0 0 0 0 0 0 0 0 0 0 0 0 0 0 0 0 0 0 0 0 0 0 0 0 0 0 0 0 0 0 0 0 0 0 0 0 0 0 0 -0.00011253357 0.00011253357"
           style="line-height:1.25;font-family:Lavi;-inkscape-font-specification:Lavi"
           id="tspan223794">Bóo den ne alehalath. Bíi bere den ne losheth nedebe barada, ébere</tspan><tspan
           y="1609.5054"
           id="tspan223798"> </tspan></tspan><tspan
         x="1053.9769"
         y="1665.1054"
         id="tspan223802"><tspan
           style="line-height:1.25;font-family:Lavi;-inkscape-font-specification:Lavi"
           id="tspan223800">denehal ne Loyud i Ámed beth wa!</tspan></tspan></text>
    <text
       xml:space="preserve"
       style="font-style:normal;font-variant:normal;font-weight:normal;font-stretch:normal;font-size:10.1194px;line-height:0.01%;font-family:Arial;-inkscape-font-specification:Arial;text-align:center;letter-spacing:0px;word-spacing:0px;text-anchor:middle;white-space:pre;inline-size:1388.93;fill:#000000;fill-opacity:1;stroke:none;stroke-width:0.843287"
       x="1326.9414"
       y="1981.6665"
       id="text156210"
       transform="matrix(0.9349154,0,0,1.0696155,0.40245162,-4.2812713e-5)"><tspan
         x="1326.9414"
         y="1981.6665"
         id="tspan223806"><tspan
           dx="0 0 0 0 0 0 0 0 0 0 0 0 0 0 0 0 0 0 0 0 0 0 0 0 0 0 0 0 0 0 0 0 0 0 0 0 0 0 0 0 0 0 0 0 0 0 0 0 0 0 0 0 0 0 0 0 0 0 0 0 0 0 0 0 0.00010204315"
           style="font-size:40.4778px;line-height:1.25;font-family:Lavi;-inkscape-font-specification:Lavi"
           id="tspan223804">Bodibodedal: Bíi wudeth hi eleshub wodínon wohedenan wa: Krita, G'MIC,</tspan><tspan
           y="1981.6665"
           id="tspan223808"> </tspan></tspan><tspan
         x="1326.9414"
         y="2032.2637"
         id="tspan223812"><tspan
           style="font-size:40.4778px;line-height:1.25;font-family:Lavi;-inkscape-font-specification:Lavi"
           id="tspan223810">Blender Ubuntu Gnome (GNU/Linux) beha </tspan></tspan></text>
    <text
       xml:space="preserve"
       style="font-style:normal;font-variant:normal;font-weight:normal;font-stretch:normal;font-size:10.1194px;line-height:0.01%;font-family:Arial;-inkscape-font-specification:Arial;text-align:center;letter-spacing:0px;word-spacing:0px;text-anchor:middle;white-space:pre;inline-size:1364.75;display:inline;fill:#000000;fill-opacity:1;stroke:none;stroke-width:0.843287"
       x="1340.422"
       y="1868.1459"
       id="text156180"
       transform="matrix(0.9349154,0,0,1.0696155,-10.352824,39.601361)"><tspan
         x="1340.422"
         y="1868.1459"
         id="tspan223816"><tspan
           style="font-size:40.4778px;line-height:1.25;font-family:Lavi;-inkscape-font-specification:Lavi"
           id="tspan223814">Wodínon wohel: Bíi meham dadem woho i thoded woho i minidibi...</tspan></tspan></text>
    <text
       xml:space="preserve"
       style="font-style:normal;font-variant:normal;font-weight:normal;font-stretch:normal;font-size:10.1194px;line-height:0.01%;font-family:Arial;-inkscape-font-specification:Arial;text-align:center;letter-spacing:0px;word-spacing:0px;text-anchor:middle;white-space:pre;inline-size:1324.83;display:inline;fill:#000000;fill-opacity:1;stroke:none;stroke-width:0.843287"
       x="1351.0291"
       y="1750.9141"
       id="text156150"
       transform="matrix(0.9349154,0,0,1.0696155,-19.151035,24.000061)"><tspan
         x="1351.0291"
         y="1750.9141"
         id="tspan223820"><tspan
           style="font-size:40.4778px;line-height:1.25;font-family:Lavi;-inkscape-font-specification:Lavi"
           id="tspan223818">Hudi: Creative Commons Attribution, 'David Revoy' bedim
</tspan></tspan><tspan
         x="1351.0291"
         y="1801.5113"
         id="tspan223824"><tspan
           dx="0 0 0 0 0 0 0 0 0 0 0 0 0 0 0 0 0 0 0 0 0 0 0 0 0 0 0 0 0 0 0 0 0 0 0 0 0 0 0 0 0 0 0 0 0 0 0 0 0 0 0 0 0 0 0 0 0 0 0 0 0 0 0 0 0 0 0 0 0 0 0 0 0 0 0.00011444092"
           style="font-size:40.4778px;line-height:1.25;font-family:Lavi;-inkscape-font-specification:Lavi"
           id="tspan223822">Bíi thad el ne zheheleth, shebeleth, nerabutheth, úthú beheb ne, minidibi...</tspan></tspan></text>
    <text
       xml:space="preserve"
       style="font-style:normal;font-variant:normal;font-weight:normal;font-stretch:normal;font-size:10.1194px;line-height:0.01%;font-family:Arial;-inkscape-font-specification:Arial;text-align:center;letter-spacing:0px;word-spacing:0px;text-anchor:middle;white-space:pre;inline-size:1075.54;display:inline;fill:#000000;fill-opacity:1;stroke:none;stroke-width:0.843287"
       x="1351.0291"
       y="1750.9141"
       transform="matrix(0.9349154,0,0,1.0696155,-20.416772,0)"
       id="text173892"><tspan
         x="1351.0291"
         y="1750.9141"
         id="tspan223826">
</tspan><tspan
         x="1351.0291"
         y="1750.915"
         id="tspan223828">
</tspan><tspan
         x="1351.0291"
         y="1784.7148"
         id="tspan223832"><tspan
           style="font-size:40.4778px;line-height:1.25;font-family:Lavi;-inkscape-font-specification:Lavi"
           id="tspan223830"> </tspan></tspan></text>
    <text
       xml:space="preserve"
       style="font-style:normal;font-variant:normal;font-weight:normal;font-stretch:normal;font-size:11.12px;line-height:0.01%;font-family:Arial;-inkscape-font-specification:Arial;text-align:center;letter-spacing:0px;word-spacing:0px;text-anchor:middle;white-space:pre;inline-size:252.241;display:inline;fill:#000000;fill-opacity:1;stroke:none;stroke-width:0.926666"
       x="1896.0674"
       y="942.42651"
       id="text156120"
       transform="matrix(0.98446186,0.33071288,0,1.0157834,177.37013,40)"><tspan
         x="1896.0674"
         y="942.42651"
         id="tspan223836"><tspan
           style="font-size:44.48px;line-height:1.25;font-family:Lavi;-inkscape-font-specification:Lavi"
           id="tspan223834">Áala!</tspan></tspan></text>
  </g>
</svg>
