<?xml version="1.0" encoding="UTF-8" standalone="no"?>
<!-- Created with Inkscape (http://www.inkscape.org/) -->

<svg
   id="svg2"
   version="1.1"
   inkscape:version="1.1.1 (3bf5ae0d25, 2021-09-20)"
   width="2481"
   height="3503"
   sodipodi:docname="E04P07.svg"
   xmlns:inkscape="http://www.inkscape.org/namespaces/inkscape"
   xmlns:sodipodi="http://sodipodi.sourceforge.net/DTD/sodipodi-0.dtd"
   xmlns:xlink="http://www.w3.org/1999/xlink"
   xmlns="http://www.w3.org/2000/svg"
   xmlns:svg="http://www.w3.org/2000/svg"
   xmlns:rdf="http://www.w3.org/1999/02/22-rdf-syntax-ns#"
   xmlns:cc="http://creativecommons.org/ns#"
   xmlns:dc="http://purl.org/dc/elements/1.1/">
  <sodipodi:namedview
     pagecolor="#ffffff"
     bordercolor="#666666"
     inkscape:pageopacity="0"
     inkscape:pageshadow="2"
     inkscape:window-width="1336"
     inkscape:window-height="725"
     id="namedview70"
     showgrid="false"
     inkscape:zoom="0.25181307"
     inkscape:cx="1284.6831"
     inkscape:cy="2748.0702"
     inkscape:current-layer="layer1"
     inkscape:window-x="15"
     inkscape:window-y="15"
     inkscape:window-maximized="0"
     borderopacity="1"
     inkscape:pagecheckerboard="0" />
  <metadata
     id="metadata8">
    <rdf:RDF>
      <cc:Work
         rdf:about="">
        <dc:format>image/svg+xml</dc:format>
        <dc:type
           rdf:resource="http://purl.org/dc/dcmitype/StillImage" />
        <dc:title />
      </cc:Work>
    </rdf:RDF>
  </metadata>
  <defs
     id="defs6" />
  <sodipodi:namedview
     pagecolor="#ffffff"
     bordercolor="#666666"
     borderopacity="1"
     objecttolerance="10"
     gridtolerance="10"
     guidetolerance="10"
     inkscape:pageopacity="0"
     inkscape:pageshadow="2"
     inkscape:window-width="1920"
     inkscape:window-height="1025"
     id="namedview4"
     showgrid="false"
     inkscape:zoom="0.27255257"
     inkscape:cx="1528.4552"
     inkscape:cy="2135.3742"
     inkscape:window-x="0"
     inkscape:window-y="26"
     inkscape:window-maximized="1"
     inkscape:current-layer="layer1" />
  <g
     inkscape:groupmode="layer"
     id="layer2"
     inkscape:label="artwork"
     sodipodi:insensitive="true">
    <image
       xlink:href="../gfx_Pepper-and-Carrot_by-David-Revoy_E04P07.png"
       y="0"
       x="0"
       id="image10"
       height="3503"
       width="2481" />
  </g>
  <g
     inkscape:groupmode="layer"
     id="layer3"
     inkscape:label="speechbubbles">
    <path
       style="display:inline;fill:#ffffff;stroke:none;stroke-width:1.06782"
       d="m 139.63118,283.57285 30.04672,-37.09344 -19.54103,-16.17279 8.73948,-10.47696 -15.00858,-9.15794 28.50828,-8.84999 c -19.88206,-21.0834 -46.03652,-38.408 -73.480755,-54.9597 l 39.537665,3.25393 c -2.62949,-12.60157 -11.91702,-23.351 -20.54693,-34.28336 l 42.15596,13.10005 c 0.6022,-8.64868 -7.79489,-13.56786 -14.5293,-19.1761 l 30.24494,3.77007 -4.53245,-7.01484 c 12.24132,1.79353 23.85337,3.09414 37.6235,6.08521 l -18.91086,-23.474364 36.99334,13.386794 8.73946,-10.476951 9.89626,10.350211 8.26313,-37.700178 21.78063,37.848138 11.70647,-23.618981 11.94098,20.488904 c 12.72365,-11.166353 18.76378,-23.33182 22.86935,-35.786477 11.33111,13.903812 22.61623,27.810178 38.55248,41.458214 6.24381,-4.67259 14.85834,-14.967149 25.28646,-29.562478 l 8.28386,18.614681 c 18.80818,-13.791641 34.89869,-28.216534 44.14999,-44.235031 l 2.16269,38.937757 24.70658,-21.355347 9.97022,30.329199 21.50843,-22.99437 3.47331,25.240119 28.93729,-19.773688 -0.17752,15.451353 29.28935,-13.434993 c 0,0 -6.08331,25.288558 -0.85236,29.891648 5.23095,4.60308 40.31309,-9.37531 40.31309,-9.37531 0,0 -10.78391,18.85242 -7.05311,22.19149 3.7308,3.33907 39.1856,-3.08477 39.1856,-3.08477 l -28.28345,31.54557 c 22.74442,8.57662 45.51983,17.12284 72.65238,21.39777 0,0 -32.37738,20.97411 -33.05251,25.58047 -0.67512,4.60637 16.32801,8.95638 16.32801,8.95638 l -31.26591,15.10072 37.05572,14.55236 -62.05199,1.62985 29.63845,30.14511 -47.97239,-24.58519 22.88711,57.76977 C 581.86271,280.04694 550.5945,263.27574 517.76255,248.0375 l 12.51454,20.19633 -42.6589,-22.15534 -1.46446,48.22243 -18.58248,-36.20912 c -13.34452,20.76801 -20.06176,42.81081 -22.24213,65.72629 -4.02499,-20.36509 -15.72579,-40.30386 -32.33072,-59.97023 l -8.843,45.90729 -26.74207,-33.93928 -11.91396,27.91141 -24.57643,-32.24291 -21.91375,52.99153 -7.87853,-48.61184 -13.34884,20.72452 -9.56786,-23.08497 -20.85461,34.76625 3.10053,-37.41344 c -22.20041,18.89855 -37.23931,30.77666 -55.45745,45.77138 l 17.98483,-49.14 -30.75085,24.41603 10.52937,-34.19277 -26.14148,14.16848 2.97331,-21.05658 z"
       id="path3497"
       inkscape:connector-curvature="0"
       sodipodi:nodetypes="ccccccccccccccccccccccccccccccccccczczccczccccccccccccccccccccccccccccccc" />
    <path
       style="fill:#ffffff;stroke:none;stroke-width:1px;stroke-linecap:butt;stroke-linejoin:miter;stroke-opacity:1;color:#000000;fill-opacity:1;fill-rule:nonzero;marker:none;visibility:visible;display:inline;overflow:visible;enable-background:accumulate"
       d="m 208.59272,300.64828 c -0.90692,-40.81162 28.11467,-66.20552 34.46315,-68.92629 6.34847,-2.72078 215.84812,-15.41773 239.42816,1.81385 23.58005,17.23157 29.0216,29.02159 26.30082,44.43931 -2.72077,15.41773 -17.23157,56.22935 -50.78779,68.01937 -33.55622,11.79002 -111.55176,17.23157 -152.36338,8.16232 -40.81162,-9.06924 -100.66866,-18.13849 -97.04096,-53.50856 z"
       id="path3517"
       inkscape:connector-curvature="0" />
    <path
       style="fill:#ffffff;stroke:none;stroke-width:1px;stroke-linecap:butt;stroke-linejoin:miter;stroke-opacity:1;color:#000000;fill-opacity:1;fill-rule:nonzero;marker:none;visibility:visible;display:inline;overflow:visible;enable-background:accumulate"
       d="m 409.93004,381.36459 c -5.44155,-29.0216 9.06925,-106.11021 120.62101,-99.76174 111.55176,6.34848 129.69026,42.62547 132.41103,53.50857 2.72078,10.8831 26.30082,72.55399 -60.76396,88.87864 -87.06479,16.32465 -165.06033,-0.90693 -192.26808,-42.62547 z"
       id="path3525"
       inkscape:connector-curvature="0" />
    <path
       style="color:#000000;display:inline;overflow:visible;visibility:visible;fill:#ffffff;fill-opacity:1;fill-rule:nonzero;stroke:none;stroke-width:0.934736px;stroke-linecap:butt;stroke-linejoin:miter;stroke-opacity:1;marker:none;enable-background:accumulate"
       d="m 786.13339,361.41224 c 22.97984,-39.90469 71.31675,-73.46091 134.70941,-87.06478 63.39267,-13.60388 180.6691,-9.97618 201.2717,-5.44155 20.6027,4.53462 133.917,20.85927 158.4817,43.53239 24.5647,22.67312 57.8458,50.78779 64.9774,79.80939 7.1318,29.02159 0.7925,98.85481 -22.1874,114.27253 -22.9798,15.41773 -127.5777,48.97395 -188.5932,50.7878 -61.0154,1.81385 -202.85648,-12.69695 -243.2693,-22.67313 -40.41283,-9.97617 -83.20287,-22.67312 -95.88141,-54.41549 -12.67853,-31.74237 -36.45078,-73.46091 -9.5089,-118.80716 z"
       id="path3533"
       inkscape:connector-curvature="0" />
    <path
       style="fill:#ffffff;stroke:none;stroke-width:1px;stroke-linecap:butt;stroke-linejoin:miter;stroke-opacity:1;color:#000000;fill-opacity:1;fill-rule:nonzero;marker:none;visibility:visible;display:inline;overflow:visible;enable-background:accumulate"
       d="M 950.45727,823.94393 C 1121.8661,759.55226 1165.3985,589.05039 1147.26,494.7302 c -18.1385,-94.32019 -40.8117,-38.99777 -40.8117,-38.99777 l -4.5346,33.55622 c 0,0 70.7402,243.05587 -151.45643,334.65528 z"
       id="path3541"
       inkscape:connector-curvature="0" />
    <path
       style="fill:#ffffff;stroke:none;stroke-width:1px;stroke-linecap:butt;stroke-linejoin:miter;stroke-opacity:1;color:#000000;fill-opacity:1;fill-rule:nonzero;marker:none;visibility:visible;display:inline;overflow:visible;enable-background:accumulate"
       d="m 1772.1312,1416.1659 c 41.3111,14.9733 83.4399,29.7809 9.9762,68.0193 69.7589,-9.8619 27.08,11.2936 9.9761,25.3939 124.591,-27.8993 44.1779,17.1356 13.6039,44.4393 27.7606,-10.8815 72.0018,-41.5396 55.3224,0.907 8.8262,-1.952 19.2115,-7.5421 23.5801,0.9069 11.2458,-5.8344 19.6007,-7.3326 24.487,-3.6277 11.0527,-10.6176 18.1944,-13.4132 18.1385,-1.8138 10.4494,-8.747 13.6675,-5.7365 16.3246,-1.8139 17.9337,-18.7794 24.6315,-13.4817 31.7424,-9.0692 10.1538,-11.2754 22.0363,-8.7216 35.37,5.4415 13.6427,-19.1765 28.3025,-18.0098 43.5324,-5.4415 4.4732,-4.7241 8.5356,-12.7337 14.5108,-5.4416 6.0462,-2.5224 12.0923,-8.9861 18.1385,-2.7208 63.8142,-24.8239 91.6486,-3.8551 121.528,14.5108 16.6601,-8.1084 28.6656,-23.7806 57.1362,-12.6969 2.6614,-11.3179 17.927,-15.9134 44.4393,-14.5108 -27.1931,-13.6589 -28.5921,-21.4349 34.4632,-14.5108 -43.9498,-11.1854 -84.4517,-22.3708 -16.3247,-33.5562 -15.9561,-4.4407 -68.1098,6.0056 -10.8831,-47.1601 -40.6366,11.7341 -77.5269,14.7828 -88.8786,-32.6493 -21.9228,12.4739 -46.196,18.6532 -65.2986,-9.9762 -17.399,13.4143 -41.7433,10.1938 -54.4155,3.6277 -3.4286,14.6914 -29.3201,37.2228 -64.3916,-3.6277 7.6949,23.2186 1.8706,60.2009 -38.9978,-0.9069 -0.8105,10.63 16.0189,68.4385 -97.9479,-0.907 14.2165,46.5252 -23.6232,19.4535 -53.5086,3.6277 14.8199,29.1701 -7.4834,31.4259 -56.2293,14.5108 37.6041,27.6974 -1.0616,20.0503 -25.3939,19.0455 z"
       id="path3549"
       inkscape:connector-curvature="0"
       sodipodi:nodetypes="ccccccccccccccccccccccccccccc" />
    <path
       style="color:#000000;fill:#ffffff;fill-opacity:1;fill-rule:nonzero;stroke:none;stroke-width:1px;marker:none;visibility:visible;display:inline;overflow:visible;enable-background:accumulate"
       d="m 1643.3794,2038.9036 c 23.7472,2.3728 15.1535,-15.3286 1.0554,-36.4465 5.5113,0.9126 17.651,24.2663 11.6093,-13.9355 12.7096,3.9494 23.0989,2.3017 18.9971,-34.3026 10.3679,-1.1294 37.4665,18.9828 16.8863,-21.4392 22.2869,13.6616 36.8483,13.1986 48.548,7.5038 39.7585,28.5917 40.6066,12.0165 52.7696,8.5757 13.1875,8.0643 27.9449,8.1564 45.3818,-5.3598 4,10.7726 19.1899,8.5559 37.9941,2.1439 13.8336,25.3753 53.2886,11.7154 82.3206,13.9354 36.6076,24.9668 93.4959,5.3023 141.4225,5.3598 39.2445,-4.0899 88.8424,2.3364 110.8162,-19.2952 -4.9747,19.2227 10.5606,9.2806 26.3848,-1.072 3.1048,3.7535 -17.0735,21.6962 34.8279,-4.2878 -1.4013,8.8845 -7.0876,20.4894 24.274,8.5757 3.5625,5.4962 -21.84,27.1259 42.2157,-1.072 0.3418,7.7695 -11.7916,23.0265 32.7171,4.2878 -36.1064,46.1618 -16.0948,41.2212 8.4431,32.1587 -13.347,21.3309 -46.5011,48.4098 -4.2215,53.5979 -38.0188,6.2909 -28.3254,21.8124 -23.2186,36.4465 -47.65,-29.4686 -53.2487,-7.0735 -73.8775,-3.2159 -21.7777,-4.9023 -41.8405,-22.8673 -67.545,2.144 -39.3779,-10.2926 -47.185,-0.8521 -60.1574,5.3598 -68.7962,-19.7519 -67.1712,-3.7407 -98.1515,-4.2879 -18.3167,-24.433 -59.6512,-6.0043 -89.7083,-8.5756 -37.9941,-20.0352 -84.7665,-7.5561 -113.9823,2.1439 -11.9439,-8.2795 -20.4199,-20.8639 -50.6588,-6.4317 -19.7141,-15.8736 -40.4261,-16.5456 -62.2681,0 -5.7187,-9.9754 -21.5744,-11.5851 -61.2127,6.4317 17.8746,-16.5226 -5.6966,-23.0222 -31.6618,-28.9429 z"
       id="path3557"
       inkscape:connector-curvature="0"
       sodipodi:nodetypes="cccccccccccccccccccccccccccccc" />
    <path
       style="fill:#ffffff;stroke:none;stroke-width:1px;stroke-linecap:butt;stroke-linejoin:miter;stroke-opacity:1;color:#000000;fill-opacity:1;fill-rule:nonzero;marker:none;visibility:visible;display:inline;overflow:visible;enable-background:accumulate"
       d="m 40.779877,2160.8623 c -1.199408,-34.7828 47.976326,-69.5657 129.536083,-71.9645 81.55975,-2.3988 151.12542,25.1876 158.32187,61.1698 7.19645,35.9823 -71.96449,70.7651 -142.72957,71.9645 -70.76508,1.1994 -137.931934,-8.3959 -145.128383,-61.1698 z"
       id="path3565"
       inkscape:connector-curvature="0" />
    <path
       style="fill:#ffffff;stroke:none;stroke-width:1px;stroke-linecap:butt;stroke-linejoin:miter;stroke-opacity:1;color:#000000;fill-opacity:1;fill-rule:nonzero;marker:none;visibility:visible;display:inline;overflow:visible;enable-background:accumulate"
       d="m 247.07808,2310.7883 c 13.19349,-74.3633 59.9704,-118.7414 287.85795,-135.5331 227.88755,-16.7917 257.87275,69.5657 265.0692,112.7444 7.19645,43.1786 1.19941,106.7473 -62.36922,139.1313 -63.56863,32.384 -202.69998,39.5805 -253.07512,31.1846 -50.37514,-8.3958 -139.13134,-17.9911 -167.91714,-45.5775 -28.7858,-27.5864 -65.96745,-37.1817 -69.56567,-101.9497 z"
       id="path3573"
       inkscape:connector-curvature="0" />
    <path
       style="fill:#ffffff;stroke:none;stroke-width:1px;stroke-linecap:butt;stroke-linejoin:miter;stroke-opacity:1;color:#000000;fill-opacity:1;fill-rule:nonzero;marker:none;visibility:visible;display:inline;overflow:visible;enable-background:accumulate"
       d="m 892.35966,2295.196 c -49.17574,-37.1817 -124.73845,26.387 -124.73845,26.387 l 21.58935,11.9941 c 0,0 59.97041,-49.1758 103.1491,-38.3811 z"
       id="path3581"
       inkscape:connector-curvature="0" />
    <path
       style="fill:#ffffff;stroke:none;stroke-width:1px;stroke-linecap:butt;stroke-linejoin:miter;stroke-opacity:1;color:#000000;fill-opacity:1;fill-rule:nonzero;marker:none;visibility:visible;display:inline;overflow:visible;enable-background:accumulate"
       d="m 257.09349,2188.3533 49.68371,70.188 18.13849,-21.293 -52.0496,-57.57 -11.82945,7.0977 z"
       id="path3589"
       inkscape:connector-curvature="0" />
    <path
       style="color:#000000;display:inline;overflow:visible;visibility:visible;fill:#ffffff;fill-opacity:1;fill-rule:nonzero;stroke:none;stroke-width:1.06358px;stroke-linecap:butt;stroke-linejoin:miter;stroke-opacity:1;marker:none;enable-background:accumulate"
       d="m 1565.3346,3050.2205 c -9.4439,-36.3753 18.8876,-85.2734 44.5208,-92.4292 25.6332,-7.1558 114.6748,-21.4675 173.3613,-17.8896 58.6865,3.578 102.4425,9.2307 111.8862,53.9545 9.4439,44.7239 -8.7459,92.1225 -65.432,108.5299 -40.6528,11.7666 -114.2083,13.7586 -167.4984,4.8138 -53.29,-8.9447 -90.7668,-27.1635 -96.8379,-56.9794 z"
       id="path3064"
       inkscape:connector-curvature="0"
       sodipodi:nodetypes="csssssc" />
    <path
       style="fill:#ffffff;stroke:none;stroke-width:1px;stroke-linecap:butt;stroke-linejoin:miter;stroke-opacity:1;color:#000000;fill-opacity:1;fill-rule:nonzero;marker:none;visibility:visible;display:inline;overflow:visible;enable-background:accumulate"
       d="m 1503.9136,2986.5888 c 25.0453,32.7974 35.779,42.9348 82.2918,29.8159 46.5128,-13.119 50.0907,4.7705 50.0907,4.7705 l -22.6601,25.0453 c 0,0 -100.7777,20.8712 -109.7224,-59.6317 z"
       id="path3072"
       inkscape:connector-curvature="0" />
  </g>
  <g
     inkscape:groupmode="layer"
     id="layer1"
     inkscape:label="txt"
     style="display:inline">
    <text
       xml:space="preserve"
       style="font-style:normal;font-variant:normal;font-weight:normal;font-stretch:normal;font-size:48px;line-height:0.01%;font-family:Lavi;-inkscape-font-specification:Lavi;letter-spacing:0px;word-spacing:0px;white-space:pre;inline-size:415.949;fill:#000000;fill-opacity:1;stroke:none"
       x="219.62964"
       y="159.31035"
       id="text61155"
       transform="translate(-36)"><tspan
         x="219.62964"
         y="159.31035"
         id="tspan19056"><tspan
           style="line-height:1.25;text-align:center;text-anchor:middle"
           id="tspan19054">Báa thad di hi </tspan></tspan><tspan
         x="219.62964"
         y="219.31034"
         id="tspan19060"><tspan
           style="line-height:1.25;text-align:center;text-anchor:middle"
           id="tspan19058">worazhe wobebáa?</tspan></tspan></text>
    <text
       xml:space="preserve"
       style="font-style:normal;font-variant:normal;font-weight:normal;font-stretch:normal;font-size:48px;line-height:0.01%;font-family:Lavi;-inkscape-font-specification:Lavi;letter-spacing:0px;word-spacing:0px;white-space:pre;inline-size:202.092;fill:#000000;fill-opacity:1;stroke:none"
       x="267.51865"
       y="299.84399"
       id="text61141"
       transform="translate(-8)"><tspan
         x="267.51865"
         y="299.84399"
         id="tspan19064"><tspan
           style="line-height:1.25;text-align:center;text-anchor:middle"
           id="tspan19062">Etham?</tspan></tspan></text>
    <text
       xml:space="preserve"
       style="font-style:normal;font-variant:normal;font-weight:normal;font-stretch:normal;font-size:48px;line-height:0.01%;font-family:Lavi;-inkscape-font-specification:Lavi;letter-spacing:0px;word-spacing:0px;white-space:pre;inline-size:182.817;fill:#000000;fill-opacity:1;stroke:none"
       x="460.37085"
       y="366.86606"
       id="text61135"
       transform="translate(-6)"><tspan
         x="460.37085"
         y="366.86606"
         id="tspan19068"><tspan
           style="line-height:1.25;text-align:center;text-anchor:middle"
           id="tspan19066">Edelin?</tspan></tspan></text>
    <text
       xml:space="preserve"
       style="font-style:normal;font-variant:normal;font-weight:normal;font-stretch:normal;font-size:48px;line-height:0.01%;font-family:Lavi;-inkscape-font-specification:Lavi;letter-spacing:0px;word-spacing:0px;white-space:pre;inline-size:539.158;fill:#000000;fill-opacity:1;stroke:none"
       x="906.84375"
       y="338.55042"
       id="text61129"
       transform="translate(-116,32)"><tspan
         x="906.84375"
         y="338.55042"
         id="tspan19072"><tspan
           style="line-height:1.25;text-align:center;text-anchor:middle"
           id="tspan19070">Ámed! Thad di ra le </tspan></tspan><tspan
         x="906.84375"
         y="398.55042"
         id="tspan19076"><tspan
           style="line-height:1.25;text-align:center;text-anchor:middle"
           id="tspan19074">medáaneth, i thad en </tspan></tspan><tspan
         x="906.84375"
         y="458.55042"
         id="tspan19080"><tspan
           style="line-height:1.25;text-align:center;text-anchor:middle"
           id="tspan19078">rawith hith wa!</tspan></tspan></text>
    <text
       xml:space="preserve"
       style="font-style:normal;font-variant:normal;font-weight:normal;font-stretch:normal;font-size:48px;line-height:0.01%;font-family:Lavi;-inkscape-font-specification:Lavi;letter-spacing:0px;word-spacing:0px;white-space:pre;inline-size:572.598;display:inline;fill:#ffffff;fill-opacity:1;stroke:none"
       x="189.15501"
       y="1491.1597"
       id="text61099"><tspan
         x="189.15501"
         y="1491.1597"
         id="tspan19084"><tspan
           style="line-height:1.25;text-align:center;text-anchor:middle"
           id="tspan19082">... thad en rawith hith ...</tspan></tspan></text>
    <text
       xml:space="preserve"
       style="font-style:normal;font-variant:normal;font-weight:normal;font-stretch:normal;font-size:73.2667px;line-height:0.01%;font-family:Lavi;-inkscape-font-specification:Lavi;letter-spacing:0px;word-spacing:0px;white-space:pre;inline-size:400.888;display:inline;fill:#000000;fill-opacity:1;stroke:none;stroke-width:1.52639"
       x="1874.0771"
       y="1482.8817"
       id="text61085"
       transform="scale(0.99563337,1.0043858)"><tspan
         x="1874.0771"
         y="1482.8817"
         id="tspan19088"><tspan
           style="line-height:1.25;text-align:center;text-anchor:middle"
           id="tspan19086">Lhlhlhlhlh!!!</tspan></tspan></text>
    <text
       xml:space="preserve"
       style="font-style:normal;font-variant:normal;font-weight:normal;font-stretch:normal;font-size:48px;line-height:0.01%;font-family:Lavi;-inkscape-font-specification:Lavi;letter-spacing:0px;word-spacing:0px;white-space:pre;inline-size:836.732;display:inline;fill:#000000;fill-opacity:1;stroke:none"
       x="1706.8546"
       y="2013.9236"
       id="text61079"
       transform="translate(-122)"><tspan
         x="1706.8546"
         y="2013.9236"
         id="tspan19092"><tspan
           style="line-height:1.25;text-align:center;text-anchor:middle"
           id="tspan19090">Shóo ra dal únalú néde lhe wa!</tspan></tspan></text>
    <text
       xml:space="preserve"
       style="font-style:normal;font-variant:normal;font-weight:normal;font-stretch:normal;font-size:48px;line-height:0.01%;font-family:Lavi;-inkscape-font-specification:Lavi;letter-spacing:0px;word-spacing:0px;white-space:pre;inline-size:152.103;display:inline;fill:#000000;fill-opacity:1;stroke:none"
       x="120.76323"
       y="2164.79"
       id="text61073"><tspan
         x="120.76323"
         y="2164.79"
         id="tspan19096"><tspan
           style="line-height:1.25;text-align:center;text-anchor:middle"
           id="tspan19094">Lhlh...</tspan></tspan></text>
    <text
       xml:space="preserve"
       style="font-style:normal;font-variant:normal;font-weight:normal;font-stretch:normal;font-size:48px;line-height:0.01%;font-family:Lavi;-inkscape-font-specification:Lavi;letter-spacing:0px;word-spacing:0px;white-space:pre;inline-size:425.188;display:inline;fill:#000000;fill-opacity:1;stroke:none"
       x="365.91858"
       y="2276.2354"
       id="text61067"
       transform="translate(-46,-8)"><tspan
         x="365.91858"
         y="2276.2354"
         id="tspan19100"><tspan
           style="line-height:1.25;text-align:center;text-anchor:middle"
           id="tspan19098">Bíi ham wothen </tspan></tspan><tspan
         x="365.91858"
         y="2336.2354"
         id="tspan19104"><tspan
           style="line-height:1.25;text-align:center;text-anchor:middle"
           id="tspan19102">wohath úwanú el le </tspan></tspan><tspan
         x="365.91858"
         y="2396.2354"
         id="tspan19108"><tspan
           style="line-height:1.25;text-align:center;text-anchor:middle"
           id="tspan19106">worazhe worana wa</tspan></tspan></text>
    <text
       xml:space="preserve"
       style="font-style:normal;font-variant:normal;font-weight:normal;font-stretch:normal;font-size:73.4891px;line-height:0.01%;font-family:Lavi;-inkscape-font-specification:Lavi;letter-spacing:0px;word-spacing:0px;display:inline;fill:#ffffff;fill-opacity:1;stroke:none;stroke-width:1.53102"
       x="2005.2949"
       y="2688.3811"
       id="text61045"
       transform="matrix(0.92442767,-0.18884127,-0.0286399,1.0876009,0,0)"><tspan
         sodipodi:role="line"
         x="2005.2949"
         y="2688.3811"
         id="tspan61043"
         style="font-size:73.4891px;stroke-width:1.53102"><tspan
           x="2005.2949"
           y="2688.3811"
           style="font-size:73.4891px;line-height:1.25;text-align:center;text-anchor:middle;stroke-width:1.53102"
           id="tspan61041">WU...LH...ÚDDDD!</tspan></tspan></text>
    <text
       xml:space="preserve"
       style="font-style:normal;font-variant:normal;font-weight:normal;font-stretch:normal;font-size:40.2227px;line-height:0.01%;font-family:Lavi;-inkscape-font-specification:Lavi;letter-spacing:0px;word-spacing:0px;white-space:pre;inline-size:278.459;display:inline;fill:#000000;fill-opacity:1;stroke:none;stroke-width:0.837973"
       x="1656.9641"
       y="2962.5637"
       id="text61039"
       transform="matrix(0.98402701,0,0,1.0162323,-40,-4)"><tspan
         x="1656.9641"
         y="2962.5637"
         id="tspan19112"><tspan
           style="line-height:1.25;text-align:center;text-anchor:middle"
           id="tspan19110">Bóo áana ne </tspan></tspan><tspan
         x="1656.9641"
         y="3012.8421"
         id="tspan19116"><tspan
           style="line-height:1.25;text-align:center;text-anchor:middle"
           id="tspan19114">thalenal, Ámed</tspan></tspan></text>
    <text
       xml:space="preserve"
       style="font-style:normal;font-variant:normal;font-weight:normal;font-stretch:normal;font-size:48px;line-height:0.01%;font-family:Lavi;-inkscape-font-specification:Lavi;letter-spacing:0px;word-spacing:0px;white-space:pre;inline-size:635.105;display:inline;fill:#000000;fill-opacity:1;stroke:none"
       x="1939.2095"
       y="3459.325"
       id="text61025"
       transform="translate(-160)"><tspan
         x="1939.2095"
         y="3459.325"
         id="tspan19120"><tspan
           style="line-height:1.25;text-align:center;text-anchor:middle"
           id="tspan19118">Bé aril dedideth nádideshub...</tspan></tspan></text>
    <text
       xml:space="preserve"
       style="font-style:normal;font-variant:normal;font-weight:normal;font-stretch:normal;font-size:12.0121px;line-height:0.01%;font-family:Lavi;-inkscape-font-specification:Lavi;letter-spacing:0px;word-spacing:0px;display:inline;opacity:0.4;fill:#3fd7f8;fill-opacity:1;stroke:none;stroke-width:1.00101"
       x="3051.2427"
       y="3447.9692"
       id="text25105"
       transform="matrix(1.031235,0,-0.28639181,0.96971107,0,0)"><tspan
         sodipodi:role="line"
         x="3051.2427"
         y="3447.9692"
         id="tspan25103"
         style="font-size:32.8503px;line-height:1.25;text-align:end;text-anchor:end;fill:#3fd7f8;fill-opacity:1;stroke-width:1.00101">David Revoy</tspan><tspan
         sodipodi:role="line"
         x="3051.2427"
         y="3485.8091"
         style="font-size:29.3333px;line-height:1.25;text-align:end;text-anchor:end;fill:#3fd7f8;fill-opacity:1;stroke-width:1.00101"
         id="tspan25111">11/2014</tspan></text>
  </g>
</svg>
