<?xml version="1.0" encoding="UTF-8" standalone="no"?>
<!-- Created with Inkscape (http://www.inkscape.org/) -->

<svg
   xmlns:dc="http://purl.org/dc/elements/1.1/"
   xmlns:cc="http://creativecommons.org/ns#"
   xmlns:rdf="http://www.w3.org/1999/02/22-rdf-syntax-ns#"
   xmlns:svg="http://www.w3.org/2000/svg"
   xmlns="http://www.w3.org/2000/svg"
   xmlns:xlink="http://www.w3.org/1999/xlink"
   xmlns:sodipodi="http://sodipodi.sourceforge.net/DTD/sodipodi-0.dtd"
   xmlns:inkscape="http://www.inkscape.org/namespaces/inkscape"
   id="svg2"
   version="1.1"
   inkscape:version="0.92.4 (5da689c313, 2019-01-14)"
   width="2481"
   height="3503"
   sodipodi:docname="E36P01.svg">
  <metadata
     id="metadata8">
    <rdf:RDF>
      <cc:Work
         rdf:about="">
        <dc:format>image/svg+xml</dc:format>
        <dc:type
           rdf:resource="http://purl.org/dc/dcmitype/StillImage" />
      </cc:Work>
    </rdf:RDF>
  </metadata>
  <defs
     id="defs6" />
  <sodipodi:namedview
     pagecolor="#1e1e1e"
     bordercolor="#111111"
     borderopacity="1"
     objecttolerance="10"
     gridtolerance="10"
     guidetolerance="10"
     inkscape:pageopacity="0"
     inkscape:pageshadow="2"
     inkscape:window-width="1600"
     inkscape:window-height="847"
     id="namedview4"
     showgrid="false"
     inkscape:zoom="0.52900002"
     inkscape:cx="961.56885"
     inkscape:cy="1260.9123"
     inkscape:window-x="-8"
     inkscape:window-y="-8"
     inkscape:window-maximized="1"
     inkscape:current-layer="layer3"
     inkscape:pagecheckerboard="0"
     inkscape:snap-global="false" />
  <g
     inkscape:groupmode="layer"
     id="layer2"
     inkscape:label="artwork"
     sodipodi:insensitive="true">
    <image
       sodipodi:absref="D:\Pepper&amp;Carrot\code\ep36_The-Surprise-Attack\lang\ro\../gfx_Pepper-and-Carrot_by-David-Revoy_E36P01.png"
       xlink:href="../gfx_Pepper-and-Carrot_by-David-Revoy_E36P01.png"
       width="2481"
       height="3503"
       id="image10"
       x="0"
       y="0" />
  </g>
  <g
     inkscape:groupmode="layer"
     id="layer3"
     inkscape:label="speechbubbles"
     style="display:inline">
    <path
       style="display:inline;fill:#ffffff;fill-rule:evenodd;stroke:none;stroke-width:0.79280788px;stroke-linecap:butt;stroke-linejoin:miter;stroke-opacity:1"
       d="m 1017.3424,1847.5959 c 50.442,18.6105 79.1747,11.0422 78.3087,-32.2181 24.0657,46.7485 40.7663,57.2039 50.6707,34.1707 31.8613,19.7977 51.7613,14.244 67.5607,0 5.889,18.3191 15.8991,14.5249 43.6911,-5.7092 -5.1685,10.0936 -10.5933,34.4674 39.8099,3.7392 -23.2152,18.0948 -6.3146,18.4416 22.9428,6.2791 -9.5994,18.5144 26.8142,5.0828 57.8516,-21.8825 -22.2828,27.9112 -13.3007,31.7885 6.5333,19.9666 -9.068,12.7207 -3.9049,20.4672 24.176,4.4408 -11.7947,23.4798 0.5962,14.092 45.4119,-8.3845 -36.9833,24.7902 -51.0195,44.7944 -23.9153,45.4838 -8.3864,2.1213 -27.7924,13.7517 36.8514,25.3834 -15.1286,1.1149 -43.2757,4.0323 -16.5557,14.3005 -16.1309,-3.3575 -23.2905,2.6484 -0.8372,12.4053 -16.1567,-1.5599 -34.8844,-5.5525 -9.677,9.7127 -28.3494,-0.5186 -24.0678,3.0634 -3.2544,15.9405 -41.054,-16.5183 -37.6044,29.9177 -38.8196,36.5278 -51.4528,-22.5203 -37.6563,-11.1813 -44.6019,-6.4906 -25.0795,0.1753 -51.5732,-37.2176 -76.6527,-12.1028 -6.568,-15.6207 -19.7357,-0.9052 -75.238,10.1428 24.3696,-19.8729 -19.4997,-2.2747 -46.0519,5.913 14.5405,-24.8258 -9.3323,-22.5923 -56.0676,1.5612 26.1714,-27.4145 -7.3811,-35.1285 -51.4274,-15.6644 16.6418,-26.9322 -10.4615,-39.9566 -75.2383,-41.0047 30.4601,-10.5776 49.0841,-21.9399 16.89028,-43.9327 36.29172,6.4756 47.11712,0.4606 21.49672,-23.4313 39.5844,19.6102 21.5867,-8.8333 6.1419,-35.1466 z"
       id="path4508-2"
       inkscape:connector-curvature="0"
       sodipodi:nodetypes="cccccccccccccccccccccccccccc" />
    <path
       style="display:inline;fill:#ffffff;fill-rule:evenodd;stroke:none;stroke-width:0.68775463px;stroke-linecap:butt;stroke-linejoin:miter;stroke-opacity:1"
       d="m 1365.9986,2114.8904 c -33.3984,-23.4966 -56.2506,-27.7732 -48.4568,18.5945 -32.5972,-45.4606 -37.1656,-27.1852 -43.8078,-2.5679 -28.9175,-35.4026 -41.5311,-15.2793 -47.8143,0.9011 -6.5086,-33.0962 -17.2682,-7.9644 -24.1968,2.0655 1.856,-29.0753 -6.4147,-32.5903 -29.1588,-0.2189 4.453,-12.9683 11.3011,-37.4137 -22.8527,-9.7537 6.7127,-27.1723 -15.534,-8.8652 -34.4539,15.8288 10.4925,-33.0439 -3.8166,-25.6648 -17.6651,-12.8333 6.215,-13.6435 20.866,-34.8845 -9.8964,-18.3146 14.7513,-19.9519 0.3301,-15.6157 -27.1513,4.5607 22.8295,-26.0237 43.2309,-45.8162 12.4029,-41.5316 4.1897,-7.8931 19.45,-14.9892 -26.4853,-26.492 8.4611,-5.4625 34.6525,1.7931 12.5643,-20.2423 -2.9536,-2.5689 6.7785,-4.3551 -11.9451,-10.9136 10.9984,0.2635 17.7142,-1.5433 7.4354,-11.5589 20.072,0.1732 12.4041,-10.418 -2.5316,-23.8292 29.3184,17.0119 25.9083,-15.5887 26.6629,-22.6318 36.7737,23.2536 41.2589,8.6143 46.0996,3.5354 17.7465,-0.5209 34.8203,20.1123 52.1689,-6.9201 4.8977,16.5178 15.0852,19.9472 54.1891,7.4626 -16.93,21.4505 16.1827,6.7566 34.8436,-2.3012 -9.8946,26.5846 12.6756,20.3789 45.3658,-5.9202 -18.0848,29.4915 33.3856,13.4561 49.3826,4.6815 -1.9618,11.908 -15.8823,51.6778 29.9784,51.9281 -21.7873,10.74 -29.1869,20.8825 -6.0518,43.8322 -25.7877,-6.3998 -33.3531,0.1388 -14.84,25.195 -37.343,-12.0114 -22.4594,16.4256 -3.7858,37.4439 z"
       id="path4508-2-3"
       inkscape:connector-curvature="0"
       sodipodi:nodetypes="cccccccccccccccccccccccccccc" />
    <path
       style="fill:#ffffff;fill-rule:evenodd;stroke:none;stroke-width:1.01927px;stroke-linecap:butt;stroke-linejoin:miter;stroke-opacity:1"
       d="m 795.85859,2075.6026 c 68.17018,-19.9402 107.76468,-24.6985 129.19825,-26.9041 -9.4626,14.6823 -10.93703,18.8605 -3.60753,19.5618 12.56737,1.2024 323.02739,-38.3324 323.02739,-38.3324 l -134.9102,-3.9965 c 0,0 -88.3447,16.493 -115.60557,20.8649 -27.26123,4.3719 -53.63946,7.3565 -53.63946,7.3565 0,0 11.08456,-17.0097 8.79652,-16.5151 -9.73596,2.1047 -32.55208,-8.0957 -153.2594,37.9649 z"
       id="path891"
       inkscape:connector-curvature="0"
       sodipodi:nodetypes="ccsccscsc" />
    <path
       style="display:inline;fill:#ffffff;fill-rule:evenodd;stroke:none;stroke-width:1.29064822px;stroke-linecap:butt;stroke-linejoin:miter;stroke-opacity:1"
       d="m 983.14153,2516.8386 c 31.84857,38.9182 48.30677,69.3917 1.49533,42.2983 23.40904,24.5721 17.13804,28.3578 -3.98115,34.6637 18.62218,16.4763 45.48949,52.8 7.20129,64.8746 55.2151,10.8073 25.6909,41.9453 -3.15382,64.6309 84.26422,-26.0406 74.95192,3.2046 56.25862,33.0081 41.8083,-37.3533 43.7564,-26.2679 24.8201,23.4781 27.2392,-35.9552 34.5132,-46.3598 33.9906,-4.8259 16.8468,-34.3697 38.8066,-55.7164 55.1036,-16.1704 21.984,-56.8447 46.5967,-7.2738 65.2963,12.4318 4.5873,-42.238 21.78,-53.2162 52.6128,-11.3328 3.1148,-25.5322 29.1615,-24.817 51.4916,11.7323 -27.9372,-71.7934 20.8087,-7.1548 28.9373,-2.9063 -13.2505,-36.9423 17.5776,-43.2757 72.8184,-11.658 -39.6363,-34.4905 -32.1622,-50.5813 2.4074,-65.1823 -33.2734,-16.0855 -41.1807,-54.3872 13.5702,-56.0233 -68.4941,-24.417 -17.7355,-62.9044 14.1436,-86.0732 -59.9187,13.7614 -108.6453,20.3006 -77.2168,-31.1377 -68.5946,33.2733 -56.154,14.763 -47.408,-1.387 -45.8133,40.4696 -46.7998,3.0341 -45.5279,-8.5918 -61.5444,44.0156 -97.6595,14.6789 -111.4454,-18.0855 -16.1627,46.0629 -46.6813,24.0619 -65.472,0.8372 9.8175,43.3106 -9.9936,39.8884 -29.9073,22.0505 4.8997,29.1128 -13.7398,54.2662 -46.1289,13.2534 10.7675,20.3194 9.6495,50.0815 -49.90587,-9.8847 z"
       id="path4289-9"
       inkscape:connector-curvature="0"
       sodipodi:nodetypes="ccccccccccccccccccccccccc" />
    <path
       style="display:inline;fill:#ffffff;fill-rule:evenodd;stroke:none;stroke-width:1px;stroke-linecap:butt;stroke-linejoin:miter;stroke-opacity:1"
       d="m 839.35758,2683.1542 126.85528,-18.3923 -13.09351,-16.3937 103.27445,-9.3803 -13.3725,-26.4414 -117.98262,26.0585 15.22178,19.3955 z"
       id="path4667"
       inkscape:connector-curvature="0"
       sodipodi:nodetypes="cccccccc" />
  </g>
  <g
     inkscape:groupmode="layer"
     id="layer1"
     inkscape:label="txt"
     style="display:inline">
    <text
       xml:space="preserve"
       style="font-style:normal;font-variant:normal;font-weight:normal;font-stretch:normal;font-size:45px;line-height:1.25;font-family:Lavi;-inkscape-font-specification:Lavi;text-align:center;letter-spacing:0px;word-spacing:0px;text-anchor:middle;fill:#000000;fill-opacity:1;stroke:none;stroke-width:0.81838697"
       x="1458.0164"
       y="1942.4427"
       id="text4246-3-2-2-6-3-7-9-3-3-56-9-3-20-3-3-2"
       transform="skewX(-7.1285625)"><tspan
         style="font-style:normal;font-variant:normal;font-weight:bold;font-stretch:normal;font-size:45px;font-family:Lavi;-inkscape-font-specification:'Lavi Bold';stroke-width:0.81838697"
         sodipodi:role="line"
         x="1458.0164"
         y="1942.4427"
         id="tspan146">ÎȘI CERE SCUZE?</tspan></text>
    <text
       id="text4246-4-2-7"
       y="2012.4608"
       x="1210.9335"
       style="font-style:normal;font-variant:normal;font-weight:normal;font-stretch:normal;line-height:0%;font-family:Lavi;-inkscape-font-specification:Lavi;text-align:center;letter-spacing:0px;word-spacing:0px;text-anchor:middle;fill:#000000;fill-opacity:1;stroke:none"
       xml:space="preserve"
       inkscape:label="pepperB"><tspan
         y="2012.4608"
         x="1210.9335"
         style="font-size:45px;line-height:1.25"
         sodipodi:role="line"
         id="tspan6461">Cred că</tspan><tspan
         y="2068.7109"
         x="1210.9335"
         style="font-size:45px;line-height:1.25"
         sodipodi:role="line"
         id="tspan25">glumești!</tspan></text>
    <text
       xml:space="preserve"
       style="font-style:normal;font-variant:normal;font-weight:normal;font-stretch:normal;font-size:45px;line-height:1.25;font-family:Lavi;-inkscape-font-specification:Lavi;text-align:center;letter-spacing:0px;word-spacing:0px;text-anchor:middle;fill:#000000;fill-opacity:1;stroke:none;stroke-width:0.81838697"
       x="1540.7991"
       y="2605.0286"
       id="text4246-3-2-2-6-3-7-9-3-3-56-9-3-20-3-3-2-7"
       transform="skewX(-7.1285625)"><tspan
         style="font-style:normal;font-variant:normal;font-weight:bold;font-stretch:normal;font-size:45px;font-family:Lavi;-inkscape-font-specification:'Lavi Bold';stroke-width:0.81838697"
         sodipodi:role="line"
         x="1540.7991"
         y="2605.0286"
         id="tspan14740">LA ÎNCHISOARE</tspan><tspan
         style="font-style:normal;font-variant:normal;font-weight:bold;font-stretch:normal;font-size:45px;font-family:Lavi;-inkscape-font-specification:'Lavi Bold';stroke-width:0.81838697"
         sodipodi:role="line"
         x="1540.7991"
         y="2661.2786"
         id="tspan31">CU ACEASTĂ</tspan><tspan
         style="font-style:normal;font-variant:normal;font-weight:bold;font-stretch:normal;font-size:45px;font-family:Lavi;-inkscape-font-specification:'Lavi Bold';stroke-width:0.81838697"
         sodipodi:role="line"
         x="1540.7991"
         y="2717.5286"
         id="tspan33">NETOATĂ!</tspan></text>
  </g>
</svg>
