<?xml version="1.0" encoding="UTF-8" standalone="no"?>
<!-- Created with Inkscape (http://www.inkscape.org/) -->

<svg
   xmlns:dc="http://purl.org/dc/elements/1.1/"
   xmlns:cc="http://creativecommons.org/ns#"
   xmlns:rdf="http://www.w3.org/1999/02/22-rdf-syntax-ns#"
   xmlns:svg="http://www.w3.org/2000/svg"
   xmlns="http://www.w3.org/2000/svg"
   xmlns:xlink="http://www.w3.org/1999/xlink"
   xmlns:sodipodi="http://sodipodi.sourceforge.net/DTD/sodipodi-0.dtd"
   xmlns:inkscape="http://www.inkscape.org/namespaces/inkscape"
   id="svg2"
   version="1.1"
   inkscape:version="0.92.2 2405546, 2018-03-11"
   width="2481"
   height="3503"
   sodipodi:docname="E26P02.svg">
  <metadata
     id="metadata8">
    <rdf:RDF>
      <cc:Work
         rdf:about="">
        <dc:format>image/svg+xml</dc:format>
        <dc:type
           rdf:resource="http://purl.org/dc/dcmitype/StillImage" />
        <dc:title />
      </cc:Work>
    </rdf:RDF>
  </metadata>
  <defs
     id="defs6">
    <filter
       style="color-interpolation-filters:sRGB"
       id="filter4375-4-1-1-15-1-3"
       inkscape:label="deevad outline effect">
      <feFlood
         id="feFlood4377-7-9-0-4-4-4"
         flood-opacity="1"
         flood-color="rgb(0,0,0)"
         result="flood" />
      <feComposite
         id="feComposite4379-3-8-8-6-0-7"
         in2="SourceGraphic"
         in="flood"
         operator="in"
         result="composite1" />
      <feMorphology
         id="feMorphology4393-1-0-49-8-2-7"
         operator="dilate"
         radius="0.69999999999999996"
         result="result3" />
      <feComposite
         id="feComposite4385-9-5-7-2-1-2"
         in2="result3"
         in="SourceGraphic"
         operator="over"
         result="composite2" />
    </filter>
    <filter
       style="color-interpolation-filters:sRGB"
       id="filter4375-4-1-1-15-1-3-0"
       inkscape:label="deevad outline effect">
      <feFlood
         id="feFlood4377-7-9-0-4-4-4-0"
         flood-opacity="1"
         flood-color="rgb(0,0,0)"
         result="flood" />
      <feComposite
         id="feComposite4379-3-8-8-6-0-7-3"
         in2="SourceGraphic"
         in="flood"
         operator="in"
         result="composite1" />
      <feMorphology
         id="feMorphology4393-1-0-49-8-2-7-4"
         operator="dilate"
         radius="0.90000000000000002"
         result="result3" />
      <feComposite
         id="feComposite4385-9-5-7-2-1-2-6"
         in2="result3"
         in="SourceGraphic"
         operator="over"
         result="composite2" />
    </filter>
  </defs>
  <sodipodi:namedview
     pagecolor="#ffffff"
     bordercolor="#666666"
     borderopacity="1"
     objecttolerance="10"
     gridtolerance="10"
     guidetolerance="10"
     inkscape:pageopacity="0"
     inkscape:pageshadow="2"
     inkscape:window-width="1920"
     inkscape:window-height="1056"
     id="namedview4"
     showgrid="false"
     inkscape:zoom="0.37593704"
     inkscape:cx="1193.031"
     inkscape:cy="2345.1928"
     inkscape:window-x="0"
     inkscape:window-y="-8"
     inkscape:window-maximized="1"
     inkscape:current-layer="layer1"
     inkscape:snap-global="false" />
  <g
     inkscape:groupmode="layer"
     id="layer2"
     inkscape:label="artwork"
     sodipodi:insensitive="true">
    <image
       sodipodi:absref="/home/nightlock/peppercarrot/webcomics/new-ep26_Books-Are-Great/lang/kr/../gfx_Pepper-and-Carrot_by-David-Revoy_E26P02.png"
       xlink:href="../gfx_Pepper-and-Carrot_by-David-Revoy_E26P02.png"
       y="0"
       x="0"
       id="image10"
       height="3503"
       width="2481" />
  </g>
  <g
     inkscape:groupmode="layer"
     id="layer3"
     inkscape:label="speechbubbles">
    <path
       style="color:#000000;display:inline;overflow:visible;visibility:visible;fill:#ffffff;fill-opacity:1;fill-rule:nonzero;stroke:none;stroke-width:1.10954714px;marker:none;enable-background:accumulate"
       d="m 76.470802,686.04731 c -5.874812,-16.81808 3.686874,-93.08053 139.752208,-99.85058 136.06544,-6.77007 176.35034,54.69431 180.16778,77.66482 3.81745,22.97037 -3.48963,48.60519 -34.07622,66.58185 -27.2372,16.19759 -56.99345,16.52172 -103.5579,21.55383 -53.71887,6.43654 -137.8831,-3.7038 -162.017464,-21.5607 -24.134249,-17.85685 -11.251254,-14.2863 -20.268404,-44.38922 z"
       id="path3365-3"
       inkscape:connector-curvature="0"
       sodipodi:nodetypes="cssccsc" />
    <path
       style="color:#000000;display:inline;overflow:visible;visibility:visible;fill:#ffffff;fill-opacity:1;fill-rule:nonzero;stroke:none;stroke-width:1.63566649px;marker:none;enable-background:accumulate"
       d="M 181.80721,311.01848 C 194.59145,543.14637 235.94745,787.00744 378.6466,837.81258 276.65833,787.36708 219.49009,550.6603 218.48358,327.373 218.27015,280.02456 199.72673,307.82462 199.72673,307.82462 Z"
       id="path4440"
       inkscape:connector-curvature="0"
       sodipodi:nodetypes="ccscc" />
    <path
       style="fill:#ffffff;stroke:none;stroke-width:1.48598099"
       d="m 1120.891,182.12732 c 34.5123,-1.54075 201.2968,-8.84221 198.7027,139.75373 -3.2503,186.19507 -4.8879,271.2801 -183.4904,268.41962 C 944.2743,587.22836 982.88297,474.93065 981.38091,334.21426 980.05115,209.63693 1028.2815,186.63067 1120.891,182.12732 Z"
       id="path3280-8"
       inkscape:connector-curvature="0"
       sodipodi:nodetypes="csssc" />
    <path
       style="color:#000000;display:inline;overflow:visible;visibility:visible;fill:#ffffff;fill-opacity:1;fill-rule:nonzero;stroke:none;stroke-width:1.45930743px;marker:none;enable-background:accumulate"
       d="m 1243.8585,818.35327 c -52.2412,-10.38957 -90.1219,-52.2826 -82.2673,-117.43179 7.8551,-73.36812 7.6985,-80.57712 7.6985,-80.57712 l -55.1615,2.38205 c 0,0 3.3492,196.86393 129.7303,195.62686 z"
       id="path3072"
       inkscape:connector-curvature="0"
       inkscape:transform-center-x="-3.4248275"
       inkscape:transform-center-y="27.464172"
       sodipodi:nodetypes="ccccc" />
    <path
       style="fill:#ffffff;fill-rule:evenodd;stroke:none;stroke-width:1.16250026px;stroke-linecap:butt;stroke-linejoin:miter;stroke-opacity:1"
       d="m 983.05067,591.49962 c 29.14283,3.4952 58.14533,-1.8493 34.58443,-54.4718 22.8659,18.642 60.4906,38.2355 87.1567,-6.633 7.6374,56.8613 56.4713,24.3712 80.6153,-0.5503 -36.0124,59.1974 68.6181,43.42073 83.6768,11.85058 -10.8684,34.40947 30.8257,33.73186 58.6021,35.27366 -58.7582,59.3702 -58.9773,102.36486 -35.8244,124.72626 -57.7455,-16.5442 -43.7796,16.9775 -50.6768,35.9333 -62.7499,-54.69404 -96.1522,-42.16952 -114.0225,7.1867 -14.8853,-21.7218 -19.5576,-66.617 -74.4313,2.3955 20.1784,-59.5777 -6.271,-53.3242 -49.0929,-23.9554 6.7111,-20.293 46.5984,-51.1514 -20.58743,-47.9112 41.96553,-19.2915 50.76593,-45.4244 0,-83.8443 z"
       id="path4584"
       inkscape:connector-curvature="0"
       sodipodi:nodetypes="ccccccccccccc" />
    <path
       style="fill:#ffffff;fill-opacity:1;stroke:none;stroke-width:1.76086152"
       d="m 2025.0395,193.52776 c -4.4678,-51.62989 25.1659,-77.31333 52.1475,-89.47981 34.1953,-15.419288 312.5013,-32.604516 342.2687,10.61311 27.4148,39.80207 15.2677,112.97816 -66.593,149.12537 -81.8607,36.14708 -218.4804,16.34764 -241.7363,9.77554 -23.2559,-6.57225 -81.4359,-24.17056 -86.0869,-80.03421 z"
       id="path3659-8"
       inkscape:connector-curvature="0"
       sodipodi:nodetypes="cssssc" />
    <path
       style="fill:#ffffff;stroke:none;stroke-width:1.12429571"
       d="m 2187.8594,301.74152 c -0.8756,-41.87209 25.2691,-51.27448 51.8008,-57.16805 26.5317,-5.89345 108.9888,0.63901 102.9316,51.8773 -6.0571,51.23841 -45.9531,58.33952 -78.9162,56.07445 -32.9632,-2.2652 -71.0332,-11.10871 -75.8162,-50.7837 z"
       id="path3938"
       inkscape:connector-curvature="0"
       sodipodi:nodetypes="csssc" />
    <path
       style="color:#000000;display:inline;overflow:visible;visibility:visible;fill:#ffffff;fill-opacity:1;fill-rule:nonzero;stroke:none;stroke-width:1px;marker:none;enable-background:accumulate"
       d="m 2155.8807,362.60514 c 41.2209,-1.94348 55.6641,-5.00539 71.331,-50.72285 15.6671,-45.71761 32.4158,-38.48457 32.4158,-38.48457 l 7.7097,32.88324 c 0,0 -40.1576,94.75832 -111.4565,56.32418 z"
       id="path3072-5"
       inkscape:connector-curvature="0" />
    <path
       style="color:#000000;display:inline;overflow:visible;visibility:visible;fill:#ffffff;fill-opacity:1;fill-rule:nonzero;stroke:none;stroke-width:1.00767922px;marker:none;enable-background:accumulate"
       d="m 1981.3355,1028.9812 c 0.2722,-46.1842 37.4162,-102.66065 207.3106,-108.53905 331.4932,-11.4698 224.6431,107.64975 223.257,137.42385 -1.386,29.7739 -52.5182,89.102 -77.4659,96.5455 -24.9476,7.4436 -90.0882,25.3077 -131.6677,19.3532 -41.579,-5.955 -121.3226,-9.3722 -187.6675,-51.9828 -47.2383,-39.9749 -35.0532,-67.4747 -33.7665,-92.8007 z"
       id="path3365-5"
       inkscape:connector-curvature="0"
       sodipodi:nodetypes="csccccc" />
    <path
       style="fill:#ffffff;stroke:none;stroke-width:1"
       d="m 2198.814,1073.9531 c -28.3487,40.1842 -21.9808,80.5701 -11.3851,96.8521 10.5958,16.2818 -14.1224,62.2852 -32.5966,66.3613 42.1318,-2.545 63.2033,-58.0225 57.8284,-106.2564 -1.5781,-14.1607 13.8192,-31.6694 32.5349,-30.4271 17.298,1.1482 33.3984,-19.3288 33.3984,-19.3288 z"
       id="path3276"
       inkscape:connector-curvature="0"
       sodipodi:nodetypes="cscsscc" />
    <path
       style="fill:#ffffff;stroke:none;stroke-width:0.99589407"
       d="m 61.731833,2207.2743 c -1.177496,-99.2151 19.956453,-151.349 267.912257,-148.0045 347.0702,4.6814 371.83302,67.7482 375.30259,184.1423 4.75055,159.3675 -204.80081,132.21 -372.25919,133.4341 -288.977293,2.1125 -262.770393,-67.9737 -270.955657,-169.5719 z"
       id="path3280-8-0"
       inkscape:connector-curvature="0"
       sodipodi:nodetypes="csssc" />
    <path
       style="fill:#ffffff;stroke:none;stroke-width:0.93129367"
       d="m 688.43954,2501.3283 c 2.34117,99.6845 -7.84462,137.2658 -152.85112,149.1922 -200.68879,16.5062 -218.83845,-67.3541 -220.66412,-184.3389 -1.96975,-126.2186 94.02975,-115.1005 187.37379,-129.5056 166.25031,-25.6565 179.69763,62.5863 186.14145,164.6523 z"
       id="path3280-8-0-3"
       inkscape:connector-curvature="0"
       sodipodi:nodetypes="csssc" />
    <path
       style="color:#000000;display:inline;overflow:visible;visibility:visible;fill:#ffffff;fill-opacity:1;fill-rule:nonzero;stroke:none;stroke-width:0.9101786px;marker:none;enable-background:accumulate"
       d="m 1738.6476,2900.1029 c -15.3482,-35.5133 -19.6131,-127.5703 114.702,-115.4416 104.4299,7.4146 135.503,32.1817 139.0898,74.5384 3.5868,42.3568 11.4741,82.5592 -72.1512,88.6991 -76.5639,3.1567 -156.1698,0.9294 -181.6406,-47.7959 z"
       id="path3525"
       inkscape:connector-curvature="0"
       sodipodi:nodetypes="cczcc" />
    <path
       style="color:#000000;display:inline;overflow:visible;visibility:visible;fill:#ffffff;fill-opacity:1;fill-rule:nonzero;stroke:none;stroke-width:0.932679px;marker:none;enable-background:accumulate"
       d="m 788.59271,2604.1489 c -38.61235,13.1991 -53.23313,15.8331 -88.53084,-16.7571 -35.29767,-32.5903 -47.30824,-20.5196 -47.30824,-20.5196 l 8.02128,30.2663 c 0,0 80.19331,64.7861 127.8178,7.0104 z"
       id="path3072-6"
       inkscape:connector-curvature="0" />
    <path
       style="color:#000000;display:inline;overflow:visible;visibility:visible;fill:#ffffff;fill-opacity:1;fill-rule:nonzero;stroke:none;stroke-width:1px;marker:none;enable-background:accumulate"
       d="m 1885.9302,2880.543 c -8.5379,-41.2674 -44.7927,-105.1616 -72.2125,-139.41 -35.1182,-43.864 -72.8214,-53.3837 -92.0424,-60.2184 -19.2212,-6.8347 -32.1844,10.3588 -49.896,10.3433 -15.217,-0.013 -25.6847,-6.7896 -32.7226,-18.2648 9.7927,27.8644 34.0049,32.1826 44.6949,29.5469 10.6902,-2.6357 26.8117,-12.6559 45.0036,-2.5829 24.2118,13.4064 47.6718,29.1496 76.3935,72.336 25.957,39.0295 44.3792,76.7753 41.8276,91.0824 -2.5517,14.3073 38.9539,17.1675 38.9539,17.1675 z"
       id="path4562"
       inkscape:connector-curvature="0"
       sodipodi:nodetypes="cssscssssc" />
  </g>
  <g
     inkscape:groupmode="layer"
     id="layer1"
     inkscape:label="txt">
    <path
       style="color:#000000;display:inline;overflow:visible;visibility:visible;fill:#ffffff;fill-opacity:1;fill-rule:nonzero;stroke:none;stroke-width:1.25824356px;marker:none;enable-background:accumulate"
       d="m 41.381895,240.98542 c -2.833048,-17.51577 24.620698,-69.51163 198.279435,-70.18573 228.00665,-0.88507 214.7,87.38172 201.96489,113.31241 -10.88381,22.16124 -34.91332,34.44682 -71.74708,51.06543 -36.83375,16.6186 -141.29465,18.62481 -183.79089,13.95411 C 143.59231,344.46068 90.960697,343.53965 56.382794,313.21993 31.824442,291.68588 44.214955,245.65625 41.381895,240.98542 Z"
       id="path3365"
       inkscape:connector-curvature="0"
       sodipodi:nodetypes="csszcsc" />
    <flowRoot
       xml:space="preserve"
       id="flowRoot1141"
       style="fill:black;stroke:none;stroke-opacity:1;stroke-width:1px;stroke-linejoin:miter;stroke-linecap:butt;fill-opacity:1;font-family:Lavi;font-style:normal;font-weight:normal;font-size:0.66666667px;line-height:0%;letter-spacing:0px;word-spacing:0px;-inkscape-font-specification:Lavi;font-stretch:normal;font-variant:normal;text-anchor:middle;text-align:center;writing-mode:lr"><flowRegion
         id="flowRegion1143"><rect
           id="rect1145"
           width="37.375"
           height="11.5"
           x="1802.6249"
           y="2272.5" /></flowRegion><flowPara
         id="flowPara1147" /></flowRoot>    <text
       id="text1018"
       y="248.90648"
       x="256.78415"
       style="font-style:normal;font-variant:normal;font-weight:normal;font-stretch:normal;font-size:15.50183964px;line-height:100%;font-family:'Nanum Pen Script OTF';-inkscape-font-specification:'Nanum Pen Script OTF';text-align:center;letter-spacing:0px;word-spacing:0px;text-anchor:middle;fill:#000000;fill-opacity:1;stroke:none;stroke-width:1.29181993"
       xml:space="preserve"><tspan
         id="tspan1016"
         y="248.90648"
         x="256.78415"
         style="font-style:normal;font-variant:normal;font-weight:normal;font-stretch:normal;font-size:58.13189697px;line-height:100%;font-family:'Nanum Pen Script OTF';-inkscape-font-specification:'Nanum Pen Script OTF';stroke-width:1.29181993"
         sodipodi:role="line">...눈을</tspan><tspan
         y="307.03839"
         x="256.78415"
         style="font-style:normal;font-variant:normal;font-weight:normal;font-stretch:normal;font-size:58.13189697px;line-height:100%;font-family:'Nanum Pen Script OTF';-inkscape-font-specification:'Nanum Pen Script OTF';stroke-width:1.29181993"
         sodipodi:role="line"
         id="tspan1127">모자로 가리면...</tspan></text>
    <text
       id="text1026"
       y="660.78735"
       x="234.48431"
       style="font-style:normal;font-variant:normal;font-weight:normal;font-stretch:normal;font-size:15.77195549px;line-height:100%;font-family:'Nanum Pen Script OTF';-inkscape-font-specification:'Nanum Pen Script OTF';text-align:center;letter-spacing:0px;word-spacing:0px;text-anchor:middle;fill:#000000;fill-opacity:1;stroke:none;stroke-width:1.31432962"
       xml:space="preserve"><tspan
         y="660.78735"
         x="234.48431"
         style="font-style:normal;font-variant:normal;font-weight:normal;font-stretch:normal;font-size:59.14483261px;line-height:100%;font-family:'Nanum Pen Script OTF';-inkscape-font-specification:'Nanum Pen Script OTF';stroke-width:1.31432962"
         sodipodi:role="line"
         id="tspan1133">...문이</tspan><tspan
         y="719.93219"
         x="234.48431"
         style="font-style:normal;font-variant:normal;font-weight:normal;font-stretch:normal;font-size:59.14483261px;line-height:100%;font-family:'Nanum Pen Script OTF';-inkscape-font-specification:'Nanum Pen Script OTF';stroke-width:1.31432962"
         sodipodi:role="line"
         id="tspan1135">알아서 열려!</tspan></text>
    <text
       transform="scale(1.0347385,0.96642774)"
       id="text1043"
       y="301.84964"
       x="1111.3655"
       style="font-style:normal;font-variant:normal;font-weight:normal;font-stretch:normal;font-size:15.80717945px;line-height:100%;font-family:'Nanum Pen Script OTF';-inkscape-font-specification:'Nanum Pen Script OTF';text-align:center;letter-spacing:0px;word-spacing:0px;text-anchor:middle;fill:#000000;fill-opacity:1;stroke:none;stroke-width:1.31726491"
       xml:space="preserve"><tspan
         id="tspan1041"
         y="301.84964"
         x="1111.3655"
         style="font-style:normal;font-variant:normal;font-weight:normal;font-stretch:normal;font-size:57.28686142px;line-height:100%;font-family:'Nanum Pen Script OTF';-inkscape-font-specification:'Nanum Pen Script OTF';font-variant-ligatures:normal;font-variant-caps:normal;font-variant-numeric:normal;font-feature-settings:normal;text-align:center;writing-mode:lr-tb;text-anchor:middle;stroke-width:1.31726491"
         sodipodi:role="line">책에선 모자를</tspan><tspan
         y="359.13651"
         x="1111.3655"
         style="font-style:normal;font-variant:normal;font-weight:normal;font-stretch:normal;font-size:57.28686142px;line-height:100%;font-family:'Nanum Pen Script OTF';-inkscape-font-specification:'Nanum Pen Script OTF';font-variant-ligatures:normal;font-variant-caps:normal;font-variant-numeric:normal;font-feature-settings:normal;text-align:center;writing-mode:lr-tb;text-anchor:middle;stroke-width:1.31726491"
         sodipodi:role="line"
         id="tspan1165">그대로 둬서</tspan><tspan
         y="416.42337"
         x="1111.3655"
         style="font-style:normal;font-variant:normal;font-weight:normal;font-stretch:normal;font-size:57.28686142px;line-height:100%;font-family:'Nanum Pen Script OTF';-inkscape-font-specification:'Nanum Pen Script OTF';font-variant-ligatures:normal;font-variant-caps:normal;font-variant-numeric:normal;font-feature-settings:normal;text-align:center;writing-mode:lr-tb;text-anchor:middle;stroke-width:1.31726491"
         sodipodi:role="line"
         id="tspan1157">나중에 탈출하기</tspan><tspan
         y="473.71024"
         x="1111.3655"
         style="font-style:normal;font-variant:normal;font-weight:normal;font-stretch:normal;font-size:57.28686142px;line-height:100%;font-family:'Nanum Pen Script OTF';-inkscape-font-specification:'Nanum Pen Script OTF';font-variant-ligatures:normal;font-variant-caps:normal;font-variant-numeric:normal;font-feature-settings:normal;text-align:center;writing-mode:lr-tb;text-anchor:middle;stroke-width:1.31726491"
         sodipodi:role="line"
         id="tspan1161">쉽게 하라고도</tspan><tspan
         y="530.99707"
         x="1111.3655"
         style="font-style:normal;font-variant:normal;font-weight:normal;font-stretch:normal;font-size:57.28686142px;line-height:100%;font-family:'Nanum Pen Script OTF';-inkscape-font-specification:'Nanum Pen Script OTF';font-variant-ligatures:normal;font-variant-caps:normal;font-variant-numeric:normal;font-feature-settings:normal;text-align:center;writing-mode:lr-tb;text-anchor:middle;stroke-width:1.31726491"
         sodipodi:role="line"
         id="tspan1163">되어 있어!</tspan></text>
    <text
       id="text1049"
       y="624.22382"
       x="1150.9645"
       style="font-style:normal;font-variant:normal;font-weight:normal;font-stretch:normal;font-size:16.38564491px;line-height:100%;font-family:'Nanum Pen Script OTF';-inkscape-font-specification:'Nanum Pen Script OTF';text-align:center;letter-spacing:0px;word-spacing:0px;text-anchor:middle;fill:#000000;fill-opacity:1;stroke:#000000;stroke-width:1.69397389;stroke-opacity:1;"
       xml:space="preserve"><tspan
         id="tspan1047"
         y="624.22382"
         x="1150.9645"
         style="font-style:normal;font-variant:normal;font-weight:normal;font-stretch:normal;font-size:61.44616699px;line-height:100%;font-family:'Nanum Pen Script OTF';-inkscape-font-specification:'Nanum Pen Script OTF';stroke-width:1.69397389;stroke:#000000;stroke-opacity:1;"
         sodipodi:role="line">책은 정말</tspan><tspan
         y="685.66998"
         x="1150.9645"
         style="font-style:normal;font-variant:normal;font-weight:normal;font-stretch:normal;font-size:61.44616699px;line-height:100%;font-family:'Nanum Pen Script OTF';-inkscape-font-specification:'Nanum Pen Script OTF';stroke-width:1.69397389;stroke:#000000;stroke-opacity:1;"
         sodipodi:role="line"
         id="tspan1169">최고야!</tspan></text>
    <text
       id="text1057"
       y="174.06618"
       x="2362.9907"
       style="font-style:normal;font-variant:normal;font-weight:normal;font-stretch:normal;font-size:15.43071651px;line-height:100%;font-family:'Nanum Pen Script OTF';-inkscape-font-specification:'Nanum Pen Script OTF';text-align:center;letter-spacing:0px;word-spacing:0px;text-anchor:middle;fill:#000000;fill-opacity:1;stroke:none;stroke-width:1.28589296"
       xml:space="preserve"><tspan
         id="tspan1055"
         y="174.06618"
         x="2362.9907"
         style="font-style:normal;font-variant:normal;font-weight:normal;font-stretch:normal;font-size:57.86518478px;line-height:100%;font-family:'Nanum Pen Script OTF';-inkscape-font-specification:'Nanum Pen Script OTF';text-align:end;text-anchor:end;stroke-width:1.28589296"
         sodipodi:role="line">“첫째 난간에서</tspan><tspan
         y="231.93137"
         x="2362.9907"
         style="font-style:normal;font-variant:normal;font-weight:normal;font-stretch:normal;font-size:57.86518478px;line-height:100%;font-family:'Nanum Pen Script OTF';-inkscape-font-specification:'Nanum Pen Script OTF';text-align:end;text-anchor:end;stroke-width:1.28589296"
         sodipodi:role="line"
         id="tspan1175">바로 뛰어내린다.”</tspan></text>
    <text
       id="text1061"
       y="319.39444"
       x="2266.8782"
       style="font-style:normal;font-variant:normal;font-weight:normal;font-stretch:normal;font-size:15.21763611px;line-height:100%;font-family:'Nanum Pen Script OTF';-inkscape-font-specification:'Nanum Pen Script OTF';text-align:center;letter-spacing:0px;word-spacing:0px;text-anchor:middle;fill:#000000;fill-opacity:1;stroke:none;stroke-width:1.26813638"
       xml:space="preserve"><tspan
         id="tspan1059"
         y="319.39444"
         x="2266.8782"
         style="font-style:normal;font-variant:normal;font-weight:normal;font-stretch:normal;font-size:57.06613541px;line-height:100%;font-family:'Nanum Pen Script OTF';-inkscape-font-specification:'Nanum Pen Script OTF';stroke-width:1.26813638"
         sodipodi:role="line">좋아!</tspan></text>
    <text
       transform="matrix(7.0292425,-4.7151163,5.5413284,8.1676688,-13386.209,-1731.559)"
       id="text1065"
       y="1091.2349"
       x="1125.3203"
       style="color:#000000;font-style:normal;font-variant:normal;font-weight:normal;font-stretch:normal;font-size:12.00003719px;line-height:100%;font-family:'Nanum Pen Script OTF';-inkscape-font-specification:'Nanum Pen Script OTF';font-variant-ligatures:normal;font-variant-caps:normal;font-variant-numeric:normal;font-feature-settings:normal;text-align:start;letter-spacing:0.00204969px;word-spacing:0px;writing-mode:lr-tb;text-anchor:start;display:inline;overflow:visible;visibility:visible;fill:#ffffff;fill-opacity:1;fill-rule:nonzero;stroke:#ffffff;stroke-width:0.058548;stroke-linecap:butt;stroke-linejoin:miter;stroke-miterlimit:4;stroke-dasharray:none;stroke-dashoffset:0;stroke-opacity:1;marker:none;filter:url(#filter4375-4-1-1-15-1-3);enable-background:accumulate"
       xml:space="preserve"><tspan
         style="font-style:normal;font-variant:normal;font-weight:normal;font-stretch:normal;line-height:100%;font-family:'Nanum Pen Script OTF';-inkscape-font-specification:'Nanum Pen Script OTF';stroke-width:0.058548"
         y="1091.2349"
         x="1125.3203"
         id="tspan1063"
         sodipodi:role="line">통</tspan></text>
    <text
       transform="matrix(4.6696133,4.7729,-5.4248017,5.5863294,2478.1784,-9624.7478)"
       id="text1069"
       y="1091.2349"
       x="1125.3203"
       style="color:#000000;font-style:normal;font-variant:normal;font-weight:normal;font-stretch:normal;font-size:12.00003719px;line-height:100%;font-family:'Nanum Pen Script OTF';-inkscape-font-specification:'Nanum Pen Script OTF';font-variant-ligatures:normal;font-variant-caps:normal;font-variant-numeric:normal;font-feature-settings:normal;text-align:start;letter-spacing:0.00204969px;word-spacing:0px;writing-mode:lr-tb;text-anchor:start;display:inline;overflow:visible;visibility:visible;fill:#ffffff;fill-opacity:1;fill-rule:nonzero;stroke:#ffffff;stroke-width:0.12600572;stroke-linecap:butt;stroke-linejoin:miter;stroke-miterlimit:4;stroke-dasharray:none;stroke-dashoffset:0;stroke-opacity:1;marker:none;filter:url(#filter4375-4-1-1-15-1-3-0);enable-background:accumulate"
       xml:space="preserve"><tspan
         style="font-style:normal;font-variant:normal;font-weight:normal;font-stretch:normal;line-height:100%;font-family:'Nanum Pen Script OTF';-inkscape-font-specification:'Nanum Pen Script OTF';stroke-width:0.12600572;stroke-miterlimit:4;stroke-dasharray:none"
         y="1091.2349"
         x="1125.3203"
         id="tspan1067"
         sodipodi:role="line">통</tspan></text>
    <text
       id="text1079"
       y="1011.2282"
       x="2362.9194"
       style="font-style:normal;font-variant:normal;font-weight:normal;font-stretch:normal;font-size:14.49477863px;line-height:100%;font-family:'Nanum Pen Script OTF';-inkscape-font-specification:'Nanum Pen Script OTF';text-align:center;letter-spacing:0px;word-spacing:0px;text-anchor:middle;fill:#000000;fill-opacity:1;stroke:none;stroke-width:1.20789814"
       xml:space="preserve"><tspan
         y="1011.2282"
         x="2362.9194"
         style="font-style:normal;font-variant:normal;font-weight:normal;font-stretch:normal;font-size:54.35541916px;line-height:100%;font-family:'Nanum Pen Script OTF';-inkscape-font-specification:'Nanum Pen Script OTF';text-align:end;text-anchor:end;stroke-width:1.20789814"
         sodipodi:role="line"
         id="tspan1183">“떨어지고 있음을 느낄 수</tspan><tspan
         y="1065.5836"
         x="2362.9194"
         style="font-style:normal;font-variant:normal;font-weight:normal;font-stretch:normal;font-size:54.35541916px;line-height:100%;font-family:'Nanum Pen Script OTF';-inkscape-font-specification:'Nanum Pen Script OTF';text-align:end;text-anchor:end;stroke-width:1.20789814"
         sodipodi:role="line"
         id="tspan1185">있는데, 이는 정상이다.</tspan><tspan
         y="1119.9391"
         x="2362.9194"
         style="font-style:normal;font-variant:normal;font-weight:normal;font-stretch:normal;font-size:54.35541916px;line-height:100%;font-family:'Nanum Pen Script OTF';-inkscape-font-specification:'Nanum Pen Script OTF';text-align:end;text-anchor:end;stroke-width:1.20789814"
         sodipodi:role="line"
         id="tspan1187">이 경로는 지름길이다.”</tspan></text>
    <text
       id="text1091"
       y="2156.3635"
       x="397.42953"
       style="font-style:normal;font-variant:normal;font-weight:normal;font-stretch:normal;font-size:14.68334484px;line-height:100%;font-family:'Nanum Pen Script OTF';-inkscape-font-specification:'Nanum Pen Script OTF';text-align:center;letter-spacing:0px;word-spacing:0px;text-anchor:middle;fill:#000000;fill-opacity:1;stroke:none;stroke-width:1.22361207"
       xml:space="preserve"><tspan
         y="2156.3635"
         x="397.42953"
         style="font-style:normal;font-variant:normal;font-weight:normal;font-stretch:normal;font-size:55.06254196px;line-height:100%;font-family:'Nanum Pen Script OTF';-inkscape-font-specification:'Nanum Pen Script OTF';text-align:center;text-anchor:middle;stroke-width:1.22361207"
         sodipodi:role="line"
         id="tspan1215">“화려한 거미줄의 안락함을</tspan><tspan
         y="2211.426"
         x="397.42953"
         style="font-style:normal;font-variant:normal;font-weight:normal;font-stretch:normal;font-size:55.06254196px;line-height:100%;font-family:'Nanum Pen Script OTF';-inkscape-font-specification:'Nanum Pen Script OTF';text-align:center;text-anchor:middle;stroke-width:1.22361207"
         sodipodi:role="line"
         id="tspan1261">아무 거리낌 없이 즐겨라:</tspan><tspan
         y="2266.4885"
         x="397.42953"
         style="font-style:normal;font-variant:normal;font-weight:normal;font-stretch:normal;font-size:55.06254196px;line-height:100%;font-family:'Nanum Pen Script OTF';-inkscape-font-specification:'Nanum Pen Script OTF';text-align:center;text-anchor:middle;stroke-width:1.22361207"
         sodipodi:role="line"
         id="tspan1263">이 거미들은 반사된 빛으로</tspan><tspan
         y="2321.5513"
         x="397.42953"
         style="font-style:normal;font-variant:normal;font-weight:normal;font-stretch:normal;font-size:55.06254196px;line-height:100%;font-family:'Nanum Pen Script OTF';-inkscape-font-specification:'Nanum Pen Script OTF';text-align:center;text-anchor:middle;stroke-width:1.22361207"
         sodipodi:role="line"
         id="tspan1265">광합성을 하여 생명을 유지한다.”</tspan></text>
    <flowRoot
       style="fill:black;stroke:none;stroke-opacity:1;stroke-width:1px;stroke-linejoin:miter;stroke-linecap:butt;fill-opacity:1;font-family:'Nanum Pen Script OTF';font-style:normal;font-weight:normal;font-size:0.66666667px;line-height:100%;letter-spacing:0px;word-spacing:0px;-inkscape-font-specification:'Nanum Pen Script OTF';font-stretch:normal;font-variant:normal;text-anchor:middle;text-align:center;writing-mode:lr;"
       id="flowRoot1099"
       xml:space="preserve"><flowRegion
         id="flowRegion1095"
         style="-inkscape-font-specification:'Nanum Pen Script OTF';font-family:'Nanum Pen Script OTF';font-weight:normal;font-style:normal;font-stretch:normal;font-variant:normal;line-height:100%;"><rect
           y="2272.5"
           x="1802.6249"
           height="11.5"
           width="37.375"
           id="rect1093"
           style="-inkscape-font-specification:'Nanum Pen Script OTF';font-family:'Nanum Pen Script OTF';font-weight:normal;font-style:normal;font-stretch:normal;font-variant:normal;line-height:100%;" /></flowRegion><flowPara
         id="flowPara1097" /></flowRoot>    <text
       id="text1109"
       y="2436.7898"
       x="502.22269"
       style="font-style:normal;font-variant:normal;font-weight:normal;font-stretch:normal;font-size:15.25190544px;line-height:100%;font-family:'Nanum Pen Script OTF';-inkscape-font-specification:'Nanum Pen Script OTF';text-align:center;letter-spacing:0px;word-spacing:0px;text-anchor:middle;fill:#000000;fill-opacity:1;stroke:none;stroke-width:1.27099216"
       xml:space="preserve"><tspan
         y="2436.7898"
         x="502.22269"
         style="font-style:normal;font-variant:normal;font-weight:normal;font-stretch:normal;font-size:57.19464493px;line-height:100%;font-family:'Nanum Pen Script OTF';-inkscape-font-specification:'Nanum Pen Script OTF';text-align:center;text-anchor:middle;stroke-width:1.27099216"
         sodipodi:role="line"
         id="tspan1233">“충분한 휴식으로</tspan><tspan
         y="2493.9844"
         x="502.22269"
         style="font-style:normal;font-variant:normal;font-weight:normal;font-stretch:normal;font-size:57.19464493px;line-height:100%;font-family:'Nanum Pen Script OTF';-inkscape-font-specification:'Nanum Pen Script OTF';text-align:center;text-anchor:middle;stroke-width:1.27099216"
         sodipodi:role="line"
         id="tspan1242">체력을 충분히</tspan><tspan
         y="2551.1792"
         x="502.22269"
         style="font-style:normal;font-variant:normal;font-weight:normal;font-stretch:normal;font-size:57.19464493px;line-height:100%;font-family:'Nanum Pen Script OTF';-inkscape-font-specification:'Nanum Pen Script OTF';text-align:center;text-anchor:middle;stroke-width:1.27099216"
         sodipodi:role="line"
         id="tspan1244">보충할 것을</tspan><tspan
         y="2608.3738"
         x="502.22269"
         style="font-style:normal;font-variant:normal;font-weight:normal;font-stretch:normal;font-size:57.19464493px;line-height:100%;font-family:'Nanum Pen Script OTF';-inkscape-font-specification:'Nanum Pen Script OTF';text-align:center;text-anchor:middle;stroke-width:1.27099216"
         sodipodi:role="line"
         id="tspan1246"> 권한다.”</tspan></text>
    <text
       transform="scale(1.0104523,0.98965582)"
       id="text1115"
       y="2889.2256"
       x="1841.5898"
       style="font-style:normal;font-variant:normal;font-weight:normal;font-stretch:normal;font-size:15.58432198px;line-height:100%;font-family:'Nanum Pen Script OTF';-inkscape-font-specification:'Nanum Pen Script OTF';text-align:center;letter-spacing:0px;word-spacing:0px;text-anchor:middle;fill:#000000;fill-opacity:1;stroke:#000000;stroke-width:1.12190151;stroke-opacity:1"
       xml:space="preserve"><tspan
         id="tspan1113"
         y="2889.2256"
         x="1841.5898"
         style="font-style:normal;font-variant:normal;font-weight:normal;font-stretch:normal;font-size:58.4412117px;line-height:100%;font-family:'Nanum Pen Script OTF';-inkscape-font-specification:'Nanum Pen Script OTF';stroke:#000000;stroke-width:1.12190151;stroke-opacity:1"
         sodipodi:role="line">책 정말</tspan><tspan
         y="2947.6667"
         x="1841.5898"
         style="font-style:normal;font-variant:normal;font-weight:normal;font-stretch:normal;font-size:58.4412117px;line-height:100%;font-family:'Nanum Pen Script OTF';-inkscape-font-specification:'Nanum Pen Script OTF';stroke:#000000;stroke-width:1.12190151;stroke-opacity:1"
         sodipodi:role="line"
         id="tspan1269">좋아!</tspan></text>
    <text
       transform="matrix(0.78576578,-0.49307246,0.54549744,0.93034115,0,0)"
       id="text1121"
       y="607.505"
       x="610.34601"
       style="color:#000000;font-style:normal;font-variant:normal;font-weight:normal;font-stretch:normal;font-size:14.17699146px;line-height:100%;font-family:'Nanum Pen Script OTF';-inkscape-font-specification:'Nanum Pen Script OTF';letter-spacing:1.1433444px;word-spacing:0px;display:inline;overflow:visible;visibility:visible;fill:#e69d76;fill-opacity:1;fill-rule:nonzero;stroke:#e99f77;stroke-width:3.05014607;stroke-opacity:1;marker:none;enable-background:accumulate;"
       xml:space="preserve"><tspan
         style="font-style:normal;font-variant:normal;font-weight:normal;font-stretch:normal;line-height:100%;font-family:'Nanum Pen Script OTF';-inkscape-font-specification:'Nanum Pen Script OTF';letter-spacing:1.1433444px;word-spacing:0px;fill:#ffffff;fill-opacity:1;stroke:#ffffff;stroke-width:3.05014607;stroke-opacity:1;"
         id="tspan1119"
         y="607.505"
         x="610.91766"
         sodipodi:role="line"><tspan
           id="tspan1117"
           style="color:#000000;font-style:normal;font-variant:normal;font-weight:normal;font-stretch:normal;font-size:75.61062622px;line-height:100%;font-family:'Nanum Pen Script OTF';-inkscape-font-specification:'Nanum Pen Script OTF';text-align:center;letter-spacing:1.1433444px;word-spacing:0px;text-anchor:middle;display:inline;overflow:visible;visibility:visible;fill:#ffffff;fill-opacity:1;fill-rule:nonzero;stroke:#ffffff;stroke-width:3.05014607;stroke-miterlimit:4;stroke-dasharray:none;stroke-opacity:1;marker:none;enable-background:accumulate;"
           y="607.505"
           x="610.34601">훅!</tspan></tspan></text>
  </g>
</svg>
