<?xml version="1.0" encoding="UTF-8" standalone="no"?>
<!-- Created with Inkscape (http://www.inkscape.org/) -->

<svg
   xmlns:dc="http://purl.org/dc/elements/1.1/"
   xmlns:cc="http://creativecommons.org/ns#"
   xmlns:rdf="http://www.w3.org/1999/02/22-rdf-syntax-ns#"
   xmlns:svg="http://www.w3.org/2000/svg"
   xmlns="http://www.w3.org/2000/svg"
   xmlns:xlink="http://www.w3.org/1999/xlink"
   xmlns:sodipodi="http://sodipodi.sourceforge.net/DTD/sodipodi-0.dtd"
   xmlns:inkscape="http://www.inkscape.org/namespaces/inkscape"
   id="svg2"
   version="1.1"
   inkscape:version="0.92.3 (2405546, 2018-03-11)"
   width="2481"
   height="3503"
   sodipodi:docname="E27P03.svg">
  <metadata
     id="metadata8">
    <rdf:RDF>
      <cc:Work
         rdf:about="">
        <dc:format>image/svg+xml</dc:format>
        <dc:type
           rdf:resource="http://purl.org/dc/dcmitype/StillImage" />
        <dc:title />
      </cc:Work>
    </rdf:RDF>
  </metadata>
  <defs
     id="defs6">
    <filter
       style="color-interpolation-filters:sRGB"
       id="filter4375-4-1-1-1-9"
       inkscape:label="deevad outline effect">
      <feFlood
         id="feFlood4377-7-9-0-8-1"
         flood-opacity="1"
         flood-color="rgb(0,0,0)"
         result="flood" />
      <feComposite
         id="feComposite4379-3-8-8-2-77"
         in2="SourceGraphic"
         in="flood"
         operator="in"
         result="composite1" />
      <feMorphology
         id="feMorphology4393-1-0-49-8-9"
         operator="dilate"
         radius="4"
         result="result3" />
      <feComposite
         id="feComposite4385-9-5-7-0-8"
         in2="result3"
         in="SourceGraphic"
         operator="over"
         result="composite2" />
    </filter>
    <filter
       style="color-interpolation-filters:sRGB"
       id="filter4375-4-1-1-1-9-5"
       inkscape:label="deevad outline effect">
      <feFlood
         id="feFlood4377-7-9-0-8-1-8"
         flood-opacity="1"
         flood-color="rgb(0,0,0)"
         result="flood" />
      <feComposite
         id="feComposite4379-3-8-8-2-77-0"
         in2="SourceGraphic"
         in="flood"
         operator="in"
         result="composite1" />
      <feMorphology
         id="feMorphology4393-1-0-49-8-9-0"
         operator="dilate"
         radius="4"
         result="result3" />
      <feComposite
         id="feComposite4385-9-5-7-0-8-0"
         in2="result3"
         in="SourceGraphic"
         operator="over"
         result="composite2" />
    </filter>
  </defs>
  <sodipodi:namedview
     pagecolor="#ffffff"
     bordercolor="#666666"
     borderopacity="1"
     objecttolerance="10"
     gridtolerance="10"
     guidetolerance="10"
     inkscape:pageopacity="0"
     inkscape:pageshadow="2"
     inkscape:window-width="1920"
     inkscape:window-height="1027"
     id="namedview4"
     showgrid="false"
     inkscape:zoom="0.42773946"
     inkscape:cx="1323.4067"
     inkscape:cy="1078.1893"
     inkscape:window-x="1920"
     inkscape:window-y="26"
     inkscape:window-maximized="1"
     inkscape:current-layer="layer1"
     inkscape:snap-global="false" />
  <g
     inkscape:groupmode="layer"
     id="layer2"
     inkscape:label="artwork"
     sodipodi:insensitive="true">
    <image
       sodipodi:absref="/home/deevad/peppercarrot/webcomics/ep27_Coriander-s-Invention/lang/go/../gfx_Pepper-and-Carrot_by-David-Revoy_E27P03.png"
       xlink:href="../gfx_Pepper-and-Carrot_by-David-Revoy_E27P03.png"
       width="2481"
       height="3503"
       id="image10"
       x="0"
       y="0" />
  </g>
  <g
     inkscape:groupmode="layer"
     id="layer3"
     inkscape:label="speechbubbles">
    <path
       style="fill:#ffffff;fill-rule:evenodd;stroke:none"
       d="m 1172.7032,1583.5094 c 2.8089,-54.2111 1.0527,-91.2664 23.5344,-104.3976 22.482,-13.131 193.2934,-13.5213 207.0729,-12.525 13.7795,0.9961 43.0005,7.1051 55.1178,3.9844 12.1173,-3.1205 47.2156,-4.1185 65.6637,-0.4791 18.4482,3.6393 98.1307,4.1246 107.6497,14.9576 9.5189,10.8333 33.2996,40.6425 32.8625,73.9666 -0.4373,33.324 -11.3633,50.7999 -22.9816,69.1741 -11.6183,18.3741 -53.3661,44.793 -77.8277,44.1007 -24.4615,-0.6925 -106.0888,2.3094 -119.823,2.7 -13.7341,0.3905 -99.0544,6.9806 -128.0487,7.8051 -28.9941,0.8244 -73.2022,-12.1812 -102.8316,-30.7703 -29.6293,-18.5892 -40.3884,-68.5165 -40.3884,-68.5165 z"
       id="path263"
       inkscape:connector-curvature="0"
       sodipodi:nodetypes="ccccccccssccc" />
    <path
       style="fill:#ffffff;fill-rule:evenodd;stroke:none;stroke-width:1px;stroke-linecap:butt;stroke-linejoin:miter;stroke-opacity:1"
       d="m 1252.6692,1467.8179 c 0,0 -14.7372,-14.1832 -28.1318,-24.3459 -13.1591,-9.9839 -23.1743,-37.0399 -19.4243,-57.7963 -18.1089,29.447 -5.815,53.6299 11.889,81.0614 15.1315,24.8588 35.6671,1.0808 35.6671,1.0808 z"
       id="path265"
       inkscape:connector-curvature="0"
       sodipodi:nodetypes="csccc" />
    <path
       style="fill:#ffffff;fill-rule:evenodd;stroke:none"
       d="m 1945.8104,1867.5085 c 24.5122,-27.0609 78.5305,-41.2168 120.8698,-41.9685 42.3392,-0.7516 153.7582,7.517 190.5265,20.2958 36.7682,12.7787 70.771,27.6863 67.4284,64.5189 -3.3426,36.8329 -13.3703,75.1689 -20.0554,88.6996 -6.6852,13.5302 -27.8547,34.5777 -49.0244,46.6045 -21.1696,12.0271 -93.592,15.0339 -119.2183,15.0339 -25.6264,0 -114.7616,-9.0204 -133.7028,-20.2957 -18.9412,-11.2752 -57.9379,-30.0675 -64.6231,-63.8936 -6.6851,-33.8259 -3.3426,-88.6993 7.7993,-108.9949 z"
       id="path267"
       inkscape:connector-curvature="0"
       sodipodi:nodetypes="csccccscsc" />
    <path
       style="fill:#ffffff;fill-rule:evenodd;stroke:none;stroke-width:1px;stroke-linecap:butt;stroke-linejoin:miter;stroke-opacity:1"
       d="m 1825.1743,1897.7489 c 53.571,-19.7367 111.3904,-9.3727 131.1271,16.0031 19.7367,25.3757 16.4282,45.0866 16.4282,45.0866 l -21.6164,9.3985 c 0,14.3171 5.8835,-17.1392 -7.2743,-30.7446 -12.9359,-13.376 -35.6882,-34.1046 -57.3046,-37.8639 -21.6164,-3.7594 -50.0819,-2.8196 -61.36,-1.8797 z"
       id="path269"
       inkscape:connector-curvature="0"
       sodipodi:nodetypes="ccccscc" />
    <path
       style="fill:#ffffff;fill-rule:evenodd;stroke:none;stroke-width:1.07698119px;stroke-linecap:butt;stroke-linejoin:miter;stroke-opacity:1"
       d="m 249.36181,2431.7737 c 24.50315,-18.8009 80.86044,-24.3306 105.3636,-30.9661 24.50318,-6.6357 57.58244,-1.1059 73.50952,-2.2119 15.92704,-1.106 60.03273,-6.6356 72.28432,-5.5297 12.25159,1.1059 90.66173,6.6357 106.58877,7.7416 15.92708,1.1058 84.53594,6.6355 91.8869,27.6483 7.35094,21.0128 29.40379,61.9324 18.37736,81.8394 -11.02642,19.9068 -24.50316,54.1907 -56.35728,66.356 -31.85412,12.1653 -80.86045,32.0721 -138.44289,34.2839 -57.58245,2.2119 -137.21774,-6.6354 -149.46932,-6.6354 -12.25159,0 -77.18496,1.1059 -102.91329,-26.5426 -25.72833,-27.6483 -44.1057,-58.6147 -40.43024,-86.2628 3.67548,-27.6485 19.60255,-59.7207 19.60255,-59.7207 z"
       id="path271"
       inkscape:connector-curvature="0" />
    <path
       style="fill:#ffffff;fill-rule:evenodd;stroke:none;stroke-width:1px;stroke-linecap:butt;stroke-linejoin:miter;stroke-opacity:1"
       d="m 549.40558,2567.868 c 0,0 -6.17962,40.1675 -4.9437,48.819 1.23593,8.6515 12.35924,48.201 19.77478,58.0884 -19.15682,-22.2466 -31.51605,-51.2908 -33.9879,-61.1782 -2.47184,-9.8874 -1.23592,-50.0549 -1.23592,-50.0549 z"
       id="path273"
       inkscape:connector-curvature="0" />
    <path
       style="fill:#ffffff;fill-rule:evenodd;stroke:none;stroke-width:1"
       d="m 950.1222,2411.2464 c 34.55001,-5.6852 26.57693,7.8173 56.4761,7.1066 29.8988,-0.7106 91.0258,-7.8172 105.6431,-14.2131 7.973,-3.5533 8.6374,2.132 8.6374,2.132 0,0 24.5839,1.4213 29.2348,2.8426 4.6508,1.4213 22.5904,10.6598 29.2347,8.5279 6.644,-2.132 17.9393,-5.6853 17.9393,-5.6853 0,0 -0.6643,47.614 -1.3288,51.1672 -0.6644,3.5533 -5.3155,30.5582 -5.3155,39.7968 0,9.2385 3.9866,23.4516 3.3221,27.7156 -0.6644,4.2639 8.6376,14.9237 8.6376,14.9237 l -25.2481,0.7107 -17.275,2.132 -7.3087,-2.132 -31.2279,2.8426 -17.9395,0.7107 1.329,-4.264 -77.0731,4.264 3.322,-6.3959 -26.5768,1.4213 -9.96636,6.3959 -3.32214,-5.6853 -22.59036,0.7107 -11.95961,6.3959 6.64423,-13.5025 -9.96635,-7.8172 -1.99327,-104.4664 5.97981,-4.264 z"
       id="path275"
       inkscape:connector-curvature="0" />
    <path
       style="fill:#ffffff;fill-rule:evenodd;stroke:none;stroke-width:0.99999994"
       d="m 1172.6832,2448.9022 c 27.4384,-4.4578 45.7308,8.2788 52.4379,7.0051 6.7073,-1.2736 28.6581,-9.5523 35.975,-8.9155 7.3169,0.6367 53.6576,7.6419 67.6816,5.0946 14.0242,-2.5474 45.1211,0 49.9992,-0.6369 4.8778,-0.6368 24.3896,-12.7365 29.8774,-12.7365 5.4877,0 14.6337,5.7314 34.7555,-8.2788 -8.5366,16.5576 -13.4145,28.0203 -13.4145,28.0203 0,0 21.3411,-6.3681 29.8772,-6.3681 8.5367,0 15.2439,3.1841 19.5121,1.2736 4.2682,-1.9105 27.4384,-2.5473 31.097,-2.5473 3.6584,0 12.8044,-3.1842 17.0727,-3.1842 4.2682,0 43.2919,3.821 48.7797,3.821 5.4877,0 56.706,-6.3684 62.1937,-6.3684 5.4877,0 30.4873,1.9107 40.853,-2.5472 1.2195,12.7366 -2.4389,43.3043 -2.4389,50.3094 0,7.0051 0.6096,15.9208 0.6096,21.6523 -9.1461,6.3681 -15.8534,19.1048 -15.8534,19.1048 0,0 15.2438,3.1841 19.5119,0.6368 4.2682,-2.5473 1.8292,47.1253 2.439,56.6777 0.6097,9.5525 -7.3169,0.6368 -7.3169,0.6368 0,0 -1.2195,7.0051 -6.0975,8.2788 -4.878,1.2737 -90.8518,-0.6368 -100.6077,-0.6368 -9.756,0 -12.8048,3.1842 -12.8048,3.1842 h -42.0723 l -1.2195,-5.7315 -18.902,3.821 -25.6093,4.4578 -15.2436,3.1841 -8.5362,-2.5472 -42.0726,0.6367 -36.5847,1.2736 9.1463,-9.5523 -95.1202,7.0051 -43.9015,1.2736 -40.2432,5.7314 -7.9267,-20.3785 -4.2682,-43.9411 c 0,0 -2.439,-12.0998 4.2682,-14.0102 6.7072,-1.9105 -4.8778,-3.8209 -6.0973,-15.2839 -1.2196,-11.4629 -4.8779,-40.757 -4.8779,-40.757 l 7.9266,-2.5474 -9.7559,-6.3683 z"
       id="path277"
       inkscape:connector-curvature="0" />
    <path
       style="fill:#ffffff;fill-rule:evenodd;stroke:none;stroke-width:0.99999994px;stroke-linecap:butt;stroke-linejoin:miter;stroke-opacity:1"
       d="m 1327.3521,2751.2587 c 32.6788,-36.3054 55.3539,-80.3905 55.3539,-94.0051 8.6697,12.9662 8.0028,10.373 8.0028,10.373 0,0 14.6721,-38.8987 14.0051,-62.8862 -0.6667,-23.9875 26.6766,-24.6358 30.0111,-19.4493 3.3345,5.1864 9.47,23.9875 9.47,23.9875 l -4.1347,13.6145 -4.0015,-3.2415 c 0,0 -15.3389,40.1952 -17.3397,44.7334 -2.0008,4.5382 -10.6705,23.9876 -10.6705,23.9876 l -2.6677,-11.6696 -14.6721,10.373 0.6669,16.2077 -8.003,-7.1314 c 0,0 -0.6667,9.7247 -4.0014,14.9112 -3.3346,5.1864 -24.0089,27.8774 -26.6765,31.1189 -2.6676,3.2415 -25.3427,9.0763 -25.3427,9.0763 z"
       id="path279"
       inkscape:connector-curvature="0" />
    <path
       style="fill:#ffffff;fill-rule:evenodd;stroke:none;stroke-width:1"
       d="m 1834.8433,2412.7215 8.084,7.4199 41.0691,-4.3579 8.2131,-8.4368 c 0,0 18.2511,8.4368 23.7263,5.6246 5.4753,-2.8123 27.3767,-4.6872 27.3767,-4.6872 l 8.2129,7.4994 20.076,-2.8122 c 0,0 46.5404,7.4994 57.491,6.5619 10.9507,-0.9373 30.1142,-10.3116 30.1142,-10.3116 0,0 37.4148,10.3116 42.8901,8.4368 5.4754,-1.8749 15.5133,-2.8122 15.5133,-2.8122 l 11.8633,20.6234 c 0,0 23.7264,-19.6861 23.7264,-29.0603 15.5134,-0.9375 36.502,0 40.1521,-1.8749 3.6504,-1.8749 5.4755,11.2491 5.4755,11.2491 l 10.9506,6.562 c 0,0 27.3766,-20.6234 30.1144,-24.373 2.7376,-3.7498 20.9887,-2.8125 20.9887,-2.8125 0,0 25.5515,0.9375 29.2017,0 3.6502,-0.9373 19.1635,0.9375 32.852,1.8749 13.6883,0.9376 27.3764,0.9376 37.4146,-2.8122 2.7376,15.9363 0,73.1195 -0.9127,79.6815 -10.038,15.9362 -20.0761,45.934 -28.289,51.5586 21.9013,-11.2492 21.9013,-14.9989 30.1141,-22.4983 -0.9124,23.4358 -8.2128,73.1195 -9.1255,78.7441 14.6008,-12.1865 12.7759,-9.3743 10.9507,-4.6871 -1.8252,4.6871 -7.3006,18.7485 -9.1255,29.9976 -1.8252,11.2492 0,25.3107 -1.8252,32.8101 -1.8251,7.4995 -3.6502,17.8112 -3.6502,17.8112 0,0 -36.502,11.2491 -42.89,13.124 -6.3878,1.8749 -62.9661,1.8749 -77.5671,1.8749 -14.6007,0 -36.502,2.8122 -46.5399,1.8748 5.4752,-10.3117 9.1254,-17.8112 9.1254,-17.8112 0,0 -45.6278,4.6872 -56.5785,6.5621 -10.9507,1.8749 -56.5781,-8.4369 -66.6163,-7.4994 -10.038,0.9373 -65.7037,2.8122 -80.3047,3.7497 -14.6007,0.9373 -51.103,2.8122 -64.7912,5.6246 -13.6883,2.8122 -54.7531,4.687 -63.8788,4.687 -9.1256,0 -26.464,0.9375 -26.464,0.9375 0,0 -1.8251,-33.7474 -1.8251,-45.934 0,-12.1866 -4.5628,-72.1821 -0.9125,-78.7441 3.65,-6.5621 6.3878,-52.4961 6.3878,-57.1832 0,-4.6872 -8.61,-40.7474 -8.61,-40.7474 z"
       id="path283"
       inkscape:connector-curvature="0"
       sodipodi:nodetypes="ccccscccccsccccccccccccccccccccscccccsscssscc" />
    <path
       style="fill:#ffffff;fill-rule:evenodd;stroke:none;stroke-width:0.99999994px;stroke-linecap:butt;stroke-linejoin:miter;stroke-opacity:1"
       d="m 1928.0456,2832.7023 c -13.1433,-30.6118 9.2927,-109.1953 20.1114,-126.6745 0,-10.6243 -4.641,-22.8831 -4.641,-22.8831 0,0 -11.6028,4.9035 -14.6968,10.6243 -3.0941,5.7208 13.1497,-34.3247 22.4319,-40.8627 9.2823,-6.538 -6.9616,-37.5937 -6.9616,-37.5937 0,0 -31.7143,26.1521 -33.2613,37.5937 -1.547,11.4416 -10.0557,70.2839 -6.1881,80.9082 3.8676,10.6243 6.1881,4.9035 9.2821,0.8172 3.0942,-4.0862 11.6029,-12.2588 16.244,-15.5278 -7.7353,19.6141 -20.1115,84.1772 -2.3206,113.5984 z"
       id="path285"
       inkscape:connector-curvature="0"
       sodipodi:nodetypes="ccccccssccc" />
  </g>
  <g
     inkscape:groupmode="layer"
     id="layer1"
     inkscape:label="txt">
    <text
       xml:space="preserve"
       style="font-style:normal;font-variant:normal;font-weight:normal;font-stretch:normal;line-height:0%;font-family:Lavi;-inkscape-font-specification:Lavi;text-align:center;letter-spacing:0px;word-spacing:0px;text-anchor:middle;fill:#000000;fill-opacity:1;stroke:none"
       x="1407.3555"
       y="1529.39"
       id="text4246"><tspan
         sodipodi:role="line"
         style="font-size:45px;line-height:1.20000005"
         x="1414.3867"
         y="1529.39"
         id="tspan880">V’alez comprendr </tspan><tspan
         sodipodi:role="line"
         style="font-size:45px;line-height:1.20000005"
         x="1414.3867"
         y="1583.39"
         id="tspan7754">bentôt pourqhi qe je </tspan><tspan
         sodipodi:role="line"
         style="font-size:45px;line-height:1.20000005"
         x="1407.3555"
         y="1637.39"
         id="tspan7756">voulaes élijer sti-ci.</tspan></text>
    <text
       xml:space="preserve"
       style="font-style:normal;font-variant:normal;font-weight:normal;font-stretch:normal;line-height:0%;font-family:Lavi;-inkscape-font-specification:Lavi;text-align:center;letter-spacing:0px;word-spacing:0px;text-anchor:middle;fill:#000000;fill-opacity:1;stroke:none"
       x="2120.6045"
       y="1895.7584"
       id="text4246-3"><tspan
         sodipodi:role="line"
         style="font-size:45px;line-height:1.20000005"
         x="2127.6357"
         y="1895.7584"
         id="tspan904">‘ét pour le tabut </tspan><tspan
         sodipodi:role="line"
         style="font-size:45px;line-height:1.20000005"
         x="2127.6357"
         y="1949.7584"
         id="tspan7767">qe j’ae, qhession </tspan><tspan
         sodipodi:role="line"
         style="font-size:45px;line-height:1.20000005"
         x="2120.6045"
         y="2003.7584"
         id="tspan7769">du couronement.</tspan></text>
    <text
       xml:space="preserve"
       style="font-style:normal;font-variant:normal;font-weight:normal;font-stretch:normal;line-height:0%;font-family:Lavi;-inkscape-font-specification:Lavi;text-align:center;letter-spacing:0px;word-spacing:0px;text-anchor:middle;fill:#000000;fill-opacity:1;stroke:none"
       x="465.18423"
       y="2453.7727"
       id="text4246-3-3"><tspan
         sodipodi:role="line"
         style="font-size:45px;line-height:1.20000005"
         x="472.21548"
         y="2453.7727"
         id="tspan937">Laessez-mai vouz </tspan><tspan
         sodipodi:role="line"
         style="font-size:45px;line-height:1.20000005"
         x="472.21548"
         y="2507.7727"
         id="tspan7778">perzenter ma </tspan><tspan
         sodipodi:role="line"
         style="font-size:45px;line-height:1.20000005"
         x="465.18423"
         y="2561.7727"
         id="tspan7782">nouvelle inventeriy…</tspan></text>
    <text
       xml:space="preserve"
       style="font-style:normal;font-variant:normal;font-weight:normal;font-stretch:normal;font-size:13.12304306px;line-height:0%;font-family:Lavi;-inkscape-font-specification:Lavi;text-align:center;letter-spacing:0px;word-spacing:0px;text-anchor:middle;fill:#000000;fill-opacity:1;stroke:none;stroke-width:1"
       x="1063.6987"
       y="2521.3831"
       id="text4246-3-3-2"
       transform="scale(1.0191307,0.98122841)"><tspan
         sodipodi:role="line"
         style="font-style:normal;font-variant:normal;font-weight:normal;font-stretch:normal;font-size:29.16231728px;line-height:1.39999998;font-family:'Press Start 2P';-inkscape-font-specification:'Press Start 2P';stroke-width:0.91442209"
         x="1063.6987"
         y="2521.3831"
         id="tspan881">Hello,</tspan><tspan
         sodipodi:role="line"
         style="font-style:normal;font-variant:normal;font-weight:normal;font-stretch:normal;font-size:29.16231728px;line-height:1.39999998;font-family:'Press Start 2P';-inkscape-font-specification:'Press Start 2P';stroke-width:0.91442209"
         x="1063.6987"
         y="2562.2102"
         id="tspan885">world !</tspan></text>
    <text
       xml:space="preserve"
       style="font-style:normal;font-variant:normal;font-weight:normal;font-stretch:normal;font-size:11.90661621px;line-height:0%;font-family:Lavi;-inkscape-font-specification:Lavi;text-align:center;letter-spacing:0px;word-spacing:0px;text-anchor:middle;fill:#000000;fill-opacity:1;stroke:none;stroke-width:1"
       x="1513.0249"
       y="2368.5864"
       id="text4246-3-3-2-2"
       transform="scale(0.94845419,1.0543472)"><tspan
         sodipodi:role="line"
         style="font-style:normal;font-variant:normal;font-weight:normal;font-stretch:normal;font-size:26.4591465px;line-height:1.39999998;font-family:'Press Start 2P';-inkscape-font-specification:'Press Start 2P';stroke-width:1.06669736"
         x="1526.2545"
         y="2368.5864"
         id="tspan873">Je sei votr </tspan><tspan
         sodipodi:role="line"
         style="font-style:normal;font-variant:normal;font-weight:normal;font-stretch:normal;font-size:26.4591465px;line-height:1.39999998;font-family:'Press Start 2P';-inkscape-font-specification:'Press Start 2P';stroke-width:1.06669736"
         x="1513.0249"
         y="2405.6292"
         id="tspan60">ROBOT PSICOLOGE.</tspan><tspan
         sodipodi:role="line"
         style="font-style:normal;font-variant:normal;font-weight:normal;font-stretch:normal;font-size:26.4591465px;line-height:1.39999998;font-family:'Press Start 2P';-inkscape-font-specification:'Press Start 2P';stroke-width:1.06669736"
         x="1513.0249"
         y="2442.6721"
         id="tspan875">Bip, Bip !</tspan></text>
    <text
       xml:space="preserve"
       style="font-style:normal;font-variant:normal;font-weight:normal;font-stretch:normal;font-size:10.83156013px;line-height:0%;font-family:Lavi;-inkscape-font-specification:Lavi;text-align:center;letter-spacing:0px;word-spacing:0px;text-anchor:middle;fill:#000000;fill-opacity:1;stroke:none;stroke-width:1"
       x="2214.1775"
       y="2338.2759"
       id="text4246-3-3-2-2-7"
       transform="scale(0.94560905,1.0575195)"><tspan
         sodipodi:role="line"
         style="font-style:normal;font-variant:normal;font-weight:normal;font-stretch:normal;font-size:28.884161px;line-height:1.29999995;font-family:'Press Start 2P';-inkscape-font-specification:'Press Start 2P';stroke-width:1"
         x="2214.1775"
         y="2338.2759"
         id="tspan895">Si vouz v’lez</tspan><tspan
         sodipodi:role="line"
         style="font-style:normal;font-variant:normal;font-weight:normal;font-stretch:normal;font-size:28.884161px;line-height:1.29999995;font-family:'Press Start 2P';-inkscape-font-specification:'Press Start 2P';stroke-width:1"
         x="2214.1775"
         y="2375.8252"
         id="tspan7926">ben vouz alonjer</tspan><tspan
         sodipodi:role="line"
         style="font-style:normal;font-variant:normal;font-weight:normal;font-stretch:normal;font-size:28.884161px;line-height:1.29999995;font-family:'Press Start 2P';-inkscape-font-specification:'Press Start 2P';stroke-width:1"
         x="2214.1775"
         y="2413.3748"
         id="tspan7928">sus mon divan</tspan><tspan
         sodipodi:role="line"
         style="font-style:normal;font-variant:normal;font-weight:normal;font-stretch:normal;font-size:28.884161px;line-height:1.29999995;font-family:'Press Start 2P';-inkscape-font-specification:'Press Start 2P';stroke-width:1"
         x="2214.1775"
         y="2450.9241"
         id="tspan7930">pour ûne safrey</tspan><tspan
         sodipodi:role="line"
         style="font-style:normal;font-variant:normal;font-weight:normal;font-stretch:normal;font-size:28.884161px;line-height:1.29999995;font-family:'Press Start 2P';-inkscape-font-specification:'Press Start 2P';stroke-width:1"
         x="2214.1775"
         y="2488.4734"
         id="tspan74"> san paeyer.</tspan></text>
    <text
       xml:space="preserve"
       style="font-style:normal;font-variant:normal;font-weight:normal;font-stretch:normal;line-height:0%;font-family:Lavi;-inkscape-font-specification:Lavi;letter-spacing:0px;word-spacing:0px;fill:#000000;fill-opacity:1;stroke:#000000;stroke-width:2.15795588;stroke-miterlimit:4;stroke-dasharray:none;stroke-opacity:1;filter:url(#filter4375-4-1-1-1-9)"
       x="787.65729"
       y="1584.5073"
       id="text4580"
       transform="matrix(0.46879428,-0.12606586,-0.08654633,0.61214652,623.13411,2085.4411)"><tspan
         sodipodi:role="line"
         id="tspan4582"
         x="787.65729"
         y="1584.5073"
         style="font-style:normal;font-variant:normal;font-weight:bold;font-stretch:normal;font-size:80.40014648px;line-height:1.25;font-family:Lavi;-inkscape-font-specification:'Lavi Bold';fill:#ffffff;stroke-width:2.15795588">Clic !</tspan></text>
    <text
       xml:space="preserve"
       style="font-style:normal;font-variant:normal;font-weight:normal;font-stretch:normal;line-height:0%;font-family:Lavi;-inkscape-font-specification:Lavi;letter-spacing:0px;word-spacing:0px;fill:#000000;fill-opacity:1;stroke:#000000;stroke-width:2.15795588;stroke-miterlimit:4;stroke-dasharray:none;stroke-opacity:1;filter:url(#filter4375-4-1-1-1-9-5)"
       x="787.65729"
       y="1584.5073"
       id="text4580-4"
       transform="matrix(0.46879428,-0.12606586,-0.08654633,0.61214652,2027.5227,1975.6976)"><tspan
         sodipodi:role="line"
         id="tspan4582-7"
         x="787.65729"
         y="1584.5073"
         style="font-style:normal;font-variant:normal;font-weight:bold;font-stretch:normal;font-size:80.40014648px;line-height:1.25;font-family:Lavi;-inkscape-font-specification:'Lavi Bold';fill:#ffffff;stroke-width:2.15795588">Tap !</tspan></text>
    <text
       id="text925"
       y="2471.8889"
       x="2101.0667"
       style="font-style:normal;font-variant:normal;font-weight:normal;font-stretch:normal;line-height:0%;font-family:Lavi;-inkscape-font-specification:Lavi;text-align:center;letter-spacing:0px;word-spacing:0px;text-anchor:middle;fill:#000000;fill-opacity:1;stroke:none"
       xml:space="preserve"><tspan
         id="tspan923"
         y="2471.8889"
         x="2106.1604"
         style="font-style:normal;font-variant:normal;font-weight:normal;font-stretch:normal;font-size:32px;line-height:1.29999995;font-family:'Press Start';-inkscape-font-specification:'Press Start'"
         sodipodi:role="line"> </tspan></text>
  </g>
</svg>
