<?xml version="1.0" encoding="UTF-8" standalone="no"?>
<!-- Created with Inkscape (http://www.inkscape.org/) -->

<svg
   id="svg2"
   version="1.1"
   inkscape:version="1.1.1 (3bf5ae0d25, 2021-09-20)"
   width="2481"
   height="3503"
   sodipodi:docname="E36P07.svg"
   xmlns:inkscape="http://www.inkscape.org/namespaces/inkscape"
   xmlns:sodipodi="http://sodipodi.sourceforge.net/DTD/sodipodi-0.dtd"
   xmlns:xlink="http://www.w3.org/1999/xlink"
   xmlns="http://www.w3.org/2000/svg"
   xmlns:svg="http://www.w3.org/2000/svg"
   xmlns:rdf="http://www.w3.org/1999/02/22-rdf-syntax-ns#"
   xmlns:cc="http://creativecommons.org/ns#"
   xmlns:dc="http://purl.org/dc/elements/1.1/">
  <metadata
     id="metadata8">
    <rdf:RDF>
      <cc:Work
         rdf:about="">
        <dc:format>image/svg+xml</dc:format>
        <dc:type
           rdf:resource="http://purl.org/dc/dcmitype/StillImage" />
        <dc:title />
      </cc:Work>
    </rdf:RDF>
  </metadata>
  <defs
     id="defs6" />
  <sodipodi:namedview
     pagecolor="#1e1e1e"
     bordercolor="#111111"
     borderopacity="1"
     objecttolerance="10"
     gridtolerance="10"
     guidetolerance="10"
     inkscape:pageopacity="0"
     inkscape:pageshadow="2"
     inkscape:window-width="1920"
     inkscape:window-height="967"
     id="namedview4"
     showgrid="false"
     inkscape:zoom="0.74811899"
     inkscape:cx="1799.8474"
     inkscape:cy="3097.7693"
     inkscape:window-x="0"
     inkscape:window-y="72"
     inkscape:window-maximized="1"
     inkscape:current-layer="layer3"
     inkscape:pagecheckerboard="0"
     inkscape:snap-global="false"
     showguides="false" />
  <g
     inkscape:groupmode="layer"
     id="layer2"
     inkscape:label="artwork"
     sodipodi:insensitive="true">
    <image
       xlink:href="../gfx_Pepper-and-Carrot_by-David-Revoy_E36P07.png"
       y="0"
       x="0"
       id="image10"
       height="3503"
       width="2481" />
  </g>
  <g
     inkscape:groupmode="layer"
     id="layer3"
     inkscape:label="speechbubbles"
     style="display:inline">
    <path
       style="color:#000000;display:inline;overflow:visible;visibility:visible;fill:#ffffff;fill-opacity:1;fill-rule:nonzero;stroke:none;stroke-width:0.723436px;marker:none;enable-background:accumulate"
       d="m 1392.6191,2323.7785 c -31.8685,0.7858 -63.7429,6.7484 -94.1635,18.6165 -22.1096,10.7641 -37.7997,38.0604 -39.8994,67.2058 -1.9163,20.9188 -0.571,42.2658 3.3851,62.7126 3.3382,16.309 8.4228,32.3896 16.5242,45.9917 11.7923,15.9976 28.9366,23.0192 45.1525,29.3149 54.8201,20.9688 114.0933,19.312 169.4849,2.5598 16.4697,-5.2362 33.0568,-11.1002 48.0618,-21.1966 16.5035,-14.0822 25.4112,-38.7075 26.8367,-62.9824 2.6012,-22.3283 5.0595,-45.9502 -1.4591,-67.642 -7.4522,-23.4285 -23.964,-40.472 -41.6919,-51.6188 -27.4568,-17.1253 -58.68,-21.1414 -88.9951,-22.0247 -14.4101,-0.4183 -28.8197,-1.0851 -43.2362,-0.9368 z"
       id="path4546-6-3"
       inkscape:connector-curvature="0"
       sodipodi:nodetypes="cssssssc" />
    <path
       style="color:#000000;display:inline;overflow:visible;visibility:visible;fill:#ffffff;fill-opacity:1;fill-rule:nonzero;stroke:none;stroke-width:1.12849px;marker:none;enable-background:accumulate"
       d="m 1276.0008,3121.2879 c -123.1114,7.8598 -164.4641,12.0055 -192.902,78.2766 -19.0846,42.2639 -14.6555,95.2993 13.0019,131.8953 10.9868,14.7764 28.9282,21.8102 46.3623,24.1535 37.4701,7.2537 75.3709,12.6341 113.5615,14.0039 51.8647,2.5609 103.845,1.5026 155.7728,0.5792 27.2476,-0.7393 54.6512,-3.5221 81.013,-11.3152 15.5284,-3.9627 32.0154,-8.2447 44.0787,-19.9145 13.7545,-14.1624 19.3936,-34.4628 21.0086,-53.9016 3.311,-37.7405 7.0387,-91.0027 -20.8471,-120.9277 -39.3733,-42.2527 -116.7341,-37.4981 -168.2456,-41.3929 -30.873,-1.9635 -61.8619,-1.9402 -92.8041,-1.4566 z"
       id="path3330-0"
       inkscape:connector-curvature="0"
       sodipodi:nodetypes="ccssszcccacc" />
    <path
       style="color:#000000;display:inline;overflow:visible;visibility:visible;fill:#ffffff;fill-opacity:1;fill-rule:nonzero;stroke:none;stroke-width:1px;marker:none;enable-background:accumulate"
       d="m 1415.0769,2516.9442 c 13.078,48.3092 -10.2417,132.5122 -94.8507,157.2445 61.4826,-42.714 67.542,-99.1938 51.107,-143.1634 -14.1878,-37.9586 -18.9368,-56.3084 -18.9368,-56.3084 z"
       id="path4440-3"
       inkscape:connector-curvature="0"
       sodipodi:nodetypes="ccscc" />
    <path
       style="color:#000000;display:inline;overflow:visible;visibility:visible;fill:#ffffff;fill-opacity:1;fill-rule:nonzero;stroke:none;stroke-width:1.05023px;marker:none;enable-background:accumulate"
       d="m 1880.5202,3245.1068 c 2.2085,-31.7629 12.1073,-31.4913 46.1902,-2.7607 -8.9937,-56.6463 36.7658,-59.3247 79.4131,-65.0705 -4.8912,-15.916 -11.6693,-38.2895 36.129,-53.5443 -45.7166,-2.1974 -47.656,-17.2553 -33.086,-32.6716 -34.0385,7.3462 -58.3861,14.6762 -18.1274,-19.5049 -37.997,19.4188 -63.8313,30.0718 -49.5011,-19.7906 -14.3883,6.7868 -55.7297,34.5246 -75.9089,-26.5894 -0.638,33.2488 -57.184,60.6052 -84.9534,17.683 14.0583,35.7635 3.0629,71.3915 -53.6329,48.0907 54.4907,39.0305 2.2272,39.6552 -13.9489,42.9402 45.9271,5.3047 36.7135,17.4578 4.9221,37.6185 94.5952,3.1469 42.5371,23.176 43.0006,36.7345 57.5862,-12.4701 53.8853,12.8638 62.1299,31.6447 54.8403,-57.2852 38.1795,-47.0534 57.3737,5.2204 z"
       id="path3549-3-1"
       inkscape:connector-curvature="0"
       sodipodi:nodetypes="ccccccccccccccc" />
    <path
       style="fill:#ffffff;fill-rule:evenodd;stroke:none;stroke-width:1.21249px;stroke-linecap:butt;stroke-linejoin:miter;stroke-opacity:1"
       d="m 1989.6959,3144.1223 c -74.9853,1.6045 -149.6899,8.2166 -224.5589,11.8616 -32.9986,3.7429 -65.5595,16.5925 -88.4014,39.0024 -11.6367,13.4954 -17.3535,30.157 -23.0556,46.2588 -10.7977,34.1396 -4.0309,81.3919 19.9542,109.7055 40.9156,40.6174 107.608,34.4598 160.2863,37.9089 49.1096,3.5503 98.4627,5.7978 147.7019,3.1976 32.0376,-1.5617 64.1038,-2.5506 96.1822,-3.0531 16.0352,-0.5227 32.221,0.091 48.0624,-2.6436 34.9791,-5.5485 66.4988,-9.5675 88.6783,-35.0308 12.7532,-14.4302 23.0691,-44.9861 23.305,-63.7093 0.8803,-20.8143 -3.8414,-41.5121 -10.7481,-61.2524 -10.3769,-26.0948 -31.3539,-49.5251 -59.7551,-60.5823 -23.989,-9.3973 -50.2308,-11.8033 -75.7321,-15.7531 -33.7312,-4.4184 -67.8475,-6.3334 -101.9191,-5.9102 z"
       id="path1289"
       inkscape:connector-curvature="0"
       sodipodi:nodetypes="csssccscccccccc" />
    <path
       style="color:#000000;display:inline;overflow:visible;visibility:visible;fill:#ffffff;fill-opacity:1;fill-rule:nonzero;stroke:none;stroke-width:1.20459px;marker:none;enable-background:accumulate"
       d="m 382.30364,3178.3461 c 8.01815,-15.2948 41.83156,-13.2985 53.79838,-8.8438 -22.66655,-20.2401 -20.36887,-31.1953 13.74655,-29.5557 -52.70025,-37.6508 -6.87752,-28.2088 3.33423,-35.4235 -43.20357,-15.4528 -21.45978,-27.2125 -11.7463,-40.1001 -51.23756,-5.5458 -31.61637,-25.8031 -31.52182,-43.4742 -5.40776,7.7618 -29.29184,30.6558 -26.94536,2.7654 -37.35541,23.1348 -80.43636,36.2037 -77.68821,-10.4783 -16.68633,21.9701 -31.59082,30.479 -26.94545,2.7653 -38.55022,32.8282 -67.30638,16.7937 -96.60456,3.5382 -9.45387,10.1245 -12.55967,26.8076 -38.06986,20.3017 2.24887,11.1849 -7.49789,17.7561 -27.90835,20.2115 25.51802,9.1464 46.36361,24.3964 -3.52525,26.8111 37.15781,4.3877 54.84056,10.5439 7.9403,30.9706 13.63259,1.9557 48.83825,-24.7857 25.85864,34.1541 26.07667,-17.0164 52.61001,-25.2072 78.91404,18.4447 17.54577,-18.7712 44.73356,-26.2298 52.72845,0.1768 5.44256,-10.3819 22.7548,-12.7755 37.07018,-11.8575 4.95749,4.8286 9.8896,11.2082 14.836,19.4168 11.76373,-15.0441 27.66336,-24.4177 52.72839,0.1769 z"
       id="path3549-3-7-5"
       inkscape:connector-curvature="0"
       sodipodi:nodetypes="cccccccccccccccccccc" />
    <path
       style="color:#000000;display:inline;overflow:visible;visibility:visible;fill:#ffffff;fill-opacity:1;fill-rule:nonzero;stroke:none;stroke-width:1.04204px;marker:none;enable-background:accumulate"
       d="m 367.15199,3119.1277 c -57.07353,0.9133 -114.81826,12.563 -166.39331,40.5173 -32.90774,20.8846 -50.27564,64.9068 -47.32658,106.1516 0.94057,25.2976 6.96859,53.1536 25.90465,69.3196 20.7036,17.5511 45.92368,26.9894 70.95105,33.7311 52.06484,12.9707 105.76184,10.2319 158.73028,10.7899 47.18316,-0.143 94.52787,1.4501 141.54607,-3.8477 21.94665,-2.553 44.74721,-8.0831 62.107,-24.2243 20.7489,-18.0595 34.35852,-46.2242 35.00327,-75.7019 3.53366,-51.0013 -24.04848,-103.9188 -67.50372,-122.3543 -45.96658,-22.2488 -96.62659,-26.2075 -145.89222,-31.6526 -22.32638,-1.9732 -44.72659,-3.0826 -67.12649,-2.7287 z"
       id="path3970-3"
       inkscape:connector-curvature="0"
       sodipodi:nodetypes="cccscsc" />
    <path
       style="color:#000000;display:inline;overflow:visible;visibility:visible;fill:#ffffff;fill-opacity:1;fill-rule:nonzero;stroke:none;stroke-width:1.35295px;marker:none;enable-background:accumulate"
       d="m 655.60209,3020.9694 c 36.37209,56.4559 22.81983,82.4225 15.3529,101.9191 -8.64995,-2.3738 -25.16043,-4.9757 -25.16043,-4.9757 0,0 -35.04306,58.5581 -44.82978,72.5197 -9.78688,13.9616 -38.13341,-23.0686 -38.13341,-23.0686 0,0 68.63867,-58.196 66.88456,-75.5935 13.71733,3.6481 17.96983,3.6232 26.02992,4.8839 8.53279,-9.9614 11.95899,-55.362 -0.14376,-75.6849 z"
       id="path4456-8"
       inkscape:connector-curvature="0"
       sodipodi:nodetypes="cccscccc" />
    <path
       style="color:#000000;display:inline;overflow:visible;visibility:visible;fill:#ffffff;fill-opacity:1;fill-rule:nonzero;stroke:none;stroke-width:0.979134px;marker:none;enable-background:accumulate"
       d="m 1279.5978,3141.166 c 37.0189,-51.8094 10.4316,-107.7029 -22.8129,-123.0094 56.1643,10.3304 79.8618,67.0698 67.3523,120.7861 -6.1858,26.5623 -44.5394,2.2233 -44.5394,2.2233 z"
       id="path5010-4"
       inkscape:connector-curvature="0"
       sodipodi:nodetypes="ccsc"
       inkscape:transform-center-x="-17.477815"
       inkscape:transform-center-y="-10.798976" />
    <path
       style="color:#000000;display:inline;overflow:visible;visibility:visible;fill:#ffffff;fill-opacity:1;fill-rule:nonzero;stroke:none;stroke-width:1.49141px;marker:none;enable-background:accumulate"
       d="m 1912.7642,3104.2315 c -3.1414,-3.557 26.8816,-45.1626 26.8816,-45.1626 0,0 7.0815,-20.2283 7.5221,-24.0935 7.8248,-6.4155 25.8113,-4.3144 25.8113,-4.3144 l -34.365,-47.8529 16.512,38.7245 -25.6669,-0.2625 -0.1009,31.7053 c -10.1565,5.7069 -22.8946,9.8614 -42.2141,10.0585 z"
       id="path4448"
       inkscape:connector-curvature="0"
       sodipodi:nodetypes="cccccccccc" />
  </g>
  <g
     inkscape:groupmode="layer"
     id="layer1"
     inkscape:label="txt"
     style="display:inline">
    <text
       xml:space="preserve"
       style="font-style:normal;font-variant:normal;font-weight:normal;font-stretch:normal;font-size:14.5146px;line-height:0%;font-family:Lavi;-inkscape-font-specification:Lavi;text-align:center;letter-spacing:0px;word-spacing:0px;text-anchor:middle;fill:#000000;fill-opacity:1;stroke:none;stroke-width:1.20955"
       x="284.33972"
       y="3110.5491"
       id="text4246-3-3"><tspan
         sodipodi:role="line"
         x="284.33972"
         y="3110.5491"
         id="tspan852"
         style="font-style:normal;font-variant:normal;font-weight:bold;font-stretch:normal;font-size:54.4298px;line-height:1.25;font-family:Lavi;-inkscape-font-specification:'Lavi Bold';stroke-width:1.20955">Adjutant!</tspan></text>
    <text
       xml:space="preserve"
       style="font-style:normal;font-variant:normal;font-weight:normal;font-stretch:normal;line-height:0%;font-family:Lavi;-inkscape-font-specification:Lavi;text-align:center;letter-spacing:0px;word-spacing:0px;text-anchor:middle;fill:#000000;fill-opacity:1;stroke:none"
       x="400.06033"
       y="3212.9673"
       id="text4246-3-5-9"><tspan
         sodipodi:role="line"
         style="font-size:45px;line-height:1.25"
         x="400.06033"
         y="3212.9673"
         id="tspan9617">Er du sikker på</tspan><tspan
         sodipodi:role="line"
         style="font-size:45px;line-height:1.25"
         x="400.06033"
         y="3269.2173"
         id="tspan143697">at dette er tempelet</tspan><tspan
         sodipodi:role="line"
         style="font-size:45px;line-height:1.25"
         x="400.06033"
         y="3325.4673"
         id="tspan145035">til denne heksa?</tspan></text>
    <text
       xml:space="preserve"
       style="font-style:normal;font-variant:normal;font-weight:normal;font-stretch:normal;line-height:0%;font-family:Lavi;-inkscape-font-specification:Lavi;text-align:center;letter-spacing:0px;word-spacing:0px;text-anchor:middle;fill:#000000;fill-opacity:1;stroke:none"
       x="1414.6707"
       y="2400.302"
       id="text4246-3-5-9-3"><tspan
         sodipodi:role="line"
         style="font-size:45px;line-height:1.25"
         x="1414.6707"
         y="2400.302"
         id="tspan25784">Temmeleg</tspan><tspan
         sodipodi:role="line"
         style="font-size:45px;line-height:1.25"
         x="1414.6707"
         y="2456.552"
         id="tspan400">sikker,</tspan><tspan
         sodipodi:role="line"
         style="font-size:45px;line-height:1.25"
         x="1414.6707"
         y="2512.802"
         id="tspan156476">min herre!</tspan></text>
    <text
       xml:space="preserve"
       style="font-style:normal;font-variant:normal;font-weight:normal;font-stretch:normal;line-height:0%;font-family:Lavi;-inkscape-font-specification:Lavi;text-align:center;letter-spacing:0px;word-spacing:0px;text-anchor:middle;fill:#000000;fill-opacity:1;stroke:none"
       x="1314.0895"
       y="3211.0166"
       id="text4246-3-5-9-3-3-6"><tspan
         sodipodi:role="line"
         style="font-size:45px;line-height:1.25"
         x="1314.0895"
         y="3211.0166"
         id="tspan36535">Fleire av spionane</tspan><tspan
         sodipodi:role="line"
         style="font-size:45px;line-height:1.25"
         x="1314.0895"
         y="3267.2666"
         id="tspan158952">våre har sett henne</tspan><tspan
         sodipodi:role="line"
         style="font-size:45px;line-height:1.25"
         x="1314.0895"
         y="3323.5166"
         id="tspan158954">her i det siste.</tspan></text>
    <text
       xml:space="preserve"
       style="font-style:normal;font-variant:normal;font-weight:normal;font-stretch:normal;line-height:0%;font-family:Lavi;-inkscape-font-specification:Lavi;text-align:center;letter-spacing:0px;word-spacing:0px;text-anchor:middle;fill:#000000;fill-opacity:1;stroke:none"
       x="1881.0886"
       y="3134.877"
       id="text4246-3-3-7"><tspan
         sodipodi:role="line"
         style="font-style:normal;font-variant:normal;font-weight:bold;font-stretch:normal;font-size:45px;line-height:1.25;font-family:Lavi;-inkscape-font-specification:'Lavi Bold'"
         x="1881.0886"
         y="3134.877"
         id="tspan67-0">Grrr...</tspan><tspan
         sodipodi:role="line"
         x="1881.0886"
         y="3153.7966"
         id="tspan852-9" /></text>
    <text
       xml:space="preserve"
       style="font-style:normal;font-variant:normal;font-weight:normal;font-stretch:normal;line-height:0%;font-family:Lavi;-inkscape-font-specification:Lavi;text-align:center;letter-spacing:0px;word-spacing:0px;text-anchor:middle;fill:#000000;fill-opacity:1;stroke:none"
       x="1943.9279"
       y="3228.063"
       id="text4246-3-5-9-3-3-6-3"><tspan
         sodipodi:role="line"
         style="font-size:45px;line-height:1.25;fill:#000000"
         x="1943.9279"
         y="3228.063"
         id="tspan13482">Så det er her ho som</tspan><tspan
         sodipodi:role="line"
         style="font-size:45px;line-height:1.25;fill:#000000"
         x="1943.9279"
         y="3284.313"
         id="tspan165316"><tspan
           style="font-weight:bold"
           id="tspan165314">trugar kringskunsten og</tspan></tspan><tspan
         sodipodi:role="line"
         style="font-size:45px;line-height:1.25;fill:#000000"
         x="1943.9279"
         y="3340.563"
         id="tspan165324"><tspan
   style="font-weight:bold"
   id="tspan165326">tradisjonane våre</tspan>, bur!</tspan></text>
  </g>
</svg>
