<?xml version="1.0" encoding="UTF-8" standalone="no"?>
<!-- Created with Inkscape (http://www.inkscape.org/) -->

<svg
   xmlns:dc="http://purl.org/dc/elements/1.1/"
   xmlns:cc="http://creativecommons.org/ns#"
   xmlns:rdf="http://www.w3.org/1999/02/22-rdf-syntax-ns#"
   xmlns:svg="http://www.w3.org/2000/svg"
   xmlns="http://www.w3.org/2000/svg"
   xmlns:xlink="http://www.w3.org/1999/xlink"
   xmlns:sodipodi="http://sodipodi.sourceforge.net/DTD/sodipodi-0.dtd"
   xmlns:inkscape="http://www.inkscape.org/namespaces/inkscape"
   id="svg2"
   version="1.1"
   inkscape:version="0.92.4 5da689c313, 2019-01-14"
   width="2481"
   height="3503"
   sodipodi:docname="E14P04.svg">
  <metadata
     id="metadata8">
    <rdf:RDF>
      <cc:Work
         rdf:about="">
        <dc:format>image/svg+xml</dc:format>
        <dc:type
           rdf:resource="http://purl.org/dc/dcmitype/StillImage" />
        <dc:title />
      </cc:Work>
    </rdf:RDF>
  </metadata>
  <defs
     id="defs6" />
  <sodipodi:namedview
     pagecolor="#ffffff"
     bordercolor="#666666"
     borderopacity="1"
     objecttolerance="10"
     gridtolerance="10"
     guidetolerance="10"
     inkscape:pageopacity="0"
     inkscape:pageshadow="2"
     inkscape:window-width="1366"
     inkscape:window-height="740"
     id="namedview4"
     showgrid="false"
     inkscape:zoom="0.38669903"
     inkscape:cx="1120.7065"
     inkscape:cy="1187.9637"
     inkscape:window-x="0"
     inkscape:window-y="0"
     inkscape:window-maximized="1"
     inkscape:current-layer="layer3"
     showguides="false" />
  <g
     inkscape:groupmode="layer"
     id="layer2"
     inkscape:label="artwork"
     sodipodi:insensitive="true">
    <image
       sodipodi:absref="/home/tirifto/Développement/Pepper &amp; Carrot/webcomics/ep14_The-Dragon-s-Tooth/lang/eo/../gfx_Pepper-and-Carrot_by-David-Revoy_E14P04.png"
       xlink:href="../gfx_Pepper-and-Carrot_by-David-Revoy_E14P04.png"
       y="0"
       x="0"
       id="image10"
       height="3503"
       width="2481" />
  </g>
  <g
     inkscape:groupmode="layer"
     id="layer3"
     inkscape:label="speechbubbles">
    <path
       style="color:#000000;display:inline;overflow:visible;visibility:visible;fill:#ffffff;fill-opacity:1;fill-rule:nonzero;stroke:none;stroke-width:1px;marker:none;enable-background:accumulate"
       d="m 1624.3083,358.98599 c 10.5479,-20.326 55.0295,-17.6728 70.7719,-11.75341 -29.8179,-26.89811 -22.7953,-41.4565 22.0836,-39.27815 -69.3273,-50.03545 -9.0474,-37.4874 4.3862,-47.07518 -56.8344,-20.53598 -28.2304,-36.16477 -15.4523,-53.29185 -67.4031,-7.3692 -43.5914,-34.29072 -43.467,-57.77429 -7.1139,10.31432 -40.5335,40.73998 -37.4467,3.67491 -49.1411,30.74469 -105.8142,48.1124 -102.199,-13.92516 -21.9509,29.19715 -41.5578,40.50459 -35.4468,3.67491 -50.7129,43.62724 -92.5417,20.31788 -131.0835,2.70221 -12.4366,13.45458 -16.5223,35.62602 -50.081,26.98031 2.9584,14.86369 -9.8635,23.59611 -36.7135,26.85913 33.569,12.15538 38.8137,21.7567 -26.8152,24.96534 48.8812,5.83063 92.3299,16.30915 30.6325,43.45537 17.9337,2.5986 66.2375,-20.57052 36.0078,57.75726 34.3039,-22.61401 73.2086,-35.499 107.8116,22.51255 23.0815,-24.94651 58.8471,-34.85784 69.3644,0.23525 7.1597,-13.79701 29.934,-16.97865 48.7659,-15.75827 6.5216,6.41655 13.0098,14.89498 19.5168,25.80383 15.4752,-19.99328 36.3912,-32.44989 69.3643,0.23524 z"
       id="path3549-3-7"
       inkscape:connector-curvature="0"
       sodipodi:nodetypes="cccccccccccccccccccc" />
    <path
       style="fill:#ffffff;fill-rule:evenodd;stroke:none;stroke-width:1px;stroke-linecap:butt;stroke-linejoin:miter;stroke-opacity:1"
       d="m 1512.728,333.23881 c -14.0275,-2.75755 -26.8311,5.52359 -38.636,12.07893 -7.6021,3.93838 -15.7544,7.60882 -20.9722,14.87533 -5.1521,5.73841 -6.9366,15.9276 -0.2434,21.24242 4.7631,2.76075 11.6542,7.97375 7.1799,14.25838 -2.5773,5.32331 -9.5316,7.01313 -10.6679,13.1085 -2.7717,8.49796 4.1303,16.17783 11.2558,19.25645 5.2807,2.03439 10.1592,2.80096 10.8624,9.29875 5.382,9.76609 17.2314,11.34577 27.0726,12.19411 8.4483,0.44992 16.9745,1.81986 25.3365,-0.24661 9.3756,-1.707 20.6892,-4.58685 28.4252,2.99641 13.6091,8.48643 30.0643,10.30023 45.6868,11.07215 7.8612,0.0565 15.8089,0.95629 23.6205,0.12757 16.4985,-2.8175 33.3706,-3.75591 50.0017,-1.71264 17.3475,-0.095 29.8984,-16.69364 47.3406,-16.25915 14.365,-3.33988 30.3242,-6.59382 40.489,-18.5539 4.4311,-4.36517 4.1325,-11.66902 9.7937,-14.45037 4.3409,-6.16102 -1.6917,-14.45989 -7.9214,-15.99606 -6.0335,-0.32119 5.3667,-2.213 6.5922,-5.01905 6.2326,-4.59011 10.6854,-14.65891 4.778,-21.34731 -13.2948,-12.80871 -33.4784,-13.59931 -46.8434,-26.36988 -11.1265,-5.50852 -22.9556,1.08434 -34.2396,2.33379 -5.5596,-1.26427 -7.9315,-10.50793 -14.9097,-11.5648 -8.956,-3.81615 -18.8433,-3.95541 -28.3857,-4.03777 -9.2471,6.39721 -20.9792,3.94985 -30.7436,0.29467 -8.5214,-3.10334 -17.6105,-5.53554 -26.6629,-3.50688 -6.6728,0.53179 -14.2617,3.98461 -20.5142,1.19596 -8.7961,-7.44542 -20.8389,-3.72347 -31.1931,-4.54728 -7.1157,-2.01053 -13.6156,2.57428 -19.8905,5.36572 -2.5088,1.11665 -10.3503,5.89786 -1.9078,3.91252"
       id="path4220"
       inkscape:connector-curvature="0" />
    <path
       style="color:#000000;fill:#ffffff;fill-opacity:1;fill-rule:nonzero;stroke:none;stroke-width:1px;marker:none;visibility:visible;display:inline;overflow:visible;enable-background:accumulate"
       d="m 1300.0489,540.22962 c 19.7487,-38.95541 61.2893,-71.71337 115.7685,-84.99363 54.4795,-13.28025 155.2663,-9.73889 172.9722,-5.31208 17.7057,4.42672 115.0875,20.36297 136.1982,42.49676 21.1109,22.13379 49.7126,49.57967 55.8414,77.91081 6.1291,28.33124 0.681,96.50325 -19.0677,111.55423 -19.7488,15.05099 -109.6398,47.80895 -162.0762,49.57958 -52.4364,1.77072 -174.3339,-12.3949 -209.0645,-22.1337 -34.7306,-9.7389 -71.5042,-22.13379 -82.4,-53.12102 -10.8959,-30.98734 -31.3256,-71.71347 -8.1719,-115.98095 z"
       id="path3533"
       inkscape:connector-curvature="0" />
    <path
       style="color:#000000;display:inline;overflow:visible;visibility:visible;fill:#ffffff;fill-opacity:1;fill-rule:nonzero;stroke:none;stroke-width:1px;marker:none;enable-background:accumulate"
       d="m 1678.4528,528.49189 c 30.5923,52.37324 -103.4044,94.84893 -110.4621,125.45674 -2.3684,10.27079 -5.582,32.22619 0.4801,42.42915 10.2279,17.21496 39.4486,19.14791 -24.0871,109.8658 -15.4603,19.92013 12.0481,56.95066 47.151,66.90119 28.0513,17.10155 -7.3932,123.12378 -37.4741,172.62433 43.7979,-42.6678 77.2922,-149.02168 64.215,-140.15631 4.5835,-35.53698 -13.701,-44.07469 -23.5467,-53.21369 -9.8457,-9.13907 -29.5569,-14.98259 -28.3948,-30.06869 1.1623,-15.08705 39.8018,-58.24357 44.8599,-85.55656 5.0578,-27.31218 -22.1531,-43.05915 -16.0064,-68.06815 6.1465,-25.00909 83.9624,-57.20023 102.0984,-79.91604 20.9522,-23.39323 25.1007,-60.90229 25.1007,-60.90229 z"
       id="path3153"
       inkscape:connector-curvature="0"
       sodipodi:nodetypes="cssccccscssccc" />
    <path
       style="color:#000000;display:inline;overflow:visible;visibility:visible;fill:#ffffff;fill-opacity:1;fill-rule:nonzero;stroke:none;stroke-width:1px;marker:none;enable-background:accumulate"
       d="m 1475.5653,923.4853 c 0.7213,-47.05507 14.7719,-91.55482 139.3276,-90.01485 93.3925,1.15467 118.2634,37.40956 120.3326,84.97275 1.4583,33.51868 -49.0677,64.54426 -129.3079,62.90076 -76.6942,-1.57085 -124.7435,-21.97449 -130.3523,-57.85866 z"
       id="path5026"
       inkscape:connector-curvature="0"
       sodipodi:nodetypes="csssc" />
    <path
       style="color:#000000;display:inline;overflow:visible;visibility:visible;fill:#ffffff;fill-opacity:1;fill-rule:nonzero;stroke:none;stroke-width:1px;marker:none;enable-background:accumulate"
       d="m 220.13681,1919.4087 c 10.13168,-44.5515 31.25486,-91.0727 224.13101,-81.9927 192.87616,9.0799 235.86398,49.3421 236.32314,95.588 0.60145,60.5793 -49.78374,70.1685 -78.0741,77.4484 -28.29023,7.2798 -94.50022,15.0338 -142.10451,16.9543 -25.59581,1.0327 -180.72371,-7.0788 -209.74526,-30.4482 -28.91806,-23.2861 -33.28283,-45.4895 -30.53028,-77.5498 z"
       id="path3365"
       inkscape:connector-curvature="0"
       sodipodi:nodetypes="csssssc" />
    <path
       style="fill:#ffffff;stroke:none"
       d="m 775.29634,2210.1226 c -7.10517,87.1071 -107.57769,100.5793 -153.95929,103.1537 -46.38157,2.5745 -169.73905,13.8088 -211.53154,-59.0537 -41.7925,-72.8626 -23.43631,-106.2857 3.74297,-141.7918 23.17752,-30.2786 77.6678,-44.9271 125.36617,-52.0981 59.22705,-8.9041 157.55737,11.7932 198.62245,49.0571 21.89955,19.8722 44.86445,13.6257 37.75924,100.7328 z"
       id="path3100"
       inkscape:connector-curvature="0"
       sodipodi:nodetypes="zsssssz" />
    <path
       style="fill:#ffffff;fill-rule:evenodd;stroke:none;stroke-width:1px;stroke-linecap:butt;stroke-linejoin:miter;stroke-opacity:1"
       d="m 534.12829,1990.1588 c 25.7289,58.6047 40.02273,101.4862 22.87013,151.5146 -17.15259,50.0284 1.42939,104.345 -12.86445,141.509 -14.29383,37.1639 -38.54491,47.2584 -11.43506,107.2037 19.79941,43.7805 -85.08462,39.3605 -44.31895,127.2554 -63.78914,-78.8501 40.07923,-99.8873 25.7289,-127.2151 -28.88282,-55.0024 -7.13885,-80.0858 2.86684,-105.8147 10.00568,-25.7289 -6.87995,-119.2204 10.00568,-151.5146 18.13588,-34.6853 -17.29178,-107.4567 -22.87013,-131.5032 -7.17205,-30.9164 30.01704,-11.4351 30.01704,-11.4351 z"
       id="path4313"
       inkscape:connector-curvature="0"
       sodipodi:nodetypes="cssscssssc" />
  </g>
  <g
     inkscape:groupmode="layer"
     id="layer1"
     inkscape:label="txt">
    <text
       xml:space="preserve"
       style="font-style:normal;font-variant:normal;font-weight:normal;font-stretch:normal;line-height:0%;font-family:Lavi;-inkscape-font-specification:Lavi;text-align:center;letter-spacing:0px;word-spacing:0px;text-anchor:middle;fill:#000000;fill-opacity:1;stroke:none"
       x="1503.0696"
       y="262.59164"
       id="text4246"><tspan
         sodipodi:role="line"
         style="font-size:67.89629364px;line-height:1.25"
         x="1503.0696"
         y="262.59164"
         id="tspan4252">Karoĉjo <tspan
   style="letter-spacing:3.5px"
   id="tspan4545">!</tspan>...</tspan></text>
    <text
       xml:space="preserve"
       style="font-style:normal;font-variant:normal;font-weight:normal;font-stretch:normal;line-height:0%;font-family:Lavi;-inkscape-font-specification:Lavi;text-align:center;letter-spacing:0px;word-spacing:0px;text-anchor:middle;fill:#000000;fill-opacity:1;stroke:none"
       x="1617.882"
       y="408.19888"
       id="text4246-1"><tspan
         sodipodi:role="line"
         style="font-size:45px;line-height:1.25"
         x="1617.882"
         y="408.19888"
         id="tspan4252-8">Revenu...</tspan></text>
    <text
       xml:space="preserve"
       style="font-style:normal;font-variant:normal;font-weight:normal;font-stretch:normal;line-height:0%;font-family:Lavi;-inkscape-font-specification:Lavi;text-align:center;letter-spacing:0px;word-spacing:0px;text-anchor:middle;fill:#000000;fill-opacity:1;stroke:none"
       x="1535.0493"
       y="544.34924"
       id="text4246-1-3"><tspan
         sodipodi:role="line"
         style="font-size:45px;line-height:1.25"
         x="1535.0493"
         y="544.34924"
         id="tspan4174">... Oni diras ja,</tspan><tspan
         sodipodi:role="line"
         style="font-size:45px;line-height:1.25"
         x="1535.0493"
         y="600.59924"
         id="tspan3021">ke la marĉodrako</tspan><tspan
         sodipodi:role="line"
         style="font-size:45px;line-height:1.25"
         x="1535.0493"
         y="656.84924"
         id="tspan3023">estas pli cedema...</tspan></text>
    <text
       xml:space="preserve"
       style="font-style:normal;font-variant:normal;font-weight:normal;font-stretch:normal;line-height:0%;font-family:Lavi;-inkscape-font-specification:Lavi;text-align:center;letter-spacing:0px;word-spacing:0px;text-anchor:middle;fill:#000000;fill-opacity:1;stroke:none"
       x="1607.5629"
       y="896.56146"
       id="text4246-1-3-6"><tspan
         sodipodi:role="line"
         style="font-size:35.54689407px;line-height:1.25"
         x="1607.5629"
         y="896.56146"
         id="tspan4212">Tion mi ne</tspan><tspan
         sodipodi:role="line"
         style="font-size:35.54689407px;line-height:1.25"
         x="1607.5629"
         y="940.99506"
         id="tspan3027">elpensis...</tspan></text>
    <text
       xml:space="preserve"
       style="font-style:normal;font-variant:normal;font-weight:normal;font-stretch:normal;line-height:0%;font-family:Lavi;-inkscape-font-specification:Lavi;text-align:center;letter-spacing:0px;word-spacing:0px;text-anchor:middle;fill:#000000;fill-opacity:1;stroke:none"
       x="447.2666"
       y="1921.0948"
       id="text4246-10"><tspan
         sodipodi:role="line"
         style="font-size:45px;line-height:1.25"
         x="447.2666"
         y="1921.0948"
         id="tspan4252-1">Mmm... Por la</tspan><tspan
         sodipodi:role="line"
         style="font-size:45px;line-height:1.25"
         x="447.2666"
         y="1977.3448"
         id="tspan4262">fulmodrako...</tspan></text>
    <text
       xml:space="preserve"
       style="font-style:normal;font-variant:normal;font-weight:normal;font-stretch:normal;line-height:0%;font-family:Lavi;-inkscape-font-specification:Lavi;text-align:center;letter-spacing:0px;word-spacing:0px;text-anchor:middle;fill:#000000;fill-opacity:1;stroke:none"
       x="575.8111"
       y="2145.9912"
       id="text4246-10-5"><tspan
         sodipodi:role="line"
         style="font-size:45px;line-height:1.25"
         x="575.8111"
         y="2145.9912"
         id="tspan4289">... Ne certas</tspan><tspan
         sodipodi:role="line"
         style="font-size:45px;line-height:1.25"
         x="575.8111"
         y="2202.2412"
         id="tspan3034">ke tiu tirpinĉilo</tspan><tspan
         sodipodi:role="line"
         style="font-size:45px;line-height:1.25"
         x="575.8111"
         y="2258.4912"
         id="tspan3040">taŭgas</tspan></text>
  </g>
</svg>
