<?xml version="1.0" encoding="UTF-8" standalone="no"?>
<!-- Created with Inkscape (http://www.inkscape.org/) -->

<svg
   xmlns:dc="http://purl.org/dc/elements/1.1/"
   xmlns:cc="http://creativecommons.org/ns#"
   xmlns:rdf="http://www.w3.org/1999/02/22-rdf-syntax-ns#"
   xmlns:svg="http://www.w3.org/2000/svg"
   xmlns="http://www.w3.org/2000/svg"
   xmlns:xlink="http://www.w3.org/1999/xlink"
   xmlns:sodipodi="http://sodipodi.sourceforge.net/DTD/sodipodi-0.dtd"
   xmlns:inkscape="http://www.inkscape.org/namespaces/inkscape"
   id="svg2"
   version="1.1"
   inkscape:version="0.92.1 r15371"
   width="2481"
   height="3503"
   sodipodi:docname="E28P04.svg"
   inkscape:export-filename="/home/dash/Downloads/pepper carrot EPS/ep28_The-Festivities_lang-pack/lang/ph/E28P04.svg.png"
   inkscape:export-xdpi="96"
   inkscape:export-ydpi="96">
  <metadata
     id="metadata8">
    <rdf:RDF>
      <cc:Work
         rdf:about="">
        <dc:format>image/svg+xml</dc:format>
        <dc:type
           rdf:resource="http://purl.org/dc/dcmitype/StillImage" />
        <dc:title />
      </cc:Work>
    </rdf:RDF>
  </metadata>
  <defs
     id="defs6">
    <filter
       style="color-interpolation-filters:sRGB"
       id="filter4375-4-1-1-1-9"
       inkscape:label="deevad outline effect">
      <feFlood
         id="feFlood4377-7-9-0-8-1"
         flood-opacity="1"
         flood-color="rgb(222,191,116)"
         result="flood" />
      <feComposite
         id="feComposite4379-3-8-8-2-77"
         in2="SourceGraphic"
         in="flood"
         operator="in"
         result="composite1" />
      <feMorphology
         id="feMorphology4393-1-0-49-8-9"
         operator="dilate"
         radius="4"
         result="result3" />
      <feComposite
         id="feComposite4385-9-5-7-0-8"
         in2="result3"
         in="SourceGraphic"
         operator="over"
         result="composite2" />
    </filter>
    <filter
       style="color-interpolation-filters:sRGB"
       id="filter4375-4-1-1-1-9-6"
       inkscape:label="deevad outline effect">
      <feFlood
         id="feFlood4377-7-9-0-8-1-5"
         flood-opacity="1"
         flood-color="rgb(222,191,116)"
         result="flood" />
      <feComposite
         id="feComposite4379-3-8-8-2-77-6"
         in2="SourceGraphic"
         in="flood"
         operator="in"
         result="composite1" />
      <feMorphology
         id="feMorphology4393-1-0-49-8-9-8"
         operator="dilate"
         radius="4"
         result="result3" />
      <feComposite
         id="feComposite4385-9-5-7-0-8-0"
         in2="result3"
         in="SourceGraphic"
         operator="over"
         result="composite2" />
    </filter>
    <filter
       style="color-interpolation-filters:sRGB"
       id="filter987"
       inkscape:label="deevad outline effect">
      <feFlood
         id="feFlood979"
         flood-opacity="1"
         flood-color="rgb(222,191,116)"
         result="flood" />
      <feComposite
         id="feComposite981"
         in2="SourceGraphic"
         in="flood"
         operator="in"
         result="composite1" />
      <feMorphology
         id="feMorphology983"
         operator="dilate"
         radius="4"
         result="result3" />
      <feComposite
         id="feComposite985"
         in2="result3"
         in="SourceGraphic"
         operator="over"
         result="composite2" />
    </filter>
    <filter
       style="color-interpolation-filters:sRGB"
       id="filter4375-4-1-1-1-9-4"
       inkscape:label="deevad outline effect">
      <feFlood
         id="feFlood4377-7-9-0-8-1-8"
         flood-opacity="1"
         flood-color="rgb(222,191,116)"
         result="flood" />
      <feComposite
         id="feComposite4379-3-8-8-2-77-2"
         in2="SourceGraphic"
         in="flood"
         operator="in"
         result="composite1" />
      <feMorphology
         id="feMorphology4393-1-0-49-8-9-3"
         operator="dilate"
         radius="4"
         result="result3" />
      <feComposite
         id="feComposite4385-9-5-7-0-8-8"
         in2="result3"
         in="SourceGraphic"
         operator="over"
         result="composite2" />
    </filter>
    <filter
       style="color-interpolation-filters:sRGB"
       id="filter1046"
       inkscape:label="deevad outline effect">
      <feFlood
         id="feFlood1038"
         flood-opacity="1"
         flood-color="rgb(222,191,116)"
         result="flood" />
      <feComposite
         id="feComposite1040"
         in2="SourceGraphic"
         in="flood"
         operator="in"
         result="composite1" />
      <feMorphology
         id="feMorphology1042"
         operator="dilate"
         radius="4"
         result="result3" />
      <feComposite
         id="feComposite1044"
         in2="result3"
         in="SourceGraphic"
         operator="over"
         result="composite2" />
    </filter>
    <filter
       style="color-interpolation-filters:sRGB"
       id="filter4375-4-1-1-1-9-4-8"
       inkscape:label="deevad outline effect">
      <feFlood
         id="feFlood4377-7-9-0-8-1-8-7"
         flood-opacity="1"
         flood-color="rgb(222,191,116)"
         result="flood" />
      <feComposite
         id="feComposite4379-3-8-8-2-77-2-7"
         in2="SourceGraphic"
         in="flood"
         operator="in"
         result="composite1" />
      <feMorphology
         id="feMorphology4393-1-0-49-8-9-3-3"
         operator="dilate"
         radius="4"
         result="result3" />
      <feComposite
         id="feComposite4385-9-5-7-0-8-8-5"
         in2="result3"
         in="SourceGraphic"
         operator="over"
         result="composite2" />
    </filter>
    <filter
       style="color-interpolation-filters:sRGB"
       id="filter1105"
       inkscape:label="deevad outline effect">
      <feFlood
         id="feFlood1097"
         flood-opacity="1"
         flood-color="rgb(222,191,116)"
         result="flood" />
      <feComposite
         id="feComposite1099"
         in2="SourceGraphic"
         in="flood"
         operator="in"
         result="composite1" />
      <feMorphology
         id="feMorphology1101"
         operator="dilate"
         radius="4"
         result="result3" />
      <feComposite
         id="feComposite1103"
         in2="result3"
         in="SourceGraphic"
         operator="over"
         result="composite2" />
    </filter>
  </defs>
  <sodipodi:namedview
     pagecolor="#ffffff"
     bordercolor="#666666"
     borderopacity="1"
     objecttolerance="10"
     gridtolerance="10"
     guidetolerance="10"
     inkscape:pageopacity="0"
     inkscape:pageshadow="2"
     inkscape:window-width="1920"
     inkscape:window-height="997"
     id="namedview4"
     showgrid="false"
     inkscape:zoom="0.23943513"
     inkscape:cx="1308.3955"
     inkscape:cy="1410.9177"
     inkscape:window-x="0"
     inkscape:window-y="0"
     inkscape:window-maximized="1"
     inkscape:current-layer="layer3"
     inkscape:snap-global="false" />
  <g
     inkscape:groupmode="layer"
     id="layer2"
     inkscape:label="artwork"
     sodipodi:insensitive="true">
    <image
       sodipodi:absref="/home/dash/Downloads/pepper carrot EPS/ep28_The-Festivities_lang-pack/lang/ph/../gfx_Pepper-and-Carrot_by-David-Revoy_E28P04.png"
       xlink:href="../gfx_Pepper-and-Carrot_by-David-Revoy_E28P04.png"
       width="2481"
       height="3503"
       id="image10"
       x="0"
       y="0" />
  </g>
  <g
     inkscape:groupmode="layer"
     id="layer3"
     inkscape:label="speechbubbles">
    <path
       style="color:#000000;display:inline;overflow:visible;visibility:visible;fill:#ffffff;fill-opacity:1;fill-rule:nonzero;stroke:none;stroke-width:1.04341352px;marker:none;enable-background:accumulate"
       d="m 210.11789,286.75938 c 2.85029,-78.42435 38.19113,-136.65775 130.18,-124.28557 49.2742,6.6271 105.22373,10.36545 101.6199,125.23691 -3.60389,114.87133 -84.01992,113.99114 -100.6199,117.10263 -16.60001,3.11162 -103.06816,-6.69866 -118.2044,-45.35261 -9.47495,-24.19636 -13.23701,-48.4289 -12.9756,-72.70136 z"
       id="path4546-6"
       inkscape:connector-curvature="0"
       sodipodi:nodetypes="cssssc" />
    <path
       style="color:#000000;display:inline;overflow:visible;visibility:visible;fill:#ffffff;fill-opacity:1;fill-rule:nonzero;stroke:none;stroke-width:1.21906102px;marker:none;enable-background:accumulate"
       d="m 394.43269,404.66182 c -57.0068,23.36972 -75.75686,28.26403 -74.29686,-25.0833 1.46013,-53.34746 -25.82769,-32.75234 -25.82769,-32.75234 l -27.75678,50.36884 c 0,0 7.78746,105.71472 127.88133,7.4668 z"
       id="path3072"
       inkscape:connector-curvature="0" />
    <path
       style="fill:#ffffff;fill-opacity:1;stroke:none;stroke-width:1.08607805"
       d="m 1172.4222,837.31108 c -4.1933,-143.35598 40.2563,-190.5981 156.832,-184.08192 116.5757,6.51607 144.0359,107.01152 143.7511,160.01672 -0.5011,93.18413 -19.527,165.39781 -73.3024,197.17732 -54.6514,32.2973 -172.157,-0.042 -199.1034,-46.45917 -19.3767,-33.3778 -27.3387,-89.185 -28.1773,-126.65295 z"
       id="path3238"
       inkscape:connector-curvature="0"
       sodipodi:nodetypes="cssssc" />
    <path
       style="color:#000000;display:inline;overflow:visible;visibility:visible;fill:#ffffff;fill-opacity:1;fill-rule:nonzero;stroke:none;stroke-width:0.99999994px;marker:none;enable-background:accumulate"
       d="m 1271.9265,643.57905 c 72.8787,-25.53265 84.927,12.32533 79.0153,43.37874 -6.7279,35.34086 -34.8614,65.35904 -34.8614,65.35904 l 55.2996,-28.07926 c 34.023,-95.44155 21.1022,-144.19988 -99.4535,-80.65852 z"
       id="path3072-1"
       inkscape:connector-curvature="0"
       sodipodi:nodetypes="csccc" />
    <path
       style="color:#000000;display:inline;overflow:visible;visibility:visible;fill:#ffffff;fill-opacity:1;fill-rule:nonzero;stroke:none;stroke-width:0.97531265px;marker:none;enable-background:accumulate"
       d="m 2278.2945,508.00685 c -72.8086,68.39151 -151.9303,20.06888 -175.3668,-22.78987 -23.4363,-42.85869 -35.6968,-181.64899 -9.8449,-236.02197 25.8518,-54.37305 53.4091,-80.50526 121.9466,-79.5409 143.7671,11.13867 122.0803,276.1208 63.2651,338.35274 z"
       id="path4040"
       inkscape:connector-curvature="0"
       sodipodi:nodetypes="csscc" />
    <path
       style="color:#000000;display:inline;overflow:visible;visibility:visible;fill:#ffffff;fill-opacity:1;fill-rule:nonzero;stroke:none;stroke-width:1.24300134px;marker:none;enable-background:accumulate"
       d="m 205.78566,1440.7483 c -0.7269,-57.2811 42.30248,-106.8237 91.73186,-110.7741 49.42931,-3.9503 85.41732,44.5751 89.7787,103.8314 4.36145,59.2565 -43.61406,116.5378 -86.50131,118.513 -42.88723,1.9752 -95.93845,-2.9923 -95.00925,-111.5703 z"
       id="path3565"
       inkscape:connector-curvature="0"
       sodipodi:nodetypes="cscsc" />
    <path
       style="color:#000000;display:inline;overflow:visible;visibility:visible;fill:#ffffff;fill-opacity:1;fill-rule:nonzero;stroke:none;stroke-width:1px;marker:none;enable-background:accumulate"
       d="m 307.67149,1476.5319 c 34.84642,41.3439 60.09382,58.1439 76.31206,42.0877 16.21824,-16.0564 2.98136,-33.8478 2.98136,-33.8478 0,0 -22.92398,46.2135 -79.29342,-8.2399 z"
       id="path5002"
       inkscape:connector-curvature="0"
       sodipodi:nodetypes="cscc" />
    <g
       id="g4697"
       transform="translate(52.206207,50.117959)">
      <path
         sodipodi:nodetypes="cssssc"
         inkscape:connector-curvature="0"
         id="path3659-8"
         d="m 1181.1083,1635.4091 c -1.9943,-68.42 11.2336,-102.4557 23.2776,-118.5787 15.2641,-20.4337 101.9139,-62.6009 138.6655,14.0644 18.7793,39.1743 20.932,149.7189 -15.6089,197.6212 -36.5412,47.9022 -97.5258,21.6639 -107.9065,12.9546 -10.3811,-8.7095 -36.3515,-32.0309 -38.4277,-106.0615 z"
         style="fill:#ffffff;fill-opacity:1;stroke:none;stroke-width:1.31043029" />
      <path
         inkscape:transform-center-y="-5.610329"
         inkscape:transform-center-x="-6.3212981"
         inkscape:connector-curvature="0"
         id="path3072-9"
         d="m 1354.9453,1537.096 c 5.1173,29.4962 4.7826,39.3471 -33.4681,41.4145 -38.2508,2.0673 -29.0021,15.6828 -29.0021,15.6828 l 30.6683,12.2754 c 0,0 78.0042,-9.8575 31.8019,-69.3727 z"
         style="color:#000000;display:inline;overflow:visible;visibility:visible;fill:#ffffff;fill-opacity:1;fill-rule:nonzero;stroke:none;stroke-width:1px;marker:none;enable-background:accumulate" />
    </g>
    <path
       style="fill:#ffffff;fill-rule:evenodd;stroke:none;stroke-width:1.03391528px;stroke-linecap:butt;stroke-linejoin:miter;stroke-opacity:1"
       d="m 371.73721,1848.6277 -3.7767,-23.0903 27.6038,18.9883 88.3105,-0.053 28.3685,-0.4755 42.4138,-20.7235 -10.0954,24.7123 49.3056,-29.2633 -19.1084,48.2077 22.5271,-6.341 -13.2578,33.7271 3.7704,306.9876 12.8719,21.1289 -17.1845,-3.5664 16.6932,41.6194 -20.6316,-16.4625 24.1071,62.6665 -39.352,-25.4496 6.6294,23.0445 -27.8235,-15.938 -82.9162,-1.9772 -93.3618,-0.78 -35.5672,24.2766 13.0192,-33.4366 -48.6029,25.3125 26.3755,-65.9569 -24.8643,17.3897 18.0661,-50.3783 -20.6046,12.0454 15.6784,-32.2411 -2.4502,-274.707 -19.4353,-59.0721 27.8437,18.2653 -38.1397,-69.3101 65.599,54.6703 -7.7714,-28.0233 z"
       id="path1035"
       inkscape:connector-curvature="0"
       sodipodi:nodetypes="ccccccccccccccccccccccccccccccccccccc" />
    <path
       style="color:#000000;display:inline;overflow:visible;visibility:visible;fill:#ffffff;fill-opacity:1;fill-rule:nonzero;stroke:none;stroke-width:0.99999994px;marker:none;enable-background:accumulate"
       d="m 493.35983,2279.9832 c -3.16206,29.9625 -4.43517,71.6658 -68.81804,21.1305 3.51709,1.8815 80.9363,87.8252 104.22701,10.1503 23.29069,-77.6748 14.70299,-96.7544 14.70299,-96.7544 z"
       id="path4064"
       inkscape:connector-curvature="0"
       sodipodi:nodetypes="ccscc" />
    <path
       style="color:#000000;display:inline;overflow:visible;visibility:visible;fill:#ffffff;fill-opacity:1;fill-rule:nonzero;stroke:none;stroke-width:1.10285068px;marker:none;enable-background:accumulate"
       d="m 1009.2737,2498.3749 c 5.7312,-44.077 18.676,-72.7716 25.5085,-86.17 6.8325,-13.3988 41.8216,-40.7754 52.9618,-39.202 30.9573,8.4479 90.6178,24.9424 57.7691,180.032 -12.7865,52.0578 -49.6402,52.7301 -57.6513,56.985 -8.0112,4.2551 -34.3549,-3.7704 -40.8873,-6.4882 -6.5322,-2.7181 -49.34731,-33.1878 -37.7008,-105.1568 z"
       id="path3357"
       inkscape:connector-curvature="0"
       sodipodi:nodetypes="ccccccc" />
    <path
       style="color:#000000;display:inline;overflow:visible;visibility:visible;fill:#ffffff;fill-opacity:1;fill-rule:nonzero;stroke:none;stroke-width:1px;marker:none;enable-background:accumulate"
       d="m 1040.3965,2625.9964 c 27.178,37.9965 56.6782,-36.1846 49.6136,-72.8079 13.1805,-81.8825 15.6822,-63.1759 15.6822,-63.1759 l 0.784,65.0656 c 7.7205,-13.3293 -14.1354,182.3102 -66.0798,70.9182 z"
       id="path3072-92"
       inkscape:connector-curvature="0"
       sodipodi:nodetypes="ccccc" />
    <path
       style="color:#000000;display:inline;overflow:visible;visibility:visible;fill:#ffffff;fill-opacity:1;fill-rule:nonzero;stroke:none;stroke-width:1.0916146px;marker:none;enable-background:accumulate"
       d="m 2073.1152,2477.5441 c 20.4022,-48.1674 37.6482,-95.6788 161.2962,-94.8891 124.5724,0.7957 140.3856,0.053 178.7033,42.4129 35.4028,39.1373 33.3644,225.4587 20.5919,313.8187 -12.7726,88.3599 -55.7163,128.8953 -177.8543,121.8266 -122.1378,-7.069 -115.0701,-6.0206 -149.4432,-53.1612 -46.9066,-64.3295 -53.6961,-281.8406 -33.2939,-330.0079 z"
       id="path4530"
       inkscape:connector-curvature="0"
       sodipodi:nodetypes="zsssssz" />
    <path
       style="fill:#ffffff;fill-rule:evenodd;stroke:none;stroke-width:0.78188592px;stroke-linecap:butt;stroke-linejoin:miter;stroke-opacity:1"
       d="m 2209.7488,2869.093 c 57.8366,80.637 68.1187,47.218 68.1187,15.0866 0,-32.1314 -24.4199,-109.5627 -24.4199,-109.5627 l -15.4231,-5.1376 c 0,0 1.2853,6.1047 5.141,43.6976 3.8558,37.5928 24.4199,106.9922 -33.4167,55.9161 z"
       id="path1167"
       inkscape:connector-curvature="0" />
    <path
       style="color:#000000;display:inline;overflow:visible;visibility:visible;fill:#ffffff;fill-opacity:1;fill-rule:nonzero;stroke:none;stroke-width:0.49330285px;marker:none;enable-background:accumulate"
       d="m 1128.3068,3354.0205 c -4.858,20.3083 25.5855,36.5981 67.8638,-7.1702 -1.4633,1.2003 -53.5286,61.2498 -79.3471,37.9291 -22.6662,-20.4734 -8.3484,-50.691 -8.3484,-50.691 z"
       id="path4064-6"
       inkscape:connector-curvature="0"
       sodipodi:nodetypes="ccscc" />
    <path
       style="fill:#ffffff;fill-opacity:1;fill-rule:evenodd;stroke:none;stroke-width:1px;stroke-linecap:butt;stroke-linejoin:miter;stroke-opacity:1"
       d="m 1115.5646,2792.5742 -6.2302,16.5913 36.0651,-29.1498 -28.1263,45.9327 23.0198,-6.6092 -18.0306,35.5407 17.3913,-6.456 -14.58,23.1041 -4.2224,13.8325 2.2041,160.5342 18.0544,45.7722 -18.0377,-8.4564 33.6129,83.4414 -51.7701,-34.9421 12.1041,36.633 -39.1424,-23.1703 3.1975,22.8571 -31.0933,-22.5028 -3.2305,17.2327 -42.4998,-24.2877 -39.82717,27.4733 6.3908,-27.7863 -23.7164,22.7753 1.8377,-38.7859 -37.2029,26.6669 10.864,-39.242 -65.7637,42.4252 37.7233,-59.1468 -23.2516,-1.8475 30.7349,-37.7613 -13.1618,-138.867 -10.8228,-48.364 19.8124,13.9714 -12.7072,-53.2611 25.59,14.669 -35.7243,-65.3778 57.5007,36.1958 -14.6743,-28.6417 37.1201,22.0446 -12.6246,-19.7671 29.9644,17.2695 108.91407,-1.5493 z"
       id="path1184"
       inkscape:connector-curvature="0"
       sodipodi:nodetypes="ccccccccccccccccccccccccccccccccccccccccccc" />
    <path
       style="fill:#ffffff;fill-opacity:1;fill-rule:evenodd;stroke:none;stroke-width:1.0124017px;stroke-linecap:butt;stroke-linejoin:miter;stroke-opacity:1"
       d="m 1058.1351,3340.4882 -46.9404,23.4831 23.1901,-40.8677 -20.8313,6.3411 14.8938,-23.0132 -16.5856,-4.3461 11.9747,-116.3487 -2.9674,-133.9468 -10.8621,-27.798 15.4856,7.5196 -16.4042,-37.203 20.9179,12.8798 -25.9395,-57.5687 53.6703,37.1204 -13.1126,-33.3005 38.5676,26.1537 -6.6369,-22.0705 26.8352,18.7987 -4.3197,-16.6779 19.1138,14.9076 102.1386,3.5125 17.0242,-14.1348 -3.7381,19.6758 33.5025,-26.7183 -27.4987,53.2938 26.8022,-16.3158 -25.608,43.5328 17.0499,-4.56 -17.5143,28.8557 5.2081,215.7767 11.3076,22.157 -12.7674,-6.8752 14.491,31.2053 -22.2197,-7.1946 32.9718,57.3549 -60.2383,-40.2553 19.567,30.5631 -34.7586,-25.292 4.3101,22.0507 -17.7434,-10.3294 -91.0597,-0.8129 -43.1113,16.5926 z"
       id="path1186"
       inkscape:connector-curvature="0"
       sodipodi:nodetypes="ccccccccccccccccccccccccccccccccccccccccccc" />
    <path
       style="fill:#ffffff;fill-opacity:1;stroke:none;stroke-width:1.35636616"
       d="m 982.36597,1255.2738 c -2.46116,-28.1127 13.86219,-42.0976 28.72463,-48.7223 18.836,-8.3958 126.163,-27.3144 164.3151,15.3401 17.8699,19.979 32.6284,51.9562 -12.4632,71.6385 -45.0919,19.6822 -120.3467,8.9014 -133.1568,5.3229 -12.8101,-3.5788 -44.85787,-13.1611 -47.41973,-43.5792 z"
       id="path3659-8-0-9"
       inkscape:connector-curvature="0"
       sodipodi:nodetypes="cssssc" />
  </g>
  <g
     inkscape:groupmode="layer"
     id="layer1"
     inkscape:label="txt">
    <text
       xml:space="preserve"
       style="font-style:normal;font-variant:normal;font-weight:normal;font-stretch:normal;font-size:19.24214363px;line-height:0%;font-family:Lavi;-inkscape-font-specification:Lavi;text-align:center;letter-spacing:0px;word-spacing:0px;text-anchor:middle;fill:#ffffff;fill-opacity:1;stroke:none;stroke-width:1.60351193"
       x="536.52399"
       y="490.32239"
       id="text4246"
       transform="matrix(0.82956625,0,-0.40000546,1.2054492,0,0)"><tspan
         sodipodi:role="line"
         style="font-size:72.15803528px;line-height:1.20000005;fill:#ffffff;stroke-width:1.60351193"
         x="536.52399"
         y="490.32239"
         id="tspan4252">Meow</tspan></text>
    <text
       xml:space="preserve"
       style="font-style:normal;font-variant:normal;font-weight:normal;font-stretch:normal;line-height:0%;font-family:Lavi;-inkscape-font-specification:Lavi;text-align:center;letter-spacing:0px;word-spacing:0px;text-anchor:middle;fill:#000000;fill-opacity:1;stroke:none"
       x="1316.8097"
       y="759.81116"
       id="text4246-3"><tspan
         sodipodi:role="line"
         style="font-size:45px;line-height:1.20000005"
         x="1324.7198"
         y="759.81116"
         id="tspan4630">May iniisip </tspan><tspan
         sodipodi:role="line"
         style="font-size:45px;line-height:1.20000005"
         x="1324.7198"
         y="813.81116"
         id="tspan4637">lang ako </tspan><tspan
         sodipodi:role="line"
         style="font-size:45px;line-height:1.20000005"
         x="1324.7198"
         y="867.81116"
         id="tspan4639">ng konti </tspan><tspan
         sodipodi:role="line"
         style="font-size:45px;line-height:1.20000005"
         x="1316.8097"
         y="921.81116"
         id="tspan4641">Carrot</tspan><tspan
         sodipodi:role="line"
         style="font-size:45px;line-height:1.20000005"
         x="1316.8097"
         y="975.81116"
         id="tspan4643">...</tspan></text>
    <text
       xml:space="preserve"
       style="font-style:normal;font-variant:normal;font-weight:normal;font-stretch:normal;font-size:16.56267548px;line-height:0%;font-family:Lavi;-inkscape-font-specification:Lavi;text-align:center;letter-spacing:0px;word-spacing:0px;text-anchor:middle;fill:#ffffff;fill-opacity:1;stroke:#ffffff;stroke-width:0.4101558;stroke-miterlimit:4;stroke-dasharray:none;stroke-opacity:1;opacity:0.6;"
       x="732.62769"
       y="780.9256"
       id="text4246-8"
       transform="matrix(0.97558614,-0.48724083,-0.02659511,1.0383073,0,0)"><tspan
         sodipodi:role="line"
         style="font-size:42.45798111px;line-height:1.25;fill:#ffffff;stroke:#ffffff;stroke-width:0.4101558;stroke-miterlimit:4;stroke-dasharray:none;stroke-opacity:1;"
         x="732.62769"
         y="780.9256"
         id="tspan4150-8">rub</tspan><tspan
         sodipodi:role="line"
         style="font-size:42.45798111px;line-height:1.25;fill:#ffffff;stroke:#ffffff;stroke-width:0.4101558;stroke-miterlimit:4;stroke-dasharray:none;stroke-opacity:1;"
         x="732.62769"
         y="833.99805"
         id="tspan877">rub</tspan></text>
    <text
       xml:space="preserve"
       style="font-style:normal;font-variant:normal;font-weight:normal;font-stretch:normal;font-size:10.0168314px;line-height:0%;font-family:Lavi;-inkscape-font-specification:Lavi;text-align:center;letter-spacing:0px;word-spacing:0px;text-anchor:middle;fill:#000000;fill-opacity:1;stroke:none;stroke-width:1"
       x="1318.391"
       y="1611.4202"
       id="text4246-3-6"><tspan
         sodipodi:role="line"
         style="font-style:italic;font-variant:normal;font-weight:normal;font-stretch:normal;font-size:37.56311798px;line-height:1.20000005;font-family:Lavi;-inkscape-font-specification:'Lavi Italic';stroke-width:1.19798362"
         x="1324.9939"
         y="1611.4202"
         id="tspan843-1">Padaan </tspan><tspan
         sodipodi:role="line"
         style="font-style:italic;font-variant:normal;font-weight:normal;font-stretch:normal;font-size:37.56311798px;line-height:1.20000005;font-family:Lavi;-inkscape-font-specification:'Lavi Italic';stroke-width:1.19798362"
         x="1324.9939"
         y="1656.4958"
         id="tspan4693">nga </tspan><tspan
         sodipodi:role="line"
         style="font-style:italic;font-variant:normal;font-weight:normal;font-stretch:normal;font-size:37.56311798px;line-height:1.20000005;font-family:Lavi;-inkscape-font-specification:'Lavi Italic';stroke-width:1.19798362"
         x="1318.391"
         y="1701.5717"
         id="tspan4691">please?</tspan><tspan
         sodipodi:role="line"
         style="font-style:italic;font-variant:normal;font-weight:normal;font-stretch:normal;font-size:37.56311798px;line-height:1.20000005;font-family:Lavi;-inkscape-font-specification:'Lavi Italic';stroke-width:1.19798362"
         x="1318.391"
         y="1746.6473"
         id="tspan953">BILIS!</tspan></text>
    <text
       xml:space="preserve"
       style="font-style:normal;font-variant:normal;font-weight:normal;font-stretch:normal;font-size:10.0168314px;line-height:0%;font-family:Lavi;-inkscape-font-specification:Lavi;text-align:center;letter-spacing:0px;word-spacing:0px;text-anchor:middle;fill:#000000;fill-opacity:1;stroke:none;stroke-width:1"
       x="291.31039"
       y="1413.8011"
       id="text4246-3-6-2"><tspan
         sodipodi:role="line"
         style="font-style:italic;font-variant:normal;font-weight:normal;font-stretch:normal;font-size:37.56311798px;line-height:1.20000005;font-family:Lavi;-inkscape-font-specification:'Lavi Italic';stroke-width:1.19798362"
         x="291.31039"
         y="1413.8011"
         id="tspan843-1-7"><tspan
   style="stroke:#000000"
   id="tspan4689">BILIS</tspan>!</tspan><tspan
         sodipodi:role="line"
         style="font-style:italic;font-variant:normal;font-weight:normal;font-stretch:normal;font-size:37.56311798px;line-height:1.20000005;font-family:Lavi;-inkscape-font-specification:'Lavi Italic';stroke-width:1.19798362"
         x="297.9133"
         y="1458.8768"
         id="tspan953-0">Anjan sa </tspan><tspan
         sodipodi:role="line"
         style="font-style:italic;font-variant:normal;font-weight:normal;font-stretch:normal;font-size:37.56311798px;line-height:1.20000005;font-family:Lavi;-inkscape-font-specification:'Lavi Italic';stroke-width:1.19798362"
         x="291.31039"
         y="1503.9526"
         id="tspan4687">Siya!</tspan></text>
    <text
       xml:space="preserve"
       style="font-style:normal;font-variant:normal;font-weight:normal;font-stretch:normal;line-height:0%;font-family:Lavi;-inkscape-font-specification:Lavi;text-align:center;letter-spacing:0px;word-spacing:0px;text-anchor:middle;fill:#000000;fill-opacity:1;stroke:none"
       x="440.27924"
       y="1918.2745"
       id="text4246-3-3"><tspan
         sodipodi:role="line"
         style="font-size:45px;line-height:1.20000005"
         x="448.18939"
         y="1918.2745"
         id="tspan1031">Ms. Saffron! </tspan><tspan
         sodipodi:role="line"
         style="font-size:45px;line-height:1.20000005"
         x="448.18939"
         y="1972.2745"
         id="tspan4761">Bumati </tspan><tspan
         sodipodi:role="line"
         style="font-size:45px;line-height:1.20000005"
         x="448.18939"
         y="2026.2747"
         id="tspan4755">naman po </tspan><tspan
         sodipodi:role="line"
         style="font-size:45px;line-height:1.20000005"
         x="448.18939"
         y="2080.2747"
         id="tspan4763">kayo </tspan><tspan
         sodipodi:role="line"
         style="font-size:45px;line-height:1.20000005"
         x="448.18939"
         y="2134.2747"
         id="tspan4759">para sa </tspan><tspan
         sodipodi:role="line"
         style="font-size:45px;line-height:1.20000005"
         x="440.27924"
         y="2188.2747"
         id="tspan4757">Qualicity</tspan><tspan
         sodipodi:role="line"
         style="font-size:45px;line-height:1.20000005"
         x="440.27924"
         y="2242.2747"
         id="tspan1033">Daily?</tspan></text>
    <text
       xml:space="preserve"
       style="font-style:normal;font-variant:normal;font-weight:normal;font-stretch:normal;line-height:0%;font-family:Lavi;-inkscape-font-specification:Lavi;text-align:center;letter-spacing:0px;word-spacing:0px;text-anchor:middle;fill:#000000;fill-opacity:1;stroke:none"
       x="1316.8574"
       y="2357.6218"
       id="text4246-3-3-2"
       transform="rotate(5.5053809)"><tspan
         sodipodi:role="line"
         style="font-size:45px;line-height:1.10000002"
         x="1324.7676"
         y="2357.6218"
         id="tspan6907">Sure </tspan><tspan
         sodipodi:role="line"
         style="font-size:45px;line-height:1.10000002"
         x="1324.7676"
         y="2407.1218"
         id="tspan4767">sure  </tspan><tspan
         sodipodi:role="line"
         style="font-size:45px;line-height:1.10000002;fill:#ff5555"
         x="1316.8574"
         y="2456.3616"
         id="tspan4769">♥</tspan></text>
    <text
       xml:space="preserve"
       style="font-style:normal;font-variant:normal;font-weight:normal;font-stretch:normal;font-size:34.19582748px;line-height:0%;font-family:Lavi;-inkscape-font-specification:Lavi;text-align:center;letter-spacing:0px;word-spacing:0px;text-anchor:middle;fill:#ffffff;fill-opacity:1;stroke:none;stroke-width:2.84965229;"
       x="2245.7092"
       y="1965.877"
       id="text4246-3-3-2-2"><tspan
         sodipodi:role="line"
         style="font-size:128.23435974px;line-height:1.20000005;stroke-width:2.84965229;fill:#ffffff;"
         x="2245.7092"
         y="1965.877"
         id="tspan1033-7-3">...</tspan></text>
    <text
       xml:space="preserve"
       style="font-style:normal;font-variant:normal;font-weight:normal;font-stretch:normal;line-height:0%;font-family:Lavi;-inkscape-font-specification:Lavi;text-align:center;letter-spacing:0px;word-spacing:0px;text-anchor:middle;fill:#000000;fill-opacity:1;stroke:none"
       x="2255.4519"
       y="2524.2456"
       id="text4246-3-3-7"><tspan
         sodipodi:role="line"
         style="font-size:45px;line-height:1.20000005"
         x="2263.3621"
         y="2524.2456"
         id="tspan1033-2">Pasensya </tspan><tspan
         sodipodi:role="line"
         style="font-size:45px;line-height:1.20000005"
         x="2255.4519"
         y="2578.2456"
         id="tspan1155">na Carrot.</tspan><tspan
         sodipodi:role="line"
         style="font-size:45px;line-height:1.20000005"
         x="2263.3621"
         y="2632.2456"
         id="tspan4792">Wala ako sa </tspan><tspan
         sodipodi:role="line"
         style="font-size:45px;line-height:1.20000005"
         x="2255.4519"
         y="2686.2456"
         id="tspan4790">mood mag-</tspan><tspan
         sodipodi:role="line"
         style="font-size:45px;line-height:1.20000005"
         x="2255.4519"
         y="2740.2456"
         id="tspan4794">celebrate</tspan></text>
    <text
       xml:space="preserve"
       style="font-style:normal;font-variant:normal;font-weight:normal;font-stretch:normal;font-size:79.97832489px;line-height:1.25;font-family:Lavi;-inkscape-font-specification:Lavi;font-variant-ligatures:normal;font-variant-position:normal;font-variant-caps:normal;font-variant-numeric:normal;font-variant-alternates:normal;font-feature-settings:normal;text-indent:0;text-align:start;text-decoration:none;text-decoration-line:none;text-decoration-style:solid;text-decoration-color:#000000;letter-spacing:0px;word-spacing:0px;text-transform:none;writing-mode:lr-tb;direction:ltr;text-orientation:mixed;dominant-baseline:auto;baseline-shift:baseline;text-anchor:start;white-space:normal;shape-padding:0;opacity:1;vector-effect:none;fill:#ffffff;fill-opacity:1;stroke:none;stroke-width:1.78316224;stroke-linecap:butt;stroke-linejoin:miter;stroke-miterlimit:4;stroke-dasharray:none;stroke-dashoffset:0;stroke-opacity:1;filter:url(#filter4375-4-1-1-1-9)"
       x="1191.4009"
       y="2475.9683"
       id="text4246-8-1-3"
       transform="matrix(0.54943791,-0.30590239,-0.01497803,0.74418809,465.9705,484.75984)"><tspan
         sodipodi:role="line"
         style="font-style:normal;font-variant:normal;font-weight:normal;font-stretch:normal;font-size:79.97832489px;line-height:1.25;font-family:Lavi;-inkscape-font-specification:Lavi;font-variant-ligatures:normal;font-variant-position:normal;font-variant-caps:normal;font-variant-numeric:normal;font-variant-alternates:normal;font-feature-settings:normal;text-indent:0;text-align:start;text-decoration:none;text-decoration-line:none;text-decoration-style:solid;text-decoration-color:#000000;letter-spacing:0px;word-spacing:0px;text-transform:none;writing-mode:lr-tb;direction:ltr;text-orientation:mixed;dominant-baseline:auto;baseline-shift:baseline;text-anchor:start;white-space:normal;shape-padding:0;vector-effect:none;fill:#ffffff;fill-opacity:1;stroke:none;stroke-width:1.78316224;stroke-linecap:butt;stroke-linejoin:miter;stroke-miterlimit:4;stroke-dasharray:none;stroke-dashoffset:0;stroke-opacity:1;filter:url(#filter4375-4-1-1-1-9)"
         x="1191.4009"
         y="2475.9683"
         id="tspan877-7-6"
         dx="6"><tspan
           style="font-size:70.07293701px;stroke-width:1.78316224"
           id="tspan964">F</tspan><tspan
           style="font-size:65.1342926px;stroke-width:1.78316224"
           id="tspan962">LASH</tspan></tspan></text>
    <text
       xml:space="preserve"
       style="font-style:normal;font-variant:normal;font-weight:normal;font-stretch:normal;font-size:9.16083813px;line-height:0%;font-family:Lavi;-inkscape-font-specification:Lavi;text-align:center;letter-spacing:0px;word-spacing:0px;text-anchor:middle;fill:#000000;fill-opacity:1;stroke:none;stroke-width:0.76340318"
       x="1004.6099"
       y="2903.4961"
       id="text4246-3-3-75"><tspan
         sodipodi:role="line"
         style="font-size:34.35314178px;line-height:1.20000005;stroke-width:0.76340318"
         x="1004.6099"
         y="2903.4961"
         id="tspan1033-29">Ms. Saffron!</tspan><tspan
         sodipodi:role="line"
         style="font-size:34.35314178px;line-height:1.20000005;stroke-width:0.76340318"
         x="1010.6485"
         y="2944.72"
         id="tspan6848">Hereva </tspan><tspan
         sodipodi:role="line"
         style="font-size:34.35314178px;line-height:1.20000005;stroke-width:0.76340318"
         x="1004.6099"
         y="2985.9436"
         id="tspan4775">Style</tspan><tspan
         sodipodi:role="line"
         style="font-size:34.35314178px;line-height:1.20000005;stroke-width:0.76340318"
         x="1004.6099"
         y="3027.1675"
         id="tspan1182">Gazette.</tspan></text>
    <text
       xml:space="preserve"
       style="font-style:normal;font-variant:normal;font-weight:normal;font-stretch:normal;font-size:79.97832489px;line-height:1.25;font-family:Lavi;-inkscape-font-specification:Lavi;font-variant-ligatures:normal;font-variant-position:normal;font-variant-caps:normal;font-variant-numeric:normal;font-variant-alternates:normal;font-feature-settings:normal;text-indent:0;text-align:start;text-decoration:none;text-decoration-line:none;text-decoration-style:solid;text-decoration-color:#000000;letter-spacing:0px;word-spacing:0px;text-transform:none;writing-mode:lr-tb;direction:ltr;text-orientation:mixed;dominant-baseline:auto;baseline-shift:baseline;text-anchor:start;white-space:normal;shape-padding:0;opacity:1;vector-effect:none;fill:#ffffff;fill-opacity:1;stroke:none;stroke-width:1.78316224;stroke-linecap:butt;stroke-linejoin:miter;stroke-miterlimit:4;stroke-dasharray:none;stroke-dashoffset:0;stroke-opacity:1;filter:url(#filter4375-4-1-1-1-9-6)"
       x="1191.4009"
       y="2475.9683"
       id="text4246-8-1-3-2"
       transform="matrix(0.54943791,-0.30590239,-0.01497803,0.74418809,458.46468,856.46021)"><tspan
         sodipodi:role="line"
         style="font-style:normal;font-variant:normal;font-weight:normal;font-stretch:normal;font-size:79.97832489px;line-height:1.25;font-family:Lavi;-inkscape-font-specification:Lavi;font-variant-ligatures:normal;font-variant-position:normal;font-variant-caps:normal;font-variant-numeric:normal;font-variant-alternates:normal;font-feature-settings:normal;text-indent:0;text-align:start;text-decoration:none;text-decoration-line:none;text-decoration-style:solid;text-decoration-color:#000000;letter-spacing:0px;word-spacing:0px;text-transform:none;writing-mode:lr-tb;direction:ltr;text-orientation:mixed;dominant-baseline:auto;baseline-shift:baseline;text-anchor:start;white-space:normal;shape-padding:0;vector-effect:none;fill:#ffffff;fill-opacity:1;stroke:none;stroke-width:1.78316224;stroke-linecap:butt;stroke-linejoin:miter;stroke-miterlimit:4;stroke-dasharray:none;stroke-dashoffset:0;stroke-opacity:1;filter:url(#filter4375-4-1-1-1-9-6)"
         x="1191.4009"
         y="2475.9683"
         id="tspan877-7-6-2"
         dx="6"><tspan
           style="font-size:70.07293701px;stroke-width:1.78316224"
           id="tspan964-3">F</tspan><tspan
           style="font-size:65.1342926px;stroke-width:1.78316224"
           id="tspan962-2">LASH</tspan></tspan></text>
    <text
       xml:space="preserve"
       style="font-style:normal;font-variant:normal;font-weight:normal;font-stretch:normal;font-size:79.97832489px;line-height:1.25;font-family:Lavi;-inkscape-font-specification:Lavi;font-variant-ligatures:normal;font-variant-position:normal;font-variant-caps:normal;font-variant-numeric:normal;font-variant-alternates:normal;font-feature-settings:normal;text-indent:0;text-align:start;text-decoration:none;text-decoration-line:none;text-decoration-style:solid;text-decoration-color:#000000;letter-spacing:0px;word-spacing:0px;text-transform:none;writing-mode:lr-tb;direction:ltr;text-orientation:mixed;dominant-baseline:auto;baseline-shift:baseline;text-anchor:start;white-space:normal;shape-padding:0;opacity:1;vector-effect:none;fill:#ffffff;fill-opacity:1;stroke:none;stroke-width:1.78316224;stroke-linecap:butt;stroke-linejoin:miter;stroke-miterlimit:4;stroke-dasharray:none;stroke-dashoffset:0;stroke-opacity:1;filter:url(#filter4375-4-1-1-1-9-4)"
       x="1191.4009"
       y="2475.9683"
       id="text4246-8-1-3-5"
       transform="matrix(0.54943791,-0.30590239,-0.01497803,0.74418809,36.745484,519.61759)"><tspan
         sodipodi:role="line"
         style="font-style:normal;font-variant:normal;font-weight:normal;font-stretch:normal;font-size:79.97832489px;line-height:1.25;font-family:Lavi;-inkscape-font-specification:Lavi;font-variant-ligatures:normal;font-variant-position:normal;font-variant-caps:normal;font-variant-numeric:normal;font-variant-alternates:normal;font-feature-settings:normal;text-indent:0;text-align:start;text-decoration:none;text-decoration-line:none;text-decoration-style:solid;text-decoration-color:#000000;letter-spacing:0px;word-spacing:0px;text-transform:none;writing-mode:lr-tb;direction:ltr;text-orientation:mixed;dominant-baseline:auto;baseline-shift:baseline;text-anchor:start;white-space:normal;shape-padding:0;vector-effect:none;fill:#ffffff;fill-opacity:1;stroke:none;stroke-width:1.78316224;stroke-linecap:butt;stroke-linejoin:miter;stroke-miterlimit:4;stroke-dasharray:none;stroke-dashoffset:0;stroke-opacity:1;filter:url(#filter4375-4-1-1-1-9-4)"
         x="1191.4009"
         y="2475.9683"
         id="tspan877-7-6-7"
         dx="6"><tspan
           style="font-size:70.07293701px;stroke-width:1.78316224"
           id="tspan964-2">F</tspan><tspan
           style="font-size:65.1342926px;stroke-width:1.78316224"
           id="tspan962-8">LASH</tspan></tspan></text>
    <text
       xml:space="preserve"
       style="font-style:normal;font-variant:normal;font-weight:normal;font-stretch:normal;font-size:79.97832489px;line-height:1.25;font-family:Lavi;-inkscape-font-specification:Lavi;font-variant-ligatures:normal;font-variant-position:normal;font-variant-caps:normal;font-variant-numeric:normal;font-variant-alternates:normal;font-feature-settings:normal;text-indent:0;text-align:start;text-decoration:none;text-decoration-line:none;text-decoration-style:solid;text-decoration-color:#000000;letter-spacing:0px;word-spacing:0px;text-transform:none;writing-mode:lr-tb;direction:ltr;text-orientation:mixed;dominant-baseline:auto;baseline-shift:baseline;text-anchor:start;white-space:normal;shape-padding:0;opacity:1;vector-effect:none;fill:#ffffff;fill-opacity:1;stroke:none;stroke-width:1.78316224;stroke-linecap:butt;stroke-linejoin:miter;stroke-miterlimit:4;stroke-dasharray:none;stroke-dashoffset:0;stroke-opacity:1;filter:url(#filter4375-4-1-1-1-9-4-8)"
       x="1191.4009"
       y="2475.9683"
       id="text4246-8-1-3-5-3"
       transform="matrix(0.76623021,-0.42660262,-0.02088793,1.0378232,298.10388,-65.944302)"><tspan
         sodipodi:role="line"
         style="font-style:normal;font-variant:normal;font-weight:normal;font-stretch:normal;font-size:79.97832489px;line-height:1.25;font-family:Lavi;-inkscape-font-specification:Lavi;font-variant-ligatures:normal;font-variant-position:normal;font-variant-caps:normal;font-variant-numeric:normal;font-variant-alternates:normal;font-feature-settings:normal;text-indent:0;text-align:start;text-decoration:none;text-decoration-line:none;text-decoration-style:solid;text-decoration-color:#000000;letter-spacing:0px;word-spacing:0px;text-transform:none;writing-mode:lr-tb;direction:ltr;text-orientation:mixed;dominant-baseline:auto;baseline-shift:baseline;text-anchor:start;white-space:normal;shape-padding:0;vector-effect:none;fill:#ffffff;fill-opacity:1;stroke:none;stroke-width:1.78316224;stroke-linecap:butt;stroke-linejoin:miter;stroke-miterlimit:4;stroke-dasharray:none;stroke-dashoffset:0;stroke-opacity:1;filter:url(#filter4375-4-1-1-1-9-4-8)"
         x="1191.4009"
         y="2475.9683"
         id="tspan877-7-6-7-9"
         dx="6"><tspan
           style="font-size:70.07293701px;stroke-width:1.78316224"
           id="tspan964-2-0">F</tspan><tspan
           style="font-size:65.1342926px;stroke-width:1.78316224"
           id="tspan962-8-8">LASH</tspan></tspan></text>
    <text
       xml:space="preserve"
       style="font-style:normal;font-variant:normal;font-weight:normal;font-stretch:normal;font-size:11.31886005px;line-height:0%;font-family:Lavi;-inkscape-font-specification:Lavi;text-align:center;letter-spacing:0px;word-spacing:0px;text-anchor:middle;fill:#000000;fill-opacity:1;stroke:none;stroke-width:0.94323838"
       x="1135.0161"
       y="3018.0862"
       id="text4246-3-3-75-1"><tspan
         sodipodi:role="line"
         style="font-size:42.4457283px;line-height:1.20000005;stroke-width:0.94323838"
         x="1135.0161"
         y="3021.376"
         id="tspan6909-5" /><tspan
         sodipodi:role="line"
         style="font-size:42.4457283px;line-height:1.20000005;stroke-width:0.94323838"
         x="1142.4773"
         y="3055.8904"
         id="tspan6844-5">Which </tspan><tspan
         sodipodi:role="line"
         style="font-size:42.4457283px;line-height:1.20000005;stroke-width:0.94323838"
         x="1135.0161"
         y="3106.8254"
         id="tspan4771">designer</tspan><tspan
         sodipodi:role="line"
         style="font-size:42.4457283px;line-height:1.20000005;stroke-width:0.94323838"
         x="1142.4773"
         y="3157.7603"
         id="tspan6846-2">are you </tspan><tspan
         sodipodi:role="line"
         style="font-size:42.4457283px;line-height:1.20000005;stroke-width:0.94323838"
         x="1135.0161"
         y="3208.6951"
         id="tspan4773">wearing</tspan><tspan
         sodipodi:role="line"
         style="font-size:42.4457283px;line-height:1.20000005;stroke-width:0.94323838"
         x="1135.0161"
         y="3259.6299"
         id="tspan6848-2">tonight</tspan><tspan
         sodipodi:role="line"
         style="font-size:42.4457283px;line-height:1.20000005;stroke-width:0.94323838"
         x="1135.0161"
         y="3310.5649"
         id="tspan4777">po?</tspan></text>
    <text
       xml:space="preserve"
       style="font-style:normal;font-variant:normal;font-weight:normal;font-stretch:normal;line-height:0%;font-family:Lavi;-inkscape-font-specification:Lavi;text-align:center;letter-spacing:0px;word-spacing:0px;text-anchor:middle;fill:#000000;fill-opacity:1;stroke:none"
       x="321.24963"
       y="276.3002"
       id="text4246-36"><tspan
         sodipodi:role="line"
         style="font-size:45px;line-height:1.20000005"
         x="321.24963"
         y="276.3002"
         id="tspan4252-7">Ikaw</tspan><tspan
         sodipodi:role="line"
         style="font-size:45px;line-height:1.20000005"
         x="321.24963"
         y="330.3002"
         id="tspan4621"> pala...</tspan></text>
    <text
       xml:space="preserve"
       style="font-style:normal;font-variant:normal;font-weight:normal;font-stretch:normal;font-size:8.43883801px;line-height:0%;font-family:Lavi;-inkscape-font-specification:Lavi;text-align:center;letter-spacing:0px;word-spacing:0px;text-anchor:middle;fill:#000000;fill-opacity:1;stroke:none;stroke-width:0.70323652"
       x="2198.2642"
       y="306.17075"
       id="text4246-3-7-5"><tspan
         sodipodi:role="line"
         style="font-size:31.64564323px;line-height:1.20000005;stroke-width:0.70323652"
         x="2203.8269"
         y="306.17075"
         id="tspan891-2">Balik na </tspan><tspan
         sodipodi:role="line"
         style="font-size:31.64564323px;line-height:1.20000005;stroke-width:0.70323652"
         x="2203.8269"
         y="344.14551"
         id="tspan4681">tayo sa loob. </tspan><tspan
         sodipodi:role="line"
         style="font-size:31.64564323px;line-height:1.20000005;stroke-width:0.70323652"
         x="2203.8269"
         y="382.1203"
         id="tspan4683">maginaw na </tspan><tspan
         sodipodi:role="line"
         style="font-size:31.64564323px;line-height:1.20000005;stroke-width:0.70323652"
         x="2198.2642"
         y="420.09506"
         id="tspan4685">din kasi...</tspan></text>
    <text
       xml:space="preserve"
       style="font-style:normal;font-variant:normal;font-weight:normal;font-stretch:normal;font-size:10.0168314px;line-height:0%;font-family:Lavi;-inkscape-font-specification:Lavi;text-align:center;letter-spacing:0px;word-spacing:0px;text-anchor:middle;fill:#000000;fill-opacity:1;stroke:none;stroke-width:1"
       x="1082.4192"
       y="1265.6005"
       id="text4246-3-6-1"><tspan
         sodipodi:role="line"
         style="font-style:italic;font-variant:normal;font-weight:normal;font-stretch:normal;font-size:37.56311798px;line-height:1.20000005;font-family:Lavi;-inkscape-font-specification:'Lavi Italic';stroke-width:1.19798362;stroke:#1a1a1a"
         x="1082.4192"
         y="1265.6005"
         id="tspan953-9">EXCUSE!</tspan></text>
  </g>
</svg>
