<?xml version="1.0" encoding="UTF-8" standalone="no"?>
<svg
   xmlns:dc="http://purl.org/dc/elements/1.1/"
   xmlns:cc="http://creativecommons.org/ns#"
   xmlns:rdf="http://www.w3.org/1999/02/22-rdf-syntax-ns#"
   xmlns:svg="http://www.w3.org/2000/svg"
   xmlns="http://www.w3.org/2000/svg"
   xmlns:xlink="http://www.w3.org/1999/xlink"
   xmlns:sodipodi="http://sodipodi.sourceforge.net/DTD/sodipodi-0.dtd"
   xmlns:inkscape="http://www.inkscape.org/namespaces/inkscape"
   sodipodi:docname="E05P05.svg"
   height="2479"
   width="2481"
   inkscape:version="1.0.2 (e86c870879, 2021-01-15)"
   version="1.1"
   id="svg2">
  <metadata
     id="metadata8">
    <rdf:RDF>
      <cc:Work
         rdf:about="">
        <dc:format>image/svg+xml</dc:format>
        <dc:type
           rdf:resource="http://purl.org/dc/dcmitype/StillImage" />
        <dc:title />
      </cc:Work>
    </rdf:RDF>
  </metadata>
  <defs
     id="defs6" />
  <sodipodi:namedview
     inkscape:document-rotation="0"
     inkscape:object-nodes="true"
     inkscape:current-layer="layer2"
     inkscape:window-maximized="0"
     inkscape:window-y="28"
     inkscape:window-x="0"
     inkscape:cy="2043.0566"
     inkscape:cx="1305.9284"
     inkscape:zoom="0.76367532"
     showgrid="false"
     id="namedview4"
     inkscape:window-height="1022"
     inkscape:window-width="960"
     inkscape:pageshadow="2"
     inkscape:pageopacity="0"
     guidetolerance="10"
     gridtolerance="10"
     objecttolerance="10"
     borderopacity="1"
     bordercolor="#666666"
     pagecolor="#ffffff" />
  <g
     sodipodi:insensitive="true"
     style="display:inline"
     inkscape:label="artwork"
     id="layer1"
     inkscape:groupmode="layer">
    <image
       sodipodi:absref="/home/cherry/Workspace/peppercarrot/webcomics/ep05_Special-holiday-episode/lang/gfx_Pepper-and-Carrot_by-David-Revoy_E05P05.png"
       xlink:href="../gfx_Pepper-and-Carrot_by-David-Revoy_E05P05.png"
       y="0"
       x="0"
       id="image10"
       height="2479"
       width="2481" />
  </g>
  <g
     style="display:inline"
     inkscape:label="speechbubbles"
     id="layer3"
     inkscape:groupmode="layer">
    <path
       inkscape:connector-curvature="0"
       id="path4279"
       d="m -2021.8885,646.19917 c 1.0628,-51.0158 26.5707,-103.09442 170.0526,-112.65988 143.4819,-9.56546 203.0004,48.89014 207.2517,90.34047 4.2513,41.45033 -82.9007,96.71744 -162.6129,97.78027 -79.7121,1.06282 -214.6914,-11.69112 -214.6914,-75.46086 z"
       style="fill:#ffffff;stroke:none" />
    <path
       sodipodi:nodetypes="csccc"
       inkscape:connector-curvature="0"
       id="path4281"
       d="m -1788.0661,898.08964 c 70.1467,-44.63882 88.2148,-124.35099 45.7016,-190.24639 -42.5132,-65.8954 -82.9007,-54.20428 -82.9007,-54.20428 l 35.0734,41.45033 c 0,0 97.7803,97.78027 2.1257,203.00034 z"
       style="fill:#ffffff;stroke:none" />
  </g>
  <g
     style="display:inline"
     inkscape:label="text"
     id="layer2"
     inkscape:groupmode="layer">
    <flowRoot
       transform="matrix(1.2234224,0,0,1.2506407,-251.98383,1512.9315)"
       style="font-style:normal;font-variant:normal;font-weight:normal;font-stretch:normal;line-height:0.01%;font-family:Arial;-inkscape-font-specification:Arial;text-align:center;letter-spacing:0px;word-spacing:0px;text-anchor:middle;fill:#a72f14;fill-opacity:1;stroke:none"
       id="flowRoot3027-8-8"
       xml:space="preserve"><flowRegion
         id="flowRegion3029-9-3"><rect
           style="text-align:center;text-anchor:middle;fill:#a72f14;fill-opacity:1"
           y="219.33444"
           x="135.21135"
           height="376.21677"
           width="2230.314"
           id="rect3031-9-1" /></flowRegion><flowPara
         style="font-size:12px;line-height:1.25"
         id="flowPara3033-3-0"> </flowPara><flowPara
         id="flowPara3067-4"
         style="font-style:normal;font-variant:normal;font-weight:normal;font-stretch:normal;font-size:48px;line-height:1.25;font-family:Lavi;-inkscape-font-specification:Lavi;text-align:center;text-anchor:middle;fill:#a72f14;fill-opacity:1">https://www.patreon.com/davidrevoy</flowPara></flowRoot>
    <flowRoot
       transform="matrix(0.79948741,0,0,0.86106098,239.30369,70.087088)"
       style="font-style:normal;font-variant:normal;font-weight:normal;font-stretch:normal;line-height:0.01%;font-family:Arial;-inkscape-font-specification:Arial;letter-spacing:0px;word-spacing:0px;display:inline;fill:#000000;fill-opacity:1;stroke:none"
       id="flowRoot2987"
       xml:space="preserve"><flowRegion
         id="flowRegion2989"><rect
           y="266.68515"
           x="-141.0901"
           height="1869.5419"
           width="2786.8591"
           id="rect2991" /></flowRegion><flowPara
         id="flowPara3238"
         style="font-style:normal;font-variant:normal;font-weight:normal;font-stretch:normal;font-size:47.1126px;line-height:150%;font-family:Lavi;-inkscape-font-specification:Lavi;text-align:center;writing-mode:lr-tb;text-anchor:middle">Addison Lewis - Adrian Lord - Alan Hardman - Albert Westra - Alejandro Flores Prieto - Aleš Tomeček - Alexander Bülow Tomassen - Alexander Sopicki - Alex Lusco - Alex Silver - Alex Vandiver - Alfredo - Ali Poulton (Aunty Pol) - Allan Zieser  Andreas Rieger - Andrej Kwadrin - Andrew - Andrew Godfrey - Andrey Alekseenko - Angela K - Anna Orlova - anonymous   Antan Karmola - Ardash Crowfoot - Arne Brix - Aslak Kjølås-Sæverud - Axel Bordelon - Axel Philipsenburg - barbix - Ben Evans      - Bernd - Boonsak Watanavisit - Boudewijn Rempt - Brett Smith - Brian Behnke - carlos levischi - Charlotte Lacombe-bar   Chris Radcliff - Chris Sakkas - Christophe Carré - Christopher Bates - Clara Dexter - Colby Driedger - Conway Scott Smith  Cyrille Largillier - Cyril Paciullo - Damien - Daniel - Daniel Björkman - david - Dmitry - Donald Hayward - Eitan Goldshtrom  Enrico Billich - -epsilon- - Eric Schulz - Frederico - Garret Patterson - GreenAngel5 - Guillaume - Gustav Strömbom  </flowPara><flowPara
         id="flowPara3223"
         style="font-style:normal;font-variant:normal;font-weight:normal;font-stretch:normal;font-size:47.1126px;line-height:150%;font-family:Lavi;-inkscape-font-specification:Lavi;text-align:center;writing-mode:lr-tb;text-anchor:middle">Guy Davis - Happy Mimic - Helmar Suschka - Ilyas Akhmedov - Inga Huang - Irene C. - Ivan Korotkov - James Frazier - Jared Tritsch - JDB - Jean-Baptiste Hebbrecht - Jeffrey Schneider - Jessey Wright - John - John - Jónatan Nilsson - Jonathan Leroy   Jon Brake - Joseph Bowman - Jurgo van den Elzen - Justin Diehl - Kai-Ting (Danil) Ko - Kasper Hansen - Kathryn Wuerstl </flowPara><flowPara
         id="flowPara3225"
         style="font-style:normal;font-variant:normal;font-weight:normal;font-stretch:normal;font-size:47.1126px;line-height:150%;font-family:Lavi;-inkscape-font-specification:Lavi;text-align:center;writing-mode:lr-tb;text-anchor:middle">Ken Mingyuan Xia - Liselle - Lorentz Grip - MacCoy - Magnus Kronnäs - Mandy Streisel - marcus - Martin Owens </flowPara><flowPara
         id="flowPara3227"
         style="font-style:normal;font-variant:normal;font-weight:normal;font-stretch:normal;font-size:47.1126px;line-height:150%;font-family:Lavi;-inkscape-font-specification:Lavi;text-align:center;writing-mode:lr-tb;text-anchor:middle"> Mary Brownlee - Masked Admirer - Mathias Stærk - mattscribbles - Maurice-Marie Stromer - mefflin ross bullis-bates </flowPara><flowPara
         id="flowPara3229"
         style="font-style:normal;font-variant:normal;font-weight:normal;font-stretch:normal;font-size:47.1126px;line-height:150%;font-family:Lavi;-inkscape-font-specification:Lavi;text-align:center;writing-mode:lr-tb;text-anchor:middle"> Michael Gill - Michelle Pereira Garcia - Mike Mosher - Morten Hellesø Johansen - Muzyka Dmytro - Nazhif - Nicholas DeLateur  Nick Allott - Nicki Aya - Nicola Angel - Nicolae Berbece - Nicole Heersema - Noble Hays - Nora Czaykowski - Nyx </flowPara><flowPara
         id="flowPara3231"
         style="font-style:normal;font-variant:normal;font-weight:normal;font-stretch:normal;font-size:47.1126px;line-height:150%;font-family:Lavi;-inkscape-font-specification:Lavi;text-align:center;writing-mode:lr-tb;text-anchor:middle">Olivier Amrein - Olivier Brun - Omar Willey - Oscar Moreno - Öykü Su Gürler - Ozone S. - Paul - Paul - Pavel Semenov</flowPara><flowPara
         id="flowPara3235"
         style="font-style:normal;font-variant:normal;font-weight:normal;font-stretch:normal;font-size:47.1126px;line-height:150%;font-family:Lavi;-inkscape-font-specification:Lavi;text-align:center;writing-mode:lr-tb;text-anchor:middle"> Peter - Peter Moonen - Petr Vlašic - Pierre Geier - Pierre Vuillemin - Pranab Shenoy - Rajul Gupta - Ret Samys - rictic </flowPara><flowPara
         id="flowPara3237"
         style="font-style:normal;font-variant:normal;font-weight:normal;font-stretch:normal;font-size:47.1126px;line-height:150%;font-family:Lavi;-inkscape-font-specification:Lavi;text-align:center;writing-mode:lr-tb;text-anchor:middle">RJ van der Weide - Roberto Zaghis - Roman - Rumiko Hoshino - Rustin Simons - Sally Bridgewater - Sami T - Samuel Mitson Scott Russ - Sean Adams   Shadefalcon - Shane Lopez - Shawn Meyer - Sigmundur Þórir Jónsson - Simon Forster </flowPara><flowPara
         id="flowPara3239"
         style="font-style:normal;font-variant:normal;font-weight:normal;font-stretch:normal;font-size:47.1126px;line-height:150%;font-family:Lavi;-inkscape-font-specification:Lavi;text-align:center;writing-mode:lr-tb;text-anchor:middle">Simon Isenberg - Sonny W. - Stanislav Vodetskyi - Stephen Bates - Steven Bennett - Stuart Dickson - surt - Tadamichi Ohkubo tar8156 - TheFaico - Thomas Schwery - Tracey Reuben - Travis Humble - tree - Vespertinus - Victoria - Vlad Tomash </flowPara><flowPara
         id="flowPara3241"
         style="font-style:normal;font-variant:normal;font-weight:normal;font-stretch:normal;font-size:47.1126px;line-height:150%;font-family:Lavi;-inkscape-font-specification:Lavi;text-align:center;writing-mode:lr-tb;text-anchor:middle"> Westen Curry - Xavier Claude - Yalyn Vinkindo - Алексей - Глеб Бузало - 獨孤欣 &amp; 獨弧悦 </flowPara><flowPara
         id="flowPara3230"
         style="font-style:normal;font-variant:normal;font-weight:normal;font-stretch:normal;font-size:47.1126px;line-height:150%;font-family:Lavi;-inkscape-font-specification:Lavi;text-align:center;writing-mode:lr-tb;text-anchor:middle"> </flowPara><flowPara
         id="flowPara3232"
         style="font-style:normal;font-variant:normal;font-weight:normal;font-stretch:normal;font-size:47.1126px;line-height:150%;font-family:Lavi;-inkscape-font-specification:Lavi;text-align:center;writing-mode:lr-tb;text-anchor:middle"> </flowPara><flowPara
         id="flowPara3234"
         style="font-style:normal;font-variant:normal;font-weight:normal;font-stretch:normal;font-size:47.1126px;line-height:150%;font-family:Lavi;-inkscape-font-specification:Lavi;text-align:center;writing-mode:lr-tb;text-anchor:middle"> </flowPara><flowPara
         id="flowPara3236"
         style="font-style:normal;font-variant:normal;font-weight:normal;font-stretch:normal;font-size:47.1126px;line-height:150%;font-family:Lavi;-inkscape-font-specification:Lavi;text-align:center;writing-mode:lr-tb;text-anchor:middle"> </flowPara></flowRoot>
    <flowRoot
       transform="matrix(1.111967,0,0,1.1586447,-297.16061,-112.92715)"
       style="font-style:normal;font-variant:normal;font-weight:normal;font-stretch:normal;line-height:1.25;font-family:'Xiaolai SC';-inkscape-font-specification:'Xiaolai SC';text-align:center;letter-spacing:0px;word-spacing:0px;text-anchor:middle;display:inline;fill:#000000;fill-opacity:1;stroke:none"
       id="flowRoot86"
       xml:space="preserve"><flowRegion
         id="flowRegion70"
         style="font-style:normal;font-variant:normal;font-weight:normal;font-stretch:normal;font-family:'Xiaolai SC';-inkscape-font-specification:'Xiaolai SC'"><rect
           style="text-align:center;text-anchor:middle;stroke-width:1;-inkscape-font-specification:'Xiaolai SC';font-family:'Xiaolai SC';font-weight:normal;font-style:normal;font-stretch:normal;font-variant:normal;"
           y="219.33444"
           x="135.21135"
           height="241.27675"
           width="2475.8752"
           id="rect68" /></flowRegion><flowPara
         id="flowPara72"
         style="font-style:normal;font-variant:normal;font-weight:normal;font-stretch:normal;font-size:48px;font-family:'Xiaolai SC';-inkscape-font-specification:'Xiaolai SC';text-align:center;text-anchor:middle">후추와 당근은 完全히自由오픈소스이고 讀者들의所重한後援을받아 運營하고 있습니다.</flowPara><flowPara
         id="flowPara74"
         style="font-style:normal;font-variant:normal;font-weight:normal;font-stretch:normal;font-size:48px;font-family:'Xiaolai SC';-inkscape-font-specification:'Xiaolai SC';text-align:center;text-anchor:middle">이番話는170名이後援하였습니다:</flowPara><flowPara
         id="flowPara76"
         style="font-style:normal;font-variant:normal;font-weight:normal;font-stretch:normal;font-size:48px;font-family:'Xiaolai SC';-inkscape-font-specification:'Xiaolai SC';text-align:center;text-anchor:middle" /><flowPara
         id="flowPara78"
         style="font-style:normal;font-variant:normal;font-weight:normal;font-stretch:normal;font-size:48px;font-family:'Xiaolai SC';-inkscape-font-specification:'Xiaolai SC';text-align:center;text-anchor:middle" /><flowPara
         id="flowPara80"
         style="font-style:normal;font-variant:normal;font-weight:normal;font-stretch:normal;font-size:48px;font-family:'Xiaolai SC';-inkscape-font-specification:'Xiaolai SC';text-align:center;text-anchor:middle" /><flowPara
         id="flowPara82"
         style="font-style:normal;font-variant:normal;font-weight:normal;font-stretch:normal;font-size:48px;font-family:'Xiaolai SC';-inkscape-font-specification:'Xiaolai SC';text-align:center;text-anchor:middle" /><flowPara
         id="flowPara84"
         style="font-style:normal;font-variant:normal;font-weight:normal;font-stretch:normal;font-size:48px;font-family:'Xiaolai SC';-inkscape-font-specification:'Xiaolai SC';text-align:center;text-anchor:middle" /></flowRoot>
    <flowRoot
       transform="matrix(0.85948771,0,0,0.88683308,193.35225,1495.5182)"
       style="font-style:normal;font-variant:normal;font-weight:normal;font-stretch:normal;line-height:1.25;font-family:'Xiaolai SC';-inkscape-font-specification:'Xiaolai SC';text-align:center;letter-spacing:0px;word-spacing:0px;text-anchor:middle;display:inline;fill:#000000;fill-opacity:1;stroke:none"
       id="flowRoot96"
       xml:space="preserve"><flowRegion
         id="flowRegion90"
         style="font-style:normal;font-variant:normal;font-weight:normal;font-stretch:normal;font-family:'Xiaolai SC';-inkscape-font-specification:'Xiaolai SC'"><rect
           style="text-align:center;text-anchor:middle;-inkscape-font-specification:'Xiaolai SC';font-family:'Xiaolai SC';font-weight:normal;font-style:normal;font-stretch:normal;font-variant:normal;"
           y="219.33444"
           x="135.21135"
           height="376.21677"
           width="2230.314"
           id="rect88" /></flowRegion><flowPara
         id="flowPara92"
         style="font-style:normal;font-variant:normal;font-weight:normal;font-stretch:normal;font-size:48px;font-family:'Xiaolai SC';-inkscape-font-specification:'Xiaolai SC';text-align:center;text-anchor:middle">이 프로젝트를 後援해주세요,</flowPara><flowPara
         id="flowPara94"
         style="font-style:normal;font-variant:normal;font-weight:normal;font-stretch:normal;font-size:48px;font-family:'Xiaolai SC';-inkscape-font-specification:'Xiaolai SC';text-align:center;text-anchor:middle">웹툰當1달러의寄附가 후추와 당근에 큰 도움이 됩니다!</flowPara></flowRoot>
    <flowRoot
       transform="matrix(0.6112857,0,0,0.69935818,528.33447,1984.1011)"
       style="font-style:normal;font-variant:normal;font-weight:normal;font-stretch:normal;line-height:1.25;font-family:'Xiaolai SC';-inkscape-font-specification:'Xiaolai SC';text-align:center;letter-spacing:0px;word-spacing:0px;text-anchor:middle;display:inline;fill:#000000;fill-opacity:1;stroke:none"
       id="flowRoot108"
       xml:space="preserve"><flowRegion
         id="flowRegion100"
         style="font-style:normal;font-variant:normal;font-weight:normal;font-stretch:normal;font-family:'Xiaolai SC';-inkscape-font-specification:'Xiaolai SC'"><rect
           style="text-align:center;text-anchor:middle;-inkscape-font-specification:'Xiaolai SC';font-family:'Xiaolai SC';font-weight:normal;font-style:normal;font-stretch:normal;font-variant:normal;"
           y="219.33444"
           x="135.21135"
           height="376.21677"
           width="2230.314"
           id="rect98" /></flowRegion><flowPara
         style="font-style:normal;font-variant:normal;font-weight:normal;font-stretch:normal;font-size:12px;font-family:'Xiaolai SC';-inkscape-font-specification:'Xiaolai SC'"
         id="flowPara102"> </flowPara><flowPara
         id="flowPara104"
         style="font-style:normal;font-variant:normal;font-weight:normal;font-stretch:normal;font-size:48px;font-family:'Xiaolai SC';-inkscape-font-specification:'Xiaolai SC';text-align:center;text-anchor:middle">道具 : 이 에피소드는 100%無料오픈소스道具를利用하여 만들었습니다 </flowPara><flowPara
         id="flowPara106"
         style="font-style:normal;font-variant:normal;font-weight:normal;font-stretch:normal;font-size:48px;font-family:'Xiaolai SC';-inkscape-font-specification:'Xiaolai SC';text-align:center;text-anchor:middle">우분투 그놈(GNU/리눅스)에서 크리타, G'MIC, 블렌더 使用</flowPara></flowRoot>
    <flowRoot
       transform="matrix(0.64695698,0,0,0.74016875,462.37537,1869.7658)"
       style="font-style:normal;font-variant:normal;font-weight:normal;font-stretch:normal;line-height:1.25;font-family:'Xiaolai SC';-inkscape-font-specification:'Xiaolai SC';text-align:center;letter-spacing:0px;word-spacing:0px;text-anchor:middle;display:inline;fill:#000000;fill-opacity:1;stroke:none"
       id="flowRoot120"
       xml:space="preserve"><flowRegion
         id="flowRegion112"
         style="font-style:normal;font-variant:normal;font-weight:normal;font-stretch:normal;font-family:'Xiaolai SC';-inkscape-font-specification:'Xiaolai SC'"><rect
           style="font-style:normal;font-variant:normal;font-weight:normal;font-stretch:normal;font-family:'Xiaolai SC';-inkscape-font-specification:'Xiaolai SC';text-align:center;text-anchor:middle;stroke-width:1"
           y="219.33444"
           x="135.21135"
           height="376.21677"
           width="2230.314"
           id="rect110" /></flowRegion><flowPara
         style="font-style:normal;font-variant:normal;font-weight:normal;font-stretch:normal;font-size:12px;font-family:'Xiaolai SC';-inkscape-font-specification:'Xiaolai SC'"
         id="flowPara114"> </flowPara><flowPara
         id="flowPara118"
         style="font-style:normal;font-variant:normal;font-weight:normal;font-stretch:normal;font-size:48px;font-family:'Xiaolai SC';-inkscape-font-specification:'Xiaolai SC';text-align:center;text-anchor:middle">오픈소스 : 高解像度 레이어 소스 파일과 폰트 다운로드, 販賣, 修正, 飜譯等可能</flowPara></flowRoot>
    <flowRoot
       transform="matrix(0.71127895,0,0,0.8137582,399.5965,1729.8894)"
       style="font-style:normal;font-variant:normal;font-weight:normal;font-stretch:normal;line-height:1.25;font-family:'Xiaolai SC';-inkscape-font-specification:'Xiaolai SC';text-align:center;letter-spacing:0px;word-spacing:0px;text-anchor:middle;display:inline;fill:#000000;fill-opacity:1;stroke:none"
       id="flowRoot134"
       xml:space="preserve"><flowRegion
         id="flowRegion124"
         style="font-style:normal;font-variant:normal;font-weight:normal;font-stretch:normal;font-family:'Xiaolai SC';-inkscape-font-specification:'Xiaolai SC'"><rect
           style="font-style:normal;font-variant:normal;font-weight:normal;font-stretch:normal;font-family:'Xiaolai SC';-inkscape-font-specification:'Xiaolai SC';text-align:center;text-anchor:middle;stroke-width:1"
           y="219.33444"
           x="135.21135"
           height="376.21677"
           width="2230.314"
           id="rect122" /></flowRegion><flowPara
         style="font-style:normal;font-variant:normal;font-weight:normal;font-stretch:normal;font-size:12px;font-family:'Xiaolai SC';-inkscape-font-specification:'Xiaolai SC'"
         id="flowPara126"> </flowPara><flowPara
         id="flowPara128"
         style="font-style:normal;font-variant:normal;font-weight:normal;font-stretch:normal;font-size:48px;font-family:'Xiaolai SC';-inkscape-font-specification:'Xiaolai SC';text-align:center;text-anchor:middle">라이선스 : 크리에이티브 커먼즈 著作者( 'David Revoy' )表示</flowPara><flowPara
         id="flowPara130"
         style="font-style:normal;font-variant:normal;font-weight:normal;font-stretch:normal;font-size:48px;font-family:'Xiaolai SC';-inkscape-font-specification:'Xiaolai SC';text-align:center;text-anchor:middle">二次創作, 修正, 再配布, 販賣等可能</flowPara><flowPara
         id="flowPara132"
         style="font-style:normal;font-variant:normal;font-weight:normal;font-stretch:normal;font-size:48px;font-family:'Xiaolai SC';-inkscape-font-specification:'Xiaolai SC';text-align:center;text-anchor:middle"> </flowPara></flowRoot>
  </g>
</svg>
