<?xml version="1.0" encoding="UTF-8" standalone="no"?>
<svg
   xmlns:dc="http://purl.org/dc/elements/1.1/"
   xmlns:cc="http://creativecommons.org/ns#"
   xmlns:rdf="http://www.w3.org/1999/02/22-rdf-syntax-ns#"
   xmlns:svg="http://www.w3.org/2000/svg"
   xmlns="http://www.w3.org/2000/svg"
   xmlns:xlink="http://www.w3.org/1999/xlink"
   xmlns:sodipodi="http://sodipodi.sourceforge.net/DTD/sodipodi-0.dtd"
   xmlns:inkscape="http://www.inkscape.org/namespaces/inkscape"
   sodipodi:docname="E11P01.svg"
   height="3503"
   width="2481"
   inkscape:version="1.0 (4035a4fb49, 2020-05-01)"
   version="1.1"
   id="svg2">
  <sodipodi:namedview
     inkscape:document-rotation="0"
     inkscape:window-maximized="0"
     inkscape:window-y="5"
     inkscape:window-x="1"
     inkscape:current-layer="layer1"
     inkscape:cy="2018.6204"
     inkscape:cx="1609.4328"
     inkscape:zoom="0.4"
     showgrid="false"
     id="namedview70"
     inkscape:window-height="955"
     inkscape:window-width="1407"
     inkscape:pageshadow="2"
     inkscape:pageopacity="0"
     bordercolor="#666666"
     pagecolor="#ffffff" />
  <metadata
     id="metadata8">
    <rdf:RDF>
      <cc:Work
         rdf:about="">
        <dc:format>image/svg+xml</dc:format>
        <dc:type
           rdf:resource="http://purl.org/dc/dcmitype/StillImage" />
        <dc:title />
      </cc:Work>
    </rdf:RDF>
  </metadata>
  <defs
     id="defs6" />
  <sodipodi:namedview
     inkscape:current-layer="layer1"
     inkscape:window-maximized="1"
     inkscape:window-y="26"
     inkscape:window-x="0"
     inkscape:cy="1322.7828"
     inkscape:cx="1058.2829"
     inkscape:zoom="0.2630065"
     showgrid="false"
     id="namedview4"
     inkscape:window-height="1025"
     inkscape:window-width="1920"
     inkscape:pageshadow="2"
     inkscape:pageopacity="0"
     guidetolerance="10"
     gridtolerance="10"
     objecttolerance="10"
     borderopacity="1"
     bordercolor="#666666"
     pagecolor="#ffffff" />
  <g
     sodipodi:insensitive="true"
     inkscape:label="artwork"
     id="layer2"
     inkscape:groupmode="layer">
    <image
       sodipodi:absref="C:\Users\stero\Documents\Kernewek\Pepper and Carrot\webcomics\ep11_The-Witches-of-Chaosah\lang\gfx_Pepper-and-Carrot_by-David-Revoy_E11P01.png"
       xlink:href="../gfx_Pepper-and-Carrot_by-David-Revoy_E11P01.png"
       width="2481"
       height="3503"
       id="image10"
       x="0"
       y="0" />
  </g>
  <g
     inkscape:label="speechbubbles"
     id="layer3"
     inkscape:groupmode="layer">
    <path
       sodipodi:nodetypes="cssssc"
       inkscape:connector-curvature="0"
       id="path3065"
       d="m 70.83848,1753.486 c -5.293147,-107.8182 42.08705,-122.0985 254.52624,-121.1941 212.43909,0.9042 263.68616,18.866 270.55925,89.5431 6.29787,64.7617 -22.87487,93.9111 -50.6384,108.1278 -39.73087,20.3444 -186.72231,24.425 -282.43046,20.767 -87.27863,-3.3359 -198.029076,-34.8462 -192.01663,-97.2438 z"
       style="fill:#ffffff;stroke:none" />
    <path
       sodipodi:nodetypes="cssssssssc"
       inkscape:connector-curvature="0"
       id="path3061"
       d="m 900.21742,1754.7355 c 14.20505,-88.3086 135.59208,-105.0759 152.37978,-112.9008 16.7874,-7.8246 112.8901,-13.3085 124.5123,-12.1908 11.6223,1.1179 90.853,-5.7003 150.3398,-5.0047 62.2369,0.7277 97.7306,-11.2196 182.1914,26.8794 26.3609,11.891 68.2182,55.8439 76.9904,129.8301 3.8256,32.2662 -9.748,104.2815 -63.046,134.9027 -130.0171,74.6987 -244.3304,64.3709 -336.0164,58.7817 -91.6861,-5.589 -180.4982,-20.7896 -227.4615,-57.6758 -50.76311,-39.8706 -72.80318,-119.0265 -59.88978,-162.6218 z"
       style="fill:#ffffff;stroke:none" />
    <path
       sodipodi:nodetypes="csssc"
       inkscape:connector-curvature="0"
       id="path5026"
       d="m 1707.0846,1753.5195 c 11.3613,-54.5333 10.002,-148.7098 361.1613,-142.3637 351.1596,6.3464 337.5152,29.0407 345.5116,151.7008 7.9964,122.6597 -146.1551,139.0214 -361.2201,139.3153 -249.8264,0.3414 -348.3872,-59.276 -345.4528,-148.6524 z"
       style="color:#000000;display:inline;overflow:visible;visibility:visible;fill:#ffffff;fill-opacity:1;fill-rule:nonzero;stroke:none;stroke-width:1.04533768px;marker:none;enable-background:accumulate" />
    <path
       inkscape:connector-curvature="0"
       id="path5050"
       d="m 248.4623,1830.0253 c 15.44367,15.7148 30.88746,36.4298 32.17439,41.43 1.28694,5.0001 -10.93928,32.8583 -6.4349,38.5728 4.50439,5.7145 21.23511,6.4288 23.16562,10.7147 1.93041,4.2859 -3.86092,26.4295 0,30.7153 3.86092,4.2859 30.88735,15.7149 32.17439,19.2865 1.28694,3.5715 8.36531,22.858 21.235,37.8584 -12.22622,-37.8584 -8.36531,-45.7159 -12.86969,-51.4303 -4.50439,-5.7146 -22.52204,-10.7147 -25.09603,-17.1436 -2.57398,-6.4287 2.57399,-27.8581 -2.57398,-33.5725 -5.14785,-5.7145 -17.37418,-7.8575 -17.37418,-7.8575 4.50449,-5.7145 23.80908,-39.2871 2.57398,-72.8597 -21.23511,-33.5727 -46.9746,4.2859 -46.9746,4.2859 z"
       style="color:#000000;display:inline;overflow:visible;visibility:visible;fill:#ffffff;fill-opacity:1;fill-rule:nonzero;stroke:none;stroke-width:1px;marker:none;enable-background:accumulate" />
    <path
       sodipodi:nodetypes="cscc"
       inkscape:connector-curvature="0"
       id="path4000"
       d="m 1396.1772,2120.9882 c 68.3118,-74.6739 88.7022,-171.0856 50.2681,-232.2418 -12.9068,-20.5376 -46.5081,4.9084 -46.5081,4.9084 59.7063,72.6609 34.287,166.8134 -3.76,227.3334 z"
       style="color:#000000;fill:#ffffff;fill-opacity:1;fill-rule:nonzero;stroke:none;stroke-width:1px;marker:none;visibility:visible;display:inline;overflow:visible;enable-background:accumulate" />
    <path
       sodipodi:nodetypes="ccscscsc"
       inkscape:connector-curvature="0"
       id="path3272"
       d="m 2295.182,1822.1558 c -15.4539,18.0781 -34.4193,44.3463 -33.8114,53.7712 0.8079,9.3246 11.6508,27.238 10.4321,49.7021 -1.0616,19.5667 -14.0824,60.651 -76.2349,91.1318 39.1463,-33.6868 47.3811,-82.8609 45.3101,-99.1786 -1.7861,-14.0729 -24.2104,-45.8128 -23.7763,-55.1893 -0.878,-26.1428 12.9745,-54.7358 37.3709,-63.0033 24.3967,-8.2674 40.7095,22.7661 40.7095,22.7661 z"
       style="fill:#ffffff;stroke:none" />
    <path
       inkscape:connector-curvature="0"
       id="path3357"
       d="m 1486.9753,2935.723 c -0.7919,-23.3017 13.4636,-39.1469 21.3834,-46.6034 7.9198,-7.4565 57.8144,-24.2338 76.0299,-24.2338 18.2154,0 93.4533,16.7773 106.9169,33.5545 13.4636,16.7772 30.8871,16.7772 22.1754,44.7393 -8.7118,27.962 -63.3582,41.9431 -75.2379,44.7393 -11.8797,2.7962 -45.9347,4.6603 -57.0224,3.7283 -11.0877,-0.9321 -96.6212,-17.7092 -94.2453,-55.9242 z"
       style="color:#000000;display:inline;overflow:visible;visibility:visible;fill:#ffffff;fill-opacity:1;fill-rule:nonzero;stroke:none;stroke-width:1px;marker:none;enable-background:accumulate" />
    <path
       sodipodi:nodetypes="zssccssz"
       inkscape:connector-curvature="0"
       id="path3373"
       d="m 1533.3071,3017.3447 c -1.7054,-23.338 23.8757,-40.0079 95.5033,-55.249 71.6274,-15.241 170.5417,-11.4308 196.1228,-6.668 25.5813,4.7628 122.7937,-7.5696 180.106,20.8789 67.6247,26.8553 36.2339,83.778 -12.975,94.3819 -30.6975,5.7155 -248.991,13.336 -284.8047,9.5256 -35.8136,-3.8101 -93.798,-4.7628 -124.4953,-16.1936 -31.121,-11.5885 -47.7517,-23.3379 -49.4571,-46.6758 z"
       style="color:#000000;display:inline;overflow:visible;visibility:visible;fill:#ffffff;fill-opacity:1;fill-rule:nonzero;stroke:none;stroke-width:1.15070665px;marker:none;enable-background:accumulate" />
    <path
       sodipodi:nodetypes="cssccssc"
       inkscape:connector-curvature="0"
       id="path4538"
       d="m 1408.674,3036.2361 c 27.2189,10.6931 31.1073,9.721 39.8563,-1.9442 8.7489,-11.6652 17.4978,-31.1073 43.7446,-34.9957 26.2468,-3.8884 38.8841,5.8326 47.633,11.6652 63.6716,-29.2781 71.0511,-33.267 29.1631,16.5258 -16.5257,17.4978 -53.4656,-4.8605 -71.9356,-4.8605 -18.4699,0 -32.0794,26.2467 -46.6609,29.163 -14.5816,2.9163 -30.1352,-7.7768 -41.8005,-15.5536 z"
       style="color:#000000;display:inline;overflow:visible;visibility:visible;fill:#ffffff;fill-opacity:1;fill-rule:nonzero;stroke:none;stroke-width:1px;marker:none;enable-background:accumulate" />
  </g>
  <g
     inkscape:label="txt"
     id="layer1"
     inkscape:groupmode="layer">
    <flowRoot
       transform="translate(27.757822,1430.8032)"
       style="font-style:normal;font-variant:normal;font-weight:normal;font-stretch:normal;line-height:0.01%;font-family:Lavi;-inkscape-font-specification:Lavi;text-align:center;letter-spacing:0px;word-spacing:0px;text-anchor:middle;fill:#000000;fill-opacity:1;stroke:none"
       id="flowRoot2987-4-9-3"
       xml:space="preserve"><flowRegion
         id="flowRegion2989-5-4-5"><rect
           style="font-style:normal;font-variant:normal;font-weight:normal;font-stretch:normal;font-family:Lavi;-inkscape-font-specification:Lavi;text-align:center;text-anchor:middle"
           y="265.53046"
           x="120.55251"
           height="224.54428"
           width="396.31476"
           id="rect2991-7-9-6" /></flowRegion><flowPara
         id="flowPara47"
         style="font-size:45px;line-height:1.25;text-align:center;text-anchor:middle">Pepper, ty a dhre meth dhe Chaosah.</flowPara></flowRoot>
    <flowRoot
       transform="translate(857.22868,1414.1681)"
       style="font-style:normal;font-variant:normal;font-weight:normal;font-stretch:normal;line-height:0.01%;font-family:Lavi;-inkscape-font-specification:Lavi;text-align:center;letter-spacing:0px;word-spacing:0px;text-anchor:middle;fill:#000000;fill-opacity:1;stroke:none"
       id="flowRoot2987-4-9-3-9"
       xml:space="preserve"><flowRegion
         id="flowRegion2989-5-4-5-1"><rect
           style="font-style:normal;font-variant:normal;font-weight:normal;font-stretch:normal;font-family:Lavi;-inkscape-font-specification:Lavi;text-align:center;text-anchor:middle"
           y="265.53046"
           x="120.55251"
           height="297.96033"
           width="549.66528"
           id="rect2991-7-9-6-4" /></flowRegion><flowPara
         id="flowPara3345"
         style="font-size:45px;line-height:1.25;text-align:center;text-anchor:middle">Ewn yw Kayen,</flowPara><flowPara
         id="flowPara57"
         style="font-size:45px;line-height:1.25;text-align:center;text-anchor:middle">y tal dhe wragh a Chaosah wordhi a'n titel</flowPara><flowPara
         id="flowPara74"
         style="font-size:45px;line-height:1.25;text-align:center;text-anchor:middle">gorhemmyn own, gostytter</flowPara><flowPara
         id="flowPara59"
         style="font-size:45px;line-height:1.25;text-align:center;text-anchor:middle">ha reowta.</flowPara></flowRoot>
    <flowRoot
       transform="translate(1684.6175,1412.1797)"
       style="font-style:normal;font-variant:normal;font-weight:normal;font-stretch:normal;line-height:0.01%;font-family:Lavi;-inkscape-font-specification:Lavi;text-align:center;letter-spacing:0px;word-spacing:0px;text-anchor:middle;fill:#000000;fill-opacity:1;stroke:none"
       id="flowRoot2987-4-9-3-9-7"
       xml:space="preserve"><flowRegion
         id="flowRegion2989-5-4-5-1-6"><rect
           style="font-style:normal;font-variant:normal;font-weight:normal;font-stretch:normal;font-family:Lavi;-inkscape-font-specification:Lavi;text-align:center;text-anchor:middle"
           y="268.03046"
           x="65.552513"
           height="262.47906"
           width="637.72778"
           id="rect2991-7-9-6-4-8" /></flowRegion><flowPara
         id="flowPara3349"
         style="font-size:45px;line-height:1.25;text-align:center;text-anchor:middle">...Mes ty,</flowPara><flowPara
         id="flowPara66"
         style="font-size:45px;line-height:1.25;text-align:center;text-anchor:middle">ty a brof te ha tesennow hanaf,</flowPara><flowPara
         id="flowPara68"
         style="font-size:45px;line-height:1.25;text-align:center;text-anchor:middle">dh'agan jevanow hogen.*</flowPara></flowRoot>
    <flowRoot
       transform="matrix(0.66530597,0,0,0.68592152,1562.3374,2574.0818)"
       style="font-style:normal;font-variant:normal;font-weight:normal;font-stretch:normal;line-height:0.01%;font-family:Lavi;-inkscape-font-specification:Lavi;text-align:center;letter-spacing:0px;word-spacing:0px;text-anchor:middle;fill:#000000;fill-opacity:1;stroke:none"
       id="flowRoot2987-4-9-9-9-9"
       xml:space="preserve"><flowRegion
         id="flowRegion2989-5-4-7-7-9"><rect
           style="font-style:normal;font-variant:normal;font-weight:normal;font-stretch:normal;font-family:Lavi;-inkscape-font-specification:Lavi;text-align:center;text-anchor:middle"
           y="265.53046"
           x="120.55251"
           height="69.560318"
           width="1175.4934"
           id="rect2991-7-9-4-3-7" /></flowRegion><flowPara
         id="flowPara3080-9-7-0"
         style="font-size:48px;line-height:1.25;text-align:start;text-anchor:start;fill:#a0a0a0;fill-opacity:1">* Mirewgh orth Rann 8: Kevewi Penn-bloodh Pepper</flowPara></flowRoot>
    <flowRoot
       transform="translate(1405.6686,2630.8459)"
       style="font-style:normal;font-variant:normal;font-weight:normal;font-stretch:normal;line-height:0.01%;font-family:Lavi;-inkscape-font-specification:Lavi;text-align:center;letter-spacing:0px;word-spacing:0px;text-anchor:middle;fill:#000000;fill-opacity:1;stroke:none"
       id="flowRoot2987-4-9-3-0"
       xml:space="preserve"><flowRegion
         id="flowRegion2989-5-4-5-4"><rect
           style="font-style:normal;font-variant:normal;font-weight:normal;font-stretch:normal;font-family:Lavi;-inkscape-font-specification:Lavi;text-align:center;text-anchor:middle"
           y="265.53046"
           x="120.55251"
           height="55.739933"
           width="154.90172"
           id="rect2991-7-9-6-8" /></flowRegion><flowPara
         id="flowPara3030-8-3"
         style="font-size:45px;line-height:1.25;text-align:center;text-anchor:middle">Mes...</flowPara></flowRoot>
    <flowRoot
       transform="translate(1437.1706,2724.7653)"
       style="font-style:normal;font-variant:normal;font-weight:normal;font-stretch:normal;line-height:0.01%;font-family:Lavi;-inkscape-font-specification:Lavi;text-align:center;letter-spacing:0px;word-spacing:0px;text-anchor:middle;fill:#000000;fill-opacity:1;stroke:none"
       id="flowRoot2987-4-9-3-0-3"
       xml:space="preserve"><flowRegion
         id="flowRegion2989-5-4-5-4-2"><rect
           style="font-style:normal;font-variant:normal;font-weight:normal;font-stretch:normal;font-family:Lavi;-inkscape-font-specification:Lavi;text-align:center;text-anchor:middle"
           y="265.53046"
           x="120.55251"
           height="60.739929"
           width="482.4017"
           id="rect2991-7-9-6-8-8" /></flowRegion><flowPara
         id="flowPara3030-8-3-6"
         style="font-size:45px;line-height:1.25;text-align:center;text-anchor:middle">...mammow besydh...</flowPara></flowRoot>
  </g>
</svg>
