<?xml version="1.0" encoding="UTF-8" standalone="no"?>
<!-- Created with Inkscape (http://www.inkscape.org/) -->

<svg
   xmlns:dc="http://purl.org/dc/elements/1.1/"
   xmlns:cc="http://creativecommons.org/ns#"
   xmlns:rdf="http://www.w3.org/1999/02/22-rdf-syntax-ns#"
   xmlns:svg="http://www.w3.org/2000/svg"
   xmlns="http://www.w3.org/2000/svg"
   xmlns:xlink="http://www.w3.org/1999/xlink"
   xmlns:sodipodi="http://sodipodi.sourceforge.net/DTD/sodipodi-0.dtd"
   xmlns:inkscape="http://www.inkscape.org/namespaces/inkscape"
   id="svg2"
   version="1.1"
   inkscape:version="0.92.4 (5da689c313, 2019-01-14)"
   width="2481"
   height="3503"
   sodipodi:docname="E13P06.svg">
  <metadata
     id="metadata8">
    <rdf:RDF>
      <cc:Work
         rdf:about="">
        <dc:format>image/svg+xml</dc:format>
        <dc:type
           rdf:resource="http://purl.org/dc/dcmitype/StillImage" />
        <dc:title />
      </cc:Work>
    </rdf:RDF>
  </metadata>
  <defs
     id="defs6">
    <filter
       style="color-interpolation-filters:sRGB"
       id="filter4375-5-4-9"
       inkscape:label="deevad outline effect">
      <feFlood
         id="feFlood4377-0-3-0"
         flood-opacity="1"
         flood-color="rgb(255,255,255)"
         result="flood" />
      <feComposite
         id="feComposite4379-6-6-2"
         in2="SourceGraphic"
         in="flood"
         operator="in"
         result="composite1" />
      <feMorphology
         id="feMorphology4393-0-9-2"
         operator="dilate"
         radius="4"
         result="result3" />
      <feComposite
         id="feComposite4385-7-5-85"
         in2="result3"
         in="SourceGraphic"
         operator="over"
         result="composite2" />
    </filter>
    <filter
       style="color-interpolation-filters:sRGB"
       id="filter4375-5-4-9-2"
       inkscape:label="deevad outline effect">
      <feFlood
         id="feFlood4377-0-3-0-0"
         flood-opacity="1"
         flood-color="rgb(255,255,255)"
         result="flood" />
      <feComposite
         id="feComposite4379-6-6-2-2"
         in2="SourceGraphic"
         in="flood"
         operator="in"
         result="composite1" />
      <feMorphology
         id="feMorphology4393-0-9-2-0"
         operator="dilate"
         radius="4"
         result="result3" />
      <feComposite
         id="feComposite4385-7-5-85-7"
         in2="result3"
         in="SourceGraphic"
         operator="over"
         result="composite2" />
    </filter>
    <filter
       style="color-interpolation-filters:sRGB"
       id="filter4375-5-4-9-3"
       inkscape:label="deevad outline effect">
      <feFlood
         id="feFlood4377-0-3-0-1"
         flood-opacity="1"
         flood-color="rgb(255,255,255)"
         result="flood" />
      <feComposite
         id="feComposite4379-6-6-2-26"
         in2="SourceGraphic"
         in="flood"
         operator="in"
         result="composite1" />
      <feMorphology
         id="feMorphology4393-0-9-2-8"
         operator="dilate"
         radius="4"
         result="result3" />
      <feComposite
         id="feComposite4385-7-5-85-2"
         in2="result3"
         in="SourceGraphic"
         operator="over"
         result="composite2" />
    </filter>
    <filter
       inkscape:collect="always"
       style="color-interpolation-filters:sRGB"
       id="filter4552-8-9-4"
       x="-0.010508748"
       width="1.0210176"
       y="-0.11101427"
       height="1.2220285">
      <feGaussianBlur
         inkscape:collect="always"
         stdDeviation="1.6224608"
         id="feGaussianBlur4554-6-3-2" />
    </filter>
    <filter
       inkscape:collect="always"
       style="color-interpolation-filters:sRGB"
       id="filter4552-8-9-4-6"
       x="-0.010508748"
       width="1.0210176"
       y="-0.11101427"
       height="1.2220285">
      <feGaussianBlur
         inkscape:collect="always"
         stdDeviation="1.6224608"
         id="feGaussianBlur4554-6-3-2-2" />
    </filter>
  </defs>
  <sodipodi:namedview
     pagecolor="#ffffff"
     bordercolor="#666666"
     borderopacity="1"
     objecttolerance="10"
     gridtolerance="10"
     guidetolerance="10"
     inkscape:pageopacity="0"
     inkscape:pageshadow="2"
     inkscape:window-width="1920"
     inkscape:window-height="977"
     id="namedview4"
     showgrid="false"
     inkscape:zoom="0.59054884"
     inkscape:cx="988.49031"
     inkscape:cy="346.27133"
     inkscape:window-x="0"
     inkscape:window-y="62"
     inkscape:window-maximized="1"
     inkscape:current-layer="layer1" />
  <g
     inkscape:groupmode="layer"
     id="layer2"
     inkscape:label="artwork"
     sodipodi:insensitive="true">
    <image
       sodipodi:absref="/felles/omsetting/pepper-carrot/webcomics/ep13_The-Pyjama-Party/lang/nn/../gfx_Pepper-and-Carrot_by-David-Revoy_E13P06.png"
       xlink:href="../gfx_Pepper-and-Carrot_by-David-Revoy_E13P06.png"
       width="2481"
       height="3503"
       id="image10"
       x="0"
       y="0" />
  </g>
  <g
     inkscape:groupmode="layer"
     id="layer3"
     inkscape:label="speechbubbles" />
  <g
     inkscape:groupmode="layer"
     id="layer1"
     inkscape:label="txt">
    <path
       style="color:#000000;fill:#ffffff;fill-opacity:1;fill-rule:nonzero;stroke:none;stroke-width:1px;marker:none;visibility:visible;display:inline;overflow:visible;enable-background:accumulate"
       d="m 1876.9906,1720.7575 c -69.1064,15.4775 -126.2741,90.7678 -64.3829,148.0837 -44.4695,-72.6711 41.253,-110.6276 82.0461,-113.5987 25.7518,0.6306 -17.6632,-34.485 -17.6632,-34.485 z"
       id="path3978"
       inkscape:connector-curvature="0"
       sodipodi:nodetypes="cccc" />
    <text
       xml:space="preserve"
       style="color:#000000;font-style:normal;font-variant:normal;font-weight:normal;font-stretch:normal;line-height:0%;font-family:Lavi;-inkscape-font-specification:'Lavi, Normal';text-align:center;letter-spacing:0px;word-spacing:0px;writing-mode:lr-tb;text-anchor:middle;clip-rule:nonzero;display:inline;overflow:visible;visibility:visible;opacity:1;isolation:auto;mix-blend-mode:normal;color-interpolation:sRGB;color-interpolation-filters:linearRGB;solid-color:#000000;solid-opacity:1;fill:#000000;fill-opacity:1;fill-rule:nonzero;stroke:#000000;stroke-width:0.90000004;stroke-linecap:butt;stroke-linejoin:miter;stroke-miterlimit:4;stroke-dasharray:none;stroke-dashoffset:0;stroke-opacity:1;filter:url(#filter4375-5-4-9);color-rendering:auto;image-rendering:auto;shape-rendering:auto;text-rendering:auto;enable-background:accumulate"
       x="1367.1063"
       y="691.71692"
       id="text4136"
       transform="matrix(0.6322045,0.15033006,0,0.79645319,219.91607,-87.37605)"><tspan
         sodipodi:role="line"
         id="tspan4138"
         x="1367.1063"
         y="691.71692"
         style="font-size:47.00374985px;line-height:1.25">Dunk</tspan></text>
    <flowRoot
       xml:space="preserve"
       id="flowRoot2987-4-9-3-6-3-8-7-2-7-2"
       style="font-style:normal;font-variant:normal;font-weight:normal;font-stretch:normal;line-height:0.01%;font-family:Lavi;-inkscape-font-specification:Lavi;text-align:center;letter-spacing:0px;word-spacing:0px;text-anchor:middle;fill:#ffffff;fill-opacity:1;stroke:none"
       transform="translate(347.26927,3351.8198)"><flowRegion
         id="flowRegion2989-5-4-5-5-3-0-6-76-8-1"><rect
           id="rect2991-7-9-6-21-9-8-0-3-1-7"
           width="2283.5913"
           height="41.535503"
           x="-248.6331"
           y="9.6225204"
           style="font-style:normal;font-variant:normal;font-weight:normal;font-stretch:normal;font-family:Lavi;-inkscape-font-specification:Lavi;text-align:center;text-anchor:middle;fill:#ffffff;fill-opacity:1" /></flowRegion><flowPara
         style="font-size:32.97025299px;line-height:1.25;text-align:center;text-anchor:middle;fill:#ffffff;fill-opacity:1"
         id="flowPara3272-6-3-1">November 2015 – Teikna og fortald av David Revoy – Omsett av Arild Torvund Olsen og Karl Ove Hufthammer</flowPara></flowRoot>    <path
       style="color:#000000;display:inline;overflow:visible;visibility:visible;fill:#ffffff;fill-opacity:1;fill-rule:nonzero;stroke:none;stroke-width:1px;marker:none;enable-background:accumulate"
       d="m 1777.3427,1434.9917 c 28.6957,-19.9015 233.3735,-38.9633 291.4703,12.2046 48.4927,42.7087 45.3811,126.3791 0.9689,157.8253 -45.2464,32.0367 -217.1735,18.3612 -284.3169,5.3796 -74.7239,-14.4472 -70.0965,-67.6641 -59.91,-110.2337 5.1286,-21.4325 23.0922,-45.2745 51.7877,-65.1758 z"
       id="path4040-4-5-3"
       inkscape:connector-curvature="0"
       sodipodi:nodetypes="zssssz" />
    <path
       style="color:#000000;display:inline;overflow:visible;visibility:visible;fill:#ffffff;fill-opacity:1;fill-rule:nonzero;stroke:none;stroke-width:1.09725952px;marker:none;enable-background:accumulate"
       d="m 1694.9521,1298.6401 c 38.1288,-11.3896 213.2102,-22.1545 268.9282,15.9194 46.5072,31.7796 43.5231,94.0388 0.9293,117.4379 -43.3938,23.8385 -212.0678,21.4584 -275.1758,6.4205 -50.1866,-11.9588 -57.6028,-37.4598 -57.4572,-75.9807 0.1145,-30.2708 24.6468,-52.4076 62.7755,-63.7971 z"
       id="path4040-4-5-3-6"
       inkscape:connector-curvature="0"
       sodipodi:nodetypes="zssssz" />
    <text
       id="text4178-1"
       y="1350.3936"
       x="1815.6642"
       style="font-style:normal;font-variant:normal;font-weight:normal;font-stretch:normal;line-height:0%;font-family:Lavi;-inkscape-font-specification:Lavi;text-align:center;letter-spacing:0px;word-spacing:0px;text-anchor:middle;fill:#000000;fill-opacity:1;stroke:none"
       xml:space="preserve"><tspan
         y="1350.3936"
         x="1815.6642"
         style="font-size:40.67671585px;line-height:1.25"
         sodipodi:role="line"
         id="tspan4193">Kom igjen –</tspan><tspan
         y="1401.2395"
         x="1815.6642"
         style="font-size:40.67671585px;line-height:1.25"
         sodipodi:role="line"
         id="tspan9893">ikkje ver furten!</tspan></text>
    <path
       style="color:#000000;display:inline;overflow:visible;visibility:visible;fill:#ffffff;fill-opacity:1;fill-rule:nonzero;stroke:none;stroke-width:1px;marker:none;enable-background:accumulate"
       d="m 1791.2352,1603.7816 c 65.4117,-3.4098 294.9219,-23.1535 372.6025,8.0314 69.6302,27.9531 59.4403,108.3392 4.5235,134.745 -55.9482,26.9018 -315.7137,18.5087 -398.1201,5.6259 -77.6007,-12.1315 -77.2815,-37.3945 -70.7546,-88.1308 4.3795,-34.0435 26.337,-56.8617 91.7487,-60.2715 z"
       id="path4040-4-5-3-4"
       inkscape:connector-curvature="0"
       sodipodi:nodetypes="zssssz" />
    <text
       id="text4178-6"
       y="1668.7173"
       x="1946.0239"
       style="font-style:normal;font-variant:normal;font-weight:normal;font-stretch:normal;line-height:0%;font-family:Lavi;-inkscape-font-specification:Lavi;text-align:center;letter-spacing:0px;word-spacing:0px;text-anchor:middle;fill:#000000;fill-opacity:1;stroke:none"
       xml:space="preserve"><tspan
         y="1668.7173"
         x="1952.0856"
         style="font-size:38.79494095px;line-height:1.25"
         sodipodi:role="line"
         id="tspan9904">... men det trengst ikkje </tspan><tspan
         y="1717.2109"
         x="1946.0239"
         style="font-size:38.79494095px;line-height:1.25"
         sodipodi:role="line"
         id="tspan9906">– det er berre eit spel!</tspan></text>
    <text
       xml:space="preserve"
       style="color:#000000;font-style:normal;font-variant:normal;font-weight:normal;font-stretch:normal;line-height:0%;font-family:Lavi;-inkscape-font-specification:'Lavi, Normal';text-align:center;letter-spacing:0px;word-spacing:0px;writing-mode:lr-tb;text-anchor:middle;clip-rule:nonzero;display:inline;overflow:visible;visibility:visible;opacity:1;isolation:auto;mix-blend-mode:normal;color-interpolation:sRGB;color-interpolation-filters:linearRGB;solid-color:#000000;solid-opacity:1;fill:#000000;fill-opacity:1;fill-rule:nonzero;stroke:#000000;stroke-width:0.90000004;stroke-linecap:butt;stroke-linejoin:miter;stroke-miterlimit:4;stroke-dasharray:none;stroke-dashoffset:0;stroke-opacity:1;filter:url(#filter4375-5-4-9-3);color-rendering:auto;image-rendering:auto;shape-rendering:auto;text-rendering:auto;enable-background:accumulate"
       x="1367.1063"
       y="691.71692"
       id="text4136-1"
       transform="matrix(0.86619653,-0.09897381,-0.04163634,1.0337332,990.71602,2420.1286)"><tspan
         sodipodi:role="line"
         id="tspan4138-8"
         x="1367.1063"
         y="691.71692"
         style="font-size:47.00374985px;line-height:1.25">Grrrr</tspan></text>
    <text
       id="text4178-6-5-9-0-7"
       style="font-style:normal;font-variant:normal;font-weight:normal;font-stretch:normal;line-height:0%;font-family:Lavi;-inkscape-font-specification:Lavi;text-align:center;letter-spacing:0px;word-spacing:0px;text-anchor:middle;opacity:0.43399999;fill:#412525;fill-opacity:1;stroke:none;filter:url(#filter4552-8-9-4)"
       xml:space="preserve"
       y="3129.8394"
       x="1318.7137"
       transform="matrix(0.79399618,0.00599505,-0.16710117,0.70250588,566.35987,930.47685)"><tspan
         y="3129.8394"
         x="1318.7137"
         style="font-style:normal;font-variant:normal;font-weight:normal;font-stretch:normal;font-size:40.67671585px;line-height:1.25;font-family:Fondamento;-inkscape-font-specification:Fondamento;fill:#412525;fill-opacity:1"
         sodipodi:role="line"
         id="tspan4293-1-6-3-5">Festningar og føniksar</tspan></text>
    <use
       x="0"
       y="0"
       xlink:href="#text4178-6-5-9-0-7"
       id="use4664"
       transform="matrix(-0.08333857,0.4312511,-1.1395718,0.00256786,4640.5157,2371.6815)"
       width="2481"
       height="3503" />
    <use
       x="0"
       y="0"
       xlink:href="#text4178-6-5-9-0-7"
       id="use4690"
       transform="matrix(-0.8491704,0.01629325,-0.01626883,-0.77654093,2306.6523,5181.0156)"
       width="2481"
       height="3503" />
    <use
       x="0"
       y="0"
       xlink:href="#use4664"
       id="use4692"
       transform="matrix(-0.76157318,0.78737844,-1.1562027,-0.81859716,5585.5693,4517.5604)"
       width="2481"
       height="3503" />
    <use
       x="0"
       y="0"
       xlink:href="#use4664"
       id="use4694"
       transform="matrix(0.2413678,0.96175958,-1.2866298,0.18042315,4666.0569,751.999)"
       width="2481"
       height="3503" />
    <text
       id="text4178-6-5-9-0-7-0"
       style="font-style:normal;font-variant:normal;font-weight:normal;font-stretch:normal;line-height:0%;font-family:Lavi;-inkscape-font-specification:Lavi;text-align:center;letter-spacing:0px;word-spacing:0px;text-anchor:middle;opacity:0.43399999;fill:#28220b;fill-opacity:1;stroke:none;filter:url(#filter4552-8-9-4-6)"
       xml:space="preserve"
       y="3129.8394"
       x="1318.7137"
       transform="matrix(0.79298761,0.00753598,0.0219157,0.88307326,108.80567,-1536.6899)"><tspan
         y="3129.8394"
         x="1318.7137"
         style="font-style:normal;font-variant:normal;font-weight:normal;font-stretch:normal;font-size:40.67671585px;line-height:1.25;font-family:Fondamento;-inkscape-font-specification:Fondamento;fill:#28220b;fill-opacity:1"
         sodipodi:role="line"
         id="tspan4293-1-6-3-5-4">Prinsesse Koriander</tspan></text>
    <text
       xml:space="preserve"
       style="font-style:normal;font-variant:normal;font-weight:normal;font-stretch:normal;font-size:11.148242px;line-height:0%;font-family:Lavi;-inkscape-font-specification:Lavi;text-align:center;letter-spacing:0px;word-spacing:0px;text-anchor:middle;fill:#000000;fill-opacity:1;stroke:#000000;stroke-width:3.7160809;stroke-miterlimit:4;stroke-dasharray:none;stroke-opacity:1"
       x="1973.2445"
       y="2817.8215"
       id="text4213"
       transform="matrix(0.81145423,0,-0.12899856,1.2323554,0,0)"><tspan
         sodipodi:role="line"
         id="tspan4215"
         x="1975.1025"
         y="2817.8215"
         style="font-style:normal;font-variant:normal;font-weight:normal;font-stretch:normal;font-size:59.04094315px;line-height:1.25;font-family:Lavi;-inkscape-font-specification:Lavi;letter-spacing:3.7160809px;stroke-width:3.7160809;stroke-linecap:round;stroke-miterlimit:4;stroke-dasharray:none"><tspan
   style="stroke-width:3.7160809;stroke-linejoin:round"
   id="tspan6819">–</tspan> <tspan
   style="font-style:normal;font-variant:normal;font-weight:bold;font-stretch:normal;font-family:Lavi;-inkscape-font-specification:'Lavi Bold';letter-spacing:8px;stroke-width:3.7160809"
   id="tspan6821">SLUTT</tspan><tspan
   style="letter-spacing:0px"
   id="tspan6827"> </tspan><tspan
   style="font-style:normal;font-variant:normal;font-weight:normal;font-stretch:normal;font-family:Lavi;-inkscape-font-specification:Lavi;stroke-width:3.7160809;stroke-linecap:round;stroke-linejoin:round;stroke-miterlimit:4;stroke-dasharray:none"
   id="tspan6812">–</tspan></tspan></text>
    <text
       transform="matrix(0.28748374,0.14909896,-0.65903124,0.26591764,3002.6373,1539.8144)"
       x="1318.7137"
       y="3129.8394"
       xml:space="preserve"
       style="font-style:normal;font-variant:normal;font-weight:normal;font-stretch:normal;line-height:0%;font-family:Lavi;-inkscape-font-specification:Lavi;text-align:center;letter-spacing:0px;word-spacing:0px;text-anchor:middle;opacity:0.43399999;fill:#412525;fill-opacity:1;stroke:none;filter:url(#filter4552-8-9-4)"
       id="text4208"><tspan
         id="tspan4210"
         sodipodi:role="line"
         style="font-style:normal;font-variant:normal;font-weight:normal;font-stretch:normal;font-size:40.67671585px;line-height:1.25;font-family:Fondamento;-inkscape-font-specification:Fondamento;fill:#412525;fill-opacity:1"
         x="1318.7137"
         y="3129.8394">Festningar og føniksar</tspan></text>
    <text
       id="text4178"
       y="1477.288"
       x="1916.2288"
       style="font-style:normal;font-variant:normal;font-weight:normal;font-stretch:normal;line-height:0%;font-family:Lavi;-inkscape-font-specification:Lavi;text-align:center;letter-spacing:0px;word-spacing:0px;text-anchor:middle;fill:#000000;fill-opacity:1;stroke:none"
       xml:space="preserve"><tspan
         y="1477.288"
         x="1922.5845"
         style="font-size:40.67671585px;line-height:1.25"
         sodipodi:role="line"
         id="tspan4220">Eg veit </tspan><tspan
         y="1528.1339"
         x="1922.5845"
         style="font-size:40.67671585px;line-height:1.25"
         sodipodi:role="line"
         id="tspan9918">du berre vil </tspan><tspan
         y="1578.9797"
         x="1916.2288"
         style="font-size:40.67671585px;line-height:1.25"
         sodipodi:role="line"
         id="tspan9922">forsvara meg ...</tspan></text>
  </g>
</svg>
