{
   "id": 5,
   "original-language": "en",
   "supporters": 170,
   "published": "2014-12-19",
   "pluxmlID": 244,
   "background-color": "#FFFFFF",
   "credits": {
      "art":[
         "David Revoy <https://framagit.org/Deevad>"
      ],
      "scenario":[
         "David Revoy <https://framagit.org/Deevad>"
      ]
   },
   "software":[
      {
         "name": "Krita",
         "version": "2.8.7"
      },
      {
         "name": "Inkscape",
         "version": "0.91"
      },
      {
         "name": "G'MIC",
         "version": "1.6.1"
      },
      {
         "name": "Blender",
         "version": "2.72"
      },
      {
         "name": "Ubuntu GNOME",
         "version": "14.04 LTS"
      }
   ]
}
