<?xml version="1.0" encoding="UTF-8" standalone="no"?>
<!-- Created with Inkscape (http://www.inkscape.org/) -->

<svg
   xmlns:dc="http://purl.org/dc/elements/1.1/"
   xmlns:cc="http://creativecommons.org/ns#"
   xmlns:rdf="http://www.w3.org/1999/02/22-rdf-syntax-ns#"
   xmlns:svg="http://www.w3.org/2000/svg"
   xmlns="http://www.w3.org/2000/svg"
   xmlns:xlink="http://www.w3.org/1999/xlink"
   xmlns:sodipodi="http://sodipodi.sourceforge.net/DTD/sodipodi-0.dtd"
   xmlns:inkscape="http://www.inkscape.org/namespaces/inkscape"
   id="svg2"
   version="1.1"
   inkscape:version="0.91 r13725"
   width="2481"
   height="4503"
   sodipodi:docname="Pepper-and-Carrot_by-David-Revoy_E15P09.svg">
  <metadata
     id="metadata8">
    <rdf:RDF>
      <cc:Work
         rdf:about="">
        <dc:format>image/svg+xml</dc:format>
        <dc:type
           rdf:resource="http://purl.org/dc/dcmitype/StillImage" />
        <dc:title />
      </cc:Work>
    </rdf:RDF>
  </metadata>
  <defs
     id="defs6" />
  <sodipodi:namedview
     pagecolor="#ffffff"
     bordercolor="#666666"
     borderopacity="1"
     objecttolerance="10"
     gridtolerance="10"
     guidetolerance="10"
     inkscape:pageopacity="0"
     inkscape:pageshadow="2"
     inkscape:window-width="1855"
     inkscape:window-height="1056"
     id="namedview4"
     showgrid="false"
     inkscape:zoom="0.059653849"
     inkscape:cx="3598.4721"
     inkscape:cy="1583.6604"
     inkscape:window-x="65"
     inkscape:window-y="24"
     inkscape:window-maximized="1"
     inkscape:current-layer="layer2"
     inkscape:object-nodes="true"
     showguides="true"
     inkscape:guide-bbox="true">
    <sodipodi:guide
       position="3653.5365,4415.3377"
       orientation="0,1"
       id="guide4214" />
  </sodipodi:namedview>
  <g
     inkscape:groupmode="layer"
     id="layer1"
     inkscape:label="artwork"
     style="display:inline"
     transform="translate(0,1024)"
     sodipodi:insensitive="true">
    <image
       sodipodi:absref="/home/thomas/Data/Copy/PepperCarrot/Git/peppercarrot_ep15_translation/no/../gfx_Pepper-and-Carrot_by-David-Revoy_E15P09.png"
       xlink:href="../gfx_Pepper-and-Carrot_by-David-Revoy_E15P09.png"
       width="2481.4438"
       height="4504.5391"
       preserveAspectRatio="none"
       style="image-rendering:optimizeQuality"
       id="image4223"
       x="0.54707891"
       y="-1023.3771" />
  </g>
  <g
     inkscape:groupmode="layer"
     id="layer3"
     inkscape:label="speechbubbles"
     style="display:inline"
     transform="translate(0,1024)">
    <path
       style="fill:#ffffff;stroke:none"
       d="m -2021.8885,646.19917 c 1.0628,-51.0158 26.5707,-103.09442 170.0526,-112.65988 143.4819,-9.56546 203.0004,48.89014 207.2517,90.34047 4.2513,41.45033 -82.9007,96.71744 -162.6129,97.78027 -79.7121,1.06282 -214.6914,-11.69112 -214.6914,-75.46086 z"
       id="path4279"
       inkscape:connector-curvature="0" />
    <path
       style="fill:#ffffff;stroke:none"
       d="m -1788.0661,898.08964 c 70.1467,-44.63882 88.2148,-124.35099 45.7016,-190.24639 -42.5132,-65.8954 -82.9007,-54.20428 -82.9007,-54.20428 l 35.0734,41.45033 c 0,0 97.7803,97.78027 2.1257,203.00034 z"
       id="path4281"
       inkscape:connector-curvature="0"
       sodipodi:nodetypes="csccc" />
  </g>
  <g
     inkscape:groupmode="layer"
     id="layer2"
     inkscape:label="text"
     style="display:inline;opacity:0.855"
     transform="translate(0,1024)">
    <flowRoot
       xml:space="preserve"
       id="flowRoot3027-8-8-2-8-6"
       style="font-style:normal;font-variant:normal;font-weight:normal;font-stretch:normal;font-size:12px;line-height:125%;font-family:Arial;-inkscape-font-specification:Arial;text-align:center;letter-spacing:0px;word-spacing:0px;text-anchor:middle;display:inline;fill:#000000;fill-opacity:1;stroke:none"
       transform="matrix(0.78840156,0,0,0.81820527,6550.2276,4016.4822)"><flowRegion
         id="flowRegion3029-9-3-5-1-2"><rect
           id="rect3031-9-1-6-8-7"
           width="2230.314"
           height="376.21677"
           x="135.21135"
           y="219.33444"
           style="text-align:center;text-anchor:middle" /></flowRegion><flowPara
         id="flowPara3033-3-0-2-4-3" /><flowPara
         style="font-style:normal;font-variant:normal;font-weight:normal;font-stretch:normal;font-size:48px;font-family:Lavi;-inkscape-font-specification:Lavi;text-align:center;text-anchor:middle"
         id="flowPara3233-6-14" /></flowRoot>    <flowRoot
       xml:space="preserve"
       id="flowRoot4307"
       style="font-style:normal;font-variant:normal;font-weight:normal;font-stretch:normal;font-size:12px;line-height:125%;font-family:Fondamento;-inkscape-font-specification:Fondamento;letter-spacing:0px;word-spacing:0px;fill:#000000;fill-opacity:1;stroke:none;stroke-width:1px;stroke-linecap:butt;stroke-linejoin:miter;stroke-opacity:1"
       transform="translate(6296.0284,1052.7256)"><flowRegion
         id="flowRegion4309"><rect
           id="rect4311"
           width="680.59155"
           height="277.55969"
           x="-836.48126"
           y="2419.3765"
           style="font-style:normal;font-variant:normal;font-weight:normal;font-stretch:normal;font-family:Fondamento;-inkscape-font-specification:Fondamento" /></flowRegion><flowPara
         id="flowPara4313" /></flowRoot>    <g
       id="layer3-2"
       inkscape:label="speechbubbles"
       style="display:none"
       transform="translate(9216.8859,1778.2039)">
      <path
         style="fill:#ffffff;stroke:none"
         d="m -2021.8885,646.19917 c 1.0628,-51.0158 26.5707,-103.09442 170.0526,-112.65988 143.4819,-9.56546 203.0004,48.89014 207.2517,90.34047 4.2513,41.45033 -82.9007,96.71744 -162.6129,97.78027 -79.7121,1.06282 -214.6914,-11.69112 -214.6914,-75.46086 z"
         id="path4279-9"
         inkscape:connector-curvature="0" />
      <path
         style="fill:#ffffff;stroke:none"
         d="m -1788.0661,898.08964 c 70.1467,-44.63882 88.2148,-124.35099 45.7016,-190.24639 -42.5132,-65.8954 -82.9007,-54.20428 -82.9007,-54.20428 l 35.0734,41.45033 c 0,0 97.7803,97.78027 2.1257,203.00034 z"
         id="path4281-1"
         inkscape:connector-curvature="0"
         sodipodi:nodetypes="csccc" />
    </g>
    <flowRoot
       transform="matrix(1.1196913,0,0,1.1666933,-295.55537,-1223.2305)"
       style="font-style:normal;font-variant:normal;font-weight:normal;font-stretch:normal;font-size:43.746418px;line-height:125%;font-family:Arial;-inkscape-font-specification:Arial;text-align:center;letter-spacing:0px;word-spacing:0px;text-anchor:middle;display:inline;fill:#000000;fill-opacity:1;stroke:none"
       id="flowRoot3027-7"
       xml:space="preserve"><flowRegion
         id="flowRegion3029-0"><rect
           style="font-size:43.746418px;line-height:125%;text-align:center;text-anchor:middle"
           y="219.33444"
           x="135.21135"
           height="241.27675"
           width="2475.8752"
           id="rect3031-9" /></flowRegion><flowPara
         id="flowPara3033-3" /><flowPara
         id="flowPara3499-6"
         style="font-style:normal;font-variant:normal;font-weight:normal;font-stretch:normal;font-size:43.746418px;line-height:125%;font-family:Lavi;-inkscape-font-specification:Lavi;text-align:center;text-anchor:middle">Pepper&amp;Gulrot er fullstendig fri, <flowSpan
   id="flowSpan3441"
   style="font-size:39.37177658px">å</flowSpan>pen kildekode og</flowPara><flowPara
         id="flowPara3488-0"
         style="font-style:normal;font-variant:normal;font-weight:normal;font-stretch:normal;font-size:43.746418px;line-height:125%;font-family:Lavi;-inkscape-font-specification:Lavi;text-align:center;text-anchor:middle">sponset av lesere via &quot;Patreon&quot;.</flowPara><flowPara
         id="flowPara3497-6"
         style="font-style:normal;font-variant:normal;font-weight:normal;font-stretch:normal;font-size:43.746418px;line-height:125%;font-family:Lavi;-inkscape-font-specification:Lavi;text-align:center;text-anchor:middle">For denne episoden, takk til dere 686 &quot;Patrons&quot;:</flowPara></flowRoot>    <g
       transform="translate(-2209.2234,-76.8676)"
       id="g4438">
      <flowRoot
         xml:space="preserve"
         id="flowRoot3027-8-8-26"
         style="font-style:normal;font-variant:normal;font-weight:normal;font-stretch:normal;font-size:12px;line-height:125%;font-family:Arial;-inkscape-font-specification:Arial;text-align:center;letter-spacing:0px;word-spacing:0px;text-anchor:middle;display:inline;fill:#a72f14;fill-opacity:1;stroke:none"
         transform="matrix(1.2234224,0,0,1.2506407,1920.038,2699.5927)"><flowRegion
           id="flowRegion3029-9-3-1"><rect
             id="rect3031-9-1-8"
             width="2230.314"
             height="376.21677"
             x="135.21135"
             y="219.33444"
             style="text-align:center;text-anchor:middle;fill:#a72f14;fill-opacity:1" /></flowRegion><flowPara
           id="flowPara3033-3-0-7" /><flowPara
           style="font-style:normal;font-variant:normal;font-weight:normal;font-stretch:normal;font-size:48px;font-family:Lavi;-inkscape-font-specification:Lavi;text-align:center;text-anchor:middle;fill:#a72f14;fill-opacity:1"
           id="flowPara3067-4-9">https://www.patreon.com/davidrevoy</flowPara></flowRoot>      <flowRoot
         xml:space="preserve"
         id="flowRoot3027-8-8-2-2"
         style="font-style:normal;font-variant:normal;font-weight:normal;font-stretch:normal;font-size:12px;line-height:125%;font-family:Arial;-inkscape-font-specification:Arial;text-align:center;letter-spacing:0px;word-spacing:0px;text-anchor:middle;display:inline;fill:#000000;fill-opacity:1;stroke:none"
         transform="matrix(1.0085133,0,0,1.0406001,2189.4432,2711.4671)"><flowRegion
           id="flowRegion3029-9-3-5-0"><rect
             id="rect3031-9-1-6-2"
             width="2230.314"
             height="376.21677"
             x="135.21135"
             y="219.33444"
             style="text-align:center;text-anchor:middle" /></flowRegion><flowPara
           style="font-style:normal;font-variant:normal;font-weight:normal;font-stretch:normal;font-size:48px;font-family:Lavi;-inkscape-font-specification:Lavi;text-align:center;text-anchor:middle"
           id="flowPara3055-3">Du kan ogs<flowSpan
   id="flowSpan4449"
   style="font-size:41.48644257px">å</flowSpan> bli en &quot;Patron&quot; og være med <flowSpan
   id="flowSpan4455"
   style="font-size:41.48644257px">å</flowSpan> sponse Pepper&amp;Gulrot:</flowPara></flowRoot>    </g>
    <flowRoot
       transform="matrix(0.78840156,0,0,0.81820527,9471.0851,3717.9605)"
       style="font-style:normal;font-variant:normal;font-weight:normal;font-stretch:normal;font-size:12px;line-height:125%;font-family:Arial;-inkscape-font-specification:Arial;text-align:center;letter-spacing:0px;word-spacing:0px;text-anchor:middle;display:inline;fill:#000000;fill-opacity:1;stroke:none"
       id="flowRoot3027-8-8-2-8-6-7"
       xml:space="preserve"><flowRegion
         id="flowRegion3029-9-3-5-1-2-5"><rect
           style="text-align:center;text-anchor:middle"
           y="219.33444"
           x="135.21135"
           height="376.21677"
           width="2230.314"
           id="rect3031-9-1-6-8-7-9" /></flowRegion><flowPara
         id="flowPara3033-3-0-2-4-3-22" /><flowPara
         id="flowPara3233-6-14-8"
         style="font-style:normal;font-variant:normal;font-weight:normal;font-stretch:normal;font-size:48px;font-family:Lavi;-inkscape-font-specification:Lavi;text-align:center;text-anchor:middle" /></flowRoot>    <flowRoot
       transform="matrix(0.78840156,0,0,0.83353067,254.77427,2874.3179)"
       style="font-style:normal;font-variant:normal;font-weight:normal;font-stretch:normal;font-size:43.17511749px;line-height:125%;font-family:Arial;-inkscape-font-specification:Arial;text-align:center;letter-spacing:0px;word-spacing:0px;text-anchor:middle;display:inline;fill:#000000;fill-opacity:1;stroke:none"
       id="flowRoot3027-8-8-2-8-6-3-9"
       xml:space="preserve"><flowRegion
         id="flowRegion3029-9-3-5-1-2-8-7"><rect
           style="font-size:43.17511749px;text-align:center;text-anchor:middle"
           y="219.33444"
           x="135.21135"
           height="376.21677"
           width="2230.314"
           id="rect3031-9-1-6-8-7-4-3" /></flowRegion><flowPara
         id="flowPara3033-3-0-2-4-3-2-6" /><flowPara
         id="flowPara3278-7-1"
         style="font-style:normal;font-variant:normal;font-weight:normal;font-stretch:normal;font-size:43.17511749px;font-family:Lavi;-inkscape-font-specification:Lavi;text-align:center;text-anchor:middle">Lisens : Creative Commons Attribution 4.0</flowPara><flowPara
         id="flowPara3233-6-14-6-2"
         style="font-style:normal;font-variant:normal;font-weight:normal;font-stretch:normal;font-size:43.17511749px;font-family:Lavi;-inkscape-font-specification:Lavi;text-align:center;text-anchor:middle">Kildemateriale : Tilgjengelig via www.peppercarrot.com</flowPara><flowPara
         id="flowPara4904-9"
         style="font-style:normal;font-variant:normal;font-weight:normal;font-stretch:normal;font-size:43.17511749px;font-family:Lavi;-inkscape-font-specification:Lavi;text-align:center;text-anchor:middle">Programvare : Denne episoden ble tegnet 100% med fri programvare</flowPara><flowPara
         id="flowPara4908-3"
         style="font-style:normal;font-variant:normal;font-weight:normal;font-stretch:normal;font-size:43.17511749px;font-family:Lavi;-inkscape-font-specification:Lavi;text-align:center;text-anchor:middle">Krita 2.9.11, Inkscape 0.91 på Linux Mint 17 </flowPara><flowPara
         style="font-style:normal;font-variant:normal;font-weight:normal;font-stretch:normal;font-size:43.17511749px;font-family:Lavi;-inkscape-font-specification:Lavi;text-align:center;text-anchor:middle"
         id="flowPara5056" /></flowRoot>    <flowRoot
       transform="translate(9216.8859,754.20392)"
       style="font-style:normal;font-variant:normal;font-weight:normal;font-stretch:normal;font-size:12px;line-height:125%;font-family:Fondamento;-inkscape-font-specification:Fondamento;letter-spacing:0px;word-spacing:0px;fill:#000000;fill-opacity:1;stroke:none;stroke-width:1px;stroke-linecap:butt;stroke-linejoin:miter;stroke-opacity:1"
       id="flowRoot4307-1"
       xml:space="preserve"><flowRegion
         id="flowRegion4309-9"><rect
           style="font-style:normal;font-variant:normal;font-weight:normal;font-stretch:normal;font-family:Fondamento;-inkscape-font-specification:Fondamento"
           y="2419.3765"
           x="-836.48126"
           height="277.55969"
           width="680.59155"
           id="rect4311-4" /></flowRegion><flowPara
         id="flowPara4313-7" /></flowRoot>  </g>
</svg>
