<?xml version="1.0" encoding="UTF-8" standalone="no"?>
<!-- Created with Inkscape (http://www.inkscape.org/) -->

<svg
   xmlns:dc="http://purl.org/dc/elements/1.1/"
   xmlns:cc="http://creativecommons.org/ns#"
   xmlns:rdf="http://www.w3.org/1999/02/22-rdf-syntax-ns#"
   xmlns:svg="http://www.w3.org/2000/svg"
   xmlns="http://www.w3.org/2000/svg"
   xmlns:xlink="http://www.w3.org/1999/xlink"
   xmlns:sodipodi="http://sodipodi.sourceforge.net/DTD/sodipodi-0.dtd"
   xmlns:inkscape="http://www.inkscape.org/namespaces/inkscape"
   id="svg2"
   version="1.1"
   inkscape:version="0.92.4 (5da689c313, 2019-01-14)"
   width="2481"
   height="3503"
   sodipodi:docname="E16P03.svg">
  <sodipodi:namedview
     pagecolor="#ffffff"
     bordercolor="#666666"
     inkscape:pageopacity="0"
     inkscape:pageshadow="2"
     inkscape:window-width="1600"
     inkscape:window-height="900"
     id="namedview70"
     showgrid="false"
     inkscape:zoom="0.4"
     inkscape:cx="1284.4231"
     inkscape:cy="818.6204"
     inkscape:current-layer="layer3"
     inkscape:window-x="0"
     inkscape:window-y="0"
     inkscape:window-maximized="0" />
  <metadata
     id="metadata8">
    <rdf:RDF>
      <cc:Work
         rdf:about="">
        <dc:format>image/svg+xml</dc:format>
        <dc:type
           rdf:resource="http://purl.org/dc/dcmitype/StillImage" />
        <dc:title />
      </cc:Work>
    </rdf:RDF>
  </metadata>
  <defs
     id="defs6">
    <filter
       style="color-interpolation-filters:sRGB"
       id="filter4375-4-1-1-1"
       inkscape:label="deevad outline effect">
      <feFlood
         id="feFlood4377-7-9-0-8"
         flood-opacity="1"
         flood-color="rgb(0,0,0)"
         result="flood" />
      <feComposite
         id="feComposite4379-3-8-8-2"
         in2="SourceGraphic"
         in="flood"
         operator="in"
         result="composite1" />
      <feMorphology
         id="feMorphology4393-1-0-49-8"
         operator="dilate"
         radius="4"
         result="result3" />
      <feComposite
         id="feComposite4385-9-5-7-0"
         in2="result3"
         in="SourceGraphic"
         operator="over"
         result="composite2" />
    </filter>
    <filter
       style="color-interpolation-filters:sRGB"
       id="filter4375-4-1-1-1-8"
       inkscape:label="deevad outline effect">
      <feFlood
         id="feFlood4377-7-9-0-8-4"
         flood-opacity="1"
         flood-color="rgb(0,0,0)"
         result="flood" />
      <feComposite
         id="feComposite4379-3-8-8-2-5"
         in2="SourceGraphic"
         in="flood"
         operator="in"
         result="composite1" />
      <feMorphology
         id="feMorphology4393-1-0-49-8-1"
         operator="dilate"
         radius="4"
         result="result3" />
      <feComposite
         id="feComposite4385-9-5-7-0-7"
         in2="result3"
         in="SourceGraphic"
         operator="over"
         result="composite2" />
    </filter>
  </defs>
  <sodipodi:namedview
     pagecolor="#ffffff"
     bordercolor="#666666"
     borderopacity="1"
     objecttolerance="10"
     gridtolerance="10"
     guidetolerance="10"
     inkscape:pageopacity="0"
     inkscape:pageshadow="2"
     inkscape:window-width="1920"
     inkscape:window-height="1025"
     id="namedview4"
     showgrid="false"
     inkscape:zoom="0.4946937"
     inkscape:cx="1216.2797"
     inkscape:cy="542.33733"
     inkscape:window-x="0"
     inkscape:window-y="26"
     inkscape:window-maximized="1"
     inkscape:current-layer="layer1" />
  <g
     inkscape:groupmode="layer"
     id="layer2"
     inkscape:label="artwork"
     sodipodi:insensitive="true">
    <image
       sodipodi:absref="D:\Pepper&amp;Carrot\ep16_The-Sage-of-the-Mountain_lang-pack\lang\ro\../gfx_Pepper-and-Carrot_by-David-Revoy_E16P03.png"
       xlink:href="../gfx_Pepper-and-Carrot_by-David-Revoy_E16P03.png"
       y="0"
       x="0"
       id="image10"
       height="3503"
       width="2481" />
  </g>
  <g
     inkscape:groupmode="layer"
     id="layer3"
     inkscape:label="speechbubbles">
    <path
       style="color:#000000;display:inline;overflow:visible;visibility:visible;fill:#ffffff;fill-opacity:1;fill-rule:nonzero;stroke:none;stroke-width:1px;marker:none;enable-background:accumulate"
       d="m 1530.5664,614.12504 c -23.5422,-44.79099 -54.1129,-86.36208 -69.4889,-134.89415 l -9.2637,44.46765 c -14.5297,-14.22937 -19.1139,-35.6541 -27.0752,-54.63573 l -11.338,37.30803 c -33.8829,-34.01763 -74.8115,-85.94086 -98.9326,-124.1838 l -58.8695,-5.7337 c 28.9026,35.70192 134.8788,118.42738 157.7121,160.07431 l 12.6468,-24.8312 c 9.8817,13.23086 19.2558,26.89199 26.3633,42.47502 L 1465.44,521.55 Z"
       id="path4032"
       inkscape:connector-curvature="0"
       sodipodi:nodetypes="cccccccccccc" />
    <path
       style="color:#000000;display:inline;overflow:visible;visibility:visible;fill:#ffffff;fill-opacity:1;fill-rule:nonzero;stroke:none;stroke-width:0.86574197px;marker:none;enable-background:accumulate"
       d="m 1023.2177,199.13356 -47.70566,-6.46254 4.22464,10.56389 c -28.4095,0.57321 -43.21138,-2.74233 -63.36885,-4.52737 l 31.68437,13.58206 -5.2807,3.77282 c 5.1441,2.20597 12.906,3.71055 14.78602,6.79106 -14.35141,1.91967 -24.66978,1.9184 -36.53844,2.65551 11.1676,2.5512 20.4652,5.50313 27.03312,9.04016 l -38.02127,6.03645 34.85051,5.2811 c -26.21347,8.68415 -59.16043,14.1611 -89.77028,20.75129 l 108.78326,-3.01829 -16.89827,6.79106 c 11.19474,2.08667 9.99484,1.41202 14.78601,2.64099 2.3736,2.54366 -37.39656,13.11986 -33.79673,12.07298 4.22467,-0.37731 40.13364,-1.88645 40.13364,-1.88645 0,0 -31.68448,10.56388 -27.45982,10.56388 4.2245,0 39.07743,-2.64098 39.07743,-2.64098 l -11.61761,10.18658 33.65373,-5.1695 -8.5568,18.17523 c 11.979,-0.74513 25.8096,-1.73981 31.5727,-1.00845 -4.0128,5.11542 -8.7462,7.0265 -18.8886,15.17315 19.2492,-3.53634 62.6223,-10.22773 62.6223,-10.22773 l 6.2676,16.63523 42.2461,-13.20481 7.3931,9.05473 31.6843,-11.31842 v 11.69573 c 16.3674,-2.26181 25.7608,-9.38582 41.1899,-13.58212 l 3.1683,43.76452 55.1268,-41.11955 11.025,21.39149 26.7896,-16.11355 3.1684,12.07297 29.5722,-16.22305 22.1791,14.71391 21.1231,-13.58206 c 34.1271,13.77232 53.1524,26.23449 79.211,36.97345 -4.4579,-15.23011 -8.1779,-30.02104 -6.3368,-41.50082 11.9697,-1.19628 23.9392,1.19643 35.9089,4.52737 l -6.3369,-10.18658 44.3584,6.79105 -20.0669,-15.8458 c 67.7114,-0.50769 54.1181,2.2117 69.7059,3.77282 l -12.6737,-10.18658 46.4707,7.9229 c -12.6952,-8.4297 -29.3696,-17.57021 -38.0216,-25.27778 l 48.5828,1.88639 c -19.0379,-6.7816 -42.9572,-11.81952 -56.2765,-20.64385 l 42.5467,-0.86112 -40.1336,-11.31841 31.6842,-6.41376 -25.3473,-1.50916 42.2458,-13.58205 -55.9759,-1.13184 67.5936,-24.52325 -78.1551,5.28198 6.3368,-17.73219 -43.3019,12.82752 43.3019,-44.51906 c -35.2879,15.72558 -68.0465,24.66624 -109.3821,40.15156 l -15.2507,-4.47065 -16.8911,2.31524 4.2246,-12.71836 -62.3127,15.46844 6.3369,-7.16831 -19.0107,6.79107 4.2244,-9.43204 -32.7405,11.31842 3.0144,-9.86171 -15.6882,6.46618 -4.8308,-6.19633 -18.4044,3.93265 c -17.7088,-15.16421 -34.0653,-41.93885 -34.0653,-41.93885 0,0 -19.2981,19.06062 -40.9215,42.69344 l -11.6176,-7.16576 -14.4853,6.62606 -14.6321,-8.56494 -22.0301,10.23478 c -17.4211,-7.79713 -27.5675,-12.57433 -34.4004,-20.37147 3.3699,7.30756 5.8198,12.21652 0.9044,20.26397 -64.3105,-12.32087 -62.3853,-13.41959 -86.4526,-20.26397 -6.5949,8.79727 16.5842,17.05706 12.8527,23.81743 z"
       id="path4024"
       inkscape:connector-curvature="0"
       sodipodi:nodetypes="cccccccccccccccccsccccccccccccccccccccccccccccccccccccccccccccccccccccccccccccccccccc" />
    <path
       inkscape:connector-curvature="0"
       style="fill:#ffffff;fill-rule:evenodd;stroke:none"
       d="m 547.16652,1199.0507 c -146.61429,-0.1258 -293.53343,1.1314 -304.48387,2.641 -12.39161,1.7081 -33.35155,13.4061 -53.62539,27.7978 l -12.07757,-0.6247 7.59413,3.8649 c -0.8417,0.6171 -1.68177,1.2358 -2.51799,1.8598 l -40.36052,-8.7452 29.03434,17.5504 c -8.68981,7.039 -16.64164,14.1698 -22.95062,20.6927 4.40141,34.8451 7.8294,56.2509 19.51682,73.3865 l -7.3494,12.1561 18.80368,0.9711 c 0.12274,0.113 0.25084,0.2255 0.37473,0.3383 l -13.0947,13.7867 22.79767,-5.9555 c 0.0498,0.036 0.0953,0.071 0.14531,0.1075 l -29.02669,32.0139 31.63454,-9.0583 -37.71825,29.1847 72.19389,-30.7882 c 1.07941,0.5341 2.12974,1.061 3.24261,1.6035 0.63501,0.3096 1.31052,0.6129 2.00751,0.9124 l -0.79153,9.1517 16.77322,-4.2224 c 87.49387,20.189 363.93834,8.5724 488.78289,-0.7654 l 24.93328,22.0969 -4.86774,-16.1018 36.50228,24.1527 -18.25114,-32.2052 19.46712,11.0714 -7.29969,-12.0772 19.46711,6.0378 -2.19679,-10.2949 c 55.69018,-10.4912 85.6435,-33.7358 94.66654,-56.1255 9.73373,-24.1532 4.86731,-57.3643 2.43387,-69.4408 -1.24058,-6.1567 -9.44918,-16.7557 -19.76728,-26.7384 l 13.68356,-12.5104 -21.25284,5.625 c -8.02165,-6.8314 -16.55955,-12.7091 -23.7651,-15.6891 -9.73372,-4.0255 -156.0437,-5.534 -302.65799,-5.6598 z"
       id="path4212" />
    <path
       style="fill:#ffffff;fill-rule:evenodd;stroke:none;stroke-width:1px;stroke-linecap:butt;stroke-linejoin:miter;stroke-opacity:1"
       d="m 859.93893,1272.3203 c 56.86661,-10.0335 105.79244,-10.5381 175.55377,-36.0453 l -19.7842,24.3214 30.6717,-8.1632 -12.4294,26.1018 c 0,0 202.5995,-33.5594 193.8989,-33.5594 -8.7006,0 -224.9071,61.577 -224.9071,61.577 l 17.0647,-28.9567 -42.99824,16.0553 22.13933,-23.8168 -161.58242,57.1754 z"
       id="path4230"
       inkscape:connector-curvature="0"
       sodipodi:nodetypes="cccccscccccc" />
    <path
       style="fill:#ffffff;fill-rule:evenodd;stroke:none"
       d="m 798.10186,1823.7856 -40.08519,29.8306 -13.36171,14.9153 11.30607,13.6724 -15.41738,0 4.11131,23.6159 -38.02954,2.4859 35.97389,18.6441 -27.75128,2.4859 27.75128,18.6441 -2.05566,9.9435 -11.30607,11.1865 11.30607,44.7459 38.02953,22.373 -16.4452,8.7006 30.83475,1.2429 17.47304,22.373 35.97387,12.4294 27.75128,4.9717 -24.66781,16.1583 44.19649,-9.9435 -19.52868,18.6441 43.16866,-13.6724 68.86425,1.243 109.97737,-4.9718 37.0017,-4.9718 28.7791,14.9153 -6.167,-11.1864 27.7514,-1.243 74.0033,21.13 22.6122,6.2147 -14.3896,-32.3165 20.5565,13.6724 -5.1391,-27.3447 35.9739,-4.9718 18.5008,-13.6723 50.3634,29.8306 -19.5286,-29.8306 27.7512,18.6441 -18.5008,-26.1018 24.6678,11.1865 -18.5009,-24.8589 26.7235,-2.4858 3.0834,-39.7742 c 0,0 -15.4173,-11.1865 -11.306,-11.1865 4.1112,0 22.6122,-11.1864 22.6122,-11.1864 l -14.3896,-8.7006 24.6678,-4.9718 -27.7513,-17.4012 12.3339,-14.9153 -16.4452,-34.8023 -4.1113,-26.1018 -22.6122,-16.1583 -35.9738,-38.5312 -26.7235,-8.7006 -333.01533,-9.9435 -101.75468,9.9435 z"
       id="path4294"
       inkscape:connector-curvature="0" />
    <path
       style="fill:#ffffff;fill-rule:evenodd;stroke:none;stroke-width:1px;stroke-linecap:butt;stroke-linejoin:miter;stroke-opacity:1"
       d="m 1462.9425,2214.0693 -101.9212,-93.2206 6.2147,28.5876 -91.9777,-82.0341 -62.1471,11.1865 178.9836,110.6218 -9.9435,-28.5877 z"
       id="path4305"
       inkscape:connector-curvature="0" />
    <path
       style="fill:#ffffff;fill-rule:evenodd;stroke:none;stroke-width:1.04283607px;stroke-linecap:butt;stroke-linejoin:miter;stroke-opacity:1"
       d="m 401.34281,2625.9484 c -15.6151,14.0495 -16.99682,51.2796 -16.32132,64.6324 0.67552,13.3527 16.25992,63.2387 29.5176,67.1321 13.25766,3.8935 102.05263,16.4505 116.71418,15.8234 14.66157,-0.6272 97.44351,-10.1156 110.25085,-15.1239 12.80733,-5.0085 23.51307,-51.5585 22.98767,-61.9441 -0.52539,-10.3853 -6.41048,-62.1732 -23.00133,-67.4109 -16.59085,-5.2377 -87.91648,-27.463 -102.50298,-25.3521 -14.5865,2.1107 -133.7332,2.7468 -137.64467,22.2431 z"
       id="path4408"
       inkscape:connector-curvature="0" />
    <path
       style="fill:#ffffff;fill-rule:evenodd;stroke:none;stroke-width:0.90588731px;stroke-linecap:butt;stroke-linejoin:miter;stroke-opacity:1"
       d="m 775.61939,2696.4398 c 14.08748,-18.4159 36.00135,-25.499 53.2194,-25.499 17.21804,0 277.05401,-4.2498 286.44561,-1.4166 9.3917,2.8332 53.2195,12.7495 53.2195,32.582 0,19.8326 4.6958,42.4983 -7.8265,55.2478 -12.5222,12.7495 -126.7873,22.6658 -159.6582,19.8326 -32.87079,-2.8333 -175.31097,-7.0831 -192.52901,-8.4997 -17.21804,-1.4166 -40.69719,-19.8325 -37.56664,-33.9986 3.13055,-14.1661 4.69584,-38.2485 4.69584,-38.2485 z"
       id="path4410"
       inkscape:connector-curvature="0"
       sodipodi:nodetypes="csssssssc" />
    <path
       style="fill:#ffffff;fill-rule:evenodd;stroke:none;stroke-width:1px;stroke-linecap:butt;stroke-linejoin:miter;stroke-opacity:1"
       d="m 499.53985,2664.4104 c 193.55341,-0.3243 379.15326,41.3597 567.43005,79.9806 44.8357,122.0573 105.1467,166.4381 215.0829,188.0625 C 1145.4821,2909.9787 1116.9631,2873.3515 1054,2760.6033 870.59234,2706.1979 684.48983,2692.2542 495.21657,2678.461 Z"
       id="path4412"
       inkscape:connector-curvature="0"
       sodipodi:nodetypes="cccccc" />
  </g>
  <g
     inkscape:groupmode="layer"
     id="layer1"
     inkscape:label="txt">
    <text
       xml:space="preserve"
       style="font-style:normal;font-variant:normal;font-weight:normal;font-stretch:normal;line-height:0%;font-family:Lavi;-inkscape-font-specification:Lavi;text-align:center;letter-spacing:0px;word-spacing:0px;text-anchor:middle;fill:#000000;fill-opacity:1;stroke:none"
       x="1268.6267"
       y="275.00793"
       id="text4246"><tspan
         sodipodi:role="line"
         style="font-size:45px;line-height:1.25"
         x="1268.6267"
         y="275.00793"
         id="tspan3537">Cum adică nu înveți nimic?!</tspan></text>
    <text
       xml:space="preserve"
       style="font-style:normal;font-variant:normal;font-weight:normal;font-stretch:normal;line-height:0%;font-family:Lavi;-inkscape-font-specification:Lavi;text-align:center;letter-spacing:0px;word-spacing:0px;text-anchor:middle;fill:#000000;fill-opacity:1;stroke:none"
       x="528.66364"
       y="1288.5115"
       id="text4246-9"><tspan
         sodipodi:role="line"
         style="font-size:45px;line-height:1.25"
         x="535.69489"
         y="1288.5115"
         id="tspan3544">Și nici măcar nu ai curaj să vii aici </tspan><tspan
         sodipodi:role="line"
         style="font-size:45px;line-height:1.25"
         x="528.66364"
         y="1344.947"
         id="tspan73">singură să spui asta?!</tspan></text>
    <text
       xml:space="preserve"
       style="font-style:normal;font-variant:normal;font-weight:normal;font-stretch:normal;line-height:0%;font-family:Lavi;-inkscape-font-specification:Lavi;text-align:center;letter-spacing:0px;word-spacing:0px;text-anchor:middle;fill:#000000;fill-opacity:1;stroke:none"
       x="1079.519"
       y="1882.459"
       id="text4246-9-6"><tspan
         sodipodi:role="line"
         style="font-size:45px;line-height:1.25"
         x="1086.5503"
         y="1882.459"
         id="tspan4292">Dacă nu m-ar durea spatele </tspan><tspan
         sodipodi:role="line"
         style="font-size:45px;line-height:1.25"
         x="1079.519"
         y="1938.709"
         id="tspan3559">ți-aș da eu o lecție!</tspan><tspan
         sodipodi:role="line"
         style="font-size:45px;line-height:1.25"
         x="1086.5503"
         y="1995.1445"
         id="tspan81">Și nu depre vrăjitorie, dacă </tspan><tspan
         sodipodi:role="line"
         style="font-size:45px;line-height:1.25"
         x="1079.519"
         y="2051.5801"
         id="tspan85">înțelegi ce vreau să zic!</tspan></text>
    <text
       xml:space="preserve"
       style="font-style:normal;font-variant:normal;font-weight:normal;font-stretch:normal;line-height:0%;font-family:Lavi;-inkscape-font-specification:Lavi;text-align:center;letter-spacing:0px;word-spacing:0px;text-anchor:middle;fill:#000000;fill-opacity:1;stroke:none"
       x="524.8103"
       y="2669.6978"
       id="text4246-9-6-3"><tspan
         sodipodi:role="line"
         style="font-size:45px;line-height:1.25"
         x="524.8103"
         y="2669.6978"
         id="tspan4292-8">Thyme,</tspan><tspan
         sodipodi:role="line"
         style="font-size:45px;line-height:1.25"
         x="524.8103"
         y="2725.9478"
         id="tspan4349">calmează-te</tspan></text>
    <text
       xml:space="preserve"
       style="font-style:normal;font-variant:normal;font-weight:normal;font-stretch:normal;line-height:0%;font-family:Lavi;-inkscape-font-specification:Lavi;text-align:center;letter-spacing:0px;word-spacing:0px;text-anchor:middle;fill:#000000;fill-opacity:1;stroke:none"
       x="970.2735"
       y="2737.3301"
       id="text4246-9-6-9"><tspan
         sodipodi:role="line"
         style="font-size:45px;line-height:1.25"
         x="970.2735"
         y="2737.3301"
         id="tspan4292-6">Au dreptate...</tspan></text>
    <text
       xml:space="preserve"
       style="font-style:normal;font-variant:normal;font-weight:normal;font-stretch:normal;line-height:0%;font-family:Lavi;-inkscape-font-specification:Lavi;text-align:center;letter-spacing:0px;word-spacing:0px;text-anchor:middle;fill:#ffffff;fill-opacity:1;stroke:#ffffff;stroke-width:0.41015577;stroke-miterlimit:4;stroke-dasharray:none;stroke-opacity:1"
       x="764.05621"
       y="923.35193"
       id="text4246-8"
       transform="matrix(0.89618362,-0.24886542,0.02679547,1.1084018,0,0)"><tspan
         sodipodi:role="line"
         style="font-size:30.7616806px;line-height:1.25;fill:#ffffff;stroke:#ffffff;stroke-width:0.41015577;stroke-miterlimit:4;stroke-dasharray:none;stroke-opacity:1"
         x="764.05621"
         y="923.35193"
         id="tspan4150-8">piu</tspan></text>
    <text
       xml:space="preserve"
       style="font-style:normal;font-variant:normal;font-weight:normal;font-stretch:normal;line-height:0%;font-family:Lavi;-inkscape-font-specification:Lavi;text-align:center;letter-spacing:0px;word-spacing:0px;text-anchor:middle;fill:#ffffff;fill-opacity:1;stroke:#ffffff;stroke-width:0.41015577;stroke-miterlimit:4;stroke-dasharray:none;stroke-opacity:1"
       x="543.87469"
       y="837.68304"
       id="text4246-8-4"
       transform="matrix(0.89618362,-0.24886542,0.02679547,1.1084018,0,0)"><tspan
         sodipodi:role="line"
         style="font-size:30.7616806px;line-height:1.25;fill:#ffffff;stroke:#ffffff;stroke-width:0.41015577;stroke-miterlimit:4;stroke-dasharray:none;stroke-opacity:1"
         x="543.87469"
         y="837.68304"
         id="tspan4150-8-7">piu</tspan></text>
    <text
       xml:space="preserve"
       style="font-style:normal;font-variant:normal;font-weight:normal;font-stretch:normal;line-height:0%;font-family:Lavi;-inkscape-font-specification:Lavi;text-align:center;letter-spacing:0px;word-spacing:0px;text-anchor:middle;fill:#ffffff;fill-opacity:1;stroke:#ffffff;stroke-width:0.41015577;stroke-miterlimit:4;stroke-dasharray:none;stroke-opacity:1"
       x="334.54736"
       y="936.29169"
       id="text4246-8-5"
       transform="matrix(0.89618362,-0.24886542,0.02679547,1.1084018,0,0)"><tspan
         sodipodi:role="line"
         style="font-size:30.7616806px;line-height:1.25;fill:#ffffff;stroke:#ffffff;stroke-width:0.41015577;stroke-miterlimit:4;stroke-dasharray:none;stroke-opacity:1"
         x="334.54736"
         y="936.29169"
         id="tspan4150-8-71">piu</tspan></text>
    <text
       xml:space="preserve"
       style="font-style:normal;font-variant:normal;font-weight:normal;font-stretch:normal;line-height:0%;font-family:Lavi;-inkscape-font-specification:Lavi;text-align:center;letter-spacing:0px;word-spacing:0px;text-anchor:middle;fill:#ffffff;fill-opacity:1;stroke:#ffffff;stroke-width:0.41015577;stroke-miterlimit:4;stroke-dasharray:none;stroke-opacity:1"
       x="87.779213"
       y="987.71484"
       id="text4246-8-7"
       transform="matrix(0.73686042,-0.56755246,0.44156597,1.0170015,0,0)"><tspan
         sodipodi:role="line"
         style="font-size:30.7616806px;line-height:1.25;fill:#ffffff;stroke:#ffffff;stroke-width:0.41015577;stroke-miterlimit:4;stroke-dasharray:none;stroke-opacity:1"
         x="87.779213"
         y="987.71484"
         id="tspan4150-8-79">piu</tspan></text>
    <text
       xml:space="preserve"
       style="font-style:normal;font-variant:normal;font-weight:normal;font-stretch:normal;line-height:0%;font-family:Lavi;-inkscape-font-specification:Lavi;text-align:center;letter-spacing:0px;word-spacing:0px;text-anchor:middle;fill:#ffffff;fill-opacity:1;stroke:#ffffff;stroke-width:0.41015577;stroke-miterlimit:4;stroke-dasharray:none;stroke-opacity:1"
       x="336.62546"
       y="1084.5326"
       id="text4246-8-9"
       transform="matrix(0.89618362,-0.24886542,0.02679547,1.1084018,0,0)"><tspan
         sodipodi:role="line"
         style="font-size:30.7616806px;line-height:1.25;fill:#ffffff;stroke:#ffffff;stroke-width:0.41015577;stroke-miterlimit:4;stroke-dasharray:none;stroke-opacity:1"
         x="336.62546"
         y="1084.5326"
         id="tspan4150-8-2">piu</tspan></text>
    <text
       xml:space="preserve"
       style="font-style:normal;font-variant:normal;font-weight:normal;font-stretch:normal;line-height:0%;font-family:Lavi;-inkscape-font-specification:Lavi;text-align:center;letter-spacing:0px;word-spacing:0px;text-anchor:middle;fill:#ffffff;fill-opacity:1;stroke:#ffffff;stroke-width:0.41015577;stroke-miterlimit:4;stroke-dasharray:none;stroke-opacity:1"
       x="552.94135"
       y="1012.8113"
       id="text4246-8-7-5"
       transform="matrix(0.89774281,-0.24318074,0.01977029,1.1085494,0,0)"><tspan
         sodipodi:role="line"
         style="font-size:30.7616806px;line-height:1.25;fill:#ffffff;stroke:#ffffff;stroke-width:0.41015577;stroke-miterlimit:4;stroke-dasharray:none;stroke-opacity:1"
         x="552.94135"
         y="1012.8113"
         id="tspan4150-8-79-8">piu</tspan></text>
    <text
       xml:space="preserve"
       style="font-style:normal;font-variant:normal;font-weight:normal;font-stretch:normal;line-height:0%;font-family:Lavi;-inkscape-font-specification:Lavi;text-align:center;letter-spacing:0px;word-spacing:0px;text-anchor:middle;fill:#ffffff;fill-opacity:1;stroke:#ffffff;stroke-width:0.41015577;stroke-miterlimit:4;stroke-dasharray:none;stroke-opacity:1"
       x="156.05554"
       y="847.95422"
       id="text4246-8-7-4"
       transform="matrix(0.73686042,-0.56755246,0.44156597,1.0170015,0,0)"><tspan
         sodipodi:role="line"
         style="font-size:30.7616806px;line-height:1.25;fill:#ffffff;stroke:#ffffff;stroke-width:0.41015577;stroke-miterlimit:4;stroke-dasharray:none;stroke-opacity:1"
         x="156.05554"
         y="847.95422"
         id="tspan4150-8-79-5">piu</tspan></text>
    <text
       xml:space="preserve"
       style="font-style:normal;font-variant:normal;font-weight:normal;font-stretch:normal;line-height:0%;font-family:Lavi;-inkscape-font-specification:Lavi;text-align:center;letter-spacing:0px;word-spacing:0px;text-anchor:middle;fill:#ffffff;fill-opacity:1;stroke:#ffffff;stroke-width:0.41015577;stroke-miterlimit:4;stroke-dasharray:none;stroke-opacity:1"
       x="358.29056"
       y="983.72534"
       id="text4246-8-7-6"
       transform="matrix(0.73686042,-0.56755246,0.44156597,1.0170015,0,0)"><tspan
         sodipodi:role="line"
         style="font-size:30.7616806px;line-height:1.25;fill:#ffffff;stroke:#ffffff;stroke-width:0.41015577;stroke-miterlimit:4;stroke-dasharray:none;stroke-opacity:1"
         x="358.29056"
         y="983.72534"
         id="tspan4150-8-79-86">piu</tspan></text>
    <text
       xml:space="preserve"
       style="font-style:normal;font-variant:normal;font-weight:normal;font-stretch:normal;line-height:0%;font-family:Lavi;-inkscape-font-specification:Lavi;text-align:center;letter-spacing:0px;word-spacing:0px;text-anchor:middle;fill:#ffffff;fill-opacity:1;stroke:#ffffff;stroke-width:0.41015577;stroke-miterlimit:4;stroke-dasharray:none;stroke-opacity:1"
       x="-93.625549"
       y="854.11603"
       id="text4246-8-7-3"
       transform="matrix(0.73686042,-0.56755246,0.44156597,1.0170015,0,0)"><tspan
         sodipodi:role="line"
         style="font-size:30.7616806px;line-height:1.25;fill:#ffffff;stroke:#ffffff;stroke-width:0.41015577;stroke-miterlimit:4;stroke-dasharray:none;stroke-opacity:1"
         x="-93.625549"
         y="854.11603"
         id="tspan4150-8-79-2">piu</tspan></text>
    <text
       xml:space="preserve"
       style="font-style:normal;font-variant:normal;font-weight:normal;font-stretch:normal;line-height:0%;font-family:Lavi;-inkscape-font-specification:Lavi;text-align:center;letter-spacing:0px;word-spacing:0px;text-anchor:middle;fill:#ffffff;fill-opacity:1;stroke:#ffffff;stroke-width:0.41015577;stroke-miterlimit:4;stroke-dasharray:none;stroke-opacity:1"
       x="-161.61777"
       y="976.23895"
       id="text4246-8-7-3-4"
       transform="matrix(0.73686042,-0.56755246,0.44156597,1.0170015,0,0)"><tspan
         sodipodi:role="line"
         style="font-size:30.7616806px;line-height:1.25;fill:#ffffff;stroke:#ffffff;stroke-width:0.41015577;stroke-miterlimit:4;stroke-dasharray:none;stroke-opacity:1"
         x="-161.61777"
         y="976.23895"
         id="tspan4150-8-79-2-4">piu</tspan></text>
    <text
       xml:space="preserve"
       style="font-style:normal;font-variant:normal;font-weight:normal;font-stretch:normal;line-height:0%;font-family:Lavi;-inkscape-font-specification:Lavi;letter-spacing:0px;word-spacing:0px;fill:#000000;fill-opacity:1;stroke:#000000;stroke-width:0.99236238;stroke-miterlimit:4;stroke-dasharray:none;stroke-opacity:1;filter:url(#filter4375-4-1-1-1)"
       x="787.65729"
       y="1584.5073"
       id="text4580"
       transform="matrix(1.031805,-0.51321442,-0.19048641,1.3599228,744.55089,-116.50742)"><tspan
         sodipodi:role="line"
         id="tspan4582"
         x="787.65729"
         y="1584.5073"
         style="font-size:70px;line-height:1.25;fill:#ffffff"><tspan
           style="font-size:80.40014648px"
           id="tspan4617">BAM!</tspan></tspan></text>
  </g>
</svg>
