<?xml version="1.0" encoding="UTF-8" standalone="no"?>
<svg
   xmlns:dc="http://purl.org/dc/elements/1.1/"
   xmlns:cc="http://creativecommons.org/ns#"
   xmlns:rdf="http://www.w3.org/1999/02/22-rdf-syntax-ns#"
   xmlns:svg="http://www.w3.org/2000/svg"
   xmlns="http://www.w3.org/2000/svg"
   xmlns:xlink="http://www.w3.org/1999/xlink"
   xmlns:sodipodi="http://sodipodi.sourceforge.net/DTD/sodipodi-0.dtd"
   xmlns:inkscape="http://www.inkscape.org/namespaces/inkscape"
   sodipodi:docname="E02P01.svg"
   height="3503"
   width="2481"
   inkscape:version="1.0 (4035a4f, 2020-05-01)"
   version="1.1"
   id="svg2">
  <sodipodi:namedview
     inkscape:document-rotation="0"
     inkscape:window-maximized="0"
     inkscape:window-y="23"
     inkscape:window-x="0"
     inkscape:snap-global="false"
     inkscape:current-layer="layer1"
     inkscape:cy="1659.6358"
     inkscape:cx="1275.9764"
     inkscape:zoom="0.5275422"
     showgrid="false"
     id="namedview70"
     inkscape:window-height="782"
     inkscape:window-width="1440"
     inkscape:pageshadow="2"
     inkscape:pageopacity="0"
     bordercolor="#666666"
     pagecolor="#ffffff" />
  <metadata
     id="metadata8">
    <rdf:RDF>
      <cc:Work
         rdf:about="">
        <dc:format>image/svg+xml</dc:format>
        <dc:type
           rdf:resource="http://purl.org/dc/dcmitype/StillImage" />
        <dc:title></dc:title>
      </cc:Work>
    </rdf:RDF>
  </metadata>
  <defs
     id="defs6">
    <filter
       height="1.0278708"
       y="-0.013935394"
       width="1.0065782"
       x="-0.0032890983"
       id="filter4398"
       style="color-interpolation-filters:sRGB"
       inkscape:collect="always">
      <feGaussianBlur
         id="feGaussianBlur4400"
         stdDeviation="0.11702162"
         inkscape:collect="always" />
    </filter>
    <filter
       height="1.0273548"
       y="-0.013677411"
       width="1.0068012"
       x="-0.0034005821"
       id="filter4402"
       style="color-interpolation-filters:sRGB"
       inkscape:collect="always">
      <feGaussianBlur
         id="feGaussianBlur4404"
         stdDeviation="0.082595546"
         inkscape:collect="always" />
    </filter>
    <filter
       height="1.0295539"
       y="-0.014776948"
       width="1.0064436"
       x="-0.0032217881"
       id="filter4406"
       style="color-interpolation-filters:sRGB"
       inkscape:collect="always">
      <feGaussianBlur
         id="feGaussianBlur4408"
         stdDeviation="0.13376918"
         inkscape:collect="always" />
    </filter>
    <linearGradient
       y2="437.57367"
       x2="1874.1125"
       y1="416.16275"
       x1="1847.7394"
       gradientTransform="translate(-1175.5162,1405.4356)"
       gradientUnits="userSpaceOnUse"
       id="linearGradient1057"
       xlink:href="#linearGradient1063-6-8-8"
       inkscape:collect="always" />
    <linearGradient
       inkscape:collect="always"
       id="linearGradient1063-6-8-8">
      <stop
         style="stop-color:#b18f85;stop-opacity:1"
         offset="0"
         id="stop1059" />
      <stop
         style="stop-color:#a27671;stop-opacity:1"
         offset="1"
         id="stop1061" />
    </linearGradient>
    <filter
       inkscape:menu-tooltip="Adds a small scale graininess"
       inkscape:menu="Image Effects"
       inkscape:label="PepperGrain"
       height="1.1755431"
       y="-0.087771527"
       width="1.1186565"
       x="-0.039999999"
       id="filter864"
       style="color-interpolation-filters:sRGB"
       inkscape:collect="always">
      <feGaussianBlur
         result="fbSourceGraphic"
         id="feGaussianBlur866"
         stdDeviation="1.9155206"
         inkscape:collect="always" />
      <feColorMatrix
         id="feColorMatrix868"
         values="0 0 0 -1 0 0 0 0 -1 0 0 0 0 -1 0 0 0 0 1 0"
         in="fbSourceGraphic"
         result="fbSourceGraphicAlpha" />
      <feTurbulence
         result="result0"
         seed="77"
         baseFrequency="0.29599999999999999"
         numOctaves="5"
         type="turbulence"
         id="feTurbulence870" />
      <feColorMatrix
         type="saturate"
         values="0"
         result="result4"
         id="feColorMatrix872" />
      <feComposite
         numOctaves="3"
         k4="-0.25182778"
         baseFrequency="0.54700000000000004"
         result="result2"
         k3="0.5"
         k2="0.24"
         k1="-0.35"
         operator="arithmetic"
         in="fbSourceGraphic"
         id="feComposite874"
         in2="result4" />
      <feBlend
         k4="-0.25"
         in="result2"
         mode="overlay"
         result="result5"
         id="feBlend876"
         in2="fbSourceGraphic" />
      <feComposite
         result="result3"
         operator="in"
         in="result5"
         id="feComposite878"
         in2="fbSourceGraphic" />
    </filter>
    <filter
       height="1.1019213"
       y="-0.05096064"
       width="1.6897658"
       x="-0.34488288"
       id="filter1389"
       style="color-interpolation-filters:sRGB"
       inkscape:collect="always">
      <feGaussianBlur
         id="feGaussianBlur1391"
         stdDeviation="1.0255595"
         inkscape:collect="always" />
    </filter>
    <filter
       height="1.1019213"
       y="-0.050960641"
       width="1.6897658"
       x="-0.34488288"
       id="filter1389-3"
       style="color-interpolation-filters:sRGB"
       inkscape:collect="always">
      <feGaussianBlur
         id="feGaussianBlur1391-6"
         stdDeviation="1.0255595"
         inkscape:collect="always" />
    </filter>
    <filter
       height="1.1019213"
       y="-0.050960641"
       width="1.6897658"
       x="-0.34488288"
       id="filter1389-3-5"
       style="color-interpolation-filters:sRGB"
       inkscape:collect="always">
      <feGaussianBlur
         id="feGaussianBlur1391-6-3"
         stdDeviation="1.0255595"
         inkscape:collect="always" />
    </filter>
    <filter
       height="1.1019213"
       y="-0.050960641"
       width="1.6897658"
       x="-0.34488288"
       id="filter1389-3-5-6"
       style="color-interpolation-filters:sRGB"
       inkscape:collect="always">
      <feGaussianBlur
         id="feGaussianBlur1391-6-3-2"
         stdDeviation="1.0255595"
         inkscape:collect="always" />
    </filter>
    <filter
       height="1.1019213"
       y="-0.050960641"
       width="1.6897658"
       x="-0.34488288"
       id="filter1389-3-5-6-1"
       style="color-interpolation-filters:sRGB"
       inkscape:collect="always">
      <feGaussianBlur
         id="feGaussianBlur1391-6-3-2-2"
         stdDeviation="1.0255595"
         inkscape:collect="always" />
    </filter>
    <filter
       height="1.0405504"
       y="-0.020275208"
       width="1.028093"
       x="-0.014046481"
       id="filter1523"
       style="color-interpolation-filters:sRGB"
       inkscape:collect="always">
      <feGaussianBlur
         id="feGaussianBlur1525"
         stdDeviation="0.082295226"
         inkscape:collect="always" />
    </filter>
    <linearGradient
       y2="419.64142"
       x2="1839.3806"
       y1="408.49603"
       x1="1833.3468"
       gradientTransform="translate(-1175.5162,1405.4356)"
       gradientUnits="userSpaceOnUse"
       id="linearGradient1057-2"
       xlink:href="#linearGradient1063-6-8-8"
       inkscape:collect="always" />
    <filter
       inkscape:menu-tooltip="Adds a small scale graininess"
       inkscape:menu="Image Effects"
       inkscape:label="PepperGrain"
       height="1.1755431"
       y="-0.087771527"
       width="1.1186565"
       x="-0.039999999"
       id="filter864-8"
       style="color-interpolation-filters:sRGB"
       inkscape:collect="always">
      <feGaussianBlur
         result="fbSourceGraphic"
         id="feGaussianBlur866-7"
         stdDeviation="1.9155206"
         inkscape:collect="always" />
      <feColorMatrix
         id="feColorMatrix868-9"
         values="0 0 0 -1 0 0 0 0 -1 0 0 0 0 -1 0 0 0 0 1 0"
         in="fbSourceGraphic"
         result="fbSourceGraphicAlpha" />
      <feTurbulence
         result="result0"
         seed="77"
         baseFrequency="0.218"
         numOctaves="5"
         type="turbulence"
         id="feTurbulence870-2" />
      <feColorMatrix
         type="saturate"
         values="0"
         result="result4"
         id="feColorMatrix872-0" />
      <feComposite
         numOctaves="3"
         k4="-0.25182778"
         baseFrequency="0.54700000000000004"
         result="result2"
         k3="0.5"
         k2="0.24"
         k1="-0.35"
         operator="arithmetic"
         in="fbSourceGraphic"
         id="feComposite874-2"
         in2="result4" />
      <feBlend
         k4="-0.25"
         in="result2"
         mode="overlay"
         result="result5"
         id="feBlend876-3"
         in2="fbSourceGraphic" />
      <feComposite
         result="result3"
         operator="in"
         in="result5"
         id="feComposite878-7"
         in2="fbSourceGraphic" />
    </filter>
  </defs>
  <sodipodi:namedview
     inkscape:current-layer="layer1"
     inkscape:window-maximized="1"
     inkscape:window-y="26"
     inkscape:window-x="1920"
     inkscape:cy="1751.5"
     inkscape:cx="1240.5"
     inkscape:zoom="0.25606623"
     showgrid="false"
     id="namedview4"
     inkscape:window-height="1025"
     inkscape:window-width="1920"
     inkscape:pageshadow="2"
     inkscape:pageopacity="0"
     guidetolerance="10"
     gridtolerance="10"
     objecttolerance="10"
     borderopacity="1"
     bordercolor="#666666"
     pagecolor="#ffffff" />
  <g
     sodipodi:insensitive="true"
     inkscape:label="artwork"
     id="layer2"
     inkscape:groupmode="layer">
    <image
       sodipodi:absref="/Users/julienj-mauduit/Downloads/lang-3/gfx_Pepper-and-Carrot_by-David-Revoy_E02P01.png"
       xlink:href="../gfx_Pepper-and-Carrot_by-David-Revoy_E02P01.png"
       y="0"
       x="-1.6728083e-06"
       id="image10"
       height="3503"
       width="2481" />
  </g>
  <g
     style="display:inline;opacity:1"
     inkscape:label="text"
     id="layer1"
     inkscape:groupmode="layer">
    <flowRoot
       transform="matrix(1.2520739,0,0,1.4888503,428.67723,2289.3202)"
       style="color:#000000;font-style:normal;font-variant:normal;font-weight:normal;font-stretch:normal;line-height:0.01%;font-family:Arial;-inkscape-font-specification:Arial;letter-spacing:0px;word-spacing:0px;display:inline;overflow:visible;visibility:visible;fill:#e69d76;fill-opacity:1;fill-rule:nonzero;stroke:#e99f77;stroke-width:4.38198;stroke-opacity:1;marker:none;enable-background:accumulate"
       id="flowRoot3063-8"
       xml:space="preserve"><flowRegion
         style="stroke-width:4.38198"
         id="flowRegion3065-8"><rect
           style="color:#000000;font-size:72px;display:inline;overflow:visible;visibility:visible;fill:#e69d76;fill-opacity:1;fill-rule:nonzero;stroke:#e99f77;stroke-width:4.3819828;stroke-opacity:1;marker:none;enable-background:accumulate"
           y="425.30325"
           x="92.642677"
           height="91.750099"
           width="153.02928"
           id="rect3067-6" /></flowRegion><flowPara
         id="flowPara3188"
         style="color:#000000;font-style:normal;font-variant:normal;font-weight:normal;font-stretch:normal;font-size:64px;line-height:1.25;font-family:Lavi;-inkscape-font-specification:Lavi;text-align:center;text-anchor:middle;display:inline;overflow:visible;visibility:visible;fill:#e69d76;fill-opacity:1;fill-rule:nonzero;stroke:#e99f77;stroke-width:3.45423;stroke-miterlimit:4;stroke-dasharray:none;stroke-opacity:1;marker:none;enable-background:accumulate">Glup</flowPara></flowRoot>
    <flowRoot
       transform="matrix(0.98088993,0,0,1.2883768,485.17347,2473.8791)"
       style="color:#000000;font-style:normal;font-variant:normal;font-weight:normal;font-stretch:normal;line-height:0.01%;font-family:Arial;-inkscape-font-specification:Arial;letter-spacing:0px;word-spacing:0px;display:inline;overflow:visible;visibility:visible;fill:#e69d76;fill-opacity:1;fill-rule:nonzero;stroke:#e99f77;stroke-width:5.32206;stroke-opacity:1;marker:none;enable-background:accumulate"
       id="flowRoot3063-8-9"
       xml:space="preserve"><flowRegion
         style="stroke-width:5.32206"
         id="flowRegion3065-8-8"><rect
           style="color:#000000;font-size:72px;display:inline;overflow:visible;visibility:visible;fill:#e69d76;fill-opacity:1;fill-rule:nonzero;stroke:#e99f77;stroke-width:5.32205772;stroke-opacity:1;marker:none;enable-background:accumulate"
           y="425.30325"
           x="92.642677"
           height="91.750099"
           width="153.02928"
           id="rect3067-6-6" /></flowRegion><flowPara
         id="flowPara3188-0"
         style="color:#000000;font-style:normal;font-variant:normal;font-weight:normal;font-stretch:normal;font-size:64px;line-height:1.25;font-family:Lavi;-inkscape-font-specification:Lavi;text-align:center;text-anchor:middle;display:inline;overflow:visible;visibility:visible;fill:#e69d76;fill-opacity:1;fill-rule:nonzero;stroke:#e99f77;stroke-width:4.19527;stroke-miterlimit:4;stroke-dasharray:none;stroke-opacity:1;marker:none;enable-background:accumulate">Glup</flowPara></flowRoot>
    <flowRoot
       transform="matrix(0.79802617,-0.15255664,0.15501413,0.94581203,486.16776,2739.8997)"
       style="color:#000000;font-style:normal;font-variant:normal;font-weight:normal;font-stretch:normal;line-height:0.01%;font-family:Arial;-inkscape-font-specification:Arial;letter-spacing:0px;word-spacing:0px;display:inline;overflow:visible;visibility:visible;fill:#e69d76;fill-opacity:1;fill-rule:nonzero;stroke:#e99f77;stroke-width:6.78111;stroke-opacity:1;marker:none;enable-background:accumulate"
       id="flowRoot3063-8-9-4"
       xml:space="preserve"><flowRegion
         style="stroke-width:6.78111"
         id="flowRegion3065-8-8-2"><rect
           style="color:#000000;font-size:72px;display:inline;overflow:visible;visibility:visible;fill:#e69d76;fill-opacity:1;fill-rule:nonzero;stroke:#e99f77;stroke-width:6.7811141;stroke-opacity:1;marker:none;enable-background:accumulate"
           y="425.30325"
           x="92.642677"
           height="91.750099"
           width="153.02928"
           id="rect3067-6-6-0" /></flowRegion><flowPara
         id="flowPara3188-0-7"
         style="color:#000000;font-style:normal;font-variant:normal;font-weight:normal;font-stretch:normal;font-size:64px;line-height:1.25;font-family:Lavi;-inkscape-font-specification:Lavi;text-align:center;text-anchor:middle;display:inline;overflow:visible;visibility:visible;fill:#e69d76;fill-opacity:1;fill-rule:nonzero;stroke:#e99f77;stroke-width:5.34542;stroke-miterlimit:4;stroke-dasharray:none;stroke-opacity:1;marker:none;enable-background:accumulate">Glup</flowPara></flowRoot>
    <flowRoot
       transform="matrix(2.4962261,-0.35316532,0.53901745,3.8520573,-2487.5116,-4936.6516)"
       style="font-style:normal;font-variant:normal;font-weight:normal;font-stretch:normal;line-height:0.01%;font-family:Arial;-inkscape-font-specification:Arial;letter-spacing:0px;word-spacing:0px;opacity:0.901;fill:#2d1a1c;fill-opacity:1;stroke:#000000;stroke-width:0.286735;stroke-linecap:butt;stroke-linejoin:miter;stroke-miterlimit:4;stroke-dasharray:none;stroke-opacity:1;filter:url(#filter4398)"
       id="flowRoot4325"
       xml:space="preserve"><flowRegion
         id="flowRegion4327"><rect
           style="fill:#2d1a1c;fill-opacity:1;stroke:#000000;stroke-width:0.28673479;stroke-miterlimit:4;stroke-dasharray:none;stroke-opacity:1"
           y="1755.9342"
           x="841.07574"
           height="14.722872"
           width="131.93344"
           id="rect4329" /></flowRegion><flowPara
         style="font-style:normal;font-variant:normal;font-weight:normal;font-stretch:normal;font-size:12px;line-height:1.25;font-family:Fondamento;-inkscape-font-specification:Fondamento;text-align:center;text-anchor:middle;fill:#2d1a1c;fill-opacity:1;stroke:#000000;stroke-width:0.286735;stroke-miterlimit:4;stroke-dasharray:none;stroke-opacity:1"
         id="flowPara4335">TRACHI DES </flowPara></flowRoot>
    <flowRoot
       transform="matrix(2.4640584,-0.20425769,0.32588862,2.9519982,-2047.8272,-3399.5507)"
       style="font-style:normal;font-variant:normal;font-weight:normal;font-stretch:normal;line-height:0.01%;font-family:Arial;-inkscape-font-specification:Arial;letter-spacing:0px;word-spacing:0px;opacity:0.878;fill:#221415;fill-opacity:1;stroke:#000000;stroke-width:0.317196;stroke-linecap:butt;stroke-linejoin:miter;stroke-miterlimit:4;stroke-dasharray:none;stroke-opacity:1;filter:url(#filter4406)"
       id="flowRoot4325-5"
       xml:space="preserve"><flowRegion
         id="flowRegion4327-2"><rect
           style="fill:#221415;fill-opacity:1;stroke:#000000;stroke-width:0.3171955;stroke-miterlimit:4;stroke-dasharray:none;stroke-opacity:1"
           y="1755.9342"
           x="841.07574"
           height="15.861448"
           width="110.97581"
           id="rect4329-1" /></flowRegion><flowPara
         style="font-style:normal;font-variant:normal;font-weight:normal;font-stretch:normal;font-size:12px;line-height:1.25;font-family:Fondamento;-inkscape-font-specification:Fondamento;text-align:center;text-anchor:middle;fill:#221415;fill-opacity:1;stroke:#000000;stroke-width:0.317196;stroke-miterlimit:4;stroke-dasharray:none;stroke-opacity:1"
         id="flowPara4335-3">CASIBO</flowPara></flowRoot>
    <flowRoot
       transform="matrix(3.2617383,-0.33723333,0.62114022,4.1539475,-3323.4644,-5437.6298)"
       style="font-style:normal;font-variant:normal;font-weight:normal;font-stretch:normal;line-height:0.01%;font-family:Arial;-inkscape-font-specification:Arial;letter-spacing:0px;word-spacing:0px;opacity:0.92;fill:#241516;fill-opacity:1;stroke:#000000;stroke-width:0.233157;stroke-linecap:butt;stroke-linejoin:miter;stroke-miterlimit:4;stroke-dasharray:none;stroke-opacity:1;filter:url(#filter4402)"
       id="flowRoot4325-9"
       xml:space="preserve"><flowRegion
         id="flowRegion4327-0"><rect
           style="fill:#241516;fill-opacity:1;stroke:#000000;stroke-width:0.23315693;stroke-miterlimit:4;stroke-dasharray:none;stroke-opacity:1"
           y="1755.9342"
           x="841.07574"
           height="14.722872"
           width="131.93344"
           id="rect4329-16" /></flowRegion><flowPara
         style="font-style:normal;font-variant:normal;font-weight:normal;font-stretch:normal;font-size:12px;line-height:1.25;font-family:Fondamento;-inkscape-font-specification:Fondamento;text-align:center;text-anchor:middle;fill:#241516;fill-opacity:1;stroke:#000000;stroke-width:0.233157;stroke-miterlimit:4;stroke-dasharray:none;stroke-opacity:1"
         id="flowPara4335-0">TOURS</flowPara></flowRoot>
    <path
       transform="matrix(0.98775018,-0.21175583,0.15604354,1.340407,-272.8508,-489.82126)"
       sodipodi:nodetypes="ccccccc"
       inkscape:connector-curvature="0"
       id="path1004"
       d="m 647.59652,1812.7791 c 6.3735,0.7499 49.8283,3.5627 55.8269,2.063 0,0 15.99949,35.3258 -17.621,37.7934 l -30.7429,-0.6769 -14.6217,-6.7484 -2.48686,-19.8957 z"
       style="display:inline;opacity:1;vector-effect:none;fill:url(#linearGradient1057);fill-opacity:1;fill-rule:evenodd;stroke:none;stroke-width:0.85843062px;stroke-linecap:butt;stroke-linejoin:miter;stroke-miterlimit:4;stroke-dasharray:none;stroke-dashoffset:0;stroke-opacity:1;filter:url(#filter864)" />
    <path
       transform="matrix(0.61136876,-0.13454985,0.09658327,0.85169586,81.018234,351.13818)"
       sodipodi:nodetypes="ccccccc"
       inkscape:connector-curvature="0"
       id="path1004-5"
       d="m 647.59652,1812.7791 c 6.3735,0.7499 49.8283,3.5627 55.8269,2.063 0,0 15.99949,35.3258 -17.621,37.7934 l -30.7429,-0.6769 -14.6217,-6.7484 -2.48686,-19.8957 z"
       style="display:inline;opacity:0.86799999;vector-effect:none;fill:url(#linearGradient1057-2);fill-opacity:1;fill-rule:evenodd;stroke:none;stroke-width:1.36884165px;stroke-linecap:butt;stroke-linejoin:miter;stroke-miterlimit:4;stroke-dasharray:none;stroke-dashoffset:0;stroke-opacity:1;filter:url(#filter864-8)" />
    <path
       inkscape:connector-curvature="0"
       id="path875"
       d="m 683.42172,1797.0129 c 1.61667,10.9855 3.54263,37.2533 3.54263,37.2533 l 3.59412,11.0456"
       style="opacity:0.48900003;fill:none;fill-rule:evenodd;stroke:#000000;stroke-width:1px;stroke-linecap:butt;stroke-linejoin:miter;stroke-opacity:1;filter:url(#filter1389)" />
    <path
       sodipodi:nodetypes="cc"
       inkscape:connector-curvature="0"
       id="path875-7"
       d="m 675.02291,1799.4475 c 1.61667,10.9855 2.38106,22.6175 2.38106,22.6175"
       style="opacity:0.48900003;fill:none;fill-rule:evenodd;stroke:#000000;stroke-width:0.80000001;stroke-linecap:butt;stroke-linejoin:miter;stroke-miterlimit:4;stroke-dasharray:none;stroke-opacity:1;filter:url(#filter1389-3)" />
    <path
       sodipodi:nodetypes="cc"
       inkscape:connector-curvature="0"
       id="path875-7-5"
       d="m 674.61299,1827.3886 c 1.61667,10.9855 2.38106,22.6175 2.38106,22.6175"
       style="opacity:0.48900003;fill:none;fill-rule:evenodd;stroke:#000000;stroke-width:0.80000001;stroke-linecap:butt;stroke-linejoin:miter;stroke-miterlimit:4;stroke-dasharray:none;stroke-opacity:1;filter:url(#filter1389-3-5)" />
    <path
       sodipodi:nodetypes="cc"
       inkscape:connector-curvature="0"
       id="path875-7-5-9"
       d="m 656.49244,1799.5108 c 1.61667,10.9855 2.38106,22.6175 2.38106,22.6175"
       style="opacity:0.48900003;fill:none;fill-rule:evenodd;stroke:#000000;stroke-width:0.80000001;stroke-linecap:butt;stroke-linejoin:miter;stroke-miterlimit:4;stroke-dasharray:none;stroke-opacity:1;filter:url(#filter1389-3-5-6)" />
    <path
       sodipodi:nodetypes="cc"
       inkscape:connector-curvature="0"
       id="path875-7-5-9-7"
       d="m 700.98393,1819.016 c 1.61667,10.9855 2.38106,22.6175 2.38106,22.6175"
       style="opacity:0.48900003;fill:none;fill-rule:evenodd;stroke:#000000;stroke-width:0.80000001;stroke-linecap:butt;stroke-linejoin:miter;stroke-miterlimit:4;stroke-dasharray:none;stroke-opacity:1;filter:url(#filter1389-3-5-6-1)" />
    <flowRoot
       transform="matrix(3.6906788,-0.20226875,0.11864504,3.648253,-2885.7772,-4426.8303)"
       style="font-style:normal;font-variant:normal;font-weight:normal;font-stretch:normal;line-height:0.01%;font-family:Arial;-inkscape-font-specification:Arial;letter-spacing:0px;word-spacing:0px;opacity:0.647;fill:#000000;fill-opacity:1;stroke:#000000;stroke-width:0.671173;stroke-linecap:butt;stroke-linejoin:miter;stroke-miterlimit:4;stroke-dasharray:none;stroke-opacity:1;filter:url(#filter1523)"
       id="flowRoot4325-9-3"
       xml:space="preserve"><flowRegion
         style="fill:#000000;fill-opacity:1;stroke-width:0.671173;stroke-miterlimit:4;stroke-dasharray:none"
         id="flowRegion4327-0-6"><rect
           style="fill:#000000;fill-opacity:1;stroke:#000000;stroke-width:0.67117327;stroke-miterlimit:4;stroke-dasharray:none;stroke-opacity:1"
           y="1755.9342"
           x="841.07574"
           height="14.722872"
           width="131.93344"
           id="rect4329-16-0" /></flowRegion><flowPara
         style="font-style:normal;font-variant:normal;font-weight:normal;font-stretch:normal;font-size:12px;line-height:1.25;font-family:Fondamento;-inkscape-font-specification:Fondamento;text-align:center;text-anchor:middle;fill:#000000;fill-opacity:1;stroke:#000000;stroke-width:0.671173;stroke-miterlimit:4;stroke-dasharray:none;stroke-opacity:1"
         id="flowPara4335-0-6">33</flowPara></flowRoot>
  </g>
</svg>
