<?xml version="1.0" encoding="UTF-8" standalone="no"?>
<!-- Created with Inkscape (http://www.inkscape.org/) -->

<svg
   xmlns:dc="http://purl.org/dc/elements/1.1/"
   xmlns:cc="http://creativecommons.org/ns#"
   xmlns:rdf="http://www.w3.org/1999/02/22-rdf-syntax-ns#"
   xmlns:svg="http://www.w3.org/2000/svg"
   xmlns="http://www.w3.org/2000/svg"
   xmlns:xlink="http://www.w3.org/1999/xlink"
   xmlns:sodipodi="http://sodipodi.sourceforge.net/DTD/sodipodi-0.dtd"
   xmlns:inkscape="http://www.inkscape.org/namespaces/inkscape"
   id="svg2"
   version="1.1"
   inkscape:version="0.92.3 (2405546, 2018-03-11)"
   width="2481"
   height="3503"
   sodipodi:docname="E17P01.svg">
  <sodipodi:namedview
     pagecolor="#ffffff"
     bordercolor="#666666"
     inkscape:pageopacity="0"
     inkscape:pageshadow="2"
     inkscape:window-width="1813"
     inkscape:window-height="955"
     id="namedview70"
     showgrid="false"
     inkscape:zoom="0.56568542"
     inkscape:cx="1197.6933"
     inkscape:cy="559.06277"
     inkscape:current-layer="layer1"
     inkscape:window-x="0"
     inkscape:window-y="66"
     inkscape:window-maximized="0" />
  <metadata
     id="metadata8">
    <rdf:RDF>
      <cc:Work
         rdf:about="">
        <dc:format>image/svg+xml</dc:format>
        <dc:type
           rdf:resource="http://purl.org/dc/dcmitype/StillImage" />
        <dc:title />
      </cc:Work>
    </rdf:RDF>
  </metadata>
  <defs
     id="defs6">
    <filter
       style="color-interpolation-filters:sRGB"
       id="filter4375-4-1-1-1"
       inkscape:label="deevad outline effect">
      <feFlood
         id="feFlood4377-7-9-0-8"
         flood-opacity="1"
         flood-color="rgb(0,0,0)"
         result="flood" />
      <feComposite
         id="feComposite4379-3-8-8-2"
         in2="SourceGraphic"
         in="flood"
         operator="in"
         result="composite1" />
      <feMorphology
         id="feMorphology4393-1-0-49-8"
         operator="dilate"
         radius="4"
         result="result3" />
      <feComposite
         id="feComposite4385-9-5-7-0"
         in2="result3"
         in="SourceGraphic"
         operator="over"
         result="composite2" />
    </filter>
  </defs>
  <sodipodi:namedview
     pagecolor="#ffffff"
     bordercolor="#666666"
     borderopacity="1"
     objecttolerance="10"
     gridtolerance="10"
     guidetolerance="10"
     inkscape:pageopacity="0"
     inkscape:pageshadow="2"
     inkscape:window-width="1920"
     inkscape:window-height="1025"
     id="namedview4"
     showgrid="false"
     inkscape:zoom="0.74389472"
     inkscape:cx="1692.5409"
     inkscape:cy="901.90755"
     inkscape:window-x="0"
     inkscape:window-y="26"
     inkscape:window-maximized="1"
     inkscape:current-layer="layer1" />
  <g
     inkscape:groupmode="layer"
     id="layer2"
     inkscape:label="artwork"
     sodipodi:insensitive="true">
    <image
       sodipodi:absref="C:\Users\ato\OneDrive - Høgskulen i Volda\Vevsida\Teikneseriesida\Pepar &amp; Gulrot\ep17_A-Fresh-Start_lang-pack\lang\nn\../gfx_Pepper-and-Carrot_by-David-Revoy_E17P01.png"
       xlink:href="../gfx_Pepper-and-Carrot_by-David-Revoy_E17P01.png"
       y="0"
       x="0"
       id="image10"
       height="3503"
       width="2481" />
  </g>
  <g
     inkscape:groupmode="layer"
     id="layer3"
     inkscape:label="speechbubbles">
    <path
       style="fill:#ffffff;stroke:none;stroke-width:0.95893097"
       d="m 1900.734,2417.8139 c 5.2127,-58.8046 22.4487,-93.5377 69.6162,-129.28 40.5203,-30.7052 256.858,-28.1439 317.9963,-16.6931 44.7425,8.38 133.0812,32.4751 136.6821,85.3615 3.422,50.2583 14.7458,159.3093 -22.1493,191.7058 -38.9306,34.184 -277.5142,24.0832 -366.3556,13.3469 -118.7455,-14.35 -131.4149,-99.5929 -135.7897,-144.4411 z"
       id="path3021"
       inkscape:connector-curvature="0"
       sodipodi:nodetypes="csssssc" />
    <path
       style="color:#000000;display:inline;overflow:visible;visibility:visible;fill:#ffffff;fill-opacity:1;fill-rule:nonzero;stroke:none;stroke-width:1px;marker:none;enable-background:accumulate"
       d="m 1785.9829,2275.3363 c 43.0673,8.2854 66.1639,39.6775 70.6387,48.3686 4.4748,8.691 18.2521,35.9003 53.2109,40.6343 34.9589,4.7342 34.6065,23.736 34.6065,23.736 l -28.4885,19.4849 c 0,0 -54.488,-28.9686 -69.127,-48.3617 -14.6389,-19.3932 -22.7941,-50.3705 -31.7823,-59.1151 -8.9881,-8.7446 -15.6524,-19.837 -29.0583,-24.747 z"
       id="path4018"
       inkscape:connector-curvature="0"
       sodipodi:nodetypes="cssccssc" />
    <path
       style="fill:#ffffff;fill-rule:evenodd;stroke:none;stroke-width:0.9520945"
       d="m 956.78209,1792.1323 c 30.38002,13.1186 57.84141,21.2748 48.50511,-33.1369 53.7746,73.872 46.0608,23.2797 54.5682,5.5228 31.971,52.1829 59.4794,44.7464 83.3682,-11.0455 13.5047,80.4772 41.7647,41.4854 66.6945,29.455 -0.061,22.6314 -6.8677,48.5824 66.6945,34.9778 -21.0332,20.44 -28.8788,38.9958 18.1893,49.7053 -32.6956,16.4344 -50.6517,33.922 -15.1577,55.2281 -18.8559,31.038 -6.2444,49.4837 19.7052,62.5919 -60.7586,1.8152 -46.1266,18.8909 -36.3789,34.9778 -51.7294,-33.0746 -58.9669,-19.8328 -54.5682,5.5228 -24.0771,-14.5452 -41.8731,-48.9242 -84.884,-3.6818 -12.7917,-15.0152 -24.5831,-33.9796 -53.0523,12.8865 -2.0083,-40.88 -22.8229,-39.3422 -53.0525,-16.5684 -7.9733,-38.338 -37.91296,-18.8725 -69.72611,5.5229 25.96681,-37.4186 10.78856,-51.2033 -23.95533,-89.2127 36.83567,-30.8161 15.72367,-30.6069 10.2539,-52.5396 18.64689,-15.568 42.99054,-32.5267 -6.00376,-62.5919 28.64575,4.6741 59.1468,10.7001 28.79989,-27.6141 z"
       id="path4582"
       inkscape:connector-curvature="0"
       sodipodi:nodetypes="ccccccccccccccccccc" />
    <path
       style="color:#000000;display:inline;overflow:visible;visibility:visible;fill:#ffffff;fill-opacity:1;fill-rule:nonzero;stroke:none;stroke-width:1px;marker:none;enable-background:accumulate"
       d="m 1196.0761,1952.9058 c 23.7239,14.2255 61.9488,43.044 76.2655,59.624 3.0955,-13.8639 8.4416,-25.7793 12.4353,-35.1298 16.784,12.1296 90.9257,73.1169 100.8209,94.759 -22.0361,-54.5674 -74.3748,-104.9506 -103.7006,-122.6017 -7.5332,11.6229 -10.4968,19.4636 -14.6173,25.5024 -25.4071,-2.5419 -56.6177,-44.4327 -56.8452,-44.9452 z"
       id="path5066"
       inkscape:connector-curvature="0"
       sodipodi:nodetypes="cccccccc" />
    <path
       style="color:#000000;display:inline;overflow:visible;visibility:visible;fill:#ffffff;fill-opacity:1;fill-rule:nonzero;stroke:none;stroke-width:1px;marker:none;enable-background:accumulate"
       d="m 580.8868,2280.1636 c -30.11408,-18.4643 -40.65397,-35.6097 -37.64245,-46.1608 3.01138,-10.551 30.11393,-64.6251 63.23924,-71.2196 33.12545,-6.5944 118.95024,-14.5076 138.52442,-7.9132 19.57418,6.5943 75.28504,50.1175 75.28504,72.5384 0,22.421 -10.53989,65.944 -40.65397,79.1327 -30.11393,13.1889 -162.6156,21.1022 -198.75228,-26.3775 z"
       id="path3349"
       inkscape:connector-curvature="0" />
    <path
       style="fill:#ffffff;stroke:none"
       d="m 540.60159,2364.5645 c -0.79656,-19.319 24.91066,-72.7667 135.09246,-66.6175 110.18179,6.1493 144.18354,28.1557 146.58968,62.5181 3.80644,54.3602 -54.55512,67.5317 -137.95247,69.6481 -85.97366,2.1819 -139.02786,-16.6844 -143.72967,-65.5487 z"
       id="path3280"
       inkscape:connector-curvature="0"
       sodipodi:nodetypes="csssc" />
    <path
       style="fill:#ffffff;stroke:none"
       d="m 462.7487,2323.4218 c 19.54312,23.3799 27.8615,17.4813 37.10761,9.6978 9.24609,-7.7835 17.24434,-16.2258 23.0997,-13.9259 5.85539,2.3001 11.36723,10.3556 14.79931,17.3132 3.4321,6.9575 9.3438,2.994 16.07856,-0.5744 6.73479,-3.5684 43.2244,-10.0681 43.2244,-10.0681 0,0 -22.57858,29.6369 -31.0169,35.8681 -8.43834,6.2309 -11.50973,8.5673 -15.17309,9.7994 -3.66342,1.232 -12.74208,2.3755 -17.72582,-3.0266 -4.98374,-5.4019 -7.3681,-14.5768 -10.32818,-20.0976 -2.95996,-5.5207 -11.05253,-6.3898 -18.65118,-2.486 -7.59863,3.9039 -25.24054,9.1542 -32.47234,-0.9969 -7.2318,-10.1511 -8.94207,-21.503 -8.94207,-21.503 z"
       id="path3023"
       inkscape:connector-curvature="0"
       sodipodi:nodetypes="csssscssssssc" />
  </g>
  <g
     inkscape:groupmode="layer"
     id="layer1"
     inkscape:label="txt">
    <text
       xml:space="preserve"
       style="font-style:normal;font-variant:normal;font-weight:normal;font-stretch:normal;line-height:0%;font-family:Lavi;-inkscape-font-specification:Lavi;text-align:center;letter-spacing:0px;word-spacing:0px;text-anchor:middle;fill:#000000;fill-opacity:1;stroke:none"
       x="686.38007"
       y="2214.8169"
       id="text4246"><tspan
         sodipodi:role="line"
         style="font-size:45px;line-height:1.25"
         x="686.38007"
         y="2214.8169"
         id="tspan4252">Men</tspan><tspan
         sodipodi:role="line"
         style="font-size:45px;line-height:1.25"
         x="686.38007"
         y="2271.0669"
         id="tspan4146">Pepar ...</tspan><tspan
         sodipodi:role="line"
         style="font-size:45px;line-height:1.25"
         x="693.41132"
         y="2327.3169"
         id="tspan4152"> </tspan><tspan
         sodipodi:role="line"
         style="font-size:45px;line-height:1.25"
         x="686.38007"
         y="2383.5669"
         id="tspan3330">Ikkje gå ...</tspan></text>
    <text
       xml:space="preserve"
       style="font-style:normal;font-variant:normal;font-weight:normal;font-stretch:normal;line-height:0%;font-family:Lavi;-inkscape-font-specification:Lavi;text-align:center;letter-spacing:0px;word-spacing:0px;text-anchor:middle;fill:#000000;fill-opacity:1;stroke:#000000;stroke-width:2.65554738;stroke-miterlimit:4;stroke-dasharray:none;stroke-opacity:1"
       x="1106.8938"
       y="1892.3174"
       id="text4246-7"><tspan
         sodipodi:role="line"
         style="font-style:normal;font-variant:normal;font-weight:bold;font-stretch:normal;font-size:65px;line-height:1.25;font-family:Lavi;-inkscape-font-specification:'Lavi Bold';stroke:#000000;stroke-width:2.65554738;stroke-miterlimit:4;stroke-dasharray:none;stroke-opacity:1"
         x="1106.8938"
         y="1892.3174"
         id="tspan4150-5">NEI!</tspan><tspan
         sodipodi:role="line"
         style="font-style:normal;font-variant:normal;font-weight:bold;font-stretch:normal;font-size:49.79151154px;line-height:1.25;font-family:Lavi;-inkscape-font-specification:'Lavi Bold';stroke:#000000;stroke-width:2.65554738;stroke-miterlimit:4;stroke-dasharray:none;stroke-opacity:1"
         x="1106.8938"
         y="1959.6295"
         id="tspan4190">EG DREG!</tspan></text>
    <text
       xml:space="preserve"
       style="font-style:normal;font-variant:normal;font-weight:normal;font-stretch:normal;line-height:0%;font-family:Lavi;-inkscape-font-specification:Lavi;text-align:center;letter-spacing:0px;word-spacing:0px;text-anchor:middle;fill:#000000;fill-opacity:1;stroke:none"
       x="2154.7527"
       y="2350.5093"
       id="text4246-9"><tspan
         sodipodi:role="line"
         style="font-size:45px;line-height:1.25"
         x="2154.7527"
         y="2350.5093"
         id="tspan3342">De lærer meg</tspan><tspan
         sodipodi:role="line"
         style="font-size:45px;line-height:1.25"
         x="2154.7527"
         y="2406.7593"
         id="tspan856">ikkje ekte trolldom!</tspan><tspan
         sodipodi:role="line"
         style="font-size:45px;line-height:1.25"
         x="2154.7527"
         y="2463.0093"
         id="tspan858">Eg dreg til</tspan><tspan
         sodipodi:role="line"
         style="font-size:45px;line-height:1.25"
         x="2154.7527"
         y="2519.2593"
         id="tspan860">ah-heksene!</tspan></text>
    <text
       xml:space="preserve"
       style="font-style:normal;font-variant:normal;font-weight:normal;font-stretch:normal;line-height:0%;font-family:Lavi;-inkscape-font-specification:Lavi;letter-spacing:0px;word-spacing:0px;fill:#000000;fill-opacity:1;stroke:#000000;stroke-width:0.99236238;stroke-miterlimit:4;stroke-dasharray:none;stroke-opacity:1;filter:url(#filter4375-4-1-1-1)"
       x="787.65729"
       y="1584.5073"
       id="text4580"
       transform="matrix(0.64545612,-0.14502854,-0.28870948,0.70997447,753.86791,2340.5307)"><tspan
         sodipodi:role="line"
         id="tspan4582"
         x="787.65729"
         y="1584.5073"
         style="font-size:70px;line-height:1.25;fill:#ffffff"><tspan
           id="tspan4938"
           style="font-size:62.03222656px">S</tspan><tspan
           id="tspan868"
           style="font-size:72.32002872px">v</tspan><tspan
           id="tspan866"
           style="font-size:82.65146138px">o</tspan><tspan
           id="tspan874"
           style="font-size:92.98289406px">s</tspan><tspan
           id="tspan4942"
           style="font-size:103.31432343px">j</tspan><tspan
           id="tspan4940"
           style="font-size:123.25863647px">!</tspan></tspan></text>
  </g>
</svg>
