<?xml version="1.0" encoding="UTF-8" standalone="no"?>
<!-- Created with Inkscape (http://www.inkscape.org/) -->

<svg
   xmlns:dc="http://purl.org/dc/elements/1.1/"
   xmlns:cc="http://creativecommons.org/ns#"
   xmlns:rdf="http://www.w3.org/1999/02/22-rdf-syntax-ns#"
   xmlns:svg="http://www.w3.org/2000/svg"
   xmlns="http://www.w3.org/2000/svg"
   xmlns:xlink="http://www.w3.org/1999/xlink"
   xmlns:sodipodi="http://sodipodi.sourceforge.net/DTD/sodipodi-0.dtd"
   xmlns:inkscape="http://www.inkscape.org/namespaces/inkscape"
   id="svg2"
   version="1.1"
   inkscape:version="0.92.2 2405546, 2018-03-11"
   width="2481"
   height="3503"
   sodipodi:docname="E26P05.svg">
  <metadata
     id="metadata8">
    <rdf:RDF>
      <cc:Work
         rdf:about="">
        <dc:format>image/svg+xml</dc:format>
        <dc:type
           rdf:resource="http://purl.org/dc/dcmitype/StillImage" />
        <dc:title />
      </cc:Work>
    </rdf:RDF>
  </metadata>
  <defs
     id="defs6" />
  <sodipodi:namedview
     pagecolor="#ffffff"
     bordercolor="#666666"
     borderopacity="1"
     objecttolerance="10"
     gridtolerance="10"
     guidetolerance="10"
     inkscape:pageopacity="0"
     inkscape:pageshadow="2"
     inkscape:window-width="1920"
     inkscape:window-height="1033"
     id="namedview4"
     showgrid="false"
     inkscape:zoom="0.70710678"
     inkscape:cx="1119.4043"
     inkscape:cy="721.58585"
     inkscape:window-x="0"
     inkscape:window-y="47"
     inkscape:window-maximized="0"
     inkscape:current-layer="layer1"
     inkscape:snap-global="false" />
  <g
     inkscape:groupmode="layer"
     id="layer2"
     inkscape:label="artwork"
     sodipodi:insensitive="true">
    <image
       sodipodi:absref="/home/midgard/git/peppercarrot/comics/ep26_Books-Are-Great/lang/ja/../gfx_Pepper-and-Carrot_by-David-Revoy_E26P05.png"
       xlink:href="../gfx_Pepper-and-Carrot_by-David-Revoy_E26P05.png"
       y="0"
       x="0"
       id="image10"
       height="3503"
       width="2481" />
  </g>
  <g
     inkscape:groupmode="layer"
     id="layer3"
     inkscape:label="speechbubbles">
    <path
       style="color:#000000;display:inline;overflow:visible;visibility:visible;fill:#ffffff;fill-opacity:1;fill-rule:nonzero;stroke:none;stroke-width:0.904504px;marker:none;enable-background:accumulate"
       d="m 686.7196,135.7782 c 19.35299,-26.29902 169.8407,-42.805964 218.45738,19.61939 48.61667,62.42536 12.61217,128.56377 -18.72914,147.75882 -31.34131,19.19515 -121.02997,35.07079 -160.0872,12.48855 -39.05731,-22.58226 -68.6355,-53.66009 -67.06878,-111.51787 0.63945,-23.61408 8.07469,-42.04977 27.42774,-68.34889 z"
       id="path4040"
       inkscape:connector-curvature="0"
       sodipodi:nodetypes="zssssz" />
    <path
       style="color:#000000;display:inline;overflow:visible;visibility:visible;fill:#ffffff;fill-opacity:1;fill-rule:nonzero;stroke:none;stroke-width:1px;marker:none;enable-background:accumulate"
       d="m 723.30366,175.8066 c 15.6509,39.1272 126.32477,118.49941 138.62187,131.91441 12.2971,13.415 38.0092,32.4196 58.1317,35.7734 20.1226,3.3537 29.8656,-15.8488 47.3048,-18.9433 14.983,-2.6587 26.47777,2.1745 35.42117,12.2357 -14.533,-25.7121 -39.12717,-25.7121 -49.18837,-21.2404 -10.0613,4.4717 -27.948,17.8867 -44.7168,5.5896 -16.7687,-12.2971 -86.0797,-88.31561 -103.96637,-91.66931 -17.8867,-3.3538 -40.245,-29.0659 -40.245,-43.5988 0,-14.533 -41.363,-10.0613 -41.363,-10.0613 z"
       id="path4562"
       inkscape:connector-curvature="0"
       sodipodi:nodetypes="cssscssssc" />
    <path
       style="color:#000000;display:inline;overflow:visible;visibility:visible;fill:#ffffff;fill-opacity:1;fill-rule:nonzero;stroke:none;stroke-width:1px;marker:none;enable-background:accumulate"
       d="m 629.44972,1457.2356 c 5.31864,112.846 187.39235,142.8215 217.19246,120.0477 -67.73192,45.7834 -243.1513,-13.454 -259.18624,-91.6691 -22.55675,-34.7368 41.99378,-28.3786 41.99378,-28.3786 z"
       id="path4480"
       inkscape:connector-curvature="0"
       sodipodi:nodetypes="cccc" />
    <path
       style="color:#000000;display:inline;overflow:visible;visibility:visible;fill:#ffffff;fill-opacity:1;fill-rule:nonzero;stroke:none;stroke-width:0.77267522px;marker:none;enable-background:accumulate"
       d="m 1697.506,1517.4852 c 5.6292,-47.4416 52.8446,-80.5244 171.6921,-67.0728 63.6611,7.2055 136.0402,13.0874 128.5345,82.6142 -7.5057,69.5266 -111.6467,63.8009 -133.2255,64.6189 -21.5789,0.818 -133.3386,-10.7214 -151.9897,-35.1724 -11.6753,-15.3056 -15.9497,-30.2645 -15.0114,-44.9879 z"
       id="path4546-6"
       inkscape:connector-curvature="0"
       sodipodi:nodetypes="cssssc" />
    <path
       style="fill:#ffffff;fill-opacity:1;stroke:none;stroke-width:1.17011929"
       d="m 1822.1934,1642.7664 c -3.1644,-33.1575 17.824,-49.6518 36.9342,-57.4653 24.2193,-9.9025 198.9346,-20.9391 220.0178,6.8159 19.417,25.5615 33.2125,72.5563 -24.7666,95.7706 -57.9789,23.2142 -154.7418,10.4987 -171.2131,6.278 -16.4713,-4.2208 -57.6782,-15.5227 -60.9723,-51.3992 z"
       id="path3659-8"
       inkscape:connector-curvature="0"
       sodipodi:nodetypes="cssssc" />
    <path
       style="fill:#ffffff;fill-opacity:1;fill-rule:evenodd;stroke:none;stroke-width:0.57074118px;stroke-linecap:butt;stroke-linejoin:miter;stroke-opacity:1"
       d="m 2045.2157,1752.4365 c 2.8478,6.2781 -2.7067,12.8754 -6.6854,14.9282 -4.7257,4.1933 -9.9339,3.4238 -14.756,2.3824 -4.7156,-1.6167 -8.9124,2.4725 -12.725,6.7734 -5.8446,5.4542 -13.3739,6.5511 -18.6228,1.2394 -3.9397,-3.6716 -8.4641,-8.1406 -13.7451,-5.3035 -6.2088,2.7499 -13.9137,4.8375 -18.6038,-1.7964 -2.9664,-7.3562 -9.8827,-5.3756 -15.0565,-3.3626 -6.6035,2.2865 -13.6152,3.2535 -19.5505,-0.695 -3.9688,-2.3804 -9.0795,-3.9874 -10.2159,-11.0177 -1.4774,-7.7322 -2.9448,-16.9207 -8.5192,-19.9579 -3.8972,-2.4942 -9.7267,-4.4919 -9.6976,-12.3212 1.0837,-6.8382 4.2374,-13.2886 7.0808,-18.978 7.0153,-6.9042 15.2764,0.321 23.1079,-0.7647 5.1177,-0.6887 10.1757,-3.071 14.8599,-6.8213 7.3585,-4.1094 14.4416,1.0655 21.8212,-1.2502 8.5897,-1.9266 17.2829,-0.2509 25.7891,-4.696 9.5237,-3.9035 19.6465,-0.7854 26.2121,8.5566 2.7393,4.5693 6.7227,6.697 11.0541,6.5043 5.6774,0.514 8.7552,-0.3982 11.9308,7.2374 2.6334,5.4974 1.9582,3.7813 3.3976,9.6865 1.5504,5.8484 6.7819,7.8078 7.4887,14.5687 0.4858,5.574 -4.44,9.3467 -4.5644,15.0876 z"
       id="path4367-3-5"
       inkscape:connector-curvature="0"
       sodipodi:nodetypes="ccccccccccccccccccccccc" />
    <path
       style="opacity:1;fill:#ffffff;fill-rule:evenodd;stroke:none;stroke-width:1.3443836px;stroke-linecap:butt;stroke-linejoin:miter;stroke-opacity:1"
       d="m 1542.1535,1496.6176 c 57.2733,-8.6915 60.9764,19.7045 77.6569,27.317 17.2205,7.8588 50.5803,-25.7702 66.8815,-19.2081 16.3015,6.562 20.9961,40.3754 46.6514,50.2361 25.6551,9.861 44.0985,-16.5088 14.0519,-27.3374 -30.0465,-10.8286 -24.8419,-34.9697 -49.8325,-40.9228 -41.6779,-9.928 -54.8951,20.1792 -69.9481,24.4763 -9.9661,2.8447 -19.8986,-16.3184 -38.035,-21.5527 -18.1365,-5.2344 -47.4261,6.9916 -47.4261,6.9916 z"
       id="path4272"
       inkscape:connector-curvature="0"
       sodipodi:nodetypes="csssssssc" />
    <path
       style="color:#000000;display:inline;overflow:visible;visibility:visible;fill:#ffffff;fill-opacity:1;fill-rule:nonzero;stroke:none;stroke-width:0.82009757px;marker:none;enable-background:accumulate"
       d="m 1142.4856,2929.1075 c -11.6468,-10.5306 -58.7662,-55.4116 -5.2834,-58.4108 -27.9981,-0.6711 -13.2477,-35.0552 22.9224,-46.0451 -55.1347,-2.4623 -62.4929,-3.4673 0.1691,-87.539 -79.2327,80.093 -91.2045,79.1129 -96.0445,41.2813 -14.6476,22.2479 -42.9096,20.2317 -38.0902,-13.2081 -16.7142,26.9328 -61.15462,44.4068 -63.03601,3.5626 -20.87583,32.1468 -40.64507,30.134 -61.18688,23.193 4.26855,24.5984 3.06513,52.2255 2.20375,90.2578 -1.06945,22.4558 1.16284,27.1694 5.45989,42.6743 -3.48967,24.576 2.60062,25.021 5.3607,43.2742 36.13143,-21.8896 36.15537,-19.3678 36.78079,8.5148 66.05216,-49.2416 53.10916,-10.5176 68.00046,-3.5241 24.7362,-37.6615 49.5345,-14.6169 75.1973,-9.0224 11.4565,-43.0546 27.8498,-39.8265 47.5466,-35.0085 z"
       id="path3549-3-78"
       inkscape:connector-curvature="0"
       sodipodi:nodetypes="ccccccccccccccc" />
    <path
       style="fill:#ffffff;fill-rule:evenodd;stroke:none;stroke-width:1.13942826px;stroke-linecap:butt;stroke-linejoin:miter;stroke-opacity:1"
       d="m 1153.2911,2844.2378 c -32.0509,34.8354 -79.9291,53.3843 -116.6724,-2.3452 -9.7776,18.9638 -33.9127,64.9945 -95.71438,-13.8985 6.6343,35.9292 -2.9074,46.3002 -19.40432,45.6814 l -4,234.3491 c 16.05537,-5.021 28.38838,-0.9441 33.34086,21.1844 34.74204,-24.3217 75.66524,-39.9635 77.97334,3.6953 32.7189,-50.0516 66.2701,-31.7987 80.9714,-15.7629 49.431,-48.3175 69.8826,-11.6016 97.5537,3.9322 -5.0554,-27.0789 3.263,-41.2211 62.7144,-5.8984 -11.2028,-17.1802 -28.0186,-35.416 41.8096,-37.3545 -29.8231,-13.9992 -44.3185,-33.6991 -22.6479,-66.8466 -40.7922,-22.7542 -20.1556,-41.4306 17.4207,-58.9821 -54.0943,-11.4374 -45.0779,-31.2542 -20.9049,-53.0835 -54.7124,20.744 -109.0353,15.4029 -80.3776,-23.6821 -33.623,21.5488 -67.3011,36.2203 -52.0625,-30.9886 z"
       id="path4582"
       inkscape:connector-curvature="0"
       sodipodi:nodetypes="cccccccccccccccc" />
    <path
       style="fill:#ffffff;fill-rule:evenodd;stroke:none;stroke-width:0.97864747px;stroke-linecap:butt;stroke-linejoin:miter;stroke-opacity:1"
       d="m 889.1222,3116.1477 c 26.68633,2.7051 65.76398,-10.089 44.18918,-50.8159 41.87691,28.8558 88.23242,23.8184 156.35162,-21.4911 -5.6607,63.1309 24.7852,57.2326 52.2327,45.1123 -26.342,21.244 17.4074,44.7311 42.8424,45.9245 -49.5627,33.9285 -23.516,37.7488 -2.3149,55.0554 -52.8779,-12.8043 -45.0892,15.6396 -37.4049,41.3104 -15,-21.1443 -54.711,-30.353 -49.4475,6.2344 -25.1919,-29.1185 -56.2224,-29.0492 -66.3528,4.3988 -3.024,-33.7821 -26.0408,-52.6291 -76.28898,0.7829 18.47745,-46.1099 -5.74243,-41.27 -44.95483,-18.5402 6.14546,-15.7057 42.67059,-39.5884 -18.85199,-37.0806 38.42816,-14.9306 46.48674,-41.1561 0,-70.8909 z"
       id="path4584"
       inkscape:connector-curvature="0"
       sodipodi:nodetypes="ccccccccccccc" />
    <path
       style="fill:#ffffff;fill-opacity:1;fill-rule:evenodd;stroke:none;stroke-width:1.20378375px;stroke-linecap:butt;stroke-linejoin:miter;stroke-opacity:1"
       d="m 1990.3873,2092.5855 c -17.9986,-1.4875 -28.0313,17.6361 -42.3584,24.7394 -14.6819,3.322 -31.0847,-9.0024 -44.388,2.445 -12.0379,6.584 -25.0924,18.9039 -20.8882,35.2514 1.1941,14.8396 -13.8673,23.7182 -11.9412,38.3515 0.5417,15.323 17.3677,23.461 14.6665,39.5327 -4.6748,14.7562 -15.0742,31.9863 -3.4317,46.755 12.1045,16.8316 34.9792,7.4668 49.4012,18.7228 11.5525,16.8132 25.2137,36.146 46.1887,37.1784 19.6085,1.4483 34.2465,-14.0667 54.0032,-11.6145 14.6229,-0.2805 32.182,13.3456 46.6408,17.4504 12.1276,-0.9966 25.8198,2.8934 36.4872,-5.4121 10.3384,-11.1873 24.4978,-10.1739 31.2643,4.3871 11.3609,11.0718 28.2607,3.3416 40.0814,-3.0419 14.4289,-11.4613 27.505,5.8621 39.9677,11.9852 16.9175,8.7072 34.2496,-20.2167 43.5913,-34.9388 8.9681,-16.1309 27.2417,-8.2745 41.0173,-11.3686 12.6309,-5.4307 25.2859,-17.0859 29.0169,-31.9334 -2.1681,-13.468 -3.1616,-28.326 4.6001,-40.4371 4.5891,-14.9195 -6.9968,-27.0597 -15.8015,-36.3007 -10.8569,-14.6403 4.7521,-30.4789 0.2253,-46.1038 -3.6971,-20.5327 -25.2786,-23.3787 -40.9518,-20.9425 -14.3517,3.6692 -22.9819,-8.8341 -32.4284,-17.9101 -14.2531,-14.751 -36.199,-18.8854 -53.938,-9.3339 -15.7,9.5809 -29.6985,2.2323 -47.3297,4.9633 -12.8008,3.7019 -25.7941,14.559 -39.197,12.3784 -11.1998,-2.451 -24.422,14.8765 -36.1842,-1.2292 -9.4268,-12.7855 -24.802,-4.3423 -37.1931,-0.3398 -16.4509,8.7814 -26.7146,-11.9677 -38.9571,-19.6196 -3.6865,-2.2933 -7.8948,-3.7403 -12.1636,-3.6146 z"
       id="path4367"
       inkscape:connector-curvature="0"
       sodipodi:nodetypes="cccccccccccccccccccccccccccccc" />
    <path
       style="color:#000000;display:inline;overflow:visible;visibility:visible;fill:#ffffff;fill-opacity:1;fill-rule:nonzero;stroke:none;stroke-width:1.3837055px;marker:none;enable-background:accumulate"
       d="m 2170.3615,2309.0962 c -0.3713,38.0127 6.7641,58.9988 10.8638,63.5533 4.0997,4.5543 14.1043,16.9116 18.197,24.3263 3.3617,6.1716 9.6066,12.58 5.6022,19.0563 -4.0042,6.4764 -34.1758,30.3537 -35.5389,56.2139 -1.3632,25.8606 5.3064,30.7584 16.8647,34.3062 11.5583,3.5478 26.5828,8.5604 26.6542,27.601 0.071,19.0406 -9.8738,34.7396 -15.8025,39.9571 -5.9287,5.2176 -38.3186,24.4352 -54.9686,48.0709 -8.8964,12.629 -3.6957,116.332 -77.1531,147.1353 96.1421,-38.7249 86.06,-126.0636 93.2119,-138.7724 6.2517,-11.109 19.0349,-23.9504 28.6904,-28.7662 12.35,-6.1599 23.5652,-12.3444 30.546,-25.4347 6.9807,-13.0901 15.9013,-23.3083 13.774,-42.6236 -2.1271,-19.3153 -5.4443,-39.4224 -23.4332,-41.8264 -11.5582,-3.5478 -18.351,-12.9635 -18.0761,-18.9365 0.2753,-5.9731 12.8845,-27.1311 24.7298,-33.5613 11.8453,-6.4303 16.5638,-17.6507 16.086,-29.7343 -0.4779,-12.0835 -10.5747,-31.5425 -12.3436,-41.7953 -1.7687,-10.2527 -15.6194,-65.4734 -15.6194,-65.4734 z"
       id="path5058"
       inkscape:connector-curvature="0"
       sodipodi:nodetypes="cscsssssscssssccscccc" />
  </g>
  <g
     inkscape:groupmode="layer"
     id="layer1"
     inkscape:label="txt">
    <text
       xml:space="preserve"
       style="color:#000000;font-style:normal;font-variant:normal;font-weight:bold;font-stretch:normal;font-size:14.56374168px;line-height:0.01%;font-family:'Rounded M+ 1c';-inkscape-font-specification:'Rounded M+ 1c Bold';letter-spacing:1.17453516px;word-spacing:0px;display:inline;overflow:visible;visibility:visible;fill:#e69d76;fill-opacity:1;fill-rule:nonzero;stroke:#e99f77;stroke-width:2;stroke-miterlimit:4;stroke-dasharray:none;stroke-opacity:1;marker:none;enable-background:accumulate"
       x="-789.3432"
       y="134.55949"
       id="text1711-2"
       transform="matrix(-0.05075958,-0.85891373,1.1934833,0.49447225,0,0)"><tspan
         sodipodi:role="line"
         x="-787.76733"
         y="134.55949"
         id="tspan1709-8"
         style="font-style:normal;font-variant:normal;font-weight:bold;font-stretch:normal;font-family:'Rounded M+ 1c';-inkscape-font-specification:'Rounded M+ 1c Bold';letter-spacing:3.15169597px;word-spacing:0px;fill:#ffffff;fill-opacity:1;stroke:#ffffff;stroke-width:2;stroke-miterlimit:4;stroke-dasharray:none;stroke-opacity:1"><tspan
           x="-789.3432"
           y="134.55949"
           style="color:#000000;font-style:normal;font-variant:normal;font-weight:bold;font-stretch:normal;font-size:77.6733017px;line-height:1.25;font-family:'Rounded M+ 1c';-inkscape-font-specification:'Rounded M+ 1c Bold';text-align:center;letter-spacing:3.15169597px;word-spacing:0px;text-anchor:middle;display:inline;overflow:visible;visibility:visible;fill:#ffffff;fill-opacity:1;fill-rule:nonzero;stroke:#ffffff;stroke-width:2;stroke-miterlimit:4;stroke-dasharray:none;stroke-opacity:1;marker:none;enable-background:accumulate"
           id="tspan1707-9"><tspan
             style="font-style:normal;font-variant:normal;font-weight:bold;font-stretch:normal;font-size:63.57888031px;font-family:'Rounded M+ 1c';-inkscape-font-specification:'Rounded M+ 1c Bold';letter-spacing:3.15169597px;stroke-width:2;stroke-miterlimit:4;stroke-dasharray:none"
             id="tspan1156-7">シャッ！</tspan></tspan></tspan></text>
    <text
       xml:space="preserve"
       style="font-style:normal;font-variant:normal;font-weight:normal;font-stretch:normal;line-height:0%;font-family:'Rounded M+ 1c';-inkscape-font-specification:'Rounded M+ 1c, Medium';text-align:center;letter-spacing:0px;word-spacing:0px;text-anchor:middle;fill:#000000;fill-opacity:1;stroke:none"
       x="794.22394"
       y="136.39999"
       id="text4246-5-3"><tspan
         sodipodi:role="line"
         style="font-size:45px;line-height:1.25"
         x="794.22394"
         y="140.72"
         id="tspan890" /><tspan
         sodipodi:role="line"
         style="font-size:45px;line-height:1.25"
         x="794.22394"
         y="180.72499"
         id="tspan843">やった！</tspan><tspan
         sodipodi:role="line"
         style="font-size:45px;line-height:1.25"
         x="794.22394"
         y="196.97"
         id="tspan847" /><tspan
         sodipodi:role="line"
         style="font-size:45px;line-height:1.25"
         x="794.22394"
         y="196.97"
         id="tspan87" /><tspan
         sodipodi:role="line"
         style="font-size:45px;line-height:1.25"
         x="794.22394"
         y="196.97"
         id="tspan89" /><tspan
         sodipodi:role="line"
         style="font-size:45px;line-height:1.25"
         x="794.22394"
         y="236.97499"
         id="tspan91">出口に</tspan><tspan
         sodipodi:role="line"
         style="font-size:45px;line-height:1.25"
         x="794.22394"
         y="293.22501"
         id="tspan917">到達！</tspan></text>
    <text
       xml:space="preserve"
       style="color:#000000;font-style:normal;font-variant:normal;font-weight:bold;font-stretch:normal;font-size:10.93896103px;line-height:0.01%;font-family:'Rounded M+ 1c';-inkscape-font-specification:'Rounded M+ 1c Bold';letter-spacing:0.88220423px;word-spacing:0px;display:inline;overflow:visible;visibility:visible;fill:#e69d76;fill-opacity:1;fill-rule:nonzero;stroke:#e99f77;stroke-width:2;stroke-miterlimit:4;stroke-dasharray:none;stroke-opacity:1;marker:none;enable-background:accumulate"
       x="224.66396"
       y="1548.6953"
       id="text1711-2-3"
       transform="matrix(-0.02665862,-0.84533119,1.1912388,0.26225273,0,0)"><tspan
         sodipodi:role="line"
         x="225.84758"
         y="1548.6953"
         id="tspan1709-8-6"
         style="font-style:normal;font-variant:normal;font-weight:bold;font-stretch:normal;font-family:'Rounded M+ 1c';-inkscape-font-specification:'Rounded M+ 1c Bold';letter-spacing:2.36726809px;word-spacing:0px;fill:#ffffff;fill-opacity:1;stroke:#ffffff;stroke-width:2;stroke-miterlimit:4;stroke-dasharray:none;stroke-opacity:1"><tspan
           x="224.66396"
           y="1548.6953"
           style="color:#000000;font-style:normal;font-variant:normal;font-weight:bold;font-stretch:normal;font-size:58.34113693px;line-height:1.25;font-family:'Rounded M+ 1c';-inkscape-font-specification:'Rounded M+ 1c Bold';text-align:center;letter-spacing:2.36726809px;word-spacing:0px;text-anchor:middle;display:inline;overflow:visible;visibility:visible;fill:#ffffff;fill-opacity:1;fill-rule:nonzero;stroke:#ffffff;stroke-width:2;stroke-miterlimit:4;stroke-dasharray:none;stroke-opacity:1;marker:none;enable-background:accumulate"
           id="tspan1707-9-7">カポッ!</tspan></tspan></text>
    <path
       style="fill:#ffffff;fill-opacity:1;fill-rule:evenodd;stroke:none;stroke-width:0.9326129px;stroke-linecap:butt;stroke-linejoin:miter;stroke-opacity:1"
       d="m 337.8574,1202.3778 c -6.6742,-8.5996 1.61188,-19.3901 8.21833,-23.2096 7.40645,-7.1039 16.92229,-7.0471 25.81571,-6.5131 8.84698,1.3971 15.33255,-5.4459 21.07721,-12.5198 9.0924,-9.1782 22.29458,-12.3279 33.02412,-5.6348 7.97424,4.5624 17.1955,10.1714 25.93609,4.9375 10.4235,-5.2969 23.69134,-9.9318 33.75259,-1.1899 7.15722,10.1523 19.04019,5.8356 27.796,1.8292 11.24623,-4.6999 23.55466,-7.5533 35.17073,-2.9954 7.70197,2.6678 17.25376,3.9699 21.05348,14.0209 4.58625,11.0078 9.52022,24.1481 20.26112,27.4471 7.60272,2.8488 18.5393,4.575 20.45326,16.0339 -0.22279,10.2257 -4.24825,20.309 -7.90926,29.2151 -10.82405,11.5394 -27.42592,2.6654 -41.172,5.8607 -8.98795,2.0576 -17.44373,6.5807 -24.88679,13.028 -12.14017,7.5216 -26.11864,1.4049 -38.74673,6.3068 -14.89227,4.5811 -30.87408,3.9138 -44.98427,12.162 -16.0674,7.6646 -34.97082,5.1806 -49.06923,-7.1381 -6.05085,-6.1221 -13.71569,-8.4171 -21.4206,-7.2464 -10.29187,0.4132 -15.57209,2.3794 -23.17406,-8.1387 -6.09402,-7.5017 -4.4547,-5.1298 -8.514,-13.4728 -4.24387,-8.2372 -14.10059,-10.0299 -17.06344,-19.7751 -2.26948,-8.0541 5.60073,-14.584 4.38174,-23.0075 z"
       id="path4367-3"
       inkscape:connector-curvature="0"
       sodipodi:nodetypes="ccccccccccccccccccccccc" />
    <text
       xml:space="preserve"
       style="font-style:normal;font-variant:normal;font-weight:bold;font-stretch:normal;line-height:0%;font-family:'Rounded M+ 1c';-inkscape-font-specification:'Rounded M+ 1c Bold';text-align:center;letter-spacing:0px;word-spacing:0px;text-anchor:middle;fill:#000000;fill-opacity:1;stroke:none"
       x="472.21338"
       y="1182.6732"
       id="text4246-5-3-7-2-0"><tspan
         sodipodi:role="line"
         style="font-style:normal;font-variant:normal;font-weight:bold;font-stretch:normal;font-size:45px;line-height:1.25;font-family:'Rounded M+ 1c';-inkscape-font-specification:'Rounded M+ 1c Bold'"
         x="472.21338"
         y="1186.9932"
         id="tspan890-5-9-9" /><tspan
         sodipodi:role="line"
         style="font-style:normal;font-variant:normal;font-weight:bold;font-stretch:normal;font-size:53.33333206px;line-height:1.25;font-family:'Rounded M+ 1c';-inkscape-font-specification:'Rounded M+ 1c Bold'"
         x="472.21338"
         y="1235.2065"
         id="tspan950-2-3">えええ...</tspan><tspan
         sodipodi:role="line"
         style="font-style:normal;font-variant:normal;font-weight:bold;font-stretch:normal;font-size:53.33333206px;line-height:1.25;font-family:'Rounded M+ 1c';-inkscape-font-specification:'Rounded M+ 1c Bold'"
         x="472.21338"
         y="1253.6599"
         id="tspan917-6-7-6" /></text>
    <path
       style="color:#000000;display:inline;overflow:visible;visibility:visible;fill:#ffffff;fill-opacity:1;fill-rule:nonzero;stroke:none;stroke-width:1.30749774px;marker:none;enable-background:accumulate"
       d="m 402.64962,1286.9378 c 51.27039,-38.7655 278.63226,-80.662 373.73605,-5.1413 95.10375,75.5207 61.43528,180.9783 6.86745,209.8134 -54.5677,28.8352 -223.19348,39.3072 -300.43804,27.2248 -130.91842,-20.4777 -141.36799,-65.5663 -145.09411,-141.2153 -1.52078,-30.8754 13.65827,-51.9161 64.92865,-90.6816 z"
       id="path4040-3"
       inkscape:connector-curvature="0"
       sodipodi:nodetypes="zssssz" />
    <text
       xml:space="preserve"
       style="font-style:normal;font-variant:normal;font-weight:normal;font-stretch:normal;font-size:45px;line-height:0%;font-family:'Rounded M+ 1c';-inkscape-font-specification:'Rounded M+ 1c';font-variant-ligatures:normal;font-variant-caps:normal;font-variant-numeric:normal;font-feature-settings:normal;text-align:center;letter-spacing:0px;word-spacing:0px;writing-mode:lr-tb;text-anchor:middle;fill:#000000;fill-opacity:1;stroke:none"
       x="584.40906"
       y="1263.9965"
       id="text4246-5-3-5"><tspan
         sodipodi:role="line"
         style="font-style:normal;font-variant:normal;font-weight:normal;font-stretch:normal;font-size:45px;line-height:1.25;font-family:'Rounded M+ 1c';-inkscape-font-specification:'Rounded M+ 1c';font-variant-ligatures:normal;font-variant-caps:normal;font-variant-numeric:normal;font-feature-settings:normal;text-align:center;writing-mode:lr-tb;text-anchor:middle"
         x="584.40906"
         y="1280.1964"
         id="tspan890-6" /><tspan
         sodipodi:role="line"
         style="font-style:normal;font-variant:normal;font-weight:normal;font-stretch:normal;font-size:45px;line-height:1.25;font-family:'Rounded M+ 1c';-inkscape-font-specification:'Rounded M+ 1c';font-variant-ligatures:normal;font-variant-caps:normal;font-variant-numeric:normal;font-feature-settings:normal;text-align:center;writing-mode:lr-tb;text-anchor:middle"
         x="584.40906"
         y="1308.3214"
         id="tspan849-1">絶対に</tspan><tspan
         sodipodi:role="line"
         style="font-style:normal;font-variant:normal;font-weight:normal;font-stretch:normal;font-size:45px;line-height:1.25;font-family:'Rounded M+ 1c';-inkscape-font-specification:'Rounded M+ 1c';font-variant-ligatures:normal;font-variant-caps:normal;font-variant-numeric:normal;font-feature-settings:normal;text-align:center;writing-mode:lr-tb;text-anchor:middle"
         x="584.40906"
         y="1364.5714"
         id="tspan99">この本のどこかに</tspan><tspan
         sodipodi:role="line"
         style="font-style:normal;font-variant:normal;font-weight:normal;font-stretch:normal;font-size:45px;line-height:1.25;font-family:'Rounded M+ 1c';-inkscape-font-specification:'Rounded M+ 1c';font-variant-ligatures:normal;font-variant-caps:normal;font-variant-numeric:normal;font-feature-settings:normal;text-align:center;writing-mode:lr-tb;text-anchor:middle"
         x="584.40906"
         y="1420.8214"
         id="tspan101">「これ」を取り除く</tspan><tspan
         sodipodi:role="line"
         style="font-style:normal;font-variant:normal;font-weight:normal;font-stretch:normal;font-size:45px;line-height:1.25;font-family:'Rounded M+ 1c';-inkscape-font-specification:'Rounded M+ 1c';font-variant-ligatures:normal;font-variant-caps:normal;font-variant-numeric:normal;font-feature-settings:normal;text-align:center;writing-mode:lr-tb;text-anchor:middle"
         x="584.40906"
         y="1477.0714"
         id="tspan917-2">方法があるはず...</tspan></text>
    <text
       xml:space="preserve"
       style="font-style:normal;font-variant:normal;font-weight:normal;font-stretch:normal;font-size:9.23767757px;line-height:0%;font-family:'Rounded M+ 1c';-inkscape-font-specification:'Rounded M+ 1c, Medium';text-align:center;letter-spacing:0px;word-spacing:0px;text-anchor:middle;fill:#000000;fill-opacity:1;stroke:none;stroke-width:0.76980644"
       x="1855.3668"
       y="1476.8993"
       id="text4246-5-3-5-7"><tspan
         sodipodi:role="line"
         style="font-size:34.64128876px;line-height:1.25;stroke-width:0.76980644"
         x="1855.3668"
         y="1480.2249"
         id="tspan890-6-0" /><tspan
         sodipodi:role="line"
         style="font-style:normal;font-variant:normal;font-weight:normal;font-stretch:normal;font-size:34.66666794px;line-height:1.25;font-family:'Rounded M+ 1c';-inkscape-font-specification:'Rounded M+ 1c, Medium';stroke-width:0.76980644"
         x="1860.1741"
         y="1511.046"
         id="tspan1038">キャロット... </tspan><tspan
         sodipodi:role="line"
         style="font-style:normal;font-variant:normal;font-weight:normal;font-stretch:normal;font-size:34.66666794px;line-height:1.25;font-family:'Rounded M+ 1c';-inkscape-font-specification:'Rounded M+ 1c, Medium';stroke-width:0.76980644"
         x="1855.3668"
         y="1523.5582"
         id="tspan1049" /><tspan
         sodipodi:role="line"
         style="font-style:normal;font-variant:normal;font-weight:normal;font-stretch:normal;font-size:34.66666794px;line-height:1.25;font-family:'Rounded M+ 1c';-inkscape-font-specification:'Rounded M+ 1c, Medium';stroke-width:0.76980644"
         x="1855.3668"
         y="1554.3793"
         id="tspan111">読んでくれる？</tspan><tspan
         sodipodi:role="line"
         style="font-style:normal;font-variant:normal;font-weight:normal;font-stretch:normal;font-size:34.66666794px;line-height:1.25;font-family:'Rounded M+ 1c';-inkscape-font-specification:'Rounded M+ 1c, Medium';stroke-width:0.76980644"
         x="1855.3668"
         y="1566.8915"
         id="tspan917-2-2" /></text>
    <text
       xml:space="preserve"
       style="font-style:normal;font-variant:normal;font-weight:normal;font-stretch:normal;font-size:9.49034405px;line-height:0%;font-family:'Rounded M+ 1c';-inkscape-font-specification:'Rounded M+ 1c, Medium';text-align:center;letter-spacing:0px;word-spacing:0px;text-anchor:middle;fill:#000000;fill-opacity:1;stroke:none;stroke-width:0.79086202"
       x="1957.5698"
       y="1604.2694"
       id="text4246-5-3-5-7-6"><tspan
         sodipodi:role="line"
         style="font-size:35.58879089px;line-height:1.25;stroke-width:0.79086202"
         x="1957.5698"
         y="1607.6859"
         id="tspan890-6-0-1" /><tspan
         sodipodi:role="line"
         style="font-style:normal;font-variant:normal;font-weight:normal;font-stretch:normal;font-size:30.66666603px;line-height:1.25;font-family:'Rounded M+ 1c';-inkscape-font-specification:'Rounded M+ 1c, Medium';stroke-width:0.79086202"
         x="1957.5698"
         y="1634.4761"
         id="tspan1049-7">うん... もちろん</tspan><tspan
         sodipodi:role="line"
         style="font-style:normal;font-variant:normal;font-weight:normal;font-stretch:normal;font-size:30.66666603px;line-height:1.25;font-family:'Rounded M+ 1c';-inkscape-font-specification:'Rounded M+ 1c, Medium';stroke-width:0.79086202"
         x="1957.5698"
         y="1672.8094"
         id="tspan1080">無理か...</tspan><tspan
         sodipodi:role="line"
         style="font-style:normal;font-variant:normal;font-weight:normal;font-stretch:normal;font-size:30.66666603px;line-height:1.25;font-family:'Rounded M+ 1c';-inkscape-font-specification:'Rounded M+ 1c, Medium';stroke-width:0.79086202"
         x="1957.5698"
         y="1684.3525"
         id="tspan917-2-2-9" /></text>
    <text
       xml:space="preserve"
       style="font-style:normal;font-variant:normal;font-weight:normal;font-stretch:normal;font-size:10.48344421px;line-height:0%;font-family:'Rounded M+ 1c';-inkscape-font-specification:'Rounded M+ 1c, Medium';text-align:center;letter-spacing:0px;word-spacing:0px;text-anchor:middle;fill:#000000;fill-opacity:1;stroke:none;stroke-width:0.87362039"
       x="1984.7023"
       y="1719.391"
       id="text4246-5-3-5-7-6-2"><tspan
         sodipodi:role="line"
         style="font-size:39.3129158px;line-height:1.25;stroke-width:0.87362039"
         x="1984.7023"
         y="1723.165"
         id="tspan890-6-0-1-0" /><tspan
         sodipodi:role="line"
         style="font-style:normal;font-variant:normal;font-weight:normal;font-stretch:normal;font-size:26.66666794px;line-height:1.25;font-family:'Rounded M+ 1c';-inkscape-font-specification:'Rounded M+ 1c, Medium';stroke-width:0.87362039"
         x="1984.7023"
         y="1745.6577"
         id="tspan1080-3">むぅ...</tspan><tspan
         sodipodi:role="line"
         style="font-style:normal;font-variant:normal;font-weight:normal;font-stretch:normal;font-size:39.3129158px;line-height:1.25;font-family:'Rounded M+ 1c';-inkscape-font-specification:'Rounded M+ 1c, Medium';stroke-width:0.87362039"
         x="1984.7023"
         y="1756.4984"
         id="tspan917-2-2-9-7" /></text>
    <text
       xml:space="preserve"
       style="color:#000000;font-style:normal;font-variant:normal;font-weight:normal;font-stretch:normal;font-size:13.68011093px;line-height:0.01%;font-family:Arial;-inkscape-font-specification:Arial;letter-spacing:1.1032722px;word-spacing:0px;display:inline;overflow:visible;visibility:visible;fill:#e69d76;fill-opacity:1;fill-rule:nonzero;stroke:#e99f77;stroke-width:0;stroke-miterlimit:4;stroke-dasharray:none;stroke-opacity:1;marker:none;enable-background:accumulate"
       x="2813.7102"
       y="434.09442"
       id="text1711-2-3-9"
       transform="matrix(0.8793411,0.03700556,-0.36761453,1.1217447,0,0)"><tspan
         sodipodi:role="line"
         x="2815.1904"
         y="434.09442"
         id="tspan1709-8-6-2"
         style="font-style:normal;font-variant:normal;font-weight:bold;font-stretch:normal;font-family:Lavi;-inkscape-font-specification:'Lavi Bold';letter-spacing:2.96047211px;word-spacing:0px;fill:#ffffff;fill-opacity:1;stroke:#ffffff;stroke-width:0;stroke-miterlimit:4;stroke-dasharray:none;stroke-opacity:1"><tspan
           x="2813.7102"
           y="434.09442"
           style="color:#000000;font-style:normal;font-variant:normal;font-weight:bold;font-stretch:normal;font-size:72.96060944px;line-height:1.25;font-family:Lavi;-inkscape-font-specification:'Lavi Bold';text-align:center;letter-spacing:2.96047211px;word-spacing:0px;text-anchor:middle;display:inline;overflow:visible;visibility:visible;fill:#ffffff;fill-opacity:1;fill-rule:nonzero;stroke:#ffffff;stroke-width:0;stroke-miterlimit:4;stroke-dasharray:none;stroke-opacity:1;marker:none;enable-background:accumulate"
           id="tspan1707-9-7-2">?!</tspan></tspan></text>
    <text
       xml:space="preserve"
       style="font-style:normal;font-variant:normal;font-weight:bold;font-stretch:normal;line-height:0%;font-family:'Rounded M+ 1c';-inkscape-font-specification:'Rounded M+ 1c Bold';text-align:center;letter-spacing:0px;word-spacing:0px;text-anchor:middle;fill:#000000;fill-opacity:1;stroke:none"
       x="1032.1915"
       y="3122.6748"
       id="text4246-5-3-5-5"><tspan
         sodipodi:role="line"
         style="font-style:normal;font-variant:normal;font-weight:bold;font-stretch:normal;font-size:45px;line-height:1.25;font-family:'Rounded M+ 1c';-inkscape-font-specification:'Rounded M+ 1c Bold'"
         x="1032.1915"
         y="3126.9949"
         id="tspan890-6-6" /><tspan
         sodipodi:role="line"
         style="font-style:normal;font-variant:normal;font-weight:bold;font-stretch:normal;font-size:53.33333206px;line-height:1.25;font-family:'Rounded M+ 1c';-inkscape-font-specification:'Rounded M+ 1c Bold'"
         x="1032.1915"
         y="3175.2083"
         id="tspan954-2">ぐうぅ!!!</tspan><tspan
         sodipodi:role="line"
         style="font-style:normal;font-variant:normal;font-weight:bold;font-stretch:normal;font-size:53.33333206px;line-height:1.25;font-family:'Rounded M+ 1c';-inkscape-font-specification:'Rounded M+ 1c Bold'"
         x="1032.1915"
         y="3193.6614"
         id="tspan917-2-0" /></text>
    <text
       xml:space="preserve"
       style="font-style:normal;font-variant:normal;font-weight:bold;font-stretch:normal;font-size:10.72316265px;line-height:0%;font-family:'Rounded M+ 1c';-inkscape-font-specification:'Rounded M+ 1c Bold';text-align:center;letter-spacing:0px;word-spacing:0px;text-anchor:middle;fill:#000000;fill-opacity:1;stroke:none;stroke-width:0.89359683"
       x="1018.0183"
       y="2822.8418"
       id="text4246-5-3-5-5-9"><tspan
         sodipodi:role="line"
         style="font-style:normal;font-variant:normal;font-weight:bold;font-stretch:normal;font-size:40.21185684px;line-height:1.25;font-family:'Rounded M+ 1c';-inkscape-font-specification:'Rounded M+ 1c Bold';stroke-width:0.89359683"
         x="1018.0183"
         y="2826.7021"
         id="tspan890-6-6-3" /><tspan
         sodipodi:role="line"
         style="font-style:normal;font-variant:normal;font-weight:bold;font-stretch:normal;font-size:41.70118713px;line-height:1.25;font-family:'Rounded M+ 1c';-inkscape-font-specification:'Rounded M+ 1c Bold';stroke-width:0.89359683"
         x="1018.0183"
         y="2863.9175"
         id="tspan966">そうね!!!</tspan><tspan
         sodipodi:role="line"
         style="font-style:normal;font-variant:normal;font-weight:bold;font-stretch:normal;font-size:41.70118713px;line-height:1.25;font-family:'Rounded M+ 1c';-inkscape-font-specification:'Rounded M+ 1c Bold';stroke-width:0.89359683"
         x="1018.0183"
         y="2878.8286"
         id="tspan917-2-0-0" /></text>
    <text
       xml:space="preserve"
       style="font-style:normal;font-variant:normal;font-weight:normal;font-stretch:normal;line-height:0%;font-family:'Rounded M+ 1c';-inkscape-font-specification:'Rounded M+ 1c, Medium';text-align:center;letter-spacing:0px;word-spacing:0px;text-anchor:middle;fill:#000000;fill-opacity:1;stroke:none"
       x="1087.8738"
       y="2912.5518"
       id="text4246-5-3-5-9"><tspan
         sodipodi:role="line"
         style="font-style:normal;font-variant:normal;font-weight:normal;font-stretch:normal;font-size:45px;line-height:1.25;font-family:'Rounded M+ 1c';-inkscape-font-specification:'Rounded M+ 1c, Medium'"
         x="1087.8738"
         y="2916.8718"
         id="tspan1048" /><tspan
         sodipodi:role="line"
         style="font-style:normal;font-variant:normal;font-weight:normal;font-stretch:normal;font-size:45px;line-height:1.25;font-family:'Rounded M+ 1c';-inkscape-font-specification:'Rounded M+ 1c, Medium'"
         x="1087.8738"
         y="2956.8767"
         id="tspan104">そんなに</tspan><tspan
         sodipodi:role="line"
         style="font-style:normal;font-variant:normal;font-weight:normal;font-stretch:normal;font-size:45px;line-height:1.25;font-family:'Rounded M+ 1c';-inkscape-font-specification:'Rounded M+ 1c, Medium'"
         x="1087.8738"
         y="3013.1267"
         id="tspan108">上手くいくわけ</tspan><tspan
         sodipodi:role="line"
         style="font-style:normal;font-variant:normal;font-weight:normal;font-stretch:normal;font-size:45px;line-height:1.25;font-family:'Rounded M+ 1c';-inkscape-font-specification:'Rounded M+ 1c, Medium'"
         x="1087.8738"
         y="3069.3767"
         id="tspan92">ないって!</tspan><tspan
         sodipodi:role="line"
         style="font-style:normal;font-variant:normal;font-weight:normal;font-stretch:normal;font-size:45px;line-height:1.25;font-family:'Rounded M+ 1c';-inkscape-font-specification:'Rounded M+ 1c, Medium'"
         x="1087.8738"
         y="3085.6218"
         id="tspan917-2-9" /></text>
    <text
       xml:space="preserve"
       style="font-style:normal;font-variant:normal;font-weight:normal;font-stretch:normal;line-height:0%;font-family:'Rounded M+ 1c';-inkscape-font-specification:'Rounded M+ 1c, Medium';text-align:center;letter-spacing:0px;word-spacing:0px;text-anchor:middle;fill:#000000;fill-opacity:1;stroke:none"
       x="2107.0674"
       y="2140.3289"
       id="text4246-5-3-5-9-2"><tspan
         sodipodi:role="line"
         style="font-size:45px;line-height:1.25"
         x="2107.0674"
         y="2144.6489"
         id="tspan890-6-2-2" /><tspan
         sodipodi:role="line"
         style="font-style:normal;font-variant:normal;font-weight:normal;font-stretch:normal;font-size:45px;line-height:1.25;font-family:'Rounded M+ 1c';-inkscape-font-specification:'Rounded M+ 1c, Medium'"
         x="2107.0674"
         y="2184.6538"
         id="tspan1117">結局は</tspan><tspan
         sodipodi:role="line"
         style="font-style:normal;font-variant:normal;font-weight:normal;font-stretch:normal;font-size:45px;line-height:1.25;font-family:'Rounded M+ 1c';-inkscape-font-specification:'Rounded M+ 1c, Medium'"
         x="2107.0674"
         y="2240.9038"
         id="tspan110">本がいつでも解決</tspan><tspan
         sodipodi:role="line"
         style="font-style:normal;font-variant:normal;font-weight:normal;font-stretch:normal;font-size:45px;line-height:1.25;font-family:'Rounded M+ 1c';-inkscape-font-specification:'Rounded M+ 1c, Medium'"
         x="2107.0674"
         y="2297.1538"
         id="tspan112">とはいかない...</tspan><tspan
         sodipodi:role="line"
         style="font-style:normal;font-variant:normal;font-weight:normal;font-stretch:normal;font-size:45px;line-height:1.25;font-family:'Rounded M+ 1c';-inkscape-font-specification:'Rounded M+ 1c, Medium'"
         x="2107.0674"
         y="2313.3989"
         id="tspan917-2-9-3" /></text>
    <text
       xml:space="preserve"
       style="color:#000000;font-style:normal;font-variant:normal;font-weight:bold;font-stretch:normal;font-size:10.93896103px;line-height:0.01%;font-family:'Rounded M+ 1c';-inkscape-font-specification:'Rounded M+ 1c Bold';letter-spacing:0.88220423px;word-spacing:0px;display:inline;overflow:visible;visibility:visible;fill:#e69d76;fill-opacity:1;fill-rule:nonzero;stroke:#e99f77;stroke-width:2;stroke-miterlimit:4;stroke-dasharray:none;stroke-opacity:1;marker:none;enable-background:accumulate;"
       x="4271.3828"
       y="2071.3848"
       id="text1711-2-3-1"
       transform="matrix(0.79338838,0.2929682,-0.69069394,1.0053697,0,0)"><tspan
         sodipodi:role="line"
         x="4272.5664"
         y="2071.3848"
         id="tspan1709-8-6-29"
         style="font-style:normal;font-variant:normal;font-weight:bold;font-stretch:normal;font-family:'Rounded M+ 1c';-inkscape-font-specification:'Rounded M+ 1c Bold';letter-spacing:2.36726809px;word-spacing:0px;fill:#ffffff;fill-opacity:1;stroke:#ffffff;stroke-width:2;stroke-miterlimit:4;stroke-dasharray:none;stroke-opacity:1;"><tspan
           x="4271.3828"
           y="2071.3848"
           style="color:#000000;font-style:normal;font-variant:normal;font-weight:bold;font-stretch:normal;font-size:58.34113693px;line-height:1.25;font-family:'Rounded M+ 1c';-inkscape-font-specification:'Rounded M+ 1c Bold';text-align:center;letter-spacing:2.36726809px;word-spacing:0px;text-anchor:middle;display:inline;overflow:visible;visibility:visible;fill:#ffffff;fill-opacity:1;fill-rule:nonzero;stroke:#ffffff;stroke-width:2;stroke-miterlimit:4;stroke-dasharray:none;stroke-opacity:1;marker:none;enable-background:accumulate;"
           id="tspan1707-9-7-3">パンッ!</tspan></tspan></text>
  </g>
</svg>
