<?xml version="1.0" encoding="UTF-8" standalone="no"?>
<svg
   xmlns:dc="http://purl.org/dc/elements/1.1/"
   xmlns:cc="http://creativecommons.org/ns#"
   xmlns:rdf="http://www.w3.org/1999/02/22-rdf-syntax-ns#"
   xmlns:svg="http://www.w3.org/2000/svg"
   xmlns="http://www.w3.org/2000/svg"
   xmlns:xlink="http://www.w3.org/1999/xlink"
   xmlns:sodipodi="http://sodipodi.sourceforge.net/DTD/sodipodi-0.dtd"
   xmlns:inkscape="http://www.inkscape.org/namespaces/inkscape"
   id="svg2"
   version="1.1"
   inkscape:version="1.0.2 (e86c870879, 2021-01-15)"
   width="2481"
   height="3503"
   sodipodi:docname="E34P05.svg">
  <metadata
     id="metadata8">
    <rdf:RDF>
      <cc:Work
         rdf:about="">
        <dc:format>image/svg+xml</dc:format>
        <dc:type
           rdf:resource="http://purl.org/dc/dcmitype/StillImage" />
        <dc:title />
      </cc:Work>
    </rdf:RDF>
  </metadata>
  <defs
     id="defs6">
    <filter
       style="color-interpolation-filters:sRGB"
       id="filter4375-4-1-1-1-9-5-8-8-5-5-3-3"
       inkscape:label="soundFX1">
      <feFlood
         id="feFlood4377-7-9-0-8-1-7-3-1-2-7-6-6"
         flood-opacity="1"
         flood-color="rgb(52,52,52)"
         result="flood" />
      <feComposite
         id="feComposite4379-3-8-8-2-77-4-1-0-6-4-7-7"
         in2="SourceGraphic"
         in="flood"
         operator="in"
         result="composite1"
         baseFrequency="0.053999999999999999 0.053999999999999999" />
      <feMorphology
         id="feMorphology4393-1-0-49-8-9-3-0-1-9-9-5-5"
         operator="dilate"
         radius="4.0330969769021738"
         result="result3" />
      <feComposite
         id="feComposite4385-9-5-7-0-8-8-7-5-4-9-3-3"
         in2="result3"
         in="SourceGraphic"
         operator="over"
         result="fbSourceGraphic" />
      <feColorMatrix
         result="fbSourceGraphicAlpha"
         in="fbSourceGraphic"
         values="0 0 0 -1 0 0 0 0 -1 0 0 0 0 -1 0 0 0 0 1 0"
         id="feColorMatrix4544-9-4-4-5-5" />
      <feTurbulence
         id="feTurbulence4546-3-6-5-6-6"
         type="fractalNoise"
         numOctaves="4"
         seed="147"
         baseFrequency="0.053999999999999999 0.054054054054054057"
         result="turbulence" />
      <feDisplacementMap
         id="feDisplacementMap4548-8-0-9-2-2"
         in2="turbulence"
         in="fbSourceGraphic"
         scale="10.561763"
         yChannelSelector="G"
         xChannelSelector="R"
         result="fbSourceGraphic" />
      <feColorMatrix
         result="fbSourceGraphicAlpha"
         in="fbSourceGraphic"
         values="0 0 0 -1 0 0 0 0 -1 0 0 0 0 -1 0 0 0 0 1 0"
         id="feColorMatrix4670-7-7-3-9-9" />
      <feFlood
         id="feFlood4672-4-4-5-1-1"
         flood-opacity="1"
         flood-color="rgb(28,28,28)"
         result="flood"
         in="fbSourceGraphic" />
      <feComposite
         id="feComposite4674-8-3-7-2-2"
         in2="fbSourceGraphic"
         in="flood"
         operator="in"
         result="composite1" />
      <feGaussianBlur
         id="feGaussianBlur4676-3-7-08-7-7"
         in="composite1"
         stdDeviation="0"
         result="blur" />
      <feOffset
         id="feOffset4678-6-9-1-0-0"
         dx="-10.48377497279229"
         dy="0.39217365321829334"
         result="offset" />
      <feComposite
         id="feComposite4680-4-0-9-9-9"
         in2="offset"
         in="fbSourceGraphic"
         operator="over"
         result="composite2" />
    </filter>
    <filter
       inkscape:collect="always"
       style="color-interpolation-filters:sRGB"
       id="filter1624"
       x="-0.066465521"
       width="1.132931"
       y="-0.12921093"
       height="1.2584219">
      <feGaussianBlur
         inkscape:collect="always"
         stdDeviation="4.7367523"
         id="feGaussianBlur1626" />
    </filter>
    <filter
       inkscape:collect="always"
       style="color-interpolation-filters:sRGB"
       id="filter1624-1"
       x="-0.066465519"
       width="1.132931"
       y="-0.12921093"
       height="1.2584219">
      <feGaussianBlur
         inkscape:collect="always"
         stdDeviation="4.7367523"
         id="feGaussianBlur1626-9" />
    </filter>
    <filter
       inkscape:collect="always"
       style="color-interpolation-filters:sRGB"
       id="filter1624-1-7"
       x="-0.066465519"
       width="1.132931"
       y="-0.12921093"
       height="1.2584219">
      <feGaussianBlur
         inkscape:collect="always"
         stdDeviation="4.7367523"
         id="feGaussianBlur1626-9-8" />
    </filter>
  </defs>
  <sodipodi:namedview
     pagecolor="#ffffff"
     bordercolor="#666666"
     borderopacity="1"
     objecttolerance="10"
     gridtolerance="10"
     guidetolerance="10"
     inkscape:pageopacity="0"
     inkscape:pageshadow="2"
     inkscape:window-width="1920"
     inkscape:window-height="1016"
     id="namedview4"
     showgrid="false"
     inkscape:zoom="0.52900002"
     inkscape:cx="1350.1306"
     inkscape:cy="2250.1662"
     inkscape:window-x="0"
     inkscape:window-y="0"
     inkscape:window-maximized="1"
     inkscape:current-layer="layer1"
     inkscape:document-rotation="0"
     inkscape:snap-global="false"
     borderlayer="true" />
  <g
     inkscape:groupmode="layer"
     id="layer2"
     inkscape:label="artwork"
     sodipodi:insensitive="true">
    <image
       sodipodi:absref="/home/martin/peppercarrot/webcomics/new-ep34_The-Knighting-of-Shichimi/lang/gfx_Pepper-and-Carrot_by-David-Revoy_E34P05.png"
       xlink:href="../gfx_Pepper-and-Carrot_by-David-Revoy_E34P05.png"
       y="0"
       x="0"
       id="image10"
       height="3503"
       width="2481" />
  </g>
  <g
     inkscape:groupmode="layer"
     id="layer3"
     inkscape:label="speechbubbles"
     style="display:inline">
    <path
       style="display:inline;fill:#ffffff;fill-rule:evenodd;stroke:none;stroke-width:1.16845px;stroke-linecap:butt;stroke-linejoin:miter;stroke-opacity:1"
       d="m 2145.8203,845.63173 c -29.0675,0.0437 -58.1033,1.71396 -87.0198,4.37725 -15.3918,1.12217 -30.2389,5.41603 -44.8671,9.73518 -13.6812,4.27526 -27.3415,8.88101 -40.0589,15.25976 -16.4681,8.51113 -31.2213,21.03894 -38.6585,37.32747 -6.2465,13.05538 -9.9196,27.02366 -12.7835,41.00167 -4.2875,27.08009 2.8649,56.11584 21.7916,77.48714 21.6108,24.9308 55.7792,39.6244 90.2097,40.2364 72.6315,6.2304 146.1889,8.6769 218.6259,-0.8354 24.2676,-3.2627 48.7205,-10.1908 68.1883,-24.4259 21.3221,-15.8171 32.7523,-41.301 32.5843,-66.29475 0.1043,-23.70521 -10.3824,-46.73696 -26.5692,-64.87963 -19.268,-22.12941 -45.9016,-37.88058 -74.1856,-48.45815 -27.4655,-10.67283 -56.5669,-18.38972 -86.427,-20.01511 -6.9322,-0.43467 -13.883,-0.58715 -20.8302,-0.51593 z"
       id="path1076"
       inkscape:connector-curvature="0" />
    <path
       style="color:#000000;display:inline;overflow:visible;visibility:visible;fill:#ffffff;fill-opacity:1;fill-rule:nonzero;stroke:none;stroke-width:1.49023px;marker:none;enable-background:accumulate"
       d="m 1432.886,65.121094 c -18.1689,0.94471 -35.2939,10.307178 -53.7618,7.649004 -14.1329,-1.422244 -29.8403,-1.398485 -41.7828,7.07994 -10.6035,7.978366 -16.1075,20.618452 -18.9694,32.945422 -2.8728,13.84732 -2.9059,28.03876 -3.8854,42.08084 -2.4089,55.54655 3.769,110.95053 6.0653,166.39888 1.1658,23.01609 2.2831,46.35834 8.9943,68.61349 2.7649,6.52657 8.7976,11.15937 14.559,15.21485 10.3831,6.6292 22.0687,11.01946 33.3782,15.93027 34.9591,13.68553 72.7959,18.12597 110.0702,21.73091 49.5909,3.78263 98.9596,-4.08359 148.238,-8.21824 28.3134,-2.81944 57.4903,-6.22937 83.0206,-19.19955 24.4752,-13.37707 41.1857,-36.58487 52.6325,-60.77352 16.4574,-34.20193 23.3568,-73.59149 14.3352,-110.63677 -7.4799,-33.31869 -19.9773,-66.71764 -43.563,-92.75681 -15.5238,-16.90829 -36.3352,-28.87362 -58.6889,-35.40537 -23.4217,-7.72704 -47.2976,-14.20525 -70.3073,-23.061005 -26.483,-9.34918 -53.9531,-16.536521 -82.1146,-19.03885 -23.7658,-2.522919 -47.6073,-4.378581 -71.3301,-7.268335 -8.9362,-0.825789 -17.9088,-1.372254 -26.89,-1.285156 z"
       id="path4546-6-5-5"
       inkscape:connector-curvature="0"
       sodipodi:nodetypes="cssssccccccccccccc" />
    <path
       style="color:#000000;display:inline;overflow:visible;visibility:visible;fill:#ffffff;fill-opacity:1;fill-rule:nonzero;stroke:none;stroke-width:0.600991px;marker:none;enable-background:accumulate"
       d="m 670.35742,769.71094 c -12.2973,0.9647 -24.88043,3.61674 -35.31645,10.49777 -8.26937,6.01073 -15.67977,13.16759 -22.32417,20.92215 -6.62645,7.92618 -12.45435,16.68654 -16.1348,26.37998 -3.14551,10.49958 -1.35181,21.73717 1.78536,32.01289 2.82779,8.96948 7.68064,17.87175 15.78303,23.07197 6.94429,4.14841 15.32919,4.36127 23.18225,3.9754 9.46419,-0.29273 19.23433,0.27025 28.00976,4.15103 9.04638,3.43181 18.21763,7.73729 28.11679,7.43852 13.77277,-0.35998 26.75813,-6.06737 38.3739,-13.09874 14.74173,-9.08988 26.7992,-23.24144 31.53588,-40.07628 2.84106,-10.03042 2.47383,-20.87049 -0.8408,-30.74109 -3.01302,-9.29937 -7.98249,-18.10356 -15.00292,-24.96219 -5.74301,-5.42623 -13.1915,-8.71524 -20.86833,-10.30244 -10.75987,-2.41067 -21.91535,-2.58388 -32.57378,-5.52158 -7.80876,-1.66324 -15.63484,-4.45051 -23.72572,-3.74739 z"
       id="path4040-41"
       inkscape:connector-curvature="0"
       sodipodi:nodetypes="zssssz" />
    <path
       style="color:#000000;display:inline;overflow:visible;visibility:visible;fill:#ffffff;fill-opacity:1;fill-rule:nonzero;stroke:none;stroke-width:0.993147px;marker:none;enable-background:accumulate"
       d="m 563.84511,293.96967 c -30.86328,0.58464 -62.04349,1.33234 -92.25203,11.13181 -8.88327,2.76644 -17.55888,7.79406 -24.48678,16.18704 -6.60244,7.65082 -11.95886,18.32449 -12.72505,30.52962 -0.85038,11.05785 0.48415,22.14468 1.77716,33.02937 1.74382,11.85354 5.61213,23.76516 12.79637,31.0669 8.89596,9.59196 19.79608,14.28488 30.20836,19.62342 21.24059,9.92201 43.85081,11.87419 66.09548,11.85055 34.78275,0.26988 69.62057,-2.29509 104.08505,-8.9856 15.76668,-3.89265 30.60116,-16.62233 39.30029,-35.54499 5.27363,-12.01275 7.26572,-27.09329 4.30936,-40.71753 -5.1803,-27.95495 -22.3951,-50.04204 -42.22533,-57.2354 -13.03133,-4.96783 -26.56117,-6.36063 -39.93418,-8.47159 -15.60657,-1.95361 -31.28458,-2.54596 -46.9487,-2.4636 z"
       id="path4040-4-5-3-6"
       inkscape:connector-curvature="0"
       sodipodi:nodetypes="zssssz" />
    <path
       style="fill:#ffffff;fill-rule:evenodd;stroke:none;stroke-width:1.03222px;stroke-linecap:butt;stroke-linejoin:miter;stroke-opacity:1"
       d="m 564.45686,126.95485 c -27.7965,0.0565 -55.50832,2.65183 -83.29126,3.22852 -26.16411,0.79613 -52.46126,1.27315 -78.34899,5.56636 -18.87172,2.95535 -35.08464,5.53732 -50.66699,15.52555 -7.61667,4.61205 -16.78646,9.95578 -23.34612,19.53697 -6.15304,7.49363 -10.29987,22.96246 -13.86655,32.07836 -5.5154,14.98897 -5.54853,31.6643 -1.80153,47.08138 3.34039,12.71477 11.06491,24.13694 21.51574,31.95172 11.84659,9.10774 26.0684,14.43858 40.3844,18.05832 21.70869,5.1219 44.12385,5.10243 66.26831,6.22463 68.49762,2.63026 137.05715,0.27471 205.50705,-2.60743 31.38108,-2.06836 63.0564,-4.46875 93.4309,-13.22297 14.2309,-6.53502 25.46137,-18.37358 33.82812,-31.5093 7.31473,-13.27122 8.52833,-29.03359 7.01184,-43.89771 -1.61903,-19.48686 -10.77039,-38.46576 -25.83016,-50.89322 -19.63014,-17.79159 -45.20178,-27.95255 -71.18145,-31.13796 -18.67523,-2.72145 -37.47742,-4.79909 -56.34676,-5.33392 -18.39055,-0.0148 -36.77613,-0.47526 -55.16486,-0.64402 -2.70053,-0.0216 -5.40113,-0.007 -8.10169,-0.006 z"
       id="path1299"
       inkscape:connector-curvature="0"
       sodipodi:nodetypes="cccccccccccccccccccc" />
    <path
       style="color:#000000;display:inline;overflow:visible;visibility:visible;fill:#ffffff;fill-opacity:1;fill-rule:nonzero;stroke:none;stroke-width:1px;marker:none;enable-background:accumulate"
       d="m 601.64274,401.13421 c -14.17455,40.88456 44.77094,72.82978 100.67006,54.05497 -23.16137,8.79652 -79.7912,49.66875 -144.52484,-46.85819 -30.03766,-44.79037 28.99451,-4.6799 28.99451,-4.6799 z"
       id="path4035-4"
       inkscape:connector-curvature="0"
       sodipodi:nodetypes="ccscc" />
    <path
       style="color:#000000;display:inline;overflow:visible;visibility:visible;fill:#ffffff;fill-opacity:1;fill-rule:nonzero;stroke:none;stroke-width:0.65663px;marker:none;enable-background:accumulate"
       d="m 611.41244,701.29174 c 17.11413,0.19349 18.72502,1.92575 19.18724,12.28702 0.46185,10.36191 -1.67076,26.02679 10.09463,35.89667 11.76506,9.87056 19.1963,13.36617 25.49665,11.79439 -5.19491,13.1306 -2.83584,31.62853 -10.75775,36.51466 -7.9219,4.88611 26.05967,-2.07377 26.05967,-2.07377 0,0 9.21399,-27.86213 6.82755,-44.34007 -2.3864,-16.4779 -28.23087,-11.38908 -37.42309,-16.46871 -9.19219,-5.07958 -7.20814,-26.722 -13.49221,-32.72081 -6.28377,-5.99953 -17.59228,-2.98484 -25.99269,-0.88938 z"
       id="path4538-7"
       inkscape:connector-curvature="0"
       sodipodi:nodetypes="ccscccsscc" />
    <path
       style="color:#000000;display:inline;overflow:visible;visibility:visible;fill:#ffffff;fill-opacity:1;fill-rule:nonzero;stroke:none;stroke-width:1.01366px;marker:none;enable-background:accumulate"
       d="m 1598.5835,596.86203 c 14.1467,-11.40413 29.0076,-23.09483 38.4486,-39.96949 2.5984,-4.85383 4.9981,-10.05752 6.0756,-15.49957 0.016,-5.8546 -3.8969,-10.34151 -8.4908,-12.17778 -6.4361,-3.18874 -14.5628,-3.42982 -19.4026,-9.63069 -3.4195,-4.61758 -1.8272,-11.14779 -0.9156,-16.72114 2.5699,-14.17326 6.8395,-28.1699 7.4104,-42.5769 1.5793,-16.24635 2.1988,-33.38893 -3.7408,-48.10801 -2.4394,-5.7727 -5.7341,-11.37091 -10.8601,-14.41865 -12.7918,-8.51566 -30.6307,-8.53627 -43.8564,1.70558 -7.9407,7.39354 -10.3193,22.05002 -3.5557,30.23691 3.5085,4.38614 9.2515,5.18736 14.4155,4.19228 9.6748,0.1491 18.2991,6.65319 22.6959,15.89335 3.7428,7.54995 5.2552,16.51182 4.6927,25.40135 2.0644,12.09608 -3.5504,23.92983 -6.6517,35.52848 -1.3509,5.3164 -2.467,11.0518 -1.4466,16.34944 3.0779,7.03972 10.5313,8.927 17.0498,9.68941 6.6944,0.98385 14.6099,1.26357 18.9566,7.63463 3.5752,3.9219 -0.1424,9.62907 -1.3852,14.17636 -5.6681,14.18394 -15.0865,26.49538 -26.0468,36.02362 -1.0987,0.82439 -2.2436,1.54861 -3.3927,2.27078 z"
       id="path4496-9"
       inkscape:connector-curvature="0"
       inkscape:transform-center-x="21.004464"
       inkscape:transform-center-y="-25.902749" />
    <path
       style="color:#000000;display:inline;overflow:visible;visibility:visible;fill:#ffffff;fill-opacity:1;fill-rule:nonzero;stroke:none;stroke-width:1.03729px;marker:none;enable-background:accumulate"
       d="m 2109.2559,751.99134 c -20.4103,6.10083 -40.0468,16.85113 -53.8,33.41265 -10.7709,14.46078 -16.5835,31.98514 -19.9326,49.53175 -1.4068,8.93082 -2.2092,18.35818 0.5,27.10829 3.2554,6.18918 11.8987,8.09797 17.7559,4.53442 7.5966,-3.5917 11.8306,-12.98928 9.3278,-21.03888 -1.6093,-16.53808 1.3652,-33.26989 6.7533,-48.89003 5.7833,-15.14652 16.5635,-28.06938 29.7192,-37.41611 3.7487,-2.79439 7.6932,-5.31046 11.6413,-7.81045 -0.655,0.18946 -1.3099,0.37891 -1.9649,0.56836 z"
       id="path5010-4"
       inkscape:connector-curvature="0"
       sodipodi:nodetypes="ccsc" />
    <path
       style="fill:#ffffff;stroke:none;stroke-width:1.00962"
       d="m 1694.6966,1472.3525 c -45.2399,1.9207 -89.88,23.5759 -116.9189,59.5519 -10.3545,14.1662 -14.9862,31.5853 -16.061,48.8011 -2.6607,26.1893 -2.2577,52.5488 -2.6945,78.8283 0.848,18.42 7.3076,37.3301 21.215,50.2307 17.3346,17.5119 41.5517,26.7038 65.7103,30.6406 38.0695,7.059 77.0071,5.6894 115.5163,4.3047 30.2772,-1.6408 61.4003,-8.243 86.5428,-25.6654 20.7623,-14.2178 35.9747,-36.832 38.7768,-61.7555 3.0873,-23.3392 -0.8243,-46.7948 -3.8998,-69.9242 -3.7,-23.9268 -10.133,-48.3988 -25.3614,-67.9404 -18.9343,-24.1142 -48.5635,-38.5823 -78.9201,-42.8707 -27.7199,-4.3314 -55.9144,-4.3212 -83.9055,-4.2011 z"
       id="path3280-10"
       inkscape:connector-curvature="0"
       sodipodi:nodetypes="csssc" />
    <path
       style="color:#000000;display:inline;overflow:visible;visibility:visible;fill:#ffffff;fill-opacity:1;fill-rule:nonzero;stroke:none;stroke-width:0.730994px;marker:none;enable-background:accumulate"
       d="m 1701.3359,1182.3633 c -23.6044,0.4972 -47.5014,8.2194 -65.537,23.7485 -16.8972,15.2472 -21.3862,42.7399 -9.3936,62.2553 7.3737,12.546 20.5403,20.6735 34.317,24.5048 22.0738,8.2236 45.7993,10.6274 69.1919,11.348 21.8322,0.47 44.2156,-1.001 64.7362,-9.0519 13.7438,-5.6802 26.0669,-16.1754 31.5122,-30.2834 6.1857,-15.1026 4.6669,-33.4624 -5.1548,-46.703 -9.4277,-13.4338 -24.3106,-21.9676 -39.6896,-26.8896 -23.7701,-7.8332 -49.0614,-8.7336 -73.8752,-8.9512 -2.0358,-7e-4 -4.0715,-0.013 -6.1071,0.023 z"
       id="path4546-6-89"
       inkscape:connector-curvature="0"
       sodipodi:nodetypes="cssssc" />
    <path
       style="fill:#ffffff;fill-rule:evenodd;stroke:none;stroke-width:0.479277px;stroke-linecap:butt;stroke-linejoin:miter;stroke-opacity:1"
       d="m 893.13501,1534.7305 c 27.51836,-11.7764 54.23289,-20.9661 71.61477,-23.4902 -3.55561,10.1642 -5.56972,16.3128 -14.89804,25.0191 24.30441,1.9047 70.63976,-18.9809 95.44776,-31.1705 -33.9587,5.7956 -60.1404,12.1497 -70.78238,13.5607 4.97656,-8.3585 6.96879,-14.5328 9.86224,-23.8449 -15.1281,3.6171 -70.65358,12.0504 -83.85269,9.4593 -13.19922,-2.5913 -7.39166,30.4665 -7.39166,30.4665 z"
       id="path1305"
       inkscape:connector-curvature="0"
       sodipodi:nodetypes="ccccccsc" />
    <path
       style="fill:#ffffff;fill-opacity:1;fill-rule:evenodd;stroke:none;stroke-width:1.20943px;stroke-linecap:butt;stroke-linejoin:miter;stroke-opacity:1"
       d="m 465.74707,1614.1744 c 28.87183,-13.3338 24.32313,36.8619 7.08566,111.1362 19.83535,-54.1486 58.62076,-69.1609 24.69692,33.8092 53.33209,-76.9165 91.37058,-108.6679 83.00707,-3.3844 70.72385,-100.8161 74.65488,-53.8453 69.66817,12.8569 28.08575,-95.8396 54.57913,-106.3391 79.14209,-13.3817 -6.93201,-98.9511 30.95517,-96.2842 111.70601,3.5672 -36.07719,-104.46 8.61948,-67.2411 53.75735,-29.2481 -37.94547,-89.4143 14.27698,-39.8202 34.75897,-39.1589 -76.36992,-138.0574 -11.22818,-85.8473 29.89142,-65.9358 -39.46749,-38.9669 -58.64539,-74.8489 9.88191,-87.126 -60.75668,-15.2727 -35.2302,-48.277 24.24399,-86.4489 -32.45545,6.461 -94.63626,-19.4468 12.21427,-57.5378 -41.56582,6.8468 -82.33845,-16.2936 -34.95925,-43.458 -15.60965,5.9866 -70.24211,-3.6226 -0.2509,-37.7793 -43.29633,7.0464 -90.24614,2.9204 6.84332,-42.2267 -150.7151,39.2585 -41.25336,-21.1033 -14.86102,-49.6582 -62.25583,23.0614 -167.4658,97.1948 -78.41792,-59.6423 -124.10967,156.4229 -109.53608,62.7046 -102.58613,-17.2633 -42.77091,125.4489 -57.68546,108.4054 -61.35602,33.8462 -19.97379,48.0601 -22.58532,13.4297 -24.77223,-23.2231 -19.92787,69.0836 -39.28645,106.3703 -55.98572,-4.8724 -9.18339,128.569 -41.61144,103.5657 -79.15518,44.7646 6.77104,45.4541 -14.43617,24.2598 -45.11533,-19.4982 25.30032,116.0425 -23.64469,88.6128 -40.67727,57.244 13.49987,44.4592 19.42837,72.6126 -2.44747,40.8862 13.27872,61.427 14.69227,99.1916 -8.1228,88.6378 26.82013,49.8635 18.18516,44.764 7.96165,37.2018 10.06784,23.8281 7.71873,50.0497 -10.5109,63.5446 9.5137,21.9062 27.87758,40.39 3.88482,75.2539 20.75982,-4.4531 22.61196,3.3537 1.12563,26.2935 29.51571,-26.7699 16.91582,8.3652 -0.65111,50.801 z"
       id="path1798"
       sodipodi:nodetypes="cccccccccccccccccccccccccccccccc" />
    <path
       style="fill:#ffffff;fill-rule:evenodd;stroke:none;stroke-width:0.960637px;stroke-linecap:butt;stroke-linejoin:miter;stroke-opacity:1"
       d="m 1778.0933,1289.0282 c 0,0 -3.9407,28.9212 8.0996,38.6226 12.0408,9.7023 15.4867,13.5023 36.0798,21.9048 -30.1647,-5.7228 -44.5902,-13.4046 -52.5226,-23.226 -7.9325,-9.8214 -20.0355,-30.3233 -22.8091,-36.2438 -2.7736,-5.9205 31.1523,-1.0576 31.1523,-1.0576 z"
       id="path1359"
       inkscape:connector-curvature="0" />
    <path
       style="fill:#ffffff;fill-rule:evenodd;stroke:none;stroke-width:1.51642px;stroke-linecap:butt;stroke-linejoin:miter;stroke-opacity:1"
       d="m 1879.5739,1605.0433 c 0,0 29.1528,33.6868 52.9454,28.1474 23.7942,-5.5388 31.7815,-6.1077 63.0487,-23.7148 -38.2213,32.3304 -62.191,42.8809 -81.8135,43.1241 -19.6227,0.2433 -55.9116,-4.864 -65.6341,-7.2483 -9.7228,-2.3842 31.4535,-40.3084 31.4535,-40.3084 z"
       id="path1359-6"
       inkscape:connector-curvature="0" />
    <path
       style="fill:#ffffff;fill-rule:evenodd;stroke:none;stroke-width:1.04628px;stroke-linecap:butt;stroke-linejoin:miter;stroke-opacity:1;filter:url(#filter1624-1-7)"
       d="m 304.54727,1936.8855 c 5.39109,-32.111 32.34599,-42.814 51.75368,-46.025 19.40768,-3.211 83.0216,-3.211 100.27283,9.633 17.25112,12.844 22.6421,36.392 16.17294,43.884 -6.46926,7.493 -15.09476,29.97 -38.81515,31.04 -23.7206,1.071 -74.39599,5.352 -94.88185,-6.422 -20.48586,-11.774 -36.6588,-14.985 -34.50245,-32.11 z"
       id="path1285-4-4"
       inkscape:connector-curvature="0"
       transform="matrix(1.2257744,0,0,1.060297,78.802093,-33.662704)" />
    <path
       style="fill:#ffffff;fill-rule:evenodd;stroke:none;stroke-width:1.04628px;stroke-linecap:butt;stroke-linejoin:miter;stroke-opacity:1;filter:url(#filter1624-1)"
       d="m 304.54727,1936.8855 c 5.39109,-32.111 32.34599,-42.814 51.75368,-46.025 19.40768,-3.211 83.0216,-3.211 100.27283,9.633 17.25112,12.844 22.6421,36.392 16.17294,43.884 -6.46926,7.493 -15.09476,29.97 -38.81515,31.04 -23.7206,1.071 -74.39599,5.352 -94.88185,-6.422 -20.48586,-11.774 -36.6588,-14.985 -34.50245,-32.11 z"
       id="path1285-4"
       inkscape:connector-curvature="0"
       transform="matrix(1.1958956,0,0,0.97870713,-64.882445,39.800192)" />
    <path
       style="fill:#ffffff;fill-rule:evenodd;stroke:none;stroke-width:1.04628px;stroke-linecap:butt;stroke-linejoin:miter;stroke-opacity:1;filter:url(#filter1624)"
       d="m 115.7959,1883.6103 c 5.39109,-32.111 32.34599,-42.814 51.75368,-46.025 19.40768,-3.211 83.0216,-3.211 100.27283,9.633 17.25112,12.844 22.6421,36.392 16.17294,43.884 -6.46926,7.493 -15.09476,29.97 -38.81515,31.04 -23.7206,1.071 -74.39599,5.352 -94.88185,-6.422 -20.48586,-11.774 -36.6588,-14.985 -34.50245,-32.11 z"
       id="path1285"
       inkscape:connector-curvature="0"
       transform="matrix(1.0933918,0,0,0.98960959,-16.191247,19.531819)" />
    <path
       style="color:#000000;display:inline;overflow:visible;visibility:visible;fill:#ffffff;fill-opacity:1;fill-rule:nonzero;stroke:none;stroke-width:0.921112px;marker:none;enable-background:accumulate"
       d="m 1274.0762,2408.0934 c -36.2286,-32.2998 -77.602,-59.113 -107.8532,-97.7871 l 6.9677,43.9112 c -17.7743,-7.7018 -29.1706,-25.5756 -42.7328,-39.995 l -0.057,27.888 c -41.735,-18.7232 -69.4761,-51.7603 -103.981,-77.8792 l 3.6604,48.6148 c 37.885,22.0665 78.758,37.3542 113.282,67.0437 l 2.7503,-27.2332 c 13.303,8.4793 26.3021,17.5344 37.9439,29.1641 l 0.5073,-34.5085 z"
       id="path4032-8"
       inkscape:connector-curvature="0"
       sodipodi:nodetypes="cccccccccccc" />
    <path
       style="opacity:1;fill:#ffffff;fill-rule:evenodd;stroke:none;stroke-width:1.29792px;stroke-linecap:butt;stroke-linejoin:miter;stroke-opacity:1"
       d="m 596.85766,2148.5075 c 88.61358,-3.8064 88.89156,-23.018 27.12926,-53.0489 44.75925,0.1399 29.54066,-18.5959 -2.15538,-42.5171 118.2413,29.4562 138.90555,-21.0338 105.51045,-79.5689 95.2036,68.9144 96.32738,29.1382 131.01321,-54.4302 19.79205,30.752 45.9818,125.9996 156.9761,43.5084 -19.13777,68.6599 40.8503,21.1488 88.7881,-2.7897 8.5975,9.8914 -77.7418,66.9687 47.9482,-3.7845 -90.7093,93.7938 49.4089,16.5991 92.8479,-9.3856 -45.1431,44.36 -144.263,110.8454 -11.3342,85.2879 -96.6668,51.3201 -11.1989,32.0061 31.8509,29.6569 -54.5983,21.3378 -56.7532,42.475 -1.0932,33.9296 -81.1478,39.9327 -17.9859,43.2801 21.1135,44.4696 -30.4092,3.0572 -105.2966,20.5938 -8.6855,24.1884 -66.7671,12.7506 -47.1613,46.7463 -37.6078,60.6525 -73.8549,-4.8407 -21.4338,41.7219 6.0823,71.7263 -50.9975,-12.8489 -130.512,-46.0319 -74.3004,12.5663 -125.0501,-35.0263 -75.7512,0.6892 -47.8814,43.1217 -91.7856,-35.5573 -105.863,-52.8668 -134.01293,-23.4499 -31.0386,-24.7304 -36.55497,-3.0586 -46.10441,23.1841 -19.12749,-53.0428 -51.65122,-20.7891 -86.21012,11.32 -17.9071,-55.2675 -53.19188,-32.06 -86.24835,-17.1106 0.1321,-63.5 -44.45023,-48.0811 -134.55591,-0.9203 70.75823,-44.3779 109.49985,-88.3356 -7.86176,-62.3802 37.69734,-12.9153 72.86924,-51.7788 22.64345,-37.6585 22.42313,-9.8099 43.51572,-32.113 -23.04988,-25.7691 61.9753,-13.6054 54.54254,-24.5954 -12.78022,-33.3282 115.90402,-12.1872 64.08024,-25.3179 -18.02191,-37.47 z"
       id="path523"
       sodipodi:nodetypes="cccccccccccccccccccccccccccc" />
  </g>
  <g
     inkscape:groupmode="layer"
     id="layer1"
     inkscape:label="txt">
    <text
       xml:space="preserve"
       style="font-style:normal;font-variant:normal;font-weight:normal;font-stretch:normal;font-size:45px;line-height:1.25;font-family:Lavi;-inkscape-font-specification:Lavi;text-align:center;letter-spacing:0px;word-spacing:0px;text-anchor:middle;fill:#000000;fill-opacity:1;stroke:none"
       x="544.9964"
       y="204.67921"
       id="text4246-3-2-2-6-3-7-9-3"><tspan
         style="font-size:45px"
         sodipodi:role="line"
         x="544.9964"
         y="204.67921"
         id="tspan919">Tut mir leid Pepper,</tspan><tspan
         style="font-size:45px"
         sodipodi:role="line"
         x="544.9964"
         y="260.9292"
         id="tspan94">du musst gehen.</tspan></text>
    <text
       xml:space="preserve"
       style="font-style:normal;font-variant:normal;font-weight:normal;font-stretch:normal;font-size:45px;line-height:1.25;font-family:Lavi;-inkscape-font-specification:Lavi;text-align:center;letter-spacing:0px;word-spacing:0px;text-anchor:middle;fill:#000000;fill-opacity:1;stroke:none"
       x="561.23529"
       y="358.42441"
       id="text4246-3-2-2-6-3-7-9-3-3"><tspan
         style="font-size:45px"
         sodipodi:role="line"
         x="561.23529"
         y="358.42441"
         id="tspan27-7">Und zwar</tspan><tspan
         style="font-size:45px"
         sodipodi:role="line"
         x="561.23529"
         y="414.67441"
         id="tspan96">jetzt.</tspan></text>
    <text
       xml:space="preserve"
       style="font-style:normal;font-variant:normal;font-weight:normal;font-stretch:normal;font-size:45px;line-height:1.25;font-family:Lavi;-inkscape-font-specification:Lavi;text-align:center;letter-spacing:0px;word-spacing:0px;text-anchor:middle;fill:#000000;fill-opacity:1;stroke:none"
       x="676.57495"
       y="846.57025"
       id="text4246-3-2-2-6-3-7-9-3-3-5"><tspan
         style="font-size:45px"
         sodipodi:role="line"
         x="676.57495"
         y="846.57025"
         id="tspan27-7-3">Hä?</tspan></text>
    <text
       xml:space="preserve"
       style="font-style:normal;font-variant:normal;font-weight:normal;font-stretch:normal;font-size:45px;line-height:1.25;font-family:Lavi;-inkscape-font-specification:Lavi;text-align:center;letter-spacing:0px;word-spacing:0px;text-anchor:middle;fill:#000000;fill-opacity:1;stroke:none"
       x="1549.379"
       y="196.8502"
       id="text4246-3-2-2-6-3-7-9-3-3-56"><tspan
         style="font-size:45px"
         sodipodi:role="line"
         x="1549.379"
         y="196.8502"
         id="tspan109">Hey hey hey, </tspan><tspan
         style="font-size:45px"
         sodipodi:role="line"
         x="1549.379"
         y="253.1002"
         id="tspan938">Moment mal! Das</tspan><tspan
         style="font-size:45px"
         sodipodi:role="line"
         x="1549.379"
         y="309.35022"
         id="tspan98">ist doch bestimmt </tspan><tspan
         style="font-size:45px"
         sodipodi:role="line"
         x="1549.379"
         y="365.60022"
         id="tspan942">ein Missverständnis.</tspan></text>
    <text
       xml:space="preserve"
       style="font-style:normal;font-variant:normal;font-weight:normal;font-stretch:normal;font-size:45px;line-height:1.25;font-family:Lavi;-inkscape-font-specification:Lavi;text-align:center;letter-spacing:0px;word-spacing:0px;text-anchor:middle;fill:#000000;fill-opacity:1;stroke:none"
       x="2137.1638"
       y="922.48541"
       id="text4246-3-2-2-6-3-7-9-3-3-56-9"><tspan
         style="font-size:45px"
         sodipodi:role="line"
         x="2137.1638"
         y="922.48541"
         id="tspan946">Pepper, bitte,</tspan><tspan
         style="font-size:45px"
         sodipodi:role="line"
         x="2137.1638"
         y="978.73541"
         id="tspan111">mach es nicht noch</tspan><tspan
         style="font-size:45px"
         sodipodi:role="line"
         x="2137.1638"
         y="1034.9854"
         id="tspan113">schwieriger.</tspan></text>
    <text
       xml:space="preserve"
       style="font-style:normal;font-variant:normal;font-weight:normal;font-stretch:normal;font-size:45px;line-height:1.25;font-family:Lavi;-inkscape-font-specification:Lavi;text-align:center;letter-spacing:0px;word-spacing:0px;text-anchor:middle;fill:#000000;fill-opacity:1;stroke:none"
       x="704.23999"
       y="1314.4139"
       id="text4246-3-2-2-6-3-7-9-3-3-56-9-3"><tspan
         style="font-size:45px"
         sodipodi:role="line"
         x="704.23999"
         y="1314.4139"
         id="tspan980">He! Ihr da, auf dem</tspan><tspan
         style="font-size:45px"
         sodipodi:role="line"
         x="704.23999"
         y="1370.6639"
         id="tspan129">Thron. Wenn Ihr</tspan><tspan
         style="font-size:45px"
         sodipodi:role="line"
         x="704.23999"
         y="1426.9139"
         id="tspan131">ein Problem mit</tspan><tspan
         style="font-size:45px"
         sodipodi:role="line"
         x="704.23999"
         y="1483.1639"
         id="tspan133">mir habt, kommt</tspan><tspan
         style="font-size:45px"
         sodipodi:role="line"
         x="704.23999"
         y="1539.4139"
         id="tspan137">gefälligst runter</tspan><tspan
         style="font-size:45px"
         sodipodi:role="line"
         x="704.23999"
         y="1595.6639"
         id="tspan141">und sagt es</tspan><tspan
         style="font-size:45px"
         sodipodi:role="line"
         x="704.23999"
         y="1651.9139"
         id="tspan143">mir selbst!</tspan></text>
    <text
       xml:space="preserve"
       style="font-style:normal;font-variant:normal;font-weight:normal;font-stretch:normal;font-size:52.7307px;line-height:1.25;font-family:Lavi;-inkscape-font-specification:Lavi;text-align:center;letter-spacing:0px;word-spacing:0px;text-anchor:middle;fill:#000000;fill-opacity:1;stroke:none;stroke-width:1.17179"
       x="1726.7211"
       y="1258.5393"
       id="text4246-3-2-2-6-3-7-9-3-3-56-9-3-2"><tspan
         style="font-size:52.7307px;stroke-width:1.17179"
         sodipodi:role="line"
         x="1726.7211"
         y="1258.5393"
         id="tspan222-9">Tsss...</tspan></text>
    <text
       xml:space="preserve"
       style="font-style:normal;font-variant:normal;font-weight:normal;font-stretch:normal;font-size:45px;line-height:1.25;font-family:Lavi;-inkscape-font-specification:Lavi;text-align:center;letter-spacing:0px;word-spacing:0px;text-anchor:middle;fill:#000000;fill-opacity:1;stroke:none"
       x="1726.7081"
       y="1569.9558"
       id="text4246-3-2-2-6-3-7-9-3-3-56-9-3-20"><tspan
         style="font-size:45px"
         sodipodi:role="line"
         x="1726.7081"
         y="1569.9558"
         id="tspan222-92">Shichimi, </tspan><tspan
         style="font-size:45px"
         sodipodi:role="line"
         x="1726.7081"
         y="1626.2058"
         id="tspan151">du hast zehn</tspan><tspan
         style="font-size:45px"
         sodipodi:role="line"
         x="1726.7081"
         y="1682.4558"
         id="tspan155">Sekunden...</tspan></text>
    <text
       xml:space="preserve"
       style="font-style:normal;font-variant:normal;font-weight:normal;font-stretch:normal;font-size:45px;line-height:1.25;font-family:Lavi;-inkscape-font-specification:Lavi;text-align:center;letter-spacing:0px;word-spacing:0px;text-anchor:middle;fill:#000000;fill-opacity:1;stroke:none"
       x="210.39514"
       y="1889.5347"
       id="text4246-3-2-2-6-3-7-9-3-3-56-9-3-20-2"><tspan
         style="font-size:45px"
         sodipodi:role="line"
         x="210.39514"
         y="1889.5347"
         id="tspan334-7">neun...</tspan></text>
    <text
       xml:space="preserve"
       style="font-style:normal;font-variant:normal;font-weight:normal;font-stretch:normal;font-size:45px;line-height:1.25;font-family:Lavi;-inkscape-font-specification:Lavi;text-align:center;letter-spacing:0px;word-spacing:0px;text-anchor:middle;fill:#000000;fill-opacity:1;stroke:none"
       x="399.80328"
       y="1942.1443"
       id="text4246-3-2-2-6-3-7-9-3-3-56-9-3-20-2-3"><tspan
         style="font-size:45px"
         sodipodi:role="line"
         x="399.80328"
         y="1942.1443"
         id="tspan334-7-6">acht...</tspan></text>
    <text
       xml:space="preserve"
       style="font-style:normal;font-variant:normal;font-weight:normal;font-stretch:normal;font-size:45px;line-height:1.25;font-family:Lavi;-inkscape-font-specification:Lavi;text-align:center;letter-spacing:0px;word-spacing:0px;text-anchor:middle;fill:#000000;fill-opacity:1;stroke:none"
       x="560.51343"
       y="2028.3048"
       id="text4246-3-2-2-6-3-7-9-3-3-56-9-3-20-2-3-1"><tspan
         style="font-size:45px"
         sodipodi:role="line"
         x="560.51343"
         y="2028.3048"
         id="tspan334-7-6-2">sieben...</tspan></text>
    <text
       xml:space="preserve"
       style="font-style:normal;font-variant:normal;font-weight:normal;font-stretch:normal;font-size:55.953px;line-height:1.25;font-family:Lavi;-inkscape-font-specification:Lavi;text-align:center;letter-spacing:0px;word-spacing:0px;text-anchor:middle;fill:#000000;fill-opacity:1;stroke:none;stroke-width:0.902468"
       x="1126.5292"
       y="2105.6052"
       id="text4246-3-2-2-6-3-7-9-3-3-56-9-3-20-2-3-1-9"
       transform="skewX(-4.8400228)"><tspan
         style="font-style:normal;font-variant:normal;font-weight:bold;font-stretch:normal;font-size:55.953px;font-family:Lavi;-inkscape-font-specification:'Lavi Bold';stroke-width:0.902468"
         sodipodi:role="line"
         x="1126.5292"
         y="2105.6052"
         id="tspan451">ES REICHT, </tspan><tspan
         style="font-style:normal;font-variant:normal;font-weight:bold;font-stretch:normal;font-size:55.953px;font-family:Lavi;-inkscape-font-specification:'Lavi Bold';stroke-width:0.902468"
         sodipodi:role="line"
         x="1126.5292"
         y="2175.5464"
         id="tspan457">PEPPER!</tspan><tspan
         style="font-style:normal;font-variant:normal;font-weight:bold;font-stretch:normal;font-size:55.953px;font-family:Lavi;-inkscape-font-specification:'Lavi Bold';stroke-width:0.902468"
         sodipodi:role="line"
         x="1126.5292"
         y="2245.4878"
         id="tspan918">VERSCHWINDE!!!</tspan></text>
    <text
       xml:space="preserve"
       style="font-style:normal;font-variant:normal;font-weight:normal;font-stretch:normal;font-size:180px;line-height:1.25;font-family:Lavi;-inkscape-font-specification:Lavi;letter-spacing:0px;word-spacing:0px;fill:#ffffff;fill-opacity:1;stroke:#ffffff;stroke-width:0.74524;stroke-miterlimit:4;stroke-dasharray:none;stroke-opacity:1;filter:url(#filter4375-4-1-1-1-9-5-8-8-5-5-3-3)"
       id="text4580-6-0-0-0-9-3-3"
       transform="matrix(0.88341196,-0.53750677,0,1.1213027,-74.551071,722.92786)"
       x="418.61386"
       y="279.76691"><textPath
         xlink:href="#path974"
         id="textPath2837"
         style="font-size:180px;stroke-width:0.74524"><tspan
           style="font-size:180px;fill:#ffffff;fill-opacity:1;stroke:#ffffff;stroke-width:0.74524;stroke-miterlimit:4;stroke-dasharray:none;stroke-opacity:1"
           id="tspan876-6-6"
           rotate="325 325 325 325 325 325 325 325 325 0">ZZZZIiii!</tspan></textPath></text>
    <path
       style="fill:none;fill-rule:evenodd;stroke:none;stroke-width:1.13654px;stroke-linecap:butt;stroke-linejoin:miter;stroke-opacity:1"
       d="m 2062.1793,2191.5476 c 235.3161,220.1206 417.0174,422.7368 620.7004,632.5297"
       id="path974"
       sodipodi:nodetypes="cc" />
  </g>
</svg>
