<?xml version="1.0" encoding="UTF-8" standalone="no"?>
<svg
   xmlns:dc="http://purl.org/dc/elements/1.1/"
   xmlns:cc="http://creativecommons.org/ns#"
   xmlns:rdf="http://www.w3.org/1999/02/22-rdf-syntax-ns#"
   xmlns:svg="http://www.w3.org/2000/svg"
   xmlns="http://www.w3.org/2000/svg"
   xmlns:xlink="http://www.w3.org/1999/xlink"
   xmlns:sodipodi="http://sodipodi.sourceforge.net/DTD/sodipodi-0.dtd"
   xmlns:inkscape="http://www.inkscape.org/namespaces/inkscape"
   id="svg2"
   version="1.1"
   inkscape:version="1.0.2 (e86c870879, 2021-01-15)"
   width="2481"
   height="3503"
   sodipodi:docname="E34P04.svg">
  <metadata
     id="metadata8">
    <rdf:RDF>
      <cc:Work
         rdf:about="">
        <dc:format>image/svg+xml</dc:format>
        <dc:type
           rdf:resource="http://purl.org/dc/dcmitype/StillImage" />
        <dc:title />
      </cc:Work>
    </rdf:RDF>
  </metadata>
  <defs
     id="defs6">
    <filter
       style="color-interpolation-filters:sRGB"
       id="filter4375-4-1-1-1-9-5-8-8-5-5-3-8"
       inkscape:label="soundFX1">
      <feFlood
         id="feFlood4377-7-9-0-8-1-7-3-1-2-7-6-7"
         flood-opacity="1"
         flood-color="rgb(255,255,255)"
         result="flood" />
      <feComposite
         id="feComposite4379-3-8-8-2-77-4-1-0-6-4-7-9"
         in2="SourceGraphic"
         in="flood"
         operator="in"
         result="composite1"
         baseFrequency="0.053999999999999999 0.053999999999999999" />
      <feMorphology
         id="feMorphology4393-1-0-49-8-9-3-0-1-9-9-5-2"
         operator="dilate"
         radius="2.9756367599225957"
         result="result3" />
      <feComposite
         id="feComposite4385-9-5-7-0-8-8-7-5-4-9-3-0"
         in2="result3"
         in="SourceGraphic"
         operator="over"
         result="fbSourceGraphic" />
      <feColorMatrix
         result="fbSourceGraphicAlpha"
         in="fbSourceGraphic"
         values="0 0 0 -1 0 0 0 0 -1 0 0 0 0 -1 0 0 0 0 1 0"
         id="feColorMatrix4544-9-4-4-5-2" />
      <feTurbulence
         id="feTurbulence4546-3-6-5-6-3"
         type="fractalNoise"
         numOctaves="5"
         seed="174"
         baseFrequency="0.053999999999999999 0.054054054054054057"
         result="turbulence" />
      <feDisplacementMap
         id="feDisplacementMap4548-8-0-9-2-7"
         in2="turbulence"
         in="fbSourceGraphic"
         scale="6.6"
         yChannelSelector="G"
         xChannelSelector="R"
         result="fbSourceGraphic" />
      <feColorMatrix
         result="fbSourceGraphicAlpha"
         in="fbSourceGraphic"
         values="0 0 0 -1 0 0 0 0 -1 0 0 0 0 -1 0 0 0 0 1 0"
         id="feColorMatrix4670-7-7-3-9-5" />
      <feFlood
         id="feFlood4672-4-4-5-1-9"
         flood-opacity="1"
         flood-color="rgb(255,255,255)"
         result="flood"
         in="fbSourceGraphic" />
      <feComposite
         id="feComposite4674-8-3-7-2-22"
         in2="fbSourceGraphic"
         in="flood"
         operator="in"
         result="composite1" />
      <feGaussianBlur
         id="feGaussianBlur4676-3-7-08-7-8"
         in="composite1"
         stdDeviation="0"
         result="blur" />
      <feOffset
         id="feOffset4678-6-9-1-0-9"
         dx="-6.3258232761971414"
         dy="6"
         result="offset" />
      <feComposite
         id="feComposite4680-4-0-9-9-7"
         in2="offset"
         in="fbSourceGraphic"
         operator="over"
         result="composite2" />
    </filter>
  </defs>
  <sodipodi:namedview
     pagecolor="#ffffff"
     bordercolor="#666666"
     borderopacity="1"
     objecttolerance="10"
     gridtolerance="10"
     guidetolerance="10"
     inkscape:pageopacity="0"
     inkscape:pageshadow="2"
     inkscape:window-width="1920"
     inkscape:window-height="1043"
     id="namedview4"
     showgrid="false"
     inkscape:zoom="0.52900002"
     inkscape:cx="1294.4418"
     inkscape:cy="1457.8386"
     inkscape:window-x="0"
     inkscape:window-y="0"
     inkscape:window-maximized="1"
     inkscape:current-layer="layer1"
     inkscape:document-rotation="0"
     borderlayer="true"
     inkscape:snap-global="false" />
  <g
     inkscape:groupmode="layer"
     id="layer2"
     inkscape:label="artwork"
     sodipodi:insensitive="true">
    <image
       sodipodi:absref="/home/martin/peppercarrot/webcomics/new-ep34_The-Knighting-of-Shichimi/lang/gfx_Pepper-and-Carrot_by-David-Revoy_E34P04.png"
       xlink:href="../gfx_Pepper-and-Carrot_by-David-Revoy_E34P04.png"
       width="2481"
       height="3503"
       id="image10"
       x="0"
       y="0" />
  </g>
  <g
     inkscape:groupmode="layer"
     id="layer3"
     inkscape:label="speechbubbles"
     style="display:inline">
    <path
       style="color:#000000;display:inline;overflow:visible;visibility:visible;fill:#ffffff;fill-opacity:1;fill-rule:nonzero;stroke:none;stroke-width:0.817022px;marker:none;enable-background:accumulate"
       d="m 942.00596,140.18951 c -28.41127,0.211 -57.39429,4.95609 -83.12012,19.12925 -19.19091,10.86216 -33.51347,31.38351 -39.23952,54.55007 -5.65504,20.15773 -6.20409,42.87106 1.67335,62.39202 8.01786,18.72527 24.03642,31.94083 41.43815,38.04613 36.30202,14.89576 75.16708,20.28572 113.6517,20.64969 30.61068,-0.54015 61.69178,-9.23071 87.25878,-28.62612 12.523,-9.8231 22.2829,-24.39462 26.0612,-41.1365 6.7602,-26.96895 1.5312,-57.18896 -13.1338,-79.74789 -9.5408,-14.33495 -23.3343,-24.94169 -38.6444,-29.86718 -16.5718,-6.06677 -33.8476,-9.15884 -51.02484,-12.16095 -14.88569,-2.21837 -29.90361,-3.32292 -44.9205,-3.22852 z"
       id="path4040-4-5-3-5"
       inkscape:connector-curvature="0"
       sodipodi:nodetypes="zssssz" />
    <path
       style="color:#000000;display:inline;overflow:visible;visibility:visible;fill:#ffffff;fill-opacity:1;fill-rule:nonzero;stroke:none;stroke-width:1.1734px;marker:none;enable-background:accumulate"
       d="m 972.01562,313.60938 c -41.13618,1.49582 -81.6738,9.69036 -121.56557,19.37631 -22.87554,6.53437 -44.03935,18.99028 -60.67969,36.01585 -19.36976,18.86752 -34.4089,43.31635 -38.10561,70.44224 -4.2637,30.65466 5.90371,63.6221 28.74464,84.92666 19.15622,18.19081 45.26077,27.85687 71.3817,29.62775 50.15444,5.02557 100.49739,8.47176 150.91451,8.94174 30.0517,0.29244 60.1405,-0.10575 90.1245,-2.24208 27.5142,-2.98331 54.9341,-9.93626 79.4054,-23.11393 20.4609,-12.67723 32.7351,-36.58676 32.7299,-60.46983 0.5961,-27.44001 -6.5779,-55.15096 -21.3951,-78.34135 -12.2122,-19.20758 -27.0619,-37.30672 -46.2531,-49.90024 -15.8144,-10.50906 -34.3217,-15.85617 -52.5935,-20.29146 -19.5136,-4.45675 -39.0867,-8.79948 -58.9537,-11.37926 -17.809,-2.41024 -35.77821,-3.72547 -53.75438,-3.5924 z"
       id="path4040-4-5-3"
       inkscape:connector-curvature="0"
       sodipodi:nodetypes="zssssz" />
    <path
       style="color:#000000;display:inline;overflow:visible;visibility:visible;fill:#ffffff;fill-opacity:1;fill-rule:nonzero;stroke:none;stroke-width:1px;marker:none;enable-background:accumulate"
       d="m 907.21667,619.60054 c 72.99905,-2.53565 65.7638,-63.19299 71.48587,-78.47444 l 37.78086,7.15422 c 0,0 -26.16471,95.6219 -109.26673,71.32022 z"
       id="path3072-5-5"
       inkscape:connector-curvature="0"
       sodipodi:nodetypes="cccc" />
    <path
       style="display:inline;fill:#ffffff;fill-rule:evenodd;stroke:none;stroke-width:1.408px;stroke-linecap:butt;stroke-linejoin:miter;stroke-opacity:1"
       d="m 1729.4941,1533.8343 c -263.4619,-188.6648 -719.6026,-198.4778 -988.12534,-169.638 l -8.73311,23.8296 c 289.95695,-44.5653 772.14605,6.8513 996.85845,145.8084 z"
       id="path1094"
       inkscape:connector-curvature="0"
       sodipodi:nodetypes="cccc" />
    <path
       style="color:#000000;display:inline;overflow:visible;visibility:visible;fill:#ffffff;fill-opacity:1;fill-rule:nonzero;stroke:none;stroke-width:1.57061px;marker:none;enable-background:accumulate"
       d="m 1198.1159,1260.9728 c -47.0848,-0.4065 -94.7377,5.1328 -138.1751,20.8117 -27.5821,10.0316 -52.8853,25.7772 -70.01217,47.1446 -20.39353,25.251 -26.00514,59.6032 -12.41657,88.6958 13.27261,28.4107 39.21084,51.6899 69.76424,66.8647 25.4036,12.3943 54.4484,17.6424 83.1255,19.665 37.5932,2.9431 75.3901,2.0894 112.8473,-0.8344 19.7116,-1.5427 39.4023,-3.3743 58.9651,-5.8835 30.2533,-4.5373 59.8788,-14.8722 82.7003,-32.7674 21.2249,-16.2343 38.5078,-37.1218 45.7558,-61.1137 6.1206,-21.8162 -0.5202,-46.1088 -17.4013,-63.4973 -25.9805,-29.7322 -62.7665,-52.1411 -103.4128,-64.1062 -35.923,-10.737 -74.0394,-14.6773 -111.7403,-14.9793 z"
       id="path3365-3"
       inkscape:connector-curvature="0"
       sodipodi:nodetypes="cssccc" />
    <path
       style="fill:#ffffff;fill-rule:evenodd;stroke:none;stroke-width:1.09003px;stroke-linecap:butt;stroke-linejoin:miter;stroke-opacity:1"
       d="m 506.33493,1252.2614 c -48.06405,0.5879 -96.19705,-0.1725 -144.18273,2.9118 -26.65579,2.5986 -53.53586,5.241 -79.30152,12.4482 -26.51854,9.2683 -52.06473,22.5702 -71.44024,42.1622 -15.42943,16.3654 -26.35847,36.9928 -28.37589,58.8871 -0.81338,15.8656 5.45396,31.1506 13.2948,44.9403 11.81116,21.1267 29.52611,39.8236 52.19446,51.1417 19.50195,9.8984 41.52152,14.1975 63.24794,17.417 25.0972,3.516 50.47351,4.7715 75.79442,5.9616 75.1541,2.7583 150.38598,-1.5191 225.17317,-8.3305 29.64551,-3.1038 59.46001,-6.8391 87.93937,-15.4375 21.34569,-7.2421 41.31421,-19.7156 53.93709,-37.6377 10.28291,-14.9974 15.96306,-32.2012 21.11679,-49.2021 2.69985,-13.0313 -1.72979,-26.2074 -7.36408,-38.0259 -7.30844,-15.4504 -17.13511,-29.9264 -29.34981,-42.3989 -8.50705,-8.2659 -19.1375,-14.3985 -30.47498,-18.6765 -17.21309,-6.9679 -35.24969,-11.9598 -53.32132,-16.5611 -27.84445,-6.6142 -56.62445,-9.5885 -85.33864,-9.2947 -21.1804,-0.3744 -42.36575,-0.3038 -63.54883,-0.305 z"
       id="path1079"
       inkscape:connector-curvature="0" />
    <path
       id="path5050-5"
       style="color:#000000;display:inline;overflow:visible;visibility:visible;fill:#ffffff;fill-opacity:1;fill-rule:nonzero;stroke:none;stroke-width:1.10542px;marker:none;enable-background:accumulate"
       d="m 1055.3066,2327.9473 c -6.7695,3.1849 -13.5391,6.3698 -20.3086,9.5547 -5.4515,8.7234 -8.4665,18.631 -12.08,28.1855 0.2877,8.9888 4.778,17.1081 7.4112,25.5492 4.8043,13.3509 10.142,27.6669 6.8338,42.0256 -3.4158,16.5674 -11.898,31.5008 -16.4345,47.7397 -0.956,12.8214 5.6959,25.4955 16.2957,32.604 7.6345,5.5383 17.8577,10.6572 22.2668,17.4448 4.4091,6.7876 3.9198,12.9565 3.0275,20.0069 -0.8923,7.0504 -6.8233,13.4216 -10.106,20.1773 -2.5543,5.2297 -6.5724,10.2065 -4.8898,16.3644 0.5485,8.6419 3.5528,16.9498 8.2569,24.18 1.9155,5.167 7.5375,11.5732 1.5157,15.9953 -3.2977,3.3341 -6.6403,6.6236 -10.0035,9.8933 6.6199,-4.2691 13.2848,-8.7213 18.4668,-14.7364 2.2175,-7.1316 -0.2102,-14.5787 -3.3587,-21.0008 -3.3881,-9.4513 -0.8017,-19.8562 4.2602,-28.1901 5.6073,-9.9289 13.8919,-19.3951 13.8982,-31.4245 0.5595,-12.2965 -5.2038,-24.6049 -15.0512,-32.0084 -6.3523,-5.6552 -13.9693,-10.3956 -18.4457,-17.7889 -5.2096,-11.3685 -1.3783,-24.1347 3.0069,-35.0894 5.3982,-14.2627 13.5704,-28.4586 12.1858,-44.2358 -1.3898,-17.7099 -13.4465,-33.5966 -10.8255,-51.7808 1.5634,-10.2967 5.5548,-20.0386 7.2382,-30.3113 -0.044,-1.6098 -1.4268,-3.3809 -3.1602,-3.1543 z"
       sodipodi:nodetypes="ccccccczzcccccccccccccccc" />
    <path
       id="path1086-2"
       style="display:inline;fill:#ffffff;fill-rule:evenodd;stroke:none;stroke-width:1.75651px;stroke-linecap:butt;stroke-linejoin:miter;stroke-opacity:1"
       d="m 967.74937,2362.244 c -22.95414,2.072 -44.85862,11.2864 -68.19582,10.1905 -16.84394,-0.046 -34.72882,-3.2616 -50.49681,4.1788 -12.26294,5.7666 -25.15922,12.7516 -32.17017,24.4734 -7.69487,14.5227 -10.32475,33.1117 -0.79614,47.4824 12.91312,19.6335 36.54841,32.5447 60.82255,32.4581 20.60398,0.1222 41.22568,2.0994 61.20336,7.0853 15.93554,3.5903 32.72314,5.4007 48.73966,1.128 15.5281,-3.5641 31.5301,-7.7909 47.584,-4.9333 20.2296,2.8709 40.4353,8.7921 61.0804,5.9357 25.4366,-2.8639 50.2639,-12.2598 76.2078,-9.4962 15.309,1.1364 32.1561,2.2363 45.3444,-6.8501 21.5934,-13.656 29.9521,-43.783 18.1466,-65.8698 -9.0614,-13.4201 -25.4792,-19.8261 -40.6894,-24.6114 -23.0298,-6.8718 -47.8987,-1.9296 -70.8322,-9.3646 -14.2597,-4.261 -28.9806,-8.1533 -44.0728,-6.9259 -26.9333,1.1429 -54.3251,6.2281 -80.9432,-0.3296 -10.19545,-2.1008 -20.44285,-4.5119 -30.93225,-4.5513 z" />
    <path
       id="path1086"
       style="display:inline;fill:#ffffff;fill-rule:evenodd;stroke:none;stroke-width:1.02661px;stroke-linecap:butt;stroke-linejoin:miter;stroke-opacity:1"
       d="m 947.5139,2287.7817 c 9.1634,-13.0131 24.49042,-20.4085 39.63051,-25.1206 15.63989,-4.8304 32.08759,-6.7484 48.46839,-6.9132 15.1455,-0.3452 30.809,-1.505 45.4036,3.2629 7.0568,2.5751 13.5615,6.3476 20.1602,9.8373 8.8134,5.0191 18.0136,11.2049 21.5394,20.9226 2.2994,6.2472 0.5668,12.8861 0.5897,19.3176 -0.4177,9.8612 -0.9596,20.7155 -7.9661,28.5913 -6.7858,8.1476 -17.5947,11.2975 -27.547,14.2544 -16.4415,4.4306 -33.3138,7.4298 -50.3016,9.0531 -10.9382,1.0974 -22.1225,2.1776 -32.9661,-0.2271 -13.00409,-2.6873 -24.68891,-9.3127 -35.51825,-16.513 -8.72336,-6.1764 -17.37614,-13.394 -21.67147,-23.2141 -2.57442,-7.1043 -2.07002,-14.833 -1.51995,-22.2214 0.36913,-3.7008 0.90741,-7.3899 1.69867,-11.0298 z" />
    <path
       style="color:#000000;display:inline;overflow:visible;visibility:visible;fill:#ffffff;fill-opacity:1;fill-rule:nonzero;stroke:none;stroke-width:1.00142px;marker:none;enable-background:accumulate"
       d="m 1551.4802,2844.6354 c -29.2718,23.6335 -49.9774,61.4772 -38.0228,102.9845 11.9549,41.5072 -6.8025,41.4052 -6.8025,41.4052 l -37.425,-15.5296 c 0,0 -6.4717,-90.5725 82.2503,-128.8601 z"
       id="path3072-6"
       inkscape:connector-curvature="0"
       sodipodi:nodetypes="csccc" />
    <path
       style="display:inline;fill:#ffffff;stroke:none;stroke-width:0.76903"
       d="m 1479.6405,3073.9932 c -43.6925,0.8465 -87.6938,10.7042 -124.7637,31.2547 -29.0969,16.7488 -51.2898,43.2844 -58.1038,73.3156 -4.0406,19.6687 0.1822,39.6523 4.7895,58.9434 5.9812,24.5628 12.8832,45.2964 34.4895,66.3958 16.6781,13.2531 35.8663,18.4943 57.9012,23.1997 23.2302,4.2947 52.0452,7.2597 76.7575,7.6804 40.8059,1.4504 81.662,0.6618 122.4675,-0.3562 34.7608,-1.4397 69.9972,-5.3895 102.3072,-17.2386 33.4513,-12.4491 62.4859,-35.0047 78.0338,-63.9052 14.2613,-26.6043 16.4742,-58.417 3.807,-85.8203 -11.1324,-22.9661 -32.3377,-41.1685 -56.149,-54.4182 -23.1585,-12.8756 -49.6281,-20.5678 -76.5104,-24.9178 -29.6624,-5.1345 -59.739,-8.1093 -89.7466,-11.2172 -25.0064,-2.178 -50.1505,-3.1422 -75.2797,-2.9161 z"
       id="path3280-5"
       inkscape:connector-curvature="0"
       sodipodi:nodetypes="csssccccccccccc" />
    <path
       style="fill:#ffffff;stroke:none;stroke-width:0.474903"
       d="m 1461.4846,2953.7552 c -25.9687,0.633 -52.3735,3.7032 -76.7027,13.9642 -13.6803,5.798 -27.1481,13.0877 -37.815,23.9528 -6.6476,6.773 -11.6982,15.2426 -14.2784,24.549 -3.6597,12.6449 -3.8962,26.2476 -1.277,39.0708 2.1286,9.4931 7.3905,18.4033 15.3984,23.6259 10.7389,7.6321 23.364,11.6508 35.8122,15.1757 25.1016,6.2355 51.1315,5.9742 76.8211,6.4885 29.4733,0.4309 59.0293,0.7796 88.4281,-2.3138 17.0422,-1.8784 34.4614,-3.6385 50.4618,-10.6108 10.0949,-4.4913 19.1189,-12.0982 24.4397,-22.2255 10.1028,-18.5058 9.09,-43.3427 -3.7441,-59.9401 -10.4112,-13.69 -25.4102,-22.4891 -40.6278,-29.2278 -27.1512,-12.2593 -56.3454,-19.5362 -85.9231,-21.7936 -10.3051,-0.8261 -20.6537,-0.9812 -30.9932,-0.7153 z"
       id="path3280-8-0"
       inkscape:connector-curvature="0"
       sodipodi:nodetypes="csssc" />
  </g>
  <g
     inkscape:groupmode="layer"
     id="layer1"
     inkscape:label="txt">
    <text
       xml:space="preserve"
       style="font-style:normal;font-variant:normal;font-weight:normal;font-stretch:normal;font-size:45px;line-height:1.25;font-family:Lavi;-inkscape-font-specification:Lavi;text-align:center;letter-spacing:0px;word-spacing:0px;text-anchor:middle;fill:#000000;fill-opacity:1;stroke:none"
       x="950.25317"
       y="220.14207"
       id="text4246-3-2-2-6-3-7-9-3"><tspan
         style="font-size:45px"
         sodipodi:role="line"
         x="950.25317"
         y="220.14207"
         id="tspan850">Ja, Eure</tspan><tspan
         style="font-size:45px"
         sodipodi:role="line"
         x="950.25317"
         y="276.39209"
         id="tspan68">Hoheit.</tspan></text>
    <text
       xml:space="preserve"
       style="font-style:normal;font-variant:normal;font-weight:normal;font-stretch:normal;font-size:45px;line-height:1.25;font-family:Lavi;-inkscape-font-specification:Lavi;text-align:center;letter-spacing:0px;word-spacing:0px;text-anchor:middle;fill:#000000;fill-opacity:1;stroke:none"
       x="979.35199"
       y="398.5528"
       id="text4246-3-2-2-6-3-7-9-3-3"><tspan
         style="font-size:45px"
         sodipodi:role="line"
         x="979.35199"
         y="398.5528"
         id="tspan896">Ihr Name ist</tspan><tspan
         style="font-size:45px"
         sodipodi:role="line"
         x="979.35199"
         y="454.8028"
         id="tspan75">Pepper, von der</tspan><tspan
         style="font-size:45px"
         sodipodi:role="line"
         x="979.35199"
         y="511.0528"
         id="tspan77">Chaosah-Schule.</tspan></text>
    <text
       xml:space="preserve"
       style="font-style:normal;font-variant:normal;font-weight:normal;font-stretch:normal;font-size:45px;line-height:1.25;font-family:Lavi;-inkscape-font-specification:Lavi;text-align:center;letter-spacing:0px;word-spacing:0px;text-anchor:middle;fill:#000000;fill-opacity:1;stroke:none"
       x="471.10992"
       y="1326.5137"
       id="text4246-3-2-2-6-3-7-9-3-3-3"><tspan
         style="font-size:45px"
         sodipodi:role="line"
         x="471.10992"
         y="1326.5137"
         id="tspan909">Ihre Anwesenheit</tspan><tspan
         style="font-size:45px"
         sodipodi:role="line"
         x="471.10992"
         y="1382.7637"
         id="tspan84">besudelt die Heiligkeit</tspan><tspan
         style="font-size:45px"
         sodipodi:role="line"
         x="471.10992"
         y="1439.0137"
         id="tspan86">unserer Schule.</tspan></text>
    <text
       xml:space="preserve"
       style="font-style:normal;font-variant:normal;font-weight:normal;font-stretch:normal;font-size:45px;line-height:1.25;font-family:Lavi;-inkscape-font-specification:Lavi;text-align:center;letter-spacing:0px;word-spacing:0px;text-anchor:middle;fill:#000000;fill-opacity:1;stroke:none"
       x="1203.2137"
       y="1341.422"
       id="text4246-3-2-2-6-3-7-9-3-3-3-9"><tspan
         style="font-size:45px"
         sodipodi:role="line"
         x="1203.2137"
         y="1341.422"
         id="tspan93">Schafft sie mir </tspan><tspan
         style="font-size:45px"
         sodipodi:role="line"
         x="1203.2137"
         y="1397.672"
         id="tspan76">aus meinem</tspan><tspan
         style="font-size:45px"
         sodipodi:role="line"
         x="1203.2137"
         y="1453.922"
         id="tspan73">Blickfeld, sofort.</tspan></text>
    <text
       xml:space="preserve"
       style="font-style:normal;font-variant:normal;font-weight:normal;font-stretch:normal;font-size:45px;line-height:1.25;font-family:Lavi;-inkscape-font-specification:Lavi;text-align:center;letter-spacing:0px;word-spacing:0px;text-anchor:middle;fill:#000000;fill-opacity:1;stroke:none"
       x="1041.905"
       y="2320.762"
       id="text4246-3-2-2-6-3-7-9-3-3-3-9-0-0"><tspan
         style="font-size:45px"
         sodipodi:role="line"
         x="1041.905"
         y="2320.762"
         id="tspan1031-6-6">Aber...</tspan></text>
    <text
       xml:space="preserve"
       style="font-style:normal;font-variant:normal;font-weight:normal;font-stretch:normal;font-size:45px;line-height:1.25;font-family:Lavi;-inkscape-font-specification:Lavi;text-align:center;letter-spacing:0px;word-spacing:0px;text-anchor:middle;fill:#000000;fill-opacity:1;stroke:none"
       x="1028.5508"
       y="2444.2068"
       id="text4246-3-2-2-6-3-7-9-3-3-3-9-0"><tspan
         style="font-size:45px"
         sodipodi:role="line"
         x="1028.5508"
         y="2444.2068"
         id="tspan1031-6">Meisterin Wasabi...</tspan></text>
    <text
       xml:space="preserve"
       style="font-style:normal;font-variant:normal;font-weight:normal;font-stretch:normal;font-size:45px;line-height:1.25;font-family:Lavi;-inkscape-font-specification:Lavi;text-align:center;letter-spacing:0px;word-spacing:0px;text-anchor:middle;fill:#000000;fill-opacity:1;stroke:none"
       x="1478.4738"
       y="3045.5544"
       id="text4246-3-2-2-6-3-7-9-3-3-3-9-0-6"><tspan
         style="font-size:45px"
         sodipodi:role="line"
         x="1478.4738"
         y="3045.5544"
         id="tspan1199">Aber <tspan
   style="font-style:italic;font-variant:normal;font-weight:normal;font-stretch:normal;font-family:Lavi;-inkscape-font-specification:'Lavi Italic'"
   id="tspan922">was</tspan>?</tspan></text>
    <text
       xml:space="preserve"
       style="font-style:normal;font-variant:normal;font-weight:normal;font-stretch:normal;font-size:45px;line-height:1.25;font-family:Lavi;-inkscape-font-specification:Lavi;text-align:center;letter-spacing:0px;word-spacing:0px;text-anchor:middle;fill:#000000;fill-opacity:1;stroke:none"
       x="1533.4318"
       y="3166.6812"
       id="text4246-3-2-2-6-3-7-9-3-3-3-9-0-6-8"><tspan
         style="font-size:45px"
         sodipodi:role="line"
         x="1533.4318"
         y="3166.6812"
         id="tspan1233">Würdest du lieber</tspan><tspan
         style="font-size:45px"
         sodipodi:role="line"
         x="1533.4318"
         y="3222.9312"
         id="tspan102">von unserer Schule</tspan><tspan
         style="font-size:45px"
         sodipodi:role="line"
         x="1533.4318"
         y="3279.1812"
         id="tspan104">verstossen werden?</tspan></text>
    <text
       xml:space="preserve"
       style="font-style:normal;font-variant:normal;font-weight:normal;font-stretch:normal;font-size:105.817px;line-height:1.25;font-family:Lavi;-inkscape-font-specification:Lavi;letter-spacing:0px;word-spacing:0px;fill:#000000;fill-opacity:1;stroke:#030303;stroke-width:0.716208;stroke-miterlimit:4;stroke-dasharray:none;stroke-opacity:1;filter:url(#filter4375-4-1-1-1-9-5-8-8-5-5-3-8)"
       x="787.65729"
       y="1584.5073"
       id="text4580-6-0-0-0-9-3-36"
       transform="matrix(0.78722097,-0.19942868,-0.30990333,0.91892591,1994.5561,1995.3356)"><tspan
         style="font-size:195.17px;fill:#000000;fill-opacity:1;stroke:#030303;stroke-width:0.716208;stroke-miterlimit:4;stroke-dasharray:none;stroke-opacity:1"
         sodipodi:role="line"
         id="tspan876-6-1"
         x="787.65729"
         y="1584.5073">!<tspan
   style="font-size:173.821px;fill:#000000;stroke:#030303;stroke-opacity:1"
   id="tspan1317">!</tspan><tspan
   id="tspan1322"
   style="font-size:152.472px;fill:#000000;stroke:#030303;stroke-opacity:1">!</tspan></tspan></text>
  </g>
</svg>
