<?xml version="1.0" encoding="UTF-8" standalone="no"?>
<svg
   xmlns:dc="http://purl.org/dc/elements/1.1/"
   xmlns:cc="http://creativecommons.org/ns#"
   xmlns:rdf="http://www.w3.org/1999/02/22-rdf-syntax-ns#"
   xmlns:svg="http://www.w3.org/2000/svg"
   xmlns="http://www.w3.org/2000/svg"
   xmlns:xlink="http://www.w3.org/1999/xlink"
   xmlns:sodipodi="http://sodipodi.sourceforge.net/DTD/sodipodi-0.dtd"
   xmlns:inkscape="http://www.inkscape.org/namespaces/inkscape"
   id="svg2"
   version="1.1"
   inkscape:version="1.0.2-2 (e86c870879, 2021-01-15)"
   width="2481"
   height="3503"
   sodipodi:docname="E35P07.svg">
  <metadata
     id="metadata8">
    <rdf:RDF>
      <cc:Work
         rdf:about="">
        <dc:format>image/svg+xml</dc:format>
        <dc:type
           rdf:resource="http://purl.org/dc/dcmitype/StillImage" />
        <dc:title />
      </cc:Work>
    </rdf:RDF>
  </metadata>
  <defs
     id="defs6">
    <filter
       style="color-interpolation-filters:sRGB"
       id="filter4375-4-1-1-1-9-5-8-8-5-5-3-8"
       inkscape:label="soundFX1"
       x="-0.044353127"
       y="-0.0023842071"
       width="1.0467294"
       height="1.0447156">
      <feFlood
         id="feFlood4377-7-9-0-8-1-7-3-1-2-7-6-7"
         flood-opacity="1"
         flood-color="rgb(255,255,255)"
         result="flood" />
      <feComposite
         id="feComposite4379-3-8-8-2-77-4-1-0-6-4-7-9"
         in2="SourceGraphic"
         in="flood"
         operator="in"
         result="composite1"
         baseFrequency="0.053999999999999999 0.053999999999999999" />
      <feMorphology
         id="feMorphology4393-1-0-49-8-9-3-0-1-9-9-5-2"
         operator="dilate"
         radius="2.9756367599225957"
         result="result3" />
      <feComposite
         id="feComposite4385-9-5-7-0-8-8-7-5-4-9-3-0"
         in2="result3"
         in="SourceGraphic"
         operator="over"
         result="fbSourceGraphic" />
      <feColorMatrix
         result="fbSourceGraphicAlpha"
         in="fbSourceGraphic"
         values="0 0 0 -1 0 0 0 0 -1 0 0 0 0 -1 0 0 0 0 1 0"
         id="feColorMatrix4544-9-4-4-5-2" />
      <feTurbulence
         id="feTurbulence4546-3-6-5-6-3"
         type="fractalNoise"
         numOctaves="5"
         seed="174"
         baseFrequency="0.053999999999999999 0.054054054054054057"
         result="turbulence" />
      <feDisplacementMap
         id="feDisplacementMap4548-8-0-9-2-7"
         in2="turbulence"
         in="fbSourceGraphic"
         scale="6.6"
         yChannelSelector="G"
         xChannelSelector="R"
         result="fbSourceGraphic" />
      <feColorMatrix
         result="fbSourceGraphicAlpha"
         in="fbSourceGraphic"
         values="0 0 0 -1 0 0 0 0 -1 0 0 0 0 -1 0 0 0 0 1 0"
         id="feColorMatrix4670-7-7-3-9-5" />
      <feFlood
         id="feFlood4672-4-4-5-1-9"
         flood-opacity="1"
         flood-color="rgb(255,255,255)"
         result="flood"
         in="fbSourceGraphic" />
      <feComposite
         id="feComposite4674-8-3-7-2-22"
         in2="fbSourceGraphic"
         in="flood"
         operator="in"
         result="composite1" />
      <feGaussianBlur
         id="feGaussianBlur4676-3-7-08-7-8"
         in="composite1"
         stdDeviation="0"
         result="blur" />
      <feOffset
         id="feOffset4678-6-9-1-0-9"
         dx="-6.3258232761971414"
         dy="6"
         result="offset" />
      <feComposite
         id="feComposite4680-4-0-9-9-7"
         in2="offset"
         in="fbSourceGraphic"
         operator="over"
         result="composite2" />
    </filter>
  </defs>
  <sodipodi:namedview
     pagecolor="#ffffff"
     bordercolor="#666666"
     borderopacity="1"
     objecttolerance="10"
     gridtolerance="10"
     guidetolerance="10"
     inkscape:pageopacity="0"
     inkscape:pageshadow="2"
     inkscape:window-width="2560"
     inkscape:window-height="1390"
     id="namedview4"
     showgrid="false"
     inkscape:zoom="0.32711619"
     inkscape:cx="1379.4192"
     inkscape:cy="2398.8294"
     inkscape:window-x="0"
     inkscape:window-y="24"
     inkscape:window-maximized="1"
     inkscape:current-layer="layer3"
     inkscape:document-rotation="0"
     inkscape:snap-global="false"
     inkscape:pagecheckerboard="0" />
  <g
     inkscape:groupmode="layer"
     id="layer2"
     inkscape:label="artwork"
     sodipodi:insensitive="true">
    <image
       sodipodi:absref="C:\Users\stero\Documents\Kernewek\Pepper and Carrot\webcomics\ep35_The-Reflection\lang\gfx_Pepper-and-Carrot_by-David-Revoy_E35P07.png"
       xlink:href="../gfx_Pepper-and-Carrot_by-David-Revoy_E35P07.png"
       y="0"
       x="0"
       id="image10"
       height="3503"
       width="2481" />
  </g>
  <g
     inkscape:groupmode="layer"
     id="layer3"
     inkscape:label="speechbubbles">
    <path
       style="fill:#ffffff;stroke:none;stroke-width:1.04404"
       d="M 1995.7988 260.05078 C 1964.8346 260.68883 1933.4501 271.39102 1910.6133 292.73828 C 1888.6705 313.52792 1875.0946 341.75982 1867.9607 370.82996 C 1863.1314 390.04456 1860.5327 410.65588 1866.2429 429.98279 C 1873.1158 452.45457 1890.1535 470.66452 1910.1292 482.41553 C 1939.7119 500.17313 1974.8788 506.73328 2009.0641 505.6364 C 2044.8756 504.7705 2080.9843 501.72957 2115.5211 491.72609 C 2133.2854 485.94833 2150.5115 475.62925 2160.4501 459.36364 C 2169.7522 444.241 2172.0749 425.91436 2170.8756 408.47888 C 2169.8345 379.11925 2161.0415 350.15566 2145.8673 325.01991 C 2134.923 306.49222 2121.3087 288.66745 2102.579 277.46552 C 2086.4303 267.59598 2067.3769 264.4517 2048.8552 262.48287 C 2031.2503 260.46136 2013.5062 260.00006 1995.7988 260.05078 z "
       id="path3280-8"
       inkscape:connector-curvature="0"
       sodipodi:nodetypes="csssc" />
    <path
       style="fill:#ffffff;fill-rule:evenodd;stroke:none;stroke-width:0.934796px;stroke-linecap:butt;stroke-linejoin:miter;stroke-opacity:1"
       d="m 1937.2471,432.07438 c -6.2176,11.12141 -85.6078,33.31577 -108.1931,83.17757 30.1276,-36.25015 118.0705,-48.01797 132.9745,-62.07815 51.3058,-16.19189 -3.5494,-23.72277 -24.7814,-21.09942 z"
       id="path4186"
       inkscape:connector-curvature="0"
       sodipodi:nodetypes="cccc" />
    <path
       style="fill:#ffffff;fill-rule:evenodd;stroke:none;stroke-width:1px;stroke-linecap:butt;stroke-linejoin:miter;stroke-opacity:1"
       d="m 1557.7613,1692.8906 134.1326,-31.6108 -24.0947,-23.8017 91.2177,-24.1969 -16.3502,-24.7111 -106.501,38.013 26.5589,28.0558 z"
       id="path4667"
       inkscape:connector-curvature="0" />
    <path
       style="color:#000000;display:inline;overflow:visible;visibility:visible;fill:#ffffff;fill-opacity:1;fill-rule:nonzero;stroke:none;stroke-width:1.09201px;marker:none;enable-background:accumulate"
       d="m 391.5769,3178.4134 c -7.23811,17.4769 -52.05781,9.6623 -67.0863,5.6834 30.29393,20.5433 29.23779,32.7936 -11.89282,33.636 66.66118,31.3707 16.76424,31.9036 -4.37526,27.1516 34.17899,16.6254 36.20827,31.8113 1.44476,39.4635 62.25111,2.1313 47.18102,14.2771 23.61283,31.7064 27.56221,-11.0975 70.07971,-18.4908 71.58827,12.4256 39.93547,-25.9418 60.54023,-24.8837 74.98161,5.9914 12.06307,-25.9901 53.13847,-29.9902 68.84482,-1.2189 13.53004,-38.039 61.80672,-31.3865 90.54409,-12.0388 -16.13182,-13.5474 -5.1314,-34.8837 49.86772,-29.0898 -4.42692,-12.1509 2.53485,-27.1628 30.3088,-24.4389 -31.99215,-8.0971 -37.88812,-15.7495 21.51402,-22.2847 -45.20156,-1.9481 -87.35236,-4.6373 -34.32109,-30.7896 -16.63734,-1.096 -58.67096,28.7599 -40.26671,-37.9732 -48.72724,18.5584 -97.37037,19.4554 -94.85121,-22.1075 -18.11546,22.0482 -49.53633,32.3778 -63.20604,3.9001 -11.28433,25.9805 -45.55915,14.0934 -63.36432,-4.2986 -11.76476,17.4911 -19.50089,49.4383 -53.34317,24.282 z"
       id="path3549-3-7-8"
       inkscape:connector-curvature="0"
       sodipodi:nodetypes="ccccccccccccccccccc" />
    <path
       style="color:#000000;display:inline;overflow:visible;visibility:visible;fill:#ffffff;fill-opacity:1;fill-rule:nonzero;stroke:none;stroke-width:1.27602px;marker:none;enable-background:accumulate"
       d="m 372.28554,2969.7831 c 57.81428,50.7108 -58.21301,33.0728 -80.46837,26.0811 58.16835,17.8476 45.12664,47.5868 -15.16858,56.9159 104.10084,48.8412 22.45581,65.106 1.90282,65.8203 69.07724,20.5789 53.95159,36.3511 41.65342,61.8465 135.06712,-29.1643 40.8545,50.1761 40.98054,84.1317 6.73098,-15.2734 110.12621,-159.0915 40.63209,-9.9989 52.51681,-49.3947 115.77193,-81.3012 120.79458,5.1398 21.1599,-43.4863 42.25629,-61.865 40.63209,-9.9989 52.42759,-67.4585 128.46898,-49.6893 175.86166,-30.6231 -61.53403,-51.2229 -24.03355,-47.4074 44.32949,-33.1552 -79.53894,-35.1252 -72.78535,-51.1629 19.56783,-46.9333 -40.80403,-12.1907 -48.32409,-24.7654 27.43985,-38.2975 -58.22459,-2.2063 -122.17279,-20.8538 -43.77448,-50.139 -29.52693,2.5693 -139.91405,-3.5591 -48.09304,-75.3017 -72.06504,26.998 -146.25093,37.9129 -124.24175,-19.5833 -61.43192,34.9182 -67.87394,56.0893 -80.6154,9.2785 -21.72792,40.6253 -49.94883,15.4625 -80.81732,-4.4614 22.46202,31.7634 -27.71113,50.4916 -80.61543,9.2785 z"
       id="path3549-3-7"
       inkscape:connector-curvature="0"
       sodipodi:nodetypes="ccccccccccccccccccc" />
    <path
       style="fill:#ffffff;fill-rule:evenodd;stroke:none;stroke-width:1.61403px;stroke-linecap:butt;stroke-linejoin:miter;stroke-opacity:1"
       d="m 559.65143,2966.4499 c 7.81388,-49.8207 8.23157,-62.9667 6.02019,-75.0728 -2.2114,-12.106 -16.03862,-8.1385 -26.02653,-3.643 -6.53887,2.9161 -28.34548,24.9309 -13.34891,-11.2886 14.99673,-36.2194 33.04009,-86.6247 37.65555,-102.5126 -15.5946,27.8024 -42.45502,71.0937 -50.25242,84.9947 -7.79723,13.9012 -19.54665,39.459 -22.39666,47.151 -3.46707,9.3577 -1.1372,19.0591 14.63013,17.8664 24.66487,-3.6362 41.86312,-37.8298 13.23772,21.5203 -28.62567,59.3501 4.95095,150.5651 4.95095,150.5651 z"
       id="path1089"
       inkscape:connector-curvature="0"
       sodipodi:nodetypes="csccccscccc" />
    <path
       style="color:#000000;display:inline;overflow:visible;visibility:visible;fill:#ffffff;fill-opacity:1;fill-rule:nonzero;stroke:none;stroke-width:1.24697px;marker:none;enable-background:accumulate"
       d="m 1780.8968,1475.4618 c -3.0711,39.3562 -61.2597,13.8841 -88.8919,3.8653 32.9345,22.1753 57.935,51.777 -14.6428,49.9172 81.5016,39.3017 27.0158,37.3789 13.8791,47.3439 63.9938,13.5445 45.6023,30.8892 4.5266,40.3253 73.5545,0.5764 55.7481,14.4096 27.9003,34.3158 32.5671,-13.0326 82.8048,-22.4042 84.5873,11.6703 47.1869,-29.767 71.5331,-29.1872 88.5967,4.4729 14.2535,-29.0252 62.7873,-34.6113 81.3456,-3.3088 15.9869,-42.3636 73.0296,-36.3993 106.985,-15.8681 -19.061,-14.49 -6.063,-38.3493 58.9229,-33.5242 -5.2308,-13.2829 2.9951,-30.0478 35.8122,-27.834 -37.8014,-8.0229 -44.7678,-16.2995 25.4205,-25.2057 -53.4092,-0.8606 -103.2138,-2.626 -40.5531,-32.9988 -19.6583,-0.7349 -66.3001,24.609 -44.5539,-49.5587 -57.5751,21.8696 -118.0752,33.0497 -115.0987,-12.8888 -21.4049,24.8479 -58.5311,37.1432 -74.6829,6.1069 -13.3335,28.9924 -53.8319,16.8521 -74.8701,-2.9362 -13.9009,19.6377 -34.6955,32.9013 -74.6828,6.1057 z"
       id="path3549-3-7-8-6"
       inkscape:connector-curvature="0"
       sodipodi:nodetypes="ccccccccccccccccccc" />
  </g>
  <g
     inkscape:groupmode="layer"
     id="layer1"
     inkscape:label="txt">
    <text
       xml:space="preserve"
       style="font-style:normal;font-variant:normal;font-weight:normal;font-stretch:normal;font-size:45px;line-height:1.25;font-family:Lavi;-inkscape-font-specification:Lavi;text-align:center;letter-spacing:0px;word-spacing:0px;text-anchor:middle;fill:#000000;fill-opacity:1;stroke:none"
       x="2020.3785"
       y="336.14099"
       id="text4246-3-2-2"><tspan
         style="font-size:45px"
         sodipodi:role="line"
         x="2020.3785"
         y="336.14099"
         id="tspan886">Splann!</tspan><tspan
         style="font-size:45px"
         sodipodi:role="line"
         x="2020.3785"
         y="392.39099"
         id="tspan52">Ymons war</tspan><tspan
         style="font-size:45px"
         sodipodi:role="line"
         x="2020.3785"
         y="448.64099"
         id="tspan54">agan lergh!</tspan></text>
    <text
       xml:space="preserve"
       style="font-style:normal;font-variant:normal;font-weight:normal;font-stretch:normal;font-size:45px;line-height:1.25;font-family:Lavi;-inkscape-font-specification:Lavi;text-align:center;letter-spacing:0px;word-spacing:0px;text-anchor:middle;fill:#000000;fill-opacity:1;stroke:none"
       x="1927.5864"
       y="1551.5004"
       id="text4246-3-2-2-3"><tspan
         style="font-size:45px"
         sodipodi:role="line"
         x="1927.5864"
         y="1551.5004"
         id="tspan922">Ni a vydh delivrys</tspan><tspan
         style="font-size:45px"
         sodipodi:role="line"
         x="1927.5864"
         y="1607.7504"
         id="tspan58">dhe wari yn skon.</tspan></text>
    <text
       xml:space="preserve"
       style="font-style:normal;font-variant:normal;font-weight:normal;font-stretch:normal;font-size:50.2786px;line-height:1.25;font-family:Lavi;-inkscape-font-specification:Lavi;text-align:center;letter-spacing:0px;word-spacing:0px;text-anchor:middle;fill:#000000;fill-opacity:1;stroke:none;stroke-width:1.1173"
       x="531.13611"
       y="3067.8477"
       id="text4246-3-2-2-3-3"><tspan
         style="font-style:normal;font-variant:normal;font-weight:bold;font-stretch:normal;font-size:50.2786px;font-family:Lavi;-inkscape-font-specification:'Lavi Bold';stroke-width:1.1173"
         sodipodi:role="line"
         x="531.13611"
         y="3067.8477"
         id="tspan896">Ny allav gortos</tspan><tspan
         style="font-style:normal;font-variant:normal;font-weight:bold;font-stretch:normal;font-size:50.2786px;font-family:Lavi;-inkscape-font-specification:'Lavi Bold';stroke-width:1.1173"
         sodipodi:role="line"
         x="531.13611"
         y="3130.6958"
         id="tspan62">dh'y weles!</tspan></text>
    <text
       xml:space="preserve"
       style="font-style:normal;font-variant:normal;font-weight:normal;font-stretch:normal;font-size:57.3248px;line-height:1.25;font-family:Lavi;-inkscape-font-specification:Lavi;text-align:center;letter-spacing:0px;word-spacing:0px;text-anchor:middle;fill:#000000;fill-opacity:1;stroke:none;stroke-width:1.27388"
       x="517.26379"
       y="3258.7009"
       id="text4246-3-2-2-3-3-3"><tspan
         style="font-style:normal;font-variant:normal;font-weight:bold;font-stretch:normal;font-size:57.3248px;font-family:Lavi;-inkscape-font-specification:'Lavi Bold';stroke-width:1.27388"
         sodipodi:role="line"
         x="517.26379"
         y="3258.7009"
         id="tspan1015">Mwahaha!</tspan></text>
    <text
       xml:space="preserve"
       style="font-style:normal;font-variant:normal;font-weight:normal;font-stretch:normal;font-size:105.817px;line-height:1.25;font-family:Lavi;-inkscape-font-specification:Lavi;letter-spacing:0px;word-spacing:0px;fill:#000000;fill-opacity:1;stroke:#030303;stroke-width:0.716208;stroke-miterlimit:4;stroke-dasharray:none;stroke-opacity:1;filter:url(#filter4375-4-1-1-1-9-5-8-8-5-5-3-8)"
       x="787.65729"
       y="1584.5073"
       id="text4580-6-0-0-0-9-3-36"
       transform="matrix(1.0545214,-0.26714456,-0.41513081,1.2309466,1890.7199,857.1408)"><tspan
         style="font-size:195.17px;fill:#000000;fill-opacity:1;stroke:#030303;stroke-width:0.716208;stroke-miterlimit:4;stroke-dasharray:none;stroke-opacity:1"
         sodipodi:role="line"
         id="tspan876-6-1"
         x="787.65729"
         y="1584.5073">!<tspan
   style="font-size:173.821px;fill:#000000;stroke:#030303;stroke-opacity:1"
   id="tspan1317">!</tspan><tspan
   id="tspan1322"
   style="font-size:152.472px;fill:#000000;stroke:#030303;stroke-opacity:1">!</tspan></tspan></text>
  </g>
</svg>
