<?xml version="1.0" encoding="UTF-8" standalone="no"?>
<!-- Created with Inkscape (http://www.inkscape.org/) -->

<svg
   xmlns:dc="http://purl.org/dc/elements/1.1/"
   xmlns:cc="http://creativecommons.org/ns#"
   xmlns:rdf="http://www.w3.org/1999/02/22-rdf-syntax-ns#"
   xmlns:svg="http://www.w3.org/2000/svg"
   xmlns="http://www.w3.org/2000/svg"
   xmlns:xlink="http://www.w3.org/1999/xlink"
   xmlns:sodipodi="http://sodipodi.sourceforge.net/DTD/sodipodi-0.dtd"
   xmlns:inkscape="http://www.inkscape.org/namespaces/inkscape"
   id="svg2"
   version="1.1"
   inkscape:version="0.91 r"
   width="2481"
   height="900"
   sodipodi:docname="Pepper-and-Carrot_by-David-Revoy_E02P06.svg">
  <metadata
     id="metadata8">
    <rdf:RDF>
      <cc:Work
         rdf:about="">
        <dc:format>image/svg+xml</dc:format>
        <dc:type
           rdf:resource="http://purl.org/dc/dcmitype/StillImage" />
        <dc:title />
      </cc:Work>
    </rdf:RDF>
  </metadata>
  <defs
     id="defs6" />
  <sodipodi:namedview
     pagecolor="#ffffff"
     bordercolor="#666666"
     borderopacity="1"
     objecttolerance="10"
     gridtolerance="10"
     guidetolerance="10"
     inkscape:pageopacity="0"
     inkscape:pageshadow="2"
     inkscape:window-width="1381"
     inkscape:window-height="876"
     id="namedview4"
     showgrid="false"
     inkscape:zoom="0.44771263"
     inkscape:cx="1136.9385"
     inkscape:cy="537.34337"
     inkscape:window-x="59"
     inkscape:window-y="24"
     inkscape:window-maximized="1"
     inkscape:current-layer="layer1" />
  <g
     inkscape:groupmode="layer"
     id="layer2"
     inkscape:label="artwork"
     sodipodi:insensitive="true">
    <image
       sodipodi:absref="/home/deevad/peppercarrot/webcomics/New/lang/br/../gfx_Pepper-and-Carrot_by-David-Revoy_E02P06.png"
       xlink:href="../gfx_Pepper-and-Carrot_by-David-Revoy_E02P06.png"
       y="0"
       x="-1.6728083e-06"
       id="image10"
       height="900"
       width="2481" />
  </g>
  <g
     inkscape:groupmode="layer"
     id="layer1"
     inkscape:label="text">
    <flowRoot
       xml:space="preserve"
       id="flowRoot3574"
       style="font-style:normal;font-variant:normal;font-weight:normal;font-stretch:normal;font-size:12px;line-height:125%;font-family:Arial;-inkscape-font-specification:Arial;text-align:center;letter-spacing:0px;word-spacing:0px;text-anchor:middle;fill:#485a48;fill-opacity:1;stroke:none"
       transform="matrix(0.97303332,0,0,1.1215131,123.22439,-17451.064)"><flowRegion
         id="flowRegion3576"><rect
           id="rect3578"
           width="2021.3717"
           height="106.51344"
           x="158.58536"
           y="15665.729"
           style="text-align:center;text-anchor:middle;fill:#485a48;fill-opacity:1" /></flowRegion><flowPara
         style="font-style:normal;font-variant:normal;font-weight:normal;font-stretch:normal;font-size:56px;font-family:Lavi;-inkscape-font-specification:Lavi;text-align:center;text-anchor:middle;fill:#485a48;fill-opacity:1"
         id="flowPara3582">Ar BT-mañ zo open-source hag ar rann-mañ zo bet kredet gant 21 mesen e</flowPara></flowRoot>    <flowRoot
       xml:space="preserve"
       id="flowRoot3574-8"
       style="font-style:normal;font-variant:normal;font-weight:normal;font-stretch:normal;font-size:12px;line-height:125%;font-family:Arial;-inkscape-font-specification:Arial;text-align:center;letter-spacing:0px;word-spacing:0px;text-anchor:middle;fill:#000000;fill-opacity:1;stroke:none"
       transform="matrix(0.97303332,0,0,1.0244559,116.81442,-15852.066)"><flowRegion
         id="flowRegion3576-9"><rect
           id="rect3578-1"
           width="2021.3717"
           height="106.51344"
           x="158.58536"
           y="15665.729"
           style="text-align:center;text-anchor:middle" /></flowRegion><flowPara
         style="font-style:normal;font-variant:normal;font-weight:normal;font-stretch:normal;font-size:56px;font-family:Lavi;-inkscape-font-specification:Lavi;text-align:center;text-anchor:middle;fill:#9c0000;fill-opacity:1"
         id="flowPara3582-4">www.patreon.com/davidrevoy</flowPara></flowRoot>    <flowRoot
       xml:space="preserve"
       id="flowRoot3574-1"
       style="font-style:normal;font-variant:normal;font-weight:normal;font-stretch:normal;font-size:12px;line-height:125%;font-family:Arial;-inkscape-font-specification:Arial;text-align:center;letter-spacing:0px;word-spacing:0px;text-anchor:middle;fill:#42493d;fill-opacity:1;stroke:none"
       transform="matrix(0.97303332,0,0,1.0386341,97.939352,-16004.479)"><flowRegion
         id="flowRegion3576-97"><rect
           id="rect3578-2"
           width="2021.3717"
           height="106.51344"
           x="158.58536"
           y="15665.729"
           style="text-align:center;text-anchor:middle;fill:#42493d;fill-opacity:1" /></flowRegion><flowPara
         style="font-style:normal;font-variant:normal;font-weight:normal;font-stretch:normal;font-size:56px;font-family:Lavi;-inkscape-font-specification:Lavi;text-align:center;text-anchor:middle;fill:#42493d;fill-opacity:1"
         id="flowPara3582-2">Trugarekaat:</flowPara></flowRoot>    <flowRoot
       xml:space="preserve"
       id="flowRoot3574-1-6"
       style="font-style:normal;font-variant:normal;font-weight:normal;font-stretch:normal;font-size:12px;line-height:125%;font-family:Arial;-inkscape-font-specification:Arial;text-align:center;letter-spacing:0px;word-spacing:0px;text-anchor:middle;fill:#777967;fill-opacity:1;stroke:none"
       transform="matrix(0.73625098,0,0,0.78904965,392.82216,-11630.386)"><flowRegion
         id="flowRegion3576-97-8"><rect
           id="rect3578-2-9"
           width="2021.3717"
           height="106.51344"
           x="158.58536"
           y="15665.729"
           style="text-align:center;text-anchor:middle;fill:#777967;fill-opacity:1" /></flowRegion><flowPara
         style="font-style:normal;font-variant:normal;font-weight:normal;font-stretch:normal;font-size:56px;font-family:Lavi;-inkscape-font-specification:Lavi;text-align:center;text-anchor:middle;fill:#777967;fill-opacity:1"
         id="flowPara3582-2-8">fait avec Krita sur GNU/Linux</flowPara></flowRoot>  </g>
</svg>
