<?xml version="1.0" encoding="UTF-8" standalone="no"?>
<svg
   id="svg2"
   version="1.1"
   inkscape:version="1.1 (c68e22c387, 2021-05-23)"
   width="2481"
   height="3503"
   sodipodi:docname="E09P02.svg"
   xmlns:inkscape="http://www.inkscape.org/namespaces/inkscape"
   xmlns:sodipodi="http://sodipodi.sourceforge.net/DTD/sodipodi-0.dtd"
   xmlns:xlink="http://www.w3.org/1999/xlink"
   xmlns="http://www.w3.org/2000/svg"
   xmlns:svg="http://www.w3.org/2000/svg"
   xmlns:rdf="http://www.w3.org/1999/02/22-rdf-syntax-ns#"
   xmlns:cc="http://creativecommons.org/ns#"
   xmlns:dc="http://purl.org/dc/elements/1.1/">
  <sodipodi:namedview
     pagecolor="#ffffff"
     bordercolor="#666666"
     inkscape:pageopacity="0"
     inkscape:pageshadow="2"
     inkscape:window-width="1920"
     inkscape:window-height="1057"
     id="namedview70"
     showgrid="false"
     inkscape:zoom="0.28284271"
     inkscape:cx="639.93164"
     inkscape:cy="2547.3522"
     inkscape:current-layer="layer1"
     inkscape:document-rotation="0"
     inkscape:window-x="1358"
     inkscape:window-y="-8"
     inkscape:window-maximized="1"
     borderopacity="1.0"
     inkscape:pagecheckerboard="0" />
  <metadata
     id="metadata8">
    <rdf:RDF>
      <cc:Work
         rdf:about="">
        <dc:format>image/svg+xml</dc:format>
        <dc:type
           rdf:resource="http://purl.org/dc/dcmitype/StillImage" />
        <dc:title />
      </cc:Work>
    </rdf:RDF>
  </metadata>
  <defs
     id="defs6" />
  <sodipodi:namedview
     pagecolor="#ffffff"
     bordercolor="#666666"
     borderopacity="1"
     objecttolerance="10"
     gridtolerance="10"
     guidetolerance="10"
     inkscape:pageopacity="0"
     inkscape:pageshadow="2"
     inkscape:window-width="1920"
     inkscape:window-height="1025"
     id="namedview4"
     showgrid="false"
     inkscape:zoom="0.34782609"
     inkscape:cx="1179.3576"
     inkscape:cy="636.93881"
     inkscape:window-x="0"
     inkscape:window-y="26"
     inkscape:window-maximized="1"
     inkscape:current-layer="layer1"
     showguides="false" />
  <g
     inkscape:groupmode="layer"
     id="layer2"
     inkscape:label="artwork"
     sodipodi:insensitive="true">
    <image
       xlink:href="../gfx_Pepper-and-Carrot_by-David-Revoy_E09P02.png"
       y="0"
       x="0"
       id="image10"
       height="3503"
       width="2481" />
  </g>
  <g
     inkscape:groupmode="layer"
     id="layer3"
     inkscape:label="speechbubbles" />
  <g
     inkscape:groupmode="layer"
     id="layer1"
     inkscape:label="txt">
    <path
       style="fill:#ffffff;stroke:none;stroke-width:0.831863"
       d="m 661.23318,2792.1719 c 0.59106,-74.2489 8.79632,-145.363 287.79076,-141.987 198.48056,2.4016 275.12336,54.2087 271.91806,147.7728 -3.2054,93.564 -109.3827,132.1816 -275.91556,130.4161 -166.53278,-1.7655 -280.34736,-39.3393 -283.79326,-136.2019 z"
       id="path3274"
       inkscape:connector-curvature="0"
       sodipodi:nodetypes="csssc" />
    <path
       style="color:#000000;display:inline;overflow:visible;visibility:visible;fill:#ffffff;fill-opacity:1;fill-rule:nonzero;stroke:none;stroke-width:1px;marker:none;enable-background:accumulate"
       d="m 837.78803,2681.1218 c -33.40312,32.9386 -310.35346,62.6921 -406.02805,-9.2881 -95.67459,-71.9803 -35.10675,-153.9852 21.12988,-179.1563 56.23652,-25.1711 220.74246,-50.1743 295.08098,-25.5446 74.33864,24.6295 131.91488,60.1115 134.31238,129.885 0.97852,28.4774 -11.09196,51.1651 -44.49519,84.104 z"
       id="path4040"
       inkscape:connector-curvature="0"
       sodipodi:nodetypes="zssssz" />
    <path
       style="color:#000000;display:inline;overflow:visible;visibility:visible;fill:#ffffff;fill-opacity:1;fill-rule:nonzero;stroke:none;stroke-width:0.869303px;marker:none;enable-background:accumulate"
       d="m 205.22409,1474.9762 c 6.39402,-73.2514 81.68703,-126.2753 276.95264,-110.9123 104.5948,8.2292 223.37589,14.0306 215.22294,121.3484 -8.15311,107.3176 -178.89628,103.1826 -214.15654,105.4097 -35.26029,2.2274 -218.81493,-10.5115 -250.78508,-47.297 -20.01258,-23.0266 -27.89489,-45.8519 -27.23396,-68.5488 z"
       id="path4546-0-3"
       inkscape:connector-curvature="0"
       sodipodi:nodetypes="cssssc" />
    <path
       style="color:#000000;display:inline;overflow:visible;visibility:visible;fill:#ffffff;fill-opacity:1;fill-rule:nonzero;stroke:none;stroke-width:1.04304px;marker:none;enable-background:accumulate"
       d="m 246.99332,237.97293 c -1.19723,-57.32649 95.0415,-69.41682 179.83377,-69.58715 84.79242,-0.17032 228.61322,1.8189 226.76293,81.92893 -2.15119,93.13843 -282.51253,70.4535 -290.81601,71.81988 -8.30349,1.36625 -129.60719,-14.77599 -115.78069,-84.16166 z"
       id="path5018"
       inkscape:connector-curvature="0"
       sodipodi:nodetypes="csscc" />
    <path
       style="fill:#ffffff;fill-rule:evenodd;stroke:none;stroke-width:1px;stroke-linecap:butt;stroke-linejoin:miter;stroke-opacity:1"
       d="m 842.8376,505.67472 c 22.75894,31.36316 36.92168,58.48731 -3.76855,108.91199 46.07559,-30.50609 66.18145,-76.69578 53.29121,-112.23489 -12.89024,-35.53909 -49.52266,3.3229 -49.52266,3.3229 z"
       id="path4201"
       inkscape:connector-curvature="0" />
    <path
       style="fill:#ffffff;stroke:none"
       d="m 599.66457,1809.031 c 51.60054,6.5328 69.89222,45.7908 69.53557,69.1473 -0.35672,23.3565 51.26695,38.0903 71.5221,24.124 -42.11057,37.4152 -95.95231,11.4531 -119.94631,-33.3419 -7.04419,-13.1509 -32.45984,-13.1413 -49.73119,5.435 -15.96302,17.1691 -43.85075,15.3917 -43.85075,15.3917 z"
       id="path3276"
       inkscape:connector-curvature="0"
       sodipodi:nodetypes="cscsscc" />
    <path
       style="color:#000000;display:inline;overflow:visible;visibility:visible;fill:#ffffff;fill-opacity:1;fill-rule:nonzero;stroke:none;stroke-width:0.90722px;marker:none;enable-background:accumulate"
       d="m 752.50612,1782.5103 c -4.07475,67.5084 -64.95682,118.0221 -225.28497,108.4454 -85.88041,-5.1299 -183.3524,-7.6966 -178.37845,-106.5724 4.97405,-98.8756 145.01921,-99.0522 173.89093,-101.922 28.87171,-2.8698 179.55714,4.5668 206.35319,37.6483 16.77368,20.7083 23.59948,41.514 23.4193,62.4007 z"
       id="path4546-0-6"
       inkscape:connector-curvature="0"
       sodipodi:nodetypes="cssssc" />
    <path
       style="color:#000000;display:inline;overflow:visible;visibility:visible;fill:#ffffff;fill-opacity:1;fill-rule:nonzero;stroke:none;stroke-width:0.908076px;marker:none;enable-background:accumulate"
       d="m 240.3213,1650.8554 c -1.82987,-109.446 70.29667,-126.3281 272.25195,-118.2726 108.17814,4.315 230.93262,5.851 225.42373,107.9964 -5.50903,102.1452 -179.62809,97.7759 -216.06366,98.5204 -39.51148,0.8073 -178.45015,-11.3635 -210.32445,-24.0838 -26.42449,-10.5454 -71.35514,-42.5929 -71.28757,-64.1604 z"
       id="path4546-0"
       inkscape:connector-curvature="0"
       sodipodi:nodetypes="cssssc" />
    <path
       style="fill:#ffffff;fill-opacity:1;stroke:none;stroke-width:0.941551"
       d="m 508.02395,380.19586 c -6.71478,-111.5499 87.55288,-163.71653 274.22375,-158.64608 186.67084,5.07037 237.7973,75.6538 251.2268,114.94974 13.4296,39.29601 50.9206,112.45064 -112.54484,175.54949 C 805.791,556.49338 610.30783,529.93061 556.56104,481.30172 510.06621,439.23425 509.36688,409.35087 508.02395,380.19586 Z"
       id="path3238"
       inkscape:connector-curvature="0"
       sodipodi:nodetypes="cssssc" />
    <flowRoot
       xml:space="preserve"
       id="flowRoot2987-4-9-3-7"
       style="font-style:normal;font-variant:normal;font-weight:normal;font-stretch:normal;font-size:66.6667px;line-height:0.01%;font-family:'linja sike';text-align:center;letter-spacing:0px;word-spacing:0px;text-anchor:middle;fill:#000000;fill-opacity:1;stroke:none"
       transform="translate(372.33762,6.6910875)"><flowRegion
         id="flowRegion2989-5-4-5-9"
         style="font-size:66.6667px"><rect
           id="rect2991-7-9-6-4"
           width="584.49487"
           height="282.88373"
           x="111.92752"
           y="285.65546"
           style="font-style:normal;font-variant:normal;font-weight:normal;font-stretch:normal;font-size:66.6667px;font-family:'linja sike';text-align:center;text-anchor:middle;stroke-width:1" /></flowRegion><flowPara
         style="font-size:66.6667px;line-height:1.25;text-align:center;text-anchor:middle"
         id="flowPara92">sona+mi weka la mi pini ala e </flowPara><flowPara
         style="font-size:66.6667px;line-height:1.25;text-align:center;text-anchor:middle"
         id="flowPara94">ilo wawa mi pi+__awen__lawa</flowPara></flowRoot>
    <flowRoot
       xml:space="preserve"
       id="flowRoot2987-4-9-3-7-3-7"
       style="font-style:normal;font-variant:normal;font-weight:normal;font-stretch:normal;line-height:0.01%;font-family:'linja sike';text-align:center;letter-spacing:0px;word-spacing:0px;text-anchor:middle;fill:#000000;fill-opacity:1;stroke:none"
       transform="translate(121.07446,1448.6242)"><flowRegion
         id="flowRegion2989-5-4-5-9-3-2"><rect
           id="rect2991-7-9-6-4-4-0"
           width="577.74487"
           height="312.3837"
           x="120.55251"
           y="265.53046"
           style="font-style:normal;font-variant:normal;font-weight:normal;font-stretch:normal;font-family:'linja sike';-inkscape-font-specification:'linja sike;text-align:center;text-anchor:middle" /></flowRegion><flowPara
         style="font-size:66.6667px;line-height:1.25;text-align:center;text-anchor:middle"
         id="flowPara3468">ken la telo sewi </flowPara><flowPara
         style="font-size:66.6667px;line-height:1.25;text-align:center;text-anchor:middle"
         id="flowPara71">li lili taso  …</flowPara></flowRoot>
    <flowRoot
       xml:space="preserve"
       id="flowRoot2987-4-9-3-7-3-4"
       style="font-style:normal;font-variant:normal;font-weight:normal;font-stretch:normal;line-height:0.01%;font-family:'linja sike';text-align:center;letter-spacing:0px;word-spacing:0px;text-anchor:middle;fill:#000000;fill-opacity:1;stroke:none"
       transform="translate(78.444963,1320.7913)"><flowRegion
         id="flowRegion2989-5-4-5-9-3-0"><rect
           id="rect2991-7-9-6-4-4-2"
           width="577.74487"
           height="312.3837"
           x="120.55251"
           y="265.53046"
           style="font-style:normal;font-variant:normal;font-weight:normal;font-stretch:normal;font-family:'linja sike';-inkscape-font-specification:'linja sike;text-align:center;text-anchor:middle" /></flowRegion><flowPara
         style="font-size:66.6667px;line-height:1.25;text-align:center;text-anchor:middle"
         id="flowPara73">taso ante la tenpopimeja sina li seme?</flowPara></flowRoot>
    <flowRoot
       xml:space="preserve"
       id="flowRoot2987-4-9-3-7-3-7-8"
       style="font-style:normal;font-variant:normal;font-weight:normal;font-stretch:normal;line-height:0.01%;font-family:'linja sike';text-align:center;letter-spacing:0px;word-spacing:0px;text-anchor:middle;fill:#000000;fill-opacity:1;stroke:none"
       transform="translate(233.00435,2239.4217)"><flowRegion
         id="flowRegion2989-5-4-5-9-3-2-0"><rect
           id="rect2991-7-9-6-4-4-0-8"
           width="577.74487"
           height="312.3837"
           x="120.55251"
           y="265.53046"
           style="font-style:normal;font-variant:normal;font-weight:normal;font-stretch:normal;font-family:'linja sike';-inkscape-font-specification:'linja sike;text-align:center;text-anchor:middle" /></flowRegion><flowPara
         style="font-size:66.6667px;line-height:1.25;text-align:center;text-anchor:middle"
         id="flowPara3477">… mi pilin+ike tan ni. </flowPara><flowPara
         style="font-size:66.6667px;line-height:1.25;text-align:center;text-anchor:middle"
         id="flowPara67">taso ale li pona anu seme?</flowPara></flowRoot>
    <path
       style="color:#000000;display:inline;overflow:visible;visibility:visible;fill:#ffffff;fill-opacity:1;fill-rule:nonzero;stroke:none;stroke-width:1px;marker:none;enable-background:accumulate"
       d="m 1216.7346,2918.2863 c -43.3715,1.0822 -59.0619,-1.0925 -84.8726,-48.9239 -25.8107,-47.8314 -41.7698,-38.7869 -41.7698,-38.7869 l -1.2183,35.8616 c 0,0 61.508,98.5494 127.8607,51.8492 z"
       id="path3072"
       inkscape:connector-curvature="0" />
    <flowRoot
       xml:space="preserve"
       id="flowRoot2987-4-9-3-7-3-7-8-5"
       style="font-style:normal;font-variant:normal;font-weight:normal;font-stretch:normal;line-height:0.01%;font-family:'linja sike';text-align:center;letter-spacing:0px;word-spacing:0px;text-anchor:middle;fill:#000000;fill-opacity:1;stroke:none"
       transform="translate(529.31345,2403.631)"><flowRegion
         id="flowRegion2989-5-4-5-9-3-2-0-4"><rect
           id="rect2991-7-9-6-4-4-0-8-5"
           width="577.74487"
           height="312.3837"
           x="120.55251"
           y="265.53046"
           style="font-style:normal;font-variant:normal;font-weight:normal;font-stretch:normal;font-family:'linja sike';-inkscape-font-specification:'linja sike;text-align:center;text-anchor:middle" /></flowRegion><flowPara
         style="font-size:66.6667px;line-height:1.25;text-align:center;text-anchor:middle"
         id="flowPara3505">mi pali e telo seli. </flowPara><flowPara
         style="font-size:66.6667px;line-height:1.25;text-align:center;text-anchor:middle"
         id="flowPara86">ike lili pini la mi+ale li ken pilin+pona sin </flowPara><flowPara
         style="font-size:66.6667px;line-height:1.25;text-align:center;text-anchor:middle"
         id="flowPara5317">tan mokua</flowPara></flowRoot>
    <flowRoot
       transform="matrix(1.0893046,0,0.05787519,1.1966756,-150.64545,-122.66519)"
       style="font-style:normal;font-variant:normal;font-weight:normal;font-stretch:normal;line-height:0.01%;font-family:'linja sike';text-align:center;letter-spacing:-0.00875865px;word-spacing:-0.00875865px;text-anchor:middle;fill:#000000;fill-opacity:1;stroke:#000000;stroke-width:1.97815;stroke-miterlimit:4;stroke-dasharray:none;stroke-opacity:1"
       id="flowRoot4212-3-7-8-6"
       xml:space="preserve"><flowRegion
         id="flowRegion4214-6-7-8-3"><rect
           style="font-style:normal;font-variant:normal;font-weight:normal;font-stretch:normal;font-family:'linja sike';text-align:center;text-anchor:middle;stroke:#000000;stroke-width:1.97814989;stroke-miterlimit:4;stroke-dasharray:none;stroke-opacity:1"
           y="265.53046"
           x="120.55251"
           height="355.03918"
           width="798.1947"
           id="rect4216-4-0-26-5" /></flowRegion><flowPara
         style="font-size:66.6667px;line-height:1.25;text-align:center;text-anchor:middle;stroke:#000000;stroke-width:1.97815;stroke-miterlimit:4;stroke-dasharray:none;stroke-opacity:1"
         id="flowPara4358-7-1">mi pakalaa&gt;__</flowPara></flowRoot>
    <flowRoot
       xml:space="preserve"
       id="flowRoot2987-4-9-3-7-3-4-6"
       style="font-style:normal;font-variant:normal;font-weight:normal;font-stretch:normal;line-height:0.01%;font-family:'linja sike';text-align:center;letter-spacing:0px;word-spacing:0px;text-anchor:middle;fill:#000000;fill-opacity:1;stroke:none"
       transform="translate(30.294829,1156.1741)"><flowRegion
         id="flowRegion2989-5-4-5-9-3-0-1"><rect
           id="rect2991-7-9-6-4-4-2-6"
           width="577.74487"
           height="312.3837"
           x="120.55251"
           y="265.53046"
           style="font-style:normal;font-variant:normal;font-weight:normal;font-stretch:normal;font-family:'linja sike';-inkscape-font-specification:'linja sike;text-align:center;text-anchor:middle" /></flowRegion><flowPara
         style="font-size:66.6667px;line-height:1.25;text-align:center;text-anchor:middle"
         id="flowPara3462">… mi pilin+pona tan kama pi+__ona+ale</flowPara></flowRoot>
    <flowRoot
       xml:space="preserve"
       id="flowRoot4519"
       style="font-style:normal;font-variant:normal;font-weight:normal;font-stretch:normal;line-height:0.01%;font-family:Arial;-inkscape-font-specification:Arial;letter-spacing:0px;word-spacing:0px;fill:#000000;fill-opacity:1;stroke:none;stroke-width:1px;stroke-linecap:butt;stroke-linejoin:miter;stroke-opacity:1"><flowRegion
         id="flowRegion4521"><rect
           id="rect4523"
           width="103.5"
           height="17.25"
           x="2866.375"
           y="1792.375" /></flowRegion><flowPara
         id="flowPara4525"
         style="font-size:12px;line-height:1.25"> </flowPara></flowRoot>
  </g>
</svg>
