<?xml version="1.0" encoding="UTF-8" standalone="no"?>
<svg
   xmlns:dc="http://purl.org/dc/elements/1.1/"
   xmlns:cc="http://creativecommons.org/ns#"
   xmlns:rdf="http://www.w3.org/1999/02/22-rdf-syntax-ns#"
   xmlns:svg="http://www.w3.org/2000/svg"
   xmlns="http://www.w3.org/2000/svg"
   xmlns:xlink="http://www.w3.org/1999/xlink"
   xmlns:sodipodi="http://sodipodi.sourceforge.net/DTD/sodipodi-0.dtd"
   xmlns:inkscape="http://www.inkscape.org/namespaces/inkscape"
   id="svg2"
   version="1.1"
   inkscape:version="1.0.1 (3bc2e813f5, 2020-09-07)"
   width="2481"
   height="3503"
   sodipodi:docname="E35P11.svg">
  <metadata
     id="metadata8">
    <rdf:RDF>
      <cc:Work
         rdf:about="">
        <dc:format>image/svg+xml</dc:format>
        <dc:type
           rdf:resource="http://purl.org/dc/dcmitype/StillImage" />
        <dc:title />
      </cc:Work>
    </rdf:RDF>
  </metadata>
  <defs
     id="defs6">
    <filter
       style="color-interpolation-filters:sRGB"
       id="filter4375-4-1-1-1-9-3-2-3-8-7-6-4-9"
       inkscape:label="deevad outline effect"
       x="-0.002101149"
       y="-0.0071745174"
       width="1.0042023"
       height="1.014349">
      <feFlood
         id="feFlood4377-7-9-0-8-1-6-9-6-7-5-32-7-4"
         flood-opacity="1"
         flood-color="rgb(95,141,211)"
         result="flood" />
      <feComposite
         id="feComposite4379-3-8-8-2-77-7-1-0-9-9-0-6-8"
         in2="SourceGraphic"
         in="flood"
         operator="in"
         result="composite1" />
      <feMorphology
         id="feMorphology4393-1-0-49-8-9-5-2-6-2-2-6-5-1"
         operator="dilate"
         radius="4"
         result="result3" />
      <feComposite
         id="feComposite4385-9-5-7-0-8-3-7-2-0-2-1-6-2"
         in2="result3"
         in="SourceGraphic"
         operator="over"
         result="composite2" />
    </filter>
  </defs>
  <sodipodi:namedview
     pagecolor="#ffffff"
     bordercolor="#666666"
     borderopacity="1"
     objecttolerance="10"
     gridtolerance="10"
     guidetolerance="10"
     inkscape:pageopacity="0"
     inkscape:pageshadow="2"
     inkscape:window-width="1366"
     inkscape:window-height="715"
     id="namedview4"
     showgrid="false"
     inkscape:zoom="0.40727392"
     inkscape:cx="1232.2638"
     inkscape:cy="2819.1501"
     inkscape:window-x="-8"
     inkscape:window-y="-8"
     inkscape:window-maximized="1"
     inkscape:current-layer="layer1"
     inkscape:document-rotation="0"
     inkscape:snap-global="false"
     inkscape:pagecheckerboard="0" />
  <g
     inkscape:groupmode="layer"
     id="layer2"
     inkscape:label="artwork"
     sodipodi:insensitive="true">
    <image
       sodipodi:absref="D:\Projects\lang\gfx_Pepper-and-Carrot_by-David-Revoy_E35P11.png"
       xlink:href="../gfx_Pepper-and-Carrot_by-David-Revoy_E35P11.png"
       y="0"
       x="0"
       id="image10"
       height="3503"
       width="2481" />
  </g>
  <g
     inkscape:groupmode="layer"
     id="layer3"
     inkscape:label="speechbubbles">
    <path
       style="color:#000000;display:inline;overflow:visible;visibility:visible;fill:#ffffff;fill-opacity:1;fill-rule:nonzero;stroke:none;stroke-width:1.05826px;marker:none;enable-background:accumulate"
       d="m 692.7246,1526.6704 c 28.1693,-24.9106 272.04455,-35.5556 336.641,7.541 53.9173,35.9724 32.8807,122.5341 -15.0706,141.6334 -47.95088,19.099 -207.46599,13.6696 -277.37785,3.2265 -66.56578,-9.9423 -77.74329,-36.2614 -81.01761,-88.8787 -1.33637,-21.4761 8.65558,-38.612 36.82506,-63.5222 z"
       id="path4040-4-9-2"
       inkscape:connector-curvature="0"
       sodipodi:nodetypes="zssssz" />
    <path
       style="color:#000000;display:inline;overflow:visible;visibility:visible;fill:#ffffff;fill-opacity:1;fill-rule:nonzero;stroke:none;stroke-width:1.36564px;marker:none;enable-background:accumulate"
       d="m 672.87343,351.47617 c 33.46845,54.26318 16.77932,109.75225 -42.25383,148.97796 101.91057,-50.70471 112.5118,-145.0271 95.84592,-167.01491 -16.31806,-21.52888 -53.59209,18.03695 -53.59209,18.03695 z"
       id="path5010-4"
       inkscape:connector-curvature="0"
       sodipodi:nodetypes="ccsc" />
    <path
       style="display:inline;fill:#ffffff;stroke:none;stroke-width:0.593809"
       d="m 1189.7651,57.299 c -37.6383,0.291165 -75.9441,5.226017 -110.6114,20.596138 -18.9707,9.035479 -34.6736,26.398282 -38.8001,47.340992 -3.9744,20.62219 -2.5171,42.19634 3.4954,62.27217 7.1845,18.83833 23.1758,33.143 41.1121,41.62797 26.4023,13.35548 56.0864,18.26676 85.3259,20.41751 39.6467,3.26547 79.5432,6.45676 119.3042,3.28382 30.4333,-2.53403 60.9347,-10.51405 86.9358,-26.93945 14.8833,-9.57802 28.8059,-21.8084 36.8096,-37.87408 6.7527,-13.08567 8.326,-28.38022 6.1478,-42.81545 -2.6598,-17.3016 -11.6926,-33.4704 -24.9835,-44.85659 -15.9119,-14.191543 -36.2871,-21.85208 -56.4207,-27.88553 -27.3936,-7.963814 -55.8576,-11.472072 -84.239,-13.544453 -21.3271,-1.406949 -42.709,-1.66886 -64.0761,-1.623047 z"
       id="path3280-8-1"
       inkscape:connector-curvature="0"
       sodipodi:nodetypes="csssc" />
    <path
       style="color:#000000;display:inline;overflow:visible;visibility:visible;fill:#ffffff;fill-opacity:1;fill-rule:nonzero;stroke:none;stroke-width:0.82375px;marker:none;enable-background:accumulate"
       d="m 1949.8477,80.042241 c -36.7977,0.406432 -74.6215,6.568789 -104.9466,22.208449 -25.276,13.16571 -46.4418,31.61855 -54.9678,53.53875 -4.7399,13.03951 -6.3073,26.75881 -4.161,40.16175 3.653,21.10953 18.336,40.74776 38.5724,56.00596 16.8715,12.70148 38.5177,22.1213 62.1868,26.47524 57.4543,12.34459 117.3309,17.93543 177.0989,19.84518 56.8067,1.52074 114.4462,-1.50162 169.0676,-13.43241 35.8306,-8.85512 69.6476,-24.40452 91.2178,-47.26665 17.5802,-19.38443 22.7052,-43.2101 21.6495,-65.9967 -0.6925,-21.44646 -8.8497,-43.71351 -28.9767,-60.02958 -19.0556,-15.127089 -47.1072,-22.876397 -74.8872,-24.641498 -68.6058,-7.607729 -138.2098,-5.079663 -207.3365,-6.383948 -28.1709,-0.270672 -56.3429,-0.607176 -84.5172,-0.484543 z"
       id="path4546-6-7"
       inkscape:connector-curvature="0"
       sodipodi:nodetypes="cscssssc" />
    <path
       style="color:#000000;display:inline;overflow:visible;visibility:visible;fill:#ffffff;fill-opacity:1;fill-rule:nonzero;stroke:none;stroke-width:1.01152px;marker:none;enable-background:accumulate"
       d="m 542.83743,1388.2962 c 33.62456,-25.3329 324.72892,-39.6345 401.83483,2.4936 64.35914,35.164 39.24838,122.0411 -17.98898,141.8593 -57.23709,19.818 -247.64395,16.7802 -331.09498,7.3854 -79.45688,-8.9443 -92.79905,-35.0958 -96.70748,-87.6639 -1.59516,-21.4561 10.33182,-38.7418 43.95661,-64.0744 z"
       id="path4040-4-9"
       inkscape:connector-curvature="0"
       sodipodi:nodetypes="zssssz" />
    <path
       style="fill:#ffffff;fill-rule:evenodd;stroke:none;stroke-width:0.970392px;stroke-linecap:butt;stroke-linejoin:miter;stroke-opacity:1"
       d="m 1085.0006,1635.3711 c -33.8887,0.6543 -67.7467,2.353 -101.57614,4.3311 -21.05707,1.4962 -42.3767,3.2443 -62.55618,9.6027 -25.99413,9.0393 -46.69202,29.6983 -57.37833,54.0143 -4.92061,11.34 -8.36641,23.2441 -10.9248,35.2698 -2.33526,12.1244 -2.00538,25.0145 3.02394,36.5008 5.79931,14.094 15.54726,26.2836 25.95872,37.4942 19.67999,20.2167 46.28615,34.5045 74.93313,38.256 24.71697,3.9234 49.69486,6.0371 74.64206,8.0593 41.5716,2.6716 83.2808,3.2248 124.9237,2.0946 35.0274,-1.0429 70.0501,-3.334 104.7891,-7.8518 18.4639,-2.8512 37.2948,-7.3645 52.7929,-17.8946 15.0615,-10.4824 25.2706,-26.7383 29.1647,-44.1386 3.9239,-13.2549 7.2681,-27.3799 4.0272,-41.1126 -4.0381,-16.4468 -13.0149,-31.1746 -21.4282,-45.8225 -8.7634,-14.3178 -20.1466,-27.8098 -35.5555,-35.817 -18.6488,-10.2598 -39.7523,-15.0007 -60.227,-20.6173 -32.3785,-8.1391 -65.9276,-10.6826 -99.2782,-11.4662 -15.1035,-0.5451 -30.2147,-1.0294 -45.3311,-0.9022 z"
       id="path1079"
       inkscape:connector-curvature="0" />
    <path
       style="color:#000000;display:inline;overflow:visible;visibility:visible;fill:#ffffff;fill-opacity:1;fill-rule:nonzero;stroke:none;stroke-width:0.939237px;marker:none;enable-background:accumulate"
       d="m 1404.4998,1793.8153 c -45.9909,-29.4273 -78.0349,-27.5278 -104.8526,-18.0354 -25.7868,9.1275 -19.8278,10.3608 -19.8278,10.3608 l 10.5667,-48.0852 c -3.1179,-4.3789 71.5596,-1.8389 114.1137,55.7598 z"
       id="path3072-12"
       inkscape:connector-curvature="0"
       sodipodi:nodetypes="csccc" />
    <path
       style="display:inline;fill:#ffffff;stroke:none;stroke-width:0.952317"
       d="m 1360.5722,197.26135 c -51.806,0.71141 -104.2403,6.56567 -152.5469,23.18281 -39.6006,15.5755 -71.6959,45.87113 -82.796,82.0756 -7.2202,25.0237 -6.5337,51.00356 -6.1312,76.57747 1.8268,29.0786 19.1804,56.19505 43.1128,76.47645 14.1427,12.23074 31.559,21.35899 49.9733,28.16258 41.5041,15.82346 87.0488,22.86993 132.3278,24.03039 34.0269,0.6584 68.0555,-0.37645 102.0733,-0.94856 42.2301,-1.17898 84.7568,-3.0418 126.0656,-11.13023 22.9613,-4.70887 46.147,-11.56473 64.3921,-24.77076 23.9565,-17.34664 39.414,-41.96217 47.3362,-67.61578 8.1256,-26.9469 6.1375,-55.48535 -1.8157,-82.27993 -6.8568,-25.61175 -19.899,-50.87469 -42.4759,-69.27695 -23.3554,-19.27673 -53.8164,-31.03158 -84.9164,-38.14607 -47.8631,-11.44019 -97.776,-14.37129 -147.2361,-15.94323 -15.783,-0.39537 -31.5743,-0.42638 -47.3629,-0.39379 z"
       id="path3280-8-1-3"
       inkscape:connector-curvature="0"
       sodipodi:nodetypes="csssc" />
    <path
       style="display:inline;fill:#ffffff;stroke:none;stroke-width:1.00034"
       d="m 2010.0782,226.1866 c -59.9186,0.51905 -120.8998,9.31627 -176.0887,36.71618 -30.2004,16.1073 -55.1987,47.05952 -61.768,84.39353 -6.3271,36.76262 -4.0071,75.2223 5.5645,111.01093 11.4375,33.5826 36.895,59.08314 65.4486,74.20908 42.0313,23.80845 89.2872,32.56366 135.8353,36.39776 63.1159,5.82125 126.6294,11.51027 189.9271,5.85396 48.4487,-4.51735 97.0056,-18.74311 138.3982,-48.02423 23.6936,-17.07448 45.8579,-38.87726 58.5993,-67.51711 10.7501,-23.32748 13.2547,-50.59266 9.7871,-76.32597 -4.2343,-30.84309 -18.6141,-59.6668 -39.7728,-79.96465 -25.331,-25.29889 -57.7674,-38.9551 -89.8193,-49.71079 -43.6094,-14.19688 -88.9229,-20.45096 -134.1048,-24.14535 -33.952,-2.50813 -67.991,-2.97503 -102.0065,-2.89334 z"
       id="path3280-8-1-1"
       inkscape:connector-curvature="0"
       sodipodi:nodetypes="csssc" />
    <path
       style="display:inline;fill:#ffffff;stroke:none;stroke-width:0.824941"
       d="m 2015.7883,512.42969 c -49.9798,0.18487 -100.5214,6.32564 -146.8277,22.10775 -12.6148,4.24066 -24.7499,9.55499 -35.2899,16.67052 -26.1756,17.13429 -44.6402,42.40621 -48.502,69.72533 -4.8271,26.74245 1.3853,55.62763 21.6872,77.48593 21.3889,23.18242 53.1159,38.7689 86.5416,47.84477 36.0895,10.56549 74.5927,13.79117 112.673,15.21843 57.5959,3.83831 115.5685,2.99293 173.1018,-1.13563 26.9051,-1.92176 54.0885,-4.64216 79.4755,-12.54448 26.8046,-8.23697 50.8414,-22.40607 68.929,-40.48289 15.3522,-15.45553 26.2515,-34.29083 28.2071,-54.26521 4.0042,-34.84717 -14.4017,-71.45215 -49.2811,-92.37888 -30.0082,-18.65957 -66.6668,-28.21538 -102.9558,-35.26583 -61.4549,-11.61817 -124.9372,-13.15605 -187.7587,-12.97981 z"
       id="path3280-8-1-1-8"
       inkscape:connector-curvature="0"
       sodipodi:nodetypes="csssc" />
    <path
       style="fill:#ffffff;fill-rule:evenodd;stroke:none;stroke-width:1px;stroke-linecap:butt;stroke-linejoin:miter;stroke-opacity:1"
       d="m 1917.1509,703.14914 c -35.1448,34.55495 -40.918,43.76621 -48.2945,59.20991 -7.3765,15.44359 -1.4166,45.82505 15.3336,59.77726 16.7502,13.95231 20.6476,39.75145 6.4656,51.09426 -14.1819,11.34295 -70.6572,56.04997 -12.3413,98.68519 -52.1304,-50.93005 4.6214,-80.3316 15.046,-87.77901 10.4245,-7.44749 30.9525,-25.50425 13.4446,-59.50485 -17.5082,-34.00062 -21.7713,-50.818 31.7495,-83.72489 53.5207,-32.90685 -21.4035,-37.75787 -21.4035,-37.75787 z"
       id="path1081"
       inkscape:connector-curvature="0"
       sodipodi:nodetypes="ccccccssc" />
    <path
       style="color:#000000;display:inline;overflow:visible;visibility:visible;fill:#ffffff;fill-opacity:1;fill-rule:nonzero;stroke:none;stroke-width:1.4638px;marker:none;enable-background:accumulate"
       d="m 1446.9857,482.25247 c 38.5518,83.9689 2.5856,139.06018 -54.1917,168.09629 98.918,-30.2652 116.1188,-134.92733 86.7076,-167.77583 -23.1309,-25.83416 -32.5159,-0.32046 -32.5159,-0.32046 z"
       id="path5010-4-3"
       inkscape:connector-curvature="0"
       sodipodi:nodetypes="ccsc" />
    <path
       style="color:#000000;display:inline;overflow:visible;visibility:visible;fill:#ffffff;fill-opacity:1;fill-rule:nonzero;stroke:none;stroke-width:0.924598px;marker:none;enable-background:accumulate"
       d="m 1696.919,2341.0803 c 0.1508,-112.6365 -2.141,-86.5942 168.9516,-84.4358 74.263,0.9368 162.3871,11.3249 155.3294,167.8076 -5.5786,123.6911 -141.4205,117.6109 -166.6702,121.1103 -25.0899,3.4773 -127.4534,-17.7775 -149.7086,-66.4986 -13.9313,-30.4986 -8.7178,-108.0899 -7.9022,-137.9835 z"
       id="path4546-6-59"
       inkscape:connector-curvature="0"
       sodipodi:nodetypes="cssssc" />
    <path
       style="fill:#ffffff;stroke:none;stroke-width:1.40498"
       d="m 720.93646,74.334276 c -50.55152,3.08778 -100.03953,15.416754 -149.93195,23.909777 -31.45318,6.242517 -62.81602,17.304637 -88.87367,37.942527 -16.49827,13.20659 -29.33925,31.97773 -35.29672,53.34425 -9.54535,30.12085 -9.93681,62.865 -5.11563,94.04195 3.84814,22.99347 12.27848,45.81666 27.54972,62.71498 15.19086,17.11859 34.15817,30.07813 54.65516,38.33478 17.69799,7.8496 36.26553,13.26302 55.14052,16.50527 42.14937,7.86858 85.03779,9.8885 127.74302,9.45199 43.67122,-0.77799 87.28472,-6.16766 129.93481,-16.42186 21.26672,-4.78213 42.71551,-11.63012 60.62503,-25.42823 19.75792,-15.0267 35.44362,-36.34047 44.53157,-60.59277 3.97062,-10.73934 5.91123,-22.25046 6.27639,-33.7908 0.74213,-14.8313 0.81776,-29.69103 1.10115,-44.53743 0.10717,-44.82775 -3.44038,-89.73925 -11.72081,-133.685824 -3.09725,-3.45486 -7.93984,-1.880213 -11.78697,-3.251442 C 857.91557,82.354172 789.57167,74.056384 720.93646,74.334276 Z"
       id="path3100-2"
       inkscape:connector-curvature="0"
       sodipodi:nodetypes="cccccccccccccc" />
    <path
       style="display:inline;fill:#ffffff;fill-rule:evenodd;stroke:none;stroke-width:1.14884px;stroke-linecap:butt;stroke-linejoin:miter;stroke-opacity:1"
       d="m 1876.2442,2473.0319 c 29.6781,34.3855 -48.3918,61.0872 -32.7914,98.1006 6.1219,14.5249 50.1858,21.814 59.4409,88.3499 -23.107,-54.5774 -70.7535,-56.808 -83.5614,-79.4341 -24.3256,-42.971 15.5983,-74.4437 22.7675,-83.4264 9.5884,-12.0136 34.1444,-23.59 34.1444,-23.59 z"
       id="path4186-80"
       inkscape:connector-curvature="0"
       sodipodi:nodetypes="cscssc" />
    <path
       style="color:#000000;display:inline;overflow:visible;visibility:visible;fill:#ffffff;fill-opacity:1;fill-rule:nonzero;stroke:none;stroke-width:0.508341px;marker:none;enable-background:accumulate"
       d="m 254.57436,2086.542 c 15.48265,-13.964 149.52364,-22.406 185.02758,0.5429 29.63461,19.1552 18.07219,66.8586 -8.28313,77.8463 -26.35524,10.9877 -114.02936,9.7123 -152.45496,4.7305 -36.58647,-4.7428 -42.72994,-19.0595 -44.5296,-47.8849 -0.73453,-11.7653 4.75733,-21.2709 20.24011,-35.2348 z"
       id="path4040-4-9-3"
       inkscape:connector-curvature="0"
       sodipodi:nodetypes="zssssz" />
    <path
       style="color:#000000;display:inline;overflow:visible;visibility:visible;fill:#ffffff;fill-opacity:1;fill-rule:nonzero;stroke:none;stroke-width:0.816531px;marker:none;enable-background:accumulate"
       d="m 354.58902,2078.2586 c 35.58146,-4.2267 52.48817,-58.2989 28.13393,-95.1145 44.43236,49.6051 29.57055,64.2564 4.74971,120.5184 -6.58837,14.934 -32.88364,-25.4039 -32.88364,-25.4039 z"
       id="path5010-4-5"
       inkscape:connector-curvature="0"
       sodipodi:nodetypes="ccsc" />
  </g>
  <g
     inkscape:groupmode="layer"
     id="layer1"
     inkscape:label="txt">
    <text
       xml:space="preserve"
       style="font-style:normal;font-variant:normal;font-weight:normal;font-stretch:normal;font-size:45px;line-height:1.25;font-family:Lavi;-inkscape-font-specification:Lavi;text-align:center;letter-spacing:0px;word-spacing:0px;text-anchor:middle;fill:#000000;fill-opacity:1;stroke:none"
       x="690.90973"
       y="179.30602"
       id="text4246-3-2-2"><tspan
         style="font-size:45px"
         sodipodi:role="line"
         x="690.90973"
         y="179.30602"
         id="tspan908">Terima kasih sudah</tspan><tspan
         style="font-size:45px"
         sodipodi:role="line"
         x="690.90973"
         y="235.55602"
         id="tspan84">mengizinkan Carrot</tspan><tspan
         style="font-size:45px"
         sodipodi:role="line"
         x="690.90973"
         y="291.80603"
         id="tspan86">untuk membawakanku</tspan><tspan
         style="font-size:45px"
         sodipodi:role="line"
         x="690.90973"
         y="348.05603"
         id="tspan88">pakaian ganti.</tspan></text>
    <text
       xml:space="preserve"
       style="font-style:normal;font-variant:normal;font-weight:normal;font-stretch:normal;font-size:45px;line-height:1.25;font-family:Lavi;-inkscape-font-specification:Lavi;text-align:center;letter-spacing:0px;word-spacing:0px;text-anchor:middle;fill:#000000;fill-opacity:1;stroke:none"
       x="1227.6431"
       y="151.79465"
       id="text4246-3-2-2-3-3-3"><tspan
         style="font-size:45px"
         sodipodi:role="line"
         x="1227.6431"
         y="151.79465"
         id="tspan876-3">Dengan</tspan><tspan
         style="font-size:45px"
         sodipodi:role="line"
         x="1227.6431"
         y="208.04465"
         id="tspan90">senang hati.</tspan></text>
    <text
       xml:space="preserve"
       style="font-style:normal;font-variant:normal;font-weight:normal;font-stretch:normal;font-size:45px;line-height:1.25;font-family:Lavi;-inkscape-font-specification:Lavi;text-align:center;letter-spacing:0px;word-spacing:0px;text-anchor:middle;fill:#000000;fill-opacity:1;stroke:none"
       x="1403.865"
       y="288.4176"
       id="text4246-3-2-2-3-3"><tspan
         style="font-size:45px"
         sodipodi:role="line"
         x="1403.865"
         y="288.4176"
         id="tspan941">Kau memudahkan</tspan><tspan
         style="font-size:45px"
         sodipodi:role="line"
         x="1403.865"
         y="344.6676"
         id="tspan109">tugas kami, jadi</tspan><tspan
         style="font-size:45px"
         sodipodi:role="line"
         x="1403.865"
         y="400.9176"
         id="tspan129">setidaknya aku berbalas</tspan><tspan
         style="font-size:45px"
         sodipodi:role="line"
         x="1403.865"
         y="457.1676"
         id="tspan82">budi padamu.</tspan></text>
    <text
       xml:space="preserve"
       style="font-style:normal;font-variant:normal;font-weight:normal;font-stretch:normal;font-size:45px;line-height:1.25;font-family:Lavi;-inkscape-font-specification:Lavi;text-align:center;letter-spacing:0px;word-spacing:0px;text-anchor:middle;fill:#000000;fill-opacity:1;stroke:none"
       x="2070.6965"
       y="160.92047"
       id="text4246-3-2-2-3-3-67"><tspan
         style="font-size:45px"
         sodipodi:role="line"
         x="2070.6965"
         y="160.92047"
         id="tspan141">Tapi kau tahu, kau</tspan><tspan
         style="font-size:45px"
         sodipodi:role="line"
         x="2070.6965"
         y="217.17047"
         id="tspan145">membuat Wasabi jengkel.</tspan></text>
    <text
       xml:space="preserve"
       style="font-style:normal;font-variant:normal;font-weight:normal;font-stretch:normal;font-size:45px;line-height:1.25;font-family:Lavi;-inkscape-font-specification:Lavi;text-align:center;letter-spacing:0px;word-spacing:0px;text-anchor:middle;fill:#000000;fill-opacity:1;stroke:none"
       x="2069.8462"
       y="318.0451"
       id="text4246-3-2-2-3-3-67-2"><tspan
         style="font-size:45px"
         sodipodi:role="line"
         x="2069.8462"
         y="318.0451"
         id="tspan912">Dia suka kesempurnaan.</tspan><tspan
         style="font-size:45px"
         sodipodi:role="line"
         x="2069.8462"
         y="374.2951"
         id="tspan161">Kau mengganggunya</tspan><tspan
         style="font-size:45px"
         sodipodi:role="line"
         x="2069.8462"
         y="430.5451"
         id="tspan165">dengan kekotoran,</tspan><tspan
         style="font-size:45px"
         sodipodi:role="line"
         x="2069.8462"
         y="486.7951"
         id="tspan173">pakaian, dan cara</tspan><tspan
         style="font-size:45px"
         sodipodi:role="line"
         x="2069.8462"
         y="543.0451"
         id="tspan177">masukmu.</tspan></text>
    <text
       xml:space="preserve"
       style="font-style:normal;font-variant:normal;font-weight:normal;font-stretch:normal;font-size:45px;line-height:1.25;font-family:Lavi;-inkscape-font-specification:Lavi;text-align:center;letter-spacing:0px;word-spacing:0px;text-anchor:middle;fill:#000000;fill-opacity:1;stroke:none"
       x="2066.2942"
       y="618.01355"
       id="text4246-3-2-2-3-3-67-2-3"><tspan
         style="font-size:45px"
         sodipodi:role="line"
         x="2066.2942"
         y="618.01355"
         id="tspan1134">Dan kau menyerangnya!</tspan><tspan
         style="font-size:45px"
         sodipodi:role="line"
         x="2066.2942"
         y="674.26355"
         id="tspan188">Dia takkan bersikap</tspan><tspan
         style="font-size:45px"
         sodipodi:role="line"
         x="2066.2942"
         y="730.51355"
         id="tspan190">halus padamu.</tspan></text>
    <text
       xml:space="preserve"
       style="font-style:normal;font-variant:normal;font-weight:normal;font-stretch:normal;font-size:45px;line-height:1.25;font-family:Lavi;-inkscape-font-specification:Lavi;text-align:center;letter-spacing:0px;word-spacing:0px;text-anchor:middle;fill:#000000;fill-opacity:1;stroke:none"
       x="349.56961"
       y="2138.6455"
       id="text4246-3-2-2-3-3-6-67"><tspan
         style="font-size:45px"
         sodipodi:role="line"
         x="349.56961"
         y="2138.6455"
         id="tspan1191-3">Aku tahu.</tspan></text>
    <text
       xml:space="preserve"
       style="font-style:normal;font-variant:normal;font-weight:normal;font-stretch:normal;font-size:45px;line-height:1.25;font-family:Lavi;-inkscape-font-specification:Lavi;text-align:center;letter-spacing:0px;word-spacing:0px;text-anchor:middle;fill:#000000;fill-opacity:1;stroke:none"
       x="743.62054"
       y="1442.3682"
       id="text4246-3-2-2-3-3-6"><tspan
         style="font-size:45px"
         sodipodi:role="line"
         x="743.62054"
         y="1442.3682"
         id="tspan909">Bagaimanapun, aku</tspan><tspan
         style="font-size:45px"
         sodipodi:role="line"
         x="743.62054"
         y="1498.6182"
         id="tspan194">perlu tidur sebentar.</tspan></text>
    <text
       xml:space="preserve"
       style="font-style:normal;font-variant:normal;font-weight:normal;font-stretch:normal;font-size:45px;line-height:1.25;font-family:Lavi;-inkscape-font-specification:Lavi;text-align:center;letter-spacing:0px;word-spacing:0px;text-anchor:middle;fill:#000000;fill-opacity:1;stroke:none"
       x="863.08191"
       y="1579.2286"
       id="text4246-3-2-2-3-3-6-6"><tspan
         style="font-size:45px"
         sodipodi:role="line"
         x="863.08191"
         y="1579.2286"
         id="tspan949">Kita berangkat</tspan><tspan
         style="font-size:45px"
         sodipodi:role="line"
         x="863.08191"
         y="1635.4786"
         id="tspan198">saat aku bangun.</tspan></text>
    <text
       xml:space="preserve"
       style="font-style:normal;font-variant:normal;font-weight:normal;font-stretch:normal;font-size:45px;line-height:1.25;font-family:Lavi;-inkscape-font-specification:Lavi;text-align:center;letter-spacing:0px;word-spacing:0px;text-anchor:middle;fill:#000000;fill-opacity:1;stroke:none"
       x="1102.4032"
       y="1709.861"
       id="text4246-3-2-2-3-3-6-2"><tspan
         style="font-size:45px"
         sodipodi:role="line"
         x="1102.4032"
         y="1709.861"
         id="tspan958">Lakukan apapun</tspan><tspan
         style="font-size:45px"
         sodipodi:role="line"
         x="1102.4032"
         y="1766.111"
         id="tspan207">sesukamu asal jangan</tspan><tspan
         style="font-size:45px"
         sodipodi:role="line"
         x="1102.4032"
         y="1822.361"
         id="tspan211">jauh-jauh...</tspan></text>
    <text
       xml:space="preserve"
       style="font-style:normal;font-variant:normal;font-weight:normal;font-stretch:normal;line-height:0%;font-family:Lavi;-inkscape-font-specification:Lavi;letter-spacing:0px;word-spacing:0px;display:inline;fill:#ffffff;fill-opacity:1;stroke:#5f8dd3;stroke-width:0.992362;stroke-miterlimit:4;stroke-dasharray:none;stroke-opacity:1;filter:url(#filter4375-4-1-1-1-9-3-2-3-8-7-6-4-9)"
       x="787.65729"
       y="1584.5073"
       id="text4580-5-0-6-2-8-5-9-9"
       transform="matrix(0.71138619,-0.38856964,0.42362052,1.0933045,-1095.3818,1936.127)"><tspan
         sodipodi:role="line"
         id="tspan4582-6-9-1-3-9-5-3-3"
         x="787.65729"
         y="1584.5073"
         style="font-size:70px;line-height:1.25;fill:#ffffff;stroke:#5f8dd3">Byurrr</tspan></text>
    <text
       xml:space="preserve"
       style="font-style:normal;font-variant:normal;font-weight:normal;font-stretch:normal;font-size:45px;line-height:1.25;font-family:Lavi;-inkscape-font-specification:Lavi;text-align:center;letter-spacing:0px;word-spacing:0px;text-anchor:middle;fill:#000000;fill-opacity:1;stroke:none"
       x="1869.7039"
       y="2362.5269"
       id="text4246-3-2-2-3-3-6-2-9"><tspan
         style="font-size:45px"
         sodipodi:role="line"
         x="1869.7039"
         y="2362.5269"
         id="tspan1080">Sungguh</tspan><tspan
         style="font-size:45px"
         sodipodi:role="line"
         x="1869.7039"
         y="2418.7769"
         id="tspan222">penyihir yang</tspan><tspan
         style="font-size:45px"
         sodipodi:role="line"
         x="1869.7039"
         y="2475.0269"
         id="tspan224">menarik.</tspan></text>
  </g>
</svg>
