<?xml version="1.0" encoding="UTF-8" standalone="no"?>
<!-- Created with Inkscape (http://www.inkscape.org/) -->

<svg
   xmlns:dc="http://purl.org/dc/elements/1.1/"
   xmlns:cc="http://creativecommons.org/ns#"
   xmlns:rdf="http://www.w3.org/1999/02/22-rdf-syntax-ns#"
   xmlns:svg="http://www.w3.org/2000/svg"
   xmlns="http://www.w3.org/2000/svg"
   xmlns:xlink="http://www.w3.org/1999/xlink"
   xmlns:sodipodi="http://sodipodi.sourceforge.net/DTD/sodipodi-0.dtd"
   xmlns:inkscape="http://www.inkscape.org/namespaces/inkscape"
   id="svg2"
   version="1.1"
   inkscape:version="0.92.2 (5c3e80d, 2017-08-06)"
   width="2481"
   height="3503"
   sodipodi:docname="Pepper-and-Carrot_by-David-Revoy_E13P03.svg"
   enable-background="new"
   inkscape:export-filename="E:\Users\jamesmichael\Downloads\Compressed\eps\peppercarrot_ep13_translation-master\peppercarrot_ep13_translation-master\ph\Pepper-and-Carrot_by-David-Revoy_E13P03.png"
   inkscape:export-xdpi="98.082787"
   inkscape:export-ydpi="98.082787">
  <metadata
     id="metadata8">
    <rdf:RDF>
      <cc:Work
         rdf:about="">
        <dc:format>image/svg+xml</dc:format>
        <dc:type
           rdf:resource="http://purl.org/dc/dcmitype/StillImage" />
        <dc:title />
      </cc:Work>
    </rdf:RDF>
  </metadata>
  <defs
     id="defs6">
    <filter
       style="color-interpolation-filters:sRGB"
       id="filter5561-7-8-9"
       inkscape:label="Roughen">
      <feFlood
         id="feFlood5563-4-9-0"
         flood-opacity="1"
         flood-color="rgb(88,149,175)"
         result="flood" />
      <feComposite
         id="feComposite5565-6-3-0"
         in2="SourceGraphic"
         in="flood"
         operator="in"
         result="composite1" />
      <feMorphology
         id="feMorphology5567-3-48-3"
         operator="dilate"
         radius="5.5"
         result="result3" />
      <feComposite
         id="feComposite5569-6-6-5"
         in2="result3"
         in="SourceGraphic"
         operator="over"
         result="fbSourceGraphic" />
      <feColorMatrix
         result="fbSourceGraphicAlpha"
         in="fbSourceGraphic"
         values="0 0 0 -1 0 0 0 0 -1 0 0 0 0 -1 0 0 0 0 1 0"
         id="feColorMatrix4681-5-3" />
      <feTurbulence
         id="feTurbulence4683-3-9"
         type="fractalNoise"
         numOctaves="1"
         seed="33"
         baseFrequency="0.001 0.0199"
         result="turbulence" />
      <feDisplacementMap
         id="feDisplacementMap4685-0-6"
         in2="turbulence"
         in="fbSourceGraphic"
         scale="37.8"
         yChannelSelector="G"
         xChannelSelector="R" />
    </filter>
    <filter
       style="color-interpolation-filters:sRGB"
       id="filter5561-7-8-9-5"
       inkscape:label="Roughen">
      <feFlood
         id="feFlood5563-4-9-0-1"
         flood-opacity="1"
         flood-color="rgb(88,149,175)"
         result="flood" />
      <feComposite
         id="feComposite5565-6-3-0-8"
         in2="SourceGraphic"
         in="flood"
         operator="in"
         result="composite1" />
      <feMorphology
         id="feMorphology5567-3-48-3-8"
         operator="dilate"
         radius="5.5"
         result="result3" />
      <feComposite
         id="feComposite5569-6-6-5-6"
         in2="result3"
         in="SourceGraphic"
         operator="over"
         result="fbSourceGraphic" />
      <feColorMatrix
         result="fbSourceGraphicAlpha"
         in="fbSourceGraphic"
         values="0 0 0 -1 0 0 0 0 -1 0 0 0 0 -1 0 0 0 0 1 0"
         id="feColorMatrix4681-5-3-1" />
      <feTurbulence
         id="feTurbulence4683-3-9-7"
         type="fractalNoise"
         numOctaves="1"
         seed="33"
         baseFrequency="0.001 0.0199"
         result="turbulence" />
      <feDisplacementMap
         id="feDisplacementMap4685-0-6-9"
         in2="turbulence"
         in="fbSourceGraphic"
         scale="37.8"
         yChannelSelector="G"
         xChannelSelector="R" />
    </filter>
    <filter
       style="color-interpolation-filters:sRGB"
       id="filter5561-1"
       inkscape:label="deevad outline effect">
      <feFlood
         id="feFlood5563-9"
         flood-opacity="1"
         flood-color="rgb(0,0,0)"
         result="flood" />
      <feComposite
         id="feComposite5565-0"
         in2="SourceGraphic"
         in="flood"
         operator="in"
         result="composite1" />
      <feMorphology
         id="feMorphology5567-7"
         operator="dilate"
         radius="1.8999999999999999 6.0999999999999996"
         result="result3" />
      <feComposite
         id="feComposite5569-2"
         in2="result3"
         in="SourceGraphic"
         operator="over"
         result="composite2" />
    </filter>
    <filter
       inkscape:collect="always"
       style="color-interpolation-filters:sRGB"
       id="filter1299">
      <feBlend
         inkscape:collect="always"
         mode="overlay"
         in2="BackgroundImage"
         id="feBlend1301" />
    </filter>
    <filter
       inkscape:collect="always"
       style="color-interpolation-filters:sRGB"
       id="filter1419"
       x="-0.2236"
       width="1.4472"
       y="-0.37732499"
       height="1.75465">
      <feGaussianBlur
         inkscape:collect="always"
         stdDeviation="40.021359"
         id="feGaussianBlur1421" />
    </filter>
    <filter
       inkscape:collect="always"
       style="color-interpolation-filters:sRGB"
       id="filter1533">
      <feBlend
         inkscape:collect="always"
         mode="overlay"
         in2="BackgroundImage"
         id="feBlend1535" />
    </filter>
    <mask
       maskUnits="userSpaceOnUse"
       id="mask1603">
      <path
         style="fill:#ffffff;fill-opacity:1;stroke:none;stroke-width:1px;stroke-linecap:butt;stroke-linejoin:miter;stroke-opacity:1"
         d="m 1836.25,577.37507 c 0,0 14.375,31.875 18.125,42.5 3.75,10.625 29.375,38.75 67.5,37.5 38.125,-1.25 -2.5,0 -2.5,0 0,0 -27.4686,19.81694 -19.9686,41.69194 7.5,21.875 -1.2814,-8.56694 16.2186,-16.06694 -7.8138,9.09264 1.8516,20.03892 0,23.125 0,0 -1.9064,-0.88388 -14.4064,4.11612 -12.5,5 -13.4708,15.25888 -13.4708,15.25888 5.7869,-2.57043 13.6411,-1.30883 16.0133,1.61152 0,0 4.0606,6.59581 -24.7273,6.51348 -9.2793,9.71142 3.9553,12.7249 3.9395,12.72097 -0.9816,-0.53546 -20.8123,-2.77767 -36.1427,34.82345 -10.9939,26.44546 -42.0465,38.16433 -38.6872,38.93955 -8.4228,3.97025 -15.7897,4.99736 -17.2216,21.41354 -14.022,9.11997 -18.6924,42.16404 -34.205,27.89753 -2.7601,-2.53848 -221.0918,-132.67004 -221.0918,-132.67004 l 61.25,-206.875 195,-53.75 43.125,32.5 c 0,0 -23.125,-8.75 -18.125,21.25 5,30 19.375,47.5 19.375,47.5 z"
         id="path1605"
         inkscape:connector-curvature="0"
         sodipodi:nodetypes="csscsccscccccccsccccsc" />
    </mask>
    <clipPath
       clipPathUnits="userSpaceOnUse"
       id="clipPath1667">
      <text
         transform="skewX(-24.451621)"
         xml:space="preserve"
         style="font-style:normal;font-variant:normal;font-weight:normal;font-stretch:normal;line-height:0%;font-family:Lavi;-inkscape-font-specification:Lavi;text-align:center;letter-spacing:0px;word-spacing:0px;text-anchor:middle;fill:#000000;fill-opacity:1;stroke:none"
         x="1929.515"
         y="592.87842"
         id="text1673"><tspan
           sodipodi:role="line"
           style="font-size:45px;line-height:1.25"
           x="1929.515"
           y="592.87842"
           id="tspan1669">yabang</tspan><tspan
           id="tspan1671"
           sodipodi:role="line"
           style="font-size:45px;line-height:1.25"
           x="1937.4252"
           y="649.12842" /></text>
    </clipPath>
  </defs>
  <sodipodi:namedview
     pagecolor="#ffffff"
     bordercolor="#666666"
     borderopacity="1"
     objecttolerance="10"
     gridtolerance="10"
     guidetolerance="10"
     inkscape:pageopacity="0"
     inkscape:pageshadow="2"
     inkscape:window-width="1366"
     inkscape:window-height="705"
     id="namedview4"
     showgrid="false"
     inkscape:zoom="0.28284271"
     inkscape:cx="1383.9085"
     inkscape:cy="2392.1575"
     inkscape:window-x="-8"
     inkscape:window-y="-8"
     inkscape:window-maximized="1"
     inkscape:current-layer="layer1"
     showguides="false" />
  <g
     inkscape:groupmode="layer"
     id="layer2"
     inkscape:label="artwork"
     sodipodi:insensitive="true">
    <image
       sodipodi:absref="E:\Users\jamesmichael\Downloads\Compressed\eps\peppercarrot_ep13_translation-master\peppercarrot_ep13_translation-master\ph\../gfx_Pepper-and-Carrot_by-David-Revoy_E13P03.png"
       xlink:href="../gfx_Pepper-and-Carrot_by-David-Revoy_E13P03.png"
       width="2481"
       height="3503"
       id="image10"
       x="0"
       y="0" />
  </g>
  <g
     inkscape:groupmode="layer"
     id="layer3"
     inkscape:label="speechbubbles" />
  <g
     inkscape:groupmode="layer"
     id="layer1"
     inkscape:label="txt"
     style="opacity:1">
    <g
       id="g2021">
      <path
         sodipodi:nodetypes="sssss"
         inkscape:connector-curvature="0"
         id="path3238"
         d="m 1631.8924,1954.1711 c 0.3398,-105.0809 40.4347,-152.601 115.7348,-141.7426 56.392,8.1318 124.3323,8.0006 122.0802,157.9397 -1.1259,74.9694 -50.8362,95.7161 -119.5722,95.661 -91.6049,-0.074 -118.4477,-48.4796 -118.2428,-111.8581 z"
         style="fill:#ffffff;fill-opacity:1;stroke:none;stroke-width:0.94167286" />
      <g
         id="g2002">
        <path
           style="color:#000000;display:inline;overflow:visible;visibility:visible;fill:#ffffff;fill-opacity:1;fill-rule:nonzero;stroke:none;stroke-width:0.88602036px;marker:none;enable-background:accumulate"
           d="m 1612.7954,1677.7831 c 19.6109,41.3147 142.6782,9.6173 173.6434,26.3776 30.9651,16.76 41.237,41.8746 42.6772,52.117 1.4402,10.2423 -2.1603,57.7295 -18.003,67.0408 -15.8426,9.3111 -61.2101,13.9667 -77.0527,13.9667 -15.8426,0 -65.9351,-6.3943 -79.2132,-19.5536 -50.992,-50.5357 -61.6626,-181.2632 -42.0517,-139.9485 z"
           id="path3330"
           inkscape:connector-curvature="0"
           sodipodi:nodetypes="zsssssz" />
        <text
           xml:space="preserve"
           style="font-style:normal;font-variant:normal;font-weight:normal;font-stretch:normal;line-height:0%;font-family:Lavi;-inkscape-font-specification:Lavi;text-align:center;letter-spacing:0px;word-spacing:0px;text-anchor:middle;fill:#782121;fill-opacity:1;stroke:none;"
           x="1754.5942"
           y="1867.4497"
           id="text4246-4-5"><tspan
             sodipodi:role="line"
             style="font-size:45px;line-height:1.25;fill:#782121;"
             x="1754.5942"
             y="1867.4497"
             id="tspan4315-4">... mga</tspan><tspan
             sodipodi:role="line"
             style="font-size:45px;line-height:1.25;fill:#782121;"
             x="1762.5044"
             y="1923.6997"
             id="tspan1853">bruhang </tspan><tspan
             sodipodi:role="line"
             style="font-size:45px;line-height:1.25;fill:#782121;"
             x="1754.5942"
             y="1979.9497"
             id="tspan1968">tradition...</tspan><tspan
             sodipodi:role="line"
             style="font-size:45px;line-height:1.25;fill:#782121;"
             x="1762.5044"
             y="2036.1998"
             id="tspan1978">na yan   </tspan></text>
        <path
           style="opacity:1;fill:#ffffff;fill-opacity:1;stroke:none;stroke-width:0;stroke-miterlimit:4;stroke-dasharray:none;stroke-opacity:1"
           d="m 1665.359,2090.9443 c 0,18.6897 7.4786,31.3866 23.0128,31.3866 15.534,0 26.9904,-7.7883 26.9904,-26.4781 0,-18.6898 -2.9326,-32.0002 -24.1492,-51.6343 11.742,26.3834 -25.854,28.036 -25.854,46.7258 z"
           id="path1859"
           inkscape:connector-curvature="0"
           sodipodi:nodetypes="scscs" />
      </g>
    </g>
    <g
       id="g1984"
       style="opacity:0.79">
      <path
         sodipodi:nodetypes="csssc"
         inkscape:connector-curvature="0"
         id="path3280-1"
         d="m 653.34207,2102.9435 c 1.52636,-57.7219 9.41192,-107.0771 76.1974,-107.1227 70.13777,-0.048 83.16741,30.7712 83.89468,108.6412 1.0264,109.8898 -38.50463,104.7754 -79.93879,105.0542 -58.04032,0.3905 -79.8106,0.4828 -80.15329,-106.5727 z"
         style="fill:#ffffff;stroke:none;stroke-width:1.16988993" />
      <path
         sodipodi:nodetypes="csscscsssc"
         inkscape:connector-curvature="0"
         id="path4538"
         d="m 593.9765,2220.5354 c 29.2314,-0.8578 38.11069,-16.0709 41.57447,-30.2351 3.46369,-14.1642 3.162,-23.3991 25.7719,-37.2845 22.6099,-13.8855 36.62854,-6.3564 49.09724,-12.9569 17.16101,-16.0085 2.99727,-37.4201 -0.24118,-49.5203 -3.57198,-13.3465 37.17368,-3.8411 37.17368,-3.8411 0,0 -0.98288,40.2063 -9.30735,62.789 -8.32443,22.5827 -52.58355,6.6035 -71.61632,18.8115 -17.77293,11.3999 -17.05952,37.4485 -29.32355,45.8579 -12.26411,8.4095 -29.34649,8.9491 -43.12889,6.3795 z"
         style="color:#000000;display:inline;overflow:visible;visibility:visible;fill:#ffffff;fill-opacity:1;fill-rule:nonzero;stroke:none;stroke-width:1px;marker:none;enable-background:accumulate" />
    </g>
    <g
       id="g1711"
       style="opacity:0.754">
      <path
         sodipodi:nodetypes="ccssc"
         inkscape:connector-curvature="0"
         id="path3145-9"
         d="m 1323.869,258.64139 c 4.1577,190.02379 -34.2999,214.08271 -95.8258,239.18777 -58.9174,2.69718 -244.29534,37.50995 -245.15924,-187.45282 C 981.84322,39.42618 1089.9369,54.233323 1162.8287,55.58939 c 104.2051,1.938649 158.9232,51.00791 161.0403,203.052 z"
         style="color:#000000;display:inline;overflow:visible;visibility:visible;opacity:1;fill:#ffffff;fill-opacity:1;fill-rule:nonzero;stroke:none;stroke-width:1.36323929px;marker:none;filter:url(#filter4386);enable-background:accumulate" />
      <g
         style="opacity:1"
         id="g1689"
         transform="matrix(1.0913463,0,0,1,-110.14261,0)">
        <path
           style="color:#000000;display:inline;overflow:visible;visibility:visible;opacity:1;fill:#ffffff;fill-opacity:1;fill-rule:nonzero;stroke:none;stroke-width:0.92802459px;marker:none;filter:url(#filter4386);enable-background:accumulate"
           d="m 1369.8326,548.75273 c 2.0003,92.99313 -16.5028,104.76699 -46.105,117.05281 -15.8931,0.74005 -50.9119,6.42043 -78.6879,-8.13339 -21.7656,-11.40455 -39.0837,-35.23395 -39.2663,-83.60157 -0.5006,-132.59661 51.5067,-125.35033 86.5773,-124.6867 50.1365,0.94873 76.4631,24.96207 77.4819,99.36885 z"
           id="path3145-9-0"
           inkscape:connector-curvature="0"
           sodipodi:nodetypes="ccsssc" />
        <path
           style="color:#000000;display:inline;overflow:visible;visibility:visible;opacity:1;fill:#ffffff;fill-opacity:1;fill-rule:nonzero;stroke:none;stroke-width:0.6156733px;marker:none;enable-background:accumulate"
           d="m 1275.0292,611.38465 c 1.2059,2.98299 35.1866,141.25163 65.5668,277.91388 -6.7955,-79.54431 -20.9304,-272.8992 -24.8141,-278.36548 -3.7452,-22.94273 -46.2191,-11.85843 -40.7527,0.4516 z"
           id="path5050"
           inkscape:connector-curvature="0"
           sodipodi:nodetypes="cccc" />
      </g>
    </g>
    <path
       style="color:#000000;display:inline;overflow:visible;visibility:visible;opacity:0.82099998;fill:#ffffff;fill-opacity:1;fill-rule:nonzero;stroke:none;stroke-width:1.35049403px;marker:none;filter:url(#filter4386);enable-background:accumulate"
       d="M 177.28307,334.81945 C 174.65352,152.85065 208.09273,130.65959 261.52165,107.9691 312.57596,106.6692 473.34849,77.38136 472.94591,292.71981 472.46112,552.07825 378.89443,535.55437 315.75469,532.67077 225.49089,528.54839 178.33926,480.39215 177.28307,334.81945 Z"
       id="path3145"
       inkscape:connector-curvature="0"
       sodipodi:nodetypes="ccssc" />
    <text
       xml:space="preserve"
       style="font-style:normal;font-variant:normal;font-weight:normal;font-stretch:normal;line-height:0%;font-family:Lavi;-inkscape-font-specification:Lavi;text-align:center;letter-spacing:0px;word-spacing:0px;text-anchor:middle;fill:#800066;fill-opacity:1;stroke:none;"
       x="1155.4413"
       y="132.14574"
       id="text4246"><tspan
         sodipodi:role="line"
         style="font-size:45px;line-height:1.25;fill:#800066;"
         x="1163.3514"
         y="132.14574"
         id="tspan4251">... </tspan><tspan
         sodipodi:role="line"
         style="font-size:45px;line-height:1.25;fill:#800066;"
         x="1163.3514"
         y="188.39574"
         id="tspan3668">hindi naman </tspan><tspan
         sodipodi:role="line"
         style="font-size:45px;line-height:1.25;fill:#800066;"
         x="1155.4413"
         y="244.64574"
         id="tspan971">sa hindi ko ina-</tspan><tspan
         sodipodi:role="line"
         style="font-size:45px;line-height:1.25;fill:#800066;"
         x="1163.3514"
         y="300.89575"
         id="tspan975">appreciate, </tspan><tspan
         sodipodi:role="line"
         style="font-size:45px;line-height:1.25;fill:#800066;"
         x="1155.4413"
         y="357.14575"
         id="tspan979">pero</tspan><tspan
         sodipodi:role="line"
         style="font-size:45px;line-height:1.25;fill:#800066;"
         x="1155.4413"
         y="413.39578"
         id="tspan1574">alam mo</tspan><tspan
         sodipodi:role="line"
         style="font-size:45px;line-height:1.25;fill:#800066;"
         x="1155.4413"
         y="469.64578"
         id="tspan1572">na ...</tspan></text>
    <path
       style="opacity:0.79000005;fill:#ffffff;stroke:none;stroke-width:1.01190245"
       d="m 593.78189,1775.9682 c 2.56524,-92.0572 15.81782,-170.7707 128.05857,-170.8435 117.87458,-0.077 139.7724,49.0752 140.99471,173.2653 1.72492,175.2566 -64.7115,167.1001 -134.34642,167.5447 -97.54344,0.6228 -134.13092,0.7699 -134.70686,-169.9665 z"
       id="path3280"
       inkscape:connector-curvature="0"
       sodipodi:nodetypes="csssc" />
    <g
       id="g1988"
       style="opacity:0.781"
       transform="translate(3.5355338,5.3033007)">
      <path
         sodipodi:nodetypes="cscscscscscscscscscscscsc"
         inkscape:connector-curvature="0"
         id="path4040-4"
         d="m 1375.0672,2785.6251 c 7.9562,7.0943 3.3494,20.9097 7.69,30.3995 4.3407,9.4899 17.629,14.6541 20.9982,24.2745 10.0198,33.3726 -1.2966,70.4787 3.6555,104.8146 4.9521,34.3362 26.1729,65.9024 28.0548,100.4085 1.2714,32.8764 -15.8115,63.4016 -17.8277,96.3094 -2.0162,32.9077 11.0349,68.1984 2.5728,100.0842 -4.0563,15.1733 -21.1345,14.9809 -29.2326,28.5907 -8.0981,13.6096 -7.2164,41.0214 -20.7701,50.1013 -22.0804,15.2439 -49.8475,8.1861 -76.5032,11.7471 -26.6553,3.5614 -52.199,17.7418 -78.3625,12.5607 -18.567,-3.996 -30.6992,-29.4381 -47.8863,-38.3339 -17.1867,-8.8956 -39.4282,-1.2451 -50.698,-17.0783 -9.3254,-15.0655 -0.2258,-42.2135 -5.1788,-58.9963 -4.9526,-16.783 -23.9576,-23.2008 -27.4609,-40.1703 -7.5313,-41.5393 6.8604,-86.5186 3.7104,-128.5156 -3.1499,-41.9974 -23.8413,-81.0122 -23.714,-123.0362 0.57,-20.1933 19.4485,-35.867 21.1587,-56.1178 1.7099,-20.2511 -13.7485,-45.0789 -6.679,-64.2438 4.7577,-13.3763 24.6737,-16.9479 34.6841,-26.9671 10.0099,-10.0192 10.1137,-26.486 23.5944,-31.5951 16.5572,-6.468 38.503,8.3159 56.0899,5.3514 17.5868,-2.9645 30.815,-23.6773 48.5291,-25.1154 24.1371,-1.0584 38.9593,25.016 61.5551,33.0766 22.5957,8.0607 52.9652,-1.8889 72.0201,12.4513 z"
         style="color:#000000;display:inline;overflow:visible;visibility:visible;fill:#ffffff;fill-opacity:1;fill-rule:nonzero;stroke:none;stroke-width:1.2224077px;marker:none;enable-background:accumulate" />
      <path
         sodipodi:nodetypes="cccc"
         inkscape:connector-curvature="0"
         id="path4480"
         d="m 1233.8783,2823.5431 c -8.0647,-59.1034 -4.9239,-100.7685 -12.4098,-175.7947 -25.2846,109.1057 -27.1241,128.2159 -30.4643,179.5225 -6.7271,67.0194 61.43,92.3393 42.8741,-3.7278 z"
         style="color:#000000;display:inline;overflow:visible;visibility:visible;fill:#ffffff;fill-opacity:1;fill-rule:nonzero;stroke:none;stroke-width:1.66243076px;marker:none;enable-background:accumulate" />
    </g>
    <text
       xml:space="preserve"
       style="color:#000000;font-style:normal;font-variant:normal;font-weight:normal;font-stretch:normal;line-height:0%;font-family:Arial;-inkscape-font-specification:Arial;letter-spacing:0.02734961px;word-spacing:0px;display:inline;overflow:visible;visibility:visible;fill:#ffffff;fill-opacity:1;fill-rule:nonzero;stroke:#ffffff;stroke-width:1.11559534;stroke-linecap:butt;stroke-linejoin:miter;stroke-miterlimit:4;stroke-dasharray:none;stroke-dashoffset:0;stroke-opacity:1;marker:none;filter:url(#filter5561-1);enable-background:accumulate"
       id="text4251-1-3"
       inkscape:transform-center-x="-223.72753"
       inkscape:transform-center-y="137.11092"
       y="1742.2045"
       x="1705.2566"
       transform="matrix(0.5605584,-0.46242654,0.37517214,1.5026606,-52.257301,-434.9215)"><tspan
         sodipodi:role="line"
         id="tspan4253-5-1"
         x="1705.2566"
         y="1742.2045"
         style="font-style:normal;font-variant:normal;font-weight:normal;font-stretch:normal;font-size:45.57711792px;line-height:1.25;font-family:Lavi;-inkscape-font-specification:Lavi;letter-spacing:6.35989523px">bam !</tspan></text>
    <text
       xml:space="preserve"
       style="font-style:normal;font-variant:normal;font-weight:normal;font-stretch:normal;line-height:0%;font-family:Lavi;-inkscape-font-specification:Lavi;text-align:center;letter-spacing:0px;word-spacing:0px;text-anchor:middle;fill:#782121;fill-opacity:1;stroke:none;"
       x="1034.2487"
       y="1708.2682"
       id="text4246-4-3"
       transform="matrix(0.97654552,0,0.40128531,1.0240178,0,0)"><tspan
         sodipodi:role="line"
         style="font-size:53.13556671px;line-height:1.25;fill:#782121;"
         x="1043.5889"
         y="1708.2682"
         id="tspan4315-1">Boo </tspan><tspan
         sodipodi:role="line"
         style="font-size:53.13556671px;line-height:1.25;fill:#782121;"
         x="1034.2487"
         y="1729.5219"
         id="tspan1857" /></text>
    <g
       id="g2006">
      <path
         sodipodi:nodetypes="cssssccssssc"
         inkscape:connector-curvature="0"
         id="path3067"
         d="m 1669.2978,2548.8961 c -16.9954,-67.2562 9.038,-163.8817 12.8182,-173.1812 35.2293,-86.6676 -57.2446,-103.743 -35.3173,-138.7302 34.605,-55.2156 81.4427,-103.1793 218.3902,-105.344 312.6016,-4.9412 449.3819,304.5074 466.173,185.8532 9.8048,-69.2853 -1.9758,-98.7035 -1.9758,-98.7035 l -31.8248,-6.8978 c 0,0 16.0635,33.3144 15.3912,66.6732 -1.6677,82.7539 -203.7538,-162.7274 -435.6195,-158.2252 -200.7653,3.8983 -236.9179,63.1458 -259.744,98.1126 -34.9857,53.5939 65.5207,63.2618 57.1218,136.7997 -1.0801,9.4567 -30.8362,128.7197 -5.413,193.6432 z"
         style="fill:#ffffff;stroke:none;stroke-width:0.56395417" />
      <path
         sodipodi:nodetypes="sssssssss"
         inkscape:connector-curvature="0"
         id="path3238-4"
         d="m 2093.1878,1983.7308 c -0.2086,-83.6077 -8.6875,-152.6164 14.074,-204.282 2.9399,-6.673 -26.5638,0.7756 -4.3324,-32.3189 59.5044,-88.5805 193.9689,-90.4354 212.2021,-98.4355 28.9317,-12.6943 -19.5726,15.8402 -25.3878,22.3075 -29.0564,32.3148 73.6197,6.412 115.2546,36.5296 48.0829,34.7818 38.5518,133.7279 36.7827,312.1654 -1.6506,166.4729 -74.5167,212.5422 -175.2711,212.4195 -134.276,-0.1672 -172.9709,-107.6548 -173.3221,-248.3856 z"
         style="fill:#ffffff;fill-opacity:1;stroke:none;stroke-width:1.32679141" />
    </g>
    <text
       xml:space="preserve"
       style="font-style:normal;font-variant:normal;font-weight:normal;font-stretch:normal;line-height:0%;font-family:Lavi;-inkscape-font-specification:Lavi;text-align:center;letter-spacing:0px;word-spacing:0px;text-anchor:middle;fill:#a02c2c;fill-opacity:1;stroke:none;"
       x="2264.6208"
       y="1745.3821"
       id="text4246-4-5-6"><tspan
         sodipodi:role="line"
         style="font-size:45px;line-height:1.25;fill:#a02c2c;"
         x="2264.6208"
         y="1745.3821"
         id="tspan1835">Alam mo</tspan><tspan
         sodipodi:role="line"
         style="font-size:45px;line-height:1.25;fill:#a02c2c;"
         x="2272.531"
         y="1801.6321"
         id="tspan1908">one time? </tspan><tspan
         sodipodi:role="line"
         style="font-size:45px;line-height:1.25;fill:#a02c2c;"
         x="2264.6208"
         y="1857.8821"
         id="tspan1934">Nagpanggap</tspan><tspan
         sodipodi:role="line"
         style="font-size:45px;line-height:1.25;fill:#a02c2c;"
         x="2272.531"
         y="1914.1321"
         id="tspan1910">na maharlika </tspan><tspan
         sodipodi:role="line"
         style="font-size:45px;line-height:1.25;fill:#a02c2c;"
         x="2272.531"
         y="1970.3821"
         id="tspan1914">ng Arken </tspan><tspan
         sodipodi:role="line"
         style="font-size:45px;line-height:1.25;fill:#a02c2c;"
         x="2272.531"
         y="2026.6321"
         id="tspan1920">yung lola ko </tspan><tspan
         sodipodi:role="line"
         style="font-size:45px;line-height:1.25;fill:#a02c2c;"
         x="2264.6208"
         y="2082.8821"
         id="tspan4913">para sa test,</tspan><tspan
         sodipodi:role="line"
         style="font-size:45px;line-height:1.25;fill:#a02c2c;"
         x="2272.531"
         y="2139.1321"
         id="tspan1958">kase tradisyon </tspan><tspan
         sodipodi:role="line"
         style="font-size:45px;line-height:1.25;fill:#a02c2c;"
         x="2264.6208"
         y="2195.3821"
         id="tspan1956">daw</tspan><tspan
         sodipodi:role="line"
         style="font-size:45px;line-height:1.25;fill:#a02c2c;"
         x="2264.6208"
         y="2213.9155"
         id="tspan1940" /></text>
    <g
       id="g2010"
       style="opacity:0.833">
      <path
         inkscape:connector-curvature="0"
         id="path3525"
         d="m 2133.9088,2723.658 c -3.731,-40.9319 6.2183,-149.6568 82.7034,-140.703 76.485,8.9537 88.9217,60.1185 90.7872,75.4679 1.8654,15.3494 18.033,102.3294 -41.6627,125.3538 -59.6957,23.024 -113.1729,-1.2793 -131.8279,-60.1187 z"
         style="color:#000000;display:inline;overflow:visible;visibility:visible;fill:#ffffff;fill-opacity:1;fill-rule:nonzero;stroke:none;stroke-width:0.99713379px;marker:none;enable-background:accumulate" />
      <path
         inkscape:connector-curvature="0"
         id="path5050-4"
         d="m 2159.2904,2694.4723 c -3.6441,17.7301 -11.4447,39.2898 -14.8162,43.5939 -3.3716,4.3041 -33.9861,21.1325 -35.9893,27.1701 -2.003,6.0374 7.6075,12.7532 5.2221,16.7476 -2.3853,3.9943 -24.325,18.8186 -25.5329,23.5247 -1.208,4.706 5.7751,23.4243 3.5911,26.6343 -2.1838,3.2099 -13.8992,20.5911 -18.5194,36.825 24.0138,-33.5034 32.9004,-38.0978 34.9034,-44.1353 2.0031,-6.0375 -4.8295,-16.5104 -1.0552,-22.3832 3.7742,-5.8728 24.7276,-20.3873 26.3381,-26.6621 1.6106,-6.2747 -4.065,-12.4239 -4.065,-12.4239 7.4977,-2.7159 47.1797,-21.3111 62.1362,-54.8537 14.9567,-33.5427 -32.2129,-14.0374 -32.2129,-14.0374 z"
         style="color:#000000;display:inline;overflow:visible;visibility:visible;fill:#ffffff;fill-opacity:1;fill-rule:nonzero;stroke:none;stroke-width:1px;marker:none;enable-background:accumulate" />
    </g>
    <text
       xml:space="preserve"
       style="font-style:normal;font-variant:normal;font-weight:normal;font-stretch:normal;line-height:0%;font-family:Lavi;-inkscape-font-specification:Lavi;text-align:center;letter-spacing:0px;word-spacing:0px;text-anchor:middle;fill:#0088aa;fill-opacity:1;stroke:none;"
       x="2226.7175"
       y="2705.8523"
       id="text4246-4-9"><tspan
         sodipodi:role="line"
         style="font-size:45px;line-height:1.25;fill:#0088aa;"
         x="2226.7175"
         y="2705.8523"
         id="tspan4466-9">Talaga ?</tspan></text>
    <text
       id="text4202"
       y="212.33231"
       x="317.02811"
       style="font-style:normal;font-variant:normal;font-weight:normal;font-stretch:normal;line-height:0%;font-family:Lavi;-inkscape-font-specification:Lavi;text-align:center;letter-spacing:0px;word-spacing:0px;text-anchor:middle;fill:#800066;fill-opacity:1;stroke:none;"
       xml:space="preserve"><tspan
         y="212.33231"
         x="324.93826"
         style="font-size:45px;line-height:1.25;fill:#800066;"
         sodipodi:role="line"
         id="tspan1561">Sa totoo </tspan><tspan
         y="268.58231"
         x="324.93826"
         style="font-size:45px;line-height:1.25;fill:#800066;"
         sodipodi:role="line"
         id="tspan4903">lang, </tspan><tspan
         y="324.83231"
         x="317.02811"
         style="font-size:45px;line-height:1.25;fill:#800066;"
         sodipodi:role="line"
         id="tspan4907">dinadaan</tspan><tspan
         y="381.08231"
         x="324.93826"
         style="font-size:45px;line-height:1.25;fill:#800066;"
         sodipodi:role="line"
         id="tspan4909">-daanan ko </tspan><tspan
         y="437.33231"
         x="324.93826"
         style="font-size:45px;line-height:1.25;fill:#800066;"
         sodipodi:role="line"
         id="tspan4911">lang </tspan><tspan
         y="493.58231"
         x="317.02811"
         style="font-size:45px;line-height:1.25;fill:#800066;"
         sodipodi:role="line"
         id="tspan4905">to</tspan></text>
    <text
       xml:space="preserve"
       style="font-style:normal;font-variant:normal;font-weight:normal;font-stretch:normal;line-height:0%;font-family:Lavi;-inkscape-font-specification:Lavi;text-align:center;letter-spacing:0px;word-spacing:0px;text-anchor:middle;fill:#800066;fill-opacity:1;stroke:none;"
       x="1285.0151"
       y="506.20026"
       id="text4246-41"><tspan
         sodipodi:role="line"
         style="font-size:45px;line-height:1.25;fill:#800066;"
         x="1292.9253"
         y="506.20026"
         id="tspan4291">... </tspan><tspan
         sodipodi:role="line"
         style="font-size:45px;line-height:1.25;fill:#800066;"
         x="1285.0151"
         y="562.45026"
         id="tspan1555">umay?</tspan><tspan
         sodipodi:role="line"
         style="font-size:45px;line-height:1.25;fill:#800066;"
         x="1285.0151"
         y="618.70026"
         id="tspan1553"> ...</tspan></text>
    <text
       xml:space="preserve"
       style="font-style:normal;font-variant:normal;font-weight:normal;font-stretch:normal;line-height:0%;font-family:Lavi;-inkscape-font-specification:Lavi;text-align:center;letter-spacing:0px;word-spacing:0px;text-anchor:middle;fill:#0088aa;fill-opacity:1;stroke:none;"
       x="726.60193"
       y="2073.6663"
       id="text4246-4-81"><tspan
         sodipodi:role="line"
         style="font-size:45px;line-height:1.25;fill:#0088aa;"
         x="726.60193"
         y="2077.1541"
         id="tspan4466-1" /><tspan
         sodipodi:role="line"
         style="font-size:45px;line-height:1.25;fill:#0088aa;"
         x="726.60193"
         y="2114.8706"
         id="tspan1730">pero</tspan><tspan
         sodipodi:role="line"
         style="font-size:45px;line-height:1.25;fill:#0088aa;"
         x="726.60193"
         y="2171.1206"
         id="tspan1732"> ...</tspan></text>
    <text
       xml:space="preserve"
       style="font-style:normal;font-weight:normal;font-size:40px;line-height:1.25;font-family:sans-serif;letter-spacing:0px;word-spacing:0px;fill:#000000;fill-opacity:1;stroke:none"
       x="786.875"
       y="2679.25"
       id="text895"><tspan
         sodipodi:role="line"
         id="tspan893"
         x="786.875"
         y="2679.25" /></text>
    <text
       xml:space="preserve"
       style="font-style:normal;font-weight:normal;font-size:40px;line-height:1.25;font-family:sans-serif;letter-spacing:0px;word-spacing:0px;fill:#000000;fill-opacity:1;stroke:none"
       x="1403.6069"
       y="511.93839"
       id="text1578"><tspan
         sodipodi:role="line"
         id="tspan1576"
         x="1403.6069"
         y="511.93839" /></text>
    <path
       sodipodi:nodetypes="cccsc"
       inkscape:connector-curvature="0"
       id="path1580"
       d="m 1921.25,671.13068 c 2.2137,93.50031 -50.7631,136.05227 -83.5229,149.54184 -69.9994,23.8517 -129.7243,-27.39218 -130.2066,-96.41928 -8.4684,-157.14582 100.2497,-146.52332 138.5895,-143.97849 74.3265,4.93348 74.0125,16.02121 75.14,90.85593 z"
       style="color:#000000;display:inline;overflow:visible;visibility:visible;opacity:0.66300001;fill:#ffffff;fill-opacity:1;fill-rule:nonzero;stroke:none;stroke-width:0.97932237px;marker:none;enable-background:accumulate"
       mask="url(#mask1603)" />
    <text
       id="text1588"
       y="749.0318"
       x="2144.2429"
       style="font-style:normal;font-variant:normal;font-weight:normal;font-stretch:normal;line-height:0%;font-family:Lavi;-inkscape-font-specification:Lavi;text-align:center;letter-spacing:0px;word-spacing:0px;text-anchor:middle;fill:#a02c2c;fill-opacity:1;stroke:none"
       xml:space="preserve"
       transform="skewX(-24.451621)"><tspan
         y="749.0318"
         x="2144.2429"
         style="font-size:45px;line-height:1.25;fill:#a02c2c"
         sodipodi:role="line"
         id="tspan1597">!♪</tspan></text>
    <path
       style="fill:#ffffff;fill-opacity:1;stroke:none;stroke-width:1px;stroke-linecap:butt;stroke-linejoin:miter;stroke-opacity:1"
       d="M 1713.291 603.60156 C 1713.8669 603.596 1714.4183 603.64407 1715 603.625 C 1752.1551 602.4068 1715.2301 603.54195 1713.291 603.60156 z "
       id="path1633" />
    <path
       style="fill:#c83737;fill-opacity:1;stroke:none;stroke-width:1px;stroke-linecap:butt;stroke-linejoin:miter;stroke-opacity:1"
       d="m 1656.1816,482.19533 c -0.5382,0.0376 -1.0657,0.0459 -1.6054,0.0899 -2.6962,0.21949 -5.4079,0.52328 -8.1192,0.94336 -2.7112,0.42007 -5.4205,0.95713 -8.1093,1.64843 -2.6889,0.69131 -5.3575,1.53517 -7.9864,2.56836 -2.6288,1.0332 -5.2186,2.25544 -7.75,3.70117 -2.5313,1.44574 -5.004,3.11599 -7.4004,5.04493 -2.3963,1.92893 -4.7156,4.11682 -6.9394,6.59961 -2.2238,2.48278 -4.3534,5.25989 -6.3672,8.36718 -2.0138,3.10729 -3.9135,6.54521 -5.6797,10.34766 -1.7662,3.80245 -3.3978,7.97079 -4.8789,12.53906 -1.4811,4.56827 -2.8103,9.53667 -3.9687,14.94141 -1.1585,5.40474 -2.1471,11.24477 -2.9454,17.55664 -0.7982,6.31186 -1.406,13.09512 -1.8066,20.38476 -0.4006,7.28965 -0.5932,15.08575 -0.5586,23.42383 0.025,6.08301 0.3471,11.77019 0.9375,17.08594 0.5904,5.31575 1.45,10.25943 2.5508,14.85742 1.1008,4.59799 2.4418,8.84957 3.998,12.7793 1.5563,3.92973 3.3264,7.53863 5.2832,10.84961 1.9569,3.31097 4.1017,6.32469 6.4043,9.0664 2.3027,2.74172 4.7639,5.21163 7.3575,7.4336 2.5935,2.22196 5.3187,4.19555 8.1484,5.94726 2.8297,1.75171 5.7645,3.28037 8.7754,4.61133 3.8423,1.69849 7.8099,3.07466 11.8457,4.17969 4.0358,1.10503 8.1386,1.94024 12.2539,2.55469 1.5594,0.23283 3.1104,0.29617 4.6699,0.46875 4.4085,-4.83191 8.4136,-10.52445 11.1641,-17.14063 15.3304,-37.60112 35.161,-35.35968 36.1426,-34.82422 0.016,0.004 -13.2188,-3.00928 -3.9395,-12.7207 28.7879,0.0823 24.7285,-6.51367 24.7285,-6.51367 -2.3722,-2.92035 -10.2268,-4.18176 -16.0137,-1.61133 0,0 0.9708,-10.25977 13.4708,-15.25977 12.5,-5 14.4062,-4.11523 14.4062,-4.11523 1.8516,-3.08608 -7.8138,-14.03236 0,-23.125 -17.5,7.5 20.0312,44.19141 12.5312,22.31641 -7.5,-21.875 -8.7812,-47.94141 -8.7812,-47.94141 0,0 0.7404,-0.0219 0.791,-0.0234 -37.1654,0.3589 -62.0982,-27.01368 -65.791,-37.47656 -3.4301,-9.71868 -14.7416,-34.93422 -16.8184,-39.55469 z"
       id="path1631"
       inkscape:connector-curvature="0"
       clip-path="url(#clipPath1667)"
       transform="translate(156.6471,104.63867)"
       sodipodi:nodetypes="ccccccccsssccscssccccscscccccccsccsccccc" />
    <flowRoot
       xml:space="preserve"
       id="flowRoot1734"
       style="font-style:normal;font-variant:normal;font-weight:normal;font-stretch:normal;font-size:40px;line-height:1.25;font-family:Lavi;-inkscape-font-specification:Lavi;text-align:center;letter-spacing:0px;word-spacing:0px;text-anchor:middle;fill:#0088aa;fill-opacity:1;stroke:none;"
       transform="translate(-284.99999,-227.5)"><flowRegion
         id="flowRegion1736"
         style="font-style:normal;font-variant:normal;font-weight:normal;font-stretch:normal;font-family:Lavi;-inkscape-font-specification:Lavi;text-align:center;text-anchor:middle;fill:#0088aa;"><rect
           id="rect1738"
           width="232.5"
           height="317.5"
           x="897.5"
           y="1883"
           style="font-style:normal;font-variant:normal;font-weight:normal;font-stretch:normal;font-family:Lavi;-inkscape-font-specification:Lavi;text-align:center;text-anchor:middle;fill:#0088aa;" /></flowRegion><flowPara
         id="flowPara1740">Gusto kong </flowPara><flowPara
         id="flowPara1742">tumira sa ganito </flowPara><flowPara
         id="flowPara1744">ka-grandeng bahay,</flowPara></flowRoot>    <flowRoot
       xml:space="preserve"
       id="flowRoot1777"
       style="fill:black;fill-opacity:1;stroke:none;font-family:sans-serif;font-style:normal;font-weight:normal;font-size:40px;line-height:1.25;letter-spacing:0px;word-spacing:0px"><flowRegion
         id="flowRegion1779"><rect
           id="rect1781"
           width="226.25"
           height="215"
           x="1000"
           y="2955.5" /></flowRegion><flowPara
         id="flowPara1783" /></flowRoot>    <flowRoot
       xml:space="preserve"
       id="flowRoot1785"
       style="font-style:normal;font-variant:normal;font-weight:normal;font-stretch:normal;font-size:40px;line-height:1.25;font-family:Lavi;-inkscape-font-specification:Lavi;letter-spacing:0px;word-spacing:0px;fill:#0088aa;fill-opacity:1;stroke:none"
       transform="matrix(1,0,-0.14621052,1,573.63014,-70.533011)"><flowRegion
         id="flowRegion1787"
         style="font-style:normal;font-variant:normal;font-weight:normal;font-stretch:normal;font-family:Lavi;-inkscape-font-specification:Lavi;fill:#0088aa"><rect
           id="rect1789"
           width="278.22476"
           height="554.64722"
           x="1027.5"
           y="2938"
           style="font-style:normal;font-variant:normal;font-weight:normal;font-stretch:normal;font-family:Lavi;-inkscape-font-specification:Lavi;fill:#0088aa" /></flowRegion><flowPara
         id="flowPara1791">&quot;...Ang</flowPara><flowPara
         id="flowPara1801"> -isang-</flowPara><flowPara
         id="flowPara1803"> tunay-na-</flowPara><flowPara
         id="flowPara1807"> witch-ng-Ah...</flowPara><flowPara
         id="flowPara1795">  -di-dapat-</flowPara><flowPara
         id="flowPara1990">maghanap-</flowPara><flowPara
         id="flowPara1993">   ng-Rangya &quot;</flowPara><flowPara
         id="flowPara1797" /><flowPara
         id="flowPara1799" /></flowRoot>    <text
       xml:space="preserve"
       style="font-style:normal;font-weight:normal;font-size:40px;line-height:1.25;font-family:sans-serif;letter-spacing:0px;word-spacing:0px;fill:#000000;fill-opacity:1;stroke:none"
       x="1890"
       y="1768"
       id="text1884"><tspan
         sodipodi:role="line"
         id="tspan1882"
         x="1890"
         y="1768" /></text>
    <flowRoot
       xml:space="preserve"
       id="flowRoot1922"
       style="fill:black;fill-opacity:1;stroke:none;font-family:sans-serif;font-style:normal;font-weight:normal;font-size:40px;line-height:1.25;letter-spacing:0px;word-spacing:0px"><flowRegion
         id="flowRegion1924"><rect
           id="rect1926"
           width="72.5"
           height="232.5"
           x="1960"
           y="1778" /></flowRegion><flowPara
         id="flowPara1928" /></flowRoot>    <text
       transform="matrix(0.97654552,0,0.40128531,1.0240178,0,0)"
       id="text1946"
       y="1756.6047"
       x="1063.2621"
       style="font-style:normal;font-variant:normal;font-weight:normal;font-stretch:normal;line-height:0%;font-family:Lavi;-inkscape-font-specification:Lavi;text-align:center;letter-spacing:0px;word-spacing:0px;text-anchor:middle;fill:#782121;fill-opacity:1;stroke:none;"
       xml:space="preserve"><tspan
         id="tspan1944"
         y="1756.6047"
         x="1063.2621"
         style="font-size:53.13556671px;line-height:1.25;fill:#782121;"
         sodipodi:role="line">hoo!</tspan></text>
  </g>
  <g
     inkscape:groupmode="layer"
     id="layer5"
     inkscape:label="txt 1"
     style="filter:url(#filter1299)">
    <ellipse
       style="opacity:1;fill:#5599ff;fill-opacity:1;stroke:#ff6600;stroke-width:0;stroke-miterlimit:4;stroke-dasharray:none;stroke-opacity:1;filter:url(#filter1419)"
       id="path926"
       cx="981.66809"
       cy="2812.5781"
       rx="214.78368"
       ry="127.27922"
       transform="matrix(0.56626492,0,0,0.56626492,378.46386,1216.7975)" />
    <text
       xml:space="preserve"
       style="color:#000000;font-style:normal;font-variant:normal;font-weight:normal;font-stretch:normal;line-height:0%;font-family:Arial;-inkscape-font-specification:Arial;letter-spacing:0.02734961px;word-spacing:0px;clip-rule:nonzero;display:inline;overflow:visible;visibility:visible;opacity:1;isolation:auto;mix-blend-mode:normal;color-interpolation:sRGB;color-interpolation-filters:linearRGB;solid-color:#000000;solid-opacity:1;fill:#d7e3f4;fill-opacity:1;fill-rule:nonzero;stroke:#ffffff;stroke-width:1.11559534;stroke-linecap:butt;stroke-linejoin:miter;stroke-miterlimit:4;stroke-dasharray:none;stroke-dashoffset:0;stroke-opacity:1;marker:none;filter:url(#filter5561-7-8-9);color-rendering:auto;image-rendering:auto;shape-rendering:auto;text-rendering:auto;enable-background:accumulate"
       x="1705.2566"
       y="1742.2045"
       id="text4251-9-3"
       transform="matrix(0.56659406,-0.01857156,-0.37112281,1.2121883,153.73464,775.05079)"><tspan
         sodipodi:role="line"
         id="tspan4253-3-7"
         x="1705.2566"
         y="1742.2045"
         style="font-style:normal;font-variant:normal;font-weight:normal;font-stretch:normal;font-size:160.11950684px;line-height:1.25;font-family:Lavi;-inkscape-font-specification:Lavi;fill:#ffffff;fill-opacity:1"><tspan
           style="font-size:90px;fill:#ffffff;fill-opacity:1"
           id="tspan4349-9-9">Shiingz </tspan><tspan
           id="tspan4365-0-3"
           style="font-size:45.57711792px;fill:#ffffff;fill-opacity:1">! </tspan><tspan
           id="tspan4311-9-7"
           style="font-size:55.8440094px;fill:#ffffff;fill-opacity:1">! </tspan><tspan
           id="tspan4369-2-8"
           style="font-size:72.51364136px;fill:#ffffff;fill-opacity:1">!</tspan></tspan></text>
  </g>
  <g
     inkscape:groupmode="layer"
     id="layer4"
     inkscape:label="txt 2"
     style="filter:url(#filter1533)">
    <text
       id="text1433"
       style="color:#000000;font-style:normal;font-variant:normal;font-weight:normal;font-stretch:normal;font-size:9.89491749px;line-height:0%;font-family:Arial;-inkscape-font-specification:Arial;letter-spacing:4px;word-spacing:0px;clip-rule:nonzero;display:inline;overflow:visible;visibility:visible;opacity:1;isolation:auto;mix-blend-mode:normal;color-interpolation:sRGB;color-interpolation-filters:linearRGB;solid-color:#000000;solid-opacity:1;fill:#d7e3f4;fill-opacity:1;fill-rule:nonzero;stroke:#ffffff;stroke-width:1.11559534;stroke-linecap:butt;stroke-linejoin:miter;stroke-miterlimit:4;stroke-dasharray:none;stroke-dashoffset:0;stroke-opacity:1;marker:none;filter:url(#filter5561-7-8-9);color-rendering:auto;image-rendering:auto;shape-rendering:auto;text-rendering:auto;enable-background:accumulate"
       xml:space="preserve"
       transform="matrix(0.944017,-0.48846052,-0.34367968,1.2371323,1220.4977,-447.48194)"><textPath
         xlink:href="#path1537"
         id="textPath1539"><tspan
   id="tspan1431"
   style="font-style:normal;font-variant:normal;font-weight:normal;font-stretch:normal;font-size:132.03077698px;line-height:1.25;font-family:Lavi;-inkscape-font-specification:Lavi;letter-spacing:4px;fill:#ffffff;fill-opacity:1"><tspan
     style="font-size:74.21188354px;letter-spacing:4px;fill:#ffffff;fill-opacity:1"
     id="tspan1423">Shiingz </tspan><tspan
     id="tspan1425"
     style="font-size:37.58181763px;letter-spacing:4px;fill:#ffffff;fill-opacity:1">! </tspan><tspan
     id="tspan1427"
     style="font-size:46.04765701px;letter-spacing:4px;fill:#ffffff;fill-opacity:1">! </tspan><tspan
     id="tspan1429"
     style="font-size:59.79304123px;letter-spacing:4px;fill:#ffffff;fill-opacity:1">!</tspan></tspan></textPath></text>
    <path
       style="fill:none;stroke:#000000;stroke-width:1px;stroke-linecap:butt;stroke-linejoin:miter;stroke-opacity:1"
       d="m 396.24999,2667.7311 c 177.90448,3.7792 208.38006,74.9419 266.24999,219.0206"
       id="path1537"
       inkscape:connector-curvature="0"
       sodipodi:nodetypes="cc" />
  </g>
</svg>
