<?xml version="1.0" encoding="UTF-8" standalone="no"?>
<!-- Created with Inkscape (http://www.inkscape.org/) -->

<svg
   xmlns:dc="http://purl.org/dc/elements/1.1/"
   xmlns:cc="http://creativecommons.org/ns#"
   xmlns:rdf="http://www.w3.org/1999/02/22-rdf-syntax-ns#"
   xmlns:svg="http://www.w3.org/2000/svg"
   xmlns="http://www.w3.org/2000/svg"
   xmlns:xlink="http://www.w3.org/1999/xlink"
   xmlns:sodipodi="http://sodipodi.sourceforge.net/DTD/sodipodi-0.dtd"
   xmlns:inkscape="http://www.inkscape.org/namespaces/inkscape"
   id="svg2"
   version="1.1"
   inkscape:version="0.92.3 (2405546, 2018-03-11)"
   width="2481"
   height="3503"
   sodipodi:docname="E23P06.svg">
  <metadata
     id="metadata8">
    <rdf:RDF>
      <cc:Work
         rdf:about="">
        <dc:format>image/svg+xml</dc:format>
        <dc:type
           rdf:resource="http://purl.org/dc/dcmitype/StillImage" />
        <dc:title />
      </cc:Work>
    </rdf:RDF>
  </metadata>
  <defs
     id="defs6" />
  <sodipodi:namedview
     pagecolor="#ffffff"
     bordercolor="#666666"
     borderopacity="1"
     objecttolerance="10"
     gridtolerance="10"
     guidetolerance="10"
     inkscape:pageopacity="0"
     inkscape:pageshadow="2"
     inkscape:window-width="1920"
     inkscape:window-height="1022"
     id="namedview4"
     showgrid="false"
     inkscape:zoom="0.49469369"
     inkscape:cx="831.93987"
     inkscape:cy="2724.15"
     inkscape:window-x="0"
     inkscape:window-y="0"
     inkscape:window-maximized="1"
     inkscape:current-layer="layer1"
     inkscape:document-rotation="0" />
  <g
     inkscape:groupmode="layer"
     id="layer2"
     inkscape:label="artwork"
     sodipodi:insensitive="true"
     style="display:inline">
    <image
       xlink:href="../gfx_Pepper-and-Carrot_by-David-Revoy_E23P06.png"
       y="0"
       x="0"
       id="image10"
       height="3503"
       width="2481" />
  </g>
  <g
     inkscape:groupmode="layer"
     id="layer3"
     inkscape:label="speechbubbles"
     style="display:inline">
    <path
       style="fill:#ffffff;fill-rule:evenodd;stroke:none;stroke-width:1.01810873px;stroke-linecap:butt;stroke-linejoin:miter;stroke-opacity:1"
       d="m 115.26952,2081.3114 c 6.74398,-58.4563 42.1499,-95.1613 77.55585,-99.2397 35.40592,-4.0783 381.03522,0 414.75514,9.5161 33.71996,9.5161 82.61385,48.9401 80.92785,78.848 -1.68601,29.9078 4.68441,74.9097 -47.2079,110.1152 -36.887,25.0253 -249.5275,19.0323 -284.93344,19.0323 -35.40593,0 -132.97862,13.2272 -188.83162,-20.3917 -56.3684,-33.9291 -52.26588,-97.8802 -52.26588,-97.8802 z"
       id="path4272"
       inkscape:connector-curvature="0"
       sodipodi:nodetypes="cssssssc" />
    <path
       style="fill:#ffffff;fill-rule:evenodd;stroke:none;stroke-width:1px;stroke-linecap:butt;stroke-linejoin:miter;stroke-opacity:1"
       d="m 1347.7006,2089.9481 c -5.1458,62.4102 -44.3507,98.9803 -75.7458,103.8615 -31.3949,4.8811 -346.78649,8.8341 -376.88035,-0.8007 -30.09375,-9.6346 -90.66383,-52.4632 -89.59854,-84.3674 1.06539,-31.9042 1.65656,-78.2317 47.24763,-116.5397 32.40786,-27.2308 231.06256,-24.0495 262.51636,-24.5836 31.4541,-0.5339 137.2686,-0.6654 187.3736,34.3268 50.5673,35.3148 45.0871,88.1031 45.0871,88.1031 z"
       id="path4272-6"
       inkscape:connector-curvature="0"
       sodipodi:nodetypes="cssssssc" />
    <path
       style="fill:#ffffff;fill-rule:evenodd;stroke:none;stroke-width:1px;stroke-linecap:butt;stroke-linejoin:miter;stroke-opacity:1"
       d="m 1174.8502,2374.625 c 53.2945,-58.4181 71.3886,-137.4736 64.8491,-196.709 -6.4438,-58.3689 -35.667,-20.5356 -35.667,-20.5356 0,0 -7.6853,2.1941 0,30.2629 7.8496,28.6688 31.1185,75.2067 -29.1821,186.9817 z"
       id="path4289"
       inkscape:connector-curvature="0"
       sodipodi:nodetypes="cscsc" />
    <path
       style="fill:#ffffff;fill-rule:evenodd;stroke:none;stroke-width:0.91147918px;stroke-linecap:butt;stroke-linejoin:miter;stroke-opacity:1"
       d="m 1882.4689,2035.12 c 18.1274,-35.4245 52.3118,-58.9166 88.6057,-69.5015 36.2899,-11.0752 74.5834,-11.9139 112.0223,-9.1723 56.7245,-2.1936 115.0221,-7.4303 170.2333,9.8305 24.4377,7.9842 48.322,20.428 66.4968,39.6232 24.2562,30.0872 33.2577,73.0526 23.8181,111.1275 -5.9784,24.8542 -23.9097,46.7741 -47.791,53.8367 -46.1077,13.0852 -93.7723,19.2931 -141.46,20.9878 -41.6503,1.5207 -83.3617,1.0481 -125.01,0.076 -36.9414,-2.9921 -75.5106,-7.4152 -107.9729,-27.6892 -20.8681,-12.8014 -35.9955,-35.2941 -39.6558,-60.4593 -4.9442,-22.5252 -4.3812,-46.2228 0.7135,-68.6597 z"
       id="path4291"
       inkscape:connector-curvature="0" />
    <path
       style="fill:#ffffff;fill-rule:evenodd;stroke:none;stroke-width:1px;stroke-linecap:butt;stroke-linejoin:miter;stroke-opacity:1"
       d="m 2064.9587,2367.1575 c 85.5504,-62.8829 112.322,-138.9575 103.3436,-179.057 -8.9784,-40.0995 -31.8164,-49.0097 -31.7823,-17.5409 0.034,31.4688 34.0662,86.4163 -71.5613,196.5979 z"
       id="path4293"
       inkscape:connector-curvature="0" />
  </g>
  <g
     inkscape:groupmode="layer"
     id="layer1"
     inkscape:label="txt"
     style="display:inline">
    <text
       xml:space="preserve"
       style="font-style:normal;font-variant:normal;font-weight:normal;font-stretch:normal;line-height:0%;font-family:Lavi;-inkscape-font-specification:Lavi;text-align:center;letter-spacing:0px;word-spacing:0px;text-anchor:middle;fill:#000000;fill-opacity:1;stroke:#000000;stroke-width:0.41015574;stroke-miterlimit:4;stroke-dasharray:none;stroke-opacity:1"
       x="1952.7708"
       y="1485.6932"
       id="text4246-8"
       transform="matrix(0.76133526,-0.51280204,0.4098681,1.0374126,0,0)"><tspan
         sodipodi:role="line"
         style="font-size:41.48361969px;line-height:1.25;fill:#000000;stroke:#000000;stroke-width:0.41015574;stroke-miterlimit:4;stroke-dasharray:none;stroke-opacity:1"
         x="1952.7708"
         y="1485.6932"
         id="tspan4150-8">Gag!</tspan></text>
    <text
       xml:space="preserve"
       style="font-style:normal;font-variant:normal;font-weight:normal;font-stretch:normal;line-height:0%;font-family:Lavi;-inkscape-font-specification:Lavi;text-align:center;letter-spacing:0px;word-spacing:0px;text-anchor:middle;fill:#000000;fill-opacity:1;stroke:#000000;stroke-width:0.41015574;stroke-miterlimit:4;stroke-dasharray:none;stroke-opacity:1"
       x="2095.8384"
       y="1367.7908"
       id="text4246-8-3"
       transform="matrix(0.8070703,-0.42305912,0.27884184,1.092883,0,0)"><tspan
         sodipodi:role="line"
         style="font-size:38.3127861px;line-height:1.25;fill:#000000;stroke:#000000;stroke-width:0.41015574;stroke-miterlimit:4;stroke-dasharray:none;stroke-opacity:1"
         x="2095.8384"
         y="1367.7908"
         id="tspan4150-8-6">Gurr-ù!</tspan></text>
    <text
       xml:space="preserve"
       style="font-style:normal;font-variant:normal;font-weight:normal;font-stretch:normal;line-height:0%;font-family:Lavi;-inkscape-font-specification:Lavi;text-align:center;letter-spacing:0px;word-spacing:0px;text-anchor:middle;fill:#000000;fill-opacity:1;stroke:#000000;stroke-width:0.41015574;stroke-miterlimit:4;stroke-dasharray:none;stroke-opacity:1"
       x="2131.8132"
       y="1413.1631"
       id="text4246-8-3-7"
       transform="matrix(0.8070703,-0.42305912,0.27884184,1.092883,0,0)"><tspan
         sodipodi:role="line"
         style="font-size:38.3127861px;line-height:1.25;fill:#000000;stroke:#000000;stroke-width:0.41015574;stroke-miterlimit:4;stroke-dasharray:none;stroke-opacity:1"
         x="2131.8132"
         y="1413.1631"
         id="tspan4150-8-6-5">Gurr-ù!</tspan></text>
    <text
       xml:space="preserve"
       style="font-style:normal;font-variant:normal;font-weight:normal;font-stretch:normal;line-height:0%;font-family:Lavi;-inkscape-font-specification:Lavi;text-align:center;letter-spacing:0px;word-spacing:0px;text-anchor:middle;fill:#000000;fill-opacity:1;stroke:#000000;stroke-width:0.41015574;stroke-miterlimit:4;stroke-dasharray:none;stroke-opacity:1"
       x="1868.1534"
       y="1659.7085"
       id="text4246-8-3-3"
       transform="matrix(0.73266151,-0.54180126,0.44311163,1.0372069,0,0)"><tspan
         sodipodi:role="line"
         style="font-size:38.3127861px;line-height:1.25;fill:#000000;stroke:#000000;stroke-width:0.41015574;stroke-miterlimit:4;stroke-dasharray:none;stroke-opacity:1"
         x="1868.1534"
         y="1659.7085"
         id="tspan4150-8-6-56">Gag!</tspan></text>
    <text
       xml:space="preserve"
       style="font-style:normal;font-variant:normal;font-weight:normal;font-stretch:normal;line-height:0%;font-family:Lavi;-inkscape-font-specification:Lavi;text-align:center;letter-spacing:0px;word-spacing:0px;text-anchor:middle;fill:#000000;fill-opacity:1;stroke:none"
       x="398.71164"
       y="2052.1582"
       id="text4246"><tspan
         sodipodi:role="line"
         style="font-size:45px;line-height:1.25"
         x="405.74289"
         y="2052.1582"
         id="tspan40">Nise a Churrain, seo nas </tspan><tspan
         sodipodi:role="line"
         style="font-size:45px;line-height:1.25"
         x="405.74289"
         y="2108.4082"
         id="tspan42">ciall dha thighinn gu h-inbhe </tspan><tspan
         sodipodi:role="line"
         style="font-size:45px;line-height:1.25"
         x="398.71164"
         y="2164.6582"
         id="tspan50">nam bheachd-sa.</tspan></text>
    <text
       xml:space="preserve"
       style="font-style:normal;font-variant:normal;font-weight:normal;font-stretch:normal;line-height:0%;font-family:Lavi;-inkscape-font-specification:Lavi;text-align:center;letter-spacing:0px;word-spacing:0px;text-anchor:middle;fill:#000000;fill-opacity:1;stroke:none"
       x="1077.1842"
       y="2050.0273"
       id="text4246-2"><tspan
         sodipodi:role="line"
         style="font-size:45px;line-height:1.25"
         x="1084.2155"
         y="2050.0273"
         id="tspan54">Seachain am fuasgladh </tspan><tspan
         sodipodi:role="line"
         style="font-size:45px;line-height:1.25"
         x="1084.2155"
         y="2106.2773"
         id="tspan60">furasta; thoir meas air </tspan><tspan
         sodipodi:role="line"
         style="font-size:45px;line-height:1.25"
         x="1077.1842"
         y="2162.5273"
         id="tspan62">luach na spàirne...</tspan></text>
    <text
       xml:space="preserve"
       style="font-style:normal;font-variant:normal;font-weight:normal;font-stretch:normal;line-height:0%;font-family:Lavi;-inkscape-font-specification:Lavi;text-align:center;letter-spacing:0px;word-spacing:0px;text-anchor:middle;fill:#000000;fill-opacity:1;stroke:none"
       x="2114.6367"
       y="2034.2926"
       id="text4246-2-7"><tspan
         sodipodi:role="line"
         style="font-size:45px;line-height:1.25"
         x="2121.668"
         y="2034.2926"
         id="tspan67">...chan eil ciall sam </tspan><tspan
         sodipodi:role="line"
         style="font-size:45px;line-height:1.25"
         x="2121.668"
         y="2090.5425"
         id="tspan69">bith san fharmad air </tspan><tspan
         sodipodi:role="line"
         style="font-size:45px;line-height:1.25"
         x="2114.6367"
         y="2146.7925"
         id="tspan75">soirbheis chàich!</tspan></text>
  </g>
</svg>
