<?xml version="1.0" encoding="UTF-8" standalone="no"?>
<svg
   xmlns:dc="http://purl.org/dc/elements/1.1/"
   xmlns:cc="http://creativecommons.org/ns#"
   xmlns:rdf="http://www.w3.org/1999/02/22-rdf-syntax-ns#"
   xmlns:svg="http://www.w3.org/2000/svg"
   xmlns="http://www.w3.org/2000/svg"
   xmlns:xlink="http://www.w3.org/1999/xlink"
   xmlns:sodipodi="http://sodipodi.sourceforge.net/DTD/sodipodi-0.dtd"
   xmlns:inkscape="http://www.inkscape.org/namespaces/inkscape"
   sodipodi:docname="E19P07.svg"
   height="3503"
   width="2481"
   inkscape:version="1.0 (4035a4fb49, 2020-05-01)"
   version="1.1"
   id="svg2">
  <sodipodi:namedview
     inkscape:document-rotation="0"
     inkscape:window-maximized="0"
     inkscape:window-y="26"
     inkscape:window-x="0"
     inkscape:current-layer="layer1"
     inkscape:cy="1140.0067"
     inkscape:cx="1341.0495"
     inkscape:zoom="0.45740259"
     showgrid="false"
     id="namedview70"
     inkscape:window-height="955"
     inkscape:window-width="1382"
     inkscape:pageshadow="2"
     inkscape:pageopacity="0"
     bordercolor="#666666"
     pagecolor="#ffffff" />
  <metadata
     id="metadata8">
    <rdf:RDF>
      <cc:Work
         rdf:about="">
        <dc:format>image/svg+xml</dc:format>
        <dc:type
           rdf:resource="http://purl.org/dc/dcmitype/StillImage" />
        <dc:title />
      </cc:Work>
    </rdf:RDF>
  </metadata>
  <defs
     id="defs6">
    <linearGradient
       x1="382.34"
       y1="489.14001"
       gradientTransform="matrix(2.0779,0,0,2.0779,-518.08,-281.8)"
       x2="490.53"
       gradientUnits="userSpaceOnUse"
       y2="333.89001"
       id="linearGradient3019-0">
      <stop
         offset="0"
         style="stop-color:#000000;stop-opacity:.82639"
         id="stop3015-93" />
      <stop
         offset="1"
         style="stop-color:#000000"
         id="stop3017-6" />
    </linearGradient>
    <filter
       id="filter5558"
       inkscape:label="Drop Shadow"
       style="color-interpolation-filters:sRGB">
      <feFlood
         id="feFlood5560"
         result="flood"
         flood-color="rgb(0,0,0)"
         flood-opacity="1" />
      <feComposite
         id="feComposite5562"
         result="composite1"
         operator="in"
         in2="SourceGraphic"
         in="flood" />
      <feGaussianBlur
         id="feGaussianBlur5564"
         result="blur"
         stdDeviation="1"
         in="composite1" />
      <feOffset
         id="feOffset5566"
         result="offset"
         dy="2.5"
         dx="2.5" />
      <feComposite
         id="feComposite5568"
         result="composite2"
         operator="over"
         in2="offset"
         in="SourceGraphic" />
    </filter>
    <filter
       id="filter5546-3"
       inkscape:label="Drop Shadow"
       style="color-interpolation-filters:sRGB">
      <feFlood
         id="feFlood5548-6"
         result="flood"
         flood-color="rgb(0,0,0)"
         flood-opacity="1" />
      <feComposite
         id="feComposite5550-7"
         result="composite1"
         operator="in"
         in2="SourceGraphic"
         in="flood" />
      <feGaussianBlur
         id="feGaussianBlur5552-5"
         result="blur"
         stdDeviation="1"
         in="composite1" />
      <feOffset
         id="feOffset5554-3"
         result="offset"
         dy="2.5"
         dx="2.5" />
      <feComposite
         id="feComposite5556-5"
         result="composite2"
         operator="over"
         in2="offset"
         in="SourceGraphic" />
    </filter>
    <filter
       id="filter5522"
       inkscape:label="Drop Shadow"
       style="color-interpolation-filters:sRGB">
      <feFlood
         id="feFlood5524"
         result="flood"
         flood-color="rgb(0,0,0)"
         flood-opacity="1" />
      <feComposite
         id="feComposite5526"
         result="composite1"
         operator="in"
         in2="SourceGraphic"
         in="flood" />
      <feGaussianBlur
         id="feGaussianBlur5528"
         result="blur"
         stdDeviation="1"
         in="composite1" />
      <feOffset
         id="feOffset5530"
         result="offset"
         dy="2.5"
         dx="2.5" />
      <feComposite
         id="feComposite5532"
         result="composite2"
         operator="over"
         in2="offset"
         in="SourceGraphic" />
    </filter>
    <filter
       id="filter5534"
       inkscape:label="Drop Shadow"
       style="color-interpolation-filters:sRGB">
      <feFlood
         id="feFlood5536"
         result="flood"
         flood-color="rgb(0,0,0)"
         flood-opacity="1" />
      <feComposite
         id="feComposite5538"
         result="composite1"
         operator="in"
         in2="SourceGraphic"
         in="flood" />
      <feGaussianBlur
         id="feGaussianBlur5540"
         result="blur"
         stdDeviation="1"
         in="composite1" />
      <feOffset
         id="feOffset5542"
         result="offset"
         dy="2.5"
         dx="2.5" />
      <feComposite
         id="feComposite5544"
         result="composite2"
         operator="over"
         in2="offset"
         in="SourceGraphic" />
    </filter>
    <filter
       id="filter5558-6"
       inkscape:label="Drop Shadow"
       style="color-interpolation-filters:sRGB">
      <feFlood
         id="feFlood5560-1"
         result="flood"
         flood-color="rgb(0,0,0)"
         flood-opacity="1" />
      <feComposite
         id="feComposite5562-8"
         result="composite1"
         operator="in"
         in2="SourceGraphic"
         in="flood" />
      <feGaussianBlur
         id="feGaussianBlur5564-7"
         result="blur"
         stdDeviation="1"
         in="composite1" />
      <feOffset
         id="feOffset5566-9"
         result="offset"
         dy="2.5"
         dx="2.5" />
      <feComposite
         id="feComposite5568-2"
         result="composite2"
         operator="over"
         in2="offset"
         in="SourceGraphic" />
    </filter>
    <filter
       id="filter5546-3-0"
       inkscape:label="Drop Shadow"
       style="color-interpolation-filters:sRGB">
      <feFlood
         id="feFlood5548-6-2"
         result="flood"
         flood-color="rgb(0,0,0)"
         flood-opacity="1" />
      <feComposite
         id="feComposite5550-7-3"
         result="composite1"
         operator="in"
         in2="SourceGraphic"
         in="flood" />
      <feGaussianBlur
         id="feGaussianBlur5552-5-7"
         result="blur"
         stdDeviation="1"
         in="composite1" />
      <feOffset
         id="feOffset5554-3-5"
         result="offset"
         dy="2.5"
         dx="2.5" />
      <feComposite
         id="feComposite5556-5-9"
         result="composite2"
         operator="over"
         in2="offset"
         in="SourceGraphic" />
    </filter>
    <filter
       id="filter5522-2"
       inkscape:label="Drop Shadow"
       style="color-interpolation-filters:sRGB">
      <feFlood
         id="feFlood5524-2"
         result="flood"
         flood-color="rgb(0,0,0)"
         flood-opacity="1" />
      <feComposite
         id="feComposite5526-8"
         result="composite1"
         operator="in"
         in2="SourceGraphic"
         in="flood" />
      <feGaussianBlur
         id="feGaussianBlur5528-9"
         result="blur"
         stdDeviation="1"
         in="composite1" />
      <feOffset
         id="feOffset5530-7"
         result="offset"
         dy="2.5"
         dx="2.5" />
      <feComposite
         id="feComposite5532-3"
         result="composite2"
         operator="over"
         in2="offset"
         in="SourceGraphic" />
    </filter>
    <filter
       id="filter5534-6"
       inkscape:label="Drop Shadow"
       style="color-interpolation-filters:sRGB">
      <feFlood
         id="feFlood5536-1"
         result="flood"
         flood-color="rgb(0,0,0)"
         flood-opacity="1" />
      <feComposite
         id="feComposite5538-2"
         result="composite1"
         operator="in"
         in2="SourceGraphic"
         in="flood" />
      <feGaussianBlur
         id="feGaussianBlur5540-9"
         result="blur"
         stdDeviation="1"
         in="composite1" />
      <feOffset
         id="feOffset5542-3"
         result="offset"
         dy="2.5"
         dx="2.5" />
      <feComposite
         id="feComposite5544-1"
         result="composite2"
         operator="over"
         in2="offset"
         in="SourceGraphic" />
    </filter>
    <filter
       id="filter5558-9"
       inkscape:label="Drop Shadow"
       style="color-interpolation-filters:sRGB">
      <feFlood
         id="feFlood5560-4"
         result="flood"
         flood-color="rgb(0,0,0)"
         flood-opacity="1" />
      <feComposite
         id="feComposite5562-7"
         result="composite1"
         operator="in"
         in2="SourceGraphic"
         in="flood" />
      <feGaussianBlur
         id="feGaussianBlur5564-8"
         result="blur"
         stdDeviation="1"
         in="composite1" />
      <feOffset
         id="feOffset5566-4"
         result="offset"
         dy="2.5"
         dx="2.5" />
      <feComposite
         id="feComposite5568-5"
         result="composite2"
         operator="over"
         in2="offset"
         in="SourceGraphic" />
    </filter>
    <filter
       id="filter5546-3-03"
       inkscape:label="Drop Shadow"
       style="color-interpolation-filters:sRGB">
      <feFlood
         id="feFlood5548-6-6"
         result="flood"
         flood-color="rgb(0,0,0)"
         flood-opacity="1" />
      <feComposite
         id="feComposite5550-7-1"
         result="composite1"
         operator="in"
         in2="SourceGraphic"
         in="flood" />
      <feGaussianBlur
         id="feGaussianBlur5552-5-0"
         result="blur"
         stdDeviation="1"
         in="composite1" />
      <feOffset
         id="feOffset5554-3-6"
         result="offset"
         dy="2.5"
         dx="2.5" />
      <feComposite
         id="feComposite5556-5-3"
         result="composite2"
         operator="over"
         in2="offset"
         in="SourceGraphic" />
    </filter>
    <filter
       id="filter5522-20"
       inkscape:label="Drop Shadow"
       style="color-interpolation-filters:sRGB">
      <feFlood
         id="feFlood5524-6"
         result="flood"
         flood-color="rgb(0,0,0)"
         flood-opacity="1" />
      <feComposite
         id="feComposite5526-1"
         result="composite1"
         operator="in"
         in2="SourceGraphic"
         in="flood" />
      <feGaussianBlur
         id="feGaussianBlur5528-5"
         result="blur"
         stdDeviation="1"
         in="composite1" />
      <feOffset
         id="feOffset5530-5"
         result="offset"
         dy="2.5"
         dx="2.5" />
      <feComposite
         id="feComposite5532-4"
         result="composite2"
         operator="over"
         in2="offset"
         in="SourceGraphic" />
    </filter>
    <filter
       id="filter5534-7"
       inkscape:label="Drop Shadow"
       style="color-interpolation-filters:sRGB">
      <feFlood
         id="feFlood5536-6"
         result="flood"
         flood-color="rgb(0,0,0)"
         flood-opacity="1" />
      <feComposite
         id="feComposite5538-5"
         result="composite1"
         operator="in"
         in2="SourceGraphic"
         in="flood" />
      <feGaussianBlur
         id="feGaussianBlur5540-6"
         result="blur"
         stdDeviation="1"
         in="composite1" />
      <feOffset
         id="feOffset5542-9"
         result="offset"
         dy="2.5"
         dx="2.5" />
      <feComposite
         id="feComposite5544-3"
         result="composite2"
         operator="over"
         in2="offset"
         in="SourceGraphic" />
    </filter>
    <filter
       id="filter5558-7"
       inkscape:label="Drop Shadow"
       style="color-interpolation-filters:sRGB">
      <feFlood
         id="feFlood5560-45"
         result="flood"
         flood-color="rgb(0,0,0)"
         flood-opacity="1" />
      <feComposite
         id="feComposite5562-2"
         result="composite1"
         operator="in"
         in2="SourceGraphic"
         in="flood" />
      <feGaussianBlur
         id="feGaussianBlur5564-5"
         result="blur"
         stdDeviation="1"
         in="composite1" />
      <feOffset
         id="feOffset5566-47"
         result="offset"
         dy="2.5"
         dx="2.5" />
      <feComposite
         id="feComposite5568-4"
         result="composite2"
         operator="over"
         in2="offset"
         in="SourceGraphic" />
    </filter>
    <filter
       id="filter5546"
       inkscape:label="Drop Shadow"
       style="color-interpolation-filters:sRGB">
      <feFlood
         id="feFlood5548"
         result="flood"
         flood-color="rgb(0,0,0)"
         flood-opacity="1" />
      <feComposite
         id="feComposite5550"
         result="composite1"
         operator="in"
         in2="SourceGraphic"
         in="flood" />
      <feGaussianBlur
         id="feGaussianBlur5552"
         result="blur"
         stdDeviation="1"
         in="composite1" />
      <feOffset
         id="feOffset5554"
         result="offset"
         dy="2.5"
         dx="2.5" />
      <feComposite
         id="feComposite5556"
         result="composite2"
         operator="over"
         in2="offset"
         in="SourceGraphic" />
    </filter>
    <filter
       id="filter5546-3-4"
       inkscape:label="Drop Shadow"
       style="color-interpolation-filters:sRGB">
      <feFlood
         id="feFlood5548-6-3"
         result="flood"
         flood-color="rgb(0,0,0)"
         flood-opacity="1" />
      <feComposite
         id="feComposite5550-7-0"
         result="composite1"
         operator="in"
         in2="SourceGraphic"
         in="flood" />
      <feGaussianBlur
         id="feGaussianBlur5552-5-78"
         result="blur"
         stdDeviation="1"
         in="composite1" />
      <feOffset
         id="feOffset5554-3-68"
         result="offset"
         dy="2.5"
         dx="2.5" />
      <feComposite
         id="feComposite5556-5-8"
         result="composite2"
         operator="over"
         in2="offset"
         in="SourceGraphic" />
    </filter>
    <filter
       id="filter5522-4"
       inkscape:label="Drop Shadow"
       style="color-interpolation-filters:sRGB">
      <feFlood
         id="feFlood5524-3"
         result="flood"
         flood-color="rgb(0,0,0)"
         flood-opacity="1" />
      <feComposite
         id="feComposite5526-14"
         result="composite1"
         operator="in"
         in2="SourceGraphic"
         in="flood" />
      <feGaussianBlur
         id="feGaussianBlur5528-92"
         result="blur"
         stdDeviation="1"
         in="composite1" />
      <feOffset
         id="feOffset5530-0"
         result="offset"
         dy="2.5"
         dx="2.5" />
      <feComposite
         id="feComposite5532-6"
         result="composite2"
         operator="over"
         in2="offset"
         in="SourceGraphic" />
    </filter>
    <filter
       id="filter5534-8"
       inkscape:label="Drop Shadow"
       style="color-interpolation-filters:sRGB">
      <feFlood
         id="feFlood5536-9"
         result="flood"
         flood-color="rgb(0,0,0)"
         flood-opacity="1" />
      <feComposite
         id="feComposite5538-26"
         result="composite1"
         operator="in"
         in2="SourceGraphic"
         in="flood" />
      <feGaussianBlur
         id="feGaussianBlur5540-64"
         result="blur"
         stdDeviation="1"
         in="composite1" />
      <feOffset
         id="feOffset5542-95"
         result="offset"
         dy="2.5"
         dx="2.5" />
      <feComposite
         id="feComposite5544-0"
         result="composite2"
         operator="over"
         in2="offset"
         in="SourceGraphic" />
    </filter>
    <filter
       height="1.0558571"
       y="-0.027928527"
       width="1.0178171"
       x="-0.0089085409"
       id="filter5236-4-16-4"
       style="color-interpolation-filters:sRGB"
       inkscape:collect="always">
      <feGaussianBlur
         id="feGaussianBlur5238-0-4-8"
         stdDeviation="0.49168068"
         inkscape:collect="always" />
    </filter>
    <filter
       height="1.0558571"
       y="-0.027928527"
       width="1.0178171"
       x="-0.0089085409"
       id="filter5236-4-16"
       style="color-interpolation-filters:sRGB"
       inkscape:collect="always">
      <feGaussianBlur
         id="feGaussianBlur5238-0-4"
         stdDeviation="0.49168068"
         inkscape:collect="always" />
    </filter>
  </defs>
  <sodipodi:namedview
     inkscape:current-layer="layer1"
     inkscape:window-maximized="1"
     inkscape:window-y="26"
     inkscape:window-x="0"
     inkscape:cy="794.64294"
     inkscape:cx="1288.013"
     inkscape:zoom="0.63883188"
     showgrid="false"
     id="namedview4"
     inkscape:window-height="1025"
     inkscape:window-width="1920"
     inkscape:pageshadow="2"
     inkscape:pageopacity="0"
     guidetolerance="10"
     gridtolerance="10"
     objecttolerance="10"
     borderopacity="1"
     bordercolor="#666666"
     pagecolor="#ffffff" />
  <g
     sodipodi:insensitive="true"
     inkscape:label="artwork"
     id="layer2"
     inkscape:groupmode="layer">
    <image
       sodipodi:absref="C:\Users\stero\Documents\Kernewek\Pepper and Carrot\webcomics\ep19_Pollution\lang\gfx_Pepper-and-Carrot_by-David-Revoy_E19P07.png"
       xlink:href="../gfx_Pepper-and-Carrot_by-David-Revoy_E19P07.png"
       width="2481"
       height="3503"
       id="image10"
       x="0"
       y="0" />
  </g>
  <g
     sodipodi:insensitive="true"
     inkscape:label="translatornotes"
     id="layer4"
     inkscape:groupmode="layer">
    <path
       style="color:#000000;clip-rule:nonzero;display:inline;overflow:visible;visibility:visible;opacity:0.481;isolation:auto;mix-blend-mode:normal;color-interpolation:sRGB;color-interpolation-filters:linearRGB;solid-color:#000000;solid-opacity:1;fill:#ffe680;fill-opacity:1;fill-rule:nonzero;stroke:#565656;stroke-width:1.20000005;stroke-linecap:butt;stroke-linejoin:miter;stroke-miterlimit:4;stroke-dasharray:none;stroke-dashoffset:0;stroke-opacity:1;marker:none;color-rendering:auto;image-rendering:auto;shape-rendering:auto;text-rendering:auto;enable-background:accumulate"
       d="m 2741.3342,2941.3311 0,-189.0352 -203.8301,0 0,90.9805 -10,0 0,-15.6308 -30.9824,26.9824 30.9824,26.9804 0,-16.6171 10,0 0,76.3398 203.8301,0 z"
       id="path3446"
       inkscape:connector-curvature="0" />
    <flowRoot
       xml:space="preserve"
       id="flowRoot3448"
       style="font-style:normal;font-variant:normal;font-weight:normal;font-stretch:normal;line-height:0.01%;font-family:Lavi;-inkscape-font-specification:'Lavi, Normal';text-align:center;letter-spacing:0px;word-spacing:0px;writing-mode:lr-tb;text-anchor:middle;display:inline;opacity:0.481;fill:#000000;fill-opacity:1;stroke:none;stroke-width:1px;stroke-linecap:butt;stroke-linejoin:miter;stroke-opacity:1"
       transform="translate(2772.1456,1738.0483)"><flowRegion
         id="flowRegion3450"><rect
           id="rect3452"
           width="291.95547"
           height="247.52747"
           x="-275.14545"
           y="1061.6674" /></flowRegion><flowPara
         style="font-size:25.3242px;line-height:1.25"
         id="flowPara3473">Label</flowPara><flowPara
         style="font-size:25.3242px;line-height:1.25"
         id="flowPara4686">of materials</flowPara><flowPara
         style="font-size:25.3242px;line-height:1.25"
         id="flowPara4688">to translate</flowPara></flowRoot>
  </g>
  <g
     inkscape:label="speechbubbles"
     id="layer3"
     inkscape:groupmode="layer">
    <path
       sodipodi:nodetypes="csssssssc"
       inkscape:connector-curvature="0"
       id="path3286"
       d="m 1014.42,694.37504 c -7.2899,-32.61489 14.7108,-69.60607 30.5273,-81.2759 15.8165,-11.66984 44.1289,-18.88397 70.4255,-25.58105 21.784,-5.5478 118.7224,-5.35697 187.5516,-4.58633 57.6523,0.6455 119.4282,21.60973 133.4133,55.08499 13.9851,33.47516 9.834,93.24215 -7.2559,112.74939 -17.0899,19.50725 -33.8924,40.66521 -133.9631,48.368 -100.0707,7.7028 -224.0808,-4.5111 -253.5926,-43.77383 -16.637,-22.1341 -27.1061,-60.98527 -27.1061,-60.98527 z"
       style="fill:#ffffff;stroke:none" />
    <path
       sodipodi:nodetypes="cscc"
       inkscape:connector-curvature="0"
       id="path5002"
       d="m 1264.2628,886.0945 c -48.0765,-27.09972 -52.9733,-81.65673 -52.1334,-99.98338 2.691,-58.70861 28.2795,-40.011 28.2795,-40.011 0,0 -19.0722,94.76375 23.8539,139.99438 z"
       style="color:#000000;display:inline;overflow:visible;visibility:visible;fill:#ffffff;fill-opacity:1;fill-rule:nonzero;stroke:none;stroke-width:1px;marker:none;enable-background:accumulate" />
    <path
       sodipodi:nodetypes="csssc"
       inkscape:connector-curvature="0"
       id="path3280"
       d="m 650.65624,1075.9066 c 0.82929,-47.8529 32.34447,-83.18234 175.4066,-76.15287 143.06207,7.02947 216.09596,4.07457 213.62946,69.90487 -2.3323,62.2483 -95.99368,64.7041 -204.27836,67.1234 -111.62981,2.4941 -180.51636,-16.73 -184.7577,-60.8754 z"
       style="fill:#ffffff;stroke:none" />
    <path
       sodipodi:nodetypes="csssssc"
       inkscape:connector-curvature="0"
       id="path3365"
       d="m 641.34619,1204.3949 c 5.35813,-81.5259 56.41886,-88.391 231.61738,-92.5222 186.06103,-4.3874 282.87743,9.0364 267.53263,97.9242 -3.7747,21.8664 -5.2394,41.4607 -55.1043,62.5472 -47.0464,19.8943 -154.4221,22.0435 -231.58887,20.6783 -67.98668,-1.2031 -119.66995,-6.694 -152.20957,-20.957 -28.52028,-12.5012 -52.78977,-10.6584 -60.24727,-67.6705 z"
       style="color:#000000;display:inline;overflow:visible;visibility:visible;fill:#ffffff;fill-opacity:1;fill-rule:nonzero;stroke:none;stroke-width:1.11635995px;marker:none;enable-background:accumulate" />
    <path
       sodipodi:nodetypes="csccc"
       inkscape:connector-curvature="0"
       id="path3072-1"
       d="m 1206.9658,1255.5052 c -49.4358,-22.6288 -99.2504,-39.7037 -133.061,-18.0787 -47.7942,30.5689 -24.2351,19.695 -24.2351,19.695 l 18.3095,-52.1641 c -2.8989,-3.6105 43.2218,-24.4374 138.9866,50.5478 z"
       style="color:#000000;display:inline;overflow:visible;visibility:visible;fill:#ffffff;fill-opacity:1;fill-rule:nonzero;stroke:none;stroke-width:1px;marker:none;enable-background:accumulate" />
    <path
       sodipodi:nodetypes="csssc"
       inkscape:connector-curvature="0"
       id="path3525-7"
       d="m 144.15235,1899.1476 c -10.10424,-110.4955 18.3358,-196.8142 239.41979,-193.5783 248.96989,3.6442 274.70639,26.5814 288.50186,139.8742 6.26172,51.4231 12.87499,104.8943 -180.28645,135.6346 -193.16164,30.74 -341.69264,-13.1378 -347.6352,-81.9305 z"
       style="color:#000000;display:inline;overflow:visible;visibility:visible;fill:#ffffff;fill-opacity:1;fill-rule:nonzero;stroke:none;stroke-width:1.05330086px;marker:none;enable-background:accumulate" />
    <path
       inkscape:connector-curvature="0"
       id="path3525"
       d="m 167.95114,2008.2532 c -9.14365,-29.0216 15.23935,-106.1102 202.68458,-99.7617 187.44505,6.3484 217.92407,42.6254 222.49582,53.5085 4.57189,10.8831 44.19441,72.554 -102.1042,88.8787 -146.29874,16.3246 -277.35782,-0.907 -323.0762,-42.6255 z"
       style="color:#000000;display:inline;overflow:visible;visibility:visible;fill:#ffffff;fill-opacity:1;fill-rule:nonzero;stroke:none;stroke-width:1.0725112px;marker:none;enable-background:accumulate" />
    <path
       sodipodi:nodetypes="cssssssc"
       inkscape:connector-curvature="0"
       id="path3357-2"
       d="m 222.20226,2066.6402 c -1.1159,-27.6519 18.97067,-46.4553 30.12992,-55.3039 11.15941,-8.8486 81.46282,-28.758 107.12919,-28.758 25.6663,0 137.65296,12.8028 156.62377,32.7123 18.97079,19.9093 30.37913,38.3864 18.10405,71.5688 -12.27529,33.1823 -82.10586,38.403 -98.84478,41.7211 -16.73898,3.3183 -64.72388,5.5305 -80.34691,4.4244 -15.62292,-1.1061 -136.14298,-21.0155 -132.79524,-66.3647 z"
       style="color:#000000;display:inline;overflow:visible;visibility:visible;fill:#ffffff;fill-opacity:1;fill-rule:nonzero;stroke:none;stroke-width:1.14285719px;marker:none;enable-background:accumulate" />
    <path
       sodipodi:nodetypes="cssssssc"
       inkscape:connector-curvature="0"
       id="path3357-7"
       d="m 302.39818,2125.5045 c -0.76339,-27.6519 12.97774,-46.4553 20.61173,-55.3039 7.63406,-8.8486 55.72825,-28.758 73.28648,-28.758 17.55815,0 72.10176,17.7063 98.15564,35.1641 19.74317,13.2291 44.53175,24.097 24.6437,51.9547 -19.02176,26.6442 -59.43717,55.5653 -70.88819,58.8834 -11.45103,3.3183 -44.27723,5.5305 -54.96487,4.4244 -10.68755,-1.1061 -93.13466,-21.0155 -90.84449,-66.3647 z"
       style="color:#000000;display:inline;overflow:visible;visibility:visible;fill:#ffffff;fill-opacity:1;fill-rule:nonzero;stroke:none;stroke-width:1px;marker:none;enable-background:accumulate" />
    <path
       sodipodi:nodetypes="cssssssc"
       inkscape:connector-curvature="0"
       id="path3357"
       d="m 188.83295,2193.8136 c -1.45544,-27.6519 37.71259,-50.5351 117.11709,-55.3039 17.27874,-1.0377 106.24826,-28.758 139.72375,-28.758 33.47536,0 231.41452,8.723 256.15726,28.6325 24.74272,19.9093 39.62212,34.3066 23.61229,67.489 -16.01009,33.1823 -158.96693,46.5626 -180.79878,49.8807 -21.83185,3.3183 -84.41639,5.5305 -104.7928,4.4244 -20.37626,-1.1061 -255.38513,-21.0155 -251.01881,-66.3647 z"
       style="color:#000000;display:inline;overflow:visible;visibility:visible;fill:#ffffff;fill-opacity:1;fill-rule:nonzero;stroke:none;stroke-width:1.02941608px;marker:none;enable-background:accumulate" />
    <path
       sodipodi:nodetypes="ccccccccccccccc"
       inkscape:connector-curvature="0"
       id="path3549-3-78"
       d="m 795.17964,2451.8371 c -157.408,-55.384 -200.96513,-164.8867 -60.41011,-153.723 -61.26932,-34.081 -36.86818,-60.0185 55.76384,-72.1498 -94.45355,3.0749 -144.15806,-41.0219 -122.42135,-63.2851 -35.89278,0.5242 -56.58904,-9.1904 -63.72656,-28.0412 -30.19344,21.9121 -53.46078,24.5311 -59.42054,-21.0595 -15.3677,33.1179 -41.42445,38.386 -105.16686,-6.9347 -6.7451,12.1037 50.51018,47.6992 -137.39988,18.8607 53.56124,25.9656 85.3669,75.2797 -55.34199,93.2278 47.75484,12.7122 56.60619,30.4209 -23.0364,49.8281 123.52075,-4.9204 61.63181,37.7367 46.9447,47.9902 65.61382,-17.8214 100.60543,-14.2639 94.14571,16.4664 122.42824,-42.7105 114.949,-10.2382 110.09305,3.2452 50.52892,-33.4566 102.31659,-31.2055 101.31558,-3.439 87.94212,-55.7051 -28.24792,48.726 218.66081,119.0139 z"
       style="color:#000000;display:inline;overflow:visible;visibility:visible;fill:#ffffff;fill-opacity:1;fill-rule:nonzero;stroke:none;stroke-width:1.04429984px;marker:none;enable-background:accumulate" />
  </g>
  <g
     inkscape:label="txt"
     id="layer1"
     inkscape:groupmode="layer">
    <text
       id="text4246-70-2-2-2-7-6-3-7"
       y="645.97186"
       x="1231.3203"
       style="font-style:normal;font-variant:normal;font-weight:normal;font-stretch:normal;line-height:0%;font-family:Lavi;-inkscape-font-specification:Lavi;text-align:center;letter-spacing:0px;word-spacing:0px;text-anchor:middle;fill:#000000;fill-opacity:1;stroke:none"
       xml:space="preserve"><tspan
         id="tspan3621"
         y="645.97186"
         x="1231.3203"
         style="font-size:42.7221px;line-height:1.25"
         sodipodi:role="line">Fatel eth an kan</tspan><tspan
         id="tspan182"
         y="699.37451"
         x="1231.3203"
         style="font-size:42.7221px;line-height:1.25"
         sodipodi:role="line">arta? Cha~Cha</tspan><tspan
         id="tspan4173-5"
         y="752.77716"
         x="1231.3203"
         style="font-size:42.7221px;line-height:1.25"
         sodipodi:role="line">Cha, Chaooosah!</tspan><tspan
         id="tspan4211"
         y="806.17981"
         x="1237.9956"
         style="font-size:42.7221px;line-height:1.25"
         sodipodi:role="line"> </tspan></text>
    <text
       id="text4246-70-2-2-2-7-6"
       y="1048.4192"
       x="845.14661"
       style="font-style:normal;font-variant:normal;font-weight:normal;font-stretch:normal;line-height:0%;font-family:Lavi;-inkscape-font-specification:Lavi;text-align:center;letter-spacing:0px;word-spacing:0px;text-anchor:middle;fill:#000000;fill-opacity:1;stroke:none"
       xml:space="preserve"><tspan
         id="tspan3608"
         y="1048.4192"
         x="851.0946"
         style="font-size:38.0673px;line-height:1.25"
         sodipodi:role="line">Haha, ankevi an </tspan><tspan
         id="tspan190"
         y="1096.0033"
         x="845.14661"
         style="font-size:38.0673px;line-height:1.25"
         sodipodi:role="line">geryow a wrug!</tspan></text>
    <text
       id="text4246-70-2-2-2-7-6-3"
       y="1170.4004"
       x="894.52765"
       style="font-style:normal;font-variant:normal;font-weight:normal;font-stretch:normal;line-height:0%;font-family:Lavi;-inkscape-font-specification:Lavi;text-align:center;letter-spacing:0px;word-spacing:0px;text-anchor:middle;fill:#000000;fill-opacity:1;stroke:none"
       xml:space="preserve"><tspan
         id="tspan4304"
         y="1170.4004"
         x="900.47565"
         style="font-size:38.0673px;line-height:1.25"
         sodipodi:role="line">Martesen y fo ow </tspan><tspan
         id="tspan199"
         y="1217.9845"
         x="900.47565"
         style="font-size:38.0673px;line-height:1.25"
         sodipodi:role="line">hanlyver yn neb le omma </tspan><tspan
         id="tspan203"
         y="1265.5686"
         x="894.52765"
         style="font-size:38.0673px;line-height:1.25"
         sodipodi:role="line">ynwedh...</tspan></text>
    <text
       id="text4246-3-3-6"
       y="1772.9498"
       x="408.2085"
       style="font-style:normal;font-variant:normal;font-weight:normal;font-stretch:normal;line-height:0%;font-family:Lavi;-inkscape-font-specification:Lavi;text-align:center;letter-spacing:0px;word-spacing:0px;text-anchor:middle;fill:#000000;fill-opacity:1;stroke:none"
       xml:space="preserve"><tspan
         id="tspan3604"
         y="1772.9498"
         x="415.23975"
         style="font-size:45px;line-height:1.25"
         sodipodi:role="line">...ytho, unverhes </tspan><tspan
         id="tspan216"
         y="1829.1998"
         x="415.23975"
         style="font-size:45px;line-height:1.25"
         sodipodi:role="line">on ni oll. Amendyans </tspan><tspan
         id="tspan226"
         y="1885.4498"
         x="408.2085"
         style="font-size:45px;line-height:1.25"
         sodipodi:role="line">dhe'n rewlys a Chaosah:</tspan></text>
    <text
       id="text4246-3-3-6-9"
       y="1959.0479"
       x="387.9476"
       style="font-style:normal;font-variant:normal;font-weight:normal;font-stretch:normal;line-height:0%;font-family:Lavi;-inkscape-font-specification:Lavi;text-align:center;letter-spacing:0px;word-spacing:0px;text-anchor:middle;fill:#000000;fill-opacity:1;stroke:none"
       xml:space="preserve"><tspan
         id="tspan4284"
         y="1959.0479"
         x="394.97885"
         style="font-size:45px;line-height:1.25"
         sodipodi:role="line">y'n termyn a dheu </tspan><tspan
         id="tspan230"
         y="2015.2979"
         x="387.9476"
         style="font-size:45px;line-height:1.25"
         sodipodi:role="line">ni a wra</tspan></text>
    <text
       id="text4246-3-3-6-9-7"
       y="2069.9089"
       x="381.44696"
       style="font-style:normal;font-variant:normal;font-weight:normal;font-stretch:normal;line-height:0%;font-family:Lavi;-inkscape-font-specification:Lavi;text-align:center;letter-spacing:0px;word-spacing:0px;text-anchor:middle;fill:#000000;fill-opacity:1;stroke:none"
       xml:space="preserve"><tspan
         id="tspan4284-0"
         y="2069.9089"
         x="381.44696"
         style="font-size:45px;line-height:1.25;stroke:#000000;stroke-width:1.2;stroke-miterlimit:4;stroke-dasharray:none;stroke-opacity:1"
         sodipodi:role="line">digemyska,</tspan></text>
    <text
       id="text4246-3-3-6-9-7-9"
       y="2134.5938"
       x="412.08777"
       style="font-style:normal;font-variant:normal;font-weight:normal;font-stretch:normal;line-height:0%;font-family:Lavi;-inkscape-font-specification:Lavi;text-align:center;letter-spacing:0px;word-spacing:0px;text-anchor:middle;fill:#000000;fill-opacity:1;stroke:none"
       xml:space="preserve"><tspan
         id="tspan4284-0-3"
         y="2134.5938"
         x="412.08777"
         style="font-size:45px;line-height:1.25;stroke:#000000;stroke-width:1.2;stroke-miterlimit:4;stroke-dasharray:none;stroke-opacity:1"
         sodipodi:role="line">skwardya</tspan></text>
    <text
       id="text4246-3-3-6-9-7-9-6"
       y="2199.7627"
       x="464.02319"
       style="font-style:normal;font-variant:normal;font-weight:normal;font-stretch:normal;line-height:0%;font-family:Lavi;-inkscape-font-specification:Lavi;text-align:center;letter-spacing:0px;word-spacing:0px;text-anchor:middle;fill:#000000;fill-opacity:1;stroke:none"
       xml:space="preserve"><tspan
         id="tspan4284-0-3-0"
         y="2199.7627"
         x="464.02319"
         style="font-size:45px;line-height:1.25;stroke:#000000;stroke-width:1.2;stroke-miterlimit:4;stroke-dasharray:none;stroke-opacity:1"
         sodipodi:role="line">hag eylgylghya puptra!</tspan></text>
    <text
       transform="scale(0.95137096,1.0511147)"
       id="text4246-3-3-6-9-7-9-6-6"
       y="2170.8594"
       x="535.41351"
       style="font-style:normal;font-variant:normal;font-weight:normal;font-stretch:normal;line-height:0%;font-family:Lavi;-inkscape-font-specification:Lavi;text-align:center;letter-spacing:0px;word-spacing:0px;text-anchor:middle;fill:#000000;fill-opacity:1;stroke:none"
       xml:space="preserve"><tspan
         id="tspan4284-0-3-0-2"
         y="2170.8594"
         x="535.41351"
         style="font-size:53.1948px;line-height:1.25;stroke:#000000;stroke-width:2.246;stroke-miterlimit:4;stroke-dasharray:none;stroke-opacity:1"
         sodipodi:role="line">PUPTRA!!</tspan></text>
    <text
       transform="matrix(0.80082078,0.11906,-0.30303195,0.88915446,1810.039,-17.762588)"
       x="1318.7137"
       y="3129.8394"
       xml:space="preserve"
       style="font-style:normal;font-variant:normal;font-weight:normal;font-stretch:normal;line-height:0%;font-family:Lavi;-inkscape-font-specification:Lavi;text-align:center;letter-spacing:0px;word-spacing:0px;text-anchor:middle;opacity:0.633;fill:#ffffff;fill-opacity:1;stroke:none;filter:url(#filter5236-4-16)"
       id="text4178-6-5-9-0-7-0-4"><tspan
         id="tspan4293-1-6-3-5-0-2"
         sodipodi:role="line"
         style="font-style:normal;font-variant:normal;font-weight:normal;font-stretch:normal;font-size:40.6767px;line-height:1.25;font-family:Fondamento;-inkscape-font-specification:Fondamento;fill:#ffffff;fill-opacity:1"
         x="1318.7137"
         y="3129.8394">gweder</tspan></text>
    <text
       transform="matrix(0.68751926,0.00310904,0.11179281,0.7439472,890.21837,525.37583)"
       x="1318.7137"
       y="3129.8394"
       xml:space="preserve"
       style="font-style:normal;font-variant:normal;font-weight:normal;font-stretch:normal;line-height:0%;font-family:Lavi;-inkscape-font-specification:Lavi;text-align:center;letter-spacing:0px;word-spacing:0px;text-anchor:middle;opacity:0.633;fill:#ffffff;fill-opacity:1;stroke:none;filter:url(#filter5236-4-16-4)"
       id="text4178-6-5-9-0-7-0-4-7"><tspan
         id="tspan4293-1-6-3-5-0-2-1"
         sodipodi:role="line"
         style="font-style:normal;font-variant:normal;font-weight:normal;font-stretch:normal;font-size:40.6767px;line-height:1.25;font-family:Fondamento;-inkscape-font-specification:Fondamento;fill:#ffffff;fill-opacity:1"
         x="1318.7137"
         y="3129.8394">alkan</tspan></text>
    <text
       transform="matrix(0.75304346,0,-0.11971288,1.3279446,3e-5,-12.841722)"
       id="text4213"
       y="2443.6147"
       x="2028.7821"
       style="font-style:normal;font-variant:normal;font-weight:normal;font-stretch:normal;line-height:0%;font-family:Lavi;-inkscape-font-specification:Lavi;text-align:center;letter-spacing:0px;word-spacing:0px;text-anchor:middle;opacity:1;fill:#ffffff;fill-opacity:1;stroke:#ffffff;stroke-width:3.822;stroke-miterlimit:4;stroke-dasharray:none;stroke-opacity:1;filter:url(#filter5534-8)"
       xml:space="preserve"><tspan
         style="font-size:63.5518px;line-height:1.25;fill:#ffffff;stroke:#ffffff;stroke-width:3.822;stroke-miterlimit:4;stroke-dasharray:none"
         y="2443.6147"
         x="2028.7821"
         id="tspan4215"
         sodipodi:role="line">- FIN -</tspan></text>
    <text
       id="text4246-42"
       y="3274.6868"
       x="1240.0964"
       style="font-style:normal;font-variant:normal;font-weight:normal;font-stretch:normal;line-height:0%;font-family:Lavi;-inkscape-font-specification:Lavi;text-align:center;letter-spacing:0px;word-spacing:0px;text-anchor:middle;fill:#ffffff;fill-opacity:1;stroke:#ffffff;filter:url(#filter5522-4)"
       xml:space="preserve"><tspan
         id="tspan4252-9"
         y="3274.6868"
         x="1240.0964"
         style="font-size:36.7347px;line-height:1.25;fill:#ffffff;stroke:#ffffff"
         sodipodi:role="line">09/2016 - www.peppercarrot.com - Art &amp; Hwedhel: David Revoy - Treylyans: Steve Harris - Provredyans: Steve Penhaligon</tspan></text>
    <text
       id="text4246-42-4-6"
       y="3313.4661"
       x="1242.8344"
       style="color:#000000;font-style:normal;font-variant:normal;font-weight:normal;font-stretch:normal;line-height:0%;font-family:Lavi;-inkscape-font-specification:Lavi;text-indent:0;text-align:center;text-decoration:none;text-decoration-line:none;letter-spacing:0px;word-spacing:0px;text-transform:none;writing-mode:lr-tb;direction:ltr;baseline-shift:baseline;text-anchor:middle;display:inline;overflow:visible;visibility:visible;opacity:0.855;fill:#ffffff;fill-opacity:1;fill-rule:nonzero;stroke:#ffffff;filter:url(#filter5546-3-4);enable-background:accumulate"
       xml:space="preserve"><tspan
         id="tspan4252-9-9-2"
         y="3313.4661"
         x="1242.8344"
         style="color:#000000;font-style:normal;font-variant:normal;font-weight:normal;font-stretch:normal;font-size:27.5px;line-height:125%;font-family:Lavi;-inkscape-font-specification:Lavi;text-indent:0;text-align:center;text-decoration:none;text-decoration-line:none;letter-spacing:0px;word-spacing:0px;text-transform:none;writing-mode:lr-tb;direction:ltr;baseline-shift:baseline;text-anchor:middle;display:inline;overflow:visible;visibility:visible;fill:#ffffff;fill-opacity:1;fill-rule:nonzero;stroke:#ffffff;enable-background:accumulate"
         sodipodi:role="line">Script doctor: Craig Maloney. Proofreading and assistance with dialog: Valvin, Seblediacre and Alex Gryson. Inspiration: &quot;The book of secrets&quot; by Juan José Segura</tspan></text>
    <text
       id="text4246-42-4"
       y="3350.7795"
       x="1242.353"
       style="color:#000000;font-style:normal;font-variant:normal;font-weight:normal;font-stretch:normal;line-height:0%;font-family:Lavi;-inkscape-font-specification:Lavi;text-indent:0;text-align:center;text-decoration:none;text-decoration-line:none;letter-spacing:0px;word-spacing:0px;text-transform:none;writing-mode:lr-tb;direction:ltr;baseline-shift:baseline;text-anchor:middle;display:inline;overflow:visible;visibility:visible;opacity:0.855;fill:#ffffff;fill-opacity:1;fill-rule:nonzero;stroke:#ffffff;filter:url(#filter5546);enable-background:accumulate"
       xml:space="preserve"><tspan
         id="tspan4252-9-9"
         y="3350.7795"
         x="1242.353"
         style="color:#000000;font-style:normal;font-variant:normal;font-weight:normal;font-stretch:normal;font-size:27.5px;line-height:125%;font-family:Lavi;-inkscape-font-specification:Lavi;text-indent:0;text-align:center;text-decoration:none;text-decoration-line:none;letter-spacing:0px;word-spacing:0px;text-transform:none;writing-mode:lr-tb;direction:ltr;baseline-shift:baseline;text-anchor:middle;display:inline;overflow:visible;visibility:visible;fill:#ffffff;fill-opacity:1;fill-rule:nonzero;stroke:#ffffff;enable-background:accumulate"
         sodipodi:role="line">Based on the universe of Hereva created by David Revoy with contributions by Craig Maloney. Corrections by Willem Sonke, Moini, Hali, CGand and Alex Gryson.</tspan></text>
    <text
       id="text4229"
       y="3388.5505"
       x="1240.6473"
       style="font-style:normal;font-variant:normal;font-weight:normal;font-stretch:normal;line-height:0%;font-family:Arial;-inkscape-font-specification:Arial;text-align:center;letter-spacing:0px;word-spacing:0px;text-anchor:middle;display:inline;opacity:0.855;fill:#ffffff;fill-opacity:1;stroke:#ffffff;filter:url(#filter5558-7)"
       xml:space="preserve"><tspan
         id="tspan4169"
         style="font-style:normal;font-variant:normal;font-weight:normal;font-stretch:normal;font-size:27.5px;line-height:1.25;font-family:Lavi;-inkscape-font-specification:Lavi;fill:#ffffff;stroke:#ffffff"
         y="3388.5505"
         x="1240.6473"
         sodipodi:role="line">License : Creative Commons Attribution 4.0, Software: Krita 3.0.1, Inkscape 0.91 on Arch Linux XFCE</tspan></text>
  </g>
</svg>
