<?xml version="1.0" encoding="UTF-8" standalone="no"?>
<svg
   xmlns:dc="http://purl.org/dc/elements/1.1/"
   xmlns:cc="http://creativecommons.org/ns#"
   xmlns:rdf="http://www.w3.org/1999/02/22-rdf-syntax-ns#"
   xmlns:svg="http://www.w3.org/2000/svg"
   xmlns="http://www.w3.org/2000/svg"
   xmlns:xlink="http://www.w3.org/1999/xlink"
   xmlns:sodipodi="http://sodipodi.sourceforge.net/DTD/sodipodi-0.dtd"
   xmlns:inkscape="http://www.inkscape.org/namespaces/inkscape"
   sodipodi:docname="E19P05.svg"
   height="3503"
   width="2481"
   inkscape:version="1.0 (4035a4fb49, 2020-05-01)"
   version="1.1"
   id="svg2">
  <sodipodi:namedview
     inkscape:document-rotation="0"
     inkscape:window-maximized="0"
     inkscape:window-y="134"
     inkscape:window-x="74"
     inkscape:current-layer="layer1"
     inkscape:cy="3086.6463"
     inkscape:cx="1236.911"
     inkscape:zoom="0.4"
     showgrid="false"
     id="namedview70"
     inkscape:window-height="955"
     inkscape:window-width="1329"
     inkscape:pageshadow="2"
     inkscape:pageopacity="0"
     bordercolor="#666666"
     pagecolor="#ffffff" />
  <metadata
     id="metadata8">
    <rdf:RDF>
      <cc:Work
         rdf:about="">
        <dc:format>image/svg+xml</dc:format>
        <dc:type
           rdf:resource="http://purl.org/dc/dcmitype/StillImage" />
        <dc:title />
      </cc:Work>
    </rdf:RDF>
  </metadata>
  <defs
     id="defs6">
    <filter
       height="1.0194665"
       y="-0.0097332714"
       width="1.0188405"
       x="-0.009420248"
       id="filter4436"
       style="color-interpolation-filters:sRGB"
       inkscape:collect="always">
      <feGaussianBlur
         id="feGaussianBlur4438"
         stdDeviation="0.80032609"
         inkscape:collect="always" />
    </filter>
    <filter
       inkscape:label="deevad outline effect"
       id="filter4375-4-1-1-1-9"
       style="color-interpolation-filters:sRGB">
      <feFlood
         result="flood"
         flood-color="rgb(0,0,0)"
         flood-opacity="1"
         id="feFlood4377-7-9-0-8-1" />
      <feComposite
         result="composite1"
         operator="in"
         in="flood"
         in2="SourceGraphic"
         id="feComposite4379-3-8-8-2-77" />
      <feMorphology
         result="result3"
         radius="4"
         operator="dilate"
         id="feMorphology4393-1-0-49-8-9" />
      <feComposite
         result="composite2"
         operator="over"
         in="SourceGraphic"
         in2="result3"
         id="feComposite4385-9-5-7-0-8" />
    </filter>
  </defs>
  <sodipodi:namedview
     inkscape:current-layer="layer1"
     inkscape:window-maximized="1"
     inkscape:window-y="26"
     inkscape:window-x="0"
     inkscape:cy="1051.3698"
     inkscape:cx="1492.3002"
     inkscape:zoom="0.34350663"
     showgrid="false"
     id="namedview4"
     inkscape:window-height="1025"
     inkscape:window-width="1920"
     inkscape:pageshadow="2"
     inkscape:pageopacity="0"
     guidetolerance="10"
     gridtolerance="10"
     objecttolerance="10"
     borderopacity="1"
     bordercolor="#666666"
     pagecolor="#ffffff" />
  <g
     sodipodi:insensitive="true"
     inkscape:label="artwork"
     id="layer2"
     inkscape:groupmode="layer">
    <image
       sodipodi:absref="C:\Users\stero\Documents\Kernewek\Pepper and Carrot\webcomics\ep19_Pollution\lang\gfx_Pepper-and-Carrot_by-David-Revoy_E19P05.png"
       xlink:href="../gfx_Pepper-and-Carrot_by-David-Revoy_E19P05.png"
       width="2481"
       height="3503"
       id="image10"
       x="0"
       y="0" />
  </g>
  <g
     inkscape:label="speechbubbles"
     id="layer3"
     inkscape:groupmode="layer">
    <path
       sodipodi:nodetypes="cssssc"
       inkscape:connector-curvature="0"
       id="path4546"
       d="m 204.4944,224.99712 c 7.1565,-54.27296 78.96402,-94.01413 262.83667,-83.89742 98.49209,5.41901 210.39734,8.94936 201.0579,88.45484 -9.33954,79.50539 -170.26365,77.54326 -203.54362,79.41926 -33.27998,1.8761 -206.15118,-6.37328 -235.72838,-33.40164 -18.51463,-16.91902 -25.59516,-33.76705 -24.62257,-50.57504 z"
       style="color:#000000;display:inline;overflow:visible;visibility:visible;fill:#ffffff;fill-opacity:1;fill-rule:nonzero;stroke:none;stroke-width:1px;marker:none;enable-background:accumulate" />
    <path
       sodipodi:nodetypes="ccssssc"
       inkscape:connector-curvature="0"
       id="path3145"
       d="m 292.57324,393.75525 c 4.18222,-71.19865 110.69164,-76.35068 149.23628,-77.6029 19.02617,0.36932 128.41405,-6.49317 221.01318,-2.64655 92.59911,3.84661 169.13847,13.86324 174.15595,65.77999 8.66098,89.61659 -58.66785,74.49677 -139.67586,81.3127 -81.00799,6.81593 -174.69746,1.14928 -217.76006,2.24528 -84.93083,2.16159 -193.23943,6.22324 -186.96949,-69.08852 z"
       style="color:#000000;display:inline;overflow:visible;visibility:visible;fill:#ffffff;fill-opacity:1;fill-rule:nonzero;stroke:none;stroke-width:1px;marker:none;enable-background:accumulate" />
    <path
       sodipodi:nodetypes="cssscssssc"
       inkscape:connector-curvature="0"
       id="path4562"
       d="m 446.27152,300.25044 c 18.72085,42.63412 151.10363,129.12034 165.81283,143.73771 14.70919,14.61736 73.7025,51.80706 97.77206,55.46145 24.06968,3.65429 34.61383,-5.53274 55.60142,-7.98778 12.78199,-1.49519 17.18619,22.92918 50.77997,17.07051 -42.14888,-6.98958 -22.50416,-29.88571 -64.91129,-24.54594 -12.88206,1.62207 -29.12682,8.03372 -50.16944,-3.7592 -55.77193,-31.25628 -135.87479,-117.85288 -157.27,-121.50717 -21.39521,-3.6544 -71.63519,-52.34757 -71.63519,-68.18304 0,-15.83557 -25.98036,9.71346 -25.98036,9.71346 z"
       style="color:#000000;display:inline;overflow:visible;visibility:visible;fill:#ffffff;fill-opacity:1;fill-rule:nonzero;stroke:none;stroke-width:1px;marker:none;enable-background:accumulate" />
    <path
       sodipodi:nodetypes="cssssc"
       inkscape:connector-curvature="0"
       id="path4546-6"
       d="m 1814.5745,509.24072 c 8.7124,-72.23843 52.7909,-99.21456 192.8757,-95.24154 179.9497,5.10365 278.012,-15.37671 279.8873,120.62812 1.4675,106.43991 -186.2901,98.00937 -219.6882,99.25485 -33.3981,1.24561 -208.1702,-5.13114 -233.4392,-41.50099 -16.7905,-24.16665 -21.0878,-60.72152 -19.6356,-83.14044 z"
       style="color:#000000;display:inline;overflow:visible;visibility:visible;fill:#ffffff;fill-opacity:1;fill-rule:nonzero;stroke:none;stroke-width:1.07036757px;marker:none;enable-background:accumulate" />
    <path
       inkscape:connector-curvature="0"
       id="path4018"
       d="m 1701.8598,502.58041 c 34.2355,-19.71173 54.3987,3.34417 62.5308,8.32687 8.132,4.9827 37.4163,23.21994 64.0425,5.43127 26.6264,-17.78869 62.8269,-3.31025 62.8269,-3.31025 l -39.1174,27.48072 c 0,0 -38.4369,7.20044 -59.7592,-0.984 -21.3223,-8.18441 -44.9876,-30.85789 -56.2316,-33.04337 -11.2438,-2.1855 -22.2733,-7.94404 -34.292,-3.90124 z"
       style="color:#000000;display:inline;overflow:visible;visibility:visible;fill:#ffffff;fill-opacity:1;fill-rule:nonzero;stroke:none;stroke-width:1px;marker:none;enable-background:accumulate" />
    <path
       inkscape:connector-curvature="0"
       id="path4365"
       d="m 588.40376,914.65231 c 3.19663,-13.63689 11.80483,-23.98359 21.17352,-30.89066 4.45851,-3.33465 9.55466,-5.77835 14.76954,-5.13556 5.18067,0.38408 10.24092,2.67713 15.47891,1.88067 6.36924,-0.26307 12.85031,-1.41081 19.14642,0.2292 5.59702,1.78949 11.36355,2.71628 17.13927,2.77002 4.07461,-1.13586 7.80313,1.89157 11.44199,3.70231 3.26677,1.95593 6.60351,4.00801 9.3474,7.03352 2.52795,4.24716 5.55485,7.9421 8.11232,12.15145 1.67342,2.30123 1.51263,5.47984 1.43554,8.42157 -0.21734,6.02406 -0.58538,12.14319 -1.95147,17.94685 -0.81749,3.68454 -3.8391,4.90391 -6.16085,6.59704 -5.49361,3.57416 -11.32711,6.28455 -16.57007,10.49061 -5.19427,2.15366 -10.71435,1.1463 -16.04131,0.82083 -4.46364,-0.64109 -8.95383,-1.53507 -13.45583,-0.78954 -5.72997,0.54557 -11.44255,1.95821 -17.19303,1.77726 -7.20377,-1.24165 -14.10302,-4.29889 -21.08408,-6.75135 -6.26328,-2.16161 -11.97173,-6.2263 -17.44914,-10.57451 -2.92584,-2.46919 -6.02317,-5.33924 -7.05575,-9.88965 -0.84645,-3.13334 -1.04589,-6.48839 -1.08338,-9.79006 z"
       style="fill:#ffffff;fill-rule:evenodd;stroke:none;stroke-width:1px;stroke-linecap:butt;stroke-linejoin:miter;stroke-opacity:1" />
    <path
       sodipodi:nodetypes="csssscssssssc"
       inkscape:connector-curvature="0"
       id="path3023-2"
       d="m 585.80257,1016.9897 c 25.0585,-22.43253 22.34002,-27.88279 18.28192,-33.62356 -4.05789,-5.74087 -9.0117,-10.26487 -5.47683,-15.76954 3.53471,-5.50448 11.83641,-12.20928 18.64507,-16.88605 6.80865,-4.67676 -0.15106,-6.98609 -1.33267,-11.71084 -1.18153,-4.72486 8.47495,-35.26533 8.47495,-35.26533 0,0 18.8861,11.27031 21.85273,16.73523 2.96681,5.46474 4.10423,7.43623 4.14842,10.18949 0.044,2.75343 -1.45956,10.07055 -7.37678,15.64632 -5.91727,5.57568 -12.97777,12.61891 -18.44474,16.52839 -5.46711,3.90944 -14.50851,8.27169 -13.27858,13.63411 1.23003,5.36237 10.23798,8.00805 0.82597,18.96164 -8.0678,9.38924 -26.31946,21.56014 -26.31946,21.56014 z"
       style="fill:#ffffff;stroke:none" />
    <path
       sodipodi:nodetypes="csssc"
       inkscape:connector-curvature="0"
       id="path3280"
       d="m 920.60629,888.38152 c -0.56464,-16.47336 17.65795,-62.04816 95.76041,-56.80467 78.1024,5.24349 102.2046,24.00836 103.9101,53.30904 2.6982,46.35286 -38.6713,57.58421 -97.7876,59.38885 -60.94251,1.86043 -98.55,-14.22681 -101.88291,-55.89322 z"
       style="fill:#ffffff;stroke:none" />
    <path
       sodipodi:nodetypes="cssscc"
       inkscape:connector-curvature="0"
       id="path4040-6"
       d="m 1252.9623,928.27292 c 106.8773,1.61358 218.0239,11.43251 246.3653,31.65061 57.4231,40.96437 31.0306,113.56217 -30.4442,136.32417 -61.4746,22.762 -260.3085,30.2022 -345.5171,21.8177 -77.8166,-7.6573 -149.57552,-29.7281 -156.14651,-95.3851 17.57849,-115.10183 205.38141,-95.4385 285.74251,-94.40738 z"
       style="color:#000000;display:inline;overflow:visible;visibility:visible;fill:#ffffff;fill-opacity:1;fill-rule:nonzero;stroke:none;stroke-width:1.15389061px;marker:none;enable-background:accumulate" />
    <path
       sodipodi:nodetypes="csccc"
       inkscape:connector-curvature="0"
       id="path3072"
       d="m 1290.3321,1203.7871 c 19.4758,-56.0536 -15.5086,-73.6442 -35.8993,-79.8259 -46.2488,-14.0212 -31.454,-39.2745 -31.454,-39.2745 l 33.7545,-1.1746 c 0,0 85.1517,57.8008 33.5988,120.275 z"
       style="color:#000000;display:inline;overflow:visible;visibility:visible;fill:#ffffff;fill-opacity:1;fill-rule:nonzero;stroke:none;stroke-width:1px;marker:none;enable-background:accumulate" />
    <path
       sodipodi:nodetypes="ccccccccccccccccccccccccccccccccccccccccccccccccccccccccccccccccccc"
       id="path4040-0"
       d="m 2354.4522,1926.0728 -76.0502,46.7573 -1.1993,-15.9101 -24.8794,11.4352 c -101.1102,-18.8111 -231.0295,-19.8416 -333.1535,-12.0624 l -27.7029,-12.0205 -4.8786,14.8906 c -4.6619,0.4699 -9.2734,0.9525 -13.7659,1.459 l -29.9881,-14.7718 2.9057,18.1893 c -0.5604,0.079 -1.1118,0.1585 -1.6683,0.2379 l -41.7898,-16.5815 6.7192,22.4821 c -2.0122,0.4002 -3.9827,0.8036 -5.9041,1.2121 l -52.8324,-34.9229 19.8204,43.9946 c -3.2828,1.2349 -6.1261,2.4877 -8.5544,3.7556 l -31.7821,-14.4911 17.0456,24.6153 c -3.2239,2.4021 -6.2741,4.7525 -9.2012,7.0672 l -24.9985,-4.1905 11.9443,13.2118 c -24.2519,22.4896 -37.0797,46.7749 -36.588,69.6612 0.098,4.5938 0.499,9.0543 1.1646,13.3965 l -14.8321,4.8626 18.6167,10.8858 c 1.7114,5.1525 5.505,21.4888 8.0458,26.272 l -18.9391,8.727 22.6199,9.7859 -25.3332,15.0563 52.9571,-6.5319 c 0.7362,0.5924 1.4929,1.1749 2.2452,1.7601 l -64.9263,31.7963 86.0096,-10.2514 -42.1909,33.5397 83.8642,-17.8855 -23.948,21.8371 63.6853,-7.8357 4.8021,0.099 c 14.225,4.5533 31.9268,4.7376 47.2808,8.7724 104.4266,7.8899 231.8988,18.0791 342.2679,2.1072 l 53.169,19.5707 -21.8808,-24.5809 c 1.1673,-0.21 7.7977,-1.344 8.9491,-1.5557 l 55.2604,29.1105 -10.9696,-22.5811 53.5441,20.802 -32.3646,-39.1567 29.7171,12.0864 -20.3598,-19.8457 c 2.5568,-1.04 5.1046,-2.1333 7.6419,-3.2778 l 27.757,6.1566 -16.8008,-11.4682 c 4.2345,-2.1961 8.405,-4.5267 12.4763,-6.9942 l 43.1866,10.2106 -22.6518,-24.5135 c 2.4948,-1.9981 4.9231,-4.0467 7.2601,-6.15 l 33.1044,1.0855 -14.0422,-22.1226 c 23.2561,-32.5053 24.8266,-72.6427 -21.8237,-112.5987 l -23.4424,-33.1202 -21.8106,2.9383 19.3589,-24.4196 -36.0589,11.3616 13.2132,-28.0439 -38.8458,18.2766 z"
       style="color:#000000;display:inline;overflow:visible;visibility:visible;fill:#ffffff;fill-opacity:1;fill-rule:nonzero;stroke:none;stroke-width:1.08004975px;marker:none;enable-background:accumulate"
       inkscape:connector-curvature="0" />
    <path
       sodipodi:nodetypes="cccccccc"
       inkscape:connector-curvature="0"
       id="path4667"
       d="m 1731.8549,2318.594 120.8192,-66.2832 -29.5759,-16.5028 85.742,-43.3793 -33.6402,-26.9702 -85.496,68.298 33.0867,19.9442 z"
       style="fill:#ffffff;fill-rule:evenodd;stroke:none;stroke-width:1px;stroke-linecap:butt;stroke-linejoin:miter;stroke-opacity:1" />
    <path
       inkscape:connector-curvature="0"
       id="path3525-3"
       d="m 351.86277,3013.5705 c -3.83833,-24.6348 6.39721,-90.0708 85.0833,-84.6819 78.68602,5.3888 91.48056,36.1822 93.39969,45.4202 1.9192,9.2381 18.55201,61.5869 -42.86148,75.444 -61.41355,13.857 -116.42977,-0.7699 -135.62151,-36.1823 z"
       style="color:#000000;display:inline;overflow:visible;visibility:visible;fill:#ffffff;fill-opacity:1;fill-rule:nonzero;stroke:none;stroke-width:1px;marker:none;enable-background:accumulate" />
    <path
       inkscape:connector-curvature="0"
       id="path3525"
       d="m 409.6903,3080.207 c -5.6772,-23.6599 9.46198,-86.5065 125.845,-81.3308 116.38293,5.1755 135.30707,34.7504 138.14562,43.6228 2.83865,8.8725 27.43991,59.1498 -63.39556,72.4585 -90.83555,13.3087 -172.20894,-0.7394 -200.59506,-34.7505 z"
       style="color:#000000;display:inline;overflow:visible;visibility:visible;fill:#ffffff;fill-opacity:1;fill-rule:nonzero;stroke:none;stroke-width:1px;marker:none;enable-background:accumulate" />
    <path
       sodipodi:nodetypes="csssscssssssc"
       inkscape:connector-curvature="0"
       id="path3023"
       d="m 776.83633,3175.8359 c -44.62498,5.3378 -48.87324,-16.857 -54.0967,-32.1561 -5.22349,-15.2991 -11.0824,-20.5456 -20.74361,-24.9442 -9.6612,-4.3986 -33.88162,-7.782 -44.47409,-6.2556 -10.5926,1.5264 -4.87351,-12.4886 -10.52472,-22.0949 -5.65131,-9.6062 -47.54922,-52.2623 -47.54922,-52.2623 0,0 3.4134,45.1382 8.94731,58.4623 5.5339,13.3241 7.48813,18.2238 11.18512,22.9303 3.69708,4.7066 14.53763,14.9729 25.78771,16.1963 11.25004,1.2234 22.42429,-3.0138 31.13833,-3.9792 8.71399,-0.9656 20.03664,6.8038 26.52017,17.5528 6.48353,10.749 24.88779,32.9147 43.24472,32.9979 18.35692,0.083 30.56498,-6.4473 30.56498,-6.4473 z"
       style="fill:#ffffff;stroke:none" />
    <path
       sodipodi:nodetypes="zssssz"
       inkscape:connector-curvature="0"
       id="path4040"
       d="m 1783.1456,3173.1277 c 32.6232,-29.8406 306.3144,-59.7526 401.947,3.4366 95.6328,63.189 36.7728,137.2103 -18.5501,160.3819 -55.3224,23.1717 -217.796,47.4906 -291.6894,26.3675 -73.8937,-21.1232 -131.3416,-52.1468 -134.6338,-114.4813 -1.3437,-25.4411 10.303,-45.8638 42.9263,-75.7047 z"
       style="color:#000000;display:inline;overflow:visible;visibility:visible;fill:#ffffff;fill-opacity:1;fill-rule:nonzero;stroke:none;stroke-width:1.0382576px;marker:none;enable-background:accumulate" />
    <path
       sodipodi:nodetypes="csccssscc"
       inkscape:connector-curvature="0"
       id="path3282"
       d="m 1793.2098,3259.0845 c -28.7477,21.3713 -48.9321,0.5936 -66.1006,0.6993 -17.1685,0.1058 -34.6307,29.0733 -44.0708,33.857 -9.363,3.7909 -22.9631,-0.7489 -45.2644,-13.4008 36.8449,37.5971 46.7017,28.1197 55.3791,24.5656 11.9288,-4.8858 18.0056,-23.3478 33.4687,-20.4624 14.978,2.7947 62.9102,19.4669 85.0019,10.1395 22.0918,-9.3272 25.641,-6.4328 25.641,-6.4328 z"
       style="fill:#ffffff;stroke:none" />
  </g>
  <g
     inkscape:label="txt"
     id="layer1"
     inkscape:groupmode="layer">
    <text
       id="text4246-3-3-2"
       y="212.50937"
       x="434.37378"
       style="font-style:normal;font-variant:normal;font-weight:normal;font-stretch:normal;line-height:0%;font-family:Lavi;-inkscape-font-specification:Lavi;text-align:center;letter-spacing:0px;word-spacing:0px;text-anchor:middle;fill:#000000;fill-opacity:1;stroke:none"
       xml:space="preserve"><tspan
         id="tspan3752"
         y="212.50937"
         x="441.40503"
         style="font-size:45px;line-height:1.25"
         sodipodi:role="line">Oll ahanan </tspan><tspan
         id="tspan73"
         y="268.75937"
         x="434.37378"
         style="font-size:45px;line-height:1.25"
         sodipodi:role="line">re fyllis.</tspan></text>
    <text
       id="text4246-3-3-2-3"
       y="373.82779"
       x="566.86279"
       style="font-style:normal;font-variant:normal;font-weight:normal;font-stretch:normal;line-height:0%;font-family:Lavi;-inkscape-font-specification:Lavi;text-align:center;letter-spacing:0px;word-spacing:0px;text-anchor:middle;fill:#000000;fill-opacity:1;stroke:none"
       xml:space="preserve"><tspan
         id="tspan4173"
         y="373.82779"
         x="573.89404"
         style="font-size:45px;line-height:1.25"
         sodipodi:role="line">Nyns ov an Cayenne </tspan><tspan
         id="tspan77"
         y="430.07779"
         x="566.86279"
         style="font-size:45px;line-height:1.25"
         sodipodi:role="line">a skrifas henna.</tspan></text>
    <text
       id="text4246-3-3-2-3-5"
       y="478.67374"
       x="2053.3848"
       style="font-style:normal;font-variant:normal;font-weight:normal;font-stretch:normal;line-height:0%;font-family:Lavi;-inkscape-font-specification:Lavi;text-align:center;letter-spacing:0px;word-spacing:0px;text-anchor:middle;fill:#000000;fill-opacity:1;stroke:none"
       xml:space="preserve"><tspan
         id="tspan3742"
         y="478.67374"
         x="2053.3848"
         style="font-size:45px;line-height:1.25"
         sodipodi:role="line">Ynkleudhys veu </tspan><tspan
         id="tspan84"
         y="534.92371"
         x="2053.3848"
         style="font-size:45px;line-height:1.25"
         sodipodi:role="line">an jornal na rag </tspan><tspan
         id="tspan86"
         y="591.17371"
         x="2053.3848"
         style="font-size:45px;line-height:1.25"
         sodipodi:role="line">acheson arbennek.</tspan></text>
    <text
       id="text4246-3-3-2-3-5-6"
       y="918.87958"
       x="649.6814"
       style="font-style:normal;font-variant:normal;font-weight:normal;font-stretch:normal;line-height:0%;font-family:Lavi;-inkscape-font-specification:Lavi;text-align:center;letter-spacing:0px;word-spacing:0px;text-anchor:middle;fill:#000000;fill-opacity:1;stroke:none"
       xml:space="preserve"><tspan
         id="tspan4208-1"
         y="918.87958"
         x="649.6814"
         style="font-size:45px;line-height:1.25"
         sodipodi:role="line">...</tspan></text>
    <text
       id="text4246-3-3-2-3-5-6-2"
       y="900.67383"
       x="1020.2921"
       style="font-style:normal;font-variant:normal;font-weight:normal;font-stretch:normal;line-height:0%;font-family:Lavi;-inkscape-font-specification:Lavi;text-align:center;letter-spacing:0px;word-spacing:0px;text-anchor:middle;fill:#000000;fill-opacity:1;stroke:none"
       xml:space="preserve"><tspan
         id="tspan4208-1-7"
         y="900.67383"
         x="1020.2921"
         style="font-size:45px;line-height:1.25"
         sodipodi:role="line">OK!</tspan></text>
    <text
       id="text4246-3-3-2-3-5-6-2-0"
       y="1007.8734"
       x="1249.8596"
       style="font-style:normal;font-variant:normal;font-weight:normal;font-stretch:normal;line-height:0%;font-family:Lavi;-inkscape-font-specification:Lavi;text-align:center;letter-spacing:0px;word-spacing:0px;text-anchor:middle;fill:#000000;fill-opacity:1;stroke:none"
       xml:space="preserve"><tspan
         id="tspan3735"
         y="1007.8734"
         x="1256.8909"
         style="font-size:45px;line-height:1.25"
         sodipodi:role="line">Mes pandr'a leverydh </tspan><tspan
         id="tspan90"
         y="1064.1234"
         x="1249.8596"
         style="font-size:45px;line-height:1.25"
         sodipodi:role="line">ow tochya hemma, ytho?</tspan></text>
    <text
       transform="matrix(0.68323005,-0.18026525,0.27547669,0.60843919,-261.43744,-182.58505)"
       x="1318.7137"
       y="3129.8394"
       xml:space="preserve"
       style="font-style:normal;font-variant:normal;font-weight:normal;font-stretch:normal;line-height:0%;font-family:Lavi;-inkscape-font-specification:Lavi;text-align:center;letter-spacing:0px;word-spacing:0px;text-anchor:middle;opacity:0.641;fill:#241c1c;fill-opacity:1;stroke:none;filter:url(#filter4436)"
       id="text4178-6-5-9-0-7-0-4"><tspan
         id="tspan4293-1-6-3-5-0-2"
         sodipodi:role="line"
         style="font-style:normal;font-variant:normal;font-weight:normal;font-stretch:normal;font-size:40.6767px;line-height:1.25;font-family:Fondamento;-inkscape-font-specification:Fondamento;fill:#241c1c;fill-opacity:1"
         x="1318.7137"
         y="3129.8394">CHAOSAH</tspan><tspan
         id="tspan4422"
         sodipodi:role="line"
         style="font-style:normal;font-variant:normal;font-weight:normal;font-stretch:normal;font-size:40.6767px;line-height:1.25;font-family:Fondamento;-inkscape-font-specification:Fondamento;fill:#241c1c;fill-opacity:1"
         x="1318.7137"
         y="3180.6853">SUTRA</tspan><tspan
         id="tspan4426"
         sodipodi:role="line"
         style="font-style:normal;font-variant:normal;font-weight:normal;font-stretch:normal;font-size:32.0601px;line-height:1.25;font-family:Fondamento;-inkscape-font-specification:Fondamento;fill:#241c1c;fill-opacity:1"
         x="1318.7137"
         y="3224.1907">gans</tspan><tspan
         id="tspan4430"
         sodipodi:role="line"
         style="font-style:normal;font-variant:normal;font-weight:normal;font-stretch:normal;font-size:32.0601px;line-height:1.25;font-family:Fondamento;-inkscape-font-specification:Fondamento;fill:#241c1c;fill-opacity:1"
         x="1318.7137"
         y="3264.2659">Thyme</tspan></text>
    <text
       id="text4246-3-3-2-3-5-6-2-0-3"
       y="2026.4532"
       x="2046.282"
       style="font-style:normal;font-variant:normal;font-weight:normal;font-stretch:normal;line-height:0%;font-family:Lavi;-inkscape-font-specification:Lavi;text-align:center;letter-spacing:0px;word-spacing:0px;text-anchor:middle;fill:#000000;fill-opacity:1;stroke:none"
       xml:space="preserve"><tspan
         id="tspan3721"
         y="2026.4532"
         x="2046.282"
         style="font-size:45px;line-height:1.25"
         sodipodi:role="line">Nyns yw marnas fowt ow</tspan><tspan
         id="tspan101"
         y="2082.7031"
         x="2046.282"
         style="font-size:45px;line-height:1.25"
         sodipodi:role="line">yowynkneth, hag yn neb kas,</tspan><tspan
         id="tspan103"
         y="2138.9531"
         x="2046.282"
         style="font-size:45px;line-height:1.25"
         sodipodi:role="line">nyns yw gwiw rag nebonan</tspan><tspan
         id="tspan78"
         y="2195.2031"
         x="2046.282"
         style="font-size:45px;line-height:1.25"
         sodipodi:role="line">a'th oos tejy!</tspan></text>
    <use
       height="100%"
       width="100%"
       transform="matrix(1.7191858,0.78546962,-0.89078499,2.0163672,807.20751,-1621.7765)"
       id="use4440"
       xlink:href="#text4178-6-5-9-0-7-0-4"
       y="0"
       x="0" />
    <text
       id="text4246-3-3-2-3-5-6-2-0-3-6"
       y="3004.217"
       x="448.74265"
       style="font-style:normal;font-variant:normal;font-weight:normal;font-stretch:normal;line-height:0%;font-family:Lavi;-inkscape-font-specification:Lavi;text-align:center;letter-spacing:0px;word-spacing:0px;text-anchor:middle;fill:#000000;fill-opacity:1;stroke:none"
       xml:space="preserve"><tspan
         id="tspan4328-8"
         y="3004.217"
         x="448.74265"
         style="font-size:45px;line-height:1.25"
         sodipodi:role="line">Hmm...</tspan></text>
    <text
       id="text4246-3-3-2-3-5-6-2-0-3-6-7"
       y="3073.6917"
       x="553.45013"
       style="font-style:normal;font-variant:normal;font-weight:normal;font-stretch:normal;line-height:0%;font-family:Lavi;-inkscape-font-specification:Lavi;text-align:center;letter-spacing:0px;word-spacing:0px;text-anchor:middle;fill:#000000;fill-opacity:1;stroke:none"
       xml:space="preserve"><tspan
         id="tspan4328-8-9"
         y="3073.6917"
         x="553.45013"
         style="font-size:45px;line-height:1.25"
         sodipodi:role="line">My a wel...</tspan></text>
    <text
       id="text4246-3-3-2-3-5-6-2-0-3-6-7-2"
       y="3216.8425"
       x="1988.0325"
       style="font-style:normal;font-variant:normal;font-weight:normal;font-stretch:normal;line-height:0%;font-family:Lavi;-inkscape-font-specification:Lavi;text-align:center;letter-spacing:0px;word-spacing:0px;text-anchor:middle;fill:#000000;fill-opacity:1;stroke:none"
       xml:space="preserve"><tspan
         id="tspan3702"
         y="3216.8425"
         x="1988.0325"
         style="font-size:45px;line-height:1.25"
         sodipodi:role="line">Nyns eus travyth</tspan><tspan
         id="tspan114"
         y="3273.0925"
         x="1995.0637"
         style="font-size:45px;line-height:1.25"
         sodipodi:role="line">omma a yll agas </tspan><tspan
         id="tspan112"
         y="3329.3425"
         x="1988.0325"
         style="font-size:45px;line-height:1.25"
         sodipodi:role="line">ankombra...</tspan></text>
  </g>
</svg>
