<?xml version="1.0" encoding="UTF-8" standalone="no"?>
<!-- Created with Inkscape (http://www.inkscape.org/) -->

<svg
   xmlns:dc="http://purl.org/dc/elements/1.1/"
   xmlns:cc="http://creativecommons.org/ns#"
   xmlns:rdf="http://www.w3.org/1999/02/22-rdf-syntax-ns#"
   xmlns:svg="http://www.w3.org/2000/svg"
   xmlns="http://www.w3.org/2000/svg"
   xmlns:xlink="http://www.w3.org/1999/xlink"
   xmlns:sodipodi="http://sodipodi.sourceforge.net/DTD/sodipodi-0.dtd"
   xmlns:inkscape="http://www.inkscape.org/namespaces/inkscape"
   id="svg2"
   version="1.1"
   inkscape:version="0.92.2 (5c3e80d, 2017-08-06)"
   width="2481"
   height="3503"
   sodipodi:docname="Pepper-and-Carrot_by-David-Revoy_E14P03.svg"
   inkscape:export-filename="E:\Users\jamesmichael\Downloads\Compressed\eps\peppercarrot_ep14_translation-master\peppercarrot_ep14_translation-master\ph\Pepper-and-Carrot_by-David-Revoy_E14P03.png"
   inkscape:export-xdpi="98.181801"
   inkscape:export-ydpi="98.181801">
  <metadata
     id="metadata8">
    <rdf:RDF>
      <cc:Work
         rdf:about="">
        <dc:format>image/svg+xml</dc:format>
        <dc:type
           rdf:resource="http://purl.org/dc/dcmitype/StillImage" />
        <dc:title />
      </cc:Work>
    </rdf:RDF>
  </metadata>
  <defs
     id="defs6" />
  <sodipodi:namedview
     pagecolor="#ffffff"
     bordercolor="#666666"
     borderopacity="1"
     objecttolerance="10"
     gridtolerance="10"
     guidetolerance="10"
     inkscape:pageopacity="0"
     inkscape:pageshadow="2"
     inkscape:window-width="1366"
     inkscape:window-height="705"
     id="namedview4"
     showgrid="false"
     inkscape:zoom="0.20113573"
     inkscape:cx="1106.8402"
     inkscape:cy="2573.6478"
     inkscape:window-x="-8"
     inkscape:window-y="-8"
     inkscape:window-maximized="1"
     inkscape:current-layer="layer1" />
  <g
     inkscape:groupmode="layer"
     id="layer2"
     inkscape:label="artwork"
     sodipodi:insensitive="true">
    <image
       sodipodi:absref="E:\Users\jamesmichael\Downloads\Compressed\eps\peppercarrot_ep14_translation-master\peppercarrot_ep14_translation-master\ph\../gfx_Pepper-and-Carrot_by-David-Revoy_E14P03.png"
       xlink:href="../gfx_Pepper-and-Carrot_by-David-Revoy_E14P03.png"
       width="2481"
       height="3503"
       id="image10"
       x="0"
       y="0" />
  </g>
  <g
     inkscape:groupmode="layer"
     id="layer3"
     inkscape:label="speechbubbles"
     style="display:inline">
    <path
       style="color:#000000;display:inline;overflow:visible;visibility:visible;fill:#ffffff;fill-opacity:1;fill-rule:nonzero;stroke:none;stroke-width:0.84476292px;marker:none;enable-background:accumulate"
       d="m 1963.0882,350.67692 c 20.7073,-74.58725 61.3331,-112.37442 157.0016,-98.16475 61.346,9.11173 96.5571,37.09167 124.2647,79.53292 13.0872,20.04662 24.8057,124.7786 10.8611,204.74101 -13.9446,79.96239 -57.5277,159.44879 -150.9658,137.53866 -93.438,-21.91032 -93.4796,-24.9174 -107.1535,-43.90057 -25.9789,-36.06576 -54.7154,-205.15995 -34.0081,-279.74727 z"
       id="path4530"
       inkscape:connector-curvature="0"
       sodipodi:nodetypes="zsssssz" />
    <path
       style="color:#000000;display:inline;overflow:visible;visibility:visible;fill:#ffffff;fill-opacity:1;fill-rule:nonzero;stroke:none;stroke-width:1px;marker:none;enable-background:accumulate"
       d="m 1741.5228,221.81062 c -5.2171,18.04469 -34.6427,19.55781 -45.4751,15.88991 21.8355,20.18631 21.0743,32.72839 -8.5723,34.67578 49.7178,36.381 9.0891,30.8757 1.0754,40.10089 39.0377,12.53769 21.5718,28.14117 14.6217,43.67415 44.87,0.53354 30.1861,25.43239 32.0773,45.26274 3.8039,-9.30528 21.8751,-37.63467 22.9624,-6.0918 29.6789,-30.0936 65.4263,-49.53257 68.2648,3.13136 11.9581,-26.49378 23.8803,-37.69113 22.9624,-6.0918 29.6284,-41.09892 56.2536,-26.30524 83.0367,-14.68913 7.0344,-12.40463 7.8541,-31.46172 30.6121,-26.9958 -3.1909,-12.29521 4.4931,-20.74689 21.8463,-25.76585 -23.0596,-7.42718 -27.3094,-15.08815 15.5071,-23.33253 -32.5809,-0.79746 -62.9628,-2.43129 -24.7383,-30.54704 -11.9921,-0.68032 -40.4445,22.78023 -27.1789,-45.87759 -20.621,21.97976 -42.6218,34.11104 -70.2128,-11.93096 -13.0574,23.00167 -35.7052,34.38382 -45.5582,5.6529 -3.5413,12.2485 -18.2256,16.85495 -30.6915,17.41359 -4.8206,-4.86535 -9.7925,-11.4737 -14.9808,-20.13172 -8.48,18.17954 -21.1651,30.4572 -45.5583,5.6529 z"
       id="path3549-3-7"
       inkscape:connector-curvature="0"
       sodipodi:nodetypes="cccccccccccccccccccc" />
    <path
       style="fill:#ffffff;fill-rule:evenodd;stroke:none;stroke-width:1px;stroke-linecap:butt;stroke-linejoin:miter;stroke-opacity:1"
       d="m 2181.809,610.31348 c -39.3706,13.96771 22.485,68.10223 9.329,82.54185 -9.0819,9.96796 -46.6601,-7.96729 -81.4034,37.57991 40.7385,-30.89398 73.2809,-5.93721 92.7166,-17.39889 36.9131,-21.76848 -1.4853,-61.31653 -3.4361,-70.97465 -2.6091,-12.9174 -17.2061,-31.74822 -17.2061,-31.74822 z"
       id="path4186"
       inkscape:connector-curvature="0"
       sodipodi:nodetypes="cscssc" />
    <path
       style="fill:#ffffff;fill-rule:evenodd;stroke:none;stroke-width:1px;stroke-linecap:butt;stroke-linejoin:miter;stroke-opacity:1"
       d="m 545.18024,2245.6136 c -27.19224,-20.5338 -42.99463,-54.6914 -41.0873,-88.6975 0.0253,-5.2064 -0.52257,-11.8857 2.08026,-3.3284 2.42629,5.9709 9.87286,20.1787 12.9156,18.5545 -1.74181,-13.1135 -0.38049,-26.1845 1.42097,-39.1432 1.17884,-13.5542 10.39123,16.2867 15.87187,4.5111 -2.96352,-5.0072 -1.69992,-17.7446 3.6961,-6.6971 7.31381,9.2574 9.21416,0.1878 10.87078,-4.6823 7.37286,6.4364 9.15991,1.4279 12.09715,-3.2497 6.12014,4.1974 11.03004,3.8604 13.62468,-2.7509 9.42367,0.084 21.79648,6.9231 23.61264,-7.7597 4.54975,-6.8921 8.88908,8.6515 16.65288,4.1899 15.65105,-1.7329 31.1823,2.2501 46.79694,2.9293 13.11927,1.6936 23.2963,11.1458 33.56853,18.0046 -1.00207,-5.0952 -1.83167,-10.3441 4.99616,-5.2944 6.04122,-0.1228 -8.23274,-19.7418 2.30743,-8.345 13.40277,13.5474 22.03889,30.8562 33.1395,46.1992 9.95581,16.0715 22.97456,30.316 30.23541,48.0237 6.24153,13.7196 11.29652,28.4669 13.74293,43.1501 -2.3268,-5.4538 -11.71817,-17.2448 -10.72236,-4.0771 0.64554,5.8857 -2.61986,24.5969 -7.99617,12.9067 -5.36979,-3.1528 -8.02155,4.9547 -9.64713,-3.7971 -2.61641,-5.7165 -12.91236,-24.2439 -11.52146,-7.7934 -0.24092,6.6123 -0.39269,23.3456 -8.52773,22.6672 -0.71199,-6.4256 -4.35073,-6.7929 -7.47545,-2.8639 -3.47854,-4.1084 -6.67276,-6.4414 -10.54004,-3.8523 -8.49033,-6.1108 -19.90508,-6.7229 -28.50692,-0.5055 -9.56444,4.3212 -12.5154,18.0916 -24.75613,15.2535 -9.1367,1.5914 -13.94739,12.0362 -23.47555,6.8114 -8.58247,3.7439 -27.16495,-8.6096 -36.05026,-11.8301 -3.29947,-1.4401 -11.62277,-8.8856 -11.3785,-0.7559 -6.43774,2.3897 -16.91188,-8.2393 -17.26469,-5.4782 1.82413,10.9946 -7.96044,0.5298 -10.48773,-2.6166 -6.62097,-9.4733 -14.84659,-18.3884 -18.19241,-29.6829 z"
       id="path4197"
       inkscape:connector-curvature="0"
       sodipodi:nodetypes="cccccccccccccccccccccccccccccccccc" />
    <path
       style="fill:#ffffff;fill-rule:evenodd;stroke:none;stroke-width:1.0873785"
       d="m 731.07743,2316.7595 c -12.75742,27.5707 -5.60697,66.8414 -2.8624,98.8067 -0.56121,21.8132 12.4921,53.2456 11.06776,63.4763 -5.12715,-8.3013 -12.78392,-16.9357 -7.17898,3.2466 7.12916,57.2539 28.53342,103.118 50.8843,141.8063 6.8513,8.5679 27.88981,35.2326 26.41327,16.4847 12.82737,15.07 28.13994,21.4064 42.72721,27.2197 16.49671,-0.961 32.56402,6.0116 47.63269,18.6412 15.0525,8.1939 31.56045,20.1152 47.07901,9.1535 -6.09505,-39.0925 20.09889,-2.5039 29.88846,-16.4236 8.75622,5.637 30.75585,-4.4942 45.51835,-10.7069 14.7713,-6.4697 29.4491,-15.5986 43.0204,-28.4801 9.4829,1.0797 25.38,-8.051 35.5479,-29.892 8.8691,5.2681 19.6891,-70.2529 16.6726,-86.5169 -2.3908,-27.1409 -1.3258,-57.195 -4.1965,-78.5475 -1.4192,-25.4006 -13.3318,-38.968 -17.5089,-63.0522 -9.8624,-42.6682 -27.7671,-76.768 -49.1881,-99.2141 -17.8465,-18.704 -36.7041,-37.3626 -56.95623,-43.8124 -13.20892,-0.7017 11.32083,27.3121 -5.059,12.3435 -12.38489,-15.8865 1.6737,20.3982 -7.86864,5.3189 -5.36122,-11.859 -16.32059,-21.7295 -12.22407,4.1663 -0.65798,10.3343 -5.21853,1.8421 -8.04827,10.9625 -14.16451,-16.3703 -30.07454,-4.1216 -45.67454,-3.9091 -8.59846,-1.933 -21.92303,9.8027 -25.8712,-11.3067 0.0774,25.5788 -13.53524,0.8842 -14.97385,25.7824 -6.49826,-6.432 -17.23159,-21.1065 -18.36933,2.3127 -10.86423,19.9509 -25.91929,-17.3383 -32.77155,-9.2824 3.84106,39.5375 -14.95845,5.8295 -21.86943,-3.4052 -1.48746,43.8517 -24.08285,-8.4391 -33.90415,-1.8743 10.46196,25.0909 -3.50643,48.3773 -16.99631,31.6501 6.39286,40.1138 -6.6881,9.24 -14.9305,15.052 z"
       id="path4236"
       inkscape:connector-curvature="0"
       sodipodi:nodetypes="ccccccccccccccccccccccccccccccc" />
    <path
       style="color:#000000;display:inline;overflow:visible;visibility:visible;fill:#ffffff;fill-opacity:1;fill-rule:nonzero;stroke:none;stroke-width:1.21701765px;marker:none;enable-background:accumulate"
       d="m 1094.5112,2424.4294 c 79.592,-52.7958 202.0116,-90.1633 241.8386,81.9925 57.5606,25.926 105.8745,4.1006 172.8225,160.894 -53.5542,-83.9387 -93.6466,-110.1618 -196.8167,-145.4541 -30.222,-85.9507 -114.2245,-114.9888 -200.1097,-29.2845 -85.8855,85.7044 -60.2529,-8.03 -60.2529,-8.03 l 16.5929,-36.0004 z"
       id="path5074"
       inkscape:connector-curvature="0"
       sodipodi:nodetypes="ccccsccc"
       inkscape:transform-center-x="-223.94521"
       inkscape:transform-center-y="90.655408" />
    <path
       sodipodi:nodetypes="ccccccccccccccccccccccccccccccc"
       inkscape:connector-curvature="0"
       id="path854"
       d="m 735.27401,2395.307 c -12.75742,27.5707 -5.60697,66.8414 -2.8624,98.8067 -0.56121,21.8132 12.49209,53.2456 11.06776,63.4763 -5.12715,-8.3013 -12.78392,-16.9357 -7.17898,3.2466 7.12916,57.2539 28.53342,103.118 50.8843,141.8063 6.8513,8.5679 27.88981,35.2326 26.41327,16.4847 12.82737,15.07 28.13994,21.4064 42.72721,27.2197 16.4967,-0.961 32.56402,6.0116 47.63269,18.6412 15.0525,8.1939 31.56045,20.1152 47.07901,9.1535 -6.09505,-39.0925 20.09889,-2.5039 29.8885,-16.4236 8.7561,5.637 30.75583,-4.4942 45.51823,-10.7069 14.7714,-6.4697 29.4492,-15.5986 43.0204,-28.4801 9.483,1.0797 25.3801,-8.051 35.548,-29.892 8.869,5.2681 19.6891,-70.2529 16.6726,-86.5169 -2.3909,-27.1409 -1.3258,-57.195 -4.1966,-78.5475 -1.4191,-25.4006 -13.3317,-38.968 -17.5089,-63.0522 -9.8623,-42.6682 -27.767,-76.768 -49.188,-99.2141 -17.8465,-18.704 -36.7041,-37.3626 -56.95623,-43.8124 -13.2089,-0.7017 11.32083,27.3121 -5.059,12.3435 -12.38491,-15.8865 1.6736,20.3982 -7.8687,5.3189 -5.36118,-11.859 -16.32055,-21.7295 -12.22404,4.1663 -0.65797,10.3343 -5.21853,1.8421 -8.04826,10.9625 -14.16451,-16.3703 -30.07454,-4.1216 -45.67454,-3.9091 -8.59846,-1.933 -21.92303,9.8027 -25.8712,-11.3067 0.0774,25.5788 -13.53525,0.8842 -14.97385,25.7824 -6.49827,-6.432 -17.23159,-21.1065 -18.36933,2.3127 -10.86423,19.9509 -25.91929,-17.3383 -32.77156,-9.2824 3.84107,39.5375 -14.95844,5.8295 -21.86942,-3.4052 -1.48747,43.8517 -24.08285,-8.4391 -33.90415,-1.8743 10.46196,25.0909 -3.50643,48.3773 -16.99631,31.6501 6.39286,40.1138 -6.6881,9.24 -14.9305,15.052 z"
       style="fill:#ffffff;fill-rule:evenodd;stroke:none;stroke-width:1.0873785" />
  </g>
  <g
     inkscape:groupmode="layer"
     id="layer1"
     inkscape:label="txt"
     style="display:inline">
    <text
       xml:space="preserve"
       style="font-style:normal;font-variant:normal;font-weight:normal;font-stretch:normal;line-height:0%;font-family:Lavi;-inkscape-font-specification:Lavi;text-align:center;letter-spacing:0px;word-spacing:0px;text-anchor:middle;fill:#000000;fill-opacity:1;stroke:none"
       x="1828.6544"
       y="317.00128"
       id="text4246"><tspan
         sodipodi:role="line"
         style="font-size:45px;line-height:1.25"
         x="1828.6544"
         y="317.00128"
         id="tspan4252">Ha ha!</tspan></text>
    <text
       xml:space="preserve"
       style="font-style:normal;font-variant:normal;font-weight:normal;font-stretch:normal;line-height:0%;font-family:Lavi;-inkscape-font-specification:Lavi;text-align:center;letter-spacing:0px;word-spacing:0px;text-anchor:middle;fill:#000000;fill-opacity:1;stroke:none"
       x="2102.9426"
       y="357.77237"
       id="text4246-5"><tspan
         sodipodi:role="line"
         style="font-size:45px;line-height:1.25"
         x="2102.9426"
         y="357.77237"
         id="tspan4166">Whoo !</tspan><tspan
         sodipodi:role="line"
         style="font-size:45px;line-height:1.25"
         x="2110.8528"
         y="414.02237"
         id="tspan3474">medyo </tspan><tspan
         sodipodi:role="line"
         style="font-size:45px;line-height:1.25"
         x="2102.9426"
         y="470.27237"
         id="tspan867">kumplikado</tspan><tspan
         sodipodi:role="line"
         style="font-size:45px;line-height:1.25"
         x="2110.8528"
         y="526.5224"
         id="tspan865">pala to </tspan><tspan
         sodipodi:role="line"
         style="font-size:45px;line-height:1.25"
         x="2102.9426"
         y="582.7724"
         id="tspan869">ng konti!</tspan></text>
    <text
       xml:space="preserve"
       style="font-style:normal;font-variant:normal;font-weight:normal;font-stretch:normal;line-height:0%;font-family:Lavi;-inkscape-font-specification:Lavi;text-align:center;letter-spacing:0px;word-spacing:0px;text-anchor:middle;fill:#000000;fill-opacity:1;stroke:none"
       x="636.16046"
       y="2224.6672"
       id="text4246-2"
       transform="scale(0.99940856,1.0005918)"><tspan
         sodipodi:role="line"
         style="font-size:54.65267181px;line-height:1.25"
         x="636.16046"
         y="2224.6672"
         id="tspan4252-4">Pfff!</tspan></text>
    <text
       xml:space="preserve"
       style="font-style:normal;font-variant:normal;font-weight:normal;font-stretch:normal;line-height:0%;font-family:Lavi;-inkscape-font-specification:Lavi;text-align:center;letter-spacing:0px;word-spacing:0px;text-anchor:middle;fill:#000000;fill-opacity:1;stroke:none"
       x="928.74841"
       y="2428.1572"
       id="text4246-2-2"><tspan
         sodipodi:role="line"
         style="font-size:45px;line-height:1.25"
         x="936.65857"
         y="2428.1572"
         id="tspan3495">... Sino bang </tspan><tspan
         sodipodi:role="line"
         style="font-size:45px;line-height:1.25"
         x="936.65857"
         y="2484.4072"
         id="tspan4772">nagsabi </tspan><tspan
         sodipodi:role="line"
         style="font-size:45px;line-height:1.25"
         x="936.65857"
         y="2540.6572"
         id="tspan840">na mas </tspan><tspan
         sodipodi:role="line"
         style="font-size:45px;line-height:1.25"
         x="936.65857"
         y="2596.9072"
         id="tspan846">madali pag </tspan><tspan
         sodipodi:role="line"
         style="font-size:45px;line-height:1.25"
         x="928.74841"
         y="2653.1572"
         id="tspan850">air dragon!</tspan></text>
  </g>
</svg>
