<?xml version="1.0" encoding="UTF-8" standalone="no"?>
<!-- Created with Inkscape (http://www.inkscape.org/) -->

<svg
   xmlns:dc="http://purl.org/dc/elements/1.1/"
   xmlns:cc="http://creativecommons.org/ns#"
   xmlns:rdf="http://www.w3.org/1999/02/22-rdf-syntax-ns#"
   xmlns:svg="http://www.w3.org/2000/svg"
   xmlns="http://www.w3.org/2000/svg"
   xmlns:xlink="http://www.w3.org/1999/xlink"
   xmlns:sodipodi="http://sodipodi.sourceforge.net/DTD/sodipodi-0.dtd"
   xmlns:inkscape="http://www.inkscape.org/namespaces/inkscape"
   id="svg2"
   version="1.1"
   inkscape:version="0.92.2 2405546, 2018-03-11"
   width="2481"
   height="3503"
   sodipodi:docname="E04P03.svg">
  <metadata
     id="metadata8">
    <rdf:RDF>
      <cc:Work
         rdf:about="">
        <dc:format>image/svg+xml</dc:format>
        <dc:type
           rdf:resource="http://purl.org/dc/dcmitype/StillImage" />
        <dc:title />
      </cc:Work>
    </rdf:RDF>
  </metadata>
  <defs
     id="defs6" />
  <sodipodi:namedview
     pagecolor="#ffffff"
     bordercolor="#666666"
     borderopacity="1"
     objecttolerance="10"
     gridtolerance="10"
     guidetolerance="10"
     inkscape:pageopacity="0"
     inkscape:pageshadow="2"
     inkscape:window-width="1920"
     inkscape:window-height="1053"
     id="namedview4"
     showgrid="false"
     inkscape:zoom="0.67415017"
     inkscape:cx="1543.7252"
     inkscape:cy="626.4029"
     inkscape:window-x="0"
     inkscape:window-y="27"
     inkscape:window-maximized="0"
     inkscape:current-layer="layer1" />
  <g
     inkscape:groupmode="layer"
     id="layer2"
     inkscape:label="artwork"
     sodipodi:insensitive="true">
    <image
       sodipodi:absref="/home/midgard/git/peppercarrot/comics/ep04_Stroke-of-genius/lang/nl/../gfx_Pepper-and-Carrot_by-David-Revoy_E04P03.png"
       xlink:href="../gfx_Pepper-and-Carrot_by-David-Revoy_E04P03.png"
       y="0"
       x="0"
       id="image10"
       height="3503"
       width="2481" />
  </g>
  <g
     inkscape:groupmode="layer"
     id="layer3"
     inkscape:label="speechbubbles">
    <path
       style="fill:#ffffff;stroke:none"
       d="M 85.162546,212.69253 C 83.960336,162.29101 110.40883,102.37976 153.68817,92.87004 196.96751,83.360317 465.05898,73.850595 487.90083,80.507401 c 22.84187,6.656805 50.49257,19.019446 73.33444,37.087919 22.84187,18.06847 40.87493,48.49958 37.26832,73.22486 -3.60662,24.72527 -20.43747,75.1268 -36.06612,88.44041 -15.62864,13.31362 -57.70578,44.6957 -99.78292,50.40153 -42.07714,5.70584 -91.36748,10.46069 -110.60274,9.50973 -19.23526,-0.95097 -117.81598,-6.65681 -117.81598,-6.65681 0,0 -52.89697,3.80389 -69.72783,-5.70584 -16.83085,-9.50971 -60.11019,-25.67625 -73.334434,-65.61708 -13.22424,-39.94082 -6.01102,-14.26458 -6.01102,-48.49959 z"
       id="path3971"
       inkscape:connector-curvature="0" />
    <path
       style="color:#000000;display:inline;overflow:visible;visibility:visible;fill:#ffffff;fill-opacity:1;fill-rule:nonzero;stroke:none;stroke-width:1px;stroke-linecap:butt;stroke-linejoin:miter;stroke-opacity:1;marker:none;enable-background:accumulate"
       d="M 535.3179,432.02806 C 446.56169,405.64108 409.38004,394.8464 386.59129,336.0754 c -22.78876,-58.77099 -39.58047,-5.99704 -39.58047,-5.99704 0,0 8.39585,103.1491 188.30708,101.9497 z"
       id="path3984"
       inkscape:connector-curvature="0" />
    <path
       style="color:#000000;display:inline;overflow:visible;visibility:visible;fill:#ffffff;fill-opacity:1;fill-rule:nonzero;stroke:none;stroke-width:1px;stroke-linecap:butt;stroke-linejoin:miter;stroke-opacity:1;marker:none;enable-background:accumulate"
       d="m 1049.4821,254.64652 c -60.85444,-20.86612 -74.37717,-54.08636 -69.68755,-87.30695 4.47311,-31.68688 33.27755,-68.702133 117.66395,-87.257102 43.9634,-9.66673 347.4247,-2.398139 408.9981,22.182172 80.3413,32.0725 81.244,109.29927 -7.7889,151.42127 -67.5115,31.94007 -243.3389,21.5885 -243.3389,21.5885 0,0 -121.7566,6.63007 -205.8467,-20.62789 z"
       id="path3992"
       inkscape:connector-curvature="0"
       sodipodi:nodetypes="csssscc" />
    <path
       style="color:#000000;display:inline;overflow:visible;visibility:visible;fill:#ffffff;fill-opacity:1;fill-rule:nonzero;stroke:none;stroke-width:1px;marker:none;enable-background:accumulate"
       d="m 1146.6342,385.30257 c 86.3574,-52.77396 115.6987,-98.14741 141.122,-142.99485 11.9623,-21.10173 -40.3717,-44.11282 -40.3717,-44.11282 l -16.7917,47.97632 c 0,0 -16.7645,81.67766 -83.9586,139.13135 z"
       id="path4000"
       inkscape:connector-curvature="0"
       sodipodi:nodetypes="csccc" />
    <path
       style="color:#000000;display:inline;overflow:visible;visibility:visible;fill:#ffffff;fill-opacity:1;fill-rule:nonzero;stroke:none;stroke-width:1px;marker:none;enable-background:accumulate"
       d="m 411.10353,824.25192 c 56.98764,-48.14802 353.53813,-52.48463 391.35849,-16.32856 37.82035,36.15609 69.06326,124.79679 16.44364,153.95491 -52.61964,29.15812 -376.55923,40.82133 -411.09085,-2.33263 -34.53163,-43.15404 -53.69891,-87.1457 3.28872,-135.29372 z"
       id="path4008"
       inkscape:connector-curvature="0"
       sodipodi:nodetypes="zsssz" />
    <path
       style="color:#000000;display:inline;overflow:visible;visibility:visible;fill:#ffffff;fill-opacity:1;fill-rule:nonzero;stroke:none;stroke-width:1px;marker:none;enable-background:accumulate"
       d="m 1143.0052,917.49915 c -50.0655,-18.99475 -100.9594,-38.14301 -154.53151,-44.09381 -38.48708,-4.37587 -78.57566,1.00958 -113.15098,19.03609 -32.73956,16.67622 -60.16415,42.09485 -83.79625,69.90516 -13.4053,-7.41069 -22.60064,-20.28714 -31.82413,-32.14019 -3.37955,-5.27569 -8.76282,-10.89773 -10.49022,-16.28006 29.16601,-26.85941 65.28605,-45.62049 103.13999,-56.91895 60.13957,-17.92686 125.48697,-13.45925 184.387,7.03526 37.6522,12.86195 73.1405,31.52397 106.2661,53.4565 z"
       id="path4010"
       inkscape:connector-curvature="0" />
    <path
       style="color:#000000;display:inline;overflow:visible;visibility:visible;fill:#ffffff;fill-opacity:1;fill-rule:nonzero;stroke:none;stroke-width:1px;stroke-linecap:butt;stroke-linejoin:miter;stroke-opacity:1;marker:none;enable-background:accumulate"
       d="m 1871.8236,1770.816 -17.2225,-2.0628 4.0523,19.2527 c -27.2513,1.0447 -41.4495,-4.9979 -60.7853,-8.2511 l 30.3927,24.7533 -5.0654,6.876 c 4.9345,4.0203 12.3797,6.7624 14.1831,12.3767 -13.7662,3.4986 -23.6638,3.4963 -35.0487,4.8396 10.7123,4.6496 19.6307,10.0295 25.931,16.4757 l -36.4712,11.0014 33.4296,9.6248 c -25.1447,15.8269 -56.7482,25.8086 -86.11,37.8192 l 104.3478,-5.5008 -16.2093,12.3767 c 10.4294,6.4417 9.5078,3.2531 14.1834,4.8132 2.2767,4.6358 -35.872,23.9109 -32.419,22.003 4.0524,-0.6876 38.4975,-3.438 38.4975,-3.438 0,0 -30.3927,19.2526 -26.3404,19.2526 4.0523,0 37.4842,-4.8132 37.4842,-4.8132 l -11.1438,18.565 43.5626,-10.3138 -18.2356,23.0836 c 11.334,-1.358 18.6466,-1.832 14.617,6.1946 -27.2696,28.5806 -69.0642,72.0887 -62.3752,81.8189 23.1092,-10.9779 58.28,-43.5328 91.3209,-55.4022 22.4511,1.9826 23.8022,10.1027 33.432,15.8147 l 40.5236,-24.0658 7.0917,16.5023 30.3924,-20.6279 v 21.3155 c 18.8614,-1.4917 28.4574,-13.9877 39.5106,-24.7534 l 3.0391,79.7607 65.8507,-67.384 13.1701,28.1913 10.1311,-26.1285 3.0394,22.003 28.3662,-29.5665 21.275,26.8161 20.2617,-24.7533 c 18.5381,27.0691 45.2183,48.6121 75.9816,67.384 -4.2762,-27.7568 -7.8448,-54.7133 -6.0785,-75.6352 11.4815,-2.1802 22.9632,2.1806 34.4449,8.2512 l -6.0786,-18.5651 42.5497,12.3767 -19.2485,-28.879 c 64.9505,-0.9252 51.9116,4.0309 66.8638,6.876 l -12.1571,-18.565 44.5759,14.4394 c -12.1773,-15.363 -28.172,-32.0217 -36.4712,-46.0686 l 46.602,3.4379 c -18.2617,-12.3594 -41.2058,-21.5411 -53.9822,-37.6234 l 40.8122,-1.5694 -38.4975,-20.6278 30.3926,-11.6891 -24.314,-2.7504 40.5234,-24.7532 -53.6935,-2.0628 64.8374,-44.6936 -74.9683,9.6264 6.0783,-32.3169 -41.5363,23.3781 41.5363,-81.1359 c -33.5592,29.0216 -59.4172,52.2625 -104.9224,73.1762 l -14.6288,-8.1478 -16.2023,4.2195 4.0522,-23.1792 -59.7721,28.1912 6.0784,-13.0642 -18.2355,12.3767 4.0524,-17.1899 -31.4058,20.6279 2.8916,-17.973 -15.0487,11.7846 -4.6338,-11.2928 -17.6541,7.1672 c -5.3119,-29.7957 3.8156,-59.5913 10.1308,-89.387 -20.7269,34.1091 -47.0493,64.9629 -82.0601,90.7623 l -11.144,-13.0596 -13.8946,12.076 -14.0355,-15.6096 -21.1318,18.6529 c -16.7109,-14.2103 -26.4435,-22.9168 -32.9981,-37.127 3.2324,13.318 5.5827,22.2646 0.8677,36.931 -61.6885,-22.4547 -59.8418,-24.4571 -82.9278,-36.931 -6.3259,16.033 -12.6299,21.3713 -16.2094,33.692 z"
       id="path4024"
       inkscape:connector-curvature="0"
       sodipodi:nodetypes="cccccccccccccccccsccccccccccccccccccccccccccccccccccccccccccccccccccccccccccccccccccc" />
    <path
       style="color:#000000;fill:#ffffff;fill-opacity:1;fill-rule:nonzero;stroke:none;stroke-width:1px;marker:none;visibility:visible;display:inline;overflow:visible;enable-background:accumulate"
       d="m 1848.5853,1575.0785 c 10.0461,44.0989 27.0514,87.1709 29.0118,132.4629 l 18.7724,-35.7599 c 9.4018,15.7423 8.3262,35.1951 10.8083,53.3881 l 15.3592,-20.1465 c 21.7256,37.425 24.8572,77.202 36.9759,115.8421 l 23.8921,-37.271 c -16.9368,-37.6417 -39.8877,-72.0885 -50.0597,-113.3238 l -17.0658,18.1319 c -5.5461,-13.7459 -10.5425,-27.7351 -13.0837,-42.8112 l -19.3412,24.6794 z"
       id="path4032"
       inkscape:connector-curvature="0"
       sodipodi:nodetypes="cccccccccccc" />
    <path
       style="color:#000000;display:inline;overflow:visible;visibility:visible;fill:#ffffff;fill-opacity:1;fill-rule:nonzero;stroke:none;stroke-width:1px;stroke-linecap:butt;stroke-linejoin:miter;stroke-opacity:1;marker:none;enable-background:accumulate"
       d="m 514.05488,2343.5806 c 21.44462,-25.815 202.46112,-53.8356 266.0819,-0.6363 63.62077,53.1993 25.03112,117.0385 -11.4726,137.351 -36.50373,20.3125 -143.92898,42.5594 -192.94827,25.1488 -49.01929,-17.4107 -87.20225,-43.4363 -89.69487,-96.7261 -1.01734,-21.7497 6.58922,-39.3223 28.03384,-65.1374 z"
       id="path4040"
       inkscape:connector-curvature="0"
       sodipodi:nodetypes="zssssz" />
    <path
       style="color:#000000;fill:#ffffff;fill-opacity:1;fill-rule:nonzero;stroke:none;stroke-width:1px;marker:none;visibility:visible;display:inline;overflow:visible;enable-background:accumulate"
       d="m 844.38604,2487.4707 c -46.71679,38.0588 -143.61096,79.6886 -134.17151,-10.1374 8.50339,-80.9185 -28.62326,-41.7422 -28.62326,-41.7422 l -16.6969,47.7054 c 0,0 42.33857,151.4647 179.49167,4.1742 z"
       id="path4048"
       inkscape:connector-curvature="0"
       sodipodi:nodetypes="csccc" />
    <path
       style="color:#000000;display:inline;overflow:visible;visibility:visible;fill:#ffffff;fill-opacity:1;fill-rule:nonzero;stroke:none;stroke-width:1px;marker:none;enable-background:accumulate"
       d="m 1745.9118,2645.636 c -31.6225,-36.5756 -49.3619,-81.4639 -39.3354,-115.5458 10.0268,-34.082 30.08,-111.3896 84.0696,-114.7147 53.9895,-3.325 327.7935,-37.4069 359.4159,24.1068 31.6226,61.5136 53.9897,157.1091 29.3087,180.3846 -24.6809,23.2753 -70.1864,53.2009 -106.4364,53.2009 -36.2502,0 -83.2982,11.6377 -101.0377,8.3127 -17.7394,-3.3251 -60.931,-10.8064 -66.33,-10.8064 -5.3989,0 -87.9258,0 -96.4099,-2.4939 -8.484,-2.4938 -47.048,7.4814 -63.2448,-22.4442 z"
       id="path4056"
       inkscape:connector-curvature="0" />
    <path
       style="color:#000000;display:inline;overflow:visible;visibility:visible;fill:#ffffff;fill-opacity:1;fill-rule:nonzero;stroke:none;stroke-width:1px;stroke-linecap:butt;stroke-linejoin:miter;stroke-opacity:1;marker:none;enable-background:accumulate"
       d="m 1719.8768,2599.4189 c -30.8355,22.6731 -69.8333,55.3224 -105.2033,-7.2554 2.7207,2.7208 22.6731,97.9479 121.5279,44.4393 98.8548,-53.5086 105.2033,-71.6471 105.2033,-71.6471 z"
       id="path4064"
       inkscape:connector-curvature="0"
       sodipodi:nodetypes="ccscc" />
  </g>
  <g
     inkscape:groupmode="layer"
     id="layer1"
     inkscape:label="txt">
    <flowRoot
       xml:space="preserve"
       id="flowRoot2987"
       style="font-style:normal;font-variant:normal;font-weight:normal;font-stretch:normal;line-height:0.01%;font-family:Lavi;-inkscape-font-specification:Lavi;letter-spacing:0px;word-spacing:0px;fill:#000000;fill-opacity:1;stroke:none"
       transform="matrix(0.97226124,0,0,0.98626652,-372.35894,-142.58691)"><flowRegion
         id="flowRegion2989"><rect
           id="rect2991"
           width="1228.9047"
           height="338.34705"
           x="120.55251"
           y="265.53046"
           style="font-style:normal;font-variant:normal;font-weight:normal;font-stretch:normal;font-family:Lavi;-inkscape-font-specification:Lavi" /></flowRegion><flowPara
         style="font-size:48px;line-height:1.25;text-align:center;text-anchor:middle"
         id="flowPara3761">Wat goed, Carrot!</flowPara><flowPara
         style="font-size:48px;line-height:1.25;text-align:center;text-anchor:middle"
         id="flowPara4225">Ben je helemaal uit</flowPara><flowPara
         style="font-size:48px;line-height:1.25;text-align:center;text-anchor:middle"
         id="flowPara4227">jezelf gekomen?</flowPara></flowRoot>    <flowRoot
       xml:space="preserve"
       id="flowRoot2987-4"
       style="font-style:normal;font-variant:normal;font-weight:normal;font-stretch:normal;line-height:0.01%;font-family:Lavi;-inkscape-font-specification:Lavi;letter-spacing:0px;word-spacing:0px;fill:#000000;fill-opacity:1;stroke:none"
       transform="matrix(0.97226124,0,0,0.98626652,564.30469,-136.94154)"><flowRegion
         id="flowRegion2989-4"><rect
           id="rect2991-6"
           width="1228.9047"
           height="338.34705"
           x="120.55251"
           y="265.53046"
           style="font-style:normal;font-variant:normal;font-weight:normal;font-stretch:normal;font-family:Lavi;-inkscape-font-specification:Lavi" /></flowRegion><flowPara
         style="font-size:48px;line-height:1.25;text-align:center;text-anchor:middle"
         id="flowPara4212">Net nu ik mijn favoriete</flowPara><flowPara
         style="font-size:48px;line-height:1.25;text-align:center;text-anchor:middle"
         id="flowPara4214">assistent nodig heb!</flowPara></flowRoot>    <flowRoot
       xml:space="preserve"
       id="flowRoot2987-0"
       style="font-style:normal;font-variant:normal;font-weight:normal;font-stretch:normal;line-height:0.01%;font-family:Lavi;-inkscape-font-specification:Lavi;letter-spacing:0px;word-spacing:0px;fill:#000000;fill-opacity:1;stroke:none"
       transform="matrix(0.97226124,0,0,0.98626652,-110.20249,575.35085)"><flowRegion
         id="flowRegion2989-5"><rect
           id="rect2991-3"
           width="1228.9047"
           height="338.34705"
           x="120.55251"
           y="265.53046"
           style="font-style:normal;font-variant:normal;font-weight:normal;font-stretch:normal;font-family:Lavi;-inkscape-font-specification:Lavi" /></flowRegion><flowPara
         style="font-size:48px;line-height:1.25;text-align:center;text-anchor:middle"
         id="flowPara3859">Hier, dit is mijn</flowPara><flowPara
         style="font-size:48px;line-height:1.25;text-align:center;text-anchor:middle"
         id="flowPara4201">meesterwerk.</flowPara></flowRoot>    <flowRoot
       xml:space="preserve"
       id="flowRoot2987-0-8"
       style="font-style:normal;font-variant:normal;font-weight:normal;font-stretch:normal;line-height:0.01%;font-family:Lavi;-inkscape-font-specification:Lavi;letter-spacing:0px;word-spacing:0px;fill:#000000;fill-opacity:1;stroke:none"
       transform="matrix(1.4223517,0,0,1.37337,1072.1209,1436.3078)"><flowRegion
         id="flowRegion2989-5-3"><rect
           id="rect2991-3-9"
           width="1228.9047"
           height="338.34705"
           x="120.55251"
           y="265.53046"
           style="font-style:normal;font-variant:normal;font-weight:normal;font-stretch:normal;font-family:Lavi;-inkscape-font-specification:Lavi" /></flowRegion><flowPara
         style="font-size:48px;line-height:1.25;text-align:center;text-anchor:middle"
         id="flowPara3899">De toverdrank</flowPara><flowPara
         style="font-size:48px;line-height:1.25;text-align:center;text-anchor:middle"
         id="flowPara4205">der Genialiteit!</flowPara></flowRoot>    <flowRoot
       xml:space="preserve"
       id="flowRoot2987-0-8-0"
       style="font-style:normal;font-variant:normal;font-weight:normal;font-stretch:normal;line-height:0.01%;font-family:Lavi;-inkscape-font-specification:Lavi;letter-spacing:0px;word-spacing:0px;fill:#000000;fill-opacity:1;stroke:none"
       transform="matrix(0.99729969,0,0,0.93985282,-85.124577,2113.0806)"><flowRegion
         id="flowRegion2989-5-3-2"><rect
           id="rect2991-3-9-7"
           width="1228.9047"
           height="338.34705"
           x="120.55251"
           y="265.53046"
           style="font-style:normal;font-variant:normal;font-weight:normal;font-stretch:normal;font-family:Lavi;-inkscape-font-specification:Lavi" /></flowRegion><flowPara
         style="font-size:48px;line-height:1.25;text-align:center;text-anchor:middle"
         id="flowPara3933">Neem maar</flowPara><flowPara
         style="font-size:48px;line-height:1.25;text-align:center;text-anchor:middle"
         id="flowPara4185">een slokje.</flowPara></flowRoot>    <flowRoot
       xml:space="preserve"
       id="flowRoot2987-0-8-0-9"
       style="font-style:normal;font-variant:normal;font-weight:normal;font-stretch:normal;line-height:0.01%;font-family:Lavi;-inkscape-font-specification:Lavi;letter-spacing:0px;word-spacing:0px;fill:#000000;fill-opacity:1;stroke:none"
       transform="matrix(0.99729969,0,0,0.93985282,1217.2184,2224.4125)"><flowRegion
         id="flowRegion2989-5-3-2-1"><rect
           id="rect2991-3-9-7-5"
           width="1228.9047"
           height="338.34705"
           x="120.55251"
           y="265.53046"
           style="font-style:normal;font-variant:normal;font-weight:normal;font-stretch:normal;font-family:Lavi;-inkscape-font-specification:Lavi" /></flowRegion><flowPara
         style="font-size:48px;line-height:1.25;text-align:center;text-anchor:middle"
         id="flowPara3933-7">Als het goed is,</flowPara><flowPara
         style="font-size:48px;line-height:1.25;text-align:center;text-anchor:middle"
         id="flowPara4187">krijg je nu een</flowPara><flowPara
         style="font-size:48px;line-height:1.25;text-align:center;text-anchor:middle"
         id="flowPara3969">geniaal moment.</flowPara></flowRoot>  </g>
</svg>
