<?xml version="1.0" encoding="UTF-8" standalone="no"?>
<svg
   xmlns:dc="http://purl.org/dc/elements/1.1/"
   xmlns:cc="http://creativecommons.org/ns#"
   xmlns:rdf="http://www.w3.org/1999/02/22-rdf-syntax-ns#"
   xmlns:svg="http://www.w3.org/2000/svg"
   xmlns="http://www.w3.org/2000/svg"
   xmlns:xlink="http://www.w3.org/1999/xlink"
   xmlns:sodipodi="http://sodipodi.sourceforge.net/DTD/sodipodi-0.dtd"
   xmlns:inkscape="http://www.inkscape.org/namespaces/inkscape"
   id="svg2"
   version="1.1"
   inkscape:version="1.0 (4035a4fb49, 2020-05-01)"
   width="2481"
   height="3503"
   sodipodi:docname="E27P03.svg">
  <metadata
     id="metadata8">
    <rdf:RDF>
      <cc:Work
         rdf:about="">
        <dc:format>image/svg+xml</dc:format>
        <dc:type
           rdf:resource="http://purl.org/dc/dcmitype/StillImage" />
        <dc:title />
      </cc:Work>
    </rdf:RDF>
  </metadata>
  <defs
     id="defs6">
    <filter
       style="color-interpolation-filters:sRGB"
       id="filter4375-4-1-1-1-9"
       inkscape:label="deevad outline effect">
      <feFlood
         id="feFlood4377-7-9-0-8-1"
         flood-opacity="1"
         flood-color="rgb(0,0,0)"
         result="flood" />
      <feComposite
         id="feComposite4379-3-8-8-2-77"
         in2="SourceGraphic"
         in="flood"
         operator="in"
         result="composite1" />
      <feMorphology
         id="feMorphology4393-1-0-49-8-9"
         operator="dilate"
         radius="4"
         result="result3" />
      <feComposite
         id="feComposite4385-9-5-7-0-8"
         in2="result3"
         in="SourceGraphic"
         operator="over"
         result="composite2" />
    </filter>
    <filter
       style="color-interpolation-filters:sRGB"
       id="filter4375-4-1-1-1-9-5"
       inkscape:label="deevad outline effect">
      <feFlood
         id="feFlood4377-7-9-0-8-1-8"
         flood-opacity="1"
         flood-color="rgb(0,0,0)"
         result="flood" />
      <feComposite
         id="feComposite4379-3-8-8-2-77-0"
         in2="SourceGraphic"
         in="flood"
         operator="in"
         result="composite1" />
      <feMorphology
         id="feMorphology4393-1-0-49-8-9-0"
         operator="dilate"
         radius="4"
         result="result3" />
      <feComposite
         id="feComposite4385-9-5-7-0-8-0"
         in2="result3"
         in="SourceGraphic"
         operator="over"
         result="composite2" />
    </filter>
  </defs>
  <sodipodi:namedview
     pagecolor="#ffffff"
     bordercolor="#666666"
     borderopacity="1"
     objecttolerance="10"
     gridtolerance="10"
     guidetolerance="10"
     inkscape:pageopacity="0"
     inkscape:pageshadow="2"
     inkscape:window-width="1920"
     inkscape:window-height="1025"
     id="namedview4"
     showgrid="false"
     inkscape:zoom="0.37287956"
     inkscape:cx="1316.0755"
     inkscape:cy="2340.1957"
     inkscape:window-x="0"
     inkscape:window-y="26"
     inkscape:window-maximized="1"
     inkscape:current-layer="layer1"
     inkscape:snap-global="false"
     inkscape:document-rotation="0" />
  <g
     inkscape:groupmode="layer"
     id="layer2"
     inkscape:label="artwork"
     sodipodi:insensitive="true">
    <image
       sodipodi:absref="C:\Users\stero\Documents\Kernewek\Pepper and Carrot\webcomics\ep27_Coriander-s-Invention\lang\gfx_Pepper-and-Carrot_by-David-Revoy_E27P03.png"
       xlink:href="../gfx_Pepper-and-Carrot_by-David-Revoy_E27P03.png"
       y="0"
       x="0"
       id="image10"
       height="3503"
       width="2481" />
  </g>
  <g
     inkscape:groupmode="layer"
     id="layer3"
     inkscape:label="speechbubbles">
    <path
       style="fill:#ffffff;fill-rule:evenodd;stroke:none;stroke-width:1.14747px;stroke-linecap:butt;stroke-linejoin:miter;stroke-opacity:1"
       d="m 1094.3819,1575.3738 c 3.5525,-55.8541 1.3313,-94.0323 29.7654,-107.5615 28.4344,-13.529 244.4702,-13.9309 261.8978,-12.9046 17.4277,1.0264 54.3854,7.3205 69.711,4.1053 15.3253,-3.2151 59.7164,-4.2434 83.0489,-0.4937 23.3327,3.7496 124.1119,4.2495 136.1512,15.4109 12.0392,11.1616 42.1161,41.8742 41.5632,76.2082 -0.5531,34.3339 -14.3718,52.3394 -29.0661,71.2705 -14.6946,18.931 -67.4955,46.1505 -98.4336,45.4371 -30.9379,-0.7134 -134.1772,2.3795 -151.5475,2.7819 -17.3704,0.4024 -125.2803,7.1922 -161.9511,8.0417 -36.6707,0.8494 -92.5833,-12.5504 -130.0575,-31.7029 -37.4739,-19.1526 -51.0817,-70.5929 -51.0817,-70.5929 z"
       id="path263"
       inkscape:connector-curvature="0"
       sodipodi:nodetypes="ccccccccssccc" />
    <path
       style="fill:#ffffff;fill-rule:evenodd;stroke:none;stroke-width:1px;stroke-linecap:butt;stroke-linejoin:miter;stroke-opacity:1"
       d="m 1252.6692,1467.8179 c 0,0 -14.7372,-14.1832 -28.1318,-24.3459 -13.1591,-9.9839 -23.1743,-37.0399 -19.4243,-57.7963 -18.1089,29.447 -5.815,53.6299 11.889,81.0614 15.1315,24.8588 35.6671,1.0808 35.6671,1.0808 z"
       id="path265"
       inkscape:connector-curvature="0"
       sodipodi:nodetypes="csccc" />
    <path
       style="fill:#ffffff;fill-rule:evenodd;stroke:none;stroke-width:0.92811328px;stroke-linecap:butt;stroke-linejoin:miter;stroke-opacity:1"
       d="m 1945.4741,1849.4773 c 23.778,-33.5165 76.1784,-51.0494 117.2496,-51.9804 41.0711,-0.931 149.153,9.3101 184.82,25.1374 35.667,15.8271 68.6513,34.2911 65.4089,79.9105 -3.2425,45.6197 -12.9699,93.1011 -19.4548,109.8595 -6.4849,16.7581 -27.0204,42.8265 -47.556,57.7226 -20.5356,14.8962 -90.7888,18.6203 -115.6476,18.6203 -24.8589,0 -111.3244,-11.1722 -129.6983,-25.1374 -18.3739,-13.9651 -56.2026,-37.2404 -62.6875,-79.1359 -6.4849,-41.8955 -3.2425,-109.8593 7.5657,-134.9966 z"
       id="path267"
       inkscape:connector-curvature="0"
       sodipodi:nodetypes="csccccscsc" />
    <path
       style="fill:#ffffff;fill-rule:evenodd;stroke:none;stroke-width:1px;stroke-linecap:butt;stroke-linejoin:miter;stroke-opacity:1"
       d="m 1825.1743,1897.7489 c 53.571,-19.7367 111.3904,-9.3727 131.1271,16.0031 19.7367,25.3757 16.4282,45.0866 16.4282,45.0866 l -21.6164,9.3985 c 0,14.3171 5.8835,-17.1392 -7.2743,-30.7446 -12.9359,-13.376 -35.6882,-34.1046 -57.3046,-37.8639 -21.6164,-3.7594 -50.0819,-2.8196 -61.36,-1.8797 z"
       id="path269"
       inkscape:connector-curvature="0"
       sodipodi:nodetypes="ccccscc" />
    <path
       style="fill:#ffffff;fill-rule:evenodd;stroke:none;stroke-width:1.14866px;stroke-linecap:butt;stroke-linejoin:miter;stroke-opacity:1"
       d="m 221.40321,2429.9709 c 26.83477,-19.5284 88.55476,-25.272 115.38953,-32.1644 26.83478,-6.8924 63.06172,-1.1487 80.50433,-2.2974 17.4426,-1.1488 65.74519,-6.8924 79.16258,-5.7437 13.41739,1.1487 99.28868,6.8924 116.73127,8.0411 17.44261,1.1487 92.57999,6.8924 100.63042,28.7183 8.05043,21.8258 21.36824,60.7053 20.12608,85.006 -1.34833,26.3778 -8.06196,73.3897 -42.94716,86.0258 -34.88522,12.636 -107.32758,16.2111 -170.3893,18.5086 -63.06174,2.2974 -150.27476,-6.8924 -163.69215,-6.8924 -13.41738,0 -84.52953,1.1487 -112.70605,-27.5696 -28.17652,-28.7181 -48.30259,-60.8826 -44.27739,-89.6008 4.02523,-28.7183 21.46784,-62.0315 21.46784,-62.0315 z"
       id="path271"
       inkscape:connector-curvature="0"
       sodipodi:nodetypes="csssssssssssc" />
    <path
       style="fill:#ffffff;fill-rule:evenodd;stroke:none;stroke-width:1px;stroke-linecap:butt;stroke-linejoin:miter;stroke-opacity:1"
       d="m 549.40558,2567.868 c 0,0 -6.17962,40.1675 -4.9437,48.819 1.23593,8.6515 12.35924,48.201 19.77478,58.0884 -19.15682,-22.2466 -31.51605,-51.2908 -33.9879,-61.1782 -2.47184,-9.8874 -1.23592,-50.0549 -1.23592,-50.0549 z"
       id="path273"
       inkscape:connector-curvature="0" />
    <path
       style="fill:#ffffff;fill-rule:evenodd;stroke:none;stroke-width:1.08571px;stroke-linecap:butt;stroke-linejoin:miter;stroke-opacity:1"
       d="m 825.83393,2397.2192 c 43.55989,-5.6852 33.5076,7.8173 71.20366,7.1066 37.69606,-0.7106 114.76351,-7.8172 133.19281,-14.2131 10.0522,-3.5533 10.8899,2.132 10.8899,2.132 0,0 30.9946,1.4213 36.8584,2.8426 5.8637,1.4213 28.4815,10.6598 36.8583,8.5279 8.3769,-2.132 22.6176,-5.6853 22.6176,-5.6853 0,0 -0.8376,47.614 -1.6753,51.1672 -0.8377,3.5533 -6.7015,30.5582 -6.7015,39.7968 0,9.2385 5.0261,23.4516 4.1883,27.7156 -0.8376,4.2639 10.8901,14.9237 10.8901,14.9237 l -31.8323,0.7107 -21.7799,2.132 -9.2146,-2.132 -39.3715,2.8426 -22.6176,0.7107 1.6754,-4.264 -97.17202,4.264 4.18845,-6.3959 -33.5076,1.4213 -12.56535,6.3959 -4.18846,-5.6853 -28.48147,0.7107 -15.07842,6.3959 8.3769,-13.5025 -12.56535,-7.8172 -2.51306,-104.4664 7.53921,-4.264 z"
       id="path275"
       inkscape:connector-curvature="0" />
    <path
       style="fill:#ffffff;fill-rule:evenodd;stroke:none;stroke-width:1px;stroke-linecap:butt;stroke-linejoin:miter;stroke-opacity:1"
       d="m 1118.5743,2437.016 c 32.7805,-4.9746 54.6342,9.2385 62.6473,7.8172 8.0131,-1.4213 34.2376,-10.6598 42.979,-9.9492 8.7415,0.7107 64.1044,8.5279 80.8588,5.6853 16.7545,-2.8427 53.9059,0 59.7336,-0.7107 5.8275,-0.7106 29.1382,-14.2131 35.6944,-14.2131 6.5561,0 17.4829,6.3959 41.5221,-9.2385 -10.1985,18.477 -16.0261,31.2688 -16.0261,31.2688 0,0 25.496,-7.1065 35.6943,-7.1065 10.1985,0 18.2116,3.5532 23.3107,1.4213 5.0992,-2.132 32.7806,-2.8426 37.1514,-2.8426 4.3708,0 15.2975,-3.5533 20.3968,-3.5533 5.0992,0 51.7205,4.2639 58.2766,4.2639 6.5561,0 67.7465,-7.1066 74.3026,-7.1066 6.5561,0 36.4229,2.132 48.8068,-2.8426 1.4568,14.2131 -2.9139,48.3246 -2.9139,56.1418 0,7.8173 0.7284,17.7664 0.7284,24.1624 -10.9268,7.1065 -18.94,21.3196 -18.94,21.3196 0,0 18.2116,3.5533 23.3107,0.7107 5.0992,-2.8426 2.1854,52.5885 2.9139,63.2484 0.7285,10.6598 -8.7415,0.7106 -8.7415,0.7106 0,0 -1.4569,7.8172 -7.2846,9.2386 -5.8276,1.4213 -108.5401,-0.7107 -120.1954,-0.7107 -11.6554,0 -15.2977,3.5533 -15.2977,3.5533 h -50.2636 l -1.4569,-6.3959 -22.5821,4.2639 -30.5953,4.9746 -18.2114,3.5533 -10.1983,-2.8426 -50.2637,0.7106 -43.7074,1.4213 10.9268,-10.6598 -113.6393,7.8172 -52.449,1.4213 -48.0782,6.3959 -9.4699,-22.741 -5.0993,-49.0352 c 0,0 -2.9138,-13.5026 5.0993,-15.6345 8.013,-2.1319 -5.8277,-4.2639 -7.2846,-17.0557 -1.457,-12.7918 -5.8276,-45.482 -5.8276,-45.482 l 9.4699,-2.8426 -11.6553,-7.1066 z"
       id="path277"
       inkscape:connector-curvature="0" />
    <path
       style="fill:#ffffff;fill-rule:evenodd;stroke:none;stroke-width:0.99999994px;stroke-linecap:butt;stroke-linejoin:miter;stroke-opacity:1"
       d="m 1327.3521,2751.2587 c 32.6788,-36.3054 55.3539,-80.3905 55.3539,-94.0051 8.6697,12.9662 8.0028,10.373 8.0028,10.373 0,0 14.6721,-38.8987 14.0051,-62.8862 -0.6667,-23.9875 26.6766,-24.6358 30.0111,-19.4493 3.3345,5.1864 9.47,23.9875 9.47,23.9875 l -4.1347,13.6145 -4.0015,-3.2415 c 0,0 -15.3389,40.1952 -17.3397,44.7334 -2.0008,4.5382 -10.6705,23.9876 -10.6705,23.9876 l -2.6677,-11.6696 -14.6721,10.373 0.6669,16.2077 -8.003,-7.1314 c 0,0 -0.6667,9.7247 -4.0014,14.9112 -3.3346,5.1864 -24.0089,27.8774 -26.6765,31.1189 -2.6676,3.2415 -25.3427,9.0763 -25.3427,9.0763 z"
       id="path279"
       inkscape:connector-curvature="0" />
    <path
       style="fill:#ffffff;fill-rule:evenodd;stroke:none;stroke-width:1.05162px;stroke-linecap:butt;stroke-linejoin:miter;stroke-opacity:1"
       d="m 1838.6861,2412.5674 8.0066,7.358 40.675,-4.3215 8.1343,-8.3665 c 0,0 18.076,8.3665 23.4988,5.5777 5.4227,-2.7889 27.1138,-4.6481 27.1138,-4.6481 l 8.1343,7.4369 19.8835,-2.7888 c 0,0 46.0938,7.4369 56.9393,6.5072 10.8457,-0.9295 29.8255,-10.2256 29.8255,-10.2256 0,0 37.0557,10.2256 42.4785,8.3664 5.4228,-1.8592 15.3646,-2.7887 15.3646,-2.7887 l 11.7494,20.4515 c 0,0 23.4987,-19.522 23.4987,-28.8181 15.3647,-0.9297 36.152,0 39.7672,-1.8593 3.6153,-1.8592 5.4229,11.1554 5.4229,11.1554 l 10.8455,6.5073 c 0,0 27.1139,-20.4515 29.8253,-24.1699 2.7115,-3.7185 20.7875,-2.789 20.7875,-2.789 0,0 25.3064,0.9297 28.9215,0 3.6152,-0.9295 18.9797,0.9297 32.5369,1.8592 13.5569,0.9298 27.1139,0.9298 37.0557,-2.7887 2.7114,15.8034 0,72.51 -0.9038,79.0173 -9.9419,15.8034 -19.8836,45.5512 -28.0178,51.1289 21.6912,-11.1555 21.6912,-14.8739 29.8253,-22.3108 -0.9037,23.2405 -8.1341,72.51 -9.0379,78.0878 14.4608,-12.085 12.6532,-9.2962 10.8456,-4.6481 -1.8077,4.6481 -7.2304,18.5923 -9.038,29.7476 -1.8076,11.1554 0,25.0997 -1.8076,32.5366 -1.8076,7.437 -3.6152,17.6628 -3.6152,17.6628 0,0 -36.152,11.1553 -42.4786,13.0146 -6.3266,1.8592 -62.3621,1.8592 -76.8229,1.8592 -14.4608,0 -36.152,2.7888 -46.0937,1.8592 5.4228,-10.2257 9.038,-17.6627 9.038,-17.6627 0,0 -45.1899,4.6481 -56.0356,6.5074 -10.8456,1.8592 -56.0356,-8.3666 -65.9774,-7.4369 -9.9417,0.9295 -65.0735,2.7887 -79.5343,3.7184 -14.4608,0.9295 -50.6127,2.7888 -64.1697,5.5777 -13.5569,2.7888 -54.228,4.648 -63.2659,4.648 -9.0381,0 -26.2102,0.9297 -26.2102,0.9297 0,0 -1.8076,-33.4661 -1.8076,-45.5512 0,-12.085 -4.519,-71.5804 -0.9039,-78.0877 3.6152,-6.5074 6.3267,-52.0586 6.3267,-56.7066 0,-4.6481 -8.5275,-40.4078 -8.5275,-40.4078 z"
       id="path283"
       inkscape:connector-curvature="0"
       sodipodi:nodetypes="ccccscccccsccccccccccccccccccccscccccsscssscc" />
    <path
       style="fill:#ffffff;fill-rule:evenodd;stroke:none;stroke-width:0.99999994px;stroke-linecap:butt;stroke-linejoin:miter;stroke-opacity:1"
       d="m 1928.0456,2832.7023 c -13.1433,-30.6118 9.2927,-109.1953 20.1114,-126.6745 0,-10.6243 -4.641,-22.8831 -4.641,-22.8831 0,0 -11.6028,4.9035 -14.6968,10.6243 -3.0941,5.7208 13.1497,-34.3247 22.4319,-40.8627 9.2823,-6.538 -6.9616,-37.5937 -6.9616,-37.5937 0,0 -31.7143,26.1521 -33.2613,37.5937 -1.547,11.4416 -10.0557,70.2839 -6.1881,80.9082 3.8676,10.6243 6.1881,4.9035 9.2821,0.8172 3.0942,-4.0862 11.6029,-12.2588 16.244,-15.5278 -7.7353,19.6141 -20.1115,84.1772 -2.3206,113.5984 z"
       id="path285"
       inkscape:connector-curvature="0"
       sodipodi:nodetypes="ccccccssccc" />
  </g>
  <g
     inkscape:groupmode="layer"
     id="layer1"
     inkscape:label="txt">
    <text
       xml:space="preserve"
       style="font-style:normal;font-variant:normal;font-weight:normal;font-stretch:normal;line-height:0%;font-family:Lavi;-inkscape-font-specification:Lavi;text-align:center;letter-spacing:0px;word-spacing:0px;text-anchor:middle;fill:#000000;fill-opacity:1;stroke:none"
       x="1407.3555"
       y="1524.687"
       id="text4246"><tspan
         sodipodi:role="line"
         style="font-size:45px;line-height:1.2"
         x="1407.3555"
         y="1524.687"
         id="tspan794">Hwi a gonvedh a verr</tspan><tspan
         sodipodi:role="line"
         style="font-size:45px;line-height:1.2"
         x="1407.3555"
         y="1578.687"
         id="tspan67">spys prag y fynnis drehevel</tspan><tspan
         sodipodi:role="line"
         style="font-size:45px;line-height:1.2"
         x="1407.3555"
         y="1632.687"
         id="tspan69">an huni nowydh ma.</tspan></text>
    <text
       xml:space="preserve"
       style="font-style:normal;font-variant:normal;font-weight:normal;font-stretch:normal;line-height:0%;font-family:Lavi;-inkscape-font-specification:Lavi;text-align:center;letter-spacing:0px;word-spacing:0px;text-anchor:middle;fill:#000000;fill-opacity:1;stroke:none"
       x="2123.2803"
       y="1868.3798"
       id="text4246-3"><tspan
         sodipodi:role="line"
         style="font-size:45px;line-height:1.2"
         x="2123.2803"
         y="1868.3798"
         id="tspan66">Yth yw awos</tspan><tspan
         sodipodi:role="line"
         style="font-size:45px;line-height:1.2"
         x="2123.2803"
         y="1922.3798"
         id="tspan80">ow frederow</tspan><tspan
         sodipodi:role="line"
         style="font-size:45px;line-height:1.2"
         x="2123.2803"
         y="1976.3798"
         id="tspan82">ow tochya</tspan><tspan
         sodipodi:role="line"
         style="font-size:45px;line-height:1.2"
         x="2123.2803"
         y="2030.3798"
         id="tspan84">an kurunyans.</tspan></text>
    <text
       xml:space="preserve"
       style="font-style:normal;font-variant:normal;font-weight:normal;font-stretch:normal;line-height:0%;font-family:Lavi;-inkscape-font-specification:Lavi;text-align:center;letter-spacing:0px;word-spacing:0px;text-anchor:middle;fill:#000000;fill-opacity:1;stroke:none"
       x="474.53574"
       y="2461.4622"
       id="text4246-3-3"><tspan
         sodipodi:role="line"
         style="font-size:45px;line-height:1.2"
         x="474.53574"
         y="2461.4622"
         id="tspan113">Gesewgh vy dh'agas </tspan><tspan
         sodipodi:role="line"
         style="font-size:45px;line-height:1.2"
         x="474.53574"
         y="2515.4622"
         id="tspan91">komendya dhe'm </tspan><tspan
         sodipodi:role="line"
         style="font-size:45px;line-height:1.2"
         x="474.53574"
         y="2569.4622"
         id="tspan93">dismygyans nowydh...</tspan></text>
    <text
       xml:space="preserve"
       style="font-style:normal;font-variant:normal;font-weight:normal;font-stretch:normal;line-height:0%;font-family:Lavi;-inkscape-font-specification:Lavi;text-align:center;letter-spacing:0px;word-spacing:0px;text-anchor:middle;fill:#000000;fill-opacity:1;stroke:none"
       x="993.33942"
       y="2462.7529"
       id="text4246-3-3-2"><tspan
         sodipodi:role="line"
         style="font-style:normal;font-variant:normal;font-weight:normal;font-stretch:normal;font-size:32px;line-height:1.4;font-family:'Press Start 2P';-inkscape-font-specification:'Press Start 2P'"
         x="993.33942"
         y="2462.7529"
         id="tspan113-9">Dydh da,</tspan><tspan
         sodipodi:role="line"
         style="font-style:normal;font-variant:normal;font-weight:normal;font-stretch:normal;font-size:32px;line-height:1.4;font-family:'Press Start 2P';-inkscape-font-specification:'Press Start 2P'"
         x="993.33942"
         y="2507.553"
         id="tspan144">norvys.</tspan></text>
    <text
       xml:space="preserve"
       style="font-style:normal;font-variant:normal;font-weight:normal;font-stretch:normal;line-height:0%;font-family:Lavi;-inkscape-font-specification:Lavi;text-align:center;letter-spacing:0px;word-spacing:0px;text-anchor:middle;fill:#000000;fill-opacity:1;stroke:none"
       x="1443.948"
       y="2493.7439"
       id="text4246-3-3-2-2"><tspan
         sodipodi:role="line"
         style="font-style:normal;font-variant:normal;font-weight:normal;font-stretch:normal;font-size:32px;line-height:1.4;font-family:'Press Start 2P';-inkscape-font-specification:'Press Start 2P'"
         x="1443.948"
         y="2493.7439"
         id="tspan171">Dha VRYSONYDH-BOT </tspan><tspan
         sodipodi:role="line"
         style="font-style:normal;font-variant:normal;font-weight:normal;font-stretch:normal;font-size:32px;line-height:1.4;font-family:'Press Start 2P';-inkscape-font-specification:'Press Start 2P'"
         x="1443.948"
         y="2538.5439"
         id="tspan100">ov vy, </tspan><tspan
         sodipodi:role="line"
         style="font-style:normal;font-variant:normal;font-weight:normal;font-stretch:normal;font-size:32px;line-height:1.4;font-family:'Press Start 2P';-inkscape-font-specification:'Press Start 2P'"
         x="1443.948"
         y="2583.344"
         id="tspan102">blip, bloup!</tspan></text>
    <text
       xml:space="preserve"
       style="font-style:normal;font-variant:normal;font-weight:normal;font-stretch:normal;line-height:0%;font-family:Lavi;-inkscape-font-specification:Lavi;text-align:center;letter-spacing:0px;word-spacing:0px;text-anchor:middle;fill:#000000;fill-opacity:1;stroke:none"
       x="2097.0667"
       y="2471.8889"
       id="text4246-3-3-2-2-7"><tspan
         sodipodi:role="line"
         style="font-style:normal;font-variant:normal;font-weight:normal;font-stretch:normal;font-size:32px;line-height:1.3;font-family:'Press Start 2P';-inkscape-font-specification:'Press Start 2P'"
         x="2097.0667"
         y="2471.8889"
         id="tspan208">Growedh war ow</tspan><tspan
         sodipodi:role="line"
         style="font-style:normal;font-variant:normal;font-weight:normal;font-stretch:normal;font-size:32px;line-height:1.3;font-family:'Press Start 2P';-inkscape-font-specification:'Press Start 2P'"
         x="2097.0667"
         y="2513.489"
         id="tspan119">gweli-dydh,</tspan><tspan
         sodipodi:role="line"
         style="font-style:normal;font-variant:normal;font-weight:normal;font-stretch:normal;font-size:32px;line-height:1.3;font-family:'Press Start 2P';-inkscape-font-specification:'Press Start 2P'"
         x="2097.0667"
         y="2555.0889"
         id="tspan121">mar pleg, rag</tspan><tspan
         sodipodi:role="line"
         style="font-style:normal;font-variant:normal;font-weight:normal;font-stretch:normal;font-size:32px;line-height:1.3;font-family:'Press Start 2P';-inkscape-font-specification:'Press Start 2P'"
         x="2097.0667"
         y="2596.689"
         id="tspan123">kussulyans heb</tspan><tspan
         sodipodi:role="line"
         style="font-style:normal;font-variant:normal;font-weight:normal;font-stretch:normal;font-size:32px;line-height:1.3;font-family:'Press Start 2P';-inkscape-font-specification:'Press Start 2P'"
         x="2097.0667"
         y="2638.2888"
         id="tspan125">kost.</tspan></text>
    <text
       xml:space="preserve"
       style="font-style:normal;font-variant:normal;font-weight:normal;font-stretch:normal;line-height:0%;font-family:Lavi;-inkscape-font-specification:Lavi;letter-spacing:0px;word-spacing:0px;fill:#000000;fill-opacity:1;stroke:#000000;stroke-width:2.15796;stroke-miterlimit:4;stroke-dasharray:none;stroke-opacity:1;filter:url(#filter4375-4-1-1-1-9)"
       x="787.65729"
       y="1584.5073"
       id="text4580"
       transform="matrix(0.46879428,-0.12606586,-0.08654633,0.61214652,623.13411,2085.4411)"><tspan
         sodipodi:role="line"
         id="tspan4582"
         x="787.65729"
         y="1584.5073"
         style="font-style:normal;font-variant:normal;font-weight:bold;font-stretch:normal;font-size:80.4001px;line-height:1.25;font-family:Lavi;-inkscape-font-specification:'Lavi Bold';fill:#ffffff;stroke-width:2.15796">Skwych!</tspan></text>
    <text
       xml:space="preserve"
       style="font-style:normal;font-variant:normal;font-weight:normal;font-stretch:normal;line-height:0%;font-family:Lavi;-inkscape-font-specification:Lavi;letter-spacing:0px;word-spacing:0px;fill:#000000;fill-opacity:1;stroke:#000000;stroke-width:2.15796;stroke-miterlimit:4;stroke-dasharray:none;stroke-opacity:1;filter:url(#filter4375-4-1-1-1-9-5)"
       x="787.65729"
       y="1584.5073"
       id="text4580-4"
       transform="matrix(0.46879428,-0.12606586,-0.08654633,0.61214652,2027.5227,1975.6976)"><tspan
         sodipodi:role="line"
         id="tspan4582-7"
         x="787.65729"
         y="1584.5073"
         style="font-style:normal;font-variant:normal;font-weight:bold;font-stretch:normal;font-size:80.4001px;line-height:1.25;font-family:Lavi;-inkscape-font-specification:'Lavi Bold';fill:#ffffff;stroke-width:2.15796">Tapp!</tspan></text>
  </g>
</svg>
