<?xml version="1.0" encoding="UTF-8" standalone="no"?>
<svg
   xmlns:dc="http://purl.org/dc/elements/1.1/"
   xmlns:cc="http://creativecommons.org/ns#"
   xmlns:rdf="http://www.w3.org/1999/02/22-rdf-syntax-ns#"
   xmlns:svg="http://www.w3.org/2000/svg"
   xmlns="http://www.w3.org/2000/svg"
   xmlns:xlink="http://www.w3.org/1999/xlink"
   xmlns:sodipodi="http://sodipodi.sourceforge.net/DTD/sodipodi-0.dtd"
   xmlns:inkscape="http://www.inkscape.org/namespaces/inkscape"
   id="svg2"
   version="1.1"
   inkscape:version="1.0 (4035a4fb49, 2020-05-01)"
   width="2481"
   height="3503"
   sodipodi:docname="E27P02.svg">
  <metadata
     id="metadata8">
    <rdf:RDF>
      <cc:Work
         rdf:about="">
        <dc:format>image/svg+xml</dc:format>
        <dc:type
           rdf:resource="http://purl.org/dc/dcmitype/StillImage" />
        <dc:title />
      </cc:Work>
    </rdf:RDF>
  </metadata>
  <defs
     id="defs6" />
  <sodipodi:namedview
     pagecolor="#ffffff"
     bordercolor="#666666"
     borderopacity="1"
     objecttolerance="10"
     gridtolerance="10"
     guidetolerance="10"
     inkscape:pageopacity="0"
     inkscape:pageshadow="2"
     inkscape:window-width="1920"
     inkscape:window-height="1019"
     id="namedview4"
     showgrid="false"
     inkscape:zoom="0.38512515"
     inkscape:cx="1115.1754"
     inkscape:cy="2479.2439"
     inkscape:window-x="0"
     inkscape:window-y="27"
     inkscape:window-maximized="1"
     inkscape:current-layer="layer3"
     inkscape:snap-global="false"
     inkscape:document-rotation="0" />
  <g
     inkscape:groupmode="layer"
     id="layer2"
     inkscape:label="artwork"
     sodipodi:insensitive="true">
    <image
       sodipodi:absref="C:\Users\stero\Documents\Kernewek\Pepper and Carrot\webcomics\ep27_Coriander-s-Invention\lang\gfx_Pepper-and-Carrot_by-David-Revoy_E27P02.png"
       xlink:href="../gfx_Pepper-and-Carrot_by-David-Revoy_E27P02.png"
       y="0"
       x="0"
       id="image10"
       height="3503"
       width="2481" />
  </g>
  <g
     inkscape:groupmode="layer"
     id="layer3"
     inkscape:label="speechbubbles">
    <path
       style="fill:#ffffff;fill-rule:evenodd;stroke:none;stroke-width:1.05469px;stroke-linecap:butt;stroke-linejoin:miter;stroke-opacity:1"
       d="m 453.98405,195.57139 c 6.39048,1.63451 66.64355,0 72.12109,-0.81725 5.47756,-0.81726 46.5592,-7.35529 56.60138,-5.72078 10.04218,1.63451 79.42449,10.6243 92.20545,11.44156 12.78094,0.81725 73.94693,2.45176 84.90203,7.35529 10.95512,4.90352 25.56192,9.80705 33.77826,17.9796 8.21633,8.17254 20.08434,33.50743 19.17142,39.22821 -0.91293,5.72078 -13.69388,44.94899 -20.99728,50.66977 -7.30339,5.72078 -32.8653,24.51763 -40.16871,26.9694 -7.30341,2.45176 -23.73605,8.98979 -31.95239,11.44156 -8.21632,2.45176 -194.45308,4.90352 -217.27621,5.72078 -22.82313,0.81725 -111.37688,-4.90353 -126.89662,-5.72078 -15.51972,-0.81726 -52.03674,1.63451 -75.77278,-6.53804 -23.73607,-8.17254 -40.16872,-38.41095 -47.47212,-44.13174 -7.30341,-5.72078 -20.08436,-30.23841 -19.17143,-39.22821 0.91292,-8.9898 19.17143,-30.23841 28.30067,-32.69017 9.12926,-2.45177 46.55919,-22.88313 68.4694,-26.9694 21.91021,-4.08627 74.85987,-13.89332 84.90205,-13.07607 13.74579,1.64213 12.30168,0.16304 39.25579,4.08627 z"
       id="path1323"
       inkscape:connector-curvature="0"
       sodipodi:nodetypes="ccsscscsscsssccsscc" />
    <path
       style="fill:#ffffff;fill-rule:evenodd;stroke:none;stroke-width:1.10212px;stroke-linecap:butt;stroke-linejoin:miter;stroke-opacity:1"
       d="m 149.5973,163.77351 c 12.79427,-19.15682 35.98386,-29.0442 47.97846,-31.51605 11.99463,-2.47185 31.98565,3.08981 43.18063,1.85389 11.19497,-1.23593 53.57595,-12.35924 69.56877,-11.74128 15.99281,0.61796 63.17164,4.32573 78.36483,4.9437 15.19317,0.61796 52.77632,3.0898 66.37021,9.88738 13.5939,6.79758 28.78708,14.21312 31.186,21.0107 2.39893,6.79758 7.99642,19.77478 2.39893,30.89809 -5.59749,11.12331 -19.19139,30.28013 -36.78349,32.13401 -17.59211,1.85389 -104.75299,8.65147 -123.94437,8.0335 -19.19138,-0.61796 -71.9677,0 -84.76196,0 -12.79426,0 -59.17345,-4.32573 -72.76734,-12.35923 -13.5939,-8.0335 -23.98923,-24.10051 -25.58851,-33.9879 -1.59929,-9.88738 4.79784,-19.15681 4.79784,-19.15681 z"
       id="path1325"
       inkscape:connector-curvature="0" />
    <path
       style="fill:#ffffff;fill-rule:evenodd;stroke:none;stroke-width:1px;stroke-linecap:butt;stroke-linejoin:miter;stroke-opacity:1"
       d="m 544.4243,343.97954 c 6.17962,25.33643 -4.94369,76.0093 4.32573,89.60445 9.26943,13.59516 11.12331,11.74128 19.15682,18.53886 -12.35924,15.44904 -17.92089,33.36993 -16.68497,42.63936 1.23592,9.26942 4.32573,33.36993 35.84178,44.49324 -27.19032,-19.15681 -24.71847,-38.31363 -23.48255,-43.87528 1.23593,-5.56166 6.17962,-34.60586 21.62867,-42.0214 -15.44905,-11.74127 -23.48255,-24.71847 -23.48255,-32.13401 0,-7.41554 8.65146,-82.80688 8.65146,-82.80688 z"
       id="path1327"
       inkscape:connector-curvature="0" />
    <path
       style="fill:#ffffff;fill-rule:evenodd;stroke:none;stroke-width:1px;stroke-linecap:butt;stroke-linejoin:miter;stroke-opacity:1"
       d="m 1028.778,99.513979 c -32.42456,17.031151 -62.38624,30.970451 -66.70952,55.949461 -4.32327,24.97901 -16.21228,45.41639 -17.2931,62.44753 -1.08082,17.03115 7.26449,79.16428 14.83022,101.87247 7.56573,22.7082 48.6369,74.93704 54.0409,79.47868 5.4041,4.54163 41.0712,19.30196 58.3643,26.11442 17.2931,6.81246 155.6379,11.35409 180.4967,14.76032 24.8589,3.40623 91.8696,-15.89573 109.1628,-23.8436 17.2931,-7.94787 41.0711,-11.3541 51.8793,-24.97901 10.8082,-13.62491 35.667,-49.95802 39.9903,-65.85375 4.3232,-15.89574 4.3232,-70.3954 4.3232,-81.7495 0,-11.3541 -1.0808,-61.31212 -21.6163,-82.8849 -20.5356,-21.57278 -55.1218,-51.09344 -82.1423,-60.17671 -27.0205,-9.083277 -190.2241,-22.708193 -208.598,-23.843603 -18.374,-1.135409 -116.7285,22.708192 -116.7285,22.708192 z"
       id="path1329"
       inkscape:connector-curvature="0"
       sodipodi:nodetypes="cssscsscscscssc" />
    <path
       style="fill:#ffffff;fill-rule:evenodd;stroke:none;stroke-width:0.867854px;stroke-linecap:butt;stroke-linejoin:miter;stroke-opacity:1"
       d="m 1055.2353,398.44709 c -23.5293,15.55541 -49.7736,30.13863 -55.2035,40.83298 -5.42982,10.69434 -12.66963,39.86075 -9.04979,53.47175 3.61997,13.61099 15.38469,69.99939 28.95929,80.69374 13.5746,10.69434 57.0136,43.74962 78.733,43.74962 21.7194,0 91.4025,12.63877 103.1673,11.66656 11.7646,-0.97222 87.7826,10.69435 107.6922,0.97221 19.9094,-9.72214 45.2487,-27.22198 60.6334,-33.05527 15.3844,-5.83327 52.4885,-8.74992 63.3482,-30.13862 10.8598,-21.3887 15.7192,-59.5812 7.2399,-87.49924 -8.2009,-27.00111 -25.3393,-50.5551 -52.4887,-65.13832 -27.1492,-14.5832 -114.027,-46.66625 -114.027,-46.66625 l -130.3165,-12.63878 c 0,0 -20.8145,8.74992 -42.534,21.3887 -21.7194,12.63877 -46.1538,22.36092 -46.1538,22.36092 z"
       id="path1331"
       inkscape:connector-curvature="0"
       sodipodi:nodetypes="csccsccccasccsc" />
    <path
       style="fill:#ffffff;fill-rule:evenodd;stroke:none;stroke-width:1px;stroke-linecap:butt;stroke-linejoin:miter;stroke-opacity:1"
       d="m 1351.9814,582.45483 c 0,0 27.0205,22.6972 35.667,37.82867 8.6466,15.13146 27.0205,36.74784 22.6972,76.73814 10.8082,-51.87931 10.8082,-67.01077 -20.5355,-116.72844 -31.3438,-49.71768 -37.8287,2.16163 -37.8287,2.16163 z"
       id="path1333"
       inkscape:connector-curvature="0" />
    <path
       style="fill:#ffffff;fill-rule:evenodd;stroke:none;stroke-width:1.10746px;stroke-linecap:butt;stroke-linejoin:miter;stroke-opacity:1"
       d="m 1575.8313,236.18684 c 13.2595,-48.37064 17.6791,-76.58685 48.6176,-94.05403 30.9383,-17.46718 157.6384,-32.24709 175.3175,-33.59072 17.6791,-1.34363 70.7163,4.03089 95.7618,4.03089 25.0453,0 154.6919,-2.68726 175.3175,-2.68726 20.6256,0 104.6014,0 126.7003,2.68726 22.0988,2.68726 100.1814,18.8108 113.4408,30.90347 13.2594,12.09265 51.5639,63.15055 53.0372,96.74128 1.4734,33.59072 -1.4733,88.67951 -27.9919,110.17757 -26.5186,21.49806 -88.3956,48.37063 -129.6468,56.43241 -41.2511,8.06177 -243.0873,17.46717 -266.6593,17.46717 -23.5722,0 -123.7536,4.03089 -172.3712,-2.68725 -48.6174,-6.71815 -101.6547,-26.87258 -126.7001,-45.68338 -25.0453,-18.81082 -55.9839,-32.2471 -64.8234,-68.52508 -8.8395,-36.27798 0,-71.21233 0,-71.21233 z"
       id="path1335"
       inkscape:connector-curvature="0" />
    <path
       style="fill:#ffffff;fill-rule:evenodd;stroke:none;stroke-width:1px;stroke-linecap:butt;stroke-linejoin:miter;stroke-opacity:1"
       d="m 1746.5526,437.03907 c 27.5116,26.61792 42.8588,47.56076 -11.4058,80.71719 49.1355,-0.72812 43.5728,20.05383 34.2174,45.56614 66.8976,-20.5973 113.7421,-7.40942 120.3948,32.54725 43.9171,-32.2476 50.5645,-26.46532 83.6426,-1.30189 39.6321,-49.89404 62.6056,-15.54139 91.2465,-10.41512 -5.8821,-23.03081 13.5288,-43.92498 62.4748,-10.21797 -17.5693,-18.88765 -10.6126,-65.99877 56.6527,-69.19731 -30.151,-10.89059 -73.1985,-22.51429 -22.8117,-69.00017 -77.6206,-8.98442 -39.9485,-27.33589 -51.9598,-41.66048 l -112.7909,-13.0189 -114.0581,7.81134 -58.2964,5.20756 c -1.4105,20.45876 4.4806,42.79545 -77.3061,42.96236 z"
       id="path1337"
       inkscape:connector-curvature="0"
       sodipodi:nodetypes="cccccccccccccc" />
    <path
       style="fill:#ffffff;fill-rule:evenodd;stroke:none;stroke-width:1px;stroke-linecap:butt;stroke-linejoin:miter;stroke-opacity:1"
       d="m 2083.819,542.58622 c 24.8588,19.45474 57.2834,63.76832 55.1217,92.95043 10.8082,-38.90948 -17.2931,-97.27371 -31.3437,-112.40517 -14.0507,-15.13147 -23.778,19.45474 -23.778,19.45474 z"
       id="path1339"
       inkscape:connector-curvature="0" />
    <path
       style="fill:#ffffff;fill-rule:evenodd;stroke:none;stroke-width:1.12665px;stroke-linecap:butt;stroke-linejoin:miter;stroke-opacity:1"
       d="m 799.72049,1438.6648 c 13.95603,-34.2595 41.86812,-50.6446 79.74882,-59.5818 37.88069,-8.9372 137.56679,1.4895 163.48509,1.4895 25.9183,0 129.5919,7.4477 143.5479,19.3641 13.9561,11.9164 47.8492,37.2387 37.8806,64.0505 -9.9686,26.8118 -21.9309,53.6236 -75.7613,68.519 -53.8305,14.8954 -103.6735,0 -123.6108,1.4896 -19.9372,1.4895 -45.85552,8.9372 -101.67964,1.4895 -55.82417,-7.4477 -127.59813,-46.1759 -123.61067,-96.8204 z"
       id="path1341"
       inkscape:connector-curvature="0" />
    <path
       style="fill:#ffffff;fill-rule:evenodd;stroke:none;stroke-width:1px;stroke-linecap:butt;stroke-linejoin:miter;stroke-opacity:1"
       d="m 1321.8416,1549.9601 c -25.1103,-26.3097 -29.3743,-46.7563 -36.94,-53.2412 -7.5658,-6.4849 -52.768,-40.79 -87.3542,-44.0325 -34.5862,-3.2424 -28.1013,24.8589 -28.1013,24.8589 0,0 36.7479,1.0808 51.8793,5.4041 15.1315,4.3232 48.6369,20.5355 54.041,24.8588 5.4041,4.3233 19.4547,27.0205 46.4752,42.1519 z"
       id="path1343"
       inkscape:connector-curvature="0"
       sodipodi:nodetypes="cccccsc" />
    <path
       style="fill:#ffffff;fill-rule:evenodd;stroke:none;stroke-width:1px;stroke-linecap:butt;stroke-linejoin:miter;stroke-opacity:1"
       d="m 1847.0115,1634.8585 c 65.8759,-41.0171 79.5483,-53.4465 129.266,-55.9324 49.7176,-2.4859 59.6612,-29.8306 59.6612,-29.8306 0,0 -34.8024,-1.243 -72.0906,6.2147 -37.2883,7.4576 -95.7066,37.2882 -116.8366,79.5483 z"
       id="path1345"
       inkscape:connector-curvature="0" />
    <path
       style="fill:#ffffff;fill-rule:evenodd;stroke:none;stroke-width:1.19155px;stroke-linecap:butt;stroke-linejoin:miter;stroke-opacity:1"
       d="m 1963.6173,1506.9287 c 22.9376,-23.1071 81.9198,-47.6583 117.9645,-51.9909 36.0446,-4.3325 150.7323,5.7767 175.3082,18.7744 24.5759,12.9978 75.3662,23.1072 73.7279,64.9888 -1.6386,41.8815 6.5535,60.6561 -31.1296,83.763 -37.683,23.1072 -170.3931,17.3304 -199.8842,15.8862 -29.4911,-1.4441 -85.1964,-7.2209 -114.6877,-33.2165 -29.491,-25.9953 -42.5981,-53.4349 -21.2991,-98.205 z"
       id="path1347"
       inkscape:connector-curvature="0" />
    <path
       style="fill:#ffffff;fill-rule:evenodd;stroke:none;stroke-width:1.00363px;stroke-linecap:butt;stroke-linejoin:miter;stroke-opacity:1"
       d="m 2013.659,1655.9885 c 20.0315,-34.8024 68.8583,-47.2318 80.1261,-47.2318 11.2677,0 98.9056,7.4576 115.1811,7.4576 16.2757,0 50.0789,-7.4576 68.8584,-4.9717 18.7796,2.4859 53.8347,0 68.8583,24.8588 15.0237,24.8588 26.2914,79.5483 22.5355,103.1642 -3.7558,23.6159 7.6705,68.0019 -8.6052,104.0472 -16.2756,36.0453 -6.5605,31.0802 -30.348,42.2667 -23.7874,11.1865 -155.1021,11.5397 -180.1415,7.8109 -25.0394,-3.7289 -73.8662,0 -95.1497,-6.2147 -21.2835,-6.2148 -55.0866,-27.3448 -50.0788,-53.4465 5.0079,-26.1018 -8.7638,-49.7177 -2.504,-94.4636 6.2599,-44.7459 11.2678,-83.2771 11.2678,-83.2771 z"
       id="path1349"
       inkscape:connector-curvature="0"
       sodipodi:nodetypes="csssssssssssc" />
    <path
       style="fill:#ffffff;fill-rule:evenodd;stroke:none;stroke-width:0.99999994px;stroke-linecap:butt;stroke-linejoin:miter;stroke-opacity:1"
       d="m 110.76633,2399.1151 c 0,-35.8207 25.87264,-41.7908 42.74609,-41.7908 16.87346,0 71.9934,-4.7762 79.86769,-4.7762 7.87428,0 66.36892,7.1642 76.493,13.1343 10.12407,5.9701 25.87262,10.7462 23.62284,32.2386 -2.2498,21.4925 0,33.4327 -22.49794,39.4028 -22.49795,5.9702 -110.23992,8.3582 -125.98848,7.1642 -15.74855,-1.194 -39.37139,-10.7463 -50.62036,-17.9104 -11.24897,-7.1641 -25.87264,-9.5522 -23.62284,-27.4625 z"
       id="path1351"
       inkscape:connector-curvature="0" />
    <path
       style="fill:#ffffff;fill-rule:evenodd;stroke:none;stroke-width:0.955175px;stroke-linecap:butt;stroke-linejoin:miter;stroke-opacity:1"
       d="m 303.82887,2417.9545 c 46.82058,-12.5499 79.92131,-9.5727 93.76636,-7.7109 14.57055,1.9594 51.48955,13.5327 63.04843,23.6753 11.55888,10.1426 26.29903,30.6916 25.24822,42.8627 -1.05081,12.1712 6.72242,45.6139 5.67162,61.842 -1.05081,16.2282 -12.24981,72.0402 -19.60546,95.3682 -7.35566,23.3279 -25.21938,50.7129 -104.02992,55.7842 -78.81055,5.0713 -127.14768,3.0428 -157.62109,-5.0713 -30.47341,-8.114 -69.35329,-13.1853 -79.86137,-51.7271 -10.50807,-38.542 -13.66048,-82.1551 -10.50807,-100.4117 3.15243,-18.2567 6.30485,-58.827 10.50807,-65.9269 4.20324,-7.0998 16.89947,-34.7486 26.35673,-40.8341 9.45727,-6.0856 147.02648,-7.8504 147.02648,-7.8504 z"
       id="path1353"
       inkscape:connector-curvature="0"
       sodipodi:nodetypes="csssscscsscsc" />
    <path
       style="fill:#ffffff;fill-rule:evenodd;stroke:none;stroke-width:1px;stroke-linecap:butt;stroke-linejoin:miter;stroke-opacity:1"
       d="m 500.89386,2568.1178 c 1.08082,-19.4547 14.05064,-55.1218 33.50539,-61.6067 19.45474,-6.4849 73.49568,-6.4849 84.30387,-3.2424 10.80819,3.2424 28.1013,27.0204 32.42457,36.7478 4.32328,9.7274 16.21229,44.3136 -3.24245,58.3642 -19.45474,14.0507 -38.90949,24.8589 -59.44505,23.778 -20.53556,-1.0808 -61.60668,-8.6465 -71.33405,-21.6163 -9.72737,-12.9699 -16.21228,-32.4246 -16.21228,-32.4246 z"
       id="path1355"
       inkscape:connector-curvature="0" />
    <path
       style="fill:#ffffff;fill-rule:evenodd;stroke:none;stroke-width:1px;stroke-linecap:butt;stroke-linejoin:miter;stroke-opacity:1"
       d="m 356.70629,2690.4303 c 0,0 10.62431,7.3553 12.25882,23.7003 1.63451,16.3451 -0.81725,35.142 -13.89333,54.7561 28.60391,-32.6902 43.31449,-55.5733 34.32469,-83.36 -8.9898,-27.7866 -32.69018,4.9036 -32.69018,4.9036 z"
       id="path1357"
       inkscape:connector-curvature="0" />
    <path
       style="fill:#ffffff;fill-rule:evenodd;stroke:none;stroke-width:1px;stroke-linecap:butt;stroke-linejoin:miter;stroke-opacity:1"
       d="m 577.46034,2613.2813 c 0,0 17.16235,24.5177 9.80706,38.411 -7.35529,13.8933 -8.9898,18.7968 -25.33489,35.1419 26.9694,-17.9796 37.5937,-31.0556 40.86272,-43.3145 3.26902,-12.2588 5.72078,-35.9592 5.72078,-42.4972 0,-6.538 -31.05567,12.2588 -31.05567,12.2588 z"
       id="path1359"
       inkscape:connector-curvature="0" />
    <path
       style="fill:#ffffff;fill-rule:evenodd;stroke:none;stroke-width:1.18891px;stroke-linecap:butt;stroke-linejoin:miter;stroke-opacity:1"
       d="m 682.82363,2510.672 c -10.91937,-48.0245 -8.7355,-94.9055 5.45968,-107.4832 5.52946,-29.4093 69.78804,-73.6797 94.99845,-67.4629 19.65485,-4.5737 125.57267,-28.586 146.31946,-26.299 20.74679,2.2867 137.47478,5.2025 159.31338,25.7844 21.8389,20.5818 39.8012,32.1878 52.9046,53.9132 13.1031,21.7253 20.5829,64.547 27.1346,71.4076 6.5515,6.8607 4.1492,40.9922 -1.3104,60.4306 -5.4598,19.4385 -25.1146,35.4467 -53.505,42.3072 -28.3903,6.8608 -66.608,16.0082 -91.7226,17.1517 -25.11453,1.1435 -82.98716,1.1435 -126.6646,-2.2868 -52.00622,-10.722 -84.37194,-10.9957 -136.24706,-15.8919 -9.82744,-1.1433 -74.49664,-20.6983 -76.68051,-51.5709 z"
       id="path1361"
       inkscape:connector-curvature="0"
       sodipodi:nodetypes="ccccccccccccc" />
    <path
       style="fill:#ffffff;fill-rule:evenodd;stroke:none;stroke-width:1px;stroke-linecap:butt;stroke-linejoin:miter;stroke-opacity:1"
       d="m 1046.2018,2560.9613 c 40.4132,37.5937 65.789,69.5483 47.932,102.4428 29.1351,-35.714 14.0976,-69.5483 -24.4359,-117.4803 -38.5336,-47.932 -23.4961,15.0375 -23.4961,15.0375 z"
       id="path1363"
       inkscape:connector-curvature="0" />
    <path
       style="fill:#ffffff;fill-rule:evenodd;stroke:none;stroke-width:1px;stroke-linecap:butt;stroke-linejoin:miter;stroke-opacity:1"
       d="m 1362.7766,2499.8218 c -0.8172,-27.7867 20.4314,-32.6902 31.8729,-34.3247 11.4416,-1.6345 58.8423,-9.807 76.8219,3.269 17.9796,13.0761 22.8832,35.142 14.7106,43.3145 -8.1725,8.1726 -34.3247,20.4314 -50.6698,21.2486 -16.345,0.8173 -51.487,-4.0862 -62.9285,-15.5278 -11.4416,-11.4416 -9.8071,-17.9796 -9.8071,-17.9796 z"
       id="path1365"
       inkscape:connector-curvature="0" />
    <path
       style="fill:#ffffff;fill-rule:evenodd;stroke:none;stroke-width:1px;stroke-linecap:butt;stroke-linejoin:miter;stroke-opacity:1"
       d="m 1445.7231,2523.112 c 0,0 19.6141,10.6243 24.5176,19.6141 4.9035,8.9898 13.0761,31.0556 8.9898,45.7662 13.0761,-26.1521 8.1725,-42.4972 4.9035,-49.8525 -3.269,-7.3553 -23.7004,-34.3247 -23.7004,-34.3247 z"
       id="path1367"
       inkscape:connector-curvature="0" />
    <path
       style="fill:#ffffff;fill-rule:evenodd;stroke:none;stroke-width:1.33952px;stroke-linecap:butt;stroke-linejoin:miter;stroke-opacity:1"
       d="m 1691.4436,2460.1172 c -0.4859,-54.3924 35.7482,-83.4415 67.6295,-91.6232 31.8811,-8.1817 181.7941,-11.232 226.8028,-10.0632 45.0088,1.1688 211.9164,12.8569 240.0468,14.0257 28.1305,1.1689 99.3943,28.0514 105.0204,35.0643 5.6262,7.0128 30.0059,25.7137 22.5043,46.7523 -7.5013,21.0386 -50.6347,49.09 -91.8929,59.6092 -41.2581,10.5193 -206.2899,18.7009 -238.1713,16.3634 -31.8811,-2.3376 -86.2666,-5.8441 -118.148,-5.8441 -31.8812,0 -131.119,-8.0507 -159.406,-14.0257 -60.8675,-12.8568 -54.3856,-50.2587 -54.3856,-50.2587 z"
       id="path1369"
       inkscape:connector-curvature="0"
       sodipodi:nodetypes="csssssssssc" />
    <path
       style="fill:#ffffff;fill-rule:evenodd;stroke:none;stroke-width:1.52831px;stroke-linecap:butt;stroke-linejoin:miter;stroke-opacity:1"
       d="m 1843.6311,2489.5939 c 30.7416,28.7671 12.0858,41.1575 -39.9408,42.484 40.2387,11.8619 90.4663,18.5723 79.8814,56.6452 44.6743,-0.4467 72.9355,-23.7475 144.2305,12.8739 42.1596,-30.2023 84.3192,-15.8194 126.4792,-2.5748 20.221,-13.4733 57.4524,-14.3306 135.3547,-7.7244 -6.0157,-29.7911 42.8712,-43.0669 88.7573,-52.7831 -38.8521,-15.6946 -73.8478,-32.8129 -48.8167,-72.0939 -56.4591,8.6682 -103.9372,7.9572 -130.9168,-14.1613 -56.0139,4.9516 -98.0888,26.077 -175.2955,6.4371 -41.5762,23.7366 -87.9169,25.3572 -135.355,21.8856 10.8107,21.1595 -1.9505,25.6042 -44.3783,9.0117 z"
       id="path1371"
       inkscape:connector-curvature="0"
       sodipodi:nodetypes="cccccccccccc" />
    <path
       style="fill:#ffffff;fill-rule:evenodd;stroke:none;stroke-width:1px;stroke-linecap:butt;stroke-linejoin:miter;stroke-opacity:1"
       d="m 2142.1832,2571.3341 c -3.2425,28.1012 8.6465,79.9806 34.5862,113.4859 -3.2425,16.2123 1.0808,33.5054 15.1315,47.5561 -12.9699,-29.1821 -7.5658,-36.7479 -1.0809,-50.7985 -12.9698,-20.5356 -31.3437,-69.1724 -34.5862,-109.1627 -3.2424,-39.9903 -14.0506,-1.0808 -14.0506,-1.0808 z"
       id="path1373"
       inkscape:connector-curvature="0" />
  </g>
  <g
     inkscape:groupmode="layer"
     id="layer1"
     inkscape:label="txt">
    <text
       xml:space="preserve"
       style="font-style:normal;font-variant:normal;font-weight:normal;font-stretch:normal;line-height:0%;font-family:Lavi;-inkscape-font-specification:Lavi;text-align:center;letter-spacing:0px;word-spacing:0px;text-anchor:middle;fill:#000000;fill-opacity:1;stroke:none"
       x="320.61392"
       y="193.67375"
       id="text4246"><tspan
         sodipodi:role="line"
         style="font-size:45px;line-height:1.2"
         x="320.61392"
         y="193.67375"
         id="tspan4252">A wodhowgh...</tspan></text>
    <text
       xml:space="preserve"
       style="font-style:normal;font-variant:normal;font-weight:normal;font-stretch:normal;line-height:0%;font-family:Lavi;-inkscape-font-specification:Lavi;text-align:center;letter-spacing:0px;word-spacing:0px;text-anchor:middle;fill:#000000;fill-opacity:1;stroke:none"
       x="528.04688"
       y="265.45801"
       id="text4246-3"><tspan
         sodipodi:role="line"
         style="font-size:45px;line-height:1.2"
         x="528.04688"
         y="265.45801"
         id="tspan841">Yth esen ow tybi a-dro</tspan><tspan
         sodipodi:role="line"
         style="font-size:45px;line-height:1.2"
         x="528.04688"
         y="319.45801"
         id="tspan102">dhe'n diogeledh arta...</tspan></text>
    <text
       xml:space="preserve"
       style="font-style:normal;font-variant:normal;font-weight:normal;font-stretch:normal;line-height:0%;font-family:Lavi;-inkscape-font-specification:Lavi;text-align:center;letter-spacing:0px;word-spacing:0px;text-anchor:middle;fill:#000000;fill-opacity:1;stroke:none"
       x="1203.0967"
       y="169.41882"
       id="text4246-3-7"><tspan
         sodipodi:role="line"
         style="font-size:45px;line-height:1.2"
         x="1203.0967"
         y="169.41882"
         id="tspan872">Lies myghtern</tspan><tspan
         sodipodi:role="line"
         style="font-size:45px;line-height:1.2"
         x="1203.0967"
         y="223.41882"
         id="tspan118">ha myghternes yowynk</tspan><tspan
         sodipodi:role="line"
         style="font-size:45px;line-height:1.2"
         x="1203.0967"
         y="277.41882"
         id="tspan120">a veu moldrys yn kres</tspan><tspan
         sodipodi:role="line"
         style="font-size:45px;line-height:1.2"
         x="1203.0967"
         y="331.41882"
         id="tspan122">aga solempnita</tspan><tspan
         sodipodi:role="line"
         style="font-size:45px;line-height:1.2"
         x="1203.0967"
         y="385.41882"
         id="tspan124">kurunyans.</tspan></text>
    <text
       xml:space="preserve"
       style="font-style:normal;font-variant:normal;font-weight:normal;font-stretch:normal;line-height:0%;font-family:Lavi;-inkscape-font-specification:Lavi;text-align:center;letter-spacing:0px;word-spacing:0px;text-anchor:middle;fill:#000000;fill-opacity:1;stroke:none"
       x="1222.4489"
       y="467.01553"
       id="text4246-3-7-7"><tspan
         sodipodi:role="line"
         style="font-size:45px;line-height:1.2"
         x="1222.4489"
         y="467.01553"
         id="tspan746">Henna re dheuth</tspan><tspan
         sodipodi:role="line"
         style="font-size:45px;line-height:1.2"
         x="1222.4489"
         y="521.01556"
         id="tspan131">ha bos rann</tspan><tspan
         sodipodi:role="line"
         style="font-size:45px;line-height:1.2"
         x="1222.4489"
         y="575.01556"
         id="tspan133">istori ow theylu.</tspan></text>
    <text
       xml:space="preserve"
       style="font-style:normal;font-variant:normal;font-weight:normal;font-stretch:normal;line-height:0%;font-family:Lavi;-inkscape-font-specification:Lavi;text-align:center;letter-spacing:0px;word-spacing:0px;text-anchor:middle;fill:#000000;fill-opacity:1;stroke:none"
       x="1961.5282"
       y="176.76515"
       id="text4246-3-7-7-6"><tspan
         sodipodi:role="line"
         style="font-size:45px;line-height:1.2"
         x="1961.5282"
         y="176.76515"
         id="tspan996">Ha lemmyn, dhe benn dew our, </tspan><tspan
         sodipodi:role="line"
         style="font-size:45px;line-height:1.2"
         x="1961.5282"
         y="230.76515"
         id="tspan149">ni a dhegemmer milyow a </tspan><tspan
         sodipodi:role="line"
         style="font-size:45px;line-height:1.2"
         x="1961.5282"
         y="284.76517"
         id="tspan151">westoryon dhyworth oll an </tspan><tspan
         sodipodi:role="line"
         style="font-size:45px;line-height:1.2"
         x="1961.5282"
         y="338.76517"
         id="tspan159">norvys ha my a vydh kres </tspan><tspan
         sodipodi:role="line"
         style="font-size:45px;line-height:1.2"
         x="1961.5282"
         y="392.76517"
         id="tspan163">aga attendyans.</tspan></text>
    <text
       xml:space="preserve"
       style="font-style:normal;font-variant:normal;font-weight:normal;font-stretch:normal;line-height:0%;font-family:Lavi;-inkscape-font-specification:Lavi;text-align:center;letter-spacing:0px;word-spacing:0px;text-anchor:middle;fill:#000000;fill-opacity:1;stroke:none"
       x="1019.3418"
       y="1445.7167"
       id="text4246-3-7-7-6-7"><tspan
         sodipodi:role="line"
         style="font-size:45px;line-height:1.2"
         x="1019.3418"
         y="1445.7167"
         id="tspan1067">Na vydh prederus,</tspan><tspan
         sodipodi:role="line"
         style="font-size:45px;line-height:1.2"
         x="1019.3418"
         y="1499.7167"
         id="tspan171">Coriander.</tspan></text>
    <text
       xml:space="preserve"
       style="font-style:normal;font-variant:normal;font-weight:normal;font-stretch:normal;line-height:0%;font-family:Lavi;-inkscape-font-specification:Lavi;text-align:center;letter-spacing:0px;word-spacing:0px;text-anchor:middle;fill:#000000;fill-opacity:1;stroke:none"
       x="1957.3252"
       y="473.72366"
       id="text4246-3-7-7-6-7-7"><tspan
         sodipodi:role="line"
         style="font-size:45px;line-height:1.2"
         x="1957.3252"
         y="473.72366"
         id="tspan1042-9">Fest, fest</tspan><tspan
         sodipodi:role="line"
         style="font-size:45px;line-height:1.2"
         x="1957.3252"
         y="527.72369"
         id="tspan167">ownek ov!</tspan></text>
    <text
       xml:space="preserve"
       style="font-style:normal;font-variant:normal;font-weight:normal;font-stretch:normal;line-height:0%;font-family:Lavi;-inkscape-font-specification:Lavi;text-align:center;letter-spacing:0px;word-spacing:0px;text-anchor:middle;fill:#000000;fill-opacity:1;stroke:none"
       x="2145.4336"
       y="1539.2563"
       id="text4246-3-7-7-6-7-2"><tspan
         sodipodi:role="line"
         style="font-size:45px;line-height:1.2"
         x="2145.4336"
         y="1539.2563"
         id="tspan1092">Ni a wra holya</tspan><tspan
         sodipodi:role="line"
         style="font-size:45px;line-height:1.2"
         x="2145.4336"
         y="1593.2563"
         id="tspan175">agan towlen.</tspan></text>
    <text
       xml:space="preserve"
       style="font-style:normal;font-variant:normal;font-weight:normal;font-stretch:normal;line-height:0%;font-family:Lavi;-inkscape-font-specification:Lavi;text-align:center;letter-spacing:0px;word-spacing:0px;text-anchor:middle;fill:#000000;fill-opacity:1;stroke:none"
       x="2186.6404"
       y="1691.4915"
       id="text4246-3-7-7-6-7-2-9"><tspan
         sodipodi:role="line"
         style="font-size:45px;line-height:1.2"
         x="2186.6404"
         y="1691.4915"
         id="tspan1121">Shichimi ha my </tspan><tspan
         sodipodi:role="line"
         style="font-size:45px;line-height:1.2"
         x="2186.6404"
         y="1745.4915"
         id="tspan186">a vydh dha </tspan><tspan
         sodipodi:role="line"
         style="font-size:45px;line-height:1.2"
         x="2186.6404"
         y="1799.4915"
         id="tspan188">withyadesow, </tspan><tspan
         sodipodi:role="line"
         style="font-size:45px;line-height:1.2"
         x="2186.6404"
         y="1853.4915"
         id="tspan190">a berthydh kov?</tspan></text>
    <text
       xml:space="preserve"
       style="font-style:normal;font-variant:normal;font-weight:normal;font-stretch:normal;line-height:0%;font-family:Lavi;-inkscape-font-specification:Lavi;text-align:center;letter-spacing:0px;word-spacing:0px;text-anchor:middle;fill:#000000;fill-opacity:1;stroke:none"
       x="224.1396"
       y="2409.7466"
       id="text4246-3-7-7-6-7-2-9-6"><tspan
         sodipodi:role="line"
         style="font-size:45px;line-height:1.2"
         x="224.1396"
         y="2409.7466"
         id="tspan1121-3">Poran.</tspan></text>
    <text
       xml:space="preserve"
       style="font-style:normal;font-variant:normal;font-weight:normal;font-stretch:normal;line-height:0%;font-family:Lavi;-inkscape-font-specification:Lavi;text-align:center;letter-spacing:0px;word-spacing:0px;text-anchor:middle;fill:#000000;fill-opacity:1;stroke:none"
       x="306.79276"
       y="2479.5852"
       id="text4246-3-7-7-6-7-2-9-6-1"><tspan
         sodipodi:role="line"
         style="font-size:45px;line-height:1.2"
         x="306.79276"
         y="2479.5852"
         id="tspan1183">Y tegoodh</tspan><tspan
         sodipodi:role="line"
         style="font-size:45px;line-height:1.2"
         x="306.79276"
         y="2533.5852"
         id="tspan206">dhis powes pols</tspan><tspan
         sodipodi:role="line"
         style="font-size:45px;line-height:1.2"
         x="306.79276"
         y="2587.5852"
         id="tspan208">ha tybi a </tspan><tspan
         sodipodi:role="line"
         style="font-size:45px;line-height:1.2"
         x="306.79276"
         y="2641.5852"
         id="tspan210">neppyth aral.</tspan></text>
    <text
       xml:space="preserve"
       style="font-style:normal;font-variant:normal;font-weight:normal;font-stretch:normal;line-height:0%;font-family:Lavi;-inkscape-font-specification:Lavi;text-align:center;letter-spacing:0px;word-spacing:0px;text-anchor:middle;fill:#000000;fill-opacity:1;stroke:none"
       x="586.46118"
       y="2579.0981"
       id="text4246-3-7-7-6-7-2-9-6-1-4"><tspan
         sodipodi:role="line"
         style="font-size:45px;line-height:1.2"
         x="586.46118"
         y="2579.0981"
         id="tspan1183-0">OK.</tspan></text>
    <text
       xml:space="preserve"
       style="font-style:normal;font-variant:normal;font-weight:normal;font-stretch:normal;line-height:0%;font-family:Lavi;-inkscape-font-specification:Lavi;text-align:center;letter-spacing:0px;word-spacing:0px;text-anchor:middle;fill:#000000;fill-opacity:1;stroke:none"
       x="924.10059"
       y="2387.3877"
       id="text4246-3-7-7-6-7-2-9-6-1-4-3"><tspan
         sodipodi:role="line"
         style="font-size:45px;line-height:1.2"
         x="924.10059"
         y="2387.3877"
         id="tspan1249">A! Prag na wrav</tspan><tspan
         sodipodi:role="line"
         style="font-size:45px;line-height:1.2"
         x="924.10059"
         y="2441.3877"
         id="tspan221">diskwedhes orthowgh</tspan><tspan
         sodipodi:role="line"
         style="font-size:45px;line-height:1.2"
         x="924.10059"
         y="2495.3877"
         id="tspan223">ow dismygyans</tspan><tspan
         sodipodi:role="line"
         style="font-size:45px;line-height:1.2"
         x="924.10059"
         y="2549.3877"
         id="tspan229">nowydh?</tspan></text>
    <text
       xml:space="preserve"
       style="font-style:normal;font-variant:normal;font-weight:normal;font-stretch:normal;line-height:0%;font-family:Lavi;-inkscape-font-specification:Lavi;text-align:center;letter-spacing:0px;word-spacing:0px;text-anchor:middle;fill:#000000;fill-opacity:1;stroke:none"
       x="1429.6105"
       y="2501.0703"
       id="text4246-3-7-7-6-7-2-9-6-1-4-3-1"><tspan
         sodipodi:role="line"
         style="font-size:45px;line-height:1.2"
         x="1429.6105"
         y="2501.0703"
         id="tspan1249-3">...</tspan></text>
    <text
       xml:space="preserve"
       style="font-style:normal;font-variant:normal;font-weight:normal;font-stretch:normal;line-height:0%;font-family:Lavi;-inkscape-font-specification:Lavi;text-align:center;letter-spacing:0px;word-spacing:0px;text-anchor:middle;fill:#000000;fill-opacity:1;stroke:none"
       x="2014.7648"
       y="2421.7151"
       id="text4246-3-7-7-6-7-2-9-6-1-4-3-1-2"><tspan
         sodipodi:role="line"
         style="font-size:45px;line-height:1.2"
         x="2014.7648"
         y="2421.7151"
         id="tspan1298">Ymava a-woles dhe'n</tspan><tspan
         sodipodi:role="line"
         style="font-size:45px;line-height:1.2"
         x="2014.7648"
         y="2475.7151"
         id="tspan227">grisyow yn ow shoppa ober.</tspan></text>
    <text
       xml:space="preserve"
       style="font-style:normal;font-variant:normal;font-weight:normal;font-stretch:normal;line-height:0%;font-family:Lavi;-inkscape-font-specification:Lavi;text-align:center;letter-spacing:0px;word-spacing:0px;text-anchor:middle;fill:#000000;fill-opacity:1;stroke:none"
       x="2101.9236"
       y="2550.5396"
       id="text4246-3-7-7-6-7-2-9-6-1-4-3-1-2-6"><tspan
         sodipodi:role="line"
         style="font-size:45px;line-height:1.2"
         x="2101.9236"
         y="2550.5396"
         id="tspan1298-5">Dewgh war ow lergh.</tspan></text>
    <text
       xml:space="preserve"
       style="font-style:normal;font-weight:normal;font-size:40px;line-height:1.25;font-family:sans-serif;letter-spacing:0px;word-spacing:0px;fill:#000000;fill-opacity:1;stroke:none"
       x="524.51062"
       y="268.91153"
       id="text96"><tspan
         sodipodi:role="line"
         x="524.51062"
         y="268.91153"
         id="tspan98" /></text>
  </g>
</svg>
