<?xml version="1.0" encoding="UTF-8" standalone="no"?>
<!-- Created with Inkscape (http://www.inkscape.org/) -->

<svg
   xmlns:dc="http://purl.org/dc/elements/1.1/"
   xmlns:cc="http://creativecommons.org/ns#"
   xmlns:rdf="http://www.w3.org/1999/02/22-rdf-syntax-ns#"
   xmlns:svg="http://www.w3.org/2000/svg"
   xmlns="http://www.w3.org/2000/svg"
   xmlns:xlink="http://www.w3.org/1999/xlink"
   xmlns:sodipodi="http://sodipodi.sourceforge.net/DTD/sodipodi-0.dtd"
   xmlns:inkscape="http://www.inkscape.org/namespaces/inkscape"
   id="svg2"
   version="1.1"
   inkscape:version="0.92.2 (5c3e80d, 2017-08-06)"
   width="2481"
   height="3503"
   sodipodi:docname="E23P06.svg"
   inkscape:export-filename="E:\Users\jamesmichael\Downloads\Compressed\eps\ep23_Take-a-Chance_lang-pack\lang\ph\E23P06.png"
   inkscape:export-xdpi="90"
   inkscape:export-ydpi="90">
  <metadata
     id="metadata8">
    <rdf:RDF>
      <cc:Work
         rdf:about="">
        <dc:format>image/svg+xml</dc:format>
        <dc:type
           rdf:resource="http://purl.org/dc/dcmitype/StillImage" />
        <dc:title />
      </cc:Work>
    </rdf:RDF>
  </metadata>
  <defs
     id="defs6" />
  <sodipodi:namedview
     pagecolor="#ffffff"
     bordercolor="#666666"
     borderopacity="1"
     objecttolerance="10"
     gridtolerance="10"
     guidetolerance="10"
     inkscape:pageopacity="0"
     inkscape:pageshadow="2"
     inkscape:window-width="1920"
     inkscape:window-height="1026"
     id="namedview4"
     showgrid="false"
     inkscape:zoom="0.24734685"
     inkscape:cx="656.97565"
     inkscape:cy="312.49743"
     inkscape:window-x="1920"
     inkscape:window-y="27"
     inkscape:window-maximized="1"
     inkscape:current-layer="layer3"
     inkscape:document-rotation="0" />
  <g
     inkscape:groupmode="layer"
     id="layer2"
     inkscape:label="artwork"
     sodipodi:insensitive="true"
     style="display:inline">
    <image
       sodipodi:absref="E:\Users\jamesmichael\Downloads\Compressed\eps\ep23_Take-a-Chance_lang-pack\lang\ph\../gfx_Pepper-and-Carrot_by-David-Revoy_E23P06.png"
       xlink:href="../gfx_Pepper-and-Carrot_by-David-Revoy_E23P06.png"
       y="0"
       x="0"
       id="image10"
       height="3503"
       width="2481" />
  </g>
  <g
     inkscape:groupmode="layer"
     id="layer3"
     inkscape:label="speechbubbles"
     style="display:inline">
    <path
       style="fill:#ffffff;fill-rule:evenodd;stroke:none;stroke-width:1.05670094px;stroke-linecap:butt;stroke-linejoin:miter;stroke-opacity:1"
       d="m 411.82982,1818.863 c 65.27331,6.5062 106.25874,40.6638 110.81275,74.8214 4.5539,34.1576 0,367.6011 -10.62584,400.1321 -10.62584,32.5311 -54.64736,79.7012 -88.04303,78.0746 -33.39556,-1.6266 -83.64546,4.5193 -122.95652,-45.5435 -27.94368,-35.5865 -21.25179,-240.7299 -21.25179,-274.8875 0,-34.1576 -14.76972,-128.2902 22.76972,-182.174 37.88581,-54.381 109.29471,-50.4231 109.29471,-50.4231 z"
       id="path4272"
       inkscape:connector-curvature="0"
       sodipodi:nodetypes="cssssssc" />
    <path
       style="fill:#ffffff;fill-rule:evenodd;stroke:none;stroke-width:1.05670106px;stroke-linecap:butt;stroke-linejoin:miter;stroke-opacity:1"
       d="m 1108.1459,2354.1912 c -69.6883,-5.1458 -110.52308,-44.3507 -115.97352,-75.7458 -5.45031,-31.3949 -9.8643,-346.7865 0.89408,-376.8804 10.75814,-30.0937 58.58124,-90.6638 94.20604,-89.5985 35.6248,1.0654 87.3549,1.6566 130.1302,47.2476 30.4064,32.4079 26.8541,231.0626 27.4505,262.5164 0.5962,31.4541 0.743,137.2686 -38.3299,187.3736 -39.4331,50.5673 -98.3774,45.0871 -98.3774,45.0871 z"
       id="path4272-6"
       inkscape:connector-curvature="0"
       sodipodi:nodetypes="cssssssc" />
    <path
       style="fill:#ffffff;fill-rule:evenodd;stroke:none;stroke-width:1.05923808px;stroke-linecap:butt;stroke-linejoin:miter;stroke-opacity:1"
       d="m 2054.4861,1810.0513 c 41.4846,20.8262 69.0812,60.239 81.5963,102.1301 13.0881,41.8849 14.2166,86.1174 11.1563,129.374 2.7837,65.5185 9.1313,132.8445 -10.8347,196.6777 -9.2399,28.2551 -23.6954,55.8851 -46.0661,76.9415 -35.0811,28.1163 -85.2767,38.6523 -129.8263,27.8705 -29.08,-6.8262 -54.7756,-27.4693 -63.1248,-55.0333 -15.4761,-53.2196 -22.9179,-108.2596 -25.0835,-163.3409 -1.9389,-48.1077 -1.5476,-96.2924 -0.5722,-144.406 3.3553,-42.6826 8.3772,-87.2504 31.9539,-124.8145 14.8853,-24.1469 41.1229,-41.6937 70.5293,-46.0028 26.3148,-5.7836 54.0217,-5.2095 80.2722,0.6037 z"
       id="path4291"
       inkscape:connector-curvature="0" />
    <path
       style="fill:#ffffff;fill-rule:evenodd;stroke:none;stroke-width:0.61734593px;stroke-linecap:butt;stroke-linejoin:miter;stroke-opacity:1"
       d="m 1998.2508,2395.4578 c 85.5504,-23.9657 112.322,-52.9589 103.3436,-68.2415 -8.9784,-15.2825 -31.8164,-18.6784 -31.7823,-6.6851 -2.4223,6.3765 31.1405,26.2445 -71.5613,74.9266 z"
       id="path4293"
       inkscape:connector-curvature="0"
       sodipodi:nodetypes="cscc" />
  </g>
  <g
     inkscape:groupmode="layer"
     id="layer1"
     inkscape:label="txt"
     style="display:inline">
    <text
       xml:space="preserve"
       style="font-style:normal;font-variant:normal;font-weight:normal;font-stretch:normal;line-height:0%;font-family:Lavi;-inkscape-font-specification:Lavi;text-align:center;letter-spacing:0px;word-spacing:0px;text-anchor:middle;fill:#000000;fill-opacity:1;stroke:#ffffff;stroke-width:0.41015574;stroke-miterlimit:4;stroke-dasharray:none;stroke-opacity:1;"
       x="1952.7708"
       y="1485.6932"
       id="text4246-8"
       transform="matrix(0.76133526,-0.51280204,0.4098681,1.0374126,0,0)"><tspan
         sodipodi:role="line"
         style="font-size:41.48361969px;line-height:1.25;fill:#000000;stroke:#ffffff;stroke-width:0.41015574;stroke-miterlimit:4;stroke-dasharray:none;stroke-opacity:1;"
         x="1952.7708"
         y="1485.6932"
         id="tspan4150-8">Tweet!</tspan></text>
    <text
       xml:space="preserve"
       style="font-style:normal;font-variant:normal;font-weight:normal;font-stretch:normal;line-height:0%;font-family:Lavi;-inkscape-font-specification:Lavi;text-align:center;letter-spacing:0px;word-spacing:0px;text-anchor:middle;fill:#000000;fill-opacity:1;stroke:#ffffff;stroke-width:0.41015574;stroke-miterlimit:4;stroke-dasharray:none;stroke-opacity:1;"
       x="2095.8384"
       y="1367.7908"
       id="text4246-8-3"
       transform="matrix(0.8070703,-0.42305912,0.27884184,1.092883,0,0)"><tspan
         sodipodi:role="line"
         style="font-size:38.3127861px;line-height:1.25;fill:#000000;stroke:#ffffff;stroke-width:0.41015574;stroke-miterlimit:4;stroke-dasharray:none;stroke-opacity:1;"
         x="2095.8384"
         y="1367.7908"
         id="tspan4150-8-6">Crroo!</tspan></text>
    <text
       xml:space="preserve"
       style="font-style:normal;font-variant:normal;font-weight:normal;font-stretch:normal;line-height:0%;font-family:Lavi;-inkscape-font-specification:Lavi;text-align:center;letter-spacing:0px;word-spacing:0px;text-anchor:middle;fill:#000000;fill-opacity:1;stroke:#ffffff;stroke-width:0.41015574;stroke-miterlimit:4;stroke-dasharray:none;stroke-opacity:1;"
       x="2131.8132"
       y="1413.1631"
       id="text4246-8-3-7"
       transform="matrix(0.8070703,-0.42305912,0.27884184,1.092883,0,0)"><tspan
         sodipodi:role="line"
         style="font-size:38.3127861px;line-height:1.25;fill:#000000;stroke:#ffffff;stroke-width:0.41015574;stroke-miterlimit:4;stroke-dasharray:none;stroke-opacity:1;"
         x="2131.8132"
         y="1413.1631"
         id="tspan4150-8-6-5"
         dx="0 0 0 -1.0107265">Crrooo!</tspan></text>
    <text
       xml:space="preserve"
       style="font-style:normal;font-variant:normal;font-weight:normal;font-stretch:normal;line-height:0%;font-family:Lavi;-inkscape-font-specification:Lavi;text-align:center;letter-spacing:0px;word-spacing:0px;text-anchor:middle;fill:#000000;fill-opacity:1;stroke:#ffffff;stroke-width:0.41015574;stroke-miterlimit:4;stroke-dasharray:none;stroke-opacity:1;"
       x="1868.1534"
       y="1659.7085"
       id="text4246-8-3-3"
       transform="matrix(0.73266151,-0.54180126,0.44311163,1.0372069,0,0)"><tspan
         sodipodi:role="line"
         style="font-size:38.3127861px;line-height:1.25;fill:#000000;stroke:#ffffff;stroke-width:0.41015574;stroke-miterlimit:4;stroke-dasharray:none;stroke-opacity:1;"
         x="1868.1534"
         y="1659.7085"
         id="tspan4150-8-6-56">Tweet!</tspan></text>
    <text
       xml:space="preserve"
       style="font-style:normal;font-variant:normal;font-weight:normal;font-stretch:normal;line-height:0%;font-family:Lavi;-inkscape-font-specification:Lavi;text-align:center;letter-spacing:0px;word-spacing:0px;text-anchor:middle;fill:#000000;fill-opacity:1;stroke:none"
       x="396.69019"
       y="1983.4717"
       id="text4246"><tspan
         sodipodi:role="line"
         style="font-size:45px;line-height:1.25"
         x="404.60034"
         y="1983.4717"
         id="tspan47">Sa </tspan><tspan
         sodipodi:role="line"
         style="font-size:45px;line-height:1.25"
         x="404.60034"
         y="2039.7217"
         id="tspan4786">tingin ko </tspan><tspan
         sodipodi:role="line"
         style="font-size:45px;line-height:1.25"
         x="404.60034"
         y="2095.9717"
         id="tspan4784">ganun ang </tspan><tspan
         sodipodi:role="line"
         style="font-size:45px;line-height:1.25"
         x="404.60034"
         y="2152.2217"
         id="tspan4782">nagagawa </tspan><tspan
         sodipodi:role="line"
         style="font-size:45px;line-height:1.25"
         x="396.69019"
         y="2208.4717"
         id="tspan4780">ng pagma-</tspan><tspan
         sodipodi:role="line"
         style="font-size:45px;line-height:1.25"
         x="396.69019"
         y="2264.7217"
         id="tspan4788">mature</tspan></text>
    <text
       xml:space="preserve"
       style="font-style:normal;font-variant:normal;font-weight:normal;font-stretch:normal;line-height:0%;font-family:Lavi;-inkscape-font-specification:Lavi;text-align:center;letter-spacing:0px;word-spacing:0px;text-anchor:middle;fill:#000000;fill-opacity:1;stroke:none"
       x="1111.5488"
       y="1918.6331"
       id="text4246-2"><tspan
         sodipodi:role="line"
         style="font-size:45px;line-height:1.25"
         x="1119.459"
         y="1918.6331"
         id="tspan4801">iwasan </tspan><tspan
         sodipodi:role="line"
         style="font-size:45px;line-height:1.25"
         x="1119.459"
         y="1974.8831"
         id="tspan4817">ang mas </tspan><tspan
         sodipodi:role="line"
         style="font-size:45px;line-height:1.25"
         x="1119.459"
         y="2031.1331"
         id="tspan4811">madaling ruta, </tspan><tspan
         sodipodi:role="line"
         style="font-size:45px;line-height:1.25"
         x="1111.5488"
         y="2087.3831"
         id="tspan4833">para ma-</tspan><tspan
         sodipodi:role="line"
         style="font-size:45px;line-height:1.25"
         x="1119.459"
         y="2143.6331"
         id="tspan4829">appreciate </tspan><tspan
         sodipodi:role="line"
         style="font-size:45px;line-height:1.25"
         x="1119.459"
         y="2199.8831"
         id="tspan4799">yung halaga </tspan><tspan
         sodipodi:role="line"
         style="font-size:45px;line-height:1.25"
         x="1111.5488"
         y="2256.1331"
         id="tspan4797">ng pagsisikap</tspan></text>
    <text
       xml:space="preserve"
       style="font-style:normal;font-variant:normal;font-weight:normal;font-stretch:normal;line-height:0%;font-family:Lavi;-inkscape-font-specification:Lavi;text-align:center;letter-spacing:0px;word-spacing:0px;text-anchor:middle;fill:#000000;fill-opacity:1;stroke:none"
       x="2010.6797"
       y="1960.2068"
       id="text4246-2-7"><tspan
         sodipodi:role="line"
         style="font-size:45px;line-height:1.25"
         x="2018.5898"
         y="1960.2068"
         id="tspan67">Walang </tspan><tspan
         sodipodi:role="line"
         style="font-size:45px;line-height:1.25"
         x="2018.5898"
         y="2016.4568"
         id="tspan4850">kasing point </tspan><tspan
         sodipodi:role="line"
         style="font-size:45px;line-height:1.25"
         x="2018.5898"
         y="2072.7068"
         id="tspan4848">na mainggit </tspan><tspan
         sodipodi:role="line"
         style="font-size:45px;line-height:1.25"
         x="2018.5898"
         y="2128.9568"
         id="tspan4846">sa tagumpay </tspan><tspan
         sodipodi:role="line"
         style="font-size:45px;line-height:1.25"
         x="2010.6797"
         y="2185.2068"
         id="tspan4844">ng iba...</tspan></text>
  </g>
</svg>
