<?xml version="1.0" encoding="UTF-8" standalone="no"?>
<!-- Created with Inkscape (http://www.inkscape.org/) -->

<svg
   xmlns:dc="http://purl.org/dc/elements/1.1/"
   xmlns:cc="http://creativecommons.org/ns#"
   xmlns:rdf="http://www.w3.org/1999/02/22-rdf-syntax-ns#"
   xmlns:svg="http://www.w3.org/2000/svg"
   xmlns="http://www.w3.org/2000/svg"
   xmlns:xlink="http://www.w3.org/1999/xlink"
   xmlns:sodipodi="http://sodipodi.sourceforge.net/DTD/sodipodi-0.dtd"
   xmlns:inkscape="http://www.inkscape.org/namespaces/inkscape"
   id="svg2"
   version="1.1"
   inkscape:version="0.92.3 (2405546, 2018-03-11)"
   width="2481"
   height="663"
   sodipodi:docname="E28P00.svg">
  <metadata
     id="metadata8">
    <rdf:RDF>
      <cc:Work
         rdf:about="">
        <dc:format>image/svg+xml</dc:format>
        <dc:type
           rdf:resource="http://purl.org/dc/dcmitype/StillImage" />
        <dc:title />
      </cc:Work>
    </rdf:RDF>
  </metadata>
  <defs
     id="defs6">
    <linearGradient
       id="linearGradient22408"
       inkscape:collect="always">
      <stop
         id="stop22402"
         offset="0"
         style="stop-color:#9c7052;stop-opacity:1" />
      <stop
         style="stop-color:#311b0b;stop-opacity:0.99215686"
         offset="0.61082023"
         id="stop22404" />
      <stop
         id="stop22406"
         offset="1"
         style="stop-color:#384173;stop-opacity:0.98823529" />
    </linearGradient>
    <linearGradient
       inkscape:collect="always"
       id="linearGradient821">
      <stop
         style="stop-color:#9c7052;stop-opacity:1"
         offset="0"
         id="stop817" />
      <stop
         id="stop825"
         offset="0.47098562"
         style="stop-color:#311b0b;stop-opacity:0.99215686" />
      <stop
         style="stop-color:#384173;stop-opacity:0.98823529"
         offset="1"
         id="stop819" />
    </linearGradient>
    <filter
       style="color-interpolation-filters:sRGB;"
       inkscape:label="Drop Shadow"
       id="filter1035">
      <feFlood
         flood-opacity="1"
         flood-color="rgb(0,0,0)"
         result="flood"
         id="feFlood1025" />
      <feComposite
         in="flood"
         in2="SourceGraphic"
         operator="in"
         result="composite1"
         id="feComposite1027" />
      <feGaussianBlur
         in="composite1"
         stdDeviation="2.59067"
         result="blur"
         id="feGaussianBlur1029" />
      <feOffset
         dx="6.2"
         dy="3"
         result="offset"
         id="feOffset1031" />
      <feComposite
         in="SourceGraphic"
         in2="offset"
         operator="over"
         result="composite2"
         id="feComposite1033" />
    </filter>
    <radialGradient
       inkscape:collect="always"
       xlink:href="#linearGradient821"
       id="radialGradient823-5"
       cx="1229.9637"
       cy="729.06702"
       fx="1229.9637"
       fy="729.06702"
       r="778.86548"
       gradientTransform="matrix(1,0,0,0.20575413,-300.09377,121.40453)"
       gradientUnits="userSpaceOnUse" />
    <filter
       style="color-interpolation-filters:sRGB"
       inkscape:label="Drop Shadow"
       id="filter1035-4">
      <feFlood
         flood-opacity="1"
         flood-color="rgb(0,0,0)"
         result="flood"
         id="feFlood1025-3" />
      <feComposite
         in="flood"
         in2="SourceGraphic"
         operator="in"
         result="composite1"
         id="feComposite1027-0" />
      <feGaussianBlur
         in="composite1"
         stdDeviation="2.59067"
         result="blur"
         id="feGaussianBlur1029-7" />
      <feOffset
         dx="6.2"
         dy="3"
         result="offset"
         id="feOffset1031-8" />
      <feComposite
         in="SourceGraphic"
         in2="offset"
         operator="over"
         result="composite2"
         id="feComposite1033-6" />
    </filter>
    <radialGradient
       inkscape:collect="always"
       xlink:href="#linearGradient22408"
       id="radialGradient22329"
       gradientUnits="userSpaceOnUse"
       gradientTransform="matrix(1.4678527,0.02632167,-0.01145723,0.63892317,-543.28446,-802.95982)"
       cx="1211.8774"
       cy="1635.8424"
       fx="1211.8774"
       fy="1635.8424"
       r="778.86547" />
  </defs>
  <sodipodi:namedview
     pagecolor="#ffffff"
     bordercolor="#666666"
     borderopacity="1"
     objecttolerance="10"
     gridtolerance="10"
     guidetolerance="10"
     inkscape:pageopacity="0"
     inkscape:pageshadow="2"
     inkscape:window-width="1920"
     inkscape:window-height="1027"
     id="namedview4"
     showgrid="false"
     inkscape:zoom="0.52995012"
     inkscape:cx="1311.9077"
     inkscape:cy="206.32587"
     inkscape:window-x="1920"
     inkscape:window-y="26"
     inkscape:window-maximized="1"
     inkscape:current-layer="layer1" />
  <g
     inkscape:groupmode="layer"
     id="layer2"
     inkscape:label="artwork"
     sodipodi:insensitive="true">
    <image
       sodipodi:absref="/home/peppercarrot/webcomics/"
       xlink:href="../gfx_Pepper-and-Carrot_by-David-Revoy_E28P00.png"
       y="0"
       x="0"
       id="image10"
       height="663"
       width="2481" />
  </g>
  <g
     inkscape:groupmode="layer"
     id="layer1"
     inkscape:label="txt"
     style="display:inline">
    <text
       xml:space="preserve"
       style="font-style:normal;font-variant:normal;font-weight:normal;font-stretch:normal;font-size:72.5px;line-height:1.25;font-family:'Rounded M+ 1c';font-variant-caps:normal;font-variant-numeric:normal;font-feature-settings:normal;text-align:center;letter-spacing:0px;word-spacing:0px;writing-mode:lr-tb;text-anchor:middle;display:inline;fill:#2b1100;fill-opacity:1;stroke:none"
       x="1240.2522"
       y="582.47577"
       id="episode-title"><tspan
         sodipodi:role="line"
         id="tspan4180"
         x="1240.2522"
         y="582.47577">エピソード 28: 祝祭</tspan></text>
    <path
       style="color:#000000;display:inline;overflow:visible;visibility:visible;vector-effect:none;fill:url(#radialGradient22329);fill-opacity:1;fill-rule:nonzero;stroke:none;stroke-width:1;stroke-linecap:butt;stroke-linejoin:miter;stroke-miterlimit:4;stroke-dasharray:none;stroke-dashoffset:0;stroke-opacity:1;marker:none;filter:url(#filter1035);enable-background:accumulate"
       d="M 1476.834 263.0918 C 1476.6633 263.06636 1476.2407 263.2635 1475.5156 263.73438 C 1451.9681 279.92938 1431.5702 291.48553 1410.8691 300.93359 C 1410.1431 297.90249 1409.4273 294.87166 1408.709 291.80859 C 1407.472 286.53383 1412.3713 275.95064 1405.3613 275.61719 C 1403.9053 273.687 1401.0127 269.85663 1399.2793 268.48047 C 1396.148 265.9945 1394.0517 266.88617 1391.5547 268.60547 C 1388.6225 265.68343 1382.7488 266.73368 1378.2949 268.05078 C 1376.1927 268.67245 1374.8312 272.65949 1374.1211 274.45508 C 1372.7546 277.91044 1378.7374 288.18274 1381.8125 292.44922 C 1383.1671 299.05432 1384.5782 305.30387 1386.0605 311.26172 C 1380.7018 313.29921 1375.2526 315.27607 1369.6328 317.21094 C 1365.0511 318.78842 1356.4471 318.17606 1351.0137 318.44336 C 1347.2779 318.62715 1344.0652 322.80549 1345.6641 324.81836 C 1344.391 324.61646 1342.1617 326.57609 1342.9961 328.7793 C 1343.3438 329.69741 1342.5238 336.34681 1344.9473 336.73047 C 1344.8052 338.98454 1348.6764 340.38785 1350.7363 340.37109 C 1349.3461 342.48969 1350.4577 343.98673 1351.6543 345.32422 C 1354.6899 348.71748 1357.9907 349.66564 1360.0059 347.59375 C 1361.1032 349.33053 1362.8808 348.55772 1364.709 348.10938 C 1368.7705 347.11334 1377.7075 342.73018 1380.0039 341.9082 C 1384.8283 340.18138 1389.2622 338.5213 1393.4395 336.88867 C 1397.5628 349.3269 1402.1983 360.63484 1407.4902 371.6582 C 1400.5678 374.35077 1393.4501 376.85687 1386.0449 379.23438 C 1381.5398 380.68079 1376.7262 380.6536 1370.5723 380.54297 C 1368.1757 380.49989 1365.8911 381.86411 1365.9395 383.03125 C 1363.6206 382.10703 1362.819 385.90721 1361.5117 388.91992 C 1361.0934 389.88408 1363.2478 391.71625 1364.2207 392.43164 C 1361.9024 394.68843 1363.8714 396.74629 1365.8652 399.03125 C 1366.5205 399.78213 1368.4808 401.2087 1369.4785 400.88477 C 1370.5433 402.5883 1370.7996 405.07246 1372.9512 405.875 C 1373.8781 406.22078 1376.3495 405.59232 1377.418 405.54883 C 1375.948 415.65905 1400.8302 402.07798 1407.6309 399.22461 C 1411.7874 397.48063 1415.5837 395.92026 1419.4336 394.32812 C 1423.1698 400.88438 1427.1669 407.53969 1431.4863 414.48242 C 1435.3824 420.74477 1442.8467 432.02189 1444.416 431.51562 C 1446.1173 430.96677 1440.7634 420.9319 1442.043 420.47461 C 1443.9241 420.80226 1447.177 427.10116 1450.7656 432.18164 C 1452.7237 434.95375 1455.7458 438.68487 1456.4668 438.16211 C 1457.3549 437.51815 1456.6625 433.33153 1453.9355 429.16016 C 1451.2555 425.06075 1453.5378 425.04176 1451.1543 421.88281 C 1454.1115 423.98857 1459.5589 437.53047 1461.7461 435.91992 C 1462.7686 435.16687 1462.483 434.04252 1462.9746 433.79883 C 1464.6142 432.98592 1465.6111 436.52955 1464.9805 429.76758 C 1466.5291 432.72745 1470.3092 436.72691 1472.2949 439.3418 C 1474.1709 441.8121 1475.9455 442.27036 1475.0254 440.7832 C 1461.2177 418.46601 1450.6603 399.94892 1442.4082 384.07422 C 1453.0961 378.74684 1464.8932 371.89176 1480.2402 361.20312 C 1482.5346 359.60517 1489.2428 354.9718 1488.623 353.2793 C 1487.8428 351.14868 1485.1339 355.06511 1478.5605 357.5332 C 1483.3672 353.18463 1479.5427 351.61511 1482.3008 349.49414 C 1484.1142 348.09965 1484.3492 345.62616 1483.6582 344.14258 C 1485.1208 342.29509 1490.8305 337.53348 1491.1309 334.7207 C 1491.2339 333.75594 1490.559 332.05083 1488.1602 333.20117 C 1488.8165 330.81251 1491.7327 326.84771 1486.1641 329.32227 C 1488.2395 328.3239 1490.7785 325.24974 1492.582 323.50195 C 1497.432 318.8019 1498.3438 314.98086 1495.6934 317.29492 C 1473.4574 336.70901 1452.9371 350.4822 1431.2461 361.22266 C 1425.1786 347.82865 1420.9674 336.51845 1417.7168 326.19141 C 1431.1226 319.43292 1442.6144 311.95898 1457.3652 301.51172 C 1460.1613 299.53147 1466.0762 296.27239 1461.5605 294.81836 C 1460.5029 294.47777 1469.2663 289.35126 1467.8496 286.12891 C 1469.6488 284.42403 1471.82 283.60727 1470.998 282.46875 C 1469.641 280.58885 1466.1961 282.88265 1465.0215 282.09766 C 1464.165 281.52527 1464.5316 280.70611 1465.8145 279.80273 C 1466.8304 279.08733 1463.0921 278.97631 1461.3145 278.99414 C 1466.915 274.36667 1478.0287 263.26986 1476.834 263.0918 z M 603.93555 266.54297 C 600.51222 266.49916 595.19203 268.21465 592.58008 271.04688 C 590.66379 273.12482 591.28711 276.58505 590.44727 277.78711 C 587.18893 282.45075 584.94251 287.3244 584.83594 292.54883 C 584.60481 303.87656 592.88978 320.94281 609.37695 320.77344 C 623.94107 320.62382 636.30714 309.75147 637.14453 298.68359 C 638.24205 284.17695 627.41384 272.56084 624.0332 273.47852 C 621.53314 271.16398 616.19023 269.72608 616.00781 271.51953 C 612.74222 270.47788 609.40615 270.78605 606.78906 271.56445 C 607.36039 269.4691 607.47087 267.45265 605.94531 266.86328 C 605.41393 266.65799 604.72555 266.55308 603.93555 266.54297 z M 1955.7695 267.71094 C 1954.9908 267.72485 1954.2101 267.95599 1953.4512 268.49219 C 1949.6181 266.8405 1945.1715 269.62159 1942.2773 272.94336 C 1938.6506 277.10594 1939.5579 283.22589 1939.0547 293.19336 C 1936.6339 341.13836 1935.9132 330.1652 1941.8555 397.60547 C 1942.484 398.74712 1943.6044 392.06614 1944.6016 391.66602 C 1944.028 402.51593 1950.2618 428.8314 1953.0234 430.91406 C 1954.0855 431.71492 1955.0716 424.76528 1956.6328 423.5293 C 1957.0806 426.19168 1957.2965 432.59097 1960.9551 429.51562 C 1961.9184 441.59746 1967.7166 440.49241 1967.3145 434.67383 C 1964.6815 396.57577 1962.5897 377.03801 1963.9766 350.75195 C 1974.5548 361.71451 1988.1053 371.59355 1994.0977 370.68555 C 1996.0128 372.20101 1999.6575 374.48175 2001.2012 374.25195 C 2002.5652 374.0489 2001.3464 372.82722 1996.3086 366.92578 C 2000.6924 368.91777 2013.0303 371.47746 2013.125 365.52539 C 2016.7435 365.66624 2017.9232 367.00954 2019.207 365.60547 C 2020.6487 364.0287 2017.3096 361.6876 2014.2598 358.27344 C 2020.2213 363.38337 2034.3679 363.14372 2020.209 357.51953 C 1998.5957 348.93433 1985.4353 343.04647 1966.2422 324.64648 C 1967.2151 316.17137 1968.458 306.81777 1970.0762 295.95508 C 1971.2551 288.0407 1976.5015 288.86842 1977.1055 285.12305 C 1977.2938 283.95492 1976.4949 279.47502 1974.4473 277.54492 C 1970.9295 274.22905 1969.3317 269.68454 1962.0898 271.01953 C 1960.424 269.57751 1958.1057 267.66921 1955.7695 267.71094 z M 903.48242 268.93359 C 902.46941 268.96958 901.53074 269.36883 900.74219 270.26367 C 896.19668 270.26367 893.15545 271.08235 890.47266 273.87695 C 884.13794 273.59381 885.17287 285.86027 885.45508 291.67969 C 887.67141 337.38346 926.14393 407.05 938.56641 417.84961 C 940.15074 419.22697 940.40257 418.72344 942.80078 418.4668 C 943.964 418.34231 945.38067 419.72988 946.07227 419.73633 C 946.59029 419.73955 946.44927 418.5116 946.87109 417.77344 C 952.23221 424.57894 957.8806 429.97372 960.07227 429.89453 C 962.14853 429.81946 957.00059 425.51726 959.93555 423.70117 C 962.62617 424.67555 961.92456 422.75862 961.41992 421.06641 C 965.30123 427.16454 971.10017 430.62456 974.43359 431.24023 C 976.336 431.59166 976.15806 429.91751 975.12695 428.66406 C 971.81558 424.63857 977.05102 428.50739 976.99219 427.90234 C 982.72767 431.04167 994.20215 434.29707 988.75781 430.17969 C 947.38418 398.89033 924.1376 344.42589 919.0918 304.70703 C 918.49812 300.03383 921.0601 296.84725 922.29492 290.2832 C 922.57197 288.81048 921.42783 285.94266 919.43555 284.17383 C 917.15166 282.14611 917.35857 277.70708 914.41016 279.375 C 915.65199 277.04083 914.24858 276.78911 912.54297 274.74805 C 910.22727 271.97689 906.52145 268.82564 903.48242 268.93359 z M 841.33984 272.73242 C 841.21815 272.73553 841.09923 272.74732 840.98633 272.76953 C 836.15004 273.72082 832.00715 280.97002 832.09961 285.80273 C 832.2087 291.50415 838.89522 296.64212 838.72852 303.42578 C 837.65448 347.13063 809.2009 387.00703 780.47266 414.55859 C 776.14236 418.71148 765.29739 426.99775 765.79492 430.32812 C 766.13498 432.60441 771.95626 429.29382 778.25391 425.32812 C 777.11643 426.23872 774.90037 432.01039 776.05664 433.20508 C 777.53709 434.73457 785.61539 428.76134 789.2832 425.34766 C 789.14313 427.4249 789.18056 429.16457 793.23242 428.63672 C 796.64051 428.19276 806.91327 416.93637 813.47852 408.71094 C 810.22758 416.16895 808.63079 423.62412 820.17773 410.00195 C 840.68902 385.80436 863.74195 343.70233 868.44531 313.69336 C 869.58248 306.43787 870.94791 301.18765 869.64453 293.33789 C 868.51558 286.53866 864.67009 284.03998 860.48438 282.95117 C 860.14531 280.92619 860.21994 279.11552 858.49805 277.74023 C 855.45871 275.31269 849.74179 274.24038 847.13281 275.72656 C 845.89915 274.68801 843.16518 272.6858 841.33984 272.73242 z M 957.86719 272.98828 C 954.44386 272.94448 949.12367 274.65801 946.51172 277.49023 C 944.59543 279.56818 945.21875 283.02841 944.37891 284.23047 C 941.12057 288.89411 938.87415 293.76776 938.76758 298.99219 C 938.53645 310.31992 946.81947 327.38617 963.30664 327.2168 C 977.87076 327.06718 990.23878 316.19483 991.07617 305.12695 C 992.17369 290.62031 981.34548 279.00616 977.96484 279.92383 C 975.46478 277.60929 970.12187 276.16944 969.93945 277.96289 C 966.67386 276.92124 963.33779 277.2294 960.7207 278.00781 C 961.29203 275.91246 961.40251 273.89601 959.87695 273.30664 C 959.34557 273.10135 958.65719 272.99839 957.86719 272.98828 z M 1660.5645 273.05469 C 1659.0757 272.99309 1657.6541 273.5225 1657.9805 275.36523 C 1655.3663 273.91152 1651.5974 274.7811 1650.6387 275.92578 C 1648.3215 278.69256 1642.5623 282.26352 1644.0938 287.44531 C 1645.1572 291.04375 1647.5556 296.06587 1650.7852 300.16602 C 1646.7288 342.40798 1646.5747 355.16655 1649.9336 397.48242 C 1650.1491 400.19756 1651.3646 408.77515 1651.6621 409.58398 C 1652.3164 411.36313 1653.7977 404.34484 1653.127 397.23242 C 1653.9884 396.86621 1658.0224 420.62235 1660.4648 420.48633 C 1665.6786 420.19592 1664.2981 432.21463 1665.125 428.32812 C 1668.6078 434.67127 1670.6987 424.22736 1671.459 426.87305 C 1673.7565 434.86804 1675.8213 436.26446 1675.3008 432.2793 C 1674.6148 427.0286 1674.0447 422.01701 1673.5312 417.11328 C 1713.7401 414.91217 1747.8863 413.31719 1776.4453 409.90039 C 1776.9866 409.83563 1781.7008 409.13759 1782.8984 408.19141 C 1784.4999 406.92612 1782.3551 405.23979 1779.9316 404.14453 C 1783.6226 402.57276 1786.4314 401.63588 1787.0957 399.81641 C 1788.1094 397.03977 1783.2884 395.53871 1785.7559 394.31641 C 1790.7356 391.84962 1798.8611 388.81951 1790.2148 388.23242 C 1797.8277 386.07799 1804.5666 383.07495 1802.0469 383.36328 C 1794.6838 384.20587 1786.5524 385.26019 1777.9766 386.33789 C 1778.9345 350.50169 1784.7503 325.463 1788.582 298.875 C 1788.7357 297.80886 1790.6954 295.46078 1790.6309 293.60742 C 1790.5132 290.22403 1788.112 286.95855 1787.2832 285.33008 C 1786.3875 283.57013 1786.1826 282.99498 1784.875 282.32617 C 1784.7102 281.4058 1783.5228 280.02676 1782.9941 279.18555 C 1780.6251 275.41588 1775.1407 273.96769 1771.375 274.25781 C 1738.9156 276.75858 1714.9668 281.65684 1674.3555 280.58398 C 1673.2386 278.94368 1667.8412 276.23904 1662.9551 273.64844 C 1662.3765 273.3417 1661.4577 273.09165 1660.5645 273.05469 z M 610.82617 273.29883 C 611.61678 273.30502 612.41651 273.35842 613.20312 273.48047 C 611.24656 273.92309 610.54454 274.88848 611.26562 275.13477 C 612.95452 275.71163 614.58374 276.48636 615.5625 277.4707 C 614.53019 277.54516 611.79497 277.56516 612.89648 278.07031 C 614.05219 278.60034 618.07036 279.37027 620.86328 281.87109 C 622.55373 283.38477 626.31987 287.54548 626.30859 290.65234 C 624.69244 286.2645 620.18226 284.27585 621.75195 287.36328 C 623.21018 290.23167 623.56877 293.12379 623.45117 295.57812 C 623.14401 301.98638 617.31749 306.92731 610.8418 306.82422 C 603.92782 306.71416 599.8321 300.65258 602.41406 291.80078 C 605.55184 289.44744 609.5099 285.71428 609.74219 281.54102 C 609.79245 280.63376 608.5744 279.88876 608.4043 278.30469 C 608.23411 276.71983 608.38607 274.76021 607.94531 273.47656 C 608.87134 273.37116 609.83031 273.29102 610.82617 273.29883 z M 964.75781 279.74219 C 965.54842 279.74838 966.34815 279.80178 967.13477 279.92383 C 965.17821 280.36645 964.47422 281.33184 965.19531 281.57812 C 966.88421 282.15499 968.51538 282.92972 969.49414 283.91406 C 968.46183 283.98852 965.72466 284.00852 966.82617 284.51367 C 967.98187 285.0437 972.002 285.81363 974.79492 288.31445 C 976.48537 289.82813 980.25151 293.98883 980.24023 297.0957 C 978.62408 292.70786 974.1139 290.71921 975.68359 293.80664 C 977.14182 296.67503 977.50041 299.56715 977.38281 302.02148 C 977.07565 308.42974 971.24913 313.37067 964.77344 313.26758 C 957.85946 313.15752 953.76374 307.09594 956.3457 298.24414 C 959.48348 295.8908 963.44154 292.15764 963.67383 287.98438 C 963.72409 287.07711 962.50409 286.33212 962.33398 284.74805 C 962.1638 283.16319 962.31575 281.20357 961.875 279.91992 C 962.80145 279.81443 963.76143 279.73438 964.75781 279.74219 z M 529.36719 281.34375 C 508.88025 281.03336 497.46818 302.00222 485.1582 308.6582 C 480.84784 310.9888 470.66124 310.2671 472.35742 314.43945 C 466.66719 318.15917 469.09298 326.64909 471.51953 330.33594 C 468.35811 334.82668 473.05687 342.80182 477.67188 342.875 C 479.98998 342.91176 479.12984 344.19641 480.56055 345.09375 C 481.9803 345.98421 485.69466 346.49005 487.03516 345.92188 C 491.30247 344.11311 493.49177 341.68143 496.87891 338.33594 C 508.01136 327.34042 515.57176 309.35012 531.01367 309.79492 C 554.45824 310.47023 563.76615 385.08536 588.4375 407.71484 C 601.5258 419.71994 609.15737 429.79317 609.60938 418.76172 C 611.11985 420.30725 634.02485 434.70219 631.29688 427.6875 C 630.60961 425.92038 621.73763 420.86528 618.82422 416.89062 C 628.0311 420.12473 640.73317 429.05144 638.60547 421.52344 C 658.14285 430.22905 657.16028 425.76944 659.00195 425.83594 C 662.91623 425.97718 663.97015 423.92987 659.21484 422.80664 C 648.04914 420.16917 637.03739 412.16003 624.33789 404.95312 C 571.22648 374.81253 589.33397 298.34821 538.73242 282.88281 C 535.40619 281.86621 532.29389 281.38809 529.36719 281.34375 z M 1764.582 301.3418 C 1761.395 311.56606 1758.0714 345.08975 1757.5215 380.31445 C 1757.4237 386.57554 1760.7373 387.50966 1761.3438 380.72656 C 1761.994 381.45907 1762.4564 384.90543 1762.998 388.1543 C 1736.3222 391.24601 1705.2412 393.85511 1671.543 391.98828 C 1670.0454 362.71843 1671.8009 337.59843 1675.4531 307.29102 C 1702.8479 307.00216 1737.6435 305.4844 1764.582 301.3418 z M 1541.9199 303.48828 C 1541.5115 303.47812 1541.0726 303.49775 1540.5918 303.55664 C 1538.1431 303.85657 1529.7851 307.35177 1530.4434 309.57617 C 1525.9114 307.99199 1523.7144 313.26852 1522.7637 315.48047 C 1521.5015 318.41735 1517.8805 326.56868 1519.9863 329.01953 C 1522.2252 331.62517 1525.9936 331.66072 1529.2637 334.11328 C 1532.2262 341.5667 1534.8575 348.52267 1537.4004 355.15039 C 1531.3536 358.66119 1525.2864 361.8461 1519.1387 364.375 C 1513.8421 366.55374 1504.0297 369.70918 1504.1172 371.92383 C 1504.1589 372.98143 1502.4446 375.51839 1504.5039 377.4668 C 1505.6764 380.39242 1511.1152 385.99791 1514.1914 384.2793 C 1512.9526 386.70338 1514.9105 387.57045 1516.207 387.80469 C 1513.9215 391.94623 1522.3237 391.47172 1527.2656 389.62891 C 1529.6853 388.72663 1532.7292 384.56924 1534.7871 382.89844 C 1537.9372 380.34095 1541.5112 377.68467 1545.3516 375.00586 C 1550.5366 387.09544 1556.3611 398.553 1564.7031 410.62891 C 1568.297 415.83149 1568.3078 407.54034 1570.3418 405.79688 C 1579.8018 412.30111 1581.6172 424.72614 1581.6172 409.01758 C 1584.3397 415.4488 1596.003 423.69946 1592.8926 417.87891 C 1581.4475 396.46142 1572.8258 378.15736 1566.1602 361.80273 C 1576.8478 355.58136 1587.7584 349.99247 1596.8047 346.19336 C 1596.5625 348.8578 1590.9213 357.152 1591.6836 360.17969 C 1585.7459 370.36046 1589.4065 369.45718 1592.291 366.52148 C 1595.3939 363.36351 1596.6895 367.49855 1598.2129 367.38867 C 1598.2824 373.43102 1608.7046 360.36555 1606.5859 364.83398 C 1603.2423 371.88586 1601.0969 373.44083 1600.2539 376.26562 C 1599.6627 378.2471 1601.38 376.70354 1603.123 373.78906 C 1603.8401 375.01094 1605.9872 374.54322 1606.5859 373.57812 C 1614.5684 360.71146 1625.5676 340.98424 1624.4199 326.51953 C 1624.0953 322.42815 1613.8182 315.04872 1610.498 315.81836 C 1592.0789 320.56939 1575.195 331.23522 1558.6465 341.89648 C 1556.9556 337.00441 1555.4366 332.26927 1554.0605 327.65234 C 1552.1063 321.09534 1554.0938 307.45207 1548.5742 305.86914 C 1546.0663 305.14987 1544.7791 303.55944 1541.9199 303.48828 z M 1216.0996 307.46289 C 1215.1608 307.43499 1214.3585 307.85167 1213.7754 308.29688 C 1213.0319 307.8784 1211.8085 307.80663 1211.0898 308.17578 C 1209.2237 309.13428 1207.473 310.87234 1206.0039 313.62695 C 1205.1576 313.71096 1203.3914 314.39934 1202.498 315.5293 C 1200.7049 317.79755 1199.8904 322.94431 1201.7266 326.63672 C 1202.3219 327.83408 1208.0479 329.28803 1209.0332 330.84375 C 1214.6627 334.85525 1220.4928 340.52548 1224.1074 345.02148 C 1226.1439 347.55464 1224.9367 342.44493 1224.3379 340.64844 C 1226.4431 342.46818 1228.0495 344.8481 1229.375 347.45508 C 1208.8114 358.84972 1175.1017 370.28896 1176.5684 396.78125 C 1178.4039 429.93853 1212.3074 432.66091 1245.625 432.92773 C 1247.0695 432.9394 1251.987 432.60061 1253.6055 431.5625 C 1254.5096 430.98259 1252.8801 430.10618 1252.6719 429.14062 C 1258.1988 429.26563 1258.8833 427.43874 1257.1387 426.06055 C 1259.309 425.66595 1264.728 425.59539 1266.7559 424.34961 C 1269.1067 422.90543 1268.1707 420.79623 1270.3047 420.01367 C 1275.8253 417.9892 1276.1683 413.4182 1274.8535 412.09961 C 1274.298 411.54244 1272.0106 411.68913 1271.2539 411.16992 C 1270.6683 410.76816 1277.5039 408.7552 1281.5273 406.75195 C 1287.3312 403.86226 1290.186 401.03497 1290.6484 399.23438 C 1291.3159 396.636 1286.2419 400.29961 1283.6719 401.44727 C 1267.1941 408.80569 1245.9204 410.89161 1235.1543 410.86133 C 1220.3558 410.81972 1206.3392 408.39511 1202.1074 401.03906 C 1189.581 379.26469 1249.9856 372.22516 1269.3535 353.86914 C 1274.0815 349.38822 1283.5798 342.16316 1284.8848 331.90625 C 1285.0444 330.65142 1286.8619 327.20641 1284.2109 324.75 C 1283.1768 323.79178 1282.1433 322.98081 1281.1973 322.91016 C 1282.3439 318.57855 1273.4347 317.70547 1271.6504 317.89062 C 1268.1162 318.25736 1267.3188 321.07029 1266.3809 323.97461 C 1265.361 322.30819 1263.4525 320.36943 1262.1582 319.85352 C 1259.376 318.74457 1256.9832 319.00597 1254.3281 321.37305 C 1253.0945 322.4728 1252.793 325.10922 1252.2539 326.31836 C 1250.0394 331.28552 1245.0231 336.34713 1240.2988 340.1875 C 1235.5095 324.94523 1228.1273 314.79297 1223.334 310.69531 C 1221.2862 308.9447 1218.4919 307.53396 1216.0996 307.46289 z M 720.38867 309.62695 C 717.72534 309.62011 715.26755 310.59315 714.81055 313.05273 C 710.46378 311.37854 707.00821 314.90398 706.03711 315.50977 C 702.77143 317.54698 705.33862 319.7405 707.29492 321.89453 C 714.20361 330.8612 718.4468 339.22063 720.63867 348.90625 C 720.85446 349.85957 722.30349 356.48998 723.34766 356.9707 C 724.51096 357.5063 725.24842 351.66536 724.8457 347.90234 C 725.41891 349.13454 728.48386 354.41561 729.02344 348.86523 C 730.65318 352.1078 731.57136 349.99828 731.57812 348.29688 C 731.58586 346.42215 730.82136 343.50457 729.23047 339.16992 C 730.13069 340.93232 732.70247 340.4184 731.72461 334.89062 C 733.42176 336.08011 735.05254 338.55835 734.72656 336.68359 C 732.95963 326.52253 733.35673 319.10505 727.19922 312.08008 C 725.92 310.62064 723.05201 309.6338 720.38867 309.62695 z M 1857.0176 309.62695 C 1854.3542 309.62011 1851.8965 310.59315 1851.4395 313.05273 C 1847.0927 311.37854 1843.6371 314.90398 1842.666 315.50977 C 1839.4003 317.54698 1841.9675 319.7405 1843.9238 321.89453 C 1850.8325 330.8612 1855.0737 339.22063 1857.2656 348.90625 C 1857.4814 349.85957 1858.9324 356.48998 1859.9766 356.9707 C 1861.1399 357.5063 1861.8773 351.66536 1861.4746 347.90234 C 1862.0478 349.13454 1865.1128 354.41561 1865.6523 348.86523 C 1867.2821 352.1078 1868.2003 349.99828 1868.207 348.29688 C 1868.2148 346.42215 1867.4503 343.50457 1865.8594 339.16992 C 1866.7596 340.93232 1869.3314 340.4184 1868.3535 334.89062 C 1870.0507 336.08011 1871.6814 338.55835 1871.3555 336.68359 C 1869.5885 326.52253 1869.9856 319.10505 1863.8281 312.08008 C 1862.5489 310.62064 1859.6809 309.6338 1857.0176 309.62695 z M 753.94141 311.37305 C 752.42011 311.41459 750.69424 312.1262 748.32617 313.73633 C 747.48498 312.97299 741.00995 314.73209 740.0625 317.90234 C 737.20456 319.36069 736.67736 322.03176 738.67188 324.61914 C 743.22599 330.52679 746.2592 330.00895 746.29297 333.90234 C 746.66482 376.79808 702.29026 402.43875 683.08008 413.07422 C 682.53058 413.37848 681.22035 414.77803 680.81641 415.64648 C 680.34874 416.65212 679.50422 417.51801 680.59375 418.0293 C 678.64859 419.31941 685.89553 416.02132 690.27734 414.41992 C 688.70932 416.14516 689.08964 416.84696 689.88477 416.80469 C 694.15357 416.57781 706.45073 410.49509 717.48047 402.87305 C 716.8945 403.33761 716.54941 404.21981 714.64453 405.74414 C 712.73211 407.27447 713.00445 407.81881 713.35742 408.23828 C 714.05815 409.0711 720.42522 406.52957 721.48047 406.06055 C 719.89744 408.73452 724.20952 406.82802 725.16992 406.18164 C 750.20835 389.3302 779.21463 362.11829 775.8418 329.82227 C 775.50745 326.62128 775.38148 323.58845 772.58984 322.70312 C 772.92007 320.08472 770.65248 318.77195 768.02734 316.98828 C 766.86533 316.19874 762.77271 314.25307 761.86328 315.68555 C 758.44272 313.09503 756.4769 311.30381 753.94141 311.37305 z M 1890.5703 311.37305 C 1889.049 311.41459 1887.3232 312.1262 1884.9551 313.73633 C 1884.1139 312.97299 1877.6389 314.73209 1876.6914 317.90234 C 1873.8335 319.36069 1873.3063 322.03176 1875.3008 324.61914 C 1879.8549 330.52679 1882.8862 330.00895 1882.9199 333.90234 C 1883.2918 376.79808 1838.9192 402.43875 1819.709 413.07422 C 1819.1595 413.37848 1817.8493 414.77803 1817.4453 415.64648 C 1816.9776 416.65212 1816.1331 417.51801 1817.2227 418.0293 C 1815.2775 419.31941 1822.5225 416.02132 1826.9043 414.41992 C 1825.3363 416.14516 1825.7185 416.84696 1826.5137 416.80469 C 1830.7825 416.57781 1843.0796 410.49509 1854.1094 402.87305 C 1853.5234 403.33761 1853.1783 404.21981 1851.2734 405.74414 C 1849.361 407.27447 1849.6334 407.81881 1849.9863 408.23828 C 1850.6871 409.0711 1857.0541 406.52957 1858.1094 406.06055 C 1856.5263 408.73452 1860.8384 406.82802 1861.7988 406.18164 C 1886.8373 389.3302 1915.8435 362.11829 1912.4707 329.82227 C 1912.1364 326.62128 1912.0104 323.58845 1909.2188 322.70312 C 1909.549 320.08472 1907.2814 318.77195 1904.6562 316.98828 C 1903.4942 316.19874 1899.4016 314.25307 1898.4922 315.68555 C 1895.0716 313.09503 1893.1058 311.30381 1890.5703 311.37305 z M 693.75 314.4043 C 692.86387 314.44545 691.90417 314.66754 690.85938 315.0918 C 688.87904 315.89597 685.07573 315.98852 686.29297 318.85742 C 684.74325 318.71824 677.32947 319.36216 676.08008 320.07812 C 672.59809 322.0735 672.96006 326.18534 676.41602 327.42773 C 683.7492 337.21116 690.24588 352.01661 691.75391 363.38867 C 692.48466 368.89922 691.94526 376.4549 694.18359 374.79297 C 695.73306 373.64254 695.89187 371.63759 696.00586 369.05859 C 696.87682 368.73745 696.23626 365.66012 696.1543 364.76758 C 696.61913 364.93426 698.35764 369.43679 699.51953 368.40625 C 700.33598 367.68207 699.60889 361.67744 698.87305 358.39453 C 700.45524 360.14238 700.87008 367.20533 702.22656 365.29492 C 703.23619 363.873 701.88391 351.11429 701.66406 348.87305 C 702.60616 350.10773 703.53732 357.19613 704.57227 356.41211 C 707.03593 354.54581 706.58383 343.75385 706.31836 341.46875 C 705.58838 335.1854 703.09955 325.82737 701.85352 322.42578 C 700.03157 317.4521 697.58989 314.22597 693.75 314.4043 z M 1830.3789 314.4043 C 1829.4928 314.44545 1828.5331 314.66754 1827.4883 315.0918 C 1825.5079 315.89597 1821.7046 315.98852 1822.9219 318.85742 C 1821.3722 318.71824 1813.9564 319.36216 1812.707 320.07812 C 1809.225 322.0735 1809.589 326.18534 1813.0449 327.42773 C 1820.3781 337.21116 1826.8748 352.01661 1828.3828 363.38867 C 1829.1136 368.89922 1828.5742 376.4549 1830.8125 374.79297 C 1832.362 373.64254 1832.5208 371.63759 1832.6348 369.05859 C 1833.5057 368.73745 1832.8652 365.66012 1832.7832 364.76758 C 1833.248 364.93426 1834.9866 369.43679 1836.1484 368.40625 C 1836.9649 367.68207 1836.2358 361.67744 1835.5 358.39453 C 1837.0822 360.14238 1837.499 367.20533 1838.8555 365.29492 C 1839.8651 363.873 1838.5109 351.11429 1838.291 348.87305 C 1839.2331 350.10773 1840.1662 357.19613 1841.2012 356.41211 C 1843.6648 354.54581 1843.2127 343.75385 1842.9473 341.46875 C 1842.2173 335.1854 1839.7265 325.82737 1838.4805 322.42578 C 1836.6585 317.4521 1834.2188 314.22597 1830.3789 314.4043 z M 1128.0684 330.69531 C 1125.1559 330.68103 1121.7602 330.72802 1118.0664 330.79883 C 1091.9565 331.29934 1053.7756 329.79113 1005.7656 335.86133 C 1003.565 334.77709 1002.0594 333.84355 999.46484 333.25586 C 995.51525 332.36125 985.89219 334.72495 983.21484 336.99414 C 980.90403 338.95267 977.79374 341.34477 977.33984 343.3125 C 977.13792 344.18786 978.35842 345.50753 981.57227 347.3457 C 981.29873 348.1765 979.80205 350.92912 980.74805 353.13672 C 982.48722 357.19529 988.22085 361.73778 994.89258 365.53125 C 1000.1867 368.54146 1015.0695 360.16426 1020.4023 359.61133 C 1056.7044 355.84742 1075.3108 355.75303 1099.1035 355.46875 C 1103.2191 355.41958 1104.6985 351.62311 1101.8672 351.27734 C 1099.4011 350.97618 1096.0192 350.27039 1095.9531 349.03125 C 1095.8955 347.951 1118.3265 350.48275 1117.8359 346.40234 C 1123.9237 346.13746 1120.1609 342.28782 1121.8574 341.47461 C 1125.7232 339.62154 1123.4177 336.43359 1121.2871 335.81641 C 1124.0395 334.89895 1134.4157 334.24491 1136.207 333.47461 C 1141.1908 331.3315 1136.8056 330.73816 1128.0684 330.69531 z "
       id="path2985-3-0" />
  </g>
</svg>
