<?xml version="1.0" encoding="UTF-8" standalone="no"?>
<svg
   xmlns:dc="http://purl.org/dc/elements/1.1/"
   xmlns:cc="http://creativecommons.org/ns#"
   xmlns:rdf="http://www.w3.org/1999/02/22-rdf-syntax-ns#"
   xmlns:svg="http://www.w3.org/2000/svg"
   xmlns="http://www.w3.org/2000/svg"
   xmlns:xlink="http://www.w3.org/1999/xlink"
   xmlns:sodipodi="http://sodipodi.sourceforge.net/DTD/sodipodi-0.dtd"
   xmlns:inkscape="http://www.inkscape.org/namespaces/inkscape"
   id="svg2"
   version="1.1"
   inkscape:version="1.0.2 (e86c870879, 2021-01-15)"
   width="2481"
   height="3503"
   sodipodi:docname="E29P04.svg">
  <metadata
     id="metadata8">
    <rdf:RDF>
      <cc:Work
         rdf:about="">
        <dc:format>image/svg+xml</dc:format>
        <dc:type
           rdf:resource="http://purl.org/dc/dcmitype/StillImage" />
        <dc:title />
      </cc:Work>
    </rdf:RDF>
  </metadata>
  <defs
     id="defs6">
    <filter
       style="color-interpolation-filters:sRGB"
       id="filter4375-4-1-1-1-9"
       inkscape:label="deevad outline effect">
      <feFlood
         id="feFlood4377-7-9-0-8-1"
         flood-opacity="1"
         flood-color="rgb(0,0,0)"
         result="flood" />
      <feComposite
         id="feComposite4379-3-8-8-2-77"
         in2="SourceGraphic"
         in="flood"
         operator="in"
         result="composite1" />
      <feMorphology
         id="feMorphology4393-1-0-49-8-9"
         operator="dilate"
         radius="3.5"
         result="result3" />
      <feComposite
         id="feComposite4385-9-5-7-0-8"
         in2="result3"
         in="SourceGraphic"
         operator="over"
         result="composite2" />
    </filter>
  </defs>
  <sodipodi:namedview
     pagecolor="#ffffff"
     bordercolor="#666666"
     borderopacity="1"
     objecttolerance="10"
     gridtolerance="10"
     guidetolerance="10"
     inkscape:pageopacity="0"
     inkscape:pageshadow="2"
     inkscape:window-width="959"
     inkscape:window-height="1020"
     id="namedview4"
     showgrid="false"
     inkscape:zoom="0.28896346"
     inkscape:cx="1115.9034"
     inkscape:cy="2120.2376"
     inkscape:window-x="0"
     inkscape:window-y="0"
     inkscape:window-maximized="0"
     inkscape:current-layer="layer1"
     inkscape:snap-global="false"
     inkscape:document-rotation="0" />
  <g
     inkscape:groupmode="layer"
     id="layer2"
     inkscape:label="artwork"
     sodipodi:insensitive="true">
    <image
       sodipodi:absref="/media/twilight/Carlota/Proyectos/webcomics/ep29_Destroyer-of-Worlds/lang/gfx_Pepper-and-Carrot_by-David-Revoy_E29P04.png"
       xlink:href="../gfx_Pepper-and-Carrot_by-David-Revoy_E29P04.png"
       width="2481"
       height="3503"
       id="image10"
       x="0"
       y="0" />
  </g>
  <g
     inkscape:groupmode="layer"
     id="layer4"
     inkscape:label="notes"
     sodipodi:insensitive="true">
    <path
       style="color:#000000;clip-rule:nonzero;display:inline;overflow:visible;visibility:visible;opacity:0.5;isolation:auto;mix-blend-mode:normal;color-interpolation:sRGB;color-interpolation-filters:linearRGB;solid-color:#000000;solid-opacity:1;fill:#ffe680;fill-opacity:1;fill-rule:nonzero;stroke:#565656;stroke-width:1.20000005;stroke-linecap:butt;stroke-linejoin:miter;stroke-miterlimit:4;stroke-dasharray:none;stroke-dashoffset:0;stroke-opacity:1;marker:none;color-rendering:auto;image-rendering:auto;shape-rendering:auto;text-rendering:auto;enable-background:accumulate"
       d="m -531.81055,2221.936 v 544.7373 h 423.63672 v -60.5999 H -94.25 v 21.7559 L -51.111328,2690.2746 -94.25,2652.7238 v 23.127 h -13.92383 V 2354.0566 H -94.25 v 21.7559 L -51.111328,2338.2598 -94.25,2300.709 v 23.1269 h -13.92383 V 2221.936 Z"
       id="rect4191-6"
       inkscape:connector-curvature="0"
       sodipodi:nodetypes="ccccccccccccccccccc" />
    <flowRoot
       xml:space="preserve"
       id="flowRoot4212-7"
       style="font-style:normal;font-variant:normal;font-weight:normal;font-stretch:normal;line-height:0.01%;font-family:Lavi;-inkscape-font-specification:'Lavi, Normal';text-align:center;letter-spacing:0px;word-spacing:0px;writing-mode:lr-tb;text-anchor:middle;display:inline;opacity:0.5;fill:#000000;fill-opacity:1;stroke:none;stroke-width:0.718364px;stroke-linecap:butt;stroke-linejoin:miter;stroke-opacity:1"
       transform="matrix(1.3923338,0,0,1.391772,-128.28574,816.46058)"><flowRegion
         id="flowRegion4214-5"
         style="stroke-width:0.718364px"><rect
           id="rect4216-3"
           width="271.92325"
           height="400.06418"
           x="-275.14545"
           y="1061.6674"
           style="stroke-width:0.71836352px" /></flowRegion><flowPara
         style="font-size:25.3242px;line-height:1.25;stroke-width:0.718364px"
         id="flowPara1126">“?” above</flowPara><flowPara
         style="font-size:25.3242px;line-height:1.25;stroke-width:0.718364px"
         id="flowPara991">Carrot's head</flowPara><flowPara
         style="font-size:25.3242px;line-height:1.25;stroke-width:0.718364px"
         id="flowPara989">in 3rd panel</flowPara><flowPara
         style="font-size:25.3242px;line-height:1.25;stroke-width:0.718364px"
         id="flowPara1007"> </flowPara><flowPara
         style="font-size:25.3242px;line-height:1.25;stroke-width:0.718364px"
         id="flowPara1009"> </flowPara><flowPara
         style="font-size:25.3242px;line-height:1.25;stroke-width:0.718364px"
         id="flowPara1011"> </flowPara><flowPara
         style="font-size:25.3242px;line-height:1.25;stroke-width:0.718364px"
         id="flowPara1013"> </flowPara><flowPara
         style="font-size:25.3242px;line-height:1.25;stroke-width:0.718364px"
         id="flowPara1015"> </flowPara><flowPara
         style="font-size:25.3242px;line-height:1.25;stroke-width:0.718364px"
         id="flowPara1043">“Poc! Poc!”</flowPara><flowPara
         style="font-size:25.3242px;line-height:1.25;stroke-width:0.718364px"
         id="flowPara934">in first panel</flowPara></flowRoot>
    <flowRoot
       xml:space="preserve"
       id="flowRoot4212-7-6"
       style="font-style:normal;font-variant:normal;font-weight:normal;font-stretch:normal;line-height:0.01%;font-family:Lavi;-inkscape-font-specification:'Lavi, Normal';text-align:center;letter-spacing:0px;word-spacing:0px;writing-mode:lr-tb;text-anchor:middle;display:inline;opacity:0.5;fill:#000000;fill-opacity:1;stroke:none;stroke-width:0.718364px;stroke-linecap:butt;stroke-linejoin:miter;stroke-opacity:1"
       transform="matrix(1.3923338,0,0,1.391772,-143.62539,769.78948)"><flowRegion
         id="flowRegion4214-5-2"
         style="stroke-width:0.718364px"><rect
           id="rect4216-3-6"
           width="294.12939"
           height="323.61441"
           x="-275.14545"
           y="1061.6674"
           style="stroke-width:0.71836352px" /></flowRegion><flowPara
         style="font-style:normal;font-variant:normal;font-weight:bold;font-stretch:normal;font-size:18.6667px;line-height:1.25;font-family:Lavi;-inkscape-font-specification:'Lavi Bold';stroke-width:0.718364px"
         id="flowPara1220">NOTE FOR TRANSLATORS</flowPara></flowRoot>
    <path
       sodipodi:nodetypes="cccccccccccc"
       inkscape:connector-curvature="0"
       id="path1077"
       d="m -531.81055,1415.6392 v 409.9547 h 423.63672 V 1547.7598 H -94.25 v 21.7559 L -51.111328,1531.963 -94.25,1494.4122 v 23.1269 h -13.92383 v -101.8999 z"
       style="color:#000000;clip-rule:nonzero;display:inline;overflow:visible;visibility:visible;opacity:0.5;isolation:auto;mix-blend-mode:normal;color-interpolation:sRGB;color-interpolation-filters:linearRGB;solid-color:#000000;solid-opacity:1;fill:#ffe680;fill-opacity:1;fill-rule:nonzero;stroke:#565656;stroke-width:1.20000005;stroke-linecap:butt;stroke-linejoin:miter;stroke-miterlimit:4;stroke-dasharray:none;stroke-dashoffset:0;stroke-opacity:1;marker:none;color-rendering:auto;image-rendering:auto;shape-rendering:auto;text-rendering:auto;enable-background:accumulate" />
    <flowRoot
       transform="matrix(1.3923338,0,0,1.391772,-128.28574,10.16378)"
       style="font-style:normal;font-variant:normal;font-weight:normal;font-stretch:normal;line-height:0.01%;font-family:Lavi;-inkscape-font-specification:'Lavi, Normal';text-align:center;letter-spacing:0px;word-spacing:0px;writing-mode:lr-tb;text-anchor:middle;display:inline;opacity:0.5;fill:#000000;fill-opacity:1;stroke:none;stroke-width:0.718364px;stroke-linecap:butt;stroke-linejoin:miter;stroke-opacity:1"
       id="flowRoot1111"
       xml:space="preserve"><flowRegion
         style="stroke-width:0.718364px"
         id="flowRegion1081"><rect
           style="stroke-width:0.71836352px"
           y="1061.6674"
           x="-275.14545"
           height="306.3457"
           width="271.92325"
           id="rect1079" /></flowRegion><flowPara
         id="flowPara1101"
         style="font-size:25.3242px;line-height:1.25;stroke-width:0.718364px">“Poc!”</flowPara><flowPara
         id="flowPara1103"
         style="font-size:25.3242px;line-height:1.25;stroke-width:0.718364px">in 3rd panel</flowPara><flowPara
         id="flowPara1105"
         style="font-size:25.3242px;line-height:1.25;stroke-width:0.718364px"> </flowPara><flowPara
         id="flowPara1107"
         style="font-size:25.3242px;line-height:1.25;stroke-width:0.718364px">It's white, not well visible with temporary lineart. (Will be visible</flowPara><flowPara
         id="flowPara1109"
         style="font-size:25.3242px;line-height:1.25;stroke-width:0.718364px">in colored version.)</flowPara></flowRoot>
    <flowRoot
       transform="matrix(1.3923338,0,0,1.391772,-143.62539,-36.50732)"
       style="font-style:normal;font-variant:normal;font-weight:normal;font-stretch:normal;line-height:0.01%;font-family:Lavi;-inkscape-font-specification:'Lavi, Normal';text-align:center;letter-spacing:0px;word-spacing:0px;writing-mode:lr-tb;text-anchor:middle;display:inline;opacity:0.5;fill:#000000;fill-opacity:1;stroke:none;stroke-width:0.718364px;stroke-linecap:butt;stroke-linejoin:miter;stroke-opacity:1"
       id="flowRoot1119"
       xml:space="preserve"><flowRegion
         style="stroke-width:0.718364px"
         id="flowRegion1115"><rect
           style="stroke-width:0.71836352px"
           y="1061.6674"
           x="-275.14545"
           height="323.61441"
           width="294.12939"
           id="rect1113" /></flowRegion><flowPara
         id="flowPara1117"
         style="font-style:normal;font-variant:normal;font-weight:bold;font-stretch:normal;font-size:18.6667px;line-height:1.25;font-family:Lavi;-inkscape-font-specification:'Lavi Bold';stroke-width:0.718364px">NOTE FOR TRANSLATORS</flowPara></flowRoot>
  </g>
  <g
     inkscape:groupmode="layer"
     id="layer3"
     inkscape:label="speechbubbles">
    <path
       style="color:#000000;display:inline;overflow:visible;visibility:visible;fill:#ffffff;fill-opacity:1;fill-rule:nonzero;stroke:none;stroke-width:0.99999994px;marker:none;enable-background:accumulate"
       d="m 1746.1148,131.87111 c 33.9219,-17.47494 475.8623,-28.25116 537.1686,9.52496 38.9029,23.97129 23.681,114.6249 -25.992,131.99553 -58.4599,20.44339 -385.1977,14.90308 -467.3723,3.50793 -78.1809,-10.84135 -81.0689,-47.97508 -85.0118,-84.04848 -1.6093,-14.72302 7.2854,-43.50495 41.2075,-60.97994 z"
       id="path4040-4-0"
       inkscape:connector-curvature="0"
       sodipodi:nodetypes="zssssz" />
    <path
       style="color:#000000;display:inline;overflow:visible;visibility:visible;fill:#ffffff;fill-opacity:1;fill-rule:nonzero;stroke:none;stroke-width:0.81539893px;marker:none;enable-background:accumulate"
       d="m 1677.724,932.49298 c 1.4214,-20.98433 -3.9138,-45.74206 33.9496,-78.33612 26.9569,-23.20542 57.8258,-23.27736 171.1789,-24.86628 104.576,-3.31341 195.4206,41.20827 166.0236,117.0495 -3.2253,61.44352 -133.4527,55.63322 -160.6664,58.15572 -27.2137,2.5226 -157.7005,1.788 -183.4893,-18.03746 -16.1432,-12.41014 -26.8559,-28.31093 -26.9964,-53.96536 z"
       id="path4546-6"
       inkscape:connector-curvature="0"
       sodipodi:nodetypes="csccssc" />
    <path
       style="color:#000000;display:inline;overflow:visible;visibility:visible;fill:#ffffff;fill-opacity:1;fill-rule:nonzero;stroke:none;stroke-width:1px;marker:none;enable-background:accumulate"
       d="m 723.26058,180.77898 c 26.24898,-35.34082 247.82043,-73.70115 325.69482,-0.87112 77.8744,72.83004 30.6391,160.22615 -14.043,188.03391 -44.68198,27.80788 -176.17478,58.26407 -236.17627,34.42878 C 738.73452,378.53526 691.99709,342.90613 688.946,269.95229 c -1.24527,-29.77538 8.06549,-53.83237 34.31458,-89.17331 z"
       id="path4040"
       inkscape:connector-curvature="0"
       sodipodi:nodetypes="zssssz" />
    <path
       style="fill:#ffffff;fill-opacity:1;fill-rule:evenodd;stroke:none;stroke-width:1px;stroke-linecap:butt;stroke-linejoin:miter;stroke-opacity:1"
       d="m 486.03269,429.44508 c -11.78237,3.3177 -26.01828,-0.71847 -34.57607,-7.8204 -7.08075,-6.4147 -17.01074,-12.80511 -17.7254,-21.09205 -0.78596,-9.51524 5.94499,-19.9262 -3.71288,-28.80374 -13.46238,-8.18654 -21.51604,-13.3518 -21.93366,-26.33047 -0.49458,-11.0617 0.14408,-21.75016 7.87162,-29.65522 6.46417,-5.46144 3.23184,-13.20206 -2.09911,-19.1135 -5.60383,-9.46454 -9.69639,-21.9367 0.75239,-29.43726 6.77543,-3.57354 13.38693,-6.72774 14.01709,-14.20824 -5.65837,-13.75401 -4.29949,-20.09514 -5.26776,-30.24679 -6.3628,-10.28322 1.1842,-36.27666 7.97176,-44.65238 5.04743,-5.81347 9.4892,-13.22443 21.16176,-13.37182 19.78178,-4.08674 47.13873,-2.14293 58.0381,-13.95407 7.12631,-6.71171 11.66176,-16.33431 25.03867,-18.08518 15.57743,-2.37743 30.87547,9.99889 45.07772,14.56794 13.85078,-9.93829 38.82264,-8.45254 46.36526,1.51516 4.18125,5.62436 23.50859,30.2939 24.60387,36.55592 4.07654,12.48898 -8.46305,33.7434 3.00617,44.60008 12.21903,7.86409 9.02444,26.7803 6.47032,36.874 -3.66397,8.00071 2.16895,16.3204 3.53145,24.60297 2.3945,8.82994 -7.21523,18.41939 -5.36057,27.24554 5.23226,13.22591 11.10413,25.09895 6.10877,38.78262 -1.94079,11.95382 -3.38695,16.85729 -16.19914,23.41756 -4.18961,2.93697 -6.5178,8.45639 -7.63289,12.99658 -3.89219,11.15194 -7.1651,16.61209 -17.10219,26.19128 -8.57523,7.09694 -24.28097,8.73704 -37.41406,5.03696 -10.18808,-1.74803 -21.37158,-7.77096 -31.26965,-5.44511 -12.7847,5.0604 -16.21615,21.58047 -32.82987,20.09249 -8.87349,-0.83074 -15.42343,-6.12533 -24.05201,-7.64639 -4.21484,-1.07416 -8.51324,-1.92702 -12.83953,-2.6161 z"
       id="path4367"
       inkscape:connector-curvature="0"
       sodipodi:nodetypes="ccccccccccccccccccccccccccccccc" />
    <path
       style="fill:#ffffff;fill-opacity:1;fill-rule:evenodd;stroke:none;stroke-width:1px;stroke-linecap:butt;stroke-linejoin:miter;stroke-opacity:1"
       d="m 146.11068,261.41965 c -5.47772,-8.3218 1.32292,-18.7638 6.74503,-22.4599 6.0787,-6.8744 13.88864,-6.8194 21.18775,-6.3027 7.26098,1.352 12.58389,-5.27 17.29871,-12.1154 7.46241,-8.8817 18.29786,-11.9296 27.1039,-5.4527 6.54471,4.415 14.11288,9.8428 21.28654,4.778 8.55489,-5.1258 19.44421,-9.611 27.70178,-1.1515 5.87416,9.8244 15.62687,5.6471 22.81303,1.7701 9.23013,-4.5481 19.33203,-7.3093 28.86569,-2.8986 6.32124,2.5816 14.16068,3.8416 17.27923,13.568 3.76408,10.6522 7.81354,23.368 16.62892,26.5604 6.23979,2.7568 15.21578,4.4272 16.78662,15.516 -0.18285,9.8954 -3.48666,19.6529 -6.49137,28.2714 -8.88364,11.1665 -22.50929,2.5793 -33.79112,5.6713 -7.37669,1.9912 -13.42776,13.88684 -25.75836,15.42663 -17.0745,2.57938 -20.54752,-7.09909 -30.91179,-2.35549 -12.22253,4.4331 -15.5621,-0.91191 -27.14276,7.06989 -13.18702,7.417 -28.70163,5.0132 -40.27261,-6.9075 -4.96613,-5.9244 -16.58991,2.19307 -22.91356,3.32597 -8.44685,0.3998 -12.78049,2.3025 -19.01966,-7.8758 -5.00156,-7.2593 -3.65612,-4.964 -6.9877,-13.0375 -3.48308,-7.9711 -11.5728,-9.7059 -14.00449,-19.1363 -1.86264,-7.794 4.59668,-14.1129 3.59622,-22.2643 z"
       id="path4367-3"
       inkscape:connector-curvature="0"
       sodipodi:nodetypes="ccccccccccccccccccccccc" />
    <path
       style="color:#000000;display:inline;overflow:visible;visibility:visible;fill:#ffffff;fill-opacity:1;fill-rule:nonzero;stroke:none;stroke-width:1.01327634px;marker:none;enable-background:accumulate"
       d="m 2012.4604,981.12661 c -1.1398,-25.07029 28.3704,-62.70141 61.173,-78.28489 48.7258,-23.14797 72.9117,-13.75007 114.1278,-12.6851 38.2866,0.98927 99.5627,8.89512 131.7312,36.78076 24.8864,21.57307 40.1951,55.29644 34.4959,81.63292 -5.6992,26.3362 -14.2867,61.774 -56.9325,69.0392 -45.7378,7.7919 -141.4222,1.1943 -185.0195,2.6068 -38.9924,1.2634 -62.6917,-7.746 -83.2089,-26.3364 -20.8003,-18.8468 -15.2272,-47.6831 -16.367,-72.75329 z"
       id="path3373"
       inkscape:connector-curvature="0"
       sodipodi:nodetypes="zsssssssz" />
    <path
       style="fill:#ffffff;fill-rule:evenodd;stroke:none;stroke-width:0.99999994px;stroke-linecap:butt;stroke-linejoin:miter;stroke-opacity:1"
       d="m 899.94866,1223.5898 c 39.2915,3.4907 96.8272,-13.0192 65.0617,-65.5744 62.67604,26.313 114.02444,45.8066 212.50494,-27.7326 -8.3344,81.4659 36.4923,73.8546 76.9046,58.2141 -38.7845,27.4139 30.8352,43.1229 68.2844,44.6628 -79.2202,59.2943 -36.5399,67.3435 -1.0013,76.7065 -71.3697,-3.5532 -64.4293,32.0871 -49.9503,52.0996 -66.7874,-42.8941 -160.752,-17.5824 -150.4869,12.5816 -29.7962,-17.3709 -53.3887,-64.3702 -127.37154,4.554 27.20534,-59.5014 -8.4548,-53.2559 -66.189,-23.9247 9.0482,-20.2671 62.8258,-51.086 -27.7566,-47.8499 56.5794,-19.2669 68.4444,-45.3663 0,-83.737 z"
       id="path4584"
       inkscape:connector-curvature="0"
       sodipodi:nodetypes="cccccccccccc" />
    <path
       style="color:#000000;display:inline;overflow:visible;visibility:visible;fill:#ffffff;fill-opacity:1;fill-rule:nonzero;stroke:none;stroke-width:1px;marker:none;enable-background:accumulate"
       d="m 1324.2833,1484.7539 c -74.0623,-16.7815 -162.4554,-85.4407 -173.3256,-102.2336 5.7646,-4.0191 72.5018,-4.3109 72.5018,-4.3109 -25.8476,-20.7242 -129.727,-70.2911 -122.0213,-64.8466 -4.5243,-14.4638 68.3453,-13.6441 68.3453,-13.6441 0,0 96.3576,81.9196 112.2383,92.2829 -16.3671,10.5299 -65.2194,8.0221 -73.0419,9.9521 2.0894,11.1694 89.3696,76.2156 115.3034,82.8002 z"
       id="path4456"
       inkscape:connector-curvature="0"
       sodipodi:nodetypes="cccccccc" />
    <path
       style="fill:#ffffff;stroke:none"
       d="m 2131.7915,445.15271 c 52.0797,-62.97217 40.5599,-106.89763 -10.3849,-161.57773 -30.8676,-33.13074 -53.0957,-49.56362 -53.0957,-49.56362 l 44.4365,-11.17106 49.9606,31.26438 c 0,0 89.2487,110.10775 -30.9165,191.04803 z"
       id="path3063"
       inkscape:connector-curvature="0"
       sodipodi:nodetypes="cscccc" />
    <path
       style="color:#000000;display:inline;overflow:visible;visibility:visible;fill:#ffffff;fill-opacity:1;fill-rule:nonzero;stroke:none;stroke-width:1px;marker:none;enable-background:accumulate"
       d="m 2058.5978,778.45752 c 9.1284,42.15323 9.9229,57.84514 -32.0252,91.28724 -41.9482,33.44204 -30.1382,47.46229 -30.1382,47.46229 l 35.2785,-4.99268 c 0,0 84.878,-77.03313 26.8849,-133.75685 z"
       id="path3072"
       inkscape:connector-curvature="0" />
    <path
       style="color:#000000;display:inline;overflow:visible;visibility:visible;fill:#ffffff;fill-opacity:1;fill-rule:nonzero;stroke:none;stroke-width:1px;marker:none;enable-background:accumulate"
       d="m 927.43282,520.21556 c 19.56717,-37.91334 24.33095,-91.92051 -16.62461,-116.94423 -32.00795,-36.20829 -9.67863,-17.32971 -9.67863,-17.32971 l 32.39871,9.54307 c 0,0 63.63839,61.67926 -6.09547,124.73087 z"
       id="path3072-1"
       inkscape:connector-curvature="0"
       sodipodi:nodetypes="ccccc" />
    <path
       style="fill:#ffffff;stroke:none;stroke-width:1"
       d="m 481.33413,569.27984 c -26.16799,-11.86997 -29.23382,-39.59074 -20.73941,-48.80022 8.49436,-9.2095 12.7305,-19.1347 12.40759,-27.59531 -0.32293,-8.46061 -5.50646,-17.21425 -10.12026,-24.21281 -4.61385,-6.99861 0.88784,-16.71803 5.41776,-24.19003 4.52995,-7.47208 25.74725,-46.21168 25.74725,-46.21168 0,0 -33.81232,12.14437 -40.8764,20.86652 -7.0641,8.72215 -8.88284,16.10827 -10.78771,20.43039 -1.90487,4.32223 -5.43175,20.28888 -2.44001,28.74234 2.99167,8.45347 10.76629,15.12526 14.36709,20.98686 3.60084,5.86151 2.03948,12.29665 -2.9751,20.77153 -5.01458,8.47491 -9.53561,29.71668 2.24235,44.7525 6.98238,8.91376 16.67122,13.76389 27.75685,14.45991 z"
       id="path3023"
       inkscape:connector-curvature="0"
       sodipodi:nodetypes="csssscssssssc"
       inkscape:transform-center-x="-13.368944"
       inkscape:transform-center-y="102.37524" />
    <path
       style="opacity:1;fill:#ffffff;fill-rule:evenodd;stroke:none;stroke-width:0.99999994px;stroke-linecap:butt;stroke-linejoin:miter;stroke-opacity:1"
       d="m 309.34922,457.71799 c -15.64979,-24.8542 8.77501,-47.91607 8.58626,-62.92677 -0.19481,-15.49635 -40.69805,-21.31418 -41.62679,-35.6781 -0.92874,-14.36402 24.25197,-42.90833 22.3945,-65.352 -1.85748,-22.44378 -33.11728,-22.62637 -30.33094,3.4084 2.78634,26.03475 -20.58525,41.20496 -15.67743,61.79602 8.18516,34.34048 37.35935,31.20382 47.00302,40.86297 6.38476,6.395 -4.2802,22.87728 -1.49386,38.139 2.78634,15.26172 11.14524,19.75048 11.14524,19.75048 z"
       id="path4272"
       inkscape:connector-curvature="0"
       sodipodi:nodetypes="csssssssc" />
  </g>
  <g
     inkscape:groupmode="layer"
     id="layer1"
     inkscape:label="txt">
    <text
       xml:space="preserve"
       style="font-style:normal;font-variant:normal;font-weight:normal;font-stretch:normal;line-height:0%;font-family:Lavi;-inkscape-font-specification:Lavi;text-align:center;letter-spacing:0px;word-spacing:0px;text-anchor:middle;fill:#000000;fill-opacity:1;stroke:none"
       x="249.03223"
       y="285.49896"
       id="text4246"><tspan
         sodipodi:role="line"
         style="font-size:37.3333px;line-height:1.2"
         x="249.03223"
         y="285.49896"
         id="tspan4252">¡Oh, ah!</tspan></text>
    <text
       xml:space="preserve"
       style="font-style:normal;font-variant:normal;font-weight:normal;font-stretch:normal;line-height:0%;font-family:Lavi;-inkscape-font-specification:Lavi;text-align:center;letter-spacing:0px;word-spacing:0px;text-anchor:middle;fill:#000000;fill-opacity:1;stroke:none"
       x="537.74268"
       y="209.00626"
       id="text4246-3"><tspan
         sodipodi:role="line"
         style="font-size:37.3333px;line-height:1.2"
         x="537.74268"
         y="209.00626"
         id="tspan4252-6">¡Fuchi!</tspan><tspan
         sodipodi:role="line"
         style="font-size:37.3333px;line-height:1.2"
         x="537.74268"
         y="253.80621"
         id="tspan841">¡Esa cosa</tspan><tspan
         sodipodi:role="line"
         style="font-size:37.3333px;line-height:1.2"
         x="537.74268"
         y="298.60617"
         id="tspan99">estaba en la</tspan><tspan
         sodipodi:role="line"
         style="font-size:37.3333px;line-height:1.2"
         x="537.74268"
         y="343.40616"
         id="tspan101">boca de</tspan><tspan
         sodipodi:role="line"
         style="font-size:37.3333px;line-height:1.2"
         x="537.74268"
         y="388.20612"
         id="tspan847">alguien!</tspan></text>
    <text
       xml:space="preserve"
       style="font-style:normal;font-variant:normal;font-weight:normal;font-stretch:normal;line-height:0%;font-family:Lavi;-inkscape-font-specification:Lavi;text-align:center;letter-spacing:0px;word-spacing:0px;text-anchor:middle;fill:#000000;fill-opacity:1;stroke:none"
       x="886.04926"
       y="202.70126"
       id="text4246-9"><tspan
         sodipodi:role="line"
         style="font-size:45px;line-height:1.2"
         x="886.04926"
         y="202.70126"
         id="tspan4252-1">¡Ja, ja!</tspan><tspan
         sodipodi:role="line"
         style="font-size:45px;line-height:1.2"
         x="886.04926"
         y="256.70126"
         id="tspan872">¡Impresionante</tspan><tspan
         sodipodi:role="line"
         style="font-size:45px;line-height:1.2"
         x="886.04926"
         y="310.70126"
         id="tspan889">como siempre,</tspan><tspan
         sodipodi:role="line"
         style="font-size:45px;line-height:1.2"
         x="886.04926"
         y="364.70126"
         id="tspan891">Pepper!</tspan></text>
    <text
       xml:space="preserve"
       style="font-style:normal;font-variant:normal;font-weight:normal;font-stretch:normal;line-height:0%;font-family:Lavi;-inkscape-font-specification:Lavi;text-align:center;letter-spacing:0px;word-spacing:0px;text-anchor:middle;fill:#000000;fill-opacity:1;stroke:none"
       x="2008.9222"
       y="191.46317"
       id="text4246-9-2"><tspan
         sodipodi:role="line"
         style="font-size:45px;line-height:1.2"
         x="2008.9222"
         y="191.46317"
         id="tspan891-3">Bien, Pepper, gracias por</tspan><tspan
         sodipodi:role="line"
         style="font-size:45px;line-height:1.2"
         x="2008.9222"
         y="245.46317"
         id="tspan873">esta… «explicación».</tspan></text>
    <text
       xml:space="preserve"
       style="font-style:normal;font-variant:normal;font-weight:normal;font-stretch:normal;line-height:0%;font-family:Lavi;-inkscape-font-specification:Lavi;text-align:center;letter-spacing:0px;word-spacing:0px;text-anchor:middle;fill:#000000;fill-opacity:1;stroke:none"
       x="1864.4309"
       y="900.82959"
       id="text4246-9-2-6"><tspan
         sodipodi:role="line"
         style="font-size:45px;line-height:1.2"
         x="1864.4309"
         y="900.82959"
         id="tspan929-6">Ya es hora</tspan><tspan
         sodipodi:role="line"
         style="font-size:45px;line-height:1.2"
         x="1864.4309"
         y="954.82959"
         id="tspan956">de dormir, ¿no?</tspan></text>
    <text
       xml:space="preserve"
       style="font-style:normal;font-variant:normal;font-weight:normal;font-stretch:normal;font-size:10.5924px;line-height:0%;font-family:Lavi;-inkscape-font-specification:Lavi;text-align:center;letter-spacing:0px;word-spacing:0px;text-anchor:middle;fill:#000000;fill-opacity:1;stroke:none;stroke-width:1"
       x="2184.8386"
       y="952.71265"
       id="text4246-3-2"><tspan
         sodipodi:role="line"
         style="font-size:37.3333px;line-height:1.2;stroke-width:1"
         x="2184.8386"
         y="952.71265"
         id="tspan847-9">Y hora de</tspan><tspan
         sodipodi:role="line"
         style="font-size:37.3333px;line-height:1.2;stroke-width:1"
         x="2184.8386"
         y="997.51263"
         id="tspan121">lavarse las manos</tspan><tspan
         sodipodi:role="line"
         style="font-size:37.3333px;line-height:1.2;stroke-width:1"
         x="2184.8386"
         y="1042.3126"
         id="tspan1004">para algunas.</tspan></text>
    <text
       xml:space="preserve"
       style="font-style:normal;font-variant:normal;font-weight:bold;font-stretch:normal;line-height:0%;font-family:Lavi;-inkscape-font-specification:'Lavi Bold';text-align:center;letter-spacing:0px;word-spacing:0px;text-anchor:middle;fill:#000000;fill-opacity:1;stroke:none;"
       x="1111.5612"
       y="1247.6182"
       id="text4246-9-2-6-2"><tspan
         sodipodi:role="line"
         style="font-size:45px;line-height:1.2;-inkscape-font-specification:'Lavi Bold';font-family:Lavi;font-weight:bold;font-style:normal;font-stretch:normal;font-variant:normal;"
         x="1111.5612"
         y="1247.6182"
         id="tspan1035">¡Oigan! </tspan><tspan
         sodipodi:role="line"
         style="font-size:45px;line-height:1.2;-inkscape-font-specification:'Lavi Bold';font-family:Lavi;font-weight:bold;font-style:normal;font-stretch:normal;font-variant:normal;"
         x="1111.5612"
         y="1301.6182"
         id="tspan102">¡Espérenme!</tspan></text>
    <text
       xml:space="preserve"
       style="font-style:normal;font-variant:normal;font-weight:normal;font-stretch:normal;font-size:14.6235px;line-height:0%;font-family:Lavi;-inkscape-font-specification:Lavi;text-align:center;letter-spacing:0px;word-spacing:0px;text-anchor:middle;fill:#ffffff;fill-opacity:0.784314;stroke:none;stroke-width:1"
       x="1377.6285"
       y="2198.0491"
       id="text4246-7"
       transform="matrix(0.79017753,-0.5292546,0.38466968,1.0078897,0,0)"><tspan
         sodipodi:role="line"
         style="font-style:normal;font-variant:normal;font-weight:bold;font-stretch:normal;font-size:58.4938px;line-height:1.2;font-family:Lavi;-inkscape-font-specification:'Lavi Bold';fill:#ffffff;fill-opacity:0.784314;stroke-width:0.820599"
         x="1377.6285"
         y="2198.0491"
         id="tspan4252-5">¡Poc!</tspan></text>
    <text
       xml:space="preserve"
       style="font-style:normal;font-variant:normal;font-weight:normal;font-stretch:normal;font-size:11.7947px;line-height:0%;font-family:Lavi;-inkscape-font-specification:Lavi;text-align:center;letter-spacing:0px;word-spacing:0px;text-anchor:middle;fill:#ffffff;fill-opacity:0.784314;stroke:none;stroke-width:1"
       x="-544.74127"
       y="2437.7266"
       id="text4246-7-9"
       transform="matrix(0.80236382,-0.52121629,0.39060214,0.99258189,0,0)"><tspan
         sodipodi:role="line"
         style="font-style:normal;font-variant:normal;font-weight:bold;font-stretch:normal;font-size:47.1788px;line-height:1.2;font-family:Lavi;-inkscape-font-specification:'Lavi Bold';fill:#ffffff;fill-opacity:0.784314;stroke-width:0.820599"
         x="-544.74127"
         y="2437.7266"
         id="tspan4252-5-2">¡Poc!</tspan></text>
    <text
       xml:space="preserve"
       style="font-style:normal;font-variant:normal;font-weight:normal;font-stretch:normal;font-size:11.7947px;line-height:0%;font-family:Lavi;-inkscape-font-specification:Lavi;text-align:center;letter-spacing:0px;word-spacing:0px;text-anchor:middle;fill:#ffffff;fill-opacity:0.784314;stroke:none;stroke-width:1"
       x="-369.83539"
       y="2519.6321"
       id="text4246-7-9-2"
       transform="matrix(0.80236382,-0.52121629,0.39060214,0.99258189,0,0)"><tspan
         sodipodi:role="line"
         style="font-style:normal;font-variant:normal;font-weight:bold;font-stretch:normal;font-size:47.1788px;line-height:1.2;font-family:Lavi;-inkscape-font-specification:'Lavi Bold';fill:#ffffff;fill-opacity:0.784314;stroke-width:0.820599"
         x="-369.83539"
         y="2519.6321"
         id="tspan4252-5-2-8">¡Poc!</tspan></text>
    <text
       xml:space="preserve"
       style="font-style:normal;font-variant:normal;font-weight:normal;font-stretch:normal;line-height:0%;font-family:Lavi;-inkscape-font-specification:Lavi;letter-spacing:0px;word-spacing:0px;fill:#000000;fill-opacity:1;stroke:none;stroke-width:0;stroke-miterlimit:4;stroke-dasharray:none;stroke-opacity:1;filter:url(#filter4375-4-1-1-1-9)"
       x="787.65729"
       y="1584.5073"
       id="text4580"
       transform="matrix(1.0211987,-1.0799997,0.40321163,1.6505895,-232.24531,872.73654)"><tspan
         sodipodi:role="line"
         id="tspan4582"
         x="787.65729"
         y="1584.5073"
         style="font-size:70px;line-height:1.25;fill:#ffffff;stroke:none;stroke-width:0;stroke-miterlimit:4;stroke-dasharray:none">¡P<tspan
   style="font-size:56.0152px;stroke:none;stroke-width:0;stroke-miterlimit:4;stroke-dasharray:none"
   id="tspan1119">AF</tspan><tspan
   style="font-size:80.4001px;stroke:none;stroke-width:0;stroke-miterlimit:4;stroke-dasharray:none"
   id="tspan4617">!</tspan></tspan></text>
    <text
       xml:space="preserve"
       style="font-style:normal;font-variant:normal;font-weight:normal;font-stretch:normal;font-size:15.7523px;line-height:0%;font-family:Lavi;-inkscape-font-specification:Lavi;text-align:center;letter-spacing:0px;word-spacing:0px;text-anchor:middle;opacity:1;fill:#ffffff;fill-opacity:0.841808;stroke:none;stroke-width:1"
       x="1879.0814"
       y="2486.6555"
       id="text4246-7-9-2-3"
       transform="matrix(0.98943475,-0.09116349,0.01957156,1.0088748,0,0)"><tspan
         sodipodi:role="line"
         style="font-style:normal;font-variant:normal;font-weight:bold;font-stretch:normal;font-size:63.0093px;line-height:1.2;font-family:Lavi;-inkscape-font-specification:'Lavi Bold';fill:#ffffff;fill-opacity:0.841808;stroke-width:0.820599"
         x="1879.0814"
         y="2486.6555"
         id="tspan4252-5-2-8-6">¿?</tspan></text>
    <text
       xml:space="preserve"
       style="font-style:normal;font-weight:normal;font-size:40px;line-height:1.25;font-family:sans-serif;letter-spacing:0px;word-spacing:0px;fill:#000000;fill-opacity:1;stroke:none"
       x="1886.9565"
       y="196.47833"
       id="text113" />
  </g>
</svg>
