<?xml version="1.0" encoding="UTF-8" standalone="no"?>
<!-- Created with Inkscape (http://www.inkscape.org/) -->

<svg
   xmlns:dc="http://purl.org/dc/elements/1.1/"
   xmlns:cc="http://creativecommons.org/ns#"
   xmlns:rdf="http://www.w3.org/1999/02/22-rdf-syntax-ns#"
   xmlns:svg="http://www.w3.org/2000/svg"
   xmlns="http://www.w3.org/2000/svg"
   xmlns:xlink="http://www.w3.org/1999/xlink"
   xmlns:sodipodi="http://sodipodi.sourceforge.net/DTD/sodipodi-0.dtd"
   xmlns:inkscape="http://www.inkscape.org/namespaces/inkscape"
   id="svg2"
   version="1.1"
   inkscape:version="0.92.4 (5da689c313, 2019-01-14)"
   width="2481"
   height="3503"
   sodipodi:docname="E06P08.svg">
  <sodipodi:namedview
     pagecolor="#ffffff"
     bordercolor="#666666"
     inkscape:pageopacity="0"
     inkscape:pageshadow="2"
     inkscape:window-width="1813"
     inkscape:window-height="955"
     id="namedview70"
     showgrid="false"
     inkscape:zoom="0.34782609"
     inkscape:cx="1047.3982"
     inkscape:cy="473.92602"
     inkscape:current-layer="layer1"
     inkscape:window-x="0"
     inkscape:window-y="26"
     inkscape:window-maximized="0" />
  <metadata
     id="metadata8">
    <rdf:RDF>
      <cc:Work
         rdf:about="">
        <dc:format>image/svg+xml</dc:format>
        <dc:type
           rdf:resource="http://purl.org/dc/dcmitype/StillImage" />
        <dc:title />
      </cc:Work>
    </rdf:RDF>
  </metadata>
  <defs
     id="defs6">
    <filter
       color-interpolation-filters="sRGB"
       id="filter4375-4-1-1-15-1-3-3"
       inkscape:label="deevad outline effect">
      <feFlood
         id="feFlood4377-7-9-0-4-4-4-7"
         flood-opacity="1"
         flood-color="rgb(0,0,0)"
         result="flood" />
      <feComposite
         id="feComposite4379-3-8-8-6-0-7-4"
         in2="SourceGraphic"
         in="flood"
         operator="in"
         result="composite1" />
      <feMorphology
         id="feMorphology4393-1-0-49-8-2-7-3"
         operator="dilate"
         radius="0.69999999999999996"
         result="result3" />
      <feComposite
         id="feComposite4385-9-5-7-2-1-2-9"
         in2="result3"
         in="SourceGraphic"
         operator="over"
         result="composite2" />
    </filter>
    <filter
       color-interpolation-filters="sRGB"
       id="filter3639"
       inkscape:label="deevad outline effect">
      <feFlood
         id="feFlood3641"
         flood-opacity="1"
         flood-color="rgb(0,0,0)"
         result="flood" />
      <feComposite
         id="feComposite3643"
         in2="SourceGraphic"
         in="flood"
         operator="in"
         result="composite1" />
      <feMorphology
         id="feMorphology3645"
         operator="dilate"
         radius="0.69999999999999996"
         result="result3" />
      <feComposite
         id="feComposite3647"
         in2="result3"
         in="SourceGraphic"
         operator="over"
         result="composite2" />
    </filter>
    <filter
       color-interpolation-filters="sRGB"
       id="filter3649"
       inkscape:label="deevad outline effect">
      <feFlood
         id="feFlood3651"
         flood-opacity="1"
         flood-color="rgb(0,0,0)"
         result="flood" />
      <feComposite
         id="feComposite3653"
         in2="SourceGraphic"
         in="flood"
         operator="in"
         result="composite1" />
      <feMorphology
         id="feMorphology3655"
         operator="dilate"
         radius="0.69999999999999996"
         result="result3" />
      <feComposite
         id="feComposite3657"
         in2="result3"
         in="SourceGraphic"
         operator="over"
         result="composite2" />
    </filter>
  </defs>
  <sodipodi:namedview
     pagecolor="#ffffff"
     bordercolor="#666666"
     borderopacity="1"
     objecttolerance="10"
     gridtolerance="10"
     guidetolerance="10"
     inkscape:pageopacity="0"
     inkscape:pageshadow="2"
     inkscape:window-width="1920"
     inkscape:window-height="1025"
     id="namedview4"
     showgrid="false"
     inkscape:zoom="0.49190039"
     inkscape:cx="1449.9468"
     inkscape:cy="2625.8641"
     inkscape:window-x="0"
     inkscape:window-y="26"
     inkscape:window-maximized="1"
     inkscape:current-layer="layer1" />
  <g
     inkscape:groupmode="layer"
     id="layer2"
     inkscape:label="artwork"
     sodipodi:insensitive="true">
    <image
       sodipodi:absref="C:\Users\stero\Documents\Kernewek\Pepper and Carrot\webcomics\ep06_The-Potion-Contest\lang\kw\../gfx_Pepper-and-Carrot_by-David-Revoy_E06P08.png"
       xlink:href="../gfx_Pepper-and-Carrot_by-David-Revoy_E06P08.png"
       y="0"
       x="0"
       id="image10"
       height="3503"
       width="2481" />
  </g>
  <g
     inkscape:groupmode="layer"
     id="layer3"
     inkscape:label="speechbubbles" />
  <g
     inkscape:groupmode="layer"
     id="layer1"
     inkscape:label="txt">
    <path
       style="color:#000000;fill:#ffffff;fill-opacity:1;fill-rule:nonzero;stroke:none;stroke-width:1px;marker:none;visibility:visible;display:inline;overflow:visible;enable-background:accumulate"
       d="m 524.44684,1977.3621 c -14.01377,-46.3951 -40.00882,-95.7772 -45.79925,-144.3988 l -11.44029,45.6542 c -62.91152,-129.7986 -216.9307,-210.2683 -37.93418,5.9274 l 4.61436,-21.5395 c 6.85365,14.1808 24.60331,28.6882 28.47492,44.653 l 15.40082,-17.4241 c 13.28656,38.1411 31.12227,58.0858 46.68362,87.1278 z"
       id="path4032-9"
       inkscape:connector-curvature="0"
       sodipodi:nodetypes="cccccccc" />
    <path
       style="color:#000000;fill:#ffffff;fill-opacity:1;fill-rule:nonzero;stroke:none;stroke-width:1px;marker:none;visibility:visible;display:inline;overflow:visible;enable-background:accumulate"
       d="m 734.33747,2852.147 c 34.68316,-42.7494 111.27433,-68.3456 171.06944,-6.0348 45.90017,-4.9397 81.26643,-4.2641 125.92729,48.6318 -41.84055,-33.4484 -69.35796,-47.6353 -136.48501,-35.9449 -35.82358,-28.4476 -90.54377,-19.0565 -121.82817,39.1849 -31.28451,58.2414 -17.69437,44.59 -17.69437,44.59 l -30.80741,-73.5852 z"
       id="path5074-3-6"
       inkscape:connector-curvature="0"
       sodipodi:nodetypes="ccccsccc" />
    <path
       style="color:#000000;fill:#ffffff;fill-opacity:1;fill-rule:nonzero;stroke:none;stroke-width:1px;marker:none;visibility:visible;display:inline;overflow:visible;enable-background:accumulate"
       d="m 921.73639,1713.3647 c 38.32906,18.6277 26.56293,53.657 -17.25459,29.5292 30.4647,35.9116 50.91128,52.0261 35.37649,66.5249 113.16101,-28.688 40.12509,17.6202 12.35589,45.6958 25.2138,-11.1892 65.39632,-42.7141 50.24712,0.9326 8.0165,-2.0071 17.4491,-7.7553 21.4169,0.9326 10.2141,-5.9994 17.8025,-7.54 22.2405,-3.7303 10.0387,-10.9178 16.5252,-13.7923 16.4745,-1.865 9.4908,-8.9943 12.4136,-5.8987 14.827,-1.8652 16.2884,-19.3104 22.3718,-13.8628 28.8303,-9.3257 9.2223,-11.5941 20.0147,-8.9681 32.1252,5.5954 12.3911,-19.7186 25.706,-18.519 39.5387,-5.5954 4.0629,-4.8576 7.7526,-13.0937 13.1796,-5.5954 5.4916,-2.5937 10.9829,-9.2401 16.4744,-2.7977 57.96,-25.5257 83.2408,-3.9641 110.3791,14.921 15.1317,-8.3376 26.0358,-24.4528 51.8945,-13.0558 2.4173,-11.638 16.2824,-16.3634 40.3625,-14.9211 -24.6985,-14.0451 -25.9691,-22.0409 31.3015,-14.9211 -39.9179,-11.5016 -76.7041,-23.0032 -14.8271,-34.5049 -14.4922,-4.5662 -61.8613,6.1755 -9.8847,-48.4933 -36.9085,12.0657 -70.4145,15.2007 -80.7249,-33.5725 -19.9115,12.8266 -41.9579,19.1806 -59.3081,-10.2582 -15.8027,13.7936 -37.9137,10.4819 -49.4234,3.7302 -3.114,15.1069 -26.6303,38.2752 -58.4843,-3.7302 6.989,23.8751 1.6991,61.9029 -35.4201,-0.9326 -0.7362,10.9306 14.5493,70.3734 -88.9621,-0.9326 12.9121,47.8406 -21.4561,20.0035 -48.59972,3.7302 13.46032,29.9949 -6.7969,32.3145 -51.0709,14.9211 34.1543,28.4805 -0.96419,20.6172 -23.06429,19.584 z"
       id="path3549-2"
       inkscape:connector-curvature="0"
       sodipodi:nodetypes="ccccccccccccccccccccccccccccc" />
    <path
       style="color:#000000;display:inline;overflow:visible;visibility:visible;fill:#ffffff;fill-opacity:1;fill-rule:nonzero;stroke:none;stroke-width:1.0157299px;marker:none;enable-background:accumulate"
       d="m 668.18509,1756.655 c 75.04524,15.425 151.53513,30.5991 23.80829,81.2353 123.62043,-16.2519 49.32374,11.8906 20.04508,29.935 219.88088,-41.4052 80.35221,17.8474 28.20059,52.6287 48.58064,-14.8404 124.82649,-54.5176 98.80785,-2.3845 57.32399,-26.6335 147.23476,-74.8686 42.1609,-0.39 88.41287,-45.8924 90.37766,-41.119 43.37893,-5.9045 57.86426,-31.4082 67.76707,-25.9232 61.18226,-6.5312 36.43941,-40.6127 44.48171,-22.5251 55.84651,-12.9095 17.1249,-14.208 38.5558,-11.8811 63.6015,4.3267 22.6536,-23.9364 48.9182,1.4801 49.041,24.3218 18.7173,-34.413 49.6784,-39.2878 78.6178,-0.9563 0.5654,-22.9435 0.1414,-71.9868 44.6475,-0.077 -11.6458,-65.7771 132.8402,-37.9895 202.5112,3.324 -41.0076,-48.2731 -6.0692,-79.0486 78.937,-56.8129 3.7502,-13.7886 30.5874,-20.2784 78.0249,-20.2561 -49.7347,-14.7301 -52.9177,-24.0007 60.2216,-19.6293 -79.42,-10.7004 -152.6867,-21.6174 -32.0953,-39.3597 -28.8671,-4.3417 -121.0178,11.5073 -23.5853,-56.0738 -71.4838,16.6752 -137.0487,22.6623 -161.4942,-33.7096 -38.022,16.3899 -80.7942,25.3519 -117.4119,-7.9038 -29.8658,17.2375 -73.5946,14.8911 -96.7892,7.7849 -4.8214,17.8968 -49.0382,46.6403 -115.2328,-0.3202 15.7819,27.4604 8.6532,72.3351 -69.6751,1.3589 -0.5078,12.8442 34.629,81.36 -174.87692,5.0624 29.4778,55.1004 -40.44033,24.8968 -95.17065,7.7278 29.02263,34.1756 -10.58047,38.2919 -99.06521,20.9969 69.55307,30.9716 -0.1245,24.1975 -43.63633,24.517 z"
       id="path3549"
       inkscape:connector-curvature="0"
       sodipodi:nodetypes="ccccccccccccccccccccccccccccc" />
    <path
       style="color:#000000;display:inline;overflow:visible;visibility:visible;fill:#ffffff;fill-opacity:1;fill-rule:nonzero;stroke:none;stroke-width:1.07261384px;marker:none;enable-background:accumulate"
       d="m 431.82554,426.349 c 40.93879,-34.48897 263.60869,-31.54474 337.6951,-16.60243 74.08608,14.94213 101.65305,40.67597 105.0989,49.80737 3.44567,9.13132 -5.16874,51.46759 -43.07343,59.7689 -37.90446,8.30121 -146.4492,12.45182 -184.35388,12.45182 -37.90447,0 -158.90414,-5.2837 -189.52294,-17.43262 -29.28992,-11.62172 -66.78271,-53.50416 -25.84375,-87.99304 z"
       id="path3330"
       inkscape:connector-curvature="0"
       sodipodi:nodetypes="zsssssz" />
    <path
       style="color:#000000;fill:#ffffff;fill-opacity:1;fill-rule:nonzero;stroke:none;stroke-width:1px;marker:none;visibility:visible;display:inline;overflow:visible;enable-background:accumulate"
       d="m 414.31688,691.38453 c -11.42076,-60.08041 19.03456,-219.66888 253.16104,-206.52623 234.12629,13.14241 261.36657,82.72228 277.90602,110.77304 8.50465,18.62651 81.06346,144.63427 -102.94559,168.38164 -186.24527,24.03598 -371.01742,13.73698 -428.12147,-72.62845 z"
       id="path3525"
       inkscape:connector-curvature="0"
       sodipodi:nodetypes="cscsc" />
    <path
       style="color:#000000;fill:#ffffff;fill-opacity:1;fill-rule:nonzero;stroke:none;stroke-width:1px;marker:none;visibility:visible;display:inline;overflow:visible;enable-background:accumulate"
       d="m 900.08615,716.05926 c 42.51329,20.49356 123.80235,14.32923 138.26235,-30.35733 -49.15569,36.55167 -109.63611,20.90132 -120.75593,10.89767 -11.11981,-10.00366 -17.50642,19.45966 -17.50642,19.45966 z"
       id="path3978"
       inkscape:connector-curvature="0" />
    <path
       style="color:#000000;fill:#ffffff;fill-opacity:1;fill-rule:nonzero;stroke:none;stroke-width:1px;marker:none;visibility:visible;display:inline;overflow:visible;enable-background:accumulate"
       d="m 1554.582,795.42187 c 57.8977,-93.44304 344.0773,-85.46607 437.1891,-44.98197 93.1111,40.48363 124.7152,110.20588 127.7736,134.94616 3.0584,24.74003 -14.4146,139.44424 -64.4578,161.93554 -50.0428,22.491 -190.389,33.7364 -239.1803,33.7364 -48.7913,0 -203.7467,-14.3154 -241.3276,-47.2313 -35.9497,-31.4874 -77.8951,-144.96201 -19.997,-238.40483 z"
       id="path3330-3"
       inkscape:connector-curvature="0"
       sodipodi:nodetypes="zsssssz" />
    <path
       style="color:#000000;fill:#ffffff;fill-opacity:1;fill-rule:nonzero;stroke:none;stroke-width:1px;marker:none;visibility:visible;display:inline;overflow:visible;enable-background:accumulate"
       d="m 1441.4333,792.86046 c 1.8123,17.9111 3.4719,36.60072 12.514,52.57918 2.6665,4.48827 5.7379,8.94714 9.7431,12.29849 4.9422,2.55729 10.902,0.92324 14.9972,-2.48609 6.2588,-4.50938 10.9613,-11.84776 18.8831,-13.58596 5.7972,-1.12556 10.4379,3.16953 14.6457,6.42604 10.5623,8.51108 20.0337,18.50261 31.8998,25.28467 12.8634,8.50453 27.0155,16.51979 42.7488,17.47511 6.2316,0.27366 12.7888,-0.31154 18.2031,-3.68195 14.2818,-8.01643 24.173,-24.34511 22.834,-40.90808 -1.8569,-10.48428 -12.9332,-19.03038 -23.5991,-16.39316 -5.6511,1.30784 -9.507,6.21921 -11.5244,11.3814 -5.4816,8.7963 -15.7551,13.86937 -26.0014,13.88113 -8.456,0.14805 -16.8709,-2.36044 -24.0764,-6.73748 -11.3704,-3.36484 -18.2685,-13.64874 -26.3598,-21.52774 -3.7502,-3.54453 -7.9795,-7.06083 -13.0234,-8.42848 -7.6564,-0.23923 -13.3775,5.76673 -17.631,11.40618 -4.5368,5.70318 -9.1549,12.83128 -16.9484,14.04463 -5.2949,1.57023 -8.0628,-4.3141 -11.2198,-7.42808 -8.8564,-11.35341 -14.0534,-25.32791 -16.0433,-39.50562 -0.089,-1.36474 -0.067,-2.72787 -0.042,-4.09419 z"
       id="path4496"
       inkscape:connector-curvature="0"
       inkscape:transform-center-x="-99.717282"
       inkscape:transform-center-y="101.38562" />
    <path
       style="color:#000000;display:inline;overflow:visible;visibility:visible;fill:#ffffff;fill-opacity:1;fill-rule:nonzero;stroke:none;stroke-width:0.97292447px;marker:none;enable-background:accumulate"
       d="m 1749.9291,1115.0856 c 41.06,-69.7642 269.7832,-78.229 344.089,-48.0038 74.3053,30.2249 91.1661,74.7656 94.6221,93.2366 3.4558,18.4709 5.6038,90.3998 -35.1099,126.384 -31.2811,27.6471 -149.5798,41.6381 -187.5968,41.6381 -38.0166,0 -159.3746,-10.6878 -190.084,-35.2627 -29.3768,-23.5085 -66.9806,-108.228 -25.9204,-177.9922 z"
       id="path3330-7"
       inkscape:connector-curvature="0"
       sodipodi:nodetypes="zsssssz" />
    <path
       style="color:#000000;fill:#ffffff;fill-opacity:1;fill-rule:nonzero;stroke:none;stroke-width:1px;marker:none;visibility:visible;display:inline;overflow:visible;enable-background:accumulate"
       d="m 799.55794,2061.6662 c 41.54476,-24.9583 79.49671,-56.3087 125.21587,-73.8403 l -43.51369,-5.8567 c 12.70794,-14.5474 33.04403,-20.2182 50.79008,-28.9032 l -26.26055,-7.9369 c 30.43962,-33.9774 70.07719,-50.7411 105.26895,-75.8248 l -46.93148,-10.2988 c -32.40962,29.4099 -59.34882,63.5475 -97.91175,87.6396 l 24.81802,10.2865 c -12.06842,10.1205 -24.58698,19.7921 -39.1159,27.4588 l 32.36116,10.2326 z"
       id="path4032"
       inkscape:connector-curvature="0"
       sodipodi:nodetypes="cccccccccccc" />
    <path
       style="fill:#ffffff;fill-opacity:1;stroke:none;stroke-width:1.03106618"
       d="m 866.45292,2890.4049 c -30.59801,-6.8708 -42.38001,-13.258 -36.9068,-17.1941 -12.55001,-1.9615 -17.44011,-53.0973 -5.71538,-62.4448 0.7804,-0.984 6.257,-3.9365 3.90342,-4.4272 -2.35346,-0.4907 -16.45864,0.9903 -18.81757,-0.9754 -2.35893,-1.9659 21.05646,-30.0034 17.91725,-30.9856 -3.13945,-0.9819 -51.78946,-5.0755 -61.99641,-9.4966 -10.20713,-4.421 -28.16345,7.0768 -31.30092,6.5863 3.70266,-14.2548 -32.13169,2.4724 -36.05315,1.9824 -3.9212,-0.4902 -11.03021,-15.2384 -14.95159,-15.7283 -3.92148,-0.4901 -21.92655,6.4014 -25.06403,5.9112 -3.13749,-0.4904 -1.61433,-12.7839 -5.5358,-13.2737 -3.92137,-0.4902 -21.12814,10.3348 -23.48171,9.8442 -2.3535,-0.4908 -11.06643,-25.0727 -14.99135,-26.5461 -3.92501,-1.4734 -28.90633,27.0565 -31.25638,27.5493 -2.34985,0.4927 -17.36805,-33.429 -20.50564,-33.9195 -3.13747,-0.4903 -18.72965,23.1187 -21.08329,22.628 -2.35355,-0.4907 -17.2982,-14.2524 -20.43738,-15.2344 -3.13928,-0.982 -23.40644,30.496 -26.54204,30.4975 -3.1358,0 -29.83737,-13.2635 -32.19818,-15.721 -2.36074,-2.4575 -4.65676,12.7865 -7.79246,12.7879 -3.13571,0 -39.22819,-8.8341 -40.01045,-8.3421 -0.78205,0.4922 5.52342,9.832 3.17168,9.8331 -2.35174,0 -39.24078,-12.2763 -40.79981,-9.8169 -1.55871,2.4592 -80.00449,-12.2585 -85.48476,-10.2894 -5.48027,1.9693 35.42347,40.3052 31.51478,43.2571 -3.90887,2.952 -18.03219,-0.4839 -18.81067,0.9915 -0.77846,1.4756 8.65186,7.8637 6.30747,9.8316 -2.34477,1.9678 -28.96932,9.8467 -31.312,12.306 -2.34286,2.4598 11.79102,8.8459 8.66081,10.3225 -3.13042,1.4765 -49.34769,10.8388 -50.12257,13.2977 -0.77489,2.4588 23.56957,14.2493 20.44653,17.6927 -3.12314,3.4433 -11.74088,4.9221 -10.94797,7.3804 0.79292,2.4583 15.69821,5.4021 14.92322,7.861 -0.77507,2.459 -8.56932,14.755 -10.91389,16.7229 -2.34458,1.9678 16.46589,0.9763 16.47307,2.9431 0.006,1.9669 12.44649,14.234 -29.97497,43.8839 65.17184,-22.9118 70.11271,-0.6303 95.99627,3.2922 25.88384,3.9227 15.78242,28.5125 19.70733,29.986 3.92504,1.4735 32.89426,-8.3732 36.82645,-4.933 3.9321,3.4405 5.52321,9.8319 8.659,9.8306 3.13552,0 29.14759,-10.0372 33.06885,-9.5472 32.44649,-6.974 44.8235,15.227 38.30183,18.8592 5.48914,0.4893 26.62267,-8.3706 31.32445,-8.8643 4.70173,-0.4937 8.66608,11.7973 12.58214,10.8123 3.91606,-0.9849 28.96913,-9.8467 32.89216,-8.8649 3.92324,0.9818 7.07329,4.9141 10.20549,3.9292 3.13189,-0.9846 17.22823,-4.9244 17.22823,-4.9244 0,0 10.20168,2.9459 14.9052,2.9439 4.70348,0 22.38911,-12.4678 26.30515,-13.453 3.91603,-0.985 40.16376,4.329 57.01714,34.6438 -9.53895,-35.735 27.92957,-38.94 33.41166,-40.4175 5.48199,-1.4775 21.96057,2.9408 23.52282,1.465 1.56253,-1.4759 6.23732,-9.3451 10.93915,-9.8389 4.70173,-0.4937 15.66935,-2.4651 15.66935,-2.4651 l -1.57849,-2.9497 c 0,0 32.95319,7.8532 36.88361,10.8018 3.9303,2.9486 -2.39845,-12.7833 -4.76457,-16.7161 14.12476,3.9278 55.70308,12.269 58.84763,14.7262 3.14469,2.4572 -5.51952,-8.8486 -10.23568,-12.2885 6.2767,1.4726 11.76595,1.962 11.76595,1.962 l -18.07319,-11.7934 5.48392,-0.9858 c 0,0 -11.77849,-5.4039 -11.78749,-7.8625 -0.009,-2.4584 30.55299,-5.4219 30.55299,-5.4219 0,0 -12.55889,-4.42 -9.43221,-6.8798 3.12693,-2.46 10.96064,-3.9384 10.96064,-3.9384 l 1.54448,-6.3929 z"
       id="path5888"
       inkscape:connector-curvature="0"
       sodipodi:nodetypes="ccccccccccsccccsccccccsccsccscsccccscccscccccscccccsccccscccccccccccc" />
    <path
       style="fill:#ffffff;fill-opacity:1;stroke:none;stroke-width:1.04557776"
       d="m 1797.6547,3221.0213 c 71.7313,10.0559 47.6006,-29.1424 43.0313,-34.0012 17.47,8.1536 47.2362,-0.8175 16.2734,-29.198 43.9927,11.3918 22.4581,6.02 -3.139,-24.5295 38.7498,15.5342 63.1854,5.7083 35.6606,-15.8279 39.537,27.6918 53.4696,18.8512 28.2534,-15.5352 49.7199,35.6171 40.416,22.2031 28.2996,4.6146 41.4057,32.1026 10.6347,-15.6704 13.8007,-15.929 3.166,-0.2589 16.5629,8.408 19.1084,8.095 2.5453,-0.3129 2.8728,-13.6711 6.0389,-13.9298 3.166,-0.2589 15.44,12.5937 17.3648,12.2266 7.4674,4.5107 15.3307,-23.2422 15.1815,-27.5889 -3.1829,3.7697 15.0489,34.6638 21.3122,31.8484 1.7991,0.6925 22.9997,-35.5723 20.4676,-35.1591 -4.7227,0.7704 9.5706,26.5651 13.8709,25.8438 3.4196,4.7786 17.5416,-7.0605 18.0829,-15.0197 -1.3302,2.2521 10.4071,37.8823 17.2115,34.7029 3.0712,6.6828 25.7924,-6.6134 27.4555,-14.7361 2.1758,-2.4872 2.0923,14.105 4.5748,14.3219 -4.3806,8.1765 27.5529,-1.4809 32.7208,-6.244 0.558,0.5843 -3.0805,8.6896 -3.7378,10.3829 -3.5424,9.1256 25.6524,0.9885 33.5297,-7.7798 -30.3797,43.7563 58.2988,0.8958 68.9703,-5.2187 4.0936,2.4998 -33.0761,41.0184 -30.3494,44.4695 2.7268,3.4512 14.3384,0.7174 14.7705,2.3624 0.4323,1.6442 -7.8315,7.8833 -6.2208,10.1659 1.6111,2.2825 21.7095,12.6063 23.2578,15.4187 1.5482,2.8128 -10.4398,8.7264 -8.1453,10.5334 2.2945,1.807 37.7212,15.0762 38.0279,17.7802 0.307,2.7041 -20.4397,13.7426 -18.3963,17.6694 2.0434,3.9269 8.6823,6.1133 7.7479,8.7091 -0.9345,2.5957 -13.1037,4.7452 -12.7968,7.4494 0.3069,2.7042 4.9444,16.4961 6.5554,18.7785 1.611,2.2828 -13.1593,-0.079 -13.4102,2.0412 -0.2567,2.1195 -39.7157,9.709 21.4279,49.5612 -66.4097,-25.4505 -58.6046,-5.6882 -79.5886,-3.238 -20.9842,2.4504 -16.0533,29.6546 -19.3448,30.9735 -3.2916,1.3187 -25.001,-11.2875 -28.5437,-7.8488 -3.5427,3.4387 -5.5998,10.2202 -8.0827,10.0032 -2.4824,-0.2155 -21.8267,-12.824 -24.9926,-12.5653 -24.8212,-9.7479 -37.3907,13.336 -32.6799,17.7 -4.4074,0.1504 -20.0358,-10.8537 -23.6971,-11.709 -3.6612,-0.8554 -8.3335,12.1231 -11.3112,10.7921 -2.9779,-1.331 -21.7094,-12.6064 -24.9381,-11.8174 -3.229,0.7888 -6.2137,4.8119 -8.5708,3.5346 -2.3571,-1.2766 -13.0271,-6.4927 -13.0271,-6.4927 0,0 -8.4452,2.475 -12.1691,2.1496 -3.7242,-0.3232 -27.1001,-20.0382 -30.0778,-21.3694 -2.9779,-1.3311 -55.111,26.3975 -53.6256,29.7402 1.4855,3.3428 -2.1717,-35.151 -6.328,-37.1206 -4.1563,-1.9696 -17.7552,1.6615 -18.808,-0.037 -1.0532,-1.6984 -3.7731,-10.5033 -7.4343,-11.3588 -3.6614,-0.8554 -12.0995,-3.7344 -12.0995,-3.7344 l 1.6179,-3.0717 c 0,0 -27.0721,6.2022 -30.5519,9.111 -3.48,2.9086 3.4937,-13.6169 5.8579,-17.6943 -11.6739,3.2641 -45.6363,9.3995 -48.4325,11.8325 -2.7966,2.4329 5.474,-9.1603 9.6374,-12.5448 -5.1535,1.1563 -9.561,1.3067 -9.561,1.3067 l 15.7815,-11.4724 -4.2193,-1.4395 c 0,0 10.0004,-5.0166 10.3141,-7.6666 0.3178,-2.6494 -23.5153,-7.9447 -23.5153,-7.9447 72.8227,1.4697 20.009,-18.0658 -8.4105,-24.2961 z"
       id="path5888-2"
       inkscape:connector-curvature="0"
       sodipodi:nodetypes="ccccccccsccccsccccccsccsccscsccccscccscccccscccccsccccsccccccccc" />
    <path
       style="color:#000000;fill:#ffffff;fill-opacity:1;fill-rule:nonzero;stroke:none;stroke-width:1px;marker:none;visibility:visible;display:inline;overflow:visible;enable-background:accumulate"
       d="m 1949.2127,3186.2754 c -39.3897,38.4564 -118.4251,55.0326 -170.6211,-13.769 -46.1636,-0.3962 -81.2149,-5.1531 -119.4658,-62.8545 37.6962,38.0583 63.3903,55.3293 131.4185,51.4723 32.2972,32.3957 87.7359,29.3893 125.5394,-24.8478 37.8036,-54.2372 22.7273,-42.2473 22.7273,-42.2473 l 22.0999,76.6516 z"
       id="path5074-3"
       inkscape:connector-curvature="0"
       sodipodi:nodetypes="ccccsccc" />
    <path
       style="color:#000000;display:inline;overflow:visible;visibility:visible;fill:#ffffff;fill-opacity:1;fill-rule:nonzero;stroke:none;stroke-width:1.09738576px;marker:none;enable-background:accumulate"
       d="m 459.81582,1582.757 c -5.56999,14.1556 -35.89474,59.4538 -45.8369,16.2093 -51.04563,66.8706 -109.51698,55.4388 -167.56612,48.4577 -11.47332,19.5362 -8.54872,46.1647 -56.55475,47.7053 9.57983,15.9183 -4.16042,30.2003 -38.70882,43.0229 49.35061,2.4517 59.94395,11.6093 -26.30981,37.5242 67.36033,-9.943 130.4356,-17.9855 58.49962,33.848 24.88789,-3.1249 77.81265,-45.2102 67.22692,54.2176 37.14441,-37.3814 79.52239,-61.6079 147.64153,-7.3014 13.04324,-28.0111 36.17513,-49.2804 92.51719,-23.2543 6.34989,-26.7184 66.66507,-38.7619 89.89152,-37.3629 -49.94218,-20.5081 -51.4569,-38.0996 9.1841,-50.843 -111.37507,-33.4472 -26.27945,-39.6374 -12.01135,-55.1095 -83.53697,-4.1008 -51.33362,-31.5667 -40.79803,-55.3999 -92.62983,14.4742 -68.43526,-24.9365 -77.1751,-51.714 z"
       id="path3549-3"
       inkscape:connector-curvature="0"
       sodipodi:nodetypes="ccccccccccccccc" />
    <flowRoot
       xml:space="preserve"
       id="flowRoot4133-6-9-4-8-5-3"
       style="color:#000000;font-style:normal;font-variant:normal;font-weight:normal;font-stretch:normal;line-height:0.01%;font-family:Arial;-inkscape-font-specification:Arial;letter-spacing:0.00204969px;word-spacing:0px;display:inline;overflow:visible;visibility:visible;fill:#ffffff;fill-opacity:1;fill-rule:nonzero;stroke:#ffffff;stroke-width:0.0836072;stroke-linecap:butt;stroke-linejoin:miter;stroke-miterlimit:4;stroke-dasharray:none;stroke-dashoffset:0;stroke-opacity:1;marker:none;filter:url(#filter4375-4-1-1-15-1-3-3);enable-background:accumulate"
       transform="matrix(8.3099216,-5.4900388,-0.26452567,16.18078,-7093.1327,-9087.3999)"><flowRegion
         id="flowRegion4135-2-9-3-5-2-6"
         style="stroke-width:0.86646658"><rect
           id="rect4137-1-7-1-2-1-4"
           width="200.00224"
           height="39.051064"
           x="1125.3193"
           y="1078.5308"
           style="color:#000000;letter-spacing:0.00204969px;display:inline;overflow:visible;visibility:visible;fill:#ffffff;fill-opacity:1;fill-rule:nonzero;stroke:#ffffff;stroke-width:0.0836072;stroke-linecap:butt;stroke-linejoin:miter;stroke-miterlimit:4;stroke-dasharray:none;stroke-dashoffset:0;stroke-opacity:1;marker:none;filter:url(#filter4375-4-1-1-15-1-3-3);enable-background:accumulate" /></flowRegion><flowPara
         id="flowPara4139-2-8-6-8-6-3"
         style="color:#000000;font-style:normal;font-variant:normal;font-weight:normal;font-stretch:normal;font-size:17.85409164px;line-height:125%;font-family:Lavi;-inkscape-font-specification:Lavi;letter-spacing:0.00204969px;word-spacing:0.00204969px;display:inline;overflow:visible;visibility:visible;fill:#ffffff;fill-opacity:1;fill-rule:nonzero;stroke:#ffffff;stroke-width:0.0836072;stroke-linecap:butt;stroke-linejoin:miter;stroke-miterlimit:4;stroke-dasharray:none;stroke-dashoffset:0;stroke-opacity:1;marker:none;enable-background:accumulate"><flowSpan
           style="font-size:13.08514309px"
           id="flowSpan3116"><flowSpan
   style="-inkscape-font-specification:'Lavi, Normal';font-family:Lavi;font-weight:normal;font-style:normal;font-stretch:normal;font-variant:normal;font-size:14.24094535px;text-anchor:start;text-align:start;writing-mode:lr;font-variant-ligatures:normal;font-variant-caps:normal;font-variant-numeric:normal;font-feature-settings:normal"
   id="flowSpan186">K</flowSpan>R</flowSpan><flowSpan
           id="flowSpan3122"
           style="font-size:8.7063818px">AC</flowSpan><flowSpan
           id="flowSpan3126"
           style="font-size:7.83930063px">K !</flowSpan></flowPara></flowRoot>    <flowRoot
       xml:space="preserve"
       id="flowRoot2987-4-9-3"
       style="font-style:normal;font-variant:normal;font-weight:normal;font-stretch:normal;line-height:0.01%;font-family:Lavi;-inkscape-font-specification:Lavi;text-align:center;letter-spacing:0px;word-spacing:0px;text-anchor:middle;fill:#000000;fill-opacity:1;stroke:none"
       transform="translate(268.13499,291.45629)"><flowRegion
         id="flowRegion2989-5-4-5"><rect
           id="rect2991-7-9-6"
           width="602.40173"
           height="310.73996"
           x="120.55251"
           y="265.53046"
           style="font-style:normal;font-variant:normal;font-weight:normal;font-stretch:normal;font-family:Lavi;-inkscape-font-specification:Lavi;text-align:center;text-anchor:middle" /></flowRegion><flowPara
         style="font-size:48px;line-height:1.25;text-align:center;text-anchor:middle"
         id="flowPara3080">...pubonan dhe asa</flowPara><flowPara
         style="font-size:48px;line-height:1.25;text-align:center;text-anchor:middle"
         id="flowPara4656" /><flowPara
         style="font-size:48px;line-height:1.25;text-align:center;text-anchor:middle"
         id="flowPara4658">yn kettermyn </flowPara><flowPara
         style="font-size:48px;line-height:1.25;text-align:center;text-anchor:middle"
         id="flowPara4606">ha'gan tro nyni</flowPara></flowRoot>    <flowRoot
       transform="translate(225.01689,167.71471)"
       style="font-style:normal;font-variant:normal;font-weight:normal;font-stretch:normal;line-height:0.01%;font-family:Lavi;-inkscape-font-specification:Lavi;text-align:center;letter-spacing:0px;word-spacing:0px;text-anchor:middle;fill:#000000;fill-opacity:1;stroke:none"
       id="flowRoot3045"
       xml:space="preserve"><flowRegion
         id="flowRegion3047"><rect
           style="font-style:normal;font-variant:normal;font-weight:normal;font-stretch:normal;font-family:Lavi;-inkscape-font-specification:Lavi;text-align:center;text-anchor:middle"
           y="265.53046"
           x="120.55251"
           height="310.73996"
           width="602.40173"
           id="rect3049" /></flowRegion><flowPara
         id="flowPara3055"
         style="font-size:48px;line-height:1.25;text-align:center;text-anchor:middle">herwydh usadow... </flowPara></flowRoot>    <flowRoot
       xml:space="preserve"
       id="flowRoot2987-4-9-3-8"
       style="font-style:normal;font-variant:normal;font-weight:normal;font-stretch:normal;line-height:0.01%;font-family:Lavi;-inkscape-font-specification:Lavi;text-align:center;letter-spacing:0px;word-spacing:0px;text-anchor:middle;fill:#000000;fill-opacity:1;stroke:none"
       transform="translate(1402.8617,516.82309)"><flowRegion
         id="flowRegion2989-5-4-5-8"><rect
           id="rect2991-7-9-6-5"
           width="602.40173"
           height="310.73996"
           x="120.55251"
           y="265.53046"
           style="font-style:normal;font-variant:normal;font-weight:normal;font-stretch:normal;font-family:Lavi;-inkscape-font-specification:Lavi;text-align:center;text-anchor:middle" /></flowRegion><flowPara
         style="font-size:48px;line-height:1.25;text-align:center;text-anchor:middle"
         id="flowPara4671">Dhe'n lyha </flowPara><flowPara
         style="font-size:48px;line-height:1.25;text-align:center;text-anchor:middle"
         id="flowPara4615">yma tybyans dhymm a'n pyth dhe wul gans dha</flowPara><flowPara
         style="font-size:48px;line-height:1.25;text-align:center;text-anchor:middle"
         id="flowPara3140">&quot;ismegen&quot;, Carrot</flowPara></flowRoot>    <flowRoot
       xml:space="preserve"
       id="flowRoot2987-4-9-3-8-9"
       style="font-style:normal;font-variant:normal;font-weight:normal;font-stretch:normal;line-height:0.01%;font-family:Lavi;-inkscape-font-specification:Lavi;text-align:center;letter-spacing:0px;word-spacing:0px;text-anchor:middle;fill:#000000;fill-opacity:1;stroke:none"
       transform="translate(1540.2483,840.5028)"><flowRegion
         id="flowRegion2989-5-4-5-8-6"><rect
           id="rect2991-7-9-6-5-0"
           width="602.40173"
           height="310.73996"
           x="120.55251"
           y="265.53046"
           style="font-style:normal;font-variant:normal;font-weight:normal;font-stretch:normal;font-family:Lavi;-inkscape-font-specification:Lavi;text-align:center;text-anchor:middle" /></flowRegion><flowPara
         style="font-size:48px;line-height:1.25;text-align:center;text-anchor:middle"
         id="flowPara4678">...kempenna </flowPara><flowPara
         style="font-size:48px;line-height:1.25;text-align:center;text-anchor:middle"
         id="flowPara4625">puptra omma </flowPara><flowPara
         style="font-size:48px;line-height:1.25;text-align:center;text-anchor:middle"
         id="flowPara4627">ha mos tre!</flowPara></flowRoot>    <flowRoot
       xml:space="preserve"
       id="flowRoot2987-4-9-3-8-9-5"
       style="font-style:normal;font-variant:normal;font-weight:normal;font-stretch:normal;line-height:0.01%;font-family:Lavi;-inkscape-font-specification:Lavi;text-align:center;letter-spacing:0px;word-spacing:0px;text-anchor:middle;fill:#000000;fill-opacity:1;stroke:none"
       transform="translate(741.6394,1451.2058)"><flowRegion
         id="flowRegion2989-5-4-5-8-6-3"><rect
           id="rect2991-7-9-6-5-0-1"
           width="602.40173"
           height="310.73996"
           x="120.55251"
           y="265.53046"
           style="font-style:normal;font-variant:normal;font-weight:normal;font-stretch:normal;font-family:Lavi;-inkscape-font-specification:Lavi;text-align:center;text-anchor:middle" /></flowRegion><flowPara
         style="font-size:48px;line-height:1.25;text-align:center;text-anchor:middle"
         id="flowPara3211-2">Ty </flowPara></flowRoot>    <flowRoot
       transform="matrix(0.93080411,0,-0.09044116,1.21695,708.48569,1433.5381)"
       style="font-style:normal;font-variant:normal;font-weight:normal;font-stretch:normal;line-height:0.01%;font-family:Lavi;-inkscape-font-specification:Lavi;text-align:center;letter-spacing:0px;word-spacing:0px;text-anchor:middle;fill:#000000;fill-opacity:1;stroke:#000000;stroke-width:2.71217394;stroke-miterlimit:4;stroke-dasharray:none;stroke-opacity:1"
       id="flowRoot4212-3-7-8-6"
       xml:space="preserve"><flowRegion
         id="flowRegion4214-6-7-8-3"><rect
           style="font-style:normal;font-variant:normal;font-weight:normal;font-stretch:normal;font-family:Lavi;-inkscape-font-specification:Lavi;text-align:center;text-anchor:middle;stroke:#000000;stroke-width:2.71217394;stroke-miterlimit:4;stroke-dasharray:none;stroke-opacity:1"
           y="284.74136"
           x="84.744102"
           height="333.9072"
           width="914.18988"
           id="rect4216-4-0-26-5" /></flowRegion><flowPara
         style="font-size:48px;line-height:1.25;text-align:center;letter-spacing:5.20896292px;text-anchor:middle;stroke:#000000;stroke-width:2.71217394;stroke-miterlimit:4;stroke-dasharray:none;stroke-opacity:1"
         id="flowPara3048">vudji-kowrek-afinys-zombi!</flowPara></flowRoot>    <flowRoot
       xml:space="preserve"
       id="flowRoot2987-4-9-3-0"
       style="font-style:normal;font-variant:normal;font-weight:normal;font-stretch:normal;line-height:0.01%;font-family:Lavi;-inkscape-font-specification:Lavi;text-align:center;letter-spacing:0px;word-spacing:0px;text-anchor:middle;fill:#000000;fill-opacity:1;stroke:none"
       transform="translate(137.08429,2532.4481)"><flowRegion
         id="flowRegion2989-5-4-5-1"><rect
           id="rect2991-7-9-6-4"
           width="602.40173"
           height="310.73996"
           x="120.55251"
           y="265.53046"
           style="font-style:normal;font-variant:normal;font-weight:normal;font-stretch:normal;font-family:Lavi;-inkscape-font-specification:Lavi;text-align:center;text-anchor:middle" /></flowRegion><flowPara
         style="font-size:48px;line-height:1.25;text-align:center;letter-spacing:1.5px;text-anchor:middle;stroke:#000000;stroke-width:1.10000002;stroke-miterlimit:4;stroke-dasharray:none;stroke-opacity:1"
         id="flowPara4687">A garses assaya unn diwettha ismegen? ...</flowPara></flowRoot>    <flowRoot
       xml:space="preserve"
       id="flowRoot2987-4-9-3-0-3"
       style="font-style:normal;font-variant:normal;font-weight:normal;font-stretch:normal;line-height:0.01%;font-family:Lavi;-inkscape-font-specification:Lavi;text-align:center;letter-spacing:0px;word-spacing:0px;text-anchor:middle;fill:#000000;fill-opacity:1;stroke:none"
       transform="translate(1626.8121,2904.3057)"><flowRegion
         id="flowRegion2989-5-4-5-1-6"><rect
           id="rect2991-7-9-6-4-7"
           width="602.40173"
           height="310.73996"
           x="120.55251"
           y="265.53046"
           style="font-style:normal;font-variant:normal;font-weight:normal;font-stretch:normal;font-family:Lavi;-inkscape-font-specification:Lavi;text-align:center;text-anchor:middle" /></flowRegion><flowPara
         style="font-size:48px;line-height:1.25;text-align:center;letter-spacing:1.5px;text-anchor:middle;stroke:#000000;stroke-width:1.10000002;stroke-miterlimit:4;stroke-dasharray:none;stroke-opacity:1"
         id="flowPara4086-6">... A na vynnydh</flowPara><flowPara
         style="font-size:48px;line-height:1.25;text-align:center;letter-spacing:1.5px;text-anchor:middle;stroke:#000000;stroke-width:1.10000002;stroke-miterlimit:4;stroke-dasharray:none;stroke-opacity:1"
         id="flowPara4202">tejy?</flowPara></flowRoot>    <flowRoot
       transform="matrix(1.8217115,0,-0.17700578,1.8738433,-518.63381,1196.0316)"
       style="font-style:normal;font-variant:normal;font-weight:normal;font-stretch:normal;line-height:0.01%;font-family:Lavi;-inkscape-font-specification:Lavi;text-align:center;letter-spacing:0px;word-spacing:0px;text-anchor:middle;fill:#000000;fill-opacity:1;stroke:#000000;stroke-width:2.71217394;stroke-miterlimit:4;stroke-dasharray:none;stroke-opacity:1"
       id="flowRoot4212-3-7-8-6-5"
       xml:space="preserve"><flowRegion
         id="flowRegion4214-6-7-8-3-6"><rect
           style="font-style:normal;font-variant:normal;font-weight:normal;font-stretch:normal;font-family:Lavi;-inkscape-font-specification:Lavi;text-align:center;text-anchor:middle;stroke:#000000;stroke-width:2.71217394;stroke-miterlimit:4;stroke-dasharray:none;stroke-opacity:1"
           y="265.53046"
           x="120.55251"
           height="355.03918"
           width="798.1947"
           id="rect4216-4-0-26-5-2" /></flowRegion><flowPara
         style="font-size:48px;line-height:1.25;text-align:center;letter-spacing:1.45219982px;text-anchor:middle;stroke:#000000;stroke-width:2.71217394;stroke-miterlimit:4;stroke-dasharray:none;stroke-opacity:1"
         id="flowPara4358-7-1-6">YOW!</flowPara></flowRoot>  </g>
</svg>
