<?xml version="1.0" encoding="UTF-8" standalone="no"?>
<!-- Created with Inkscape (http://www.inkscape.org/) -->

<svg
   xmlns:dc="http://purl.org/dc/elements/1.1/"
   xmlns:cc="http://creativecommons.org/ns#"
   xmlns:rdf="http://www.w3.org/1999/02/22-rdf-syntax-ns#"
   xmlns:svg="http://www.w3.org/2000/svg"
   xmlns="http://www.w3.org/2000/svg"
   xmlns:xlink="http://www.w3.org/1999/xlink"
   xmlns:sodipodi="http://sodipodi.sourceforge.net/DTD/sodipodi-0.dtd"
   xmlns:inkscape="http://www.inkscape.org/namespaces/inkscape"
   id="svg2"
   version="1.1"
   inkscape:version="0.92.3 (2405546, 2018-03-11)"
   width="2481"
   height="3503"
   sodipodi:docname="E23P04.svg">
  <metadata
     id="metadata8">
    <rdf:RDF>
      <cc:Work
         rdf:about="">
        <dc:format>image/svg+xml</dc:format>
        <dc:type
           rdf:resource="http://purl.org/dc/dcmitype/StillImage" />
        <dc:title />
      </cc:Work>
    </rdf:RDF>
  </metadata>
  <defs
     id="defs6" />
  <sodipodi:namedview
     pagecolor="#ffffff"
     bordercolor="#666666"
     borderopacity="1"
     objecttolerance="10"
     gridtolerance="10"
     guidetolerance="10"
     inkscape:pageopacity="0"
     inkscape:pageshadow="2"
     inkscape:window-width="1856"
     inkscape:window-height="1151"
     id="namedview4"
     showgrid="false"
     inkscape:zoom="0.34980126"
     inkscape:cx="1528.0307"
     inkscape:cy="1421.2267"
     inkscape:window-x="64"
     inkscape:window-y="0"
     inkscape:window-maximized="1"
     inkscape:current-layer="layer1"
     inkscape:document-rotation="0" />
  <g
     inkscape:groupmode="layer"
     id="layer2"
     inkscape:label="artwork"
     sodipodi:insensitive="true">
    <image
       sodipodi:absref="/home/fici/Desktop/P&amp;C/git/webcomics/ep23_Take-a-Chance/lang/sl/../gfx_Pepper-and-Carrot_by-David-Revoy_E23P04.png"
       xlink:href="../gfx_Pepper-and-Carrot_by-David-Revoy_E23P04.png"
       width="2481"
       height="3503"
       id="image10"
       x="0"
       y="0" />
  </g>
  <g
     inkscape:groupmode="layer"
     id="layer3"
     inkscape:label="speechbubbles">
    <path
       style="fill:#ffffff;fill-rule:evenodd;stroke:none;stroke-width:0.93065703px;stroke-linecap:butt;stroke-linejoin:miter;stroke-opacity:1"
       d="m 1625.9911,250.83746 c 11.6345,-31.48473 43.9516,-58.67611 54.2933,-65.83172 10.3416,-7.15562 172.3324,-19.57254 196.8939,-19.57254 24.5609,0 169.9401,12.22237 187.2109,29.5904 17.9247,18.02592 41.4095,65.83174 38.8242,87.2986 -2.5856,21.46688 -29.9486,93.02312 -57.0951,104.47211 -27.1467,11.44902 -169.3436,20.03575 -196.4904,20.03575 -27.1465,0 -144.7822,-5.72449 -173.2215,-24.32913 -28.4395,-18.60461 -50.1367,-61.59309 -50.1367,-70.17984 0,-8.58673 -0.2786,-61.48363 -0.2786,-61.48363 z"
       id="path4246"
       inkscape:connector-curvature="0"
       sodipodi:nodetypes="cssssssssc" />
    <path
       style="fill:#ffffff;fill-rule:evenodd;stroke:none;stroke-width:1px;stroke-linecap:butt;stroke-linejoin:miter;stroke-opacity:1"
       d="m 1857.2028,178.22067 c 3.8122,-24.29312 8.2944,-49.93369 -6.7376,-69.58867 12.7474,9.99691 30.4412,33.00886 28.3517,60.17215 -3.2611,42.39294 -20.8306,11.79987 -20.8306,11.79987 z"
       id="path4248"
       inkscape:connector-curvature="0"
       sodipodi:nodetypes="ccscc" />
    <path
       style="fill:#ffffff;stroke:none;stroke-width:0.94638771"
       d="m 727.61608,1250.7278 c -2.23803,-30.3856 37.88958,-106.4532 233.63021,-100.7316 195.74061,5.7215 257.00441,39.1447 262.74041,93.1553 9.0742,85.4432 -93.9048,108.2765 -241.77325,114.6051 -152.43636,6.5244 -256.96316,-52.1267 -254.59737,-107.0288 z"
       id="path3280-8"
       inkscape:connector-curvature="0"
       sodipodi:nodetypes="csssc" />
    <path
       style="fill:#ffffff;fill-rule:evenodd;stroke:none;stroke-width:1px;stroke-linecap:butt;stroke-linejoin:miter;stroke-opacity:1"
       d="m 1135.2615,1614.0034 c 62.4372,-68.9117 50.4662,-112.8344 43.0951,-140.7709 -7.3709,-27.9366 -35.5004,-47.0985 -60.4628,-44.2772 -24.9624,2.8213 -60.7682,40.0103 -91.8753,13.3179 -31.10718,-26.6923 -26.12898,-75.3915 -4.6982,-109.4603 21.4307,-34.0687 -37.99012,-28.5721 -43.78706,19.5531 -5.79694,48.1251 2.85426,96.4705 35.77176,114.3273 32.9176,17.8569 60.951,8.8491 71.8636,1.9227 12.4313,-7.8903 43.5382,-30.8378 63.1046,-12.878 21.4584,19.6964 47.0755,80.9884 -13.0117,158.2654 z"
       id="path4256"
       inkscape:connector-curvature="0"
       sodipodi:nodetypes="cssssssssc" />
    <path
       style="color:#000000;display:inline;overflow:visible;visibility:visible;fill:#ffffff;fill-opacity:1;fill-rule:nonzero;stroke:none;stroke-width:0.90723532px;marker:none;enable-background:accumulate"
       d="m 1873.2892,1982.2443 c -4.0913,-38.9499 24.2053,-75.3939 60.0049,-83.5933 60.8022,-25.8533 129.9297,-18.1199 191.9854,-2.7827 29.7872,8.6126 60.7497,33.687 76.7718,60.3906 18.6905,32.1923 -9.3874,64.3939 -40.9287,70.117 -60.5999,17.5167 -124.9829,16.5816 -187.3463,11.8709 -28.6568,-5.0304 -61.8512,-2.457 -85.496,-22.0564 -9.6107,-8.3438 -16.4098,-20.8783 -14.9911,-33.9461 z"
       id="path3357"
       inkscape:connector-curvature="0"
       sodipodi:nodetypes="cccccccc" />
    <path
       style="fill:#ffffff;fill-rule:evenodd;stroke:none;stroke-width:1px;stroke-linecap:butt;stroke-linejoin:miter;stroke-opacity:1"
       d="m 1815.7758,2061.2815 c 64.8492,31.0148 134.3976,22.5562 155.0741,-25.3758 23.8742,-55.3449 26.3156,-31.9546 26.3156,-31.9546 0,0 20.7007,14.1323 -2.8196,43.2328 -18.7952,23.2544 -75.4849,87.5238 -178.5701,14.0976 z"
       id="path4281"
       inkscape:connector-curvature="0"
       sodipodi:nodetypes="cscsc" />
    <path
       style="color:#000000;display:inline;overflow:visible;visibility:visible;fill:#ffffff;fill-opacity:1;fill-rule:nonzero;stroke:none;stroke-width:0.98079896px;marker:none;enable-background:accumulate"
       d="m 144.3803,2112.7777 c 17.76375,-36.8457 60.63673,-58.6857 103.30465,-65.5897 47.66789,-8.2398 96.89422,-4.3311 144.32493,3.2594 31.2578,6.0306 62.56546,16.2131 87.36769,34.6939 9.3625,11.1473 19.95456,24.4821 22.87043,37.8601 14.37553,31.707 2.02576,62.6136 -28.26754,104.2796 -33.47818,24.6016 -78.71532,24.6887 -119.77277,27.2029 -46.51005,5.0553 -94.89624,0.4752 -137.97531,-16.4899 -26.77711,-11.3475 -53.67783,-27.5814 -66.40579,-52.3685 -9.29316,-23.4424 -16.18759,-50.4367 -5.44629,-72.8478 z"
       id="path3365"
       inkscape:connector-curvature="0"
       sodipodi:nodetypes="cccccccccc" />
    <path
       style="fill:#ffffff;fill-rule:evenodd;stroke:none;stroke-width:1px;stroke-linecap:butt;stroke-linejoin:miter;stroke-opacity:1"
       d="m 463.97121,2140.9085 c 84.34167,16.1667 252.8523,-49.3553 272.73937,-44.3835 19.88707,4.9717 31.42746,46.6967 63.74394,23.0808 -39.77414,32.3165 -47.23179,-7.4577 -63.39003,-8.7006 -16.15824,-1.243 -197.62775,64.633 -269.71837,62.1471 -72.09063,-2.4859 -3.37491,-32.1438 -3.37491,-32.1438 z"
       id="path4314"
       inkscape:connector-curvature="0"
       sodipodi:nodetypes="cscssc" />
    <path
       style="fill:#ffffff;fill-rule:evenodd;stroke:none;stroke-width:1px;stroke-linecap:butt;stroke-linejoin:miter;stroke-opacity:1"
       d="m 1660.5299,2998.9956 c -36.0453,-51.2804 -41.0171,-112.0072 -26.1018,-137.6474 14.9153,-25.6402 82.0342,-75.5711 0,-143.0453 79.5483,56.6783 49.7177,94.4639 19.8871,147.0937 -29.8306,52.6299 54.6894,144.3948 54.6894,144.3948 z"
       id="path4316"
       inkscape:connector-curvature="0" />
    <path
       style="fill:#ffffff;stroke:none"
       d="m 1482.4222,3067.061 c -1.9683,-26.8142 -29.1406,-93.9409 190.6807,-87.248 172.1458,5.2413 227.3639,9.0236 232.4834,91.2825 4.7474,76.2796 -145.9437,78.2704 -228.1082,79.578 -117.4915,1.8699 -197.1366,-35.1635 -195.0559,-83.6125 z"
       id="path3280-8-9"
       inkscape:connector-curvature="0"
       sodipodi:nodetypes="csssc" />
  </g>
  <g
     inkscape:groupmode="layer"
     id="layer1"
     inkscape:label="txt">
    <text
       xml:space="preserve"
       style="font-style:normal;font-variant:normal;font-weight:normal;font-stretch:normal;line-height:0%;font-family:Lavi;-inkscape-font-specification:Lavi;text-align:center;letter-spacing:0px;word-spacing:0px;text-anchor:middle;fill:#000000;fill-opacity:1;stroke:none"
       x="1860.13"
       y="230.08382"
       id="text4246"><tspan
         sodipodi:role="line"
         style="font-style:italic;font-variant:normal;font-weight:normal;font-stretch:normal;font-size:35.77793884px;line-height:1.25;font-family:Lavi;-inkscape-font-specification:'Lavi Italic'"
         x="1860.13"
         y="230.08382"
         id="tspan43">*Izključuje vikende in</tspan><tspan
         sodipodi:role="line"
         style="font-style:italic;font-variant:normal;font-weight:normal;font-stretch:normal;font-size:35.77793884px;line-height:1.25;font-family:Lavi;-inkscape-font-specification:'Lavi Italic'"
         x="1860.13"
         y="274.80624"
         id="tspan47">državne praznike. Ponudbe</tspan><tspan
         sodipodi:role="line"
         style="font-style:italic;font-variant:normal;font-weight:normal;font-stretch:normal;font-size:35.77793884px;line-height:1.25;font-family:Lavi;-inkscape-font-specification:'Lavi Italic'"
         x="1865.7203"
         y="319.52869"
         id="tspan64">ni možno kombinirati. </tspan><tspan
         sodipodi:role="line"
         style="font-style:italic;font-variant:normal;font-weight:normal;font-stretch:normal;font-size:35.77793884px;line-height:1.25;font-family:Lavi;-inkscape-font-specification:'Lavi Italic'"
         x="1860.13"
         y="364.2511"
         id="tspan474">Velja do omejitve zalog.</tspan></text>
    <text
       xml:space="preserve"
       style="font-style:normal;font-variant:normal;font-weight:normal;font-stretch:normal;line-height:0%;font-family:Lavi;-inkscape-font-specification:Lavi;text-align:center;letter-spacing:0px;word-spacing:0px;text-anchor:middle;fill:#000000;fill-opacity:1;stroke:none"
       x="977.99658"
       y="1209.3514"
       id="text4246-3"><tspan
         sodipodi:role="line"
         style="font-size:45px;line-height:1.25"
         x="977.99658"
         y="1209.3514"
         id="tspan4167">Svetovna</tspan><tspan
         sodipodi:role="line"
         style="font-size:45px;line-height:1.25"
         x="977.99658"
         y="1265.6014"
         id="tspan46">marketinška kampanja</tspan><tspan
         sodipodi:role="line"
         style="font-size:45px;line-height:1.25"
         x="977.99658"
         y="1321.8514"
         id="tspan72">v trenutku!</tspan></text>
    <text
       xml:space="preserve"
       style="font-style:normal;font-variant:normal;font-weight:normal;font-stretch:normal;line-height:0%;font-family:Lavi;-inkscape-font-specification:Lavi;text-align:center;letter-spacing:0px;word-spacing:0px;text-anchor:middle;fill:#000000;fill-opacity:1;stroke:none"
       x="2033.4768"
       y="1955.0511"
       id="text4246-3-7"><tspan
         sodipodi:role="line"
         style="font-size:45px;line-height:1.25"
         x="2033.4768"
         y="1955.0511"
         id="tspan4191">Mednaroden</tspan><tspan
         sodipodi:role="line"
         style="font-size:45px;line-height:1.25"
         x="2033.4768"
         y="2011.3011"
         id="tspan63">sloves!</tspan></text>
    <text
       xml:space="preserve"
       style="font-style:normal;font-variant:normal;font-weight:normal;font-stretch:normal;line-height:0%;font-family:Lavi;-inkscape-font-specification:Lavi;text-align:center;letter-spacing:0px;word-spacing:0px;text-anchor:middle;fill:#000000;fill-opacity:1;stroke:none"
       x="321.29575"
       y="2102.655"
       id="text4246-3-7-6"><tspan
         sodipodi:role="line"
         style="font-size:45px;line-height:1.25"
         x="321.29575"
         y="2102.655"
         id="tspan55">Vključuje</tspan><tspan
         sodipodi:role="line"
         style="font-size:45px;line-height:1.25"
         x="321.29575"
         y="2158.905"
         id="tspan79">osebnega stilista</tspan><tspan
         sodipodi:role="line"
         style="font-size:45px;line-height:1.25"
         x="321.29575"
         y="2215.155"
         id="tspan81">in frizerja!</tspan></text>
    <text
       xml:space="preserve"
       style="font-style:normal;font-variant:normal;font-weight:normal;font-stretch:normal;line-height:0%;font-family:Lavi;-inkscape-font-specification:Lavi;text-align:center;letter-spacing:0px;word-spacing:0px;text-anchor:middle;fill:#000000;fill-opacity:1;stroke:none"
       x="1692.2446"
       y="3051.1169"
       id="text4246-3-7-6-1"><tspan
         sodipodi:role="line"
         style="font-size:45px;line-height:1.25"
         x="1692.2446"
         y="3051.1169"
         id="tspan59">Takojšnji rezultati</tspan><tspan
         sodipodi:role="line"
         style="font-size:45px;line-height:1.25"
         x="1699.2759"
         y="3107.3669"
         id="tspan68">zagotovljeni! </tspan></text>
  </g>
</svg>
