<?xml version="1.0" encoding="UTF-8" standalone="no"?>
<svg
   xmlns:dc="http://purl.org/dc/elements/1.1/"
   xmlns:cc="http://creativecommons.org/ns#"
   xmlns:rdf="http://www.w3.org/1999/02/22-rdf-syntax-ns#"
   xmlns:svg="http://www.w3.org/2000/svg"
   xmlns="http://www.w3.org/2000/svg"
   xmlns:xlink="http://www.w3.org/1999/xlink"
   xmlns:sodipodi="http://sodipodi.sourceforge.net/DTD/sodipodi-0.dtd"
   xmlns:inkscape="http://www.inkscape.org/namespaces/inkscape"
   sodipodi:docname="E20P06.svg"
   height="3503"
   width="2481"
   inkscape:version="1.0 (4035a4fb49, 2020-05-01)"
   version="1.1"
   id="svg2">
  <sodipodi:namedview
     inkscape:document-rotation="0"
     inkscape:window-maximized="0"
     inkscape:window-y="0"
     inkscape:window-x="0"
     inkscape:current-layer="layer1"
     inkscape:cy="2875.9304"
     inkscape:cx="1333.4844"
     inkscape:zoom="0.3900947"
     showgrid="false"
     id="namedview70"
     inkscape:window-height="955"
     inkscape:window-width="1813"
     inkscape:pageshadow="2"
     inkscape:pageopacity="0"
     bordercolor="#666666"
     pagecolor="#ffffff" />
  <metadata
     id="metadata8">
    <rdf:RDF>
      <cc:Work
         rdf:about="">
        <dc:format>image/svg+xml</dc:format>
        <dc:type
           rdf:resource="http://purl.org/dc/dcmitype/StillImage" />
        <dc:title />
      </cc:Work>
    </rdf:RDF>
  </metadata>
  <defs
     id="defs6">
    <filter
       id="filter5558-7"
       inkscape:label="Drop Shadow"
       style="color-interpolation-filters:sRGB">
      <feFlood
         id="feFlood5560-45"
         result="flood"
         flood-color="rgb(0,0,0)"
         flood-opacity="1" />
      <feComposite
         id="feComposite5562-2"
         result="composite1"
         operator="in"
         in2="SourceGraphic"
         in="flood" />
      <feGaussianBlur
         id="feGaussianBlur5564-5"
         result="blur"
         stdDeviation="1"
         in="composite1" />
      <feOffset
         id="feOffset5566-47"
         result="offset"
         dy="2.5"
         dx="2.5" />
      <feComposite
         id="feComposite5568-4"
         result="composite2"
         operator="over"
         in2="offset"
         in="SourceGraphic" />
    </filter>
    <filter
       id="filter5546"
       inkscape:label="Drop Shadow"
       style="color-interpolation-filters:sRGB">
      <feFlood
         id="feFlood5548"
         result="flood"
         flood-color="rgb(0,0,0)"
         flood-opacity="1" />
      <feComposite
         id="feComposite5550"
         result="composite1"
         operator="in"
         in2="SourceGraphic"
         in="flood" />
      <feGaussianBlur
         id="feGaussianBlur5552"
         result="blur"
         stdDeviation="1"
         in="composite1" />
      <feOffset
         id="feOffset5554"
         result="offset"
         dy="2.5"
         dx="2.5" />
      <feComposite
         id="feComposite5556"
         result="composite2"
         operator="over"
         in2="offset"
         in="SourceGraphic" />
    </filter>
    <filter
       id="filter5546-3-4"
       inkscape:label="Drop Shadow"
       style="color-interpolation-filters:sRGB">
      <feFlood
         id="feFlood5548-6-3"
         result="flood"
         flood-color="rgb(0,0,0)"
         flood-opacity="1" />
      <feComposite
         id="feComposite5550-7-0"
         result="composite1"
         operator="in"
         in2="SourceGraphic"
         in="flood" />
      <feGaussianBlur
         id="feGaussianBlur5552-5-78"
         result="blur"
         stdDeviation="1"
         in="composite1" />
      <feOffset
         id="feOffset5554-3-68"
         result="offset"
         dy="2.5"
         dx="2.5" />
      <feComposite
         id="feComposite5556-5-8"
         result="composite2"
         operator="over"
         in2="offset"
         in="SourceGraphic" />
    </filter>
    <filter
       id="filter5522-4"
       inkscape:label="Drop Shadow"
       style="color-interpolation-filters:sRGB">
      <feFlood
         id="feFlood5524-3"
         result="flood"
         flood-color="rgb(0,0,0)"
         flood-opacity="1" />
      <feComposite
         id="feComposite5526-14"
         result="composite1"
         operator="in"
         in2="SourceGraphic"
         in="flood" />
      <feGaussianBlur
         id="feGaussianBlur5528-92"
         result="blur"
         stdDeviation="1"
         in="composite1" />
      <feOffset
         id="feOffset5530-0"
         result="offset"
         dy="2.5"
         dx="2.5" />
      <feComposite
         id="feComposite5532-6"
         result="composite2"
         operator="over"
         in2="offset"
         in="SourceGraphic" />
    </filter>
    <filter
       id="filter5534-8"
       inkscape:label="Drop Shadow"
       style="color-interpolation-filters:sRGB">
      <feFlood
         id="feFlood5536-9"
         result="flood"
         flood-color="rgb(0,0,0)"
         flood-opacity="1" />
      <feComposite
         id="feComposite5538-26"
         result="composite1"
         operator="in"
         in2="SourceGraphic"
         in="flood" />
      <feGaussianBlur
         id="feGaussianBlur5540-64"
         result="blur"
         stdDeviation="1"
         in="composite1" />
      <feOffset
         id="feOffset5542-95"
         result="offset"
         dy="2.5"
         dx="2.5" />
      <feComposite
         id="feComposite5544-0"
         result="composite2"
         operator="over"
         in2="offset"
         in="SourceGraphic" />
    </filter>
  </defs>
  <sodipodi:namedview
     inkscape:current-layer="layer1"
     inkscape:window-maximized="1"
     inkscape:window-y="26"
     inkscape:window-x="0"
     inkscape:cy="568.93827"
     inkscape:cx="874.30747"
     inkscape:zoom="0.80454291"
     showgrid="false"
     id="namedview4"
     inkscape:window-height="1025"
     inkscape:window-width="1920"
     inkscape:pageshadow="2"
     inkscape:pageopacity="0"
     guidetolerance="10"
     gridtolerance="10"
     objecttolerance="10"
     borderopacity="1"
     bordercolor="#666666"
     pagecolor="#ffffff" />
  <g
     sodipodi:insensitive="true"
     inkscape:label="artwork"
     id="layer2"
     inkscape:groupmode="layer">
    <image
       sodipodi:absref="C:\Users\stero\Documents\Kernewek\Pepper and Carrot\webcomics\ep20_The-Picnic\lang\gfx_Pepper-and-Carrot_by-David-Revoy_E20P06.png"
       xlink:href="../gfx_Pepper-and-Carrot_by-David-Revoy_E20P06.png"
       width="2481"
       height="3503"
       id="image10"
       x="0"
       y="0" />
  </g>
  <g
     inkscape:label="speechbubbles"
     id="layer3"
     inkscape:groupmode="layer" />
  <g
     inkscape:label="txt"
     id="layer1"
     inkscape:groupmode="layer">
    <text
       transform="matrix(0.75304346,0,-0.11971288,1.3279446,3e-5,11.481528)"
       id="text4213"
       y="2443.6147"
       x="2028.7821"
       style="font-style:normal;font-variant:normal;font-weight:normal;font-stretch:normal;line-height:0%;font-family:Lavi;-inkscape-font-specification:Lavi;text-align:center;letter-spacing:0px;word-spacing:0px;text-anchor:middle;opacity:1;fill:#ffffff;fill-opacity:1;stroke:#ffffff;stroke-width:3.822;stroke-miterlimit:4;stroke-dasharray:none;stroke-opacity:1;filter:url(#filter5534-8)"
       xml:space="preserve"><tspan
         style="font-size:63.5518px;line-height:1.25;fill:#ffffff;stroke:#ffffff;stroke-width:3.822;stroke-miterlimit:4;stroke-dasharray:none"
         y="2443.6147"
         x="2028.7821"
         id="tspan4215"
         sodipodi:role="line">- FIN -</tspan></text>
    <text
       id="text4246-42"
       y="3299.01"
       x="1240.0964"
       style="font-style:normal;font-variant:normal;font-weight:normal;font-stretch:normal;line-height:0%;font-family:Lavi;-inkscape-font-specification:Lavi;text-align:center;letter-spacing:0px;word-spacing:0px;text-anchor:middle;fill:#ffffff;fill-opacity:1;stroke:#ffffff;filter:url(#filter5522-4)"
       xml:space="preserve"><tspan
         id="tspan4252-9"
         y="3299.01"
         x="1240.0964"
         style="font-size:36.7347px;line-height:1.25;fill:#ffffff;stroke:#ffffff"
         sodipodi:role="line">12/2016 - www.peppercarrot.com - Art &amp; Hwedhel: David Revoy - Treylyans: Steve Harris - Provredyans: Steve Penhaligon</tspan></text>
    <text
       id="text4246-42-4"
       y="3335.1028"
       x="1242.353"
       style="color:#000000;font-style:normal;font-variant:normal;font-weight:normal;font-stretch:normal;line-height:0%;font-family:Lavi;-inkscape-font-specification:Lavi;text-indent:0;text-align:center;text-decoration:none;text-decoration-line:none;letter-spacing:0px;word-spacing:0px;text-transform:none;writing-mode:lr-tb;direction:ltr;baseline-shift:baseline;text-anchor:middle;display:inline;overflow:visible;visibility:visible;opacity:0.855;fill:#ffffff;fill-opacity:1;fill-rule:nonzero;stroke:#ffffff;filter:url(#filter5546);enable-background:accumulate"
       xml:space="preserve"><tspan
         id="tspan4252-9-9"
         y="3335.1028"
         x="1242.353"
         style="color:#000000;font-style:normal;font-variant:normal;font-weight:normal;font-stretch:normal;font-size:27.5px;line-height:125%;font-family:Lavi;-inkscape-font-specification:Lavi;text-indent:0;text-align:center;text-decoration:none;text-decoration-line:none;letter-spacing:0px;word-spacing:0px;text-transform:none;writing-mode:lr-tb;direction:ltr;baseline-shift:baseline;text-anchor:middle;display:inline;overflow:visible;visibility:visible;fill:#ffffff;fill-opacity:1;fill-rule:nonzero;stroke:#ffffff;enable-background:accumulate"
         sodipodi:role="line">Based on the universe of Hereva created by David Revoy with contributions by Craig Maloney. Corrections by Willem Sonke, Moini, Hali, CGand and Alex Gryson.</tspan></text>
    <text
       id="text4229"
       y="3372.8738"
       x="1240.6473"
       style="font-style:normal;font-variant:normal;font-weight:normal;font-stretch:normal;line-height:0%;font-family:Arial;-inkscape-font-specification:Arial;text-align:center;letter-spacing:0px;word-spacing:0px;text-anchor:middle;display:inline;opacity:0.855;fill:#ffffff;fill-opacity:1;stroke:#ffffff;filter:url(#filter5558-7)"
       xml:space="preserve"><tspan
         id="tspan4169"
         style="font-style:normal;font-variant:normal;font-weight:normal;font-stretch:normal;font-size:27.5px;line-height:1.25;font-family:Lavi;-inkscape-font-specification:Lavi;fill:#ffffff;stroke:#ffffff"
         y="3372.8738"
         x="1240.6473"
         sodipodi:role="line">License : Creative Commons Attribution 4.0, Software: Krita 3.1, Inkscape 0.91 on Manjaro XFCE</tspan></text>
  </g>
</svg>
