<?xml version="1.0" encoding="UTF-8" standalone="no"?>
<!-- Created with Inkscape (http://www.inkscape.org/) -->

<svg
   xmlns:dc="http://purl.org/dc/elements/1.1/"
   xmlns:cc="http://creativecommons.org/ns#"
   xmlns:rdf="http://www.w3.org/1999/02/22-rdf-syntax-ns#"
   xmlns:svg="http://www.w3.org/2000/svg"
   xmlns="http://www.w3.org/2000/svg"
   xmlns:xlink="http://www.w3.org/1999/xlink"
   xmlns:sodipodi="http://sodipodi.sourceforge.net/DTD/sodipodi-0.dtd"
   xmlns:inkscape="http://www.inkscape.org/namespaces/inkscape"
   id="svg2"
   version="1.1"
   inkscape:version="0.92.4 5da689c313, 2019-01-14"
   width="2481"
   height="3503"
   sodipodi:docname="E28P04.svg">
  <metadata
     id="metadata8">
    <rdf:RDF>
      <cc:Work
         rdf:about="">
        <dc:format>image/svg+xml</dc:format>
        <dc:type
           rdf:resource="http://purl.org/dc/dcmitype/StillImage" />
        <dc:title></dc:title>
      </cc:Work>
    </rdf:RDF>
  </metadata>
  <defs
     id="defs6">
    <filter
       style="color-interpolation-filters:sRGB"
       id="filter4375-4-1-1-1-9"
       inkscape:label="deevad outline effect">
      <feFlood
         id="feFlood4377-7-9-0-8-1"
         flood-opacity="1"
         flood-color="rgb(222,191,116)"
         result="flood" />
      <feComposite
         id="feComposite4379-3-8-8-2-77"
         in2="SourceGraphic"
         in="flood"
         operator="in"
         result="composite1" />
      <feMorphology
         id="feMorphology4393-1-0-49-8-9"
         operator="dilate"
         radius="4"
         result="result3" />
      <feComposite
         id="feComposite4385-9-5-7-0-8"
         in2="result3"
         in="SourceGraphic"
         operator="over"
         result="composite2" />
    </filter>
    <filter
       style="color-interpolation-filters:sRGB"
       id="filter4375-4-1-1-1-9-6"
       inkscape:label="deevad outline effect">
      <feFlood
         id="feFlood4377-7-9-0-8-1-5"
         flood-opacity="1"
         flood-color="rgb(222,191,116)"
         result="flood" />
      <feComposite
         id="feComposite4379-3-8-8-2-77-6"
         in2="SourceGraphic"
         in="flood"
         operator="in"
         result="composite1" />
      <feMorphology
         id="feMorphology4393-1-0-49-8-9-8"
         operator="dilate"
         radius="4"
         result="result3" />
      <feComposite
         id="feComposite4385-9-5-7-0-8-0"
         in2="result3"
         in="SourceGraphic"
         operator="over"
         result="composite2" />
    </filter>
    <filter
       style="color-interpolation-filters:sRGB"
       id="filter987"
       inkscape:label="deevad outline effect">
      <feFlood
         id="feFlood979"
         flood-opacity="1"
         flood-color="rgb(222,191,116)"
         result="flood" />
      <feComposite
         id="feComposite981"
         in2="SourceGraphic"
         in="flood"
         operator="in"
         result="composite1" />
      <feMorphology
         id="feMorphology983"
         operator="dilate"
         radius="4"
         result="result3" />
      <feComposite
         id="feComposite985"
         in2="result3"
         in="SourceGraphic"
         operator="over"
         result="composite2" />
    </filter>
    <filter
       style="color-interpolation-filters:sRGB"
       id="filter4375-4-1-1-1-9-4"
       inkscape:label="deevad outline effect">
      <feFlood
         id="feFlood4377-7-9-0-8-1-8"
         flood-opacity="1"
         flood-color="rgb(222,191,116)"
         result="flood" />
      <feComposite
         id="feComposite4379-3-8-8-2-77-2"
         in2="SourceGraphic"
         in="flood"
         operator="in"
         result="composite1" />
      <feMorphology
         id="feMorphology4393-1-0-49-8-9-3"
         operator="dilate"
         radius="4"
         result="result3" />
      <feComposite
         id="feComposite4385-9-5-7-0-8-8"
         in2="result3"
         in="SourceGraphic"
         operator="over"
         result="composite2" />
    </filter>
    <filter
       style="color-interpolation-filters:sRGB"
       id="filter1046"
       inkscape:label="deevad outline effect">
      <feFlood
         id="feFlood1038"
         flood-opacity="1"
         flood-color="rgb(222,191,116)"
         result="flood" />
      <feComposite
         id="feComposite1040"
         in2="SourceGraphic"
         in="flood"
         operator="in"
         result="composite1" />
      <feMorphology
         id="feMorphology1042"
         operator="dilate"
         radius="4"
         result="result3" />
      <feComposite
         id="feComposite1044"
         in2="result3"
         in="SourceGraphic"
         operator="over"
         result="composite2" />
    </filter>
    <filter
       style="color-interpolation-filters:sRGB"
       id="filter4375-4-1-1-1-9-4-8"
       inkscape:label="deevad outline effect">
      <feFlood
         id="feFlood4377-7-9-0-8-1-8-7"
         flood-opacity="1"
         flood-color="rgb(222,191,116)"
         result="flood" />
      <feComposite
         id="feComposite4379-3-8-8-2-77-2-7"
         in2="SourceGraphic"
         in="flood"
         operator="in"
         result="composite1" />
      <feMorphology
         id="feMorphology4393-1-0-49-8-9-3-3"
         operator="dilate"
         radius="4"
         result="result3" />
      <feComposite
         id="feComposite4385-9-5-7-0-8-8-5"
         in2="result3"
         in="SourceGraphic"
         operator="over"
         result="composite2" />
    </filter>
    <filter
       style="color-interpolation-filters:sRGB"
       id="filter1105"
       inkscape:label="deevad outline effect">
      <feFlood
         id="feFlood1097"
         flood-opacity="1"
         flood-color="rgb(222,191,116)"
         result="flood" />
      <feComposite
         id="feComposite1099"
         in2="SourceGraphic"
         in="flood"
         operator="in"
         result="composite1" />
      <feMorphology
         id="feMorphology1101"
         operator="dilate"
         radius="4"
         result="result3" />
      <feComposite
         id="feComposite1103"
         in2="result3"
         in="SourceGraphic"
         operator="over"
         result="composite2" />
    </filter>
  </defs>
  <sodipodi:namedview
     pagecolor="#ffffff"
     bordercolor="#666666"
     borderopacity="1"
     objecttolerance="10"
     gridtolerance="10"
     guidetolerance="10"
     inkscape:pageopacity="0"
     inkscape:pageshadow="2"
     inkscape:window-width="1842"
     inkscape:window-height="1051"
     id="namedview4"
     showgrid="false"
     inkscape:zoom="0.33861241"
     inkscape:cx="1239.028"
     inkscape:cy="2257.4098"
     inkscape:window-x="69"
     inkscape:window-y="-9"
     inkscape:window-maximized="1"
     inkscape:current-layer="layer1"
     inkscape:snap-global="false" />
  <g
     inkscape:groupmode="layer"
     id="layer2"
     inkscape:label="artwork"
     sodipodi:insensitive="true">
    <image
       sodipodi:absref="/home/midgard/git/peppercarrot/comics/ep28_The-Festivities/lang/id/../gfx_Pepper-and-Carrot_by-David-Revoy_E28P04.png"
       xlink:href="../gfx_Pepper-and-Carrot_by-David-Revoy_E28P04.png"
       y="0"
       x="0"
       id="image10"
       height="3503"
       width="2481" />
  </g>
  <g
     inkscape:groupmode="layer"
     id="layer3"
     inkscape:label="speechbubbles">
    <path
       style="color:#000000;display:inline;overflow:visible;visibility:visible;fill:#ffffff;fill-opacity:1;fill-rule:nonzero;stroke:none;stroke-width:1.07080305px;marker:none;enable-background:accumulate"
       d="m 162.87568,231.36938 c 4.97751,-43.93429 66.69356,-76.55736 227.33462,-69.62631 86.04801,3.71258 183.75322,5.80685 177.45981,70.15926 -6.29351,64.35234 -146.72479,63.85925 -175.71351,65.60234 -28.98875,1.74317 -179.98893,-3.75267 -206.4215,-25.40709 -16.54618,-13.5551 -23.11591,-27.13047 -22.65942,-40.7282 z"
       id="path4546-6"
       inkscape:connector-curvature="0"
       sodipodi:nodetypes="cssssc" />
    <path
       style="color:#000000;display:inline;overflow:visible;visibility:visible;fill:#ffffff;fill-opacity:1;fill-rule:nonzero;stroke:none;stroke-width:1px;marker:none;enable-background:accumulate"
       d="m 522.95156,341.83676 c -42.01307,-12.55848 -55.95663,-19.27588 -57.24338,-67.82246 -1.28666,-48.54662 -20.9759,-45.84166 -20.9759,-45.84166 l -18.70982,30.00689 c 0,0 10.61745,102.6107 96.9291,83.65723 z"
       id="path3072"
       inkscape:connector-curvature="0" />
    <path
       style="fill:#ffffff;fill-opacity:1;stroke:none;stroke-width:0.91826731"
       d="m 1162.823,905.00661 c -4.5124,-95.23342 43.3188,-126.61703 168.763,-122.28824 125.4442,4.32872 154.9934,71.08928 154.6869,106.30139 -0.5392,61.90355 -21.0125,109.87613 -78.8789,130.98774 -58.809,21.4555 -185.2538,-0.028 -214.2501,-30.86354 -20.8508,-22.17333 -29.4185,-59.24685 -30.3209,-84.13735 z"
       id="path3238"
       inkscape:connector-curvature="0"
       sodipodi:nodetypes="cssssc" />
    <path
       style="color:#000000;display:inline;overflow:visible;visibility:visible;fill:#ffffff;fill-opacity:1;fill-rule:nonzero;stroke:none;stroke-width:0.99999994px;marker:none;enable-background:accumulate"
       d="m 1202.5039,677.28412 c 72.8787,37.68069 84.927,85.98909 79.0153,111.91483 -6.7279,29.50523 -34.8614,35.12104 -34.8614,35.12104 l 55.2996,19.88637 c 34.023,-65.93077 21.1022,-125.89631 -99.4535,-166.92224 z"
       id="path3072-1"
       inkscape:connector-curvature="0"
       sodipodi:nodetypes="csccc" />
    <path
       style="color:#000000;display:inline;overflow:visible;visibility:visible;fill:#ffffff;fill-opacity:1;fill-rule:nonzero;stroke:none;stroke-width:1.01165235px;marker:none;enable-background:accumulate"
       d="m 2302.8791,340.37121 c -105.5867,42.2991 -274.3678,12.41229 -308.3553,-14.09519 -33.9874,-26.50743 -31.8582,-112.3471 5.6321,-145.97594 37.4903,-33.6289 77.4537,-49.79128 176.8464,-49.19483 208.4905,6.8891 211.1702,170.77647 125.8768,209.26596 z"
       id="path4040"
       inkscape:connector-curvature="0"
       sodipodi:nodetypes="csscc" />
    <path
       style="fill:#ffffff;fill-rule:evenodd;stroke:none;stroke-width:1px;stroke-linecap:butt;stroke-linejoin:miter;stroke-opacity:1"
       d="m 2261.4365,336.61572 c -14.8967,27.78135 -16.9465,32.37624 -16.1948,38.97929 0.7516,6.60305 14.7438,14.22693 10.5567,29.15096 -4.1871,14.92405 -44.8499,20.68957 -49.7351,27.13164 -4.8851,6.44207 -11.8101,18.46724 -11.8101,18.46724 0,0 2.4424,-19.675 10.1459,-26.03657 7.7035,-6.36158 35.547,-9.20723 35.9762,-24.23858 0.4293,-15.03135 -15.9529,-17.03818 -15.6309,-28.31169 0.3219,-11.27351 11.4609,-40.56398 11.4609,-40.56398 z"
       id="path922"
       inkscape:connector-curvature="0"
       sodipodi:nodetypes="ccsccscccc" />
    <path
       style="color:#000000;display:inline;overflow:visible;visibility:visible;fill:#ffffff;fill-opacity:1;fill-rule:nonzero;stroke:none;stroke-width:1.00851429px;marker:none;enable-background:accumulate"
       d="m 760.99428,1247.4924 c -0.82136,-33.3711 47.79992,-62.2339 103.65292,-64.5354 55.85291,-2.3014 96.51776,25.9688 101.44593,60.4907 4.92824,34.522 -49.28195,67.8932 -97.74263,69.0439 -48.46066,1.1507 -108.40617,-1.7432 -107.35622,-64.9992 z"
       id="path3565"
       inkscape:connector-curvature="0"
       sodipodi:nodetypes="cscsc" />
    <path
       style="fill:#ffffff;fill-opacity:1;stroke:none;stroke-width:1.09199572"
       d="m 1073.6175,1250.6814 c -2.8577,-33.1575 16.0966,-49.6518 33.3545,-57.4653 21.8719,-9.9025 146.0321,-30.3375 198.6936,6.8159 26.9086,18.9845 29.9934,72.5563 -22.3661,95.7706 -52.3597,23.2142 -139.7444,10.4987 -154.619,6.278 -14.875,-4.2208 -52.088,-15.5227 -55.063,-51.3992 z"
       id="path3659-8"
       inkscape:connector-curvature="0"
       sodipodi:nodetypes="cssssc" />
    <path
       style="color:#000000;display:inline;overflow:visible;visibility:visible;fill:#ffffff;fill-opacity:1;fill-rule:nonzero;stroke:none;stroke-width:1px;marker:none;enable-background:accumulate"
       d="m 762.46876,1339.2067 c 34.84642,4.7576 60.09382,-4.9504 76.31206,-38.0347 16.21824,-33.0844 2.98136,-36.978 2.98136,-36.978 0,0 -22.92398,70.2821 -79.29342,75.0127 z"
       id="path5002"
       inkscape:connector-curvature="0"
       sodipodi:nodetypes="cscc" />
    <path
       style="color:#000000;display:inline;overflow:visible;visibility:visible;fill:#ffffff;fill-opacity:1;fill-rule:nonzero;stroke:none;stroke-width:1px;marker:none;enable-background:accumulate"
       d="m 1200.668,1350.7499 c -22.0187,-23.7251 -28.5842,-33.5373 -15.2378,-70.8777 13.3464,-37.3404 0.5267,-41.9284 0.5267,-41.9284 l -20.1693,16.498 c 0,0 -23.3832,81.59 34.8804,96.3081 z"
       id="path3072-9"
       inkscape:connector-curvature="0" />
    <path
       style="fill:#ffffff;fill-rule:evenodd;stroke:none;stroke-width:1.11978829px;stroke-linecap:butt;stroke-linejoin:miter;stroke-opacity:1"
       d="m 160.51793,2103.148 -24.62164,3.7767 20.24755,-27.6038 -0.0566,-88.3105 -0.50703,-28.3685 -22.09789,-42.4138 26.35122,10.0954 -31.20407,-49.3056 51.40496,19.1084 -6.76161,-22.5271 35.96396,13.2578 327.34715,-3.7704 22.53021,-12.8719 -3.80285,17.1845 44.37957,-16.6932 -17.55425,20.6316 66.82257,-24.1071 -27.13741,39.352 24.5728,-6.6294 -16.99507,27.8235 -2.10826,82.9162 -0.83174,93.3618 25.88661,35.5672 -35.65418,-13.0192 26.9913,48.6029 -70.33124,-26.3755 18.54305,24.8643 -53.71948,-18.0661 12.84433,20.6046 -34.37945,-15.6784 -292.92576,2.4502 -62.98981,19.4353 19.47674,-27.8437 -73.90681,38.1397 58.29603,-65.599 -29.88181,7.7714 z"
       id="path1035"
       inkscape:connector-curvature="0"
       sodipodi:nodetypes="ccccccccccccccccccccccccccccccccccccc" />
    <path
       style="color:#000000;display:inline;overflow:visible;visibility:visible;fill:#ffffff;fill-opacity:1;fill-rule:nonzero;stroke:none;stroke-width:0.99999994px;marker:none;enable-background:accumulate"
       d="m 378.69805,2155.5995 c -3.16206,31.9356 -4.43517,74.4334 -68.81805,64.0726 3.51709,-0.3132 80.93631,37.3214 104.22702,-54.8867 23.29069,-92.2081 14.70299,-105.929 14.70299,-105.929 z"
       id="path4064"
       inkscape:connector-curvature="0"
       sodipodi:nodetypes="ccscc" />
    <path
       style="color:#000000;display:inline;overflow:visible;visibility:visible;fill:#ffffff;fill-opacity:1;fill-rule:nonzero;stroke:none;stroke-width:1.22835612px;marker:none;enable-background:accumulate"
       d="m 941.99095,2642.7004 c -0.93657,-28.7981 15.92105,-48.3809 25.28648,-57.5962 9.36546,-9.2155 68.36707,-29.9502 89.90757,-29.9502 60.9501,2.6149 178.4698,7.7914 157.7209,110.2701 -10.302,34.5578 -79.9884,38.3285 -94.0366,41.7843 -14.0481,3.4559 -66.1388,0.694 -79.2502,-0.4578 -13.1116,-1.1519 -102.43773,-16.8211 -99.62815,-64.0502 z"
       id="path3357"
       inkscape:connector-curvature="0"
       sodipodi:nodetypes="ccccccc" />
    <path
       style="color:#000000;display:inline;overflow:visible;visibility:visible;fill:#ffffff;fill-opacity:1;fill-rule:nonzero;stroke:none;stroke-width:1px;marker:none;enable-background:accumulate"
       d="m 1053.2112,2471.8445 c 42.562,38.1309 30.9091,101.3953 6.44,96.5527 -29.6347,37.5034 -18.094,38.1309 -18.094,38.1309 l 33.2898,-11.0238 c 0,15.4037 79.1436,-58.1295 -21.6358,-123.6598 z"
       id="path3072-92"
       inkscape:connector-curvature="0"
       sodipodi:nodetypes="ccccc" />
    <path
       style="fill:#ffffff;fill-opacity:1;stroke:none;stroke-width:1"
       d="m 2198.3032,1950.6682 c -1.7012,-22.1072 9.5818,-33.1046 19.855,-38.3141 13.0198,-6.6023 87.2062,-21.4795 113.5776,12.0631 12.352,15.711 22.5534,40.8571 -8.6148,56.3349 -31.1683,15.4776 -83.1858,6.9998 -92.0404,4.1857 -8.8546,-2.8142 -31.0066,-10.3495 -32.7774,-34.2696 z"
       id="path3659-8-0"
       inkscape:connector-curvature="0"
       sodipodi:nodetypes="cssssc" />
    <path
       style="fill:#ffffff;fill-rule:evenodd;stroke:none;stroke-width:1px;stroke-linecap:butt;stroke-linejoin:miter;stroke-opacity:1"
       d="m 2173.406,2020.0379 c 29.9739,-13.444 31.8142,4.3615 43.8953,-5.5877 12.0812,-9.9492 4.271,-14.7221 5.9747,-23.2109 2.171,-8.4889 19.5625,-14.6593 25.9584,-21.0552 6.3959,-6.3959 -13.4149,-18.9446 -23.364,-11.838 -9.9492,7.1066 -13.1544,15.8205 -17.4379,23.8227 -2.8816,7.0675 8.1387,18.2141 1.0325,24.61 -7.1066,6.3959 -7.6324,-2.3754 -19.7136,1.1779 -12.0811,3.5533 -16.345,12.0812 -16.345,12.0812 z"
       id="path1097"
       inkscape:connector-curvature="0"
       sodipodi:nodetypes="cccsccsccc" />
    <path
       style="color:#000000;display:inline;overflow:visible;visibility:visible;fill:#ffffff;fill-opacity:1;fill-rule:nonzero;stroke:none;stroke-width:0.95139569px;marker:none;enable-background:accumulate"
       d="m 1957.2772,2442.5266 c 22.5907,-33.0435 41.6864,-65.637 178.5973,-65.0952 137.9345,0.5458 155.4439,0.036 197.8716,29.0958 39.2002,26.8487 36.9432,154.6678 22.8007,215.2839 -14.1427,60.6162 -61.6927,88.424 -196.9314,83.5748 -135.2388,-4.8494 -127.4131,-4.1302 -165.473,-36.4693 -51.938,-44.131 -59.4558,-193.3466 -36.8652,-226.39 z"
       id="path4530"
       inkscape:connector-curvature="0"
       sodipodi:nodetypes="zsssssz" />
    <path
       style="fill:#ffffff;fill-rule:evenodd;stroke:none;stroke-width:1px;stroke-linecap:butt;stroke-linejoin:miter;stroke-opacity:1"
       d="m 2012.3054,2768.4538 c 73.9706,-26.3006 87.1209,-92.0523 87.1209,-133.147 0,-41.0948 -31.232,-85.4771 -31.232,-85.4771 l -19.7255,27.9444 c 0,0 1.6438,4.9314 6.5751,44.3824 4.9314,39.4509 31.2321,82.1895 -42.7385,146.2973 z"
       id="path1167"
       inkscape:connector-curvature="0" />
    <path
       style="color:#000000;display:inline;overflow:visible;visibility:visible;fill:#ffffff;fill-opacity:1;fill-rule:nonzero;stroke:none;stroke-width:0.99999994px;marker:none;enable-background:accumulate"
       d="m 1061.7088,3260.5858 c -9.8478,32.2167 51.8659,121.3348 137.5704,110.5133 -2.9664,-0.2632 -108.5106,25.5291 -160.8486,-69.3197 -45.94784,-83.2682 -16.9236,-118.1415 -16.9236,-118.1415 z"
       id="path4064-6"
       inkscape:connector-curvature="0"
       sodipodi:nodetypes="ccscc" />
    <path
       style="fill:#ffffff;fill-opacity:1;fill-rule:evenodd;stroke:none;stroke-width:1.07591045px;stroke-linecap:butt;stroke-linejoin:miter;stroke-opacity:1"
       d="m 698.45329,2857.7859 21.27478,7.212 -37.37821,-41.7484 58.89844,32.5585 -8.4748,-26.6473 45.57311,20.8719 -8.27847,-20.1319 29.62595,16.8776 17.73706,4.8878 160.07446,-2.5514 58.69269,-20.8995 -10.8434,20.8801 106.995,-38.9097 -44.8055,59.9282 46.9737,-14.0115 -29.7107,45.3106 29.3091,-3.7014 -28.8548,35.9931 22.0971,3.7396 -31.1436,49.197 35.2284,46.1033 -35.6297,-7.3979 29.2042,27.4537 -49.7343,-2.1273 34.1944,43.0655 -50.3192,-12.576 54.4009,76.127 -75.8426,-43.6679 -2.369,26.9157 -48.42051,-35.5782 -132.29099,15.2358 -62.01612,12.5283 17.91523,-22.9345 -68.29554,14.7097 18.80974,-29.6226 -83.83252,41.3539 46.41303,-66.5619 -36.72657,16.9867 28.26727,-42.9696 -25.34689,14.6141 22.14421,-34.6863 -1.98656,-126.0771 z"
       id="path1184"
       inkscape:connector-curvature="0"
       sodipodi:nodetypes="ccccccccccccccccccccccccccccccccccccccccccc" />
    <path
       style="fill:#ffffff;fill-opacity:1;fill-rule:evenodd;stroke:none;stroke-width:1.0124017px;stroke-linecap:butt;stroke-linejoin:miter;stroke-opacity:1"
       d="m 893.0915,3133.9934 -23.48307,-46.9404 40.86767,23.1901 -6.3411,-20.8313 23.01322,14.8938 4.34615,-16.5856 116.34863,11.9747 148.7129,-2.9674 27.798,-10.8621 -7.5196,15.4856 37.203,-16.4042 -12.8798,20.9179 57.5687,-25.9395 -37.1204,53.6703 33.3005,-13.1126 -26.1537,38.5675 22.0705,-6.6369 -18.7987,26.8352 16.6779,-4.3197 -14.9076,19.1138 -3.5125,102.1386 14.1348,17.0242 -19.6758,-3.7381 26.7183,33.5026 -53.2938,-27.4987 16.3158,26.8022 -43.5328,-25.608 4.56,17.0499 -28.8557,-17.5143 -230.54272,5.2081 -22.15699,11.3076 6.87515,-12.7674 -31.20534,14.491 7.19463,-22.2197 -57.35493,32.9718 40.25533,-60.2383 -30.56306,19.567 25.29193,-34.7586 -22.05064,4.3101 10.32934,-17.7434 0.81293,-91.0597 -16.59262,-43.1113 z"
       id="path1186"
       inkscape:connector-curvature="0"
       sodipodi:nodetypes="ccccccccccccccccccccccccccccccccccccccccccc" />
  </g>
  <g
     inkscape:groupmode="layer"
     id="layer1"
     inkscape:label="txt">
    <text
       xml:space="preserve"
       style="font-style:normal;font-variant:normal;font-weight:normal;font-stretch:normal;line-height:0%;font-family:Lavi;-inkscape-font-specification:Lavi;text-align:center;letter-spacing:0px;word-spacing:0px;text-anchor:middle;fill:#000000;fill-opacity:1;stroke:none"
       x="365.81287"
       y="244.88559"
       id="text4246"><tspan
         sodipodi:role="line"
         style="font-size:45px;line-height:1.20000005"
         x="365.81287"
         y="244.88559"
         id="tspan4252">Oh! Ada kamu!</tspan></text>
    <text
       xml:space="preserve"
       style="font-style:normal;font-variant:normal;font-weight:normal;font-stretch:normal;line-height:0%;font-family:Lavi;-inkscape-font-specification:Lavi;text-align:center;letter-spacing:0px;word-spacing:0px;text-anchor:middle;fill:#000000;fill-opacity:1;stroke:none"
       x="1322.7289"
       y="869.69885"
       id="text4246-3"><tspan
         sodipodi:role="line"
         style="font-size:45px;line-height:1.20000005"
         x="1322.7289"
         y="869.69885"
         id="tspan843">Aku sedang</tspan><tspan
         sodipodi:role="line"
         style="font-size:45px;line-height:1.20000005"
         x="1322.7289"
         y="923.69885"
         id="tspan183">banyak</tspan><tspan
         sodipodi:role="line"
         style="font-size:45px;line-height:1.20000005"
         x="1322.7289"
         y="977.69885"
         id="tspan185">pikiran.</tspan></text>
    <text
       xml:space="preserve"
       style="font-style:normal;font-variant:normal;font-weight:normal;font-stretch:normal;font-size:16.56267548px;line-height:0%;font-family:Lavi;-inkscape-font-specification:Lavi;text-align:center;letter-spacing:0px;word-spacing:0px;text-anchor:middle;fill:#ffffff;fill-opacity:1;stroke:#ffffff;stroke-width:0.4101558;stroke-miterlimit:4;stroke-dasharray:none;stroke-opacity:1;opacity:0.6;"
       x="732.62769"
       y="780.9256"
       id="text4246-8"
       transform="matrix(0.97558614,-0.48724083,-0.02659511,1.0383073,0,0)"><tspan
         sodipodi:role="line"
         style="font-size:42.45798111px;line-height:1.25;fill:#ffffff;stroke:#ffffff;stroke-width:0.4101558;stroke-miterlimit:4;stroke-dasharray:none;stroke-opacity:1;"
         x="732.62769"
         y="780.9256"
         id="tspan4150-8">rub</tspan><tspan
         sodipodi:role="line"
         style="font-size:42.45798111px;line-height:1.25;fill:#ffffff;stroke:#ffffff;stroke-width:0.4101558;stroke-miterlimit:4;stroke-dasharray:none;stroke-opacity:1;"
         x="732.62769"
         y="833.99805"
         id="tspan877">rub</tspan></text>
    <text
       xml:space="preserve"
       style="font-style:normal;font-variant:normal;font-weight:normal;font-stretch:normal;line-height:0%;font-family:Lavi;-inkscape-font-specification:Lavi;text-align:center;letter-spacing:0px;word-spacing:0px;text-anchor:middle;fill:#000000;fill-opacity:1;stroke:none"
       x="2164.6655"
       y="198.12625"
       id="text4246-3-7"><tspan
         sodipodi:role="line"
         style="font-size:45px;line-height:1.20000005"
         x="2164.6655"
         y="198.12625"
         id="tspan891">Aku mau</tspan><tspan
         sodipodi:role="line"
         style="font-size:45px;line-height:1.20000005"
         x="2164.6655"
         y="252.12625"
         id="tspan196">masuk. Di luar</tspan><tspan
         sodipodi:role="line"
         style="font-size:45px;line-height:1.20000005"
         x="2164.6655"
         y="306.12625"
         id="tspan200">semakin dingin.</tspan></text>
    <text
       xml:space="preserve"
       style="font-style:normal;font-variant:normal;font-weight:normal;font-stretch:normal;font-size:10.0168314px;line-height:0%;font-family:Lavi;-inkscape-font-specification:Lavi;text-align:center;letter-spacing:0px;word-spacing:0px;text-anchor:middle;fill:#000000;fill-opacity:1;stroke:none;stroke-width:1"
       x="1197.906"
       y="1230.2842"
       id="text4246-3-6"><tspan
         sodipodi:role="line"
         style="font-style:italic;font-variant:normal;font-weight:normal;font-stretch:normal;font-size:37.56311798px;line-height:1.20000005;font-family:Lavi;-inkscape-font-specification:'Lavi Italic';stroke-width:1.19798362"
         x="1197.906"
         y="1230.2842"
         id="tspan843-1">Cepat!</tspan><tspan
         sodipodi:role="line"
         style="font-style:italic;font-variant:normal;font-weight:normal;font-stretch:normal;font-size:37.56311798px;line-height:1.20000005;font-family:Lavi;-inkscape-font-specification:'Lavi Italic';stroke-width:1.19798362"
         x="1197.906"
         y="1275.3599"
         id="tspan953">Dia di sini!</tspan></text>
    <text
       xml:space="preserve"
       style="font-style:normal;font-variant:normal;font-weight:normal;font-stretch:normal;font-size:10.0168314px;line-height:0%;font-family:Lavi;-inkscape-font-specification:Lavi;text-align:center;letter-spacing:0px;word-spacing:0px;text-anchor:middle;fill:#000000;fill-opacity:1;stroke:none;stroke-width:1"
       x="863.71344"
       y="1238.084"
       id="text4246-3-6-2"><tspan
         sodipodi:role="line"
         style="font-style:italic;font-variant:normal;font-weight:normal;font-stretch:normal;font-size:37.56311798px;line-height:1.20000005;font-family:Lavi;-inkscape-font-specification:'Lavi Italic';stroke-width:1.19798362"
         x="863.71344"
         y="1238.084"
         id="tspan843-1-7">Cepat!</tspan><tspan
         sodipodi:role="line"
         style="font-style:italic;font-variant:normal;font-weight:normal;font-stretch:normal;font-size:37.56311798px;line-height:1.20000005;font-family:Lavi;-inkscape-font-specification:'Lavi Italic';stroke-width:1.19798362"
         x="863.71344"
         y="1283.1597"
         id="tspan953-0">Itu dia!</tspan></text>
    <text
       xml:space="preserve"
       style="font-style:normal;font-variant:normal;font-weight:normal;font-stretch:normal;line-height:0%;font-family:Lavi;-inkscape-font-specification:Lavi;text-align:center;letter-spacing:0px;word-spacing:0px;text-anchor:middle;fill:#000000;fill-opacity:1;stroke:none"
       x="391.53293"
       y="1962.1278"
       id="text4246-3-3"><tspan
         sodipodi:role="line"
         style="font-size:45px;line-height:1.20000005"
         x="391.53293"
         y="1962.1278"
         id="tspan1031">Nona Saffron! Bisa</tspan><tspan
         sodipodi:role="line"
         style="font-size:45px;line-height:1.20000005"
         x="391.53293"
         y="2016.1278"
         id="tspan238">berikan beberapa</tspan><tspan
         sodipodi:role="line"
         style="font-size:45px;line-height:1.20000005"
         x="391.53293"
         y="2070.1279"
         id="tspan1033">patah kata untuk</tspan><tspan
         sodipodi:role="line"
         style="font-size:45px;line-height:1.20000005"
         x="391.53293"
         y="2124.1279"
         id="tspan244">Harian Qualicity?</tspan></text>
    <text
       xml:space="preserve"
       style="font-style:normal;font-variant:normal;font-weight:normal;font-stretch:normal;line-height:0%;font-family:Lavi;-inkscape-font-specification:Lavi;text-align:center;letter-spacing:0px;word-spacing:0px;text-anchor:middle;fill:#000000;fill-opacity:1;stroke:none"
       x="1085.2172"
       y="2614.5867"
       id="text4246-3-3-2"><tspan
         sodipodi:role="line"
         style="font-size:45px;line-height:1.10000002"
         x="1085.2172"
         y="2614.5867"
         id="tspan6907">Ya,</tspan><tspan
         sodipodi:role="line"
         style="font-size:45px;line-height:1.10000002"
         x="1085.2172"
         y="2664.0867"
         id="tspan320">tentu saja!</tspan></text>
    <text
       xml:space="preserve"
       style="font-style:normal;font-variant:normal;font-weight:normal;font-stretch:normal;line-height:0%;font-family:Lavi;-inkscape-font-specification:Lavi;text-align:center;letter-spacing:0px;word-spacing:0px;text-anchor:middle;fill:#000000;fill-opacity:1;stroke:none"
       x="2273.3049"
       y="1953.7657"
       id="text4246-3-3-2-2"><tspan
         sodipodi:role="line"
         style="font-size:45px;line-height:1.20000005"
         x="2273.3049"
         y="1953.7657"
         id="tspan1033-7-3">...</tspan></text>
    <text
       xml:space="preserve"
       style="font-style:normal;font-variant:normal;font-weight:normal;font-stretch:normal;line-height:0%;font-family:Lavi;-inkscape-font-specification:Lavi;text-align:center;letter-spacing:0px;word-spacing:0px;text-anchor:middle;fill:#000000;fill-opacity:1;stroke:none"
       x="2156.2603"
       y="2444.8921"
       id="text4246-3-3-7"><tspan
         sodipodi:role="line"
         style="font-size:45px;line-height:1.20000005"
         x="2156.2603"
         y="2444.8921"
         id="tspan1033-2">Kamu lihat,</tspan><tspan
         sodipodi:role="line"
         style="font-size:45px;line-height:1.20000005"
         x="2156.2603"
         y="2498.8921"
         id="tspan1159">Carrot? Aku rasa</tspan><tspan
         sodipodi:role="line"
         style="font-size:45px;line-height:1.20000005"
         x="2156.2603"
         y="2552.8921"
         id="tspan376">aku tahu kenapa</tspan><tspan
         sodipodi:role="line"
         style="font-size:45px;line-height:1.20000005"
         x="2156.2603"
         y="2606.8921"
         id="tspan380">aku sedang tidak</tspan><tspan
         sodipodi:role="line"
         style="font-size:45px;line-height:1.20000005"
         x="2156.2603"
         y="2660.8921"
         id="tspan384">mau bermain.</tspan></text>
    <text
       xml:space="preserve"
       style="font-style:normal;font-variant:normal;font-weight:normal;font-stretch:normal;font-size:79.97832489px;line-height:1.25;font-family:Lavi;-inkscape-font-specification:Lavi;font-variant-ligatures:normal;font-variant-position:normal;font-variant-caps:normal;font-variant-numeric:normal;font-variant-alternates:normal;font-feature-settings:normal;text-indent:0;text-align:start;text-decoration:none;text-decoration-line:none;text-decoration-style:solid;text-decoration-color:#000000;letter-spacing:0px;word-spacing:0px;text-transform:none;writing-mode:lr-tb;direction:ltr;text-orientation:mixed;dominant-baseline:auto;baseline-shift:baseline;text-anchor:start;white-space:normal;shape-padding:0;opacity:1;vector-effect:none;fill:#ffffff;fill-opacity:1;stroke:none;stroke-width:1.78316224;stroke-linecap:butt;stroke-linejoin:miter;stroke-miterlimit:4;stroke-dasharray:none;stroke-dashoffset:0;stroke-opacity:1;filter:url(#filter4375-4-1-1-1-9)"
       x="1191.4009"
       y="2475.9683"
       id="text4246-8-1-3"
       transform="matrix(0.54943791,-0.30590239,-0.01497803,0.74418809,422.11729,526.52481)"><tspan
         sodipodi:role="line"
         style="font-style:normal;font-variant:normal;font-weight:normal;font-stretch:normal;font-size:79.97832489px;line-height:1.25;font-family:Lavi;-inkscape-font-specification:Lavi;font-variant-ligatures:normal;font-variant-position:normal;font-variant-caps:normal;font-variant-numeric:normal;font-variant-alternates:normal;font-feature-settings:normal;text-indent:0;text-align:start;text-decoration:none;text-decoration-line:none;text-decoration-style:solid;text-decoration-color:#000000;letter-spacing:0px;word-spacing:0px;text-transform:none;writing-mode:lr-tb;direction:ltr;text-orientation:mixed;dominant-baseline:auto;baseline-shift:baseline;text-anchor:start;white-space:normal;shape-padding:0;vector-effect:none;fill:#ffffff;fill-opacity:1;stroke:none;stroke-width:1.78316224;stroke-linecap:butt;stroke-linejoin:miter;stroke-miterlimit:4;stroke-dasharray:none;stroke-dashoffset:0;stroke-opacity:1;filter:url(#filter4375-4-1-1-1-9)"
         x="1191.4009"
         y="2475.9683"
         id="tspan877-7-6"
         dx="6"><tspan
           style="font-size:70.07293701px;stroke-width:1.78316224"
           id="tspan964">F</tspan><tspan
           style="font-size:65.1342926px;stroke-width:1.78316224"
           id="tspan962">LASH</tspan></tspan></text>
    <text
       xml:space="preserve"
       style="font-style:normal;font-variant:normal;font-weight:normal;font-stretch:normal;line-height:0%;font-family:Lavi;-inkscape-font-specification:Lavi;text-align:center;letter-spacing:0px;word-spacing:0px;text-anchor:middle;fill:#000000;fill-opacity:1;stroke:none"
       x="907.97455"
       y="2918.0144"
       id="text4246-3-3-75"><tspan
         sodipodi:role="line"
         style="font-size:45px;line-height:1.20000005"
         x="907.97455"
         y="2918.0144"
         id="tspan1033-29">Nona Saffron!</tspan><tspan
         sodipodi:role="line"
         style="font-size:45px;line-height:1.20000005"
         x="907.97455"
         y="2972.0144"
         id="tspan1182">Saya dari</tspan><tspan
         sodipodi:role="line"
         style="font-size:45px;line-height:1.20000005"
         x="907.97455"
         y="3026.0144"
         id="tspan326">Majalah Busana</tspan><tspan
         sodipodi:role="line"
         style="font-size:45px;line-height:1.20000005"
         x="907.97455"
         y="3080.0144"
         id="tspan324">Hereva.</tspan></text>
    <text
       xml:space="preserve"
       style="font-style:normal;font-variant:normal;font-weight:normal;font-stretch:normal;font-size:79.97832489px;line-height:1.25;font-family:Lavi;-inkscape-font-specification:Lavi;font-variant-ligatures:normal;font-variant-position:normal;font-variant-caps:normal;font-variant-numeric:normal;font-variant-alternates:normal;font-feature-settings:normal;text-indent:0;text-align:start;text-decoration:none;text-decoration-line:none;text-decoration-style:solid;text-decoration-color:#000000;letter-spacing:0px;word-spacing:0px;text-transform:none;writing-mode:lr-tb;direction:ltr;text-orientation:mixed;dominant-baseline:auto;baseline-shift:baseline;text-anchor:start;white-space:normal;shape-padding:0;opacity:1;vector-effect:none;fill:#ffffff;fill-opacity:1;stroke:none;stroke-width:1.78316224;stroke-linecap:butt;stroke-linejoin:miter;stroke-miterlimit:4;stroke-dasharray:none;stroke-dashoffset:0;stroke-opacity:1;filter:url(#filter4375-4-1-1-1-9-6)"
       x="1191.4009"
       y="2475.9683"
       id="text4246-8-1-3-2"
       transform="matrix(0.54943791,-0.30590239,-0.01497803,0.74418809,458.46468,856.46021)"><tspan
         sodipodi:role="line"
         style="font-style:normal;font-variant:normal;font-weight:normal;font-stretch:normal;font-size:79.97832489px;line-height:1.25;font-family:Lavi;-inkscape-font-specification:Lavi;font-variant-ligatures:normal;font-variant-position:normal;font-variant-caps:normal;font-variant-numeric:normal;font-variant-alternates:normal;font-feature-settings:normal;text-indent:0;text-align:start;text-decoration:none;text-decoration-line:none;text-decoration-style:solid;text-decoration-color:#000000;letter-spacing:0px;word-spacing:0px;text-transform:none;writing-mode:lr-tb;direction:ltr;text-orientation:mixed;dominant-baseline:auto;baseline-shift:baseline;text-anchor:start;white-space:normal;shape-padding:0;vector-effect:none;fill:#ffffff;fill-opacity:1;stroke:none;stroke-width:1.78316224;stroke-linecap:butt;stroke-linejoin:miter;stroke-miterlimit:4;stroke-dasharray:none;stroke-dashoffset:0;stroke-opacity:1;filter:url(#filter4375-4-1-1-1-9-6)"
         x="1191.4009"
         y="2475.9683"
         id="tspan877-7-6-2"
         dx="6"><tspan
           style="font-size:70.07293701px;stroke-width:1.78316224"
           id="tspan964-3">F</tspan><tspan
           style="font-size:65.1342926px;stroke-width:1.78316224"
           id="tspan962-2">LASH</tspan></tspan></text>
    <text
       xml:space="preserve"
       style="font-style:normal;font-variant:normal;font-weight:normal;font-stretch:normal;font-size:79.97832489px;line-height:1.25;font-family:Lavi;-inkscape-font-specification:Lavi;font-variant-ligatures:normal;font-variant-position:normal;font-variant-caps:normal;font-variant-numeric:normal;font-variant-alternates:normal;font-feature-settings:normal;text-indent:0;text-align:start;text-decoration:none;text-decoration-line:none;text-decoration-style:solid;text-decoration-color:#000000;letter-spacing:0px;word-spacing:0px;text-transform:none;writing-mode:lr-tb;direction:ltr;text-orientation:mixed;dominant-baseline:auto;baseline-shift:baseline;text-anchor:start;white-space:normal;shape-padding:0;opacity:1;vector-effect:none;fill:#ffffff;fill-opacity:1;stroke:none;stroke-width:1.78316224;stroke-linecap:butt;stroke-linejoin:miter;stroke-miterlimit:4;stroke-dasharray:none;stroke-dashoffset:0;stroke-opacity:1;filter:url(#filter4375-4-1-1-1-9-4)"
       x="1191.4009"
       y="2475.9683"
       id="text4246-8-1-3-5"
       transform="matrix(0.54943791,-0.30590239,-0.01497803,0.74418809,36.745484,519.61759)"><tspan
         sodipodi:role="line"
         style="font-style:normal;font-variant:normal;font-weight:normal;font-stretch:normal;font-size:79.97832489px;line-height:1.25;font-family:Lavi;-inkscape-font-specification:Lavi;font-variant-ligatures:normal;font-variant-position:normal;font-variant-caps:normal;font-variant-numeric:normal;font-variant-alternates:normal;font-feature-settings:normal;text-indent:0;text-align:start;text-decoration:none;text-decoration-line:none;text-decoration-style:solid;text-decoration-color:#000000;letter-spacing:0px;word-spacing:0px;text-transform:none;writing-mode:lr-tb;direction:ltr;text-orientation:mixed;dominant-baseline:auto;baseline-shift:baseline;text-anchor:start;white-space:normal;shape-padding:0;vector-effect:none;fill:#ffffff;fill-opacity:1;stroke:none;stroke-width:1.78316224;stroke-linecap:butt;stroke-linejoin:miter;stroke-miterlimit:4;stroke-dasharray:none;stroke-dashoffset:0;stroke-opacity:1;filter:url(#filter4375-4-1-1-1-9-4)"
         x="1191.4009"
         y="2475.9683"
         id="tspan877-7-6-7"
         dx="6"><tspan
           style="font-size:70.07293701px;stroke-width:1.78316224"
           id="tspan964-2">F</tspan><tspan
           style="font-size:65.1342926px;stroke-width:1.78316224"
           id="tspan962-8">LASH</tspan></tspan></text>
    <text
       xml:space="preserve"
       style="font-style:normal;font-variant:normal;font-weight:normal;font-stretch:normal;font-size:79.97832489px;line-height:1.25;font-family:Lavi;-inkscape-font-specification:Lavi;font-variant-ligatures:normal;font-variant-position:normal;font-variant-caps:normal;font-variant-numeric:normal;font-variant-alternates:normal;font-feature-settings:normal;text-indent:0;text-align:start;text-decoration:none;text-decoration-line:none;text-decoration-style:solid;text-decoration-color:#000000;letter-spacing:0px;word-spacing:0px;text-transform:none;writing-mode:lr-tb;direction:ltr;text-orientation:mixed;dominant-baseline:auto;baseline-shift:baseline;text-anchor:start;white-space:normal;shape-padding:0;opacity:1;vector-effect:none;fill:#ffffff;fill-opacity:1;stroke:none;stroke-width:1.78316224;stroke-linecap:butt;stroke-linejoin:miter;stroke-miterlimit:4;stroke-dasharray:none;stroke-dashoffset:0;stroke-opacity:1;filter:url(#filter4375-4-1-1-1-9-4-8)"
       x="1191.4009"
       y="2475.9683"
       id="text4246-8-1-3-5-3"
       transform="matrix(0.54943791,-0.30590239,-0.01497803,0.74418809,-266.75729,810.46654)"><tspan
         sodipodi:role="line"
         style="font-style:normal;font-variant:normal;font-weight:normal;font-stretch:normal;font-size:79.97832489px;line-height:1.25;font-family:Lavi;-inkscape-font-specification:Lavi;font-variant-ligatures:normal;font-variant-position:normal;font-variant-caps:normal;font-variant-numeric:normal;font-variant-alternates:normal;font-feature-settings:normal;text-indent:0;text-align:start;text-decoration:none;text-decoration-line:none;text-decoration-style:solid;text-decoration-color:#000000;letter-spacing:0px;word-spacing:0px;text-transform:none;writing-mode:lr-tb;direction:ltr;text-orientation:mixed;dominant-baseline:auto;baseline-shift:baseline;text-anchor:start;white-space:normal;shape-padding:0;vector-effect:none;fill:#ffffff;fill-opacity:1;stroke:none;stroke-width:1.78316224;stroke-linecap:butt;stroke-linejoin:miter;stroke-miterlimit:4;stroke-dasharray:none;stroke-dashoffset:0;stroke-opacity:1;filter:url(#filter4375-4-1-1-1-9-4-8)"
         x="1191.4009"
         y="2475.9683"
         id="tspan877-7-6-7-9"
         dx="6"><tspan
           style="font-size:70.07293701px;stroke-width:1.78316224"
           id="tspan964-2-0">F</tspan><tspan
           style="font-size:65.1342926px;stroke-width:1.78316224"
           id="tspan962-8-8">LASH</tspan></tspan></text>
    <text
       xml:space="preserve"
       style="font-style:normal;font-variant:normal;font-weight:normal;font-stretch:normal;line-height:0%;font-family:Lavi;-inkscape-font-specification:Lavi;text-align:center;letter-spacing:0px;word-spacing:0px;text-anchor:middle;fill:#000000;fill-opacity:1;stroke:none"
       x="1078.6564"
       y="3132.7102"
       id="text4246-3-3-75-1"><tspan
         sodipodi:role="line"
         style="font-size:45px;line-height:1.20000005"
         x="1078.6564"
         y="3136.2078"
         id="tspan6909-5" /><tspan
         sodipodi:role="line"
         style="font-size:45px;line-height:1.20000005"
         x="1078.6564"
         y="3172.8257"
         id="tspan6848-2">Design siapa</tspan><tspan
         sodipodi:role="line"
         style="font-size:45px;line-height:1.20000005"
         x="1078.6564"
         y="3226.8257"
         id="tspan333">yang Anda pakai</tspan><tspan
         sodipodi:role="line"
         style="font-size:45px;line-height:1.20000005"
         x="1078.6564"
         y="3280.8257"
         id="tspan335">malam ini?</tspan></text>
  </g>
</svg>
