<?xml version="1.0" encoding="UTF-8" standalone="no"?>
<svg
   id="svg2"
   version="1.1"
   inkscape:version="1.1.1 (3bf5ae0d25, 2021-09-20, custom)"
   width="2481"
   height="3503"
   sodipodi:docname="E35P01.svg"
   xmlns:inkscape="http://www.inkscape.org/namespaces/inkscape"
   xmlns:sodipodi="http://sodipodi.sourceforge.net/DTD/sodipodi-0.dtd"
   xmlns:xlink="http://www.w3.org/1999/xlink"
   xmlns="http://www.w3.org/2000/svg"
   xmlns:svg="http://www.w3.org/2000/svg"
   xmlns:rdf="http://www.w3.org/1999/02/22-rdf-syntax-ns#"
   xmlns:cc="http://creativecommons.org/ns#"
   xmlns:dc="http://purl.org/dc/elements/1.1/">
  <metadata
     id="metadata8">
    <rdf:RDF>
      <cc:Work
         rdf:about="">
        <dc:format>image/svg+xml</dc:format>
        <dc:type
           rdf:resource="http://purl.org/dc/dcmitype/StillImage" />
        <dc:title />
      </cc:Work>
    </rdf:RDF>
  </metadata>
  <defs
     id="defs6" />
  <sodipodi:namedview
     pagecolor="#ffffff"
     bordercolor="#666666"
     borderopacity="1"
     objecttolerance="10"
     gridtolerance="10"
     guidetolerance="10"
     inkscape:pageopacity="0"
     inkscape:pageshadow="2"
     inkscape:window-width="1888"
     inkscape:window-height="1146"
     id="namedview4"
     showgrid="false"
     inkscape:zoom="0.42773946"
     inkscape:cx="1306.8703"
     inkscape:cy="2547.1113"
     inkscape:window-x="32"
     inkscape:window-y="0"
     inkscape:window-maximized="1"
     inkscape:current-layer="layer1"
     inkscape:document-rotation="0"
     inkscape:pagecheckerboard="0" />
  <g
     inkscape:groupmode="layer"
     id="layer2"
     inkscape:label="artwork"
     sodipodi:insensitive="true">
    <image
       xlink:href="../gfx_Pepper-and-Carrot_by-David-Revoy_E35P01.png"
       y="0"
       x="0"
       id="image10"
       height="3503.4727"
       width="2481" />
  </g>
  <g
     inkscape:groupmode="layer"
     id="layer3"
     inkscape:label="speechbubbles">
    <path
       style="color:#000000;display:inline;overflow:visible;visibility:visible;fill:#ffffff;fill-opacity:1;fill-rule:nonzero;stroke:none;stroke-width:0.534627px;marker:none;enable-background:accumulate"
       d="m 897.55941,2620.1629 c -61.34839,0.2941 -152.41391,-5.1761 -173.35935,-24.4254 -20.94535,-19.2493 -22.91981,-50.9543 10.45228,-64.2259 33.372,-13.2717 93.72937,-20.1603 147.05571,-19.5607 53.32625,0.6001 124.67945,10.167 144.38375,28.2358 19.7043,18.0684 11.992,59.5105 -54.38386,71.3946 -66.3761,11.8843 -74.14853,8.5816 -74.14853,8.5816 z"
       id="path3970-3"
       inkscape:connector-curvature="0"
       sodipodi:nodetypes="cccscsc" />
    <path
       style="color:#000000;display:inline;overflow:visible;visibility:visible;fill:#ffffff;fill-opacity:1;fill-rule:nonzero;stroke:none;stroke-width:0.686055px;marker:none;enable-background:accumulate"
       d="m 928.05894,2762.7013 c -65.6881,0.4525 -163.19544,-7.9604 -185.62253,-37.5642 -22.42699,-29.6038 -24.54113,-78.3632 11.19165,-98.7739 35.73269,-20.4109 100.35964,-31.0049 157.45817,-30.0828 57.09855,0.9229 133.49917,15.6361 154.59727,43.4243 21.0982,27.7878 12.8404,91.522 -58.231,109.7991 -71.07135,18.2769 -79.39356,13.1975 -79.39356,13.1975 z"
       id="path3970-3-3"
       inkscape:connector-curvature="0"
       sodipodi:nodetypes="cccscsc" />
    <path
       style="fill:#ffffff;fill-rule:evenodd;stroke:none;stroke-width:1.06225px;stroke-linecap:butt;stroke-linejoin:miter;stroke-opacity:1"
       d="m 1050.9911,2720.7691 c 16.785,-19.6056 38.6627,-36.0206 49.0019,-34.6196 10.3392,1.401 38.8276,20.2647 44.0486,-5.9091 5.221,-26.1736 -0.464,-38.1966 10.459,-36.0914 10.9231,2.1053 27.5797,11.864 30.0863,25.9568 -8.4109,-33.022 -32.6982,-39.4387 -40.8556,-33.0423 -8.1574,6.3964 -12.4748,9.1065 -15.8247,34.4602 -6.2288,19.6797 -15.2021,-31.4488 -75.7503,-2.4836 -29.6051,28.4958 -1.1652,51.729 -1.1652,51.729 z"
       id="path1085"
       inkscape:connector-curvature="0"
       sodipodi:nodetypes="cscscsccc" />
    <path
       style="color:#000000;display:inline;overflow:visible;visibility:visible;fill:#ffffff;fill-opacity:1;fill-rule:nonzero;stroke:none;stroke-width:0.869271px;marker:none;enable-background:accumulate"
       d="m 1631.3469,2557.215 c -3.6006,-71.476 -15.5323,-78.7865 120.4595,-82.6363 73.4881,-2.0805 198.9916,2.8888 190.4145,107.6378 -8.5773,104.7479 -127.5864,96.1215 -152.2458,97.354 -24.6596,1.2325 -167.9602,-9.9471 -156.0302,-46.7844 7.4679,-23.0594 -1.9979,-53.3894 -2.598,-75.5711 z"
       id="path4546-1"
       inkscape:connector-curvature="0"
       sodipodi:nodetypes="cssssc" />
    <path
       style="fill:#ffffff;stroke:none;stroke-width:1.75731"
       d="m 1900.6372,3306.7841 c -3.1967,-104.602 34.4697,-183.4639 220.3963,-175.6736 185.9266,7.7904 280.2595,-2.5287 282.9398,141.4399 0.9573,51.4187 11.7025,112.4549 -16.9742,134.7929 -47.2458,36.8027 -154.4796,15.8228 -241.624,22.6773 -144.3643,11.3552 -235.3045,-27.0051 -244.7379,-123.2365 z"
       id="path3280-81"
       inkscape:connector-curvature="0"
       sodipodi:nodetypes="cssssc" />
    <path
       style="color:#000000;display:inline;overflow:visible;visibility:visible;fill:#ffffff;fill-opacity:1;fill-rule:nonzero;stroke:none;stroke-width:1.06477px;marker:none;enable-background:accumulate"
       d="m 1817.0417,2640.5077 c -17.7418,51.5577 -0.5352,96.2189 44.4232,120.3111 -75.8904,-27.089 -92.8027,-105.8188 -83.4584,-127.2019 9.1494,-20.9367 39.0352,6.8908 39.0352,6.8908 z"
       id="path5010-4"
       inkscape:connector-curvature="0"
       sodipodi:nodetypes="ccsc" />
    <path
       style="color:#000000;display:inline;overflow:visible;visibility:visible;fill:#ffffff;fill-opacity:1;fill-rule:nonzero;stroke:none;stroke-width:1px;marker:none;enable-background:accumulate"
       d="m 2181.6979,3039.5111 c 15.5881,37.565 19.0292,51.8083 -13.2212,86.5196 -32.2502,34.7102 -19.1075,46.3288 -19.1075,46.3288 l 31.133,-8.0771 c 0,0 63.6316,-78.7837 1.1957,-124.7713 z"
       id="path3072-56"
       inkscape:connector-curvature="0" />
  </g>
  <g
     inkscape:groupmode="layer"
     id="layer1"
     inkscape:label="txt">
    <text
       xml:space="preserve"
       style="font-style:normal;font-variant:normal;font-weight:normal;font-stretch:normal;font-size:45px;line-height:1.25;font-family:Lavi;-inkscape-font-specification:Lavi;text-align:center;letter-spacing:0px;word-spacing:0px;text-anchor:middle;fill:#000000;fill-opacity:1;stroke:none"
       x="865.12811"
       y="2578.4941"
       id="text4246-3-2-2"><tspan
         style="font-size:45px"
         sodipodi:role="line"
         x="865.12811"
         y="2578.4941"
         id="tspan3200">Oh, buden si!</tspan></text>
    <text
       xml:space="preserve"
       style="font-style:normal;font-variant:normal;font-weight:normal;font-stretch:normal;font-size:45px;line-height:1.25;font-family:Lavi;-inkscape-font-specification:Lavi;text-align:center;letter-spacing:0px;word-spacing:0px;text-anchor:middle;fill:#000000;fill-opacity:1;stroke:none"
       x="899.88464"
       y="2663.1714"
       id="text4246-3-2-2-3"><tspan
         style="font-size:45px"
         sodipodi:role="line"
         x="899.88464"
         y="2663.1714"
         id="tspan857">Si v redu?</tspan><tspan
         style="font-size:45px"
         sodipodi:role="line"
         x="899.88464"
         y="2719.4214"
         id="tspan4124">Ni premrzlo?</tspan></text>
    <text
       xml:space="preserve"
       style="font-style:normal;font-variant:normal;font-weight:normal;font-stretch:normal;font-size:45px;line-height:1.25;font-family:Lavi;-inkscape-font-specification:Lavi;text-align:center;letter-spacing:0px;word-spacing:0px;text-anchor:middle;fill:#000000;fill-opacity:1;stroke:none"
       x="1781.5698"
       y="2529.6841"
       id="text4246-3-2-2-3-3"><tspan
         style="font-size:45px"
         sodipodi:role="line"
         x="1781.5698"
         y="2529.6841"
         id="tspan870">Oprosti,</tspan><tspan
         style="font-size:45px"
         sodipodi:role="line"
         x="1781.5698"
         y="2585.9341"
         id="tspan15389">moja Rea bo</tspan><tspan
         style="font-size:45px"
         sodipodi:role="line"
         x="1781.5698"
         y="2642.1841"
         id="tspan29070">kmalu pošla</tspan></text>
    <text
       xml:space="preserve"
       style="font-style:normal;font-variant:normal;font-weight:normal;font-stretch:normal;font-size:45px;line-height:1.25;font-family:Lavi;-inkscape-font-specification:Lavi;text-align:center;letter-spacing:0px;word-spacing:0px;text-anchor:middle;fill:#000000;fill-opacity:1;stroke:none"
       x="2156.2852"
       y="3212.0527"
       id="text4246-3-2-2-3-3-9"><tspan
         style="font-size:45px"
         sodipodi:role="line"
         x="2156.2852"
         y="3212.0527"
         id="tspan905">in moja Aura je</tspan><tspan
         style="font-size:45px"
         sodipodi:role="line"
         x="2156.2852"
         y="3268.3027"
         id="tspan24878">prešibka da bi naju</tspan><tspan
         style="font-size:45px"
         sodipodi:role="line"
         x="2156.2852"
         y="3324.5527"
         id="tspan52772">na tej višina varovala</tspan><tspan
         style="font-size:45px"
         sodipodi:role="line"
         x="2156.2852"
         y="3380.8027"
         id="tspan24884">pred mrazom.</tspan></text>
  </g>
</svg>
