<?xml version="1.0" encoding="UTF-8" standalone="no"?>
<svg
   xmlns:dc="http://purl.org/dc/elements/1.1/"
   xmlns:cc="http://creativecommons.org/ns#"
   xmlns:rdf="http://www.w3.org/1999/02/22-rdf-syntax-ns#"
   xmlns:svg="http://www.w3.org/2000/svg"
   xmlns="http://www.w3.org/2000/svg"
   xmlns:xlink="http://www.w3.org/1999/xlink"
   xmlns:sodipodi="http://sodipodi.sourceforge.net/DTD/sodipodi-0.dtd"
   xmlns:inkscape="http://www.inkscape.org/namespaces/inkscape"
   id="svg2"
   version="1.1"
   inkscape:version="1.0.2-2 (e86c870879, 2021-01-15)"
   width="2481"
   height="3503"
   sodipodi:docname="E34P01.svg">
  <metadata
     id="metadata8">
    <rdf:RDF>
      <cc:Work
         rdf:about="">
        <dc:format>image/svg+xml</dc:format>
        <dc:type
           rdf:resource="http://purl.org/dc/dcmitype/StillImage" />
        <dc:title />
      </cc:Work>
    </rdf:RDF>
  </metadata>
  <defs
     id="defs6">
    <filter
       inkscape:collect="always"
       style="color-interpolation-filters:sRGB"
       id="filter7961"
       x="-0.0038362744"
       width="1.0076725"
       y="-0.012583922"
       height="1.0251678"
       inkscape:label="blur-layer-whisper">
      <feGaussianBlur
         inkscape:collect="always"
         stdDeviation="2.6222679"
         id="feGaussianBlur7963" />
    </filter>
    <filter
       style="color-interpolation-filters:sRGB;"
       inkscape:label="narrator-drop-shadow"
       id="filter8274"
       width="1.3"
       height="1.5">
      <feFlood
         flood-opacity="0.603922"
         flood-color="rgb(0,21,64)"
         result="flood"
         id="feFlood8264" />
      <feComposite
         in="flood"
         in2="SourceGraphic"
         operator="in"
         result="composite1"
         id="feComposite8266" />
      <feGaussianBlur
         in="composite1"
         stdDeviation="2.0230825044646368"
         result="blur"
         id="feGaussianBlur8268" />
      <feOffset
         dx="-7.4077921838061513"
         dy="4.8380533854166714"
         result="offset"
         id="feOffset8270" />
      <feComposite
         in="SourceGraphic"
         in2="offset"
         operator="over"
         result="fbSourceGraphic"
         id="feComposite8272" />
      <feColorMatrix
         result="fbSourceGraphicAlpha"
         in="fbSourceGraphic"
         values="0 0 0 -1 0 0 0 0 -1 0 0 0 0 -1 0 0 0 0 1 0"
         id="feColorMatrix8420" />
      <feFlood
         id="feFlood8422"
         flood-opacity="0.061934527228860295"
         flood-color="rgb(0,12,37)"
         result="flood"
         in="fbSourceGraphic" />
      <feComposite
         in2="fbSourceGraphic"
         id="feComposite8424"
         in="flood"
         operator="in"
         result="composite1" />
      <feGaussianBlur
         id="feGaussianBlur8426"
         in="composite1"
         stdDeviation="1"
         result="blur" />
      <feOffset
         id="feOffset8428"
         dx="-3.3194756113327486"
         dy="-2.8318869588504754"
         result="offset" />
      <feComposite
         in2="offset"
         id="feComposite8430"
         in="fbSourceGraphic"
         operator="over"
         result="composite2" />
    </filter>
  </defs>
  <sodipodi:namedview
     pagecolor="#ffffff"
     bordercolor="#666666"
     borderopacity="1"
     objecttolerance="10"
     gridtolerance="10"
     guidetolerance="10"
     inkscape:pageopacity="0"
     inkscape:pageshadow="2"
     inkscape:window-width="1798"
     inkscape:window-height="905"
     id="namedview4"
     showgrid="false"
     inkscape:zoom="0.33589188"
     inkscape:cx="1908.6472"
     inkscape:cy="2686.2414"
     inkscape:window-x="85"
     inkscape:window-y="50"
     inkscape:window-maximized="0"
     inkscape:current-layer="layer4"
     inkscape:document-rotation="0"
     borderlayer="true"
     inkscape:snap-global="false" />
  <g
     inkscape:groupmode="layer"
     id="layer2"
     inkscape:label="artwork"
     sodipodi:insensitive="true">
    <image
       sodipodi:absref="/home/peppercarrot/webcomics/"
       xlink:href="../gfx_Pepper-and-Carrot_by-David-Revoy_E34P01.png"
       width="2481"
       height="3503.7233"
       id="image10"
       x="0"
       y="0" />
  </g>
  <g
     inkscape:groupmode="layer"
     id="layer3"
     inkscape:label="speechbubbles-whisper"
     style="display:inline;opacity:0.65;filter:url(#filter7961)">
    <path
       id="path1299"
       style="fill:#e0ffff;fill-rule:evenodd;stroke:none;stroke-width:1.27565px;stroke-linecap:butt;stroke-linejoin:miter;stroke-opacity:1"
       d="m 1485.3067,2606.6922 c -45.0734,2.2687 -90.5359,3.8666 -134.7756,12.4347 -36.5492,8.4911 -71.7797,21.8992 -102.0759,40.998 -24.3609,16.8565 -41.1735,41.669 -42.8164,67.7536 -1.4496,29.316 19.0801,57.8579 50.0557,71.8393 22.919,10.9119 48.0084,18.3167 72.768,25.9846 36.034,10.1765 74.4513,14.0012 112.6535,14.0584 46.5985,0.5028 93.189,-2.2256 139.7386,-4.4094 37.0061,-1.929 74.433,-4.4509 110.1367,-13.6354 21.3429,-5.7133 41.3224,-15.4306 56.833,-28.8994 12.489,-10.3159 24.2743,-22.1314 28.9558,-36.3557 4.9891,-15.7601 2.1072,-32.2996 -3.4522,-47.5305 -7.169,-18.9203 -21.4372,-35.5922 -39.2707,-48.7355 -19.6403,-14.5939 -41.8196,-27.1878 -66.6063,-35.3007 -12.5599,-4.2243 -25.799,-6.9894 -39.22,-8.8185 -34.0021,-5.1218 -68.6017,-7.2469 -103.1311,-9.0592 -13.2464,-0.4896 -26.5215,-0.5562 -39.7931,-0.3243 z" />
    <path
       style="fill:#e0ffff;fill-rule:evenodd;stroke:none;stroke-width:1.42105px;stroke-linecap:butt;stroke-linejoin:miter;stroke-opacity:1"
       d="m 1309.393,2529.33 c -20.6915,0.5715 -41.73,3.124 -60.6242,10.569 -22.3365,9.335 -37.822,29.5951 -37.7682,50.6444 0.5025,10.9745 6.7685,21.3476 15.5687,29.2934 6.3224,5.6779 14.2595,9.8604 22.5374,13.2307 16.6664,7.0126 35.3437,10.2679 53.9211,10.4477 29.6008,1.3792 59.5433,-0.345 88.3519,-6.3959 13.5577,-2.9712 27.0559,-7.7122 37.1029,-16.162 10.2844,-8.3459 17.8224,-19.6239 18.7119,-31.7683 0.273,-10.8875 -5.3471,-21.2253 -12.665,-29.9724 -9.3254,-11.6163 -23.5761,-20.6918 -39.9667,-23.8402 -19.9408,-4.5851 -40.7451,-5.1076 -61.2768,-5.8492 -7.962,-0.1945 -15.9281,-0.2195 -23.893,-0.1972 z"
       id="path1285"
       inkscape:connector-curvature="0" />
    <path
       style="font-variation-settings:normal;vector-effect:none;fill:#e0ffff;fill-opacity:1;stroke:none;stroke-width:1.22901px;stroke-linecap:butt;stroke-linejoin:miter;stroke-miterlimit:4;stroke-dasharray:none;stroke-dashoffset:0;stroke-opacity:1;stop-color:#000000"
       d="m 260.37267,2507.3542 c -35.24251,0.9115 -70.62599,7.7927 -98.08614,21.258 -23.13341,10.9628 -42.49887,25.4178 -51.46879,42.3955 -14.887617,30.5388 3.29706,65.8974 44.80006,85.9133 22.50205,11.0477 50.40127,17.2706 78.43358,21.2964 47.38395,6.5542 96.96127,7.2995 144.89022,2.4308 29.03821,-3.4641 57.51336,-10.7465 79.10256,-23.0934 23.41083,-13.4028 38.70357,-32.1551 39.77166,-51.6256 0.7463,-10.9066 -1.43498,-21.8263 -5.00118,-32.5087 -6.08425,-16.6778 -20.87647,-32.4107 -43.14878,-43.2639 -14.85146,-7.3352 -32.68524,-12.3124 -51.30861,-15.1305 -31.78912,-5.2691 -64.8974,-6.7822 -97.74005,-7.478 -13.41176,-0.2122 -26.82923,-0.1976 -40.24453,-0.1939 z"
       id="path3280-8-90"
       inkscape:connector-curvature="0"
       sodipodi:nodetypes="csssc" />
    <path
       style="fill:#e0ffff;fill-opacity:1;fill-rule:evenodd;stroke:none;stroke-width:1.28082px;stroke-linecap:butt;stroke-linejoin:miter;stroke-opacity:1"
       d="m 405.61348,2631.9631 c 42.85265,-5.0607 58.06957,-2.3086 68.49973,0.7202 10.42915,3.0295 34.5561,33.0962 43.85358,53.3011 -34.06156,-36.1486 -48.52756,-39.3772 -65.05064,-34.4498 -16.52311,4.9273 -63.29994,23.4366 -63.29994,23.4366 l 11.09296,-45.4041 z"
       id="path1291"
       inkscape:connector-curvature="0"
       sodipodi:nodetypes="csccccc" />
    <path
       style="fill:#e0ffff;fill-rule:evenodd;stroke:none;stroke-width:0.964753px;stroke-linecap:butt;stroke-linejoin:miter;stroke-opacity:1"
       d="m 1434.2038,2989.2388 c 48.3667,-37.0134 81.9085,-79.2404 77.928,-171.8638 l 30.8393,-3.1198 c -4.7727,67.6875 -17.9327,144.5385 -108.7673,174.9836 z"
       id="path1291-6"
       inkscape:connector-curvature="0"
       sodipodi:nodetypes="cccc" />
  </g>
  <g
     inkscape:groupmode="layer"
     id="layer4"
     inkscape:label="speechbubbles"
     style="display:inline">
    <path
       id="path4040-4-1"
       style="color:#000000;display:inline;overflow:visible;visibility:visible;fill:#ffffff;fill-opacity:1;fill-rule:nonzero;stroke:none;stroke-width:0.903345px;marker:none;enable-background:accumulate"
       d="m 418.31861,1896.0774 c -61.63218,0.546 -123.69076,0.3397 -184.61156,9.8312 -36.04434,6.201 -70.48093,22.2864 -94.74205,47.1811 -11.05694,11.4692 -18.85507,25.4352 -22.09927,40.3207 -5.71966,23.8022 -3.36218,48.6456 3.1262,72.1173 6.87987,23.6799 20.38588,46.4124 41.54726,62.3072 19.13023,14.7185 43.0999,23.7426 67.78743,27.7763 24.53677,4.3859 49.44153,6.9313 74.35418,8.854 69.55502,4.9003 139.36245,2.07 209.01913,1.1928 40.61309,-0.9583 81.75407,-4.4336 120.24086,-16.7712 21.41166,-6.5029 43.01712,-14.5608 59.71152,-28.6007 14.9779,-13.7984 22.19713,-32.5459 27.23518,-50.8485 6.04762,-23.2199 7.95762,-47.4772 4.07391,-71.1168 -4.59398,-23.1486 -18.95522,-44.517 -39.4551,-59.1994 -17.38768,-12.8348 -38.55547,-20.8205 -60.16847,-26.021 -61.51016,-16.3278 -126.2883,-16.9857 -189.92098,-17.054 -5.36616,-0.015 -10.73215,0.01 -16.09824,0.032 z" />
    <path
       style="color:#000000;display:inline;overflow:visible;visibility:visible;fill:#ffffff;fill-opacity:1;fill-rule:nonzero;stroke:none;stroke-width:1.80075px;marker:none;enable-background:accumulate"
       d="m 539.19946,1927.3519 c 7.55014,-44.8382 62.74837,-99.1824 137.61984,-61.3131 -80.77928,-16.5552 -107.19343,39.0539 -106.74645,81.3775 0.39562,37.4602 -16.36437,17.1598 -16.36437,17.1598 z"
       id="path4440-1"
       inkscape:connector-curvature="0"
       sodipodi:nodetypes="ccscc" />
    <path
       style="color:#000000;display:inline;overflow:visible;visibility:visible;fill:#ffffff;fill-opacity:1;fill-rule:nonzero;stroke:none;stroke-width:0.774122px;marker:none;enable-background:accumulate"
       d="m 1797.9375,2838.742 c -22.8492,2.5941 -45.8484,6.1471 -67.4347,15.0673 -11.3653,5.0192 -20.5875,15.2749 -26.1294,27.5302 -4.328,9.6259 -6.4433,20.8902 -4.554,31.7544 2.882,17.7548 14.0353,33.6763 28.7112,40.7039 13.988,7.3046 29.3003,9.9763 44.3773,11.8771 34.7472,4.1258 69.6173,2.1775 104.4199,3.6831 15.2916,0.5793 30.9039,-1.5255 44.8109,-8.7592 11.7296,-5.9879 22.2511,-15.7271 28.3179,-28.7969 4.3985,-9.1181 6.0825,-20.0225 4.2773,-30.4029 -1.4495,-9.349 -5.4856,-18.1027 -11.1057,-25.1567 -8.5876,-11.1973 -20.3816,-18.6282 -32.665,-22.9969 -16.5956,-6.3166 -33.8225,-9.99 -51.0693,-12.6239 -20.5825,-2.8848 -41.3458,-3.1672 -61.9564,-1.8795 z"
       id="path4040-2"
       inkscape:connector-curvature="0"
       sodipodi:nodetypes="zssssz" />
    <path
       style="color:#000000;display:inline;overflow:visible;visibility:visible;fill:#ffffff;fill-opacity:1;fill-rule:nonzero;stroke:none;stroke-width:0.811733px;marker:none;enable-background:accumulate"
       d="m 1970.7532,2998.2521 c 42.5246,54.5422 86.7334,47.5024 118.7066,15.8691 -23.32,34.399 -69.359,69.3478 -144.2603,0.1036 -14.3413,-13.258 25.5537,-15.9727 25.5537,-15.9727 z"
       id="path5010-4"
       inkscape:connector-curvature="0"
       sodipodi:nodetypes="ccsc" />
    <path
       style="color:#000000;display:inline;overflow:visible;visibility:visible;fill:#ffffff;fill-opacity:1;fill-rule:nonzero;stroke:none;stroke-width:0.899543px;marker:none;enable-background:accumulate"
       d="m 1879.45,2929.8563 c -26.1557,0.9792 -53.0971,6.5248 -75.0194,21.9054 -13.5411,9.8877 -21.0656,25.8256 -26.6778,41.392 -6.6452,17.9822 -9.5756,38.5185 -2.8964,56.9566 6.9079,19.0694 22.6057,33.3243 39.7337,42.7423 37.3811,20.6769 81.7749,25.4048 123.277,18.0858 13.4483,-2.3474 27.0156,-5.8994 38.5655,-13.6371 15.1338,-9.6657 26.9546,-24.5763 33.0045,-41.7816 9.5959,-26.0141 7.187,-57.1605 -8.9056,-79.9648 -13.0588,-18.7516 -33.6227,-30.6724 -55.0403,-36.5092 -21.4017,-6.4264 -43.7488,-9.4631 -66.0412,-9.1894 z"
       id="path4040-2-5"
       inkscape:connector-curvature="0"
       sodipodi:nodetypes="zssssz" />
    <rect
       style="color:#000000;overflow:visible;fill:#eeffdb;fill-opacity:0.89322001;stroke:#807e00;stroke-width:8.05223;paint-order:stroke fill markers;stop-color:#000000;filter:url(#filter8274);stroke-opacity:1"
       id="rect8238"
       width="417.40149"
       height="86.261734"
       x="128.97966"
       y="127.99652" />
  </g>
  <g
     inkscape:groupmode="layer"
     id="layer1"
     inkscape:label="txt">
    <text
       xml:space="preserve"
       style="font-style:normal;font-variant:normal;font-weight:normal;font-stretch:normal;font-size:45px;line-height:1.25;font-family:Lavi;-inkscape-font-specification:'Lavi, Normal';text-align:center;letter-spacing:0px;word-spacing:0px;text-anchor:middle;fill:#000000;fill-opacity:1;stroke:none;font-variant-ligatures:normal;font-variant-caps:normal;font-variant-numeric:normal;font-variant-east-asian:normal;"
       x="327.29865"
       y="186.49605"
       id="text4246-3-2-2-35"><tspan
         sodipodi:role="line"
         id="tspan251">В ту же ночь...</tspan></text>
    <text
       xml:space="preserve"
       style="font-style:normal;font-variant:normal;font-weight:normal;font-stretch:normal;font-size:45px;line-height:1.25;font-family:Lavi;-inkscape-font-specification:'Lavi, Normal';font-variant-ligatures:normal;font-variant-caps:normal;font-variant-numeric:normal;font-variant-east-asian:normal;text-align:center;letter-spacing:0px;word-spacing:0px;text-anchor:middle;fill:#000000;fill-opacity:1;stroke:none"
       x="414.41898"
       y="1958.8977"
       id="text4246-3-2-2"><tspan
         sodipodi:role="line"
         id="tspan253"
         x="414.41898"
         y="1958.8977">...и сегодня мы </tspan><tspan
         sodipodi:role="line"
         id="tspan255"
         x="414.41898"
         y="2015.1477"> приветствуем тебя, Ситими,</tspan><tspan
         sodipodi:role="line"
         id="tspan257"
         x="414.41898"
         y="2071.3977"> как нашего самого молодого </tspan><tspan
         sodipodi:role="line"
         id="tspan259"
         x="414.41898"
         y="2127.6477"> Рыцаря Ай.</tspan><tspan
         sodipodi:role="line"
         id="tspan261"
         x="414.41898"
         y="2183.8977"></tspan></text>
    <text
       xml:space="preserve"
       style="font-style:normal;font-variant:normal;font-weight:normal;font-stretch:normal;font-size:45px;line-height:1.25;font-family:Lavi;-inkscape-font-specification:'Lavi, Normal';font-variant-ligatures:normal;font-variant-caps:normal;font-variant-numeric:normal;font-variant-east-asian:normal;text-align:center;letter-spacing:0px;word-spacing:0px;text-anchor:middle;fill:#000000;fill-opacity:1;stroke:none"
       x="311.38574"
       y="2579.76"
       id="text4246-3-2-2-3"><tspan
         sodipodi:role="line"
         id="tspan271"
         x="311.38574"
         y="2579.76">Все еще никаких </tspan><tspan
         sodipodi:role="line"
         id="tspan273"
         x="311.38574"
         y="2636.01">следов Перчинки?</tspan></text>
    <text
       xml:space="preserve"
       style="font-style:normal;font-variant:normal;font-weight:normal;font-stretch:normal;font-size:45px;line-height:1.25;font-family:Lavi;-inkscape-font-specification:'Lavi, Normal';font-variant-ligatures:normal;font-variant-caps:normal;font-variant-numeric:normal;font-variant-east-asian:normal;text-align:center;letter-spacing:0px;word-spacing:0px;text-anchor:middle;white-space:pre;inline-size:253.323;fill:#000000;fill-opacity:1;stroke:none"
       x="1320.327"
       y="2594.489"
       id="text4246-3-2-2-3-5"
       transform="translate(15.914383,7.4907645)"><tspan
         x="1320.327"
         y="2594.489"><tspan>Пока нет.</tspan></tspan></text>
    <text
       xml:space="preserve"
       style="font-style:normal;font-variant:normal;font-weight:normal;font-stretch:normal;font-size:45px;line-height:1.25;font-family:Lavi;-inkscape-font-specification:'Lavi, Normal';font-variant-ligatures:normal;font-variant-caps:normal;font-variant-numeric:normal;font-variant-east-asian:normal;text-align:center;letter-spacing:0px;word-spacing:0px;text-anchor:middle;fill:#000000;fill-opacity:1;stroke:none"
       x="1502.7252"
       y="2694.6829"
       id="text4246-3-2-2-3-5-1"><tspan
         sodipodi:role="line"
         id="tspan277"
         x="1502.7252"
         y="2694.6829">Ей лучше поторопиться,</tspan><tspan
         sodipodi:role="line"
         id="tspan279"
         x="1502.7252"
         y="2750.9329">иначе она пропустит </tspan><tspan
         sodipodi:role="line"
         id="tspan281"
         x="1502.7252"
         y="2807.1829">речь Ситими.</tspan></text>
    <text
       xml:space="preserve"
       style="font-style:normal;font-variant:normal;font-weight:normal;font-stretch:normal;font-size:45px;line-height:1.25;font-family:Lavi;-inkscape-font-specification:'Lavi, Normal';text-align:center;letter-spacing:0px;word-spacing:0px;text-anchor:middle;fill:#000000;fill-opacity:1;stroke:none;font-variant-ligatures:normal;font-variant-caps:normal;font-variant-numeric:normal;font-variant-east-asian:normal;"
       x="1831.7936"
       y="2918.1755"
       id="text4246-3-2-2-3-5-1-7"><tspan
         sodipodi:role="line"
         id="tspan283">Спасибо.</tspan></text>
    <text
       xml:space="preserve"
       style="font-style:normal;font-variant:normal;font-weight:normal;font-stretch:normal;font-size:45px;line-height:1.25;font-family:Lavi;-inkscape-font-specification:'Lavi, Normal';font-variant-ligatures:normal;font-variant-caps:normal;font-variant-numeric:normal;font-variant-east-asian:normal;text-align:center;letter-spacing:0px;word-spacing:0px;text-anchor:middle;fill:#000000;fill-opacity:1;stroke:none"
       x="1900.299"
       y="3004.887"
       id="text4246-3-2-2-3-5-1-7-3"><tspan
         sodipodi:role="line"
         id="tspan285"
         x="1900.299"
         y="3004.887">Я бы</tspan><tspan
         sodipodi:role="line"
         id="tspan287"
         x="1900.299"
         y="3061.137">хотела...</tspan></text>
  </g>
</svg>
