<?xml version="1.0" encoding="UTF-8" standalone="no"?>
<svg
   xmlns:dc="http://purl.org/dc/elements/1.1/"
   xmlns:cc="http://creativecommons.org/ns#"
   xmlns:rdf="http://www.w3.org/1999/02/22-rdf-syntax-ns#"
   xmlns:svg="http://www.w3.org/2000/svg"
   xmlns="http://www.w3.org/2000/svg"
   xmlns:xlink="http://www.w3.org/1999/xlink"
   xmlns:sodipodi="http://sodipodi.sourceforge.net/DTD/sodipodi-0.dtd"
   xmlns:inkscape="http://www.inkscape.org/namespaces/inkscape"
   sodipodi:docname="E33P04.svg"
   height="3503"
   width="2481"
   inkscape:version="0.92.5 (2060ec1f9f, 2020-04-08)"
   version="1.1"
   id="svg2">
  <metadata
     id="metadata8">
    <rdf:RDF>
      <cc:Work
         rdf:about="">
        <dc:format>image/svg+xml</dc:format>
        <dc:type
           rdf:resource="http://purl.org/dc/dcmitype/StillImage" />
        <dc:title />
      </cc:Work>
    </rdf:RDF>
  </metadata>
  <defs
     id="defs6">
    <filter
       inkscape:collect="always"
       style="color-interpolation-filters:sRGB"
       id="filter1058"
       x="-0.0084350929"
       width="1.0168701"
       y="-0.01927926"
       height="1.0385585"
       inkscape:label="army-sound">
      <feGaussianBlur
         inkscape:collect="always"
         stdDeviation="0.67074246"
         id="feGaussianBlur1060" />
    </filter>
    <filter
       inkscape:collect="always"
       style="color-interpolation-filters:sRGB"
       id="filter987"
       x="-0.011428907"
       width="1.0228578"
       y="-0.023359915"
       height="1.0467198"
       inkscape:label="army-sound_background">
      <feGaussianBlur
         inkscape:collect="always"
         stdDeviation="1.036897"
         id="feGaussianBlur989" />
    </filter>
  </defs>
  <sodipodi:namedview
     inkscape:snap-global="false"
     inkscape:document-rotation="0"
     inkscape:current-layer="layer1"
     inkscape:window-maximized="1"
     inkscape:window-y="24"
     inkscape:window-x="0"
     inkscape:cy="1484.6798"
     inkscape:cx="578.72981"
     inkscape:zoom="0.32526912"
     showgrid="false"
     id="namedview4"
     inkscape:window-height="707"
     inkscape:window-width="1366"
     inkscape:pageshadow="2"
     inkscape:pageopacity="0"
     guidetolerance="10"
     gridtolerance="10"
     objecttolerance="10"
     borderopacity="1"
     bordercolor="#666666"
     pagecolor="#ffffff" />
  <g
     sodipodi:insensitive="true"
     inkscape:label="artwork"
     id="layer2"
     inkscape:groupmode="layer">
    <image
       sodipodi:absref="/home/juanjo/Comics/lang-ep33-final/es/../gfx_Pepper-and-Carrot_by-David-Revoy_E33P04.png"
       xlink:href="../gfx_Pepper-and-Carrot_by-David-Revoy_E33P04.png"
       y="0"
       x="0"
       id="image10"
       height="3503"
       width="2481" />
  </g>
  <g
     inkscape:label="speechbubbles"
     id="layer3"
     inkscape:groupmode="layer"
     style="display:inline">
    <path
       style="color:#000000;display:inline;overflow:visible;visibility:visible;fill:#ffffff;fill-opacity:1;fill-rule:nonzero;stroke:none;stroke-width:0.999997px;marker:none;enable-background:accumulate"
       d="m 1294.3416,1319.8982 c -24.8746,9.0048 -67.4708,23.7919 -93.1422,40.3841 -15.4967,7.7702 -49.0139,49.9002 -53.3818,63.5295 -28.0024,1.4421 -56.3566,18.527 -83.4317,53.1858 24.2653,-39.2993 52.2934,-66.9375 76.4015,-69.4094 0.2285,-8.6465 24.7585,-44.5732 46.1338,-59.9591 9.7072,-6.7818 86.9034,-47.1926 117.7711,-62.4432 44.8072,-22.1377 -10.3507,34.7123 -10.3507,34.7123 z"
       id="path5901"
       inkscape:connector-curvature="0"
       sodipodi:nodetypes="ccccccsc" />
    <path
       style="fill:#ffffff;fill-rule:evenodd;stroke:none;stroke-width:1.04303px;stroke-linecap:butt;stroke-linejoin:miter;stroke-opacity:1"
       d="m 1421.1614,1138.4772 c -19.0551,0.4392 -38.095,1.5342 -57.1604,1.482 -28.803,0.1541 -57.5832,-1.2662 -86.3414,-2.7189 -7.0071,0.096 -13.6167,2.8521 -20.1277,5.1988 -7.6127,3.0436 -11.6937,7.718 -31.3255,-6.2207 13.211,28.6172 -26.4186,32.5544 -53.2209,31.0642 19.3666,13.4408 40.449,42.4671 -20.9262,58.5362 -1.2162,0.2404 -0.049,1.2798 0.6817,0.916 70.3775,7.4946 17.3077,33.8844 -16.0696,48.4538 11.8865,-1.9158 23.8649,-3.8744 35.9409,-3.4978 1.6749,8.5145 -10.4159,12.8516 -16.0748,16.5197 48.3461,-2.0788 40.0053,10.1599 11.648,32.5634 48.5946,-18.1256 90.4188,-17.0179 63.6918,3.8463 -6.1694,3.0761 -10.1563,18.7363 13.3044,13.4967 67.9535,-26.5378 57.8356,-1.3104 47.4166,18.2667 28.1564,-21.8953 50.2213,-32.181 49.0768,6.4992 14.6095,-39.9574 33.2623,-43.9266 68.2797,-28.8774 -3.5154,-33.4397 53.7706,-2.738 65.1779,2.5955 -2.2263,-25.9327 18.0468,-20.5727 49.1524,-0.7986 5.4215,-10.4289 17.1406,-16.695 28.6153,-16.1879 20.9359,-1.479 41.9287,4.484 60.1317,14.8066 -6.0171,-25.8803 64.415,-13.3978 75.5358,1.2694 1.54,-10.0703 10.9884,-18.2854 21.0671,-17.8597 12.324,-0.8 24.4871,1.933 36.5826,3.9058 12.316,2.5266 24.2947,6.444 36.2742,10.2408 3.3041,-4.7763 8.7677,-8.9715 14.807,-8.0662 13.0121,0.9241 25.0522,6.4602 37.3989,10.2418 6.79,2.4134 13.5758,4.8399 20.3586,7.2741 0.1,-4.7908 -1.1275,-10.2078 1.9356,-14.3545 5.1965,-5.414 13.4211,-6.1629 20.3309,-4.4672 13.5384,1.881 26.6996,5.7271 39.8939,9.2263 -15.0655,-38.8782 39.4044,-20.7104 58.8226,-16.8331 -21.575,-23.7928 -0.9358,-29.5997 20.5947,-30.8508 -26.237,-20.3036 -11.913,-33.4335 13.9309,-42.2939 -40.2694,-3.4333 -36.7017,-34.096 10.4347,-48.4872 -49.3627,1.5982 -88.5172,-22.7035 9.6823,-44.2753 -130.1345,-8.2032 -315.8428,5.0913 -446.0829,-0.725 -48.3905,-1.4336 -96.9217,-2.253 -145.0004,-8.5407 -6.1347,-0.5887 -12.2755,-1.1651 -18.4372,-1.3489 z"
       id="path4323-0"
       inkscape:connector-curvature="0"
       sodipodi:nodetypes="cccccccccccccccccccccccccccccccccccccccc" />
    <path
       style="color:#000000;display:inline;overflow:visible;visibility:visible;fill:#ffffff;fill-opacity:1;fill-rule:nonzero;stroke:none;stroke-width:1px;marker:none;enable-background:accumulate"
       d="m 1181.8075,432.89146 c 41.586,-19.48659 86.9142,-48.07648 110.3061,-55.71528 -12.0034,-5.38932 -26.511,-11.18011 -27.9957,-14.88305 16.5074,-10.725 22.7761,-12.17757 39.4396,-21.02956 -6.6685,-3.42995 -17.8015,-9.51329 -20.5031,-13.67703 31.8801,-33.37962 143.235,-75.0414 240.016,-59.63147 l 16.3308,-25.69172 c -121.3884,-9.14073 -264.417,61.38626 -280.8502,84.69247 l 21.476,13.45135 c -12.4646,8.51999 -25.2829,16.53403 -39.6844,22.29149 7.9799,4.791 13.2038,9.58202 28.4279,14.37302 z"
       id="path4032-7"
       inkscape:connector-curvature="0"
       sodipodi:nodetypes="cccccccccccc" />
    <path
       style="display:inline;fill:#ffffff;fill-rule:evenodd;stroke:none;stroke-width:0.93867743px;stroke-linecap:butt;stroke-linejoin:miter;stroke-opacity:1"
       d="m 1434.5619,153.41697 c 102.5654,68.76531 146.1247,35.78334 134.5516,-12.84239 38.2149,44.77791 65.2241,60.15607 79.8828,28.23827 25.7636,31.85113 71.6461,36.83036 74.6311,0.34429 24.4367,37.13364 49.1733,38.21413 70.7733,-4.97751 9.6038,38.28599 31.7974,49.7113 64.8314,3.31952 5.9171,44.93975 29.0985,42.15674 60.1237,-0.40743 -7.1506,66.24891 49.0741,4.58355 85.1293,-30.0225 -26.9995,61.95669 -0.5926,58.94429 28.0441,36.39575 -15.0671,36.63234 33.4049,15.02169 107.3273,-31.7098 -36.9772,34.54409 -119.9874,87.80456 -55.4031,82.97805 -9.0066,10.18342 -56.1777,24.01513 39.4954,40.13357 -74.0654,11.31898 -39.5012,31.63509 -2.2725,40.58698 -40.1821,3.02975 -75.4085,1.51586 -11.3623,45.99691 -60.7602,-22.88973 -87.961,-37.33121 -65.9029,-5.41083 -51.0375,-31.0946 -96.9714,-27.10062 -88.3639,9.29542 -23.4068,-37.94649 -85.9473,-37.28006 -100.7671,7.121 -9.3214,-42.18132 -40.0626,-54.67837 -110.1593,-6.99174 11.8657,-48.94253 -49.2797,-30.96539 -80.5601,-1.40247 21.5197,-34.40178 -30.9703,-37.17414 -76.3409,3.56308 27.1172,-41.34162 -27.1127,-56.02814 -84.6636,7.35483 22.4182,-98.2346 -56.764,-57.72645 -104.8327,-44.92576 36.7561,-30.37779 108.7171,-52.85174 20.9964,-65.32413 88.8405,-0.52645 76.7673,-10.77836 29.2964,-39.91942 52.2012,8.00471 37.5146,-12.99191 -14.4544,-61.39369 z"
       id="path4508-2"
       inkscape:connector-curvature="0"
       sodipodi:nodetypes="ccccccccccccccccccccccccc" />
    <path
       style="color:#000000;display:inline;overflow:visible;visibility:visible;fill:#ffffff;fill-opacity:1;fill-rule:nonzero;stroke:none;stroke-width:1px;marker:none;enable-background:accumulate"
       d="m 605.01298,766.03759 c 1.97639,13.68735 4.89813,27.94334 1.54437,41.71842 -2.14174,8.3941 -7.44224,15.62787 -13.25861,21.89179 -7.51416,7.6917 -16.25069,14.2538 -25.79276,19.21693 -14.46,7.41261 -30.74351,11.91558 -43.16159,22.82403 -4.15158,4.87787 -4.72354,13.57308 0.86247,17.62488 7.36472,4.82439 16.60522,5.59784 25.16745,5.01692 10.01613,-1.82804 17.38325,-9.43186 24.53826,-16.06379 16.3121,-14.44251 31.93776,-30.69806 40.74022,-50.93509 7.42676,-20.39544 2.47014,-44.02052 -10.30582,-61.18667 -0.0959,-0.0344 -0.21387,-0.19298 -0.33399,-0.10742 z"
       id="path3072-56"
       inkscape:connector-curvature="0" />
    <path
       style="color:#000000;display:inline;overflow:visible;visibility:visible;fill:#ffffff;fill-opacity:1;fill-rule:nonzero;stroke:none;stroke-width:0.95913875px;marker:none;enable-background:accumulate"
       d="m 391.0362,792.50119 c -58.23689,1.14607 -116.90254,10.02304 -168.80578,29.74344 -22.29884,8.65113 -41.471,22.83726 -49.15553,40.65518 -11.24981,24.07654 -9.94415,50.64315 0.0606,74.81628 7.85423,17.93235 24.48415,33.93714 46.92728,43.44742 22.09216,9.99413 46.56219,17.11083 71.80278,21.57349 47.90188,7.967 97.46606,8.2054 146.29923,6.3072 35.82073,-2.109 70.65867,-9.11753 104.89193,-16.75446 23.60928,-5.70276 47.21194,-13.76771 63.88711,-27.63063 16.43186,-13.63425 25.12653,-31.51387 27.04129,-49.45255 3.62156,-22.0908 0.16271,-45.43307 -14.69515,-65.16091 -12.10513,-14.84857 -32.4576,-24.87992 -53.37387,-32.29423 -40.18228,-14.30471 -84.57797,-21.21825 -128.89662,-24.18341 -15.28997,-0.92303 -30.64295,-1.30999 -45.98321,-1.06682 z"
       id="path3970-3"
       inkscape:connector-curvature="0"
       sodipodi:nodetypes="cccscsc" />
  </g>
  <g
     inkscape:label="txt"
     id="layer1"
     inkscape:groupmode="layer">
    <text
       xml:space="preserve"
       style="font-style:normal;font-variant:normal;font-weight:normal;font-stretch:normal;line-height:0%;font-family:Lavi;-inkscape-font-specification:Lavi;text-align:center;letter-spacing:0px;word-spacing:0px;text-anchor:middle;display:inline;fill:#000000;fill-opacity:1;stroke:none"
       x="397.03751"
       y="890.47522"
       id="text4246-7-6-1-7-6"
       inkscape:label="kingA"><tspan
         id="tspan854"
         sodipodi:role="line"
         style="font-size:45px;line-height:1.25"
         x="397.03751"
         y="890.47522">¡Eso es para lo que</tspan><tspan
         id="tspan59"
         sodipodi:role="line"
         style="font-size:45px;line-height:1.25"
         x="397.03751"
         y="946.72522">estamos entrenados!</tspan></text>
    <text
       xml:space="preserve"
       style="font-style:normal;font-variant:normal;font-weight:normal;font-stretch:normal;font-size:14.53719997px;line-height:0%;font-family:Lavi;-inkscape-font-specification:Lavi;text-align:center;letter-spacing:0px;word-spacing:0px;text-anchor:middle;fill:#000000;fill-opacity:1;stroke:#000000;stroke-width:2.40001011;stroke-miterlimit:4;stroke-dasharray:none;stroke-opacity:1"
       x="1926.2964"
       y="267.55887"
       id="text4246-6-9-8-8"
       transform="matrix(0.95440174,0,-0.25660425,1.0477768,0,0)"
       inkscape:label="kingB"><tspan
         sodipodi:role="line"
         style="font-size:52.02870178px;line-height:1.25;stroke:#000000;stroke-width:2.40001011;stroke-miterlimit:4;stroke-dasharray:none;stroke-opacity:1"
         x="1926.2964"
         y="267.55887"
         id="tspan4395-0">¡A MIS ÓRDENES!</tspan></text>
    <text
       transform="matrix(0.87298381,-0.39667522,-0.16116569,1.4302723,1320.2225,-1443.2945)"
       id="use4516-8-2"
       y="1954.6715"
       x="1302.3322"
       style="font-style:normal;font-variant:normal;font-weight:normal;font-stretch:normal;font-size:8.24479961px;line-height:0%;font-family:Lavi;-inkscape-font-specification:Lavi;letter-spacing:1.83750999px;word-spacing:0px;display:inline;opacity:0.70835601;fill:#b3cfde;fill-opacity:1;stroke:#302820;stroke-width:6.24756002;stroke-miterlimit:4;stroke-dasharray:none;stroke-opacity:1;paint-order:stroke fill markers;filter:url(#filter1058)"
       xml:space="preserve"
       inkscape:label="warriorA"><tspan
         style="font-style:normal;font-variant:normal;font-weight:normal;font-stretch:normal;font-size:48.09469986px;line-height:1.25;font-family:Lavi;-inkscape-font-specification:Lavi;fill:#ded5c0;fill-opacity:1;stroke:#302820;stroke-width:6.24756002;stroke-miterlimit:4;stroke-dasharray:none;stroke-opacity:1;paint-order:stroke fill markers"
         y="1954.6715"
         x="1302.3322"
         id="tspan4370-3-6"
         sodipodi:role="line">!Yaaa!</tspan></text>
    <text
       xml:space="preserve"
       style="font-style:normal;font-variant:normal;font-weight:normal;font-stretch:normal;font-size:8.24479961px;line-height:0%;font-family:Lavi;-inkscape-font-specification:Lavi;letter-spacing:1.83750999px;word-spacing:0px;display:inline;opacity:0.70835601;fill:#b3cfde;fill-opacity:1;stroke:#302820;stroke-width:6.24756002;stroke-miterlimit:4;stroke-dasharray:none;stroke-opacity:1;paint-order:stroke fill markers;filter:url(#filter1058)"
       x="1302.3322"
       y="1954.6715"
       id="use4516-8"
       transform="matrix(0.87298381,-0.39667522,-0.16116569,1.4302723,1089.34,-1418.6493)"
       inkscape:label="warriorB"><tspan
         sodipodi:role="line"
         id="tspan4370-3"
         x="1302.3322"
         y="1954.6715"
         style="font-style:normal;font-variant:normal;font-weight:normal;font-stretch:normal;font-size:48.09469986px;line-height:1.25;font-family:Lavi;-inkscape-font-specification:Lavi;fill:#ded5c0;fill-opacity:1;stroke:#302820;stroke-width:6.24756002;stroke-miterlimit:4;stroke-dasharray:none;stroke-opacity:1;paint-order:stroke fill markers">¡Sí, señor!</tspan></text>
    <text
       transform="matrix(0.87298381,-0.39667522,-0.16116569,1.4302723,900.90002,-1373.4986)"
       id="use4516-8-3"
       y="1954.6715"
       x="1302.3322"
       style="font-style:normal;font-variant:normal;font-weight:normal;font-stretch:normal;font-size:8.24479961px;line-height:0%;font-family:Lavi;-inkscape-font-specification:Lavi;letter-spacing:1.83750999px;word-spacing:0px;display:inline;opacity:0.70835601;fill:#b3cfde;fill-opacity:1;stroke:#302820;stroke-width:6.24756002;stroke-miterlimit:4;stroke-dasharray:none;stroke-opacity:1;paint-order:stroke fill markers;filter:url(#filter1058)"
       xml:space="preserve"
       inkscape:label="warriorC"><tspan
         style="font-style:normal;font-variant:normal;font-weight:normal;font-stretch:normal;font-size:48.09469986px;line-height:1.25;font-family:Lavi;-inkscape-font-specification:Lavi;fill:#ded5c0;fill-opacity:1;stroke:#302820;stroke-width:6.24756002;stroke-miterlimit:4;stroke-dasharray:none;stroke-opacity:1;paint-order:stroke fill markers"
         y="1954.6715"
         x="1302.3322"
         id="tspan4370-3-7"
         sodipodi:role="line">¡Yaaa!</tspan></text>
    <text
       xml:space="preserve"
       style="font-style:normal;font-variant:normal;font-weight:normal;font-stretch:normal;font-size:8.24479961px;line-height:0%;font-family:Lavi;-inkscape-font-specification:Lavi;letter-spacing:1.83750999px;word-spacing:0px;display:inline;opacity:0.36945603;fill:#b3cfde;fill-opacity:1;stroke:#302820;stroke-width:10.81669998;stroke-miterlimit:4;stroke-dasharray:none;stroke-opacity:1;paint-order:stroke fill markers;filter:url(#filter987)"
       x="1302.3322"
       y="1954.6715"
       id="use4516-8-2-7"
       transform="matrix(0.50551861,-0.22852645,-0.0933262,0.82398656,1750.9332,-438.88491)"
       inkscape:label="warriorD"><tspan
         sodipodi:role="line"
         id="tspan4370-3-6-5"
         x="1302.3322"
         y="1954.6715"
         style="font-style:normal;font-variant:normal;font-weight:normal;font-stretch:normal;font-size:48.09469986px;line-height:1.25;font-family:Lavi;-inkscape-font-specification:Lavi;fill:#ded5c0;fill-opacity:1;stroke:#302820;stroke-width:10.81669998;stroke-miterlimit:4;stroke-dasharray:none;stroke-opacity:1;paint-order:stroke fill markers">¡Yaa!</tspan></text>
    <text
       transform="matrix(0.50551861,-0.22852645,-0.0933262,0.82398656,1575.7589,-403.08047)"
       id="use4516-8-2-7-1"
       y="1954.6715"
       x="1302.3322"
       style="font-style:normal;font-variant:normal;font-weight:normal;font-stretch:normal;font-size:8.24479961px;line-height:0%;font-family:Lavi;-inkscape-font-specification:Lavi;letter-spacing:1.83750999px;word-spacing:0px;display:inline;opacity:0.36945603;fill:#b3cfde;fill-opacity:1;stroke:#302820;stroke-width:10.81669998;stroke-miterlimit:4;stroke-dasharray:none;stroke-opacity:1;paint-order:stroke fill markers;filter:url(#filter987)"
       xml:space="preserve"
       inkscape:label="warriorE"><tspan
         style="font-style:normal;font-variant:normal;font-weight:normal;font-stretch:normal;font-size:48.09469986px;line-height:1.25;font-family:Lavi;-inkscape-font-specification:Lavi;fill:#ded5c0;fill-opacity:1;stroke:#302820;stroke-width:10.81669998;stroke-miterlimit:4;stroke-dasharray:none;stroke-opacity:1;paint-order:stroke fill markers"
         y="1954.6715"
         x="1302.3322"
         id="tspan4370-3-6-5-2"
         sodipodi:role="line">¡Síii!</tspan></text>
    <text
       xml:space="preserve"
       style="font-style:normal;font-variant:normal;font-weight:normal;font-stretch:normal;font-size:8.24479961px;line-height:0%;font-family:Lavi;-inkscape-font-specification:Lavi;letter-spacing:1.83750999px;word-spacing:0px;display:inline;opacity:0.36945603;fill:#b3cfde;fill-opacity:1;stroke:#302820;stroke-width:10.81669998;stroke-miterlimit:4;stroke-dasharray:none;stroke-opacity:1;paint-order:stroke fill markers;filter:url(#filter987)"
       x="1302.3322"
       y="1954.6715"
       id="use4516-8-2-7-1-1"
       transform="matrix(0.50551861,-0.22852645,-0.0933262,0.82398656,1409.4065,-380.10863)"
       inkscape:label="warriorF"><tspan
         sodipodi:role="line"
         id="tspan4370-3-6-5-2-5"
         x="1302.3322"
         y="1954.6715"
         style="font-style:normal;font-variant:normal;font-weight:normal;font-stretch:normal;font-size:48.09469986px;line-height:1.25;font-family:Lavi;-inkscape-font-specification:Lavi;fill:#ded5c0;fill-opacity:1;stroke:#302820;stroke-width:10.81669998;stroke-miterlimit:4;stroke-dasharray:none;stroke-opacity:1;paint-order:stroke fill markers">¡Yaaah!</tspan></text>
    <text
       transform="matrix(0.50551861,-0.22852645,-0.0933262,0.82398656,1249.3194,-363.84199)"
       id="use4516-8-2-7-1-1-7"
       y="1954.6715"
       x="1302.3322"
       style="font-style:normal;font-variant:normal;font-weight:normal;font-stretch:normal;font-size:8.24479961px;line-height:0%;font-family:Lavi;-inkscape-font-specification:Lavi;letter-spacing:1.83750999px;word-spacing:0px;display:inline;opacity:0.36945603;fill:#b3cfde;fill-opacity:1;stroke:#302820;stroke-width:10.81669998;stroke-miterlimit:4;stroke-dasharray:none;stroke-opacity:1;paint-order:stroke fill markers;filter:url(#filter987)"
       xml:space="preserve"
       inkscape:label="warriorG"><tspan
         style="font-style:normal;font-variant:normal;font-weight:normal;font-stretch:normal;font-size:48.09469986px;line-height:1.25;font-family:Lavi;-inkscape-font-specification:Lavi;fill:#ded5c0;fill-opacity:1;stroke:#302820;stroke-width:10.81669998;stroke-miterlimit:4;stroke-dasharray:none;stroke-opacity:1;paint-order:stroke fill markers"
         y="1954.6715"
         x="1302.3322"
         id="tspan4370-3-6-5-2-5-1"
         sodipodi:role="line">¡Yihaaa!</tspan></text>
    <text
       xml:space="preserve"
       style="font-style:normal;font-variant:normal;font-weight:normal;font-stretch:normal;font-size:8.24479961px;line-height:0%;font-family:Lavi;-inkscape-font-specification:Lavi;letter-spacing:1.83750999px;word-spacing:0px;display:inline;opacity:0.36945603;fill:#b3cfde;fill-opacity:1;stroke:#302820;stroke-width:10.81669998;stroke-miterlimit:4;stroke-dasharray:none;stroke-opacity:1;paint-order:stroke fill markers;filter:url(#filter987)"
       x="1302.3322"
       y="1954.6715"
       id="use4516-8-2-7-1-1-7-9"
       transform="matrix(0.50551861,-0.22852645,-0.0933262,0.82398656,1117.8153,-332.94981)"
       inkscape:label="warriorH"><tspan
         sodipodi:role="line"
         id="tspan4370-3-6-5-2-5-1-5"
         x="1302.3322"
         y="1954.6715"
         style="font-style:normal;font-variant:normal;font-weight:normal;font-stretch:normal;font-size:48.09469986px;line-height:1.25;font-family:Lavi;-inkscape-font-specification:Lavi;fill:#ded5c0;fill-opacity:1;stroke:#302820;stroke-width:10.81669998;stroke-miterlimit:4;stroke-dasharray:none;stroke-opacity:1;paint-order:stroke fill markers">¡Yahii!</tspan></text>
    <text
       transform="matrix(0.42167905,-0.19030679,-0.07784818,0.68617982,1055.5205,-94.195675)"
       id="use4516-8-2-7-1-1-7-9-1"
       y="1954.6715"
       x="1302.3322"
       style="font-style:normal;font-variant:normal;font-weight:normal;font-stretch:normal;font-size:8.24479961px;line-height:0%;font-family:Lavi;-inkscape-font-specification:Lavi;letter-spacing:1.83750999px;word-spacing:0px;display:inline;opacity:0.36945603;fill:#b3cfde;fill-opacity:1;stroke:#302820;stroke-width:12.97819996;stroke-miterlimit:4;stroke-dasharray:none;stroke-opacity:1;paint-order:stroke fill markers;filter:url(#filter987)"
       xml:space="preserve"
       inkscape:label="warriorI"><tspan
         style="font-style:normal;font-variant:normal;font-weight:normal;font-stretch:normal;font-size:48.09469986px;line-height:1.25;font-family:Lavi;-inkscape-font-specification:Lavi;fill:#ded5c0;fill-opacity:1;stroke:#302820;stroke-width:12.97819996;stroke-miterlimit:4;stroke-dasharray:none;stroke-opacity:1;paint-order:stroke fill markers"
         y="1954.6715"
         x="1302.3322"
         id="tspan4370-3-6-5-2-5-1-5-1"
         sodipodi:role="line">¡Yaa!</tspan></text>
    <text
       transform="matrix(0.9493189,0,-0.25523766,1.0533868,0,0)"
       id="text4246-6-9-8-8-3"
       y="1204.5455"
       x="1989.4592"
       style="font-style:normal;font-variant:normal;font-weight:normal;font-stretch:normal;font-size:18.42469978px;line-height:0%;font-family:Lavi;-inkscape-font-specification:Lavi;text-align:center;letter-spacing:0px;word-spacing:0px;text-anchor:middle;fill:#000000;fill-opacity:1;stroke:#000000;stroke-width:2.40001011;stroke-miterlimit:4;stroke-dasharray:none;stroke-opacity:1"
       xml:space="preserve"
       inkscape:label="kingC"><tspan
         id="tspan4395-0-6"
         y="1204.5455"
         x="1989.4592"
         style="font-size:65.94190216px;line-height:1.25;stroke:#000000;stroke-width:2.40001011;stroke-miterlimit:4;stroke-dasharray:none;stroke-opacity:1"
         sodipodi:role="line">¡¡¡A LA CARGAAAAAA!!!</tspan></text>
    <text
       transform="matrix(0.76725519,-0.2738102,-0.14164663,0.98726394,369.54189,276.96994)"
       id="use4516-8-7"
       y="1954.6715"
       x="1302.3322"
       style="font-style:normal;font-variant:normal;font-weight:normal;font-stretch:normal;font-size:8.24479961px;line-height:0%;font-family:Lavi;-inkscape-font-specification:Lavi;letter-spacing:1.83750999px;word-spacing:0px;display:inline;opacity:0.38611223;fill:#b3cfde;fill-opacity:1;stroke:#302820;stroke-width:8.0211401;stroke-miterlimit:4;stroke-dasharray:none;stroke-opacity:1;paint-order:stroke fill markers;filter:url(#filter987)"
       xml:space="preserve"
       inkscape:label="warriorJ"><tspan
         style="font-style:normal;font-variant:normal;font-weight:normal;font-stretch:normal;font-size:48.09469986px;line-height:1.25;font-family:Lavi;-inkscape-font-specification:Lavi;fill:#ded5c0;fill-opacity:1;stroke:#302820;stroke-width:8.0211401;stroke-miterlimit:4;stroke-dasharray:none;stroke-opacity:1;paint-order:stroke fill markers"
         y="1954.6715"
         x="1302.3322"
         id="tspan4370-3-0"
         sodipodi:role="line">¡SÍIII!</tspan></text>
    <text
       xml:space="preserve"
       style="font-style:normal;font-variant:normal;font-weight:normal;font-stretch:normal;font-size:8.24479961px;line-height:0%;font-family:Lavi;-inkscape-font-specification:Lavi;letter-spacing:1.83750999px;word-spacing:0px;display:inline;opacity:0.38611217;fill:#b3cfde;fill-opacity:1;stroke:#302820;stroke-width:9.05745029;stroke-miterlimit:4;stroke-dasharray:none;stroke-opacity:1;paint-order:stroke fill markers;filter:url(#filter987)"
       x="1302.3322"
       y="1954.6715"
       id="use4516-8-7-6"
       transform="matrix(0.68010769,-0.24225481,-0.12555791,0.87348622,256.1633,518.50004)"
       inkscape:label="warriorK"><tspan
         sodipodi:role="line"
         id="tspan4370-3-0-4"
         x="1302.3322"
         y="1954.6715"
         style="font-style:normal;font-variant:normal;font-weight:normal;font-stretch:normal;font-size:48.09469986px;line-height:1.25;font-family:Lavi;-inkscape-font-specification:Lavi;fill:#ded5c0;fill-opacity:1;stroke:#302820;stroke-width:9.05745029;stroke-miterlimit:4;stroke-dasharray:none;stroke-opacity:1;paint-order:stroke fill markers">¡Yaaa!</tspan></text>
    <text
       transform="matrix(0.68010769,-0.24225481,-0.12555791,0.87348622,520.65577,484.96621)"
       id="use4516-8-7-6-9"
       y="1954.6715"
       x="1302.3322"
       style="font-style:normal;font-variant:normal;font-weight:normal;font-stretch:normal;font-size:8.24479961px;line-height:0%;font-family:Lavi;-inkscape-font-specification:Lavi;letter-spacing:1.83750999px;word-spacing:0px;display:inline;opacity:0.38611217;fill:#b3cfde;fill-opacity:1;stroke:#302820;stroke-width:9.05745029;stroke-miterlimit:4;stroke-dasharray:none;stroke-opacity:1;paint-order:stroke fill markers;filter:url(#filter987)"
       xml:space="preserve"
       inkscape:label="warriorL"><tspan
         style="font-style:normal;font-variant:normal;font-weight:normal;font-stretch:normal;font-size:48.09469986px;line-height:1.25;font-family:Lavi;-inkscape-font-specification:Lavi;fill:#ded5c0;fill-opacity:1;stroke:#302820;stroke-width:9.05745029;stroke-miterlimit:4;stroke-dasharray:none;stroke-opacity:1;paint-order:stroke fill markers"
         y="1954.6715"
         x="1302.3322"
         id="tspan4370-3-0-4-8"
         sodipodi:role="line">¡Yihaaa!</tspan></text>
  </g>
</svg>
