<?xml version="1.0" encoding="UTF-8" standalone="no"?>
<svg
   xmlns:dc="http://purl.org/dc/elements/1.1/"
   xmlns:cc="http://creativecommons.org/ns#"
   xmlns:rdf="http://www.w3.org/1999/02/22-rdf-syntax-ns#"
   xmlns:svg="http://www.w3.org/2000/svg"
   xmlns="http://www.w3.org/2000/svg"
   xmlns:xlink="http://www.w3.org/1999/xlink"
   xmlns:sodipodi="http://sodipodi.sourceforge.net/DTD/sodipodi-0.dtd"
   xmlns:inkscape="http://www.inkscape.org/namespaces/inkscape"
   id="svg2"
   version="1.1"
   inkscape:version="1.0.2 (1.0.2+r75+1)"
   width="2481"
   height="3503"
   sodipodi:docname="E34P09.svg">
  <metadata
     id="metadata8">
    <rdf:RDF>
      <cc:Work
         rdf:about="">
        <dc:format>image/svg+xml</dc:format>
        <dc:type
           rdf:resource="http://purl.org/dc/dcmitype/StillImage" />
        <dc:title />
      </cc:Work>
    </rdf:RDF>
  </metadata>
  <defs
     id="defs6">
    <filter
       style="color-interpolation-filters:sRGB"
       id="filter4375-4-1-1-1-9-5-8-8-5-5-3-3-3-0"
       inkscape:label="soundFX1">
      <feFlood
         id="feFlood4377-7-9-0-8-1-7-3-1-2-7-6-6-5-96"
         flood-opacity="1"
         flood-color="rgb(52,52,52)"
         result="flood" />
      <feComposite
         id="feComposite4379-3-8-8-2-77-4-1-0-6-4-7-7-6-3"
         in2="SourceGraphic"
         in="flood"
         operator="in"
         result="composite1"
         baseFrequency="0.053999999999999999 0.053999999999999999" />
      <feMorphology
         id="feMorphology4393-1-0-49-8-9-3-0-1-9-9-5-5-2-8"
         operator="dilate"
         radius="2.5856550817276021"
         result="result3" />
      <feComposite
         id="feComposite4385-9-5-7-0-8-8-7-5-4-9-3-3-9-5"
         in2="result3"
         in="SourceGraphic"
         operator="over"
         result="fbSourceGraphic" />
      <feColorMatrix
         result="fbSourceGraphicAlpha"
         in="fbSourceGraphic"
         values="0 0 0 -1 0 0 0 0 -1 0 0 0 0 -1 0 0 0 0 1 0"
         id="feColorMatrix4544-9-4-4-5-5-1-6" />
      <feTurbulence
         id="feTurbulence4546-3-6-5-6-6-2-1"
         type="fractalNoise"
         numOctaves="4"
         seed="147"
         baseFrequency="0.046080819231719368"
         result="turbulence" />
      <feDisplacementMap
         id="feDisplacementMap4548-8-0-9-2-2-7-1"
         in2="turbulence"
         in="fbSourceGraphic"
         scale="13.20326"
         yChannelSelector="G"
         xChannelSelector="R"
         result="fbSourceGraphic" />
      <feColorMatrix
         result="fbSourceGraphicAlpha"
         in="fbSourceGraphic"
         values="0 0 0 -1 0 0 0 0 -1 0 0 0 0 -1 0 0 0 0 1 0"
         id="feColorMatrix4670-7-7-3-9-9-0-5" />
      <feFlood
         id="feFlood4672-4-4-5-1-1-9-9"
         flood-opacity="1"
         flood-color="rgb(28,28,28)"
         result="flood"
         in="fbSourceGraphic" />
      <feComposite
         id="feComposite4674-8-3-7-2-2-3-8"
         in2="fbSourceGraphic"
         in="flood"
         operator="in"
         result="composite1" />
      <feGaussianBlur
         id="feGaussianBlur4676-3-7-08-7-7-6-4"
         in="composite1"
         stdDeviation="0"
         result="blur" />
      <feOffset
         id="feOffset4678-6-9-1-0-0-0-8"
         dx="-8.3919392296330813"
         dy="1.5526614972014983"
         result="offset" />
      <feComposite
         id="feComposite4680-4-0-9-9-9-6-1"
         in2="offset"
         in="fbSourceGraphic"
         operator="over"
         result="composite2" />
    </filter>
    <filter
       style="color-interpolation-filters:sRGB"
       id="filter4375-4-1-1-1-9-5-8-8-5-5-3-3-3-0-6"
       inkscape:label="soundFX1">
      <feFlood
         id="feFlood4377-7-9-0-8-1-7-3-1-2-7-6-6-5-96-3"
         flood-opacity="1"
         flood-color="rgb(52,52,52)"
         result="flood" />
      <feComposite
         id="feComposite4379-3-8-8-2-77-4-1-0-6-4-7-7-6-3-2"
         in2="SourceGraphic"
         in="flood"
         operator="in"
         result="composite1"
         baseFrequency="0.053999999999999999 0.053999999999999999" />
      <feMorphology
         id="feMorphology4393-1-0-49-8-9-3-0-1-9-9-5-5-2-8-0"
         operator="dilate"
         radius="2.5856550817276021"
         result="result3" />
      <feComposite
         id="feComposite4385-9-5-7-0-8-8-7-5-4-9-3-3-9-5-6"
         in2="result3"
         in="SourceGraphic"
         operator="over"
         result="fbSourceGraphic" />
      <feColorMatrix
         result="fbSourceGraphicAlpha"
         in="fbSourceGraphic"
         values="0 0 0 -1 0 0 0 0 -1 0 0 0 0 -1 0 0 0 0 1 0"
         id="feColorMatrix4544-9-4-4-5-5-1-6-1" />
      <feTurbulence
         id="feTurbulence4546-3-6-5-6-6-2-1-5"
         type="fractalNoise"
         numOctaves="4"
         seed="147"
         baseFrequency="0.046080819231719368"
         result="turbulence" />
      <feDisplacementMap
         id="feDisplacementMap4548-8-0-9-2-2-7-1-5"
         in2="turbulence"
         in="fbSourceGraphic"
         scale="13.20326"
         yChannelSelector="G"
         xChannelSelector="R"
         result="fbSourceGraphic" />
      <feColorMatrix
         result="fbSourceGraphicAlpha"
         in="fbSourceGraphic"
         values="0 0 0 -1 0 0 0 0 -1 0 0 0 0 -1 0 0 0 0 1 0"
         id="feColorMatrix4670-7-7-3-9-9-0-5-4" />
      <feFlood
         id="feFlood4672-4-4-5-1-1-9-9-7"
         flood-opacity="1"
         flood-color="rgb(28,28,28)"
         result="flood"
         in="fbSourceGraphic" />
      <feComposite
         id="feComposite4674-8-3-7-2-2-3-8-6"
         in2="fbSourceGraphic"
         in="flood"
         operator="in"
         result="composite1" />
      <feGaussianBlur
         id="feGaussianBlur4676-3-7-08-7-7-6-4-5"
         in="composite1"
         stdDeviation="0"
         result="blur" />
      <feOffset
         id="feOffset4678-6-9-1-0-0-0-8-6"
         dx="-8.3919392296330813"
         dy="1.5526614972014983"
         result="offset" />
      <feComposite
         id="feComposite4680-4-0-9-9-9-6-1-9"
         in2="offset"
         in="fbSourceGraphic"
         operator="over"
         result="composite2" />
    </filter>
  </defs>
  <sodipodi:namedview
     pagecolor="#ffffff"
     bordercolor="#666666"
     borderopacity="1"
     objecttolerance="10"
     gridtolerance="10"
     guidetolerance="10"
     inkscape:pageopacity="0"
     inkscape:pageshadow="2"
     inkscape:window-width="2560"
     inkscape:window-height="1390"
     id="namedview4"
     showgrid="false"
     inkscape:zoom="0.54973181"
     inkscape:cx="913.84426"
     inkscape:cy="2687.3784"
     inkscape:window-x="0"
     inkscape:window-y="24"
     inkscape:window-maximized="1"
     inkscape:current-layer="layer1"
     inkscape:document-rotation="0"
     inkscape:snap-global="false"
     borderlayer="true" />
  <g
     inkscape:groupmode="layer"
     id="layer2"
     inkscape:label="artwork"
     sodipodi:insensitive="true">
    <image
       sodipodi:absref="/home/deevad/peppercarrot/webcomics/ep34_The-Knighting-of-Shichimi/lang/gfx_Pepper-and-Carrot_by-David-Revoy_E34P09.png"
       xlink:href="../gfx_Pepper-and-Carrot_by-David-Revoy_E34P09.png"
       width="2481"
       height="3503"
       id="image10"
       x="0"
       y="0" />
  </g>
  <g
     inkscape:groupmode="layer"
     id="layer3"
     inkscape:label="speechbubbles"
     style="display:inline">
    <path
       style="color:#000000;display:inline;overflow:visible;visibility:visible;fill:#ffffff;fill-opacity:1;fill-rule:nonzero;stroke:none;stroke-width:1.06937px;marker:none;enable-background:accumulate"
       d="m 1448.1794,2288.6897 c -23.8369,-5.3737 -92.5695,-47.9371 -8.2721,-45.7139 -62.0407,-17.9093 -53.7933,-53.5519 -2.8098,-74.369 -66.8727,4.2548 -114.145,0.6207 -79.6873,-36.1664 -89.9051,3.5955 -139.371,10.2673 -124.6126,-28.5578 -45.5667,42.6369 -89.2733,34.6793 -100.5325,-15.1981 -7.8619,35.2294 -92.7217,33.1271 -190.66357,12.6992 9.4241,14.5849 100.41517,54.7735 -34.67246,45.7152 53.39633,26.0011 55.76965,39.3386 -35.09503,50.3382 46.30796,11.6971 75.83924,27.5422 3.66674,52.7159 46.76435,7.9508 120.74753,5.6199 30.90625,53.7673 59.23141,-22.7557 158.03607,-6.3139 115.44987,30.3911 116.0689,-41.2428 138.3926,-30.2458 155.9186,-0.6941 43.1566,-43.2711 105.5256,-38.37 141.8023,-13.2168 -17.6354,-38.3461 75.3037,-31.727 128.6016,-31.7108 z"
       id="path3549-3-78-5"
       inkscape:connector-curvature="0"
       sodipodi:nodetypes="ccccccccccccccc" />
    <path
       style="color:#000000;display:inline;overflow:visible;visibility:visible;fill:#ffffff;fill-opacity:1;fill-rule:nonzero;stroke:none;stroke-width:1.53798px;marker:none;enable-background:accumulate"
       d="m 1165.125,2720.0273 c -34.6289,0.1986 -70.0647,-7.5341 -99.3659,-26.5677 -31.7277,-20.8546 -53.3253,-54.7659 -63.3636,-90.992 -9.79933,-35.4038 -7.93287,-74.2782 6.9372,-108.0147 6.8374,-15.1175 18.1035,-27.7161 29.9815,-39.0839 7.5713,-7.6225 16.526,-13.7668 26.2334,-18.346 14.4534,-6.8324 29.9002,-11.292 45.3704,-15.1598 26.3187,-6.1862 53.7039,-7.9244 80.5592,-4.642 18.5457,2.077 37.209,5.5156 54.382,13.0541 21.4184,9.8408 40.0802,24.9311 56.1369,42.0352 10.5252,11.4326 18.8072,24.9656 23.6063,39.7781 11.0429,32.7738 8.5168,69.1116 -3.2903,101.3125 -10.0767,27.8254 -27.5226,53.129 -50.8807,71.437 -23.0316,18.3714 -51.2162,30.0737 -80.445,33.66 -8.5709,1.1141 -17.2202,1.586 -25.8614,1.5292 z"
       id="path3365-3"
       inkscape:connector-curvature="0"
       sodipodi:nodetypes="cssccsc" />
    <path
       style="display:inline;fill:#ffffff;fill-rule:evenodd;stroke:none;stroke-width:1.17316px;stroke-linecap:butt;stroke-linejoin:miter;stroke-opacity:1"
       d="m 109.73501,2177.5481 c 29.38768,28.2738 32.98668,48.0781 7.52226,37.3592 24.78089,18.3529 19.6543,22.6486 1.44979,31.3901 48.77683,44.6505 36.38287,79.6697 22.55019,114.4624 50.36055,-22.7687 53.1625,5.7616 66.37961,23.0583 10.40076,-40.1063 16.5215,-16.3343 21.44818,25.2615 10.4281,-51.3518 18.32089,-56.502 23.90445,-19.5221 10.2434,-33.0408 24.10947,-47.2326 42.13891,-39.7596 33.05542,-34.3551 46.53514,3.8148 66.34191,18.5438 -2.00545,-38.2097 11.96212,-50.519 45.98999,-17.8885 -0.90281,-23.148 22.7875,-26.3836 48.33814,2.7713 -35.76732,-59.6355 17.79954,-9.4497 25.77979,-6.8831 -17.38584,-30.8533 -3.62278,-55.8076 64.23923,-21.1803 -21.59349,-4.7726 -36.35199,-41.4194 -7.17745,-59.5301 -32.47566,-9.3466 -32.13349,-26.1759 -14.5508,-46.9366 -37.07982,-21.36 0.11551,-53.0572 18.77768,-82.1747 -37.68069,18.2569 -67.76001,22.5325 -74.46291,-16.1893 -57.26266,39.7577 -48.69658,21.4624 -43.13175,5.8137 -35.58384,42.7655 -41.93624,9.6512 -42.47987,-0.8674 -49.31202,48.2542 -93.73623,13.4114 -113.68756,-8.7539 -8.27741,55.1075 -28.62971,37.5649 -49.03206,19.7228 15.20585,37.0218 -3.23279,36.9256 -23.86649,24.0365 8.68221,25.1383 -4.52852,50.2569 -39.83864,18.6313 12.71345,16.4532 -5.18382,28.3673 -46.6326,-1.3653 z"
       id="path4289-9"
       inkscape:connector-curvature="0"
       sodipodi:nodetypes="cccccccccccccccccccccccc" />
    <path
       style="fill:#ffffff;fill-rule:evenodd;stroke:none;stroke-width:1.82px;stroke-linecap:butt;stroke-linejoin:miter;stroke-opacity:1"
       d="m 966.70263,1281.9721 c 37.18817,91.7805 51.29427,84.7087 57.07537,41.9832 10.1614,15.4323 12.3245,60.6932 41.4001,5.5858 17.9531,40.023 32.4312,34.914 44.062,-7.1739 31.187,75.8538 50.2035,32.0394 66.9387,15.1094 42.2304,42.4272 158.3783,48.8759 209.2205,-5.8369 10.7685,19.5051 22.2433,34.8489 43.8329,-1.9364 -2.1122,44.5449 26.0598,7.5009 49.9813,-49.2058 -3.064,33.3537 -18.7949,90.2026 13.8737,57.2753 3.7823,23.8344 0.7941,55.3699 70.6701,4.0248 -20.3236,67.9175 38.4793,-1.2141 95.459,-67.1871 -35.9094,57.5257 -84.9702,128.2944 -23.644,105.1684 -34.4779,48.1932 -31.3892,65.8771 66.4911,63.4999 -92.6422,24.8181 -115.3809,57.3228 -60.0034,123.2148 -40.0687,-31.0307 -97.6051,-35.2418 -48.1453,7.5461 -49.8399,-34.2663 -57.0201,-17.672 -39.283,10.4041 -54.4151,-49.3277 -28.8259,-9.7825 -25.8084,29.1527 -39.1724,-24.5276 -65.397,-52.6972 -59.6303,10.0835 -40.7679,-48.1752 -47.7201,-30.9006 -52.5128,-9.4462 -72.3836,-72.8026 -63.0197,-29.2975 -76.9298,-18.9061 -20.9293,-26.9338 -20.3995,-4.8298 -16.5413,24.8798 -20.0305,-31.4777 -38.177,-43.6108 -51.4959,-6.1606 -12.5488,-17.3167 -24.8634,-41.8525 -39.1564,-5.4578 -17.2848,-19.8523 -35.5157,-27.744 -57.8369,16.0725 -9.4938,-26.4714 -23.5022,-45.5282 -70.4608,-10.4684 -8.8522,-56.7978 -49.057,-47.6201 -99.4696,-16.9621 1.5475,-33.3735 -2.4344,-55.2983 -54.68101,22.7077 10.85458,-34.0901 23.21733,-70.0258 -8.42181,-52.1235 19.85343,-65.2228 -7.93613,-47.7521 -66.78821,-34.4229 60.12027,-37.9606 91.33018,-76.2312 33.27531,-75.6147 39.89771,-37.8995 36.76859,-57.7575 18.78457,-56.1043 2.72487,-11.7108 35.21411,-32.981 -10.2987,-32.175 24.03567,-15.9508 59.49193,-11.3665 50.04298,-87.5263 z"
       id="path4656"
       inkscape:connector-curvature="0"
       sodipodi:nodetypes="ccccccccccccccccccccccccccccccccc" />
    <path
       style="fill:#ffffff;fill-rule:evenodd;stroke:none;stroke-width:0.888583px;stroke-linecap:butt;stroke-linejoin:miter;stroke-opacity:1"
       d="m 844.50376,1241.283 c 18.07329,13.5269 64.42864,21.0234 1.84171,61.3674 33.13034,0.9671 51.45855,1.7537 20.25871,19.124 42.39763,0.3154 0.89932,9.9013 -20.05919,19.2955 23.0743,-0.2589 57.26533,-7.2784 5.26003,24.6341 43.01574,-9.2869 31.53818,2.0347 -11.806,24.1629 42.01216,-18.0895 59.36746,-15.5403 41.55351,-1.2529 17.62308,-4.4671 19.81116,9.3935 -15.03318,23.1786 47.41659,-18.6636 46.41074,-15.588 48.9591,30.6472 11.27063,-81.4311 13.18812,-22.0057 15.88807,17.1079 17.96643,-121.4005 42.25618,-23.7441 47.58173,-10.6724 -4.46945,-94.3594 28.27365,-55.4681 36.83405,-19.5954 -2.2068,-23.0122 8.2913,-69.487 39.6248,-13.1188 -7.471,-20.7496 -2.3864,-42.2962 25.7557,9.0732 -8.5345,-34.3451 7.2754,-44.1683 56.5325,-11.8006 -0.3801,-17.0771 -5.184,-35.014 46.6032,-4.833 -0.9716,-15.6767 -11.5307,-37.2075 58.9344,-9.2545 0.4598,-27.3754 11.8104,-29.1099 31.5861,-16.5125 -3.3783,-23.4934 18.2189,-12.9018 45.5925,2.7953 -17.4344,-32.042 6.3373,-28.6243 40.6906,-18.8217 -3.3358,-15.5655 -8.1049,-31.5384 11.9711,-40.4365 -38.8162,-45.8169 -4.48,-49.5374 7.3668,-54.4273 -19.4432,-1.4095 -33.9775,-17.4541 -8.9386,-30.1681 -29.1536,7.4451 -18.4482,-15.1614 -16.8453,-27.4943 l -46.9634,-18.905 -46.0427,-8.3897 -55.2511,-8.3137 -51.5678,-1.3291 -52.4887,0.4324 -46.0425,3.8873 -39.5967,-8.4427 -40.51753,9.1027 -57.09286,-1.2836 -27.62557,30.0425 c 9.30273,28.7919 -20.09512,28.5474 -46.96348,30.2008 z"
       id="path4323"
       inkscape:connector-curvature="0"
       sodipodi:nodetypes="ccccccccccccccccccccccccccccccccccc" />
    <path
       style="color:#000000;display:inline;overflow:visible;visibility:visible;fill:#ffffff;fill-opacity:1;fill-rule:nonzero;stroke:none;stroke-width:1.29506px;marker:none;enable-background:accumulate"
       d="m 1929.6127,2217.6218 c -36.5817,1.5524 -73.2805,1.6745 -109.7079,5.8715 -18.7933,2.4928 -37.5979,8.4964 -52.893,20.5327 -20.9887,15.7214 -34.7853,41.0255 -37.9462,67.7386 -4.6107,28.1143 -7.6472,57.2622 -1.8376,85.4434 5.8466,22.4498 24.6168,39.5528 45.7345,45.5546 44.2408,14.6751 90.8678,19.2336 137.0697,20.1827 29.3601,0.619 58.7299,0.2141 88.0912,-0.021 41.2778,-1.0322 82.4125,-5.2173 123.4365,-9.8863 17.4894,-2.4001 35.2427,-5.3639 51.4401,-12.9976 17.0722,-8.367 31.4622,-23.0143 38.8632,-41.2686 11.4705,-26.4417 11.3102,-57.2071 3.3588,-84.6829 -8.0734,-27.1633 -25.8287,-51.126 -49.3291,-65.5498 -24.0857,-15.5705 -52.4589,-22.3427 -80.504,-23.7346 -50.3885,-4.3808 -100.933,-7.1118 -151.4988,-7.3587 -1.4258,0.059 -2.8516,0.1173 -4.2774,0.176 z"
       id="path4546-6-5-5"
       inkscape:connector-curvature="0"
       sodipodi:nodetypes="cssssc" />
    <path
       style="color:#000000;display:inline;overflow:visible;visibility:visible;fill:#ffffff;fill-opacity:1;fill-rule:nonzero;stroke:none;stroke-width:0.710908px;marker:none;enable-background:accumulate"
       d="m 427.36079,1539.322 c -18.49435,2.3317 -20.41009,4.4325 -21.96654,15.8617 -1.55611,11.4299 -0.85275,28.3587 -14.56075,40.6485 -13.70771,12.2903 -23.6764,10.0093 -30.31719,9.0645 4.26773,13.7681 1.4232,41.4005 9.47615,45.7822 8.05295,4.3816 -16.23573,2.0167 -16.23573,2.0167 0,0 -18.78665,-30.5045 -14.52874,-48.8854 4.25786,-18.3808 31.63742,-15.9961 42.0788,-22.7096 10.44133,-6.7135 10.50842,-30.2213 17.90427,-37.5835 7.39563,-7.363 19.29539,-5.4547 28.14973,-4.1951 z"
       id="path4538-7"
       inkscape:connector-curvature="0"
       sodipodi:nodetypes="ccscccsscc" />
    <path
       style="color:#000000;display:inline;overflow:visible;visibility:visible;fill:#ffffff;fill-opacity:1;fill-rule:nonzero;stroke:none;stroke-width:0.576009px;marker:none;enable-background:accumulate"
       d="m 269.38616,1653.529 c 23.98622,-18.7388 72.99975,-31.6297 113.83578,1.6461 32.33893,26.3516 21.53309,64.4595 4.25504,76.2832 -17.27802,11.8238 -72.26174,14.2552 -97.55286,8.4261 -19.52455,-4.5006 -40.92884,-15.7046 -42.10867,-45.5966 -0.48149,-12.2006 -2.41553,-22.02 21.57071,-40.7588 z"
       id="path4040-2-9"
       inkscape:connector-curvature="0"
       sodipodi:nodetypes="zssssz" />
    <path
       style="color:#000000;display:inline;overflow:visible;visibility:visible;fill:#ffffff;fill-opacity:1;fill-rule:nonzero;stroke:none;stroke-width:0.590855px;marker:none;enable-background:accumulate"
       d="m 248.38875,1580.4882 c 25.2386,-18.1575 76.81125,-29.8607 119.77943,4.4047 34.02742,27.1353 22.65738,64.9814 4.47719,76.3864 -18.18014,11.405 -76.0347,12.504 -102.64632,6.062 -20.54397,-4.9737 -43.06584,-16.6964 -44.30727,-46.617 -0.50663,-12.2123 -2.54165,-22.0785 22.69697,-40.2361 z"
       id="path4040-2"
       inkscape:connector-curvature="0"
       sodipodi:nodetypes="zssssz" />
    <path
       style="display:inline;fill:#ffffff;stroke:none;stroke-width:0.931723"
       d="m 2366.85,1068.0058 c 1.6905,24.3492 -28.6191,85.3049 -176.4677,80.7198 -147.8485,-4.585 -194.1229,-31.3674 -198.4555,-74.6483 -6.8539,-68.4687 70.9291,-86.7653 182.6184,-91.8373 115.1396,-5.2277 194.0917,41.7712 192.3048,85.7658 z"
       id="path3280-8-3-6"
       inkscape:connector-curvature="0"
       sodipodi:nodetypes="csssc" />
    <path
       style="display:inline;fill:#ffffff;stroke:none;stroke-width:1.57021"
       d="m 2042.3728,157.73242 c -48.0818,1.22741 -96.6343,0.65377 -143.9604,11.64271 -31.5212,7.26866 -62.8902,18.24311 -90.2741,37.64919 -20.8567,15.61757 -35.75,40.37176 -42.0111,67.52394 -8.1198,34.18818 -3.1577,72.58536 15.254,101.60212 11.445,18.28386 28.0969,31.94767 46.4364,40.32323 22.7341,11.11943 46.9257,17.69836 70.8906,24.49612 69.1065,18.23843 141.2902,23.55943 211.6322,11.66052 28.3524,-4.66315 56.5551,-11.36172 83.6236,-22.04822 25.564,-10.79845 50.1555,-26.26921 68.9494,-48.85575 16.1905,-21.28933 23.2944,-49.8403 22.8619,-77.51336 -0.01,-24.0505 -5.2753,-48.94976 -18.6714,-68.15825 -13.3234,-18.42402 -31.9424,-30.59177 -50.4544,-41.34071 -27.8698,-15.26532 -58.5204,-22.13652 -88.7802,-28.50582 -28.1578,-5.93596 -56.8425,-8.90582 -85.4965,-8.47572 z"
       id="path3280-8-3"
       inkscape:connector-curvature="0"
       sodipodi:nodetypes="csssc" />
    <path
       style="color:#000000;display:inline;overflow:visible;visibility:visible;fill:#ffffff;fill-opacity:1;fill-rule:nonzero;stroke:none;stroke-width:0.608783px;marker:none;enable-background:accumulate"
       d="m 1751.6945,114.89021 c -18.9368,0.19876 -37.8745,0.23573 -56.8115,0.0361 -12.3985,-0.15064 -24.8601,0.0784 -37.0956,2.03019 -22.79,3.50156 -45.0366,10.87948 -64.0337,22.65588 -5.294,3.30879 -10.37,7.04436 -13.8743,11.93724 -13.1271,17.0665 -13.5636,41.51604 0.5145,58.25548 9.3993,10.86604 23.8267,16.93149 37.87,21.8482 34.8402,12.2628 72.6756,16.06215 109.9382,16.19885 32.1869,0.0168 64.7345,3.55265 96.6185,-1.91017 27.9276,-4.893 55.2916,-15.14971 76.2977,-32.45939 12.7964,-11.25246 19.1462,-28.72314 13.6899,-44.21962 -5.1799,-15.76059 -19.1497,-28.31168 -35.4177,-35.67437 -25.4614,-12.27824 -54.6479,-17.09788 -83.3834,-18.1343 -14.7598,-0.61735 -29.5398,-0.64655 -44.3126,-0.56415 z"
       id="path3525-8"
       inkscape:connector-curvature="0"
       sodipodi:nodetypes="cscsc" />
    <path
       style="fill:#ffffff;fill-rule:evenodd;stroke:none;stroke-width:1.06468px;stroke-linecap:butt;stroke-linejoin:miter;stroke-opacity:1"
       d="m 786.34361,430.16165 c 0,0 22.37691,25.375 30.38987,41.353 9.55841,41.6769 -15.08254,52.26548 -11.80509,72.946 4.69971,21.617 12.77263,34.196 42.40829,52.053 -36.46109,-14.098 -60.72938,-25.376 -65.42892,-46.992 -4.6996,-21.617 12.02504,-48.872 9.37974,-58.27 -2.64548,-9.399 -11.01511,-33.835 -33.19349,-51.692 -22.17826,-17.857 28.2496,-9.398 28.2496,-9.398 z"
       id="path1303"
       inkscape:connector-curvature="0"
       sodipodi:nodetypes="cccccccc" />
    <path
       style="color:#000000;display:inline;overflow:visible;visibility:visible;fill:#ffffff;fill-opacity:1;fill-rule:nonzero;stroke:none;stroke-width:1.01383px;marker:none;enable-background:accumulate"
       d="m 1306.1372,933.87003 c -52.2194,0.60259 -104.9875,6.18237 -153.3201,20.55394 -24.3339,6.8158 -44.3213,20.20051 -56.8039,36.26591 -17.6476,20.72842 -24.4581,45.23962 -23.9074,69.18952 -0.3404,21.7572 1.9885,44.0819 13.919,64.4005 9.9877,16.3502 23.5266,32.3696 44.2372,43.0868 15.7737,7.9151 35.2701,10.8229 54.2492,12.0262 46.1856,3.2038 92.89,-3.3074 138.8408,2.4567 33.8402,3.7138 67.7831,9.2669 102.2566,7.7134 20.762,-1.3133 40.5951,-6.2024 61.0882,-8.6256 13.4668,-1.6374 27.6596,-2.7177 39.5377,-7.8656 3.3861,-1.1629 5.397,-3.4509 6.4839,-5.9122 2.7612,-6.2805 1.347,-12.9579 0.7773,-19.3896 -1.7334,-12.7405 -4.2109,-25.749 -0.2252,-38.4116 4.4335,-27.0264 13.0393,-54.101 9.2266,-81.4382 -3.2776,-19.522 -12.1947,-39.13286 -29.9728,-54.58743 -16.0561,-12.5725 -38.627,-19.71581 -61.0372,-24.9568 -34.3483,-7.67817 -70.3296,-10.66881 -106.0392,-13.30256 -13.0714,-0.78675 -26.1889,-1.25367 -39.3107,-1.20338 z"
       id="path4040-40"
       inkscape:connector-curvature="0"
       sodipodi:nodetypes="zsssszccccccccz" />
    <path
       style="display:inline;fill:#ffffff;stroke:none;stroke-width:0.943189"
       d="m 747.84913,67.42033 c -61.13017,2.67032 -129.21314,-2.532677 -162.06224,0.992708 -4.67361,87.829412 -22.00262,155.670332 -16.10878,197.386812 5.12884,34.54789 10.88761,69.08694 19.71836,103.16233 5.83158,19.27707 16.84694,38.21047 35.57878,51.5226 20.84604,15.28973 47.8276,23.53084 74.57657,29.58115 64.5829,14.64912 134.52459,15.8856 198.93474,-0.0462 17.42231,-4.17863 33.97941,-10.55254 49.02225,-18.76966 28.33011,-15.26348 52.20239,-35.90923 69.08549,-59.75907 16.6721,-25.11063 21.6847,-53.78722 25.2303,-81.74462 4.24,-34.09315 2.5719,-69.38237 -12.1343,-101.84404 -11.317,-24.51247 -28.5992,-47.57221 -52.3331,-65.57337 C 948.02819,101.03417 910.56964,88.78166 872.92426,80.496412 832.22867,71.582333 790.02561,67.121389 747.84913,67.42033 Z"
       id="path3280-5"
       inkscape:connector-curvature="0"
       sodipodi:nodetypes="ccsscccccccccc" />
    <path
       style="fill:#ffffff;fill-rule:evenodd;stroke:none;stroke-width:1.36569px;stroke-linecap:butt;stroke-linejoin:miter;stroke-opacity:1"
       d="m 1309.5687,939.23352 c 8.7674,-29.78389 -2.55,-70.85724 -21.3421,-92.51878 19.294,12.00335 47.6581,40.90723 49.4868,77.53639 2.8542,57.16677 -26.6522,18.09019 -26.6522,18.09019 z"
       id="path4248"
       inkscape:connector-curvature="0"
       sodipodi:nodetypes="ccscc" />
    <path
       style="color:#000000;display:inline;overflow:visible;visibility:visible;fill:#ffffff;fill-opacity:1;fill-rule:nonzero;stroke:none;stroke-width:1.27845px;marker:none;enable-background:accumulate"
       d="m 2159.8838,536.71889 c 47.5494,-40.109 11.4958,-121.92186 -22.0631,-138.04748 -43.9644,-41.61081 21.7355,-52.5057 21.7355,-52.5057 l 27.3389,46.67174 c -4.9414,6.99806 59.5251,106.49368 -27.0113,143.88144 z"
       id="path3072-56"
       inkscape:connector-curvature="0"
       sodipodi:nodetypes="ccccc" />
    <path
       style="fill:#ffffff;fill-rule:evenodd;stroke:none;stroke-width:1px;stroke-linecap:butt;stroke-linejoin:miter;stroke-opacity:1"
       d="m 2145.9447,911.76156 c 17.8164,6.86787 32.8659,22.27667 36.9127,41.22902 2.4357,13.03639 -1.9004,26.29118 -8.401,37.50329 -6.139,11.51773 -13.902,22.87523 -15.1546,36.21623 -0.038,3.7486 4.352,7.1591 7.7995,4.9374 5.4591,-2.2621 9.1063,-7.2123 13.9986,-10.3572 13.619,-10.9723 25.9848,-24.85172 30.732,-42.05359 4.3293,-16.93725 -3.8025,-35.55082 -17.8163,-45.50969 -14.6218,-11.8782 -32.4276,-19.47815 -50.851,-23.07104 0.9267,0.36853 1.8534,0.73706 2.7801,1.10558 z"
       id="path914"
       inkscape:connector-curvature="0"
       sodipodi:nodetypes="cscc" />
    <path
       style="fill:#ffffff;fill-rule:evenodd;stroke:none;stroke-width:1px;stroke-linecap:butt;stroke-linejoin:miter;stroke-opacity:1"
       d="m 1859.1104,1611.6362 -101.7503,-92.9388 -6.0669,33.3207 -71.4256,-61.6811 -11.1854,27.4382 91.4542,66.5103 8.19,-37.7549 z"
       id="path4667"
       inkscape:connector-curvature="0" />
    <path
       style="color:#000000;display:inline;overflow:visible;visibility:visible;fill:#ffffff;fill-opacity:1;fill-rule:nonzero;stroke:none;stroke-width:1.14715px;marker:none;enable-background:accumulate"
       d="m 284.24765,2318.4867 c -40.4116,58.36 -53.3089,167.707 24.2468,263.215 -108.4132,-99.32 -82.2954,-214.062 -72.6196,-244.978 2.0322,-33.697 48.3728,-18.237 48.3728,-18.237 z"
       id="path4008-0"
       inkscape:connector-curvature="0"
       sodipodi:nodetypes="cccc" />
    <path
       style="color:#000000;display:inline;overflow:visible;visibility:visible;fill:#ffffff;fill-opacity:1;fill-rule:nonzero;stroke:none;stroke-width:1px;marker:none;enable-background:accumulate"
       d="m 2007.8186,2508.6854 c -16.2035,68.7147 -23.8042,123.8365 19.1198,161.3448 -35.9827,-18.9303 -60.1167,-37.3437 -55.228,-133.0047 3.2811,-29.3033 15.4575,-25.6682 36.1082,-28.3401 z"
       id="path4064-5"
       inkscape:connector-curvature="0"
       sodipodi:nodetypes="cccc" />
    <path
       style="fill:#ffffff;fill-rule:evenodd;stroke:none;stroke-width:1.0599px;stroke-linecap:butt;stroke-linejoin:miter;stroke-opacity:1"
       d="m 1312.6704,2517.7831 c 23.7195,-14.0861 43.1327,-10.969 67.1439,-1.3968 -21.0663,-24.318 -50.0172,-29.1023 -87.4659,-14.9118 -44.493,16.8599 17.6099,16.5876 17.6099,16.5876 z"
       id="path4248-5"
       inkscape:connector-curvature="0"
       sodipodi:nodetypes="ccscc" />
    <path
       style="fill:#ffffff;fill-opacity:1;stroke:none;stroke-width:0.656533"
       d="m 2165.0154,2529.7013 c -18.1713,-4.5023 -25.1602,-8.6829 -21.8987,-11.2559 -30.4294,-21.5129 -4.5458,-41.3861 -0.9319,-43.737 -0.01,-1.592 -9.7845,0.6431 -11.1822,-0.643 -1.3978,-1.2869 9.5935,-12.0255 7.7298,-12.6686 -1.8638,-0.6437 -41.7427,3.9856 -47.7997,1.0911 -6.0572,-2.8945 -2.7957,-10.2913 -4.6593,-10.6129 -1.8637,-0.3215 -19.1032,1.6078 -21.4329,1.2862 -2.3295,-0.3215 -6.5228,-9.9691 -8.8525,-10.2907 -2.3297,-0.3215 -13.0461,4.1808 -14.9098,3.8592 -1.8637,-0.3216 -0.9318,-8.3614 -3.2615,-8.6829 -2.3297,-0.3216 -12.5801,6.753 -13.9779,6.4315 -1.3978,-0.3216 -6.523,-16.4013 -8.8527,-17.3659 -2.3297,-0.9647 -17.2393,17.6874 -18.6372,18.0089 -1.3977,0.3222 -10.2504,-21.8681 -12.1142,-22.1897 -1.8637,-0.3215 -11.1822,15.1152 -12.58,14.7936 -1.3978,-0.3216 -10.2505,-9.3267 -12.1141,-9.9698 -1.8637,-0.643 -13.978,19.9389 -15.8417,19.9389 -1.8638,0 -17.7053,-8.6829 -19.1031,-10.2907 -1.3978,-1.6083 -2.7956,8.3615 -4.6593,8.3615 -1.8637,0 -23.2965,-5.7891 -23.7625,-5.4676 -0.4659,0.3216 3.2616,6.4322 1.8638,6.4322 -1.3978,0 -23.2964,-8.0398 -24.2284,-6.4322 -0.9318,1.6084 -47.5247,-8.0398 -50.7863,-6.7536 -3.2615,1.2868 20.9669,26.371 18.6373,28.3009 -2.3297,1.9292 -10.7165,-0.3215 -11.1825,0.6431 -0.4658,0.9646 5.1253,5.1453 3.7276,6.4315 -1.3979,1.2868 -17.2395,6.4321 -18.6372,8.0399 -1.3979,1.6083 6.9889,5.789 5.1253,6.7536 -1.8638,0.9653 -29.3539,7.0753 -29.8196,8.6836 -0.466,1.6078 13.9779,9.326 12.1141,11.5768 -1.8637,2.2515 -6.989,3.2161 -6.523,4.8245 0.4659,1.6077 9.3187,3.5376 8.8527,5.1453 -0.4659,1.6077 -5.1252,9.6483 -6.523,10.9344 -1.3978,1.2862 9.7845,0.6431 9.7845,1.9293 0,1.2868 -0.823,20.6031 -17.3762,32.291 28.9528,-7.7421 41.1386,-3.9901 56.5143,-1.4178 15.3757,2.573 9.3186,18.6528 11.6482,19.6174 2.3296,0.9652 19.5691,-5.4669 21.8987,-3.2161 2.3297,2.2515 3.2615,6.4321 5.1253,6.4321 1.8636,0 12.5801,-9.0045 14.9097,-8.6829 2.3296,0.3215 24.2283,14.472 27.49,14.7935 3.2614,0.3216 15.8414,-5.4675 18.6371,-5.789 2.7956,-0.3216 5.1251,7.7183 7.4549,7.0752 2.3296,-0.6431 17.2394,-6.4321 19.5688,-5.789 2.3298,0.6437 4.1935,3.216 6.0573,2.573 1.8636,-0.6432 10.2504,-3.2161 10.2504,-3.2161 0,0 6.0571,1.9299 8.8526,1.9299 2.7956,0 21.8986,-10.6129 24.2284,-11.256 2.3296,-0.6431 26.2467,10.9614 24.8488,12.8907 2.9686,-8.4443 17.3129,-13.7539 20.3464,-14.1768 3.2614,-0.9653 13.046,1.9292 13.9778,0.9646 0.9319,-0.9646 3.7274,-6.1106 6.523,-6.4322 2.7956,-0.3215 9.3187,-1.6077 9.3187,-1.6077 l -0.9319,-1.9298 c 0,0 19.569,5.1459 21.8988,7.0751 2.3295,1.93 -1.3979,-8.3614 -2.7957,-10.9343 8.3867,2.5729 33.081,8.0398 34.9446,9.6482 1.8638,1.6077 -3.2613,-5.789 -6.057,-8.0399 3.7275,0.9646 6.989,1.2862 6.989,1.2862 l -10.7165,-7.7183 3.2617,-0.6431 c 0,0 -6.989,-3.5376 -6.989,-5.1453 0,-1.6084 18.1711,-3.5376 18.1711,-3.5376 0,0 -7.4548,-2.8945 -5.5911,-4.5023 1.8638,-1.6083 6.5231,-2.573 6.5231,-2.573 l 0.9317,-4.1807 z"
       id="path5888-3"
       inkscape:connector-curvature="0"
       sodipodi:nodetypes="cccccsscccccccsccscscsccsccccccsccscscssccsccscscccccccsccccccsccccc" />
  </g>
  <g
     inkscape:groupmode="layer"
     id="layer1"
     inkscape:label="txt">
    <text
       xml:space="preserve"
       style="font-style:normal;font-variant:normal;font-weight:normal;font-stretch:normal;font-size:80px;line-height:1.25;font-family:Lavi;-inkscape-font-specification:Lavi;letter-spacing:5.22413px;word-spacing:0px;fill:#ffffff;fill-opacity:1;stroke:#ffffff;stroke-width:0.668774;stroke-miterlimit:4;stroke-dasharray:none;stroke-opacity:1;filter:url(#filter4375-4-1-1-1-9-5-8-8-5-5-3-3-3-0)"
       id="text4580-6-0-0-0-9-3-3-2-0"
       transform="matrix(1.1484433,-0.31259721,-0.62973044,2.2133476,1649.3614,-1833.1372)"
       x="-607.91235"
       y="1245.0809"><tspan
         id="tspan1534-6"
         style="font-size:61.3371px">SO<tspan
   style="font-size:56.1129px"
   id="tspan949">R</tspan><tspan
   style="font-size:56.1129px"
   id="tspan945">Ĉ</tspan> !!</tspan></text>
    <text
       xml:space="preserve"
       style="font-style:normal;font-variant:normal;font-weight:normal;font-stretch:normal;font-size:45px;line-height:1.25;font-family:Lavi;-inkscape-font-specification:Lavi;text-align:center;letter-spacing:0px;word-spacing:0px;text-anchor:middle;fill:#000000;fill-opacity:1;stroke:none"
       x="809.04907"
       y="182.81442"
       id="text4246-3-2-2-6-3-7-9-3-3-56-9-3-20"><tspan
         style="font-size:45px"
         sodipodi:role="line"
         x="809.04907"
         y="182.81442"
         id="tspan915">Komprenite. Vi</tspan><tspan
         style="font-size:45px"
         sodipodi:role="line"
         x="809.04907"
         y="239.06442"
         id="tspan964">atingis la nivelon</tspan><tspan
         style="font-size:45px"
         sodipodi:role="line"
         x="809.04907"
         y="295.31442"
         id="tspan966">de viaj antaŭuloj</tspan><tspan
         style="font-size:45px"
         sodipodi:role="line"
         x="809.04907"
         y="351.56442"
         id="tspan965">pli frue ol mi</tspan><tspan
         style="font-size:45px"
         sodipodi:role="line"
         x="809.04907"
         y="407.81442"
         id="tspan969">atendis...</tspan></text>
    <text
       xml:space="preserve"
       style="font-style:normal;font-variant:normal;font-weight:normal;font-stretch:normal;font-size:45px;line-height:1.25;font-family:Lavi;-inkscape-font-specification:Lavi;text-align:center;letter-spacing:0px;word-spacing:0px;text-anchor:middle;fill:#000000;fill-opacity:1;stroke:none"
       x="1312.303"
       y="1014.1287"
       id="text4246-3-2-2-6-3-7-9-3-3-56-9-3-20-3"><tspan
         style="font-size:45px"
         sodipodi:role="line"
         x="1312.303"
         y="1014.1287"
         id="tspan994">Tio akcelas</tspan><tspan
         style="font-size:45px"
         sodipodi:role="line"
         x="1312.303"
         y="1070.3787"
         id="tspan983">miajn planojn, sed</tspan><tspan
         style="font-size:45px"
         sodipodi:role="line"
         x="1312.303"
         y="1126.6287"
         id="tspan985">fakte tio bonas.</tspan></text>
    <text
       xml:space="preserve"
       style="font-style:normal;font-variant:normal;font-weight:normal;font-stretch:normal;font-size:45px;line-height:1.25;font-family:Lavi;-inkscape-font-specification:Lavi;text-align:center;letter-spacing:0px;word-spacing:0px;text-anchor:middle;fill:#000000;fill-opacity:1;stroke:none"
       x="1743.1007"
       y="193.33838"
       id="text4246-3-2-2-6-3-7-9-3-3-56-9-3-20-3-2"><tspan
         style="font-size:45px"
         sodipodi:role="line"
         x="1743.1007"
         y="193.33838"
         id="tspan994-7">Viajn planojn ?</tspan></text>
    <text
       xml:space="preserve"
       style="font-style:normal;font-variant:normal;font-weight:normal;font-stretch:normal;font-size:45px;line-height:1.25;font-family:Lavi;-inkscape-font-specification:Lavi;text-align:center;letter-spacing:0px;word-spacing:0px;text-anchor:middle;fill:#000000;fill-opacity:1;stroke:none"
       x="2028.2909"
       y="242.40437"
       id="text4246-3-2-2-6-3-7-9-3-3-56-9-3-20-3-2-0"><tspan
         style="font-size:45px"
         sodipodi:role="line"
         x="2028.2909"
         y="242.40437"
         id="tspan1004">Ĉu vi do nur</tspan><tspan
         style="font-size:45px"
         sodipodi:role="line"
         x="2028.2909"
         y="298.65436"
         id="tspan8474">testis min, kaj ĉio ĉi</tspan><tspan
         style="font-size:45px"
         sodipodi:role="line"
         x="2028.2909"
         y="354.90436"
         id="tspan8480">neniel rilatis al mia </tspan><tspan
         style="font-size:45px"
         sodipodi:role="line"
         x="2028.2909"
         y="411.15436"
         id="tspan8482">malfrueco ?</tspan></text>
    <text
       xml:space="preserve"
       style="font-style:normal;font-variant:normal;font-weight:normal;font-stretch:normal;font-size:45px;line-height:1.25;font-family:Lavi;-inkscape-font-specification:Lavi;text-align:center;letter-spacing:0px;word-spacing:0px;text-anchor:middle;fill:#000000;fill-opacity:1;stroke:none"
       x="2181.271"
       y="1047.5718"
       id="text4246-3-2-2-6-3-7-9-3-3-56-9-3-20-3-2-0-3"><tspan
         style="font-size:45px"
         sodipodi:role="line"
         x="2181.271"
         y="1047.5718"
         id="tspan1100-2">Via pensado</tspan><tspan
         style="font-size:45px"
         sodipodi:role="line"
         x="2181.271"
         y="1103.8218"
         id="tspan1147">tute malsanas !</tspan></text>
    <text
       xml:space="preserve"
       style="font-style:normal;font-variant:normal;font-weight:normal;font-stretch:normal;font-size:45px;line-height:1.25;font-family:Lavi;-inkscape-font-specification:Lavi;text-align:center;letter-spacing:0px;word-spacing:0px;text-anchor:middle;fill:#000000;fill-opacity:1;stroke:none"
       x="314.83337"
       y="1631.6757"
       id="text4246-3-2-2-6-3-7-9-3-3-56-9-3-20-3-2-0-3-1"><tspan
         style="font-size:45px"
         sodipodi:role="line"
         x="314.83337"
         y="1631.6757"
         id="tspan1224">hii...</tspan></text>
    <text
       xml:space="preserve"
       style="font-style:normal;font-variant:normal;font-weight:normal;font-stretch:normal;font-size:45px;line-height:1.25;font-family:Lavi;-inkscape-font-specification:Lavi;text-align:center;letter-spacing:0px;word-spacing:0px;text-anchor:middle;fill:#000000;fill-opacity:1;stroke:none"
       x="327.27063"
       y="1708.0287"
       id="text4246-3-2-2-6-3-7-9-3-3-56-9-3-20-3-2-0-3-1-2"><tspan
         style="font-size:45px"
         sodipodi:role="line"
         x="327.27063"
         y="1708.0287"
         id="tspan1224-2">hii.</tspan></text>
    <text
       xml:space="preserve"
       style="font-style:normal;font-variant:normal;font-weight:normal;font-stretch:normal;font-size:51.7551px;line-height:1.25;font-family:Lavi;-inkscape-font-specification:Lavi;text-align:center;letter-spacing:0px;word-spacing:0px;text-anchor:middle;fill:#000000;fill-opacity:1;stroke:none;stroke-width:1.15011"
       x="1273.3981"
       y="1290.0323"
       id="text4246-3-2-2-6-3-7-9-3-3-56-9-3-20-3-3"
       transform="skewX(-7.1285627)"><tspan
         style="font-style:normal;font-variant:normal;font-weight:bold;font-stretch:normal;font-size:51.7551px;font-family:Lavi;-inkscape-font-specification:'Lavi Bold';stroke-width:1.15011"
         sodipodi:role="line"
         x="1273.3981"
         y="1290.0323"
         id="tspan994-2">KION VI ĈIUJ</tspan><tspan
         style="font-style:normal;font-variant:normal;font-weight:bold;font-stretch:normal;font-size:51.7551px;font-family:Lavi;-inkscape-font-specification:'Lavi Bold';stroke-width:1.15011"
         sodipodi:role="line"
         x="1273.3981"
         y="1354.7262"
         id="tspan1341">RIGARDAS ?!</tspan></text>
    <text
       xml:space="preserve"
       style="font-style:normal;font-variant:normal;font-weight:normal;font-stretch:normal;font-size:47.4643px;line-height:1.25;font-family:Lavi;-inkscape-font-specification:Lavi;text-align:center;letter-spacing:0px;word-spacing:0px;text-anchor:middle;fill:#000000;fill-opacity:1;stroke:none;stroke-width:1.05476"
       x="1452.0516"
       y="1431.9385"
       id="text4246-3-2-2-6-3-7-9-3-3-56-9-3-20-3-3-2"
       transform="skewX(-7.1285625)"><tspan
         style="font-style:normal;font-variant:normal;font-weight:bold;font-stretch:normal;font-size:47.4643px;font-family:Lavi;-inkscape-font-specification:'Lavi Bold';stroke-width:1.05476"
         sodipodi:role="line"
         x="1452.0516"
         y="1431.9385"
         id="tspan1375">ŜI ĴUS MIN ATAKIS, KAJ</tspan><tspan
         style="font-style:normal;font-variant:normal;font-weight:bold;font-stretch:normal;font-size:47.4643px;font-family:Lavi;-inkscape-font-specification:'Lavi Bold';stroke-width:1.05476"
         sodipodi:role="line"
         x="1452.0516"
         y="1491.2688"
         id="tspan1010">VI NUR STARAS TIE ?!</tspan><tspan
         style="font-style:normal;font-variant:normal;font-weight:bold;font-stretch:normal;font-size:47.4643px;font-family:Lavi;-inkscape-font-specification:'Lavi Bold';stroke-width:1.05476"
         sodipodi:role="line"
         x="1452.0516"
         y="1550.5992"
         id="tspan1016">KAPTU ŜIN !!!</tspan></text>
    <text
       xml:space="preserve"
       style="font-style:normal;font-variant:normal;font-weight:normal;font-stretch:normal;font-size:55.0712px;line-height:1.25;font-family:Lavi;-inkscape-font-specification:Lavi;text-align:center;letter-spacing:0px;word-spacing:0px;text-anchor:middle;fill:#000000;fill-opacity:1;stroke:none;stroke-width:1.22379"
       x="614.35553"
       y="2221.3306"
       id="text4246-3-2-2-6-3-7-9-3-3-56-9-3-20-3-3-2-7"
       transform="matrix(0.99725425,0,-0.12471947,1.0027533,0,0)"><tspan
         style="font-style:normal;font-variant:normal;font-weight:bold;font-stretch:normal;font-size:55.0712px;font-family:Lavi;-inkscape-font-specification:'Lavi Bold';stroke-width:1.22379"
         sodipodi:role="line"
         x="614.35553"
         y="2221.3306"
         id="tspan1375-1">MI VOLAS</tspan><tspan
         style="font-style:normal;font-variant:normal;font-weight:bold;font-stretch:normal;font-size:55.0712px;font-family:Lavi;-inkscape-font-specification:'Lavi Bold';stroke-width:1.22379"
         sodipodi:role="line"
         x="614.35553"
         y="2290.1697"
         id="tspan1414">ŜIN VIVAN !</tspan></text>
    <text
       xml:space="preserve"
       style="font-style:normal;font-variant:normal;font-weight:normal;font-stretch:normal;font-size:70.9781px;line-height:1.25;font-family:Lavi;-inkscape-font-specification:Lavi;text-align:center;letter-spacing:0px;word-spacing:0px;text-anchor:middle;fill:#000000;fill-opacity:1;stroke:none;stroke-width:1.57727"
       x="1546.9048"
       y="2006.6577"
       id="text4246-3-2-2-6-3-7-9-3-3-56-9-3-20-3-3-2-7-2"
       transform="matrix(0.89307378,0,-0.11169036,1.1197283,0,0)"><tspan
         style="font-style:normal;font-variant:normal;font-weight:bold;font-stretch:normal;font-size:70.9781px;font-family:Lavi;-inkscape-font-specification:'Lavi Bold';stroke-width:1.57727"
         sodipodi:role="line"
         x="1546.9048"
         y="2006.6577"
         id="tspan1414-3">KAPTU ŜIN !!!</tspan></text>
    <text
       xml:space="preserve"
       style="font-style:normal;font-variant:normal;font-weight:normal;font-stretch:normal;font-size:45px;line-height:1.25;font-family:Lavi;-inkscape-font-specification:Lavi;text-align:center;letter-spacing:0px;word-spacing:0px;text-anchor:middle;fill:#000000;fill-opacity:1;stroke:none"
       x="1163.3292"
       y="2502.3032"
       id="text4246-3-2-2-6-3-7-9-3-3-56-9-3-20-3-2-0-3-19"><tspan
         style="font-size:45px"
         sodipodi:role="line"
         x="1163.3292"
         y="2502.3032"
         id="tspan1484">Ŝiĉimio,</tspan><tspan
         style="font-size:45px"
         sodipodi:role="line"
         x="1163.3292"
         y="2558.5532"
         id="tspan1027">ni devos paroli</tspan><tspan
         style="font-size:45px"
         sodipodi:role="line"
         x="1163.3292"
         y="2614.8032"
         id="tspan1029">pri tio ĉi</tspan><tspan
         style="font-size:45px"
         sodipodi:role="line"
         x="1163.3292"
         y="2671.0532"
         id="tspan1031">poste !</tspan></text>
    <text
       xml:space="preserve"
       style="font-style:normal;font-variant:normal;font-weight:normal;font-stretch:normal;font-size:45px;line-height:1.25;font-family:Lavi;-inkscape-font-specification:Lavi;text-align:center;letter-spacing:0px;word-spacing:0px;text-anchor:middle;fill:#000000;fill-opacity:1;stroke:none"
       x="1974.2208"
       y="2299.5603"
       id="text4246-3-2-2-6-3-7-9-3-3-56-9-3-20-3-2-0-3-19-8-3"><tspan
         style="font-size:45px"
         sodipodi:role="line"
         x="1974.2208"
         y="2299.5603"
         id="tspan1046-3">Pardonu, Karoĉjo, </tspan><tspan
         style="font-size:45px"
         sodipodi:role="line"
         x="1974.2208"
         y="2355.8103"
         id="tspan8507">sed ni devos ree flugi</tspan><tspan
         style="font-size:45px"
         sodipodi:role="line"
         x="1981.2521"
         y="2412.0603"
         id="tspan975">per superrapido. </tspan></text>
    <text
       xml:space="preserve"
       style="font-style:normal;font-variant:normal;font-weight:normal;font-stretch:normal;font-size:45px;line-height:1.25;font-family:Lavi;-inkscape-font-specification:Lavi;text-align:center;letter-spacing:0px;word-spacing:0px;text-anchor:middle;fill:#000000;fill-opacity:1;stroke:none"
       x="1974.8418"
       y="2527.3699"
       id="text4246-3-2-2-6-3-7-9-3-3-56-9-3-20-3-2-0-3-19-8"><tspan
         style="font-size:45px"
         sodipodi:role="line"
         x="1974.8418"
         y="2527.3699"
         id="tspan1046">Tenu bone !</tspan></text>
    <text
       xml:space="preserve"
       style="font-style:normal;font-variant:normal;font-weight:normal;font-stretch:normal;font-size:6.99764px;line-height:0%;font-family:Lavi;-inkscape-font-specification:Lavi;letter-spacing:0px;word-spacing:0px;fill:#000000;fill-opacity:1;stroke:#000000;stroke-width:6.65341;stroke-miterlimit:4;stroke-dasharray:none;stroke-opacity:1;paint-order:stroke fill markers"
       x="1234.3364"
       y="2988.7241"
       id="text4580-25"
       transform="matrix(0.70061135,-0.52267462,0.27429036,1.222697,0,0)"><tspan
         sodipodi:role="line"
         id="tspan4582-4"
         x="1234.3364"
         y="2988.7241"
         style="font-size:40.8195px;line-height:100%;letter-spacing:2.84772px;fill:#ffffff;stroke:#000000;stroke-width:6.65341;stroke-miterlimit:4;stroke-dasharray:none;stroke-opacity:1;paint-order:stroke fill markers"><tspan
           style="font-size:46.8842px;line-height:100%;letter-spacing:2.84772px;stroke:#000000;stroke-width:6.65341;stroke-miterlimit:4;stroke-dasharray:none;stroke-opacity:1;paint-order:stroke fill markers"
           id="tspan4617-9">Ten !</tspan></tspan></text>
    <text
       xml:space="preserve"
       style="font-style:normal;font-variant:normal;font-weight:normal;font-stretch:normal;font-size:6.12727px;line-height:0%;font-family:Lavi;-inkscape-font-specification:Lavi;letter-spacing:0px;word-spacing:0px;fill:#000000;fill-opacity:1;stroke:#000000;stroke-width:5.82585;stroke-miterlimit:4;stroke-dasharray:none;stroke-opacity:1;paint-order:stroke fill markers"
       x="1244.6915"
       y="2939.7729"
       id="text4580-25-6"
       transform="matrix(0.70061135,-0.52267462,0.27429036,1.222697,0,0)"><tspan
         sodipodi:role="line"
         id="tspan4582-4-1"
         x="1244.6915"
         y="2939.7729"
         style="font-size:35.7423px;line-height:100%;letter-spacing:2.49352px;fill:#ffffff;stroke:#000000;stroke-width:5.82585;stroke-miterlimit:4;stroke-dasharray:none;stroke-opacity:1;paint-order:stroke fill markers"><tspan
           style="font-size:41.0527px;line-height:100%;letter-spacing:2.49352px;stroke:#000000;stroke-width:5.82585;stroke-miterlimit:4;stroke-dasharray:none;stroke-opacity:1;paint-order:stroke fill markers"
           id="tspan4617-9-0">Ten !</tspan></tspan></text>
    <text
       xml:space="preserve"
       style="font-style:normal;font-variant:normal;font-weight:normal;font-stretch:normal;font-size:80px;line-height:1.25;font-family:Lavi;-inkscape-font-specification:Lavi;letter-spacing:0px;word-spacing:0px;fill:#ffffff;fill-opacity:1;stroke:#ffffff;stroke-width:0.668774;stroke-miterlimit:4;stroke-dasharray:none;stroke-opacity:1;filter:url(#filter4375-4-1-1-1-9-5-8-8-5-5-3-3-3-0-6)"
       id="text4580-6-0-0-0-9-3-3-2-0-3"
       transform="matrix(1.2199315,-0.31719701,-0.66892978,2.2459164,3443.4589,177.24169)"
       x="-607.91235"
       y="1245.0809"><tspan
         id="tspan1534-6-7"
         style="font-size:61.3371px"><tspan
   style="font-size:66.5743px"
   id="tspan1814-4">Zjjuuuu </tspan>!!</tspan></text>
  </g>
</svg>
