<?xml version="1.0" encoding="UTF-8" standalone="no"?>
<svg
   sodipodi:docname="E35P11.svg"
   height="3503"
   width="2481"
   inkscape:version="1.1 (1:1.1+202105261517+ce6663b3b7)"
   version="1.1"
   id="svg2"
   xmlns:inkscape="http://www.inkscape.org/namespaces/inkscape"
   xmlns:sodipodi="http://sodipodi.sourceforge.net/DTD/sodipodi-0.dtd"
   xmlns:xlink="http://www.w3.org/1999/xlink"
   xmlns="http://www.w3.org/2000/svg"
   xmlns:svg="http://www.w3.org/2000/svg"
   xmlns:rdf="http://www.w3.org/1999/02/22-rdf-syntax-ns#"
   xmlns:cc="http://creativecommons.org/ns#"
   xmlns:dc="http://purl.org/dc/elements/1.1/">
  <metadata
     id="metadata8">
    <rdf:RDF>
      <cc:Work
         rdf:about="">
        <dc:format>image/svg+xml</dc:format>
        <dc:type
           rdf:resource="http://purl.org/dc/dcmitype/StillImage" />
        <dc:title />
      </cc:Work>
    </rdf:RDF>
  </metadata>
  <defs
     id="defs6">
    <filter
       height="1.014349"
       width="1.0044414"
       y="-0.0071745174"
       x="-0.0022207188"
       inkscape:label="deevad outline effect"
       id="filter4375-4-1-1-1-9-3-2-3-8-7-6-4-9"
       style="color-interpolation-filters:sRGB">
      <feFlood
         result="flood"
         flood-color="rgb(95,141,211)"
         flood-opacity="1"
         id="feFlood4377-7-9-0-8-1-6-9-6-7-5-32-7-4" />
      <feComposite
         result="composite1"
         operator="in"
         in="flood"
         in2="SourceGraphic"
         id="feComposite4379-3-8-8-2-77-7-1-0-9-9-0-6-8" />
      <feMorphology
         result="result3"
         radius="4"
         operator="dilate"
         id="feMorphology4393-1-0-49-8-9-5-2-6-2-2-6-5-1" />
      <feComposite
         result="composite2"
         operator="over"
         in="SourceGraphic"
         in2="result3"
         id="feComposite4385-9-5-7-0-8-3-7-2-0-2-1-6-2" />
    </filter>
  </defs>
  <sodipodi:namedview
     inkscape:pagecheckerboard="0"
     inkscape:snap-global="false"
     inkscape:document-rotation="0"
     inkscape:current-layer="layer3"
     inkscape:window-maximized="1"
     inkscape:window-y="26"
     inkscape:window-x="960"
     inkscape:cy="395.5085"
     inkscape:cx="1462.0576"
     inkscape:zoom="0.60428537"
     showgrid="false"
     id="namedview4"
     inkscape:window-height="1028"
     inkscape:window-width="956"
     inkscape:pageshadow="2"
     inkscape:pageopacity="0"
     guidetolerance="10"
     gridtolerance="10"
     objecttolerance="10"
     borderopacity="1"
     bordercolor="#666666"
     pagecolor="#ffffff" />
  <g
     sodipodi:insensitive="true"
     inkscape:label="artwork"
     id="layer2"
     inkscape:groupmode="layer">
    <image
       xlink:href="../gfx_Pepper-and-Carrot_by-David-Revoy_E35P11.png"
       width="2481"
       height="3503"
       id="image10"
       x="0"
       y="0" />
  </g>
  <g
     inkscape:label="speechbubbles"
     id="layer3"
     inkscape:groupmode="layer">
    <path
       sodipodi:nodetypes="zssssz"
       inkscape:connector-curvature="0"
       id="path4040-4-9-2"
       d="m 692.7246,1526.6704 c 28.1693,-24.9106 272.04455,-35.5556 336.641,7.541 53.9173,35.9724 32.8807,122.5341 -15.0706,141.6334 -47.95088,19.099 -207.46599,13.6696 -277.37785,3.2265 -66.56578,-9.9423 -77.74329,-36.2614 -81.01761,-88.8787 -1.33637,-21.4761 8.65558,-38.612 36.82506,-63.5222 z"
       style="color:#000000;display:inline;overflow:visible;visibility:visible;fill:#ffffff;fill-opacity:1;fill-rule:nonzero;stroke:none;stroke-width:1.05826px;marker:none;enable-background:accumulate" />
    <path
       sodipodi:nodetypes="ccsc"
       inkscape:connector-curvature="0"
       id="path5010-4"
       d="m 669.06932,349.81223 c 33.46845,54.26318 16.77932,109.75225 -42.25383,148.97796 101.91057,-50.70471 112.5118,-145.0271 95.84592,-167.01491 -16.31806,-21.52888 -53.59209,18.03695 -53.59209,18.03695 z"
       style="color:#000000;display:inline;overflow:visible;visibility:visible;fill:#ffffff;fill-opacity:1;fill-rule:nonzero;stroke:none;stroke-width:1.36564px;marker:none;enable-background:accumulate" />
    <path
       sodipodi:nodetypes="csssc"
       inkscape:connector-curvature="0"
       id="path3280-8-1"
       d="M 1234.5215 90.296875 C 1201.5221 92.143638 1168.5287 97.205789 1137.0511 107.47053 C 1126.3735 111.45494 1116.6567 119.16714 1112.2059 129.88319 C 1103.5393 147.8034 1103.3571 169.04392 1109.4277 187.78516 C 1115.6775 204.5467 1130.371 217.05916 1146.7394 223.50916 C 1164.0451 230.36581 1182.811 231.81812 1201.1692 233.52861 C 1222.6895 235.26199 1244.334 236.13967 1265.9056 234.9405 C 1292.9588 232.69587 1320.0551 225.33622 1343.0351 210.55925 C 1357.8553 199.31639 1364.8034 179.71546 1362.8195 161.50562 C 1361.789 145.95206 1356.6368 129.91665 1345.2036 118.86182 C 1334.457 108.85422 1319.9551 104.69185 1306.1553 100.8118 C 1282.8327 94.440103 1258.78 89.991741 1234.5215 90.296875 z "
       style="display:inline;fill:#ffffff;stroke:none;stroke-width:0.424687" />
    <path
       sodipodi:nodetypes="cscssssc"
       inkscape:connector-curvature="0"
       id="path4546-6-7"
       d="m 1949.7656,80.042241 c -40.2353,0.406432 -81.5925,6.568789 -114.7505,22.208449 -27.6371,13.16571 -50.7801,31.61855 -60.1026,53.53875 -5.1827,13.03951 -6.8965,26.75881 -4.5496,40.16175 3.9941,21.10953 20.0487,40.74776 42.1756,56.00596 18.4476,12.70148 42.1159,22.1213 67.9961,26.47524 62.8215,12.34459 128.2916,17.93543 193.6429,19.84518 62.1133,1.52074 125.1373,-1.50162 184.8613,-13.43241 39.1778,-8.85512 76.1538,-24.40452 99.7391,-47.26665 19.2225,-19.38443 24.8262,-43.2101 23.6719,-65.9967 -0.7573,-21.44646 -9.6764,-43.71351 -31.6836,-60.02958 -20.8357,-15.127089 -51.5078,-22.876397 -81.883,-24.641498 -75.0146,-7.607729 -151.1208,-5.079663 -226.7051,-6.383948 -30.8026,-0.270672 -61.6063,-0.607176 -92.4125,-0.484543 z"
       style="color:#000000;display:inline;overflow:visible;visibility:visible;fill:#ffffff;fill-opacity:1;fill-rule:nonzero;stroke:none;stroke-width:0.861367px;marker:none;enable-background:accumulate" />
    <path
       sodipodi:nodetypes="zssssz"
       inkscape:connector-curvature="0"
       id="path4040-4-9"
       d="m 552.76188,1388.2962 c 31.93806,-25.3329 308.44158,-39.6345 381.68011,2.4936 61.13111,35.164 37.27981,122.0411 -17.08671,141.8593 -54.36626,19.818 -235.22294,16.7802 -314.48834,7.3854 -75.47159,-8.9443 -88.14456,-35.0958 -91.85696,-87.6639 -1.51515,-21.4561 9.81361,-38.7418 41.7519,-64.0744 z"
       style="color:#000000;display:inline;overflow:visible;visibility:visible;fill:#ffffff;fill-opacity:1;fill-rule:nonzero;stroke:none;stroke-width:0.985823px;marker:none;enable-background:accumulate" />
    <path
       inkscape:connector-curvature="0"
       id="path1079"
       d="M 1085.5371 1635.3711 C 1052.8898 1636.0254 1020.2721 1637.7241 987.68188 1639.7022 C 967.39616 1641.1984 946.8575 1642.9465 927.41722 1649.3049 C 902.37529 1658.3442 882.43559 1679.0032 872.14074 1703.3192 C 867.40038 1714.6592 864.0808 1726.5633 861.61613 1738.589 C 859.36641 1750.7134 859.68421 1763.6035 864.5293 1775.0898 C 870.11617 1789.1838 879.50704 1801.3734 889.53711 1812.584 C 908.4962 1832.8007 934.12774 1847.0885 961.72534 1850.84 C 985.53689 1854.7634 1009.5998 1856.8771 1033.6332 1858.8993 C 1073.6819 1861.5709 1113.8633 1862.1241 1153.9807 1860.9939 C 1187.725 1859.951 1221.4648 1857.6599 1254.9312 1853.1421 C 1272.7188 1850.2909 1290.8599 1845.7776 1305.7903 1835.2475 C 1320.3 1824.7651 1330.1352 1808.5092 1333.8866 1791.1089 C 1337.6668 1777.854 1340.8885 1763.729 1337.7663 1749.9963 C 1333.8761 1733.5495 1325.2282 1718.8217 1317.123 1704.1738 C 1308.6807 1689.856 1297.7144 1676.364 1282.87 1668.3568 C 1264.9043 1658.097 1244.5739 1653.3561 1224.8492 1647.7395 C 1193.6568 1639.6004 1161.3366 1637.0569 1129.2077 1636.2733 C 1114.6575 1635.7282 1100.0998 1635.2439 1085.5371 1635.3711 z "
       style="fill:#ffffff;fill-rule:evenodd;stroke:none;stroke-width:0.952453px;stroke-linecap:butt;stroke-linejoin:miter;stroke-opacity:1" />
    <path
       sodipodi:nodetypes="csccc"
       inkscape:connector-curvature="0"
       id="path3072-12"
       d="m 1404.4998,1793.8153 c -45.9909,-29.4273 -78.0349,-27.5278 -104.8526,-18.0354 -25.7868,9.1275 -19.8278,10.3608 -19.8278,10.3608 l 10.5667,-48.0852 c -3.1179,-4.3789 71.5596,-1.8389 114.1137,55.7598 z"
       style="color:#000000;display:inline;overflow:visible;visibility:visible;fill:#ffffff;fill-opacity:1;fill-rule:nonzero;stroke:none;stroke-width:0.939237px;marker:none;enable-background:accumulate" />
    <path
       sodipodi:nodetypes="csssc"
       inkscape:connector-curvature="0"
       id="path3280-8-1-3"
       d="m 1364.4182,197.26099 c -44.3929,0.68501 -89.324,6.32199 -130.7182,22.3224 -33.934,14.99744 -61.4366,44.16867 -70.9484,79.02945 -6.1871,24.09497 -5.5987,49.11061 -5.2538,73.73537 1.5653,27.99938 16.4357,54.10943 36.9435,73.6381 12.119,11.77681 27.0431,20.56628 42.8225,27.11736 35.565,15.23619 74.5925,22.02113 113.3923,23.13852 29.1579,0.63397 58.3172,-0.36247 87.4673,-0.91335 36.1871,-1.13522 72.6284,-2.92891 108.0262,-10.71714 19.6757,-4.53411 39.5436,-11.13552 55.178,-23.85142 20.5284,-16.70284 33.7741,-40.40479 40.5626,-65.10629 6.9629,-25.94679 5.2593,-53.42606 -1.5559,-79.22619 -5.8756,-24.6612 -17.0515,-48.98653 -36.3979,-66.7058 -20.0133,-18.5613 -46.1155,-29.87988 -72.7653,-36.73032 -41.0141,-11.0156 -83.7847,-13.83791 -126.1673,-15.35151 -13.5246,-0.3807 -27.0563,-0.41056 -40.5856,-0.37918 z"
       style="display:inline;fill:#ffffff;stroke:none;stroke-width:0.86504" />
    <path
       sodipodi:nodetypes="csssc"
       inkscape:connector-curvature="0"
       id="path3280-8-1-1"
       d="m 2010.5328,209.41854 c -58.6326,0.51905 -118.305,9.31627 -172.3093,36.71618 -29.5523,16.1073 -54.0141,47.05952 -60.4424,84.39353 -6.1912,36.76262 -3.9211,75.2223 5.4451,111.01093 11.1921,33.5826 36.1031,59.08314 64.0439,74.20908 41.1293,23.80845 87.3709,32.56366 132.9198,36.39776 61.7613,5.82125 123.9116,11.51027 185.8508,5.85396 47.4089,-4.51735 94.9236,-18.74311 135.4279,-48.02423 23.185,-17.07448 44.8735,-38.87726 57.3415,-67.51711 10.5194,-23.32748 12.9704,-50.59266 9.5771,-76.32597 -4.1435,-30.84309 -18.2146,-59.6668 -38.9192,-79.96465 -24.7873,-25.29889 -56.5275,-38.9551 -87.8916,-49.71079 -42.6734,-14.19688 -87.0143,-20.45096 -131.2265,-24.14535 -33.2233,-2.50813 -66.5316,-2.97503 -99.8171,-2.89334 z"
       style="display:inline;fill:#ffffff;stroke:none;stroke-width:0.989548" />
    <path
       sodipodi:nodetypes="csssc"
       inkscape:connector-curvature="0"
       id="path3280-8-1-1-8"
       d="M 2022.3887 512.76953 C 1976.6111 513.2748 1930.4751 522.9119 1889.6919 544.10761 C 1867.1592 556.40024 1850.0847 577.36446 1840.2153 600.84902 C 1830.7028 623.83227 1827.7231 649.42455 1831.192 674.02459 C 1834.093 694.06025 1842.0637 713.71425 1855.9112 728.70321 C 1875.0238 749.73823 1901.9325 762.81775 1929.798 767.36556 C 1952.4583 771.39893 1975.521 772.07357 1998.4777 772.56218 C 2013.4576 773.2017 2028.4138 774.31809 2043.4034 774.75239 C 2088.7533 776.46387 2134.381 776.15236 2179.3667 769.5558 C 2208.0448 766.05378 2237.4482 766.03486 2265.2331 757.26591 C 2287.3188 750.07392 2304.0493 730.49745 2310.3027 708.44255 C 2316.2827 686.10277 2316.7577 662.69932 2315.3468 639.74525 C 2313.6718 619.60366 2305.5202 600.04533 2292.1434 584.8641 C 2276.0828 566.57433 2254.7652 553.73159 2232.5308 544.31687 C 2203.8278 532.24142 2173.5137 524.19877 2142.7382 519.60023 C 2102.9375 513.565 2062.5758 512.61263 2022.3887 512.76953 z "
       style="display:inline;fill:#ffffff;stroke:none;stroke-width:0.762147" />
    <path
       sodipodi:nodetypes="ccccccssc"
       inkscape:connector-curvature="0"
       id="path1081"
       d="m 1917.1509,703.14914 c -35.1448,34.55495 -40.918,43.76621 -48.2945,59.20991 -7.3765,15.44359 -1.4166,45.82505 15.3336,59.77726 16.7502,13.95231 20.6476,39.75145 6.4656,51.09426 -14.1819,11.34295 -70.6572,56.04997 -12.3413,98.68519 -52.1304,-50.93005 4.6214,-80.3316 15.046,-87.77901 10.4245,-7.44749 30.9525,-25.50425 13.4446,-59.50485 -17.5082,-34.00062 -21.7713,-50.818 31.7495,-83.72489 53.5207,-32.90685 -21.4035,-37.75787 -21.4035,-37.75787 z"
       style="fill:#ffffff;fill-rule:evenodd;stroke:none;stroke-width:1px;stroke-linecap:butt;stroke-linejoin:miter;stroke-opacity:1" />
    <path
       sodipodi:nodetypes="ccsc"
       inkscape:connector-curvature="0"
       id="path5010-4-3"
       d="m 1446.9857,482.25247 c 38.5518,83.9689 2.5856,139.06018 -54.1917,168.09629 98.918,-30.2652 116.1188,-134.92733 86.7076,-167.77583 -23.1309,-25.83416 -32.5159,-0.32046 -32.5159,-0.32046 z"
       style="color:#000000;display:inline;overflow:visible;visibility:visible;fill:#ffffff;fill-opacity:1;fill-rule:nonzero;stroke:none;stroke-width:1.4638px;marker:none;enable-background:accumulate" />
    <path
       sodipodi:nodetypes="cssssc"
       inkscape:connector-curvature="0"
       id="path4546-6-59"
       d="m 1708.9341,2344.6889 c 0.1396,-105.6475 -1.9817,-81.2211 156.3841,-79.1966 68.739,0.8787 150.308,10.6222 143.7753,157.3952 -5.1637,116.0161 -130.901,110.3132 -154.2725,113.5955 -23.2236,3.2615 -117.9728,-16.6744 -138.5725,-62.3724 -12.895,-28.6062 -8.0693,-101.383 -7.3144,-129.4217 z"
       style="color:#000000;display:inline;overflow:visible;visibility:visible;fill:#ffffff;fill-opacity:1;fill-rule:nonzero;stroke:none;stroke-width:0.861506px;marker:none;enable-background:accumulate" />
    <path
       sodipodi:nodetypes="cccccccccccccc"
       inkscape:connector-curvature="0"
       id="path3100-2"
       d="m 719.68745,64.491248 c -50.55152,3.08778 -100.03953,15.416754 -149.93195,23.909777 -31.45318,6.242517 -62.81602,17.304635 -88.87367,37.942525 -16.49827,13.20659 -29.33925,31.97773 -35.29672,53.34425 -9.54535,30.12085 -9.93681,62.865 -5.11563,94.04195 3.84814,22.99347 12.27848,45.81666 27.54972,62.71498 15.19086,17.11859 34.15817,30.07813 54.65516,38.33478 17.69799,7.8496 36.26553,13.26302 55.14052,16.50527 42.14937,7.86858 85.03779,9.8885 127.74302,9.45199 43.67122,-0.77799 87.28472,-6.16766 129.93481,-16.42186 21.26672,-4.78213 42.71551,-11.63012 60.62503,-25.42823 19.75792,-15.0267 35.44362,-36.34047 44.53157,-60.59277 3.97062,-10.73934 5.91123,-22.25046 6.27639,-33.7908 0.74213,-14.8313 0.81776,-29.69103 1.10115,-44.53743 0.10717,-44.82775 -3.44038,-89.73925 -11.72081,-133.685822 -3.09725,-3.45486 -7.93984,-1.880213 -11.78697,-3.251442 C 856.66656,72.511144 788.32266,64.213356 719.68745,64.491248 Z"
       style="fill:#ffffff;stroke:none;stroke-width:1.40498" />
    <path
       sodipodi:nodetypes="cscssc"
       inkscape:connector-curvature="0"
       id="path4186-80"
       d="m 1876.2442,2473.0319 c 29.6781,34.3855 -48.3918,61.0872 -32.7914,98.1006 6.1219,14.5249 50.1858,21.814 59.4409,88.3499 -23.107,-54.5774 -70.7535,-56.808 -83.5614,-79.4341 -24.3256,-42.971 15.5983,-74.4437 22.7675,-83.4264 9.5884,-12.0136 34.1444,-23.59 34.1444,-23.59 z"
       style="display:inline;fill:#ffffff;fill-rule:evenodd;stroke:none;stroke-width:1.14884px;stroke-linecap:butt;stroke-linejoin:miter;stroke-opacity:1" />
    <path
       sodipodi:nodetypes="zssssz"
       inkscape:connector-curvature="0"
       id="path4040-4-9-3"
       d="m 266.97992,2086.542 c 13.37453,-13.964 129.16447,-22.406 159.83419,0.5429 25.59955,19.1552 15.61147,66.8586 -7.1553,77.8463 -22.76671,10.9877 -98.5031,9.7123 -131.69666,4.7305 -31.60485,-4.7428 -36.91183,-19.0595 -38.46644,-47.8849 -0.63452,-11.7653 4.10957,-21.2709 17.48421,-35.2348 z"
       style="color:#000000;display:inline;overflow:visible;visibility:visible;fill:#ffffff;fill-opacity:1;fill-rule:nonzero;stroke:none;stroke-width:0.472467px;marker:none;enable-background:accumulate" />
    <path
       sodipodi:nodetypes="ccsc"
       inkscape:connector-curvature="0"
       id="path5010-4-5"
       d="m 354.58902,2078.2586 c 35.58146,-4.2267 52.48817,-58.2989 28.13393,-95.1145 44.43236,49.6051 29.57055,64.2564 4.74971,120.5184 -6.58837,14.934 -32.88364,-25.4039 -32.88364,-25.4039 z"
       style="color:#000000;display:inline;overflow:visible;visibility:visible;fill:#ffffff;fill-opacity:1;fill-rule:nonzero;stroke:none;stroke-width:0.816531px;marker:none;enable-background:accumulate" />
  </g>
  <g
     inkscape:label="txt"
     id="layer1"
     inkscape:groupmode="layer">
    <text
       id="text4246-3-2-2"
       y="185.30602"
       x="694.90973"
       style="font-style:normal;font-variant:normal;font-weight:normal;font-stretch:normal;font-size:45px;line-height:1.25;font-family:Lavi;-inkscape-font-specification:Lavi;text-align:center;letter-spacing:0px;word-spacing:0px;text-anchor:middle;fill:#000000;fill-opacity:1;stroke:none"
       xml:space="preserve"><tspan
         id="tspan908"
         y="185.30602"
         x="694.90973"
         sodipodi:role="line"
         style="font-size:45px">Merci d'avoir laissé </tspan><tspan
         id="tspan910"
         y="241.55602"
         x="694.90973"
         sodipodi:role="line"
         style="font-size:45px">Carrot me chercher </tspan><tspan
         id="tspan913"
         y="297.80603"
         x="694.90973"
         sodipodi:role="line"
         style="font-size:45px">des vêtements de </tspan><tspan
         id="tspan915"
         y="354.05603"
         x="694.90973"
         sodipodi:role="line"
         style="font-size:45px">rechanges.</tspan></text>
    <text
       id="text4246-3-2-2-3-3-3"
       y="179.79465"
       x="1235.6431"
       style="font-style:normal;font-variant:normal;font-weight:normal;font-stretch:normal;font-size:45px;line-height:1.25;font-family:Lavi;-inkscape-font-specification:Lavi;text-align:center;letter-spacing:0px;word-spacing:0px;text-anchor:middle;fill:#000000;fill-opacity:1;stroke:none"
       xml:space="preserve"><tspan
         id="tspan876-3"
         y="179.79465"
         x="1235.6431"
         sodipodi:role="line"
         style="font-size:45px">De rien.</tspan></text>
    <text
       id="text4246-3-2-2-3-3"
       y="292.4176"
       x="1403.865"
       style="font-style:normal;font-variant:normal;font-weight:normal;font-stretch:normal;font-size:45px;line-height:1.25;font-family:Lavi;-inkscape-font-specification:Lavi;text-align:center;letter-spacing:0px;word-spacing:0px;text-anchor:middle;fill:#000000;fill-opacity:1;stroke:none"
       xml:space="preserve"><tspan
         id="tspan926"
         y="292.4176"
         x="1403.865"
         sodipodi:role="line"
         style="font-size:45px">Tu m'as facilité le </tspan><tspan
         id="tspan930"
         y="348.6676"
         x="1403.865"
         sodipodi:role="line"
         style="font-size:45px">travail, donc c'est </tspan><tspan
         id="tspan932"
         y="404.9176"
         x="1403.865"
         sodipodi:role="line"
         style="font-size:45px">la moindre des </tspan><tspan
         id="tspan934"
         y="461.1676"
         x="1403.865"
         sodipodi:role="line"
         style="font-size:45px">choses.</tspan></text>
    <text
       id="text4246-3-2-2-3-3-67"
       y="166.92047"
       x="2088.6965"
       style="font-style:normal;font-variant:normal;font-weight:normal;font-stretch:normal;font-size:45px;line-height:1.25;font-family:Lavi;-inkscape-font-specification:Lavi;text-align:center;letter-spacing:0px;word-spacing:0px;text-anchor:middle;fill:#000000;fill-opacity:1;stroke:none"
       xml:space="preserve"><tspan
         id="tspan898"
         y="166.92047"
         x="2088.6965"
         sodipodi:role="line"
         style="font-size:45px">Mais tu sais, tu as vraiment </tspan><tspan
         id="tspan938"
         y="223.17047"
         x="2088.6965"
         sodipodi:role="line"
         style="font-size:45px">mis Wasabi en colère.</tspan></text>
    <text
       id="text4246-3-2-2-3-3-67-2"
       y="336.26599"
       x="2078.9941"
       style="font-style:normal;font-variant:normal;font-weight:normal;font-stretch:normal;font-size:45px;line-height:1.25;font-family:Lavi;-inkscape-font-specification:Lavi;text-align:center;letter-spacing:0px;word-spacing:0px;text-anchor:middle;fill:#000000;fill-opacity:1;stroke:none"
       xml:space="preserve"><tspan
         id="tspan912"
         y="336.26599"
         x="2078.9941"
         sodipodi:role="line"
         style="font-size:45px">Elle exige la perfection. </tspan><tspan
         id="tspan955"
         y="392.51599"
         x="2078.9941"
         sodipodi:role="line"
         style="font-size:45px">Tu as souillé ça avec </tspan><tspan
         id="tspan957"
         y="448.76599"
         x="2078.9941"
         sodipodi:role="line"
         style="font-size:45px">ton impureté, ta tenue, </tspan><tspan
         id="tspan959"
         y="505.01599"
         x="2078.9941"
         sodipodi:role="line"
         style="font-size:45px">et ton arrivée.</tspan></text>
    <text
       id="text4246-3-2-2-3-3-67-2-3"
       y="609.58289"
       x="2081.0774"
       style="font-style:normal;font-variant:normal;font-weight:normal;font-stretch:normal;font-size:45px;line-height:1.25;font-family:Lavi;-inkscape-font-specification:Lavi;text-align:center;letter-spacing:0px;word-spacing:0px;text-anchor:middle;fill:#000000;fill-opacity:1;stroke:none"
       xml:space="preserve"><tspan
         id="tspan1134"
         y="609.58289"
         x="2081.0774"
         sodipodi:role="line"
         style="font-size:45px">En plus, tu l'as </tspan><tspan
         id="tspan966"
         y="665.83289"
         x="2081.0774"
         sodipodi:role="line"
         style="font-size:45px">attaquée ! Elle ne te </tspan><tspan
         id="tspan968"
         y="722.08289"
         x="2081.0774"
         sodipodi:role="line"
         style="font-size:45px">fera pas de cadeau.</tspan></text>
    <text
       id="text4246-3-2-2-3-3-6-67"
       y="2138.6455"
       x="349.56961"
       style="font-style:normal;font-variant:normal;font-weight:normal;font-stretch:normal;font-size:45px;line-height:1.25;font-family:Lavi;-inkscape-font-specification:Lavi;text-align:center;letter-spacing:0px;word-spacing:0px;text-anchor:middle;fill:#000000;fill-opacity:1;stroke:none"
       xml:space="preserve"><tspan
         id="tspan1191-3"
         y="2138.6455"
         x="349.56961"
         sodipodi:role="line"
         style="font-size:45px">Je sais.</tspan></text>
    <text
       id="text4246-3-2-2-3-3-6"
       y="1438.3682"
       x="743.62054"
       style="font-style:normal;font-variant:normal;font-weight:normal;font-stretch:normal;font-size:45px;line-height:1.25;font-family:Lavi;-inkscape-font-specification:Lavi;text-align:center;letter-spacing:0px;word-spacing:0px;text-anchor:middle;fill:#000000;fill-opacity:1;stroke:none"
       xml:space="preserve"><tspan
         id="tspan909"
         y="1438.3682"
         x="743.62054"
         sodipodi:role="line"
         style="font-size:45px">Bon, j'ai besoin </tspan><tspan
         id="tspan980"
         y="1494.6182"
         x="743.62054"
         sodipodi:role="line"
         style="font-size:45px">d'une petite sieste.</tspan></text>
    <text
       id="text4246-3-2-2-3-3-6-6"
       y="1579.2286"
       x="863.08191"
       style="font-style:normal;font-variant:normal;font-weight:normal;font-stretch:normal;font-size:45px;line-height:1.25;font-family:Lavi;-inkscape-font-specification:Lavi;text-align:center;letter-spacing:0px;word-spacing:0px;text-anchor:middle;fill:#000000;fill-opacity:1;stroke:none"
       xml:space="preserve"><tspan
         id="tspan949"
         y="1579.2286"
         x="863.08191"
         sodipodi:role="line"
         style="font-size:45px">On partira </tspan><tspan
         id="tspan984"
         y="1635.4786"
         x="863.08191"
         sodipodi:role="line"
         style="font-size:45px">dès mon réveil.</tspan></text>
    <text
       id="text4246-3-2-2-3-3-6-2"
       y="1713.861"
       x="1108.4032"
       style="font-style:normal;font-variant:normal;font-weight:normal;font-stretch:normal;font-size:45px;line-height:1.25;font-family:Lavi;-inkscape-font-specification:Lavi;text-align:center;letter-spacing:0px;word-spacing:0px;text-anchor:middle;fill:#000000;fill-opacity:1;stroke:none"
       xml:space="preserve"><tspan
         id="tspan958"
         y="1713.861"
         x="1108.4032"
         sodipodi:role="line"
         style="font-size:45px">Fais ce que tu veux </tspan><tspan
         id="tspan992"
         y="1770.111"
         x="1108.4032"
         sodipodi:role="line"
         style="font-size:45px">tant que tu ne vas </tspan><tspan
         id="tspan998"
         y="1826.361"
         x="1108.4032"
         sodipodi:role="line"
         style="font-size:45px">pas trop loin...</tspan></text>
    <text
       transform="matrix(0.71138619,-0.38856964,0.42362052,1.0933045,-1095.3818,1936.127)"
       id="text4580-5-0-6-2-8-5-9-9"
       y="1584.5073"
       x="787.65729"
       style="font-style:normal;font-variant:normal;font-weight:normal;font-stretch:normal;line-height:0%;font-family:Lavi;-inkscape-font-specification:Lavi;letter-spacing:0px;word-spacing:0px;display:inline;fill:#ffffff;fill-opacity:1;stroke:#5f8dd3;stroke-width:0.992362;stroke-miterlimit:4;stroke-dasharray:none;stroke-opacity:1;filter:url(#filter4375-4-1-1-1-9-3-2-3-8-7-6-4-9)"
       xml:space="preserve"><tspan
         style="font-size:70px;line-height:1.25;fill:#ffffff;stroke:#5f8dd3"
         y="1584.5073"
         x="787.65729"
         id="tspan4582-6-9-1-3-9-5-3-3"
         sodipodi:role="line"> Splash</tspan></text>
    <text
       id="text4246-3-2-2-3-3-6-2-9"
       y="2365.0232"
       x="1865.2649"
       style="font-style:normal;font-variant:normal;font-weight:normal;font-stretch:normal;font-size:45px;line-height:1.25;font-family:Lavi;-inkscape-font-specification:Lavi;text-align:center;letter-spacing:0px;word-spacing:0px;text-anchor:middle;fill:#000000;fill-opacity:1;stroke:none"
       xml:space="preserve"><tspan
         id="tspan1080"
         y="2365.0232"
         x="1865.2649"
         sodipodi:role="line"
         style="font-size:45px">Quelle </tspan><tspan
         id="tspan1005"
         y="2421.2732"
         x="1865.2649"
         sodipodi:role="line"
         style="font-size:45px">étrange </tspan><tspan
         id="tspan1007"
         y="2477.5232"
         x="1865.2649"
         sodipodi:role="line"
         style="font-size:45px">sorcière.</tspan></text>
  </g>
</svg>
