<?xml version="1.0" encoding="UTF-8" standalone="no"?>
<svg
   xmlns:dc="http://purl.org/dc/elements/1.1/"
   xmlns:cc="http://creativecommons.org/ns#"
   xmlns:rdf="http://www.w3.org/1999/02/22-rdf-syntax-ns#"
   xmlns:svg="http://www.w3.org/2000/svg"
   xmlns="http://www.w3.org/2000/svg"
   xmlns:xlink="http://www.w3.org/1999/xlink"
   xmlns:sodipodi="http://sodipodi.sourceforge.net/DTD/sodipodi-0.dtd"
   xmlns:inkscape="http://www.inkscape.org/namespaces/inkscape"
   id="svg2"
   version="1.1"
   inkscape:version="0.92.4 (5da689c313, 2019-01-14)"
   width="2481"
   height="3503"
   sodipodi:docname="E35P08.svg">
  <metadata
     id="metadata8">
    <rdf:RDF>
      <cc:Work
         rdf:about="">
        <dc:format>image/svg+xml</dc:format>
        <dc:type
           rdf:resource="http://purl.org/dc/dcmitype/StillImage" />
        <dc:title />
      </cc:Work>
    </rdf:RDF>
  </metadata>
  <defs
     id="defs6" />
  <sodipodi:namedview
     pagecolor="#ffffff"
     bordercolor="#666666"
     borderopacity="1"
     objecttolerance="10"
     gridtolerance="10"
     guidetolerance="10"
     inkscape:pageopacity="0"
     inkscape:pageshadow="2"
     inkscape:window-width="1600"
     inkscape:window-height="847"
     id="namedview4"
     showgrid="false"
     inkscape:zoom="0.52900001"
     inkscape:cx="1331.758"
     inkscape:cy="2838.3743"
     inkscape:window-x="-8"
     inkscape:window-y="-8"
     inkscape:window-maximized="1"
     inkscape:current-layer="layer3"
     inkscape:document-rotation="0"
     inkscape:snap-global="false"
     inkscape:pagecheckerboard="0" />
  <g
     inkscape:groupmode="layer"
     id="layer2"
     inkscape:label="artwork"
     sodipodi:insensitive="true">
    <image
       sodipodi:absref="D:\Pepper&amp;Carrot\code\ep35_The-Reflection\lang\ro\../gfx_Pepper-and-Carrot_by-David-Revoy_E35P08.png"
       xlink:href="../gfx_Pepper-and-Carrot_by-David-Revoy_E35P08.png"
       width="2481"
       height="3503"
       id="image10"
       x="0"
       y="0" />
  </g>
  <g
     inkscape:groupmode="layer"
     id="layer3"
     inkscape:label="speechbubbles">
    <path
       style="color:#000000;display:inline;overflow:visible;visibility:visible;fill:#ffffff;fill-opacity:1;fill-rule:nonzero;stroke:none;stroke-width:1.03159809px;marker:none;enable-background:accumulate"
       d="m 889.40848,236.32206 c -35.85801,0.46439 -70.64952,15.55267 -95.27322,39.24428 -19.66516,18.13004 -31.74194,42.4542 -35.98121,67.59399 -7.63331,34.66627 -6.7379,71.55187 6.89234,104.89547 11.54527,25.67165 35.29512,45.84401 63.02385,56.4629 39.10512,15.23733 83.40573,20.85267 125.09558,12.07521 22.4313,-4.81539 42.87593,-16.5518 57.83078,-32.59054 20.6119,-21.36802 32.0351,-49.18937 35.5194,-77.32515 4.3405,-30.52533 2.34,-62.34869 -9.7799,-91.26761 -9.1764,-21.01489 -25.308,-39.53603 -46.18573,-51.70647 -29.59465,-18.36017 -65.45499,-27.92802 -101.14189,-27.38208 z"
       id="path3525-27"
       inkscape:connector-curvature="0" />
    <path
       style="color:#000000;display:inline;overflow:visible;visibility:visible;fill:#ffffff;fill-opacity:1;fill-rule:nonzero;stroke:none;stroke-width:0.810572px;marker:none;enable-background:accumulate"
       d="M 1586.5781 336.06836 C 1560.4411 336.74536 1534.3786 347.44405 1516.3157 366.54107 C 1495.0299 388.25697 1482.7894 418.24194 1481.8223 448.55664 C 1480.3304 479.16389 1486.9077 510.71827 1503.6461 536.66981 C 1512.5239 550.51443 1525.0291 562.16016 1539.9996 569.12759 C 1560.13 578.86789 1583.3898 581.0959 1605.2765 577.15384 C 1622.0635 574.68628 1639.4907 572.05531 1654.1721 562.96183 C 1679.2274 546.98228 1695.5418 517.96537 1695.6702 488.18754 C 1695.8758 476.49459 1695.0022 464.81527 1694.3806 453.14649 C 1692.9703 434.46217 1690.7373 415.59173 1684.4302 397.84793 C 1676.8425 377.09998 1662.2852 358.41951 1642.4574 348.18343 C 1625.3514 339.25832 1605.7607 335.6899 1586.5781 336.06836 z "
       id="path4040-4-5-3-4"
       inkscape:connector-curvature="0"
       sodipodi:nodetypes="zssssz" />
    <path
       style="fill:#ffffff;fill-rule:evenodd;stroke:none;stroke-width:1.14277px;stroke-linecap:butt;stroke-linejoin:miter;stroke-opacity:1"
       d="m 1570.0144,465.67649 c 3.0987,30.83741 11.5856,59.47611 3.7889,66.37874 -5.2069,29.42714 10.8845,84.76829 -27.9726,97.2687 63.0766,-0.64746 49.4439,-89.40053 58.0802,-122.83664 -1.084,-48.93169 -33.8965,-40.8108 -33.8965,-40.8108 z"
       id="path1085"
       inkscape:connector-curvature="0"
       sodipodi:nodetypes="ccccc" />
    <path
       style="fill:#ffffff;fill-rule:evenodd;stroke:none;stroke-width:0.98629254px;stroke-linecap:butt;stroke-linejoin:miter;stroke-opacity:1"
       d="m 1539.355,1372.8322 c -42.9436,1.4923 -84.4515,18.4777 -107.6401,44.4091 -9.2036,14.3425 -6.245,30.5114 -9.3197,45.733 -4.0835,37.9514 -3.5131,76.8323 11.2663,113.6707 5.0089,10.1813 16.4313,18.013 29.3113,23.2572 29.2687,13.6417 65.8912,17.4222 100.0259,13.5938 35.2165,-2.5666 71.2452,-10.0267 98.3515,-26.9967 18.2342,-11.2041 27.1625,-28.9592 25.2787,-45.9378 -0.2743,-22.0727 -4.1749,-44.0365 -4.2461,-66.1152 -1.265,-22.3105 -6.6013,-45.8217 -26.098,-63.9848 -18.1833,-16.6129 -45.7094,-26.2839 -73.2196,-32.6535 -14.1126,-3.1471 -28.8682,-5.2922 -43.7102,-4.9758 z"
       id="path1299"
       inkscape:connector-curvature="0" />
    <path
       style="color:#000000;display:inline;overflow:visible;visibility:visible;fill:#ffffff;fill-opacity:1;fill-rule:nonzero;stroke:none;stroke-width:0.926478px;marker:none;enable-background:accumulate"
       d="m 1531.0092,1596.1183 c -0.6222,20.1649 6.6736,27.0756 10.0721,30.442 3.3984,3.3662 14.9068,8.9022 18.2764,13.791 2.7667,4.0585 10.3483,14.2867 6.9395,16.8185 -3.4088,2.5318 -39.8279,13.4508 -39.569,27.0665 0.2595,13.6163 7.8094,22.062 17.8671,25.0419 10.0575,2.9799 23.1527,7.0659 24.2613,17.1932 1.1078,10.1267 -6.514,17.5302 -11.286,19.742 -27.1053,5.2092 -47.6616,41.4987 -47.6616,41.4987 45.0114,-39.4077 48.8502,-21.7092 63.1997,-38.3236 5.2367,-6.2965 13.2746,-11.5246 11.2311,-22.2221 -2.0434,-10.6976 -1.7938,-21.9409 -17.0229,-26.5544 -9.8097,-4.0323 -14.2999,-6.9835 -14.1441,-10.1193 0.1565,-3.135 5.2164,-10.9397 15.2416,-10.5769 10.0258,0.3634 16.1869,-6.8408 20.9047,-21.0372 5.8565,-14.2808 -11.3944,-28.3269 -12.3251,-34.3003 -5.9525,-9.4188 -20.1936,-48.378 -11.3283,-51.0106 z"
       id="path5058-2"
       inkscape:connector-curvature="0"
       sodipodi:nodetypes="cscsssscccsccscccc" />
    <path
       style="display:inline;fill:#ffffff;fill-rule:evenodd;stroke:none;stroke-width:0.7824px;stroke-linecap:butt;stroke-linejoin:miter;stroke-opacity:1"
       d="m 877.968,2870.1388 -20.1414,-103.137 -20.06484,17.4342 -15.86649,-70.2389 -20.49195,11.5133 26.36659,82.3695 23.57881,-19.15 z"
       id="path4667-2"
       inkscape:connector-curvature="0" />
    <path
       style="display:inline;fill:#ffffff;fill-rule:evenodd;stroke:none;stroke-width:0.800756px;stroke-linecap:butt;stroke-linejoin:miter;stroke-opacity:1"
       d="m 682.33117,2721.47 c 17.58658,-9.7562 33.39725,-42.5286 -3.6892,-77.162 42.20071,11.8434 59.77352,-10.1068 73.68241,-92.6185 34.06991,72.3546 48.80253,51.3106 58.048,24.8341 -2.5869,49.2768 33.04814,42.2858 48.31129,16.0446 -4.9577,76.3831 20.63384,79.0172 43.5994,87.989 -39.26404,11.119 -16.2116,33.6361 -11.28843,52.8383 -46.88903,-15.0176 -61.9634,9.436 -59.2279,55.9848 -18.13836,-12.0405 -41.31769,-48.333 -39.71646,34.5863 -16.29453,-59.6942 -27.92724,-42.7914 -37.92314,1.0069 -5.63912,-20.2619 2.06382,-64.0489 -33.29199,-31.9099 14.15398,-34.8193 6.97849,-60.982 -38.50398,-71.5936 z"
       id="path4584-9"
       inkscape:connector-curvature="0"
       sodipodi:nodetypes="cccccccccccc" />
    <path
       style="color:#000000;display:inline;overflow:visible;visibility:visible;fill:#ffffff;fill-opacity:1;fill-rule:nonzero;stroke:none;stroke-width:1.01599px;marker:none;enable-background:accumulate"
       d="m 915.25633,477.71228 c -4.04952,48.32505 20.65484,106.85492 115.89287,109.89183 -80.33867,-15.35995 -92.0301,-64.16762 -83.52693,-109.83472 7.34037,-39.42391 8.64622,-57.69856 8.64622,-57.69856 z"
       id="path4440-3"
       inkscape:connector-curvature="0"
       sodipodi:nodetypes="ccscc" />
  </g>
  <g
     inkscape:groupmode="layer"
     id="layer1"
     inkscape:label="txt">
    <text
       xml:space="preserve"
       style="font-style:normal;font-variant:normal;font-weight:normal;font-stretch:normal;font-size:45px;line-height:1.25;font-family:Lavi;-inkscape-font-specification:Lavi;text-align:center;letter-spacing:0px;word-spacing:0px;text-anchor:middle;fill:#000000;fill-opacity:1;stroke:none"
       x="897.05707"
       y="337.07599"
       id="text4246-3-2-2-3"><tspan
         style="font-size:45px"
         sodipodi:role="line"
         x="904.08832"
         y="337.07599"
         id="tspan877-5">Stai un pic! </tspan><tspan
         style="font-size:45px"
         sodipodi:role="line"
         x="904.08832"
         y="393.32599"
         id="tspan863">Ce am </tspan><tspan
         style="font-size:45px"
         sodipodi:role="line"
         x="897.05707"
         y="449.57599"
         id="tspan36">devenit?</tspan></text>
    <text
       xml:space="preserve"
       style="font-style:normal;font-variant:normal;font-weight:normal;font-stretch:normal;font-size:56px;line-height:1.25;font-family:Lavi;-inkscape-font-specification:Lavi;text-align:center;letter-spacing:0px;word-spacing:0px;text-anchor:middle;fill:#000000;fill-opacity:1;stroke:none"
       x="1590.5607"
       y="429.04697"
       id="text4246-3-2-2-3-3"><tspan
         sodipodi:role="line"
         x="1599.3107"
         y="429.04697"
         id="tspan957"
         style="font-style:normal;font-variant:normal;font-weight:bold;font-stretch:normal;font-size:56px;font-family:Lavi;-inkscape-font-specification:'Lavi Bold'">Un </tspan><tspan
         sodipodi:role="line"
         x="1590.5607"
         y="499.04697"
         style="font-style:normal;font-variant:normal;font-weight:bold;font-stretch:normal;font-size:56px;font-family:Lavi;-inkscape-font-specification:'Lavi Bold'"
         id="tspan40">ucigaș?</tspan></text>
    <text
       xml:space="preserve"
       style="font-style:normal;font-variant:normal;font-weight:normal;font-stretch:normal;font-size:53.34049988px;line-height:1.25;font-family:Lavi;-inkscape-font-specification:Lavi;text-align:center;letter-spacing:0px;word-spacing:0px;text-anchor:middle;fill:#000000;fill-opacity:1;stroke:none;stroke-width:1.18534005"
       x="1550.5575"
       y="1439.3575"
       id="text4246-3-2-2-3-9"><tspan
         style="font-size:53.34049988px;stroke-width:1.18534005"
         sodipodi:role="line"
         x="1558.892"
         y="1439.3575"
         id="tspan877-5-7">O </tspan><tspan
         style="font-style:normal;font-variant:normal;font-weight:normal;font-stretch:normal;font-size:53.34049988px;font-family:Lavi;-inkscape-font-specification:'Lavi Bold';stroke-width:1.18534005"
         sodipodi:role="line"
         x="1550.5575"
         y="1506.0332"
         id="tspan996">vrăjitoare</tspan><tspan
         style="font-size:53.34049988px;stroke-width:1.18534005"
         sodipodi:role="line"
         x="1550.5575"
         y="1572.7087"
         id="tspan998"><tspan
   style="font-weight:bold"
   id="tspan33">rea</tspan>?</tspan></text>
    <text
       xml:space="preserve"
       style="font-style:normal;font-variant:normal;font-weight:normal;font-stretch:normal;font-size:104.682px;line-height:1.25;font-family:Lavi;-inkscape-font-specification:Lavi;text-align:center;letter-spacing:0px;word-spacing:0px;text-anchor:middle;fill:#000000;fill-opacity:1;stroke:none;stroke-width:1.18634"
       x="1226.4388"
       y="2652.8953"
       id="text4246-3-2-2-3-9-0"
       transform="matrix(0.90421598,-0.22651773,-0.12390474,1.1369702,0,0)"><tspan
         style="font-style:normal;font-variant:normal;font-weight:bold;font-stretch:normal;font-size:104.682px;font-family:Lavi;-inkscape-font-specification:'Lavi Bold';stroke-width:1.18634"
         sodipodi:role="line"
         x="1226.4388"
         y="2652.8953"
         id="tspan998-6"><tspan
   style="font-size:79.44px;stroke-width:1.18634"
   id="tspan1037">!</tspan><tspan
   id="tspan1045"
   style="font-size:91.8525px;stroke-width:1.18634">!</tspan>!</tspan></text>
  </g>
</svg>
