<?xml version="1.0" encoding="UTF-8" standalone="no"?>
<svg
   xmlns:dc="http://purl.org/dc/elements/1.1/"
   xmlns:cc="http://creativecommons.org/ns#"
   xmlns:rdf="http://www.w3.org/1999/02/22-rdf-syntax-ns#"
   xmlns:svg="http://www.w3.org/2000/svg"
   xmlns="http://www.w3.org/2000/svg"
   xmlns:xlink="http://www.w3.org/1999/xlink"
   xmlns:sodipodi="http://sodipodi.sourceforge.net/DTD/sodipodi-0.dtd"
   xmlns:inkscape="http://www.inkscape.org/namespaces/inkscape"
   sodipodi:docname="E34P06.svg"
   height="3503"
   width="2481"
   inkscape:version="0.92.5 (2060ec1f9f, 2020-04-08)"
   version="1.1"
   id="svg2">
  <metadata
     id="metadata8">
    <rdf:RDF>
      <cc:Work
         rdf:about="">
        <dc:format>image/svg+xml</dc:format>
        <dc:type
           rdf:resource="http://purl.org/dc/dcmitype/StillImage" />
        <dc:title />
      </cc:Work>
    </rdf:RDF>
  </metadata>
  <defs
     id="defs6">
    <filter
       inkscape:label="soundFX1"
       id="filter4375-4-1-1-1-9-5-8-8-5-5-3-3"
       style="color-interpolation-filters:sRGB">
      <feFlood
         result="flood"
         flood-color="rgb(52,52,52)"
         flood-opacity="1"
         id="feFlood4377-7-9-0-8-1-7-3-1-2-7-6-6" />
      <feComposite
         baseFrequency="0.053999999999999999 0.053999999999999999"
         result="composite1"
         operator="in"
         in="flood"
         in2="SourceGraphic"
         id="feComposite4379-3-8-8-2-77-4-1-0-6-4-7-7" />
      <feMorphology
         result="result3"
         radius="4.366144675354084"
         operator="dilate"
         id="feMorphology4393-1-0-49-8-9-3-0-1-9-9-5-5" />
      <feComposite
         result="fbSourceGraphic"
         operator="over"
         in="SourceGraphic"
         in2="result3"
         id="feComposite4385-9-5-7-0-8-8-7-5-4-9-3-3" />
      <feColorMatrix
         id="feColorMatrix4544-9-4-4-5-5"
         values="0 0 0 -1 0 0 0 0 -1 0 0 0 0 -1 0 0 0 0 1 0"
         in="fbSourceGraphic"
         result="fbSourceGraphicAlpha" />
      <feTurbulence
         result="turbulence"
         baseFrequency="0.053999999999999999 0.054054054054054057"
         seed="147"
         numOctaves="4"
         type="fractalNoise"
         id="feTurbulence4546-3-6-5-6-6" />
      <feDisplacementMap
         result="fbSourceGraphic"
         xChannelSelector="R"
         yChannelSelector="G"
         scale="10.561763"
         in="fbSourceGraphic"
         in2="turbulence"
         id="feDisplacementMap4548-8-0-9-2-2" />
      <feColorMatrix
         id="feColorMatrix4670-7-7-3-9-9"
         values="0 0 0 -1 0 0 0 0 -1 0 0 0 0 -1 0 0 0 0 1 0"
         in="fbSourceGraphic"
         result="fbSourceGraphicAlpha" />
      <feFlood
         in="fbSourceGraphic"
         result="flood"
         flood-color="rgb(28,28,28)"
         flood-opacity="1"
         id="feFlood4672-4-4-5-1-1" />
      <feComposite
         result="composite1"
         operator="in"
         in="flood"
         in2="fbSourceGraphic"
         id="feComposite4674-8-3-7-2-2" />
      <feGaussianBlur
         result="blur"
         stdDeviation="0"
         in="composite1"
         id="feGaussianBlur4676-3-7-08-7-7" />
      <feOffset
         result="offset"
         dy="0.39217365321829334"
         dx="-10.48377497279229"
         id="feOffset4678-6-9-1-0-0" />
      <feComposite
         result="composite2"
         operator="over"
         in="fbSourceGraphic"
         in2="offset"
         id="feComposite4680-4-0-9-9-9" />
    </filter>
    <filter
       inkscape:label="soundFX1"
       id="filter4375-4-1-1-1-9-5-8-8-5-5-3-3-3"
       style="color-interpolation-filters:sRGB">
      <feFlood
         result="flood"
         flood-color="rgb(52,52,52)"
         flood-opacity="1"
         id="feFlood4377-7-9-0-8-1-7-3-1-2-7-6-6-5" />
      <feComposite
         baseFrequency="0.053999999999999999 0.053999999999999999"
         result="composite1"
         operator="in"
         in="flood"
         in2="SourceGraphic"
         id="feComposite4379-3-8-8-2-77-4-1-0-6-4-7-7-6" />
      <feMorphology
         result="result3"
         radius="4.0330969769021738"
         operator="dilate"
         id="feMorphology4393-1-0-49-8-9-3-0-1-9-9-5-5-2" />
      <feComposite
         result="fbSourceGraphic"
         operator="over"
         in="SourceGraphic"
         in2="result3"
         id="feComposite4385-9-5-7-0-8-8-7-5-4-9-3-3-9" />
      <feColorMatrix
         id="feColorMatrix4544-9-4-4-5-5-1"
         values="0 0 0 -1 0 0 0 0 -1 0 0 0 0 -1 0 0 0 0 1 0"
         in="fbSourceGraphic"
         result="fbSourceGraphicAlpha" />
      <feTurbulence
         result="turbulence"
         baseFrequency="0.046080819231719368"
         seed="147"
         numOctaves="4"
         type="fractalNoise"
         id="feTurbulence4546-3-6-5-6-6-2" />
      <feDisplacementMap
         result="fbSourceGraphic"
         xChannelSelector="R"
         yChannelSelector="G"
         scale="13.203259801572088"
         in="fbSourceGraphic"
         in2="turbulence"
         id="feDisplacementMap4548-8-0-9-2-2-7" />
      <feColorMatrix
         id="feColorMatrix4670-7-7-3-9-9-0"
         values="0 0 0 -1 0 0 0 0 -1 0 0 0 0 -1 0 0 0 0 1 0"
         in="fbSourceGraphic"
         result="fbSourceGraphicAlpha" />
      <feFlood
         in="fbSourceGraphic"
         result="flood"
         flood-color="rgb(28,28,28)"
         flood-opacity="1"
         id="feFlood4672-4-4-5-1-1-9" />
      <feComposite
         result="composite1"
         operator="in"
         in="flood"
         in2="fbSourceGraphic"
         id="feComposite4674-8-3-7-2-2-3" />
      <feGaussianBlur
         result="blur"
         stdDeviation="0"
         in="composite1"
         id="feGaussianBlur4676-3-7-08-7-7-6" />
      <feOffset
         result="offset"
         dy="0.39217365321829334"
         dx="-10.48377497279229"
         id="feOffset4678-6-9-1-0-0-0" />
      <feComposite
         result="composite2"
         operator="over"
         in="fbSourceGraphic"
         in2="offset"
         id="feComposite4680-4-0-9-9-9-6" />
    </filter>
    <filter
       inkscape:label="soundFX1"
       id="filter4375-4-1-1-1-9-5-8-8-5-5-3-3-3-7"
       style="color-interpolation-filters:sRGB">
      <feFlood
         result="flood"
         flood-color="rgb(52,52,52)"
         flood-opacity="1"
         id="feFlood4377-7-9-0-8-1-7-3-1-2-7-6-6-5-9" />
      <feComposite
         baseFrequency="0.053999999999999999 0.053999999999999999"
         result="composite1"
         operator="in"
         in="flood"
         in2="SourceGraphic"
         id="feComposite4379-3-8-8-2-77-4-1-0-6-4-7-7-6-2" />
      <feMorphology
         result="result3"
         radius="4.0330969769021738"
         operator="dilate"
         id="feMorphology4393-1-0-49-8-9-3-0-1-9-9-5-5-2-0" />
      <feComposite
         result="fbSourceGraphic"
         operator="over"
         in="SourceGraphic"
         in2="result3"
         id="feComposite4385-9-5-7-0-8-8-7-5-4-9-3-3-9-2" />
      <feColorMatrix
         id="feColorMatrix4544-9-4-4-5-5-1-3"
         values="0 0 0 -1 0 0 0 0 -1 0 0 0 0 -1 0 0 0 0 1 0"
         in="fbSourceGraphic"
         result="fbSourceGraphicAlpha" />
      <feTurbulence
         result="turbulence"
         baseFrequency="0.053999999999999999 0.054054054054054057"
         seed="147"
         numOctaves="4"
         type="fractalNoise"
         id="feTurbulence4546-3-6-5-6-6-2-7" />
      <feDisplacementMap
         result="fbSourceGraphic"
         xChannelSelector="R"
         yChannelSelector="G"
         scale="10.561763"
         in="fbSourceGraphic"
         in2="turbulence"
         id="feDisplacementMap4548-8-0-9-2-2-7-5" />
      <feColorMatrix
         id="feColorMatrix4670-7-7-3-9-9-0-9"
         values="0 0 0 -1 0 0 0 0 -1 0 0 0 0 -1 0 0 0 0 1 0"
         in="fbSourceGraphic"
         result="fbSourceGraphicAlpha" />
      <feFlood
         in="fbSourceGraphic"
         result="flood"
         flood-color="rgb(28,28,28)"
         flood-opacity="1"
         id="feFlood4672-4-4-5-1-1-9-2" />
      <feComposite
         result="composite1"
         operator="in"
         in="flood"
         in2="fbSourceGraphic"
         id="feComposite4674-8-3-7-2-2-3-2" />
      <feGaussianBlur
         result="blur"
         stdDeviation="0"
         in="composite1"
         id="feGaussianBlur4676-3-7-08-7-7-6-8" />
      <feOffset
         result="offset"
         dy="0.39217365321829334"
         dx="-10.48377497279229"
         id="feOffset4678-6-9-1-0-0-0-9" />
      <feComposite
         result="composite2"
         operator="over"
         in="fbSourceGraphic"
         in2="offset"
         id="feComposite4680-4-0-9-9-9-6-7" />
    </filter>
    <filter
       inkscape:label="soundFX1"
       id="filter4375-4-1-1-1-9-5-8-8-5-5-3-3-3-4"
       style="color-interpolation-filters:sRGB">
      <feFlood
         result="flood"
         flood-color="rgb(52,52,52)"
         flood-opacity="1"
         id="feFlood4377-7-9-0-8-1-7-3-1-2-7-6-6-5-5" />
      <feComposite
         baseFrequency="0.053999999999999999 0.053999999999999999"
         result="composite1"
         operator="in"
         in="flood"
         in2="SourceGraphic"
         id="feComposite4379-3-8-8-2-77-4-1-0-6-4-7-7-6-0" />
      <feMorphology
         result="result3"
         radius="1.8999624943387681"
         operator="dilate"
         id="feMorphology4393-1-0-49-8-9-3-0-1-9-9-5-5-2-3" />
      <feComposite
         result="fbSourceGraphic"
         operator="over"
         in="SourceGraphic"
         in2="result3"
         id="feComposite4385-9-5-7-0-8-8-7-5-4-9-3-3-9-6" />
      <feColorMatrix
         id="feColorMatrix4544-9-4-4-5-5-1-1"
         values="0 0 0 -1 0 0 0 0 -1 0 0 0 0 -1 0 0 0 0 1 0"
         in="fbSourceGraphic"
         result="fbSourceGraphicAlpha" />
      <feTurbulence
         result="turbulence"
         baseFrequency="0.03818384303719944"
         seed="88"
         numOctaves="3"
         type="fractalNoise"
         id="feTurbulence4546-3-6-5-6-6-2-0" />
      <feDisplacementMap
         result="fbSourceGraphic"
         xChannelSelector="R"
         yChannelSelector="G"
         scale="9.636552494727761"
         in="fbSourceGraphic"
         in2="turbulence"
         id="feDisplacementMap4548-8-0-9-2-2-7-6" />
      <feColorMatrix
         id="feColorMatrix4670-7-7-3-9-9-0-3"
         values="0 0 0 -1 0 0 0 0 -1 0 0 0 0 -1 0 0 0 0 1 0"
         in="fbSourceGraphic"
         result="fbSourceGraphicAlpha" />
      <feFlood
         in="fbSourceGraphic"
         result="flood"
         flood-color="rgb(28,28,28)"
         flood-opacity="1"
         id="feFlood4672-4-4-5-1-1-9-20" />
      <feComposite
         result="composite1"
         operator="in"
         in="flood"
         in2="fbSourceGraphic"
         id="feComposite4674-8-3-7-2-2-3-6" />
      <feGaussianBlur
         result="blur"
         stdDeviation="0"
         in="composite1"
         id="feGaussianBlur4676-3-7-08-7-7-6-1" />
      <feOffset
         result="offset"
         dy="0.39217365321829334"
         dx="-5.6583689219916096"
         id="feOffset4678-6-9-1-0-0-0-5" />
      <feComposite
         result="composite2"
         operator="over"
         in="fbSourceGraphic"
         in2="offset"
         id="feComposite4680-4-0-9-9-9-6-5" />
    </filter>
    <filter
       inkscape:label="soundFX1"
       id="filter4375-4-1-1-1-9-5-8-8-5-5-3-3-3-4-9"
       style="color-interpolation-filters:sRGB">
      <feFlood
         result="flood"
         flood-color="rgb(52,52,52)"
         flood-opacity="1"
         id="feFlood4377-7-9-0-8-1-7-3-1-2-7-6-6-5-5-3" />
      <feComposite
         baseFrequency="0.053999999999999999 0.053999999999999999"
         result="composite1"
         operator="in"
         in="flood"
         in2="SourceGraphic"
         id="feComposite4379-3-8-8-2-77-4-1-0-6-4-7-7-6-0-7" />
      <feMorphology
         result="result3"
         radius="1.8999624943387681"
         operator="dilate"
         id="feMorphology4393-1-0-49-8-9-3-0-1-9-9-5-5-2-3-4" />
      <feComposite
         result="fbSourceGraphic"
         operator="over"
         in="SourceGraphic"
         in2="result3"
         id="feComposite4385-9-5-7-0-8-8-7-5-4-9-3-3-9-6-5" />
      <feColorMatrix
         id="feColorMatrix4544-9-4-4-5-5-1-1-2"
         values="0 0 0 -1 0 0 0 0 -1 0 0 0 0 -1 0 0 0 0 1 0"
         in="fbSourceGraphic"
         result="fbSourceGraphicAlpha" />
      <feTurbulence
         result="turbulence"
         baseFrequency="0.03818384303719944"
         seed="88"
         numOctaves="3"
         type="fractalNoise"
         id="feTurbulence4546-3-6-5-6-6-2-0-5" />
      <feDisplacementMap
         result="fbSourceGraphic"
         xChannelSelector="R"
         yChannelSelector="G"
         scale="9.6365525"
         in="fbSourceGraphic"
         in2="turbulence"
         id="feDisplacementMap4548-8-0-9-2-2-7-6-4" />
      <feColorMatrix
         id="feColorMatrix4670-7-7-3-9-9-0-3-7"
         values="0 0 0 -1 0 0 0 0 -1 0 0 0 0 -1 0 0 0 0 1 0"
         in="fbSourceGraphic"
         result="fbSourceGraphicAlpha" />
      <feFlood
         in="fbSourceGraphic"
         result="flood"
         flood-color="rgb(28,28,28)"
         flood-opacity="1"
         id="feFlood4672-4-4-5-1-1-9-20-4" />
      <feComposite
         result="composite1"
         operator="in"
         in="flood"
         in2="fbSourceGraphic"
         id="feComposite4674-8-3-7-2-2-3-6-4" />
      <feGaussianBlur
         result="blur"
         stdDeviation="0"
         in="composite1"
         id="feGaussianBlur4676-3-7-08-7-7-6-1-3" />
      <feOffset
         result="offset"
         dy="0.39217365321829334"
         dx="-5.6583689219916096"
         id="feOffset4678-6-9-1-0-0-0-5-0" />
      <feComposite
         result="composite2"
         operator="over"
         in="fbSourceGraphic"
         in2="offset"
         id="feComposite4680-4-0-9-9-9-6-5-7" />
    </filter>
    <filter
       inkscape:label="soundFX1"
       id="filter4375-4-1-1-1-9-5-8-8-5-5-3-3-3-4-9-6"
       style="color-interpolation-filters:sRGB">
      <feFlood
         result="flood"
         flood-color="rgb(52,52,52)"
         flood-opacity="1"
         id="feFlood4377-7-9-0-8-1-7-3-1-2-7-6-6-5-5-3-8" />
      <feComposite
         baseFrequency="0.053999999999999999 0.053999999999999999"
         result="composite1"
         operator="in"
         in="flood"
         in2="SourceGraphic"
         id="feComposite4379-3-8-8-2-77-4-1-0-6-4-7-7-6-0-7-8" />
      <feMorphology
         result="result3"
         radius="1.8999624943387681"
         operator="dilate"
         id="feMorphology4393-1-0-49-8-9-3-0-1-9-9-5-5-2-3-4-4" />
      <feComposite
         result="fbSourceGraphic"
         operator="over"
         in="SourceGraphic"
         in2="result3"
         id="feComposite4385-9-5-7-0-8-8-7-5-4-9-3-3-9-6-5-3" />
      <feColorMatrix
         id="feColorMatrix4544-9-4-4-5-5-1-1-2-1"
         values="0 0 0 -1 0 0 0 0 -1 0 0 0 0 -1 0 0 0 0 1 0"
         in="fbSourceGraphic"
         result="fbSourceGraphicAlpha" />
      <feTurbulence
         result="turbulence"
         baseFrequency="0.03818384303719944"
         seed="88"
         numOctaves="3"
         type="fractalNoise"
         id="feTurbulence4546-3-6-5-6-6-2-0-5-4" />
      <feDisplacementMap
         result="fbSourceGraphic"
         xChannelSelector="R"
         yChannelSelector="G"
         scale="9.6365525"
         in="fbSourceGraphic"
         in2="turbulence"
         id="feDisplacementMap4548-8-0-9-2-2-7-6-4-9" />
      <feColorMatrix
         id="feColorMatrix4670-7-7-3-9-9-0-3-7-2"
         values="0 0 0 -1 0 0 0 0 -1 0 0 0 0 -1 0 0 0 0 1 0"
         in="fbSourceGraphic"
         result="fbSourceGraphicAlpha" />
      <feFlood
         in="fbSourceGraphic"
         result="flood"
         flood-color="rgb(28,28,28)"
         flood-opacity="1"
         id="feFlood4672-4-4-5-1-1-9-20-4-0" />
      <feComposite
         result="composite1"
         operator="in"
         in="flood"
         in2="fbSourceGraphic"
         id="feComposite4674-8-3-7-2-2-3-6-4-6" />
      <feGaussianBlur
         result="blur"
         stdDeviation="0"
         in="composite1"
         id="feGaussianBlur4676-3-7-08-7-7-6-1-3-8" />
      <feOffset
         result="offset"
         dy="0.39217365321829334"
         dx="-5.6583689219916096"
         id="feOffset4678-6-9-1-0-0-0-5-0-9" />
      <feComposite
         result="composite2"
         operator="over"
         in="fbSourceGraphic"
         in2="offset"
         id="feComposite4680-4-0-9-9-9-6-5-7-2" />
    </filter>
    <filter
       inkscape:label="soundFX1"
       id="filter4375-4-1-1-1-9-5-8-8-5-5-3-3-3-4-9-64"
       style="color-interpolation-filters:sRGB">
      <feFlood
         result="flood"
         flood-color="rgb(52,52,52)"
         flood-opacity="1"
         id="feFlood4377-7-9-0-8-1-7-3-1-2-7-6-6-5-5-3-9" />
      <feComposite
         baseFrequency="0.053999999999999999 0.053999999999999999"
         result="composite1"
         operator="in"
         in="flood"
         in2="SourceGraphic"
         id="feComposite4379-3-8-8-2-77-4-1-0-6-4-7-7-6-0-7-5" />
      <feMorphology
         result="result3"
         radius="1.8999624943387681"
         operator="dilate"
         id="feMorphology4393-1-0-49-8-9-3-0-1-9-9-5-5-2-3-4-0" />
      <feComposite
         result="fbSourceGraphic"
         operator="over"
         in="SourceGraphic"
         in2="result3"
         id="feComposite4385-9-5-7-0-8-8-7-5-4-9-3-3-9-6-5-4" />
      <feColorMatrix
         id="feColorMatrix4544-9-4-4-5-5-1-1-2-8"
         values="0 0 0 -1 0 0 0 0 -1 0 0 0 0 -1 0 0 0 0 1 0"
         in="fbSourceGraphic"
         result="fbSourceGraphicAlpha" />
      <feTurbulence
         result="turbulence"
         baseFrequency="0.03818384303719944"
         seed="88"
         numOctaves="3"
         type="fractalNoise"
         id="feTurbulence4546-3-6-5-6-6-2-0-5-7" />
      <feDisplacementMap
         result="fbSourceGraphic"
         xChannelSelector="R"
         yChannelSelector="G"
         scale="9.6365525"
         in="fbSourceGraphic"
         in2="turbulence"
         id="feDisplacementMap4548-8-0-9-2-2-7-6-4-1" />
      <feColorMatrix
         id="feColorMatrix4670-7-7-3-9-9-0-3-7-7"
         values="0 0 0 -1 0 0 0 0 -1 0 0 0 0 -1 0 0 0 0 1 0"
         in="fbSourceGraphic"
         result="fbSourceGraphicAlpha" />
      <feFlood
         in="fbSourceGraphic"
         result="flood"
         flood-color="rgb(28,28,28)"
         flood-opacity="1"
         id="feFlood4672-4-4-5-1-1-9-20-4-2" />
      <feComposite
         result="composite1"
         operator="in"
         in="flood"
         in2="fbSourceGraphic"
         id="feComposite4674-8-3-7-2-2-3-6-4-7" />
      <feGaussianBlur
         result="blur"
         stdDeviation="0"
         in="composite1"
         id="feGaussianBlur4676-3-7-08-7-7-6-1-3-2" />
      <feOffset
         result="offset"
         dy="0.39217365321829334"
         dx="-5.6583689219916096"
         id="feOffset4678-6-9-1-0-0-0-5-0-2" />
      <feComposite
         result="composite2"
         operator="over"
         in="fbSourceGraphic"
         in2="offset"
         id="feComposite4680-4-0-9-9-9-6-5-7-6" />
    </filter>
    <filter
       inkscape:label="soundFX1"
       id="filter4375-4-1-1-1-9-5-8-8-5-5-3-3-3-0"
       style="color-interpolation-filters:sRGB">
      <feFlood
         result="flood"
         flood-color="rgb(52,52,52)"
         flood-opacity="1"
         id="feFlood4377-7-9-0-8-1-7-3-1-2-7-6-6-5-96" />
      <feComposite
         baseFrequency="0.053999999999999999 0.053999999999999999"
         result="composite1"
         operator="in"
         in="flood"
         in2="SourceGraphic"
         id="feComposite4379-3-8-8-2-77-4-1-0-6-4-7-7-6-3" />
      <feMorphology
         result="result3"
         radius="2.5856550817276021"
         operator="dilate"
         id="feMorphology4393-1-0-49-8-9-3-0-1-9-9-5-5-2-8" />
      <feComposite
         result="fbSourceGraphic"
         operator="over"
         in="SourceGraphic"
         in2="result3"
         id="feComposite4385-9-5-7-0-8-8-7-5-4-9-3-3-9-5" />
      <feColorMatrix
         id="feColorMatrix4544-9-4-4-5-5-1-6"
         values="0 0 0 -1 0 0 0 0 -1 0 0 0 0 -1 0 0 0 0 1 0"
         in="fbSourceGraphic"
         result="fbSourceGraphicAlpha" />
      <feTurbulence
         result="turbulence"
         baseFrequency="0.046080819231719368"
         seed="147"
         numOctaves="4"
         type="fractalNoise"
         id="feTurbulence4546-3-6-5-6-6-2-1" />
      <feDisplacementMap
         result="fbSourceGraphic"
         xChannelSelector="R"
         yChannelSelector="G"
         scale="13.20326"
         in="fbSourceGraphic"
         in2="turbulence"
         id="feDisplacementMap4548-8-0-9-2-2-7-1" />
      <feColorMatrix
         id="feColorMatrix4670-7-7-3-9-9-0-5"
         values="0 0 0 -1 0 0 0 0 -1 0 0 0 0 -1 0 0 0 0 1 0"
         in="fbSourceGraphic"
         result="fbSourceGraphicAlpha" />
      <feFlood
         in="fbSourceGraphic"
         result="flood"
         flood-color="rgb(28,28,28)"
         flood-opacity="1"
         id="feFlood4672-4-4-5-1-1-9-9" />
      <feComposite
         result="composite1"
         operator="in"
         in="flood"
         in2="fbSourceGraphic"
         id="feComposite4674-8-3-7-2-2-3-8" />
      <feGaussianBlur
         result="blur"
         stdDeviation="0"
         in="composite1"
         id="feGaussianBlur4676-3-7-08-7-7-6-4" />
      <feOffset
         result="offset"
         dy="1.5526614972014983"
         dx="-8.3919392296330813"
         id="feOffset4678-6-9-1-0-0-0-8" />
      <feComposite
         result="composite2"
         operator="over"
         in="fbSourceGraphic"
         in2="offset"
         id="feComposite4680-4-0-9-9-9-6-1" />
    </filter>
  </defs>
  <sodipodi:namedview
     borderlayer="true"
     inkscape:snap-global="false"
     inkscape:document-rotation="0"
     inkscape:current-layer="layer3"
     inkscape:window-maximized="1"
     inkscape:window-y="27"
     inkscape:window-x="0"
     inkscape:cy="728.67246"
     inkscape:cx="1160.991"
     inkscape:zoom="0.32526913"
     showgrid="false"
     id="namedview4"
     inkscape:window-height="704"
     inkscape:window-width="1366"
     inkscape:pageshadow="2"
     inkscape:pageopacity="0"
     guidetolerance="10"
     gridtolerance="10"
     objecttolerance="10"
     borderopacity="1"
     bordercolor="#666666"
     pagecolor="#ffffff" />
  <g
     sodipodi:insensitive="true"
     inkscape:label="artwork"
     id="layer2"
     inkscape:groupmode="layer">
    <image
       sodipodi:absref="/home/juanjo/Comics/lang-ep-34-final/es/../gfx_Pepper-and-Carrot_by-David-Revoy_E34P06.png"
       xlink:href="../gfx_Pepper-and-Carrot_by-David-Revoy_E34P06.png"
       y="0"
       x="0"
       id="image10"
       height="3503"
       width="2481" />
  </g>
  <g
     style="display:inline"
     inkscape:label="speechbubbles"
     id="layer3"
     inkscape:groupmode="layer">
    <path
       sodipodi:nodetypes="cccc"
       id="path1850"
       d="M 1774.549,328.95397 C 1692.5239,277.18712 1590.5635,208.8837 1566.9348,205.55728 l 56.4745,-7.22201 c 42.4559,21.927 100.5568,86.52553 151.1397,130.6187 z"
       style="fill:#ffffff;fill-rule:evenodd;stroke:none;stroke-width:0.899411px;stroke-linecap:butt;stroke-linejoin:miter;stroke-opacity:1" />
    <path
       sodipodi:nodetypes="ccccccccccccccccccccccccc"
       id="path1848"
       d="m 1208.6571,373.31112 c 49.2583,-39.41021 79.5827,-88.63993 56.7328,11.30305 43.5899,-53.16195 74.9624,-79.96469 53.6466,6.90924 21.0485,-34.68204 40.9389,-50.17029 58.6798,-30.03589 13.8889,-41.69188 27.7779,-23.30306 41.6668,-22.75955 9.0195,-57.38393 24.9916,-25.34862 40.233,-2.71166 10.04,-40.60661 19.7002,-83.14603 52.339,-8.73776 8.9038,-54.35637 21.7662,-71.42177 39.8843,-38.97549 6.5704,-45.27682 21.7225,-42.0923 39.948,-21.55204 -6.8593,-31.9811 -0.6362,-42.75291 14.3963,-39.24298 -0.6494,-9.83447 -5.2827,-31.50661 36.497,-1.46579 -11.4648,-18.23482 -11.7074,-28.12277 37.0688,-1.5511 -5.0613,-17.97129 -6.6232,-33.5816 32.1668,-21.96776 -0.8245,-9.51745 -10.8612,-25.96844 32.0277,-2.58493 -13.5325,-18.87138 -28.996,-38.20897 13.0416,-43.66447 -21.3754,-14.12459 -15.7779,-33.9611 29.6581,-62.233995 -100.3754,18.857585 -88.1145,-32.60424 -83.6548,-58.605799 l -412.4389,20.916798 2.0938,39.699792 c 28.0429,49.282364 1.4803,39.805324 -23.4228,12.019114 27.1622,43.61495 14.143,37.80231 -35.8941,18.85704 40.6065,65.68161 6.663,51.17259 -23.0445,55.5494 73.8121,36.39964 26.0245,51.10118 7.4079,60.79237 82.0515,-2.67503 34.8642,21.33521 1.969,45.3434 52.7746,-15.93514 45.1137,-4.71021 -11.0022,84.69901 z"
       style="fill:#ffffff;fill-rule:evenodd;stroke:none;stroke-width:1px;stroke-linecap:butt;stroke-linejoin:miter;stroke-opacity:1" />
    <path
       sodipodi:nodetypes="cscsscsccc"
       inkscape:connector-curvature="0"
       id="path4394-0"
       d="m 252.04848,352.03135 c 0,0 -30.47195,-8.96799 -30.36473,-21.57651 0.10659,-12.60804 19.47778,-31.53529 19.47778,-31.53529 0,0 -27.19912,-7.93017 -20.96854,-41.08551 6.23063,-33.15529 48.41779,-53.27632 41.72857,-30.9357 -6.68916,22.34068 -34.94236,61.24183 25.28223,67.01061 -46.69326,28.81415 -37.08762,29.19956 -36.52905,34.12009 0.55795,4.92111 23.67543,11.36179 32.73328,13.29229 -35.24944,26.26432 -32.25349,41.2194 -23.98301,65.37595 -15.29097,-15.1862 -27.68266,-29.20986 -7.37653,-54.66593 z"
       style="display:inline;fill:#ffffff;fill-rule:evenodd;stroke:none;stroke-width:0.79001px;stroke-linecap:butt;stroke-linejoin:miter;stroke-opacity:1" />
    <path
       sodipodi:nodetypes="csssc"
       inkscape:connector-curvature="0"
       id="path3280-5-9"
       d="m 231.5918,82.380859 c -34.12266,-0.275006 -67.5539,14.977314 -91.19915,39.310201 -16.1991,16.68247 -29.34134,37.36368 -33.30751,60.57714 -4.1003,25.85889 1.47811,52.83735 13.97517,75.70252 12.22301,21.69677 32.7174,38.78795 56.65991,45.95986 15.25358,4.83986 31.12244,7.48872 46.99503,9.27753 26.98286,2.54093 54.1145,0.71255 81.08991,-0.96236 19.95216,-1.57235 39.84893,-5.57739 58.28818,-13.52226 16.26541,-6.76278 31.91101,-15.92895 43.99422,-28.9113 11.61293,-14.03417 15.55705,-32.94098 14.57039,-50.79415 -0.17856,-23.32686 -3.5409,-47.39364 -15.15278,-67.9883 C 392.39369,124.07484 365.21498,105.3267 335.86667,96.850893 302.08914,86.884856 266.82154,81.817526 231.5918,82.380859 Z"
       style="display:inline;fill:#ffffff;stroke:none;stroke-width:0.984173" />
    <path
       sodipodi:nodetypes="cccc"
       id="path1881"
       d="m 1242.7901,1591.969 c -9.3238,-96.0029 -16.1288,-211.0629 -37.9472,-212.5388 l 27.7377,-22.3318 c 17.3035,11.4648 12.8237,161.6834 10.2095,234.8706 z"
       style="fill:#ffffff;fill-rule:evenodd;stroke:none;stroke-width:0.888009px;stroke-linecap:butt;stroke-linejoin:miter;stroke-opacity:1" />
    <path
       sodipodi:nodetypes="cccccccccccccccccccccccc"
       inkscape:connector-curvature="0"
       id="path4289-9-3"
       d="m 1342.6555,1243.5756 c -26.4758,21.6922 -25.2286,30.0875 4.9268,24.6181 -28.0707,15.1067 -20.8183,17.5597 -5.3274,17.0604 -30.595,45.327 -15.3892,63.7715 0.8939,81.5836 -42.6274,2.2943 -40.2228,21.6774 -47.6802,37.3186 -14.4787,-22.4049 -15.4056,-4.9758 -12.5511,23.568 -16.3023,-29.6628 -23.2367,-30.3253 -21.6307,-4.5425 -13.2241,-17.8921 -26.2312,-22.3805 -38.9876,-11.4623 -31.0907,-11.0373 -35.4056,18.1812 -48.3747,34.3886 -11.3587,-19.4535 -23.7763,-16.4119 -36.5312,-6.1973 -8.8996,-6.9999 -17.1903,-18.5819 -30.296,6.0849 -8.4424,-16.3422 -14.3614,-1.205 -21.0561,4.2584 6.663,-12.6966 -9.8793,-10.7598 -53.1147,8.0079 15.9478,-10.3768 12.893,-16.8429 -12.5904,-18.6936 23.6372,-17.0076 20.6746,-27.7675 3.7384,-35.2454 25.275,-26.3258 -8.5941,-34.2476 -27.70539,-46.7613 32.09049,-0.9276 57.83619,-0.8575 56.81739,-28.1441 40.1557,12.477 39.3503,-10.0419 32.535,-18.2749 34.3959,15.6183 27.4055,-5.0467 32.7393,-14.9071 85.1976,6.4838 74.6991,-22.99 86.5882,-44.0517 15.2398,32.8159 28.1801,14.6063 41.1111,-3.814 6.8884,29.5113 9.663,17.5561 17.3725,6.9653 4.4784,12.2882 19.9974,13.6516 38.7729,-0.9071 -12.2897,14.7697 -2.6041,13.8415 40.35,-10.8525 z"
       style="display:inline;fill:#ffffff;fill-rule:evenodd;stroke:none;stroke-width:0.873423px;stroke-linecap:butt;stroke-linejoin:miter;stroke-opacity:1" />
    <path
       sodipodi:nodetypes="cccccccccccccccccccccccc"
       inkscape:connector-curvature="0"
       id="path4289-9"
       d="m 844.51405,1199.689 c 38.97797,10.9127 41.84791,20.1218 7.06695,27.5552 37.38173,3.4213 30.90025,9.0999 14.18757,15.3039 55.16719,33.5288 48.22458,59.1685 39.82119,84.6226 46.44921,-16.1217 51.96099,1.8339 51.72532,19.3872 13.37162,-24.832 30.03838,-11.4934 28.84939,10.1039 13.84023,-25.0164 33.09943,-37.8515 34.58273,-12.8649 17.2666,-20.1053 16.6927,-28.4464 35.7061,-22.7069 27.5261,-24.8824 46.7136,3.4141 68.596,14.5225 2.3499,-25.0127 17.0669,-27.2587 35.7268,-22.2449 5.9601,-11.0876 8.9831,-26.6424 35.2382,-6.8588 0.8053,-20.5354 14.6606,-7.4738 24.5058,-4.7368 -13.4263,-10.219 5.1222,-15.3948 60.4499,-14.7715 -22.1344,-3.7963 -35.1462,-23.0474 3.9492,-42.0915 -53.8612,11.9744 -35.7596,-2.3728 -21.4976,-17.4401 -40.0175,-16.2178 -7.9818,-39.0884 6.0752,-60.2987 -34.5679,12.9621 -63.7337,15.722 -76.2873,-12.8931 -50.6991,28.5488 -44.999,15.1809 -41.8704,3.724 -28.7491,31.0459 -31.6473,6.6771 -42.2437,-1.1901 -87.3042,43.6508 -90.8763,8.6652 -114.037,-7.9237 0.20349,40.4929 -22.64908,27.3046 -45.59708,13.8949 7.42745,33.4583 -6.50535,24.9904 -19.99156,17.3994 1.38173,14.6302 -9.42045,20.0975 -36.64995,13.2098 20.4422,9.9188 9.68496,13.1619 -48.30576,6.2976 z"
       style="display:inline;fill:#ffffff;fill-rule:evenodd;stroke:none;stroke-width:1.00123px;stroke-linecap:butt;stroke-linejoin:miter;stroke-opacity:1" />
    <path
       sodipodi:nodetypes="ccccccccccccccccccc"
       inkscape:connector-curvature="0"
       id="path3549-3-7-8"
       d="m 1987.6128,1247.8505 c 21.2403,42.3906 -8.1285,75.2308 -61.4246,46.5258 31.2952,27.2122 30.204,44.1201 -12.2857,46.7442 71.2563,49.0446 13.0266,41.623 1.5412,54.0584 55.9493,16.9021 37.4049,42.5189 1.4924,54.2944 64.3085,0.7193 48.7403,17.9818 24.3932,42.8227 28.4732,-16.2634 72.3957,-27.9582 73.9543,14.5635 41.2551,-37.1464 62.5409,-36.4228 77.4596,5.5818 12.4617,-36.2207 54.8945,-43.1915 71.12,-4.129 13.9772,-52.8659 63.8493,-45.4231 93.5363,-19.8018 -16.6649,-18.0822 -5.3009,-47.8564 51.5158,-41.8352 -4.5732,-16.5757 2.6186,-37.4967 31.3105,-34.7342 -33.0494,-10.0119 -39.1402,-20.3402 22.2251,-31.4544 -46.6954,-1.0739 -90.2393,-3.2769 -35.4554,-41.1792 -17.1871,-0.9172 -53.467,22.2621 -34.4547,-70.2921 -50.3376,27.2913 -96.1269,33.2344 -93.5245,-24.0925 -18.7141,31.0078 -80.0266,55.0768 -66.9738,6.8233 -44.7265,23.6722 -78.742,-16.0523 -93.5324,-38.9127 -12.1536,24.5062 -15.9366,68.4554 -50.8973,35.017 z"
       style="color:#000000;display:inline;overflow:visible;visibility:visible;fill:#ffffff;fill-opacity:1;fill-rule:nonzero;stroke:none;stroke-width:1.30249929px;marker:none;enable-background:accumulate" />
    <path
       sodipodi:nodetypes="ccccccccccccccc"
       inkscape:connector-curvature="0"
       id="path3549-3-3"
       d="m 1957.6478,1295.8772 c 5.6853,-7.3631 31.2442,-29.7745 29.7626,-4.8001 41.4312,-32.5067 73.9472,-20.7651 106.9697,-11.5389 10.0772,-9.8141 4.9043,-18.4047 33.455,-14.844 -2.9432,-9.7374 15.5476,-22.9124 38.0828,-26.8672 -28.6654,-5.9059 -33.3536,-11.9767 21.8734,-18.4567 -41.3821,-0.6663 -68.1834,-1.4446 -16.9941,-24.7384 -15.1965,-0.5512 -59.8628,11.1564 -42.1463,-35.829 -36.0698,25.9741 -57.319,26.9588 -88.2424,-9.5251 -12.4409,14.3845 -33.9236,33.5207 -69.2374,8.7849 15.7364,25.9401 -35.0932,11.0699 -48.5428,8.1541 25.9492,16.0066 23.8558,25.9326 -14.0424,27.4417 59.9547,28.8595 8.7581,24.4721 -2.2762,31.7665 48.531,9.969 24.8922,22.288 14.638,34.5781 57.0424,0.4714 36.0952,20.1717 36.7001,35.8741 z"
       style="color:#000000;display:inline;overflow:visible;visibility:visible;fill:#ffffff;fill-opacity:1;fill-rule:nonzero;stroke:none;stroke-width:1.40759px;marker:none;enable-background:accumulate" />
    <path
       sodipodi:nodetypes="cccscccc"
       inkscape:connector-curvature="0"
       id="path4456-8"
       d="m 2012.8502,1556.8314 c 33.1432,-3.0765 49.5177,-14.1302 63.502,-25.1622 -3.323,-3.6585 -10.9443,-10.8992 -10.9443,-10.8992 8.4132,3.9856 33.6455,-29.1076 31.128,-43.087 -2.0588,-11.4328 -17.8962,-22.9534 -17.8962,-22.9534 7.496,5.5512 -16.0011,59.4398 -34.2248,60.7508 9.5209,9.7065 5.5967,8.6357 10.4496,10.8775 -2.4355,8.428 -25.6395,23.8921 -42.0143,30.4735 z"
       style="color:#000000;display:inline;overflow:visible;visibility:visible;fill:#ffffff;fill-opacity:1;fill-rule:nonzero;stroke:none;stroke-width:1.13059px;marker:none;enable-background:accumulate" />
    <path
       sodipodi:nodetypes="cssssc"
       inkscape:connector-curvature="0"
       id="path4546-6-9"
       d="m 1768.0708,2692.063 c -24.1124,0.4606 -47.4229,12.645 -56.9911,30.4657 -6.7295,10.1882 -7.1807,22.3918 -3.5587,33.3812 3.6867,13.7323 14.0598,26.6826 29.6555,33.5235 16.8388,7.8901 36.7339,9.9629 55.9317,10.1766 22.1369,0.5188 44.522,0.1032 66.2338,-3.6889 17.4814,-3.8819 33.0423,-13.9029 40.1511,-27.413 10.2713,-18.0619 5.8474,-40.8982 -11.2715,-55.3416 -10.1608,-8.6862 -24.8248,-13.0089 -39.3115,-14.4372 -19.9681,-2.7512 -40.1346,-4.4502 -60.2803,-6.1048 -6.8391,-0.4195 -13.6995,-0.6315 -20.559,-0.5615 z"
       style="color:#000000;display:inline;overflow:visible;visibility:visible;fill:#ffffff;fill-opacity:1;fill-rule:nonzero;stroke:none;stroke-width:0.596963px;marker:none;enable-background:accumulate" />
    <path
       inkscape:connector-curvature="0"
       id="path4456-3"
       d="m 1882.8059,2633.5176 c -37.8791,-2.1495 -48.7859,13.5857 -57.5579,23.9044 1.7547,4.1191 3.7627,12.1857 3.7627,12.1857 0,0 -18.6852,18.3302 -24.0116,28.1718 -5.3264,9.8414 3.6574,18.2697 3.6574,18.2697 0,0 37.0115,-34.5243 46.6498,-39.0836 -5.179,-11.0415 -6.5739,-17.2965 -9.745,-20.2713 3.4665,-7.8768 23.822,-23.4035 37.2446,-23.1767 z"
       style="color:#000000;display:inline;overflow:visible;visibility:visible;fill:#ffffff;fill-opacity:1;fill-rule:nonzero;stroke:none;stroke-width:0.831571px;marker:none;enable-background:accumulate" />
    <path
       sodipodi:nodetypes="ccsccscsc"
       inkscape:connector-curvature="0"
       id="path891"
       d="m 631.53381,3261.5261 c -58.9868,-9.4133 -80.78839,-18.6204 -93.41016,-25.1553 25.55708,-9.175 30.6775,-11.6456 27.58924,-18.0461 -3.08825,-6.4005 -197.64668,-94.0082 -197.64668,-94.0082 l 45.28017,47.5817 c 0,0 69.61686,26.446 87.95416,33.3793 18.33743,6.9334 39.02055,15.9874 39.02055,15.9874 0,0 -18.8787,3.4283 -22.43255,7.5102 -3.55385,4.082 -7.0453,26.282 113.64527,32.751 z"
       style="fill:#ffffff;fill-rule:evenodd;stroke:none;stroke-width:1px;stroke-linecap:butt;stroke-linejoin:miter;stroke-opacity:1" />
    <path
       sodipodi:nodetypes="ccccccccccccccccccccccccccccccccccccccccccccc"
       inkscape:connector-curvature="0"
       id="path4197-1"
       d="m 242.32742,2979.209 c -3.89046,0.079 -7.74249,0.641 -11.61484,0.9492 4.48737,0.8574 8.97473,1.7148 13.46208,2.5723 -2.37494,0.7632 -3.69105,3.8914 -2.03611,5.8144 1.37828,-0.2071 0.92106,2.2424 -0.31342,1.6973 -13.77539,2.501 -27.31954,9.0012 -35.49233,20.0243 -14.72994,18.5092 -24.28272,40.0615 -32.43527,61.7211 -1.70431,4.0589 -4.29364,8.4682 -2.71494,12.927 2.02341,4.4764 7.10528,7.6372 7.30891,12.8198 0.12695,7.8795 -3.76867,15.1497 -4.53874,22.9235 -1.2871,8.3836 -3.07753,16.6874 -4.5784,25.0357 -0.54144,2.9917 -0.47114,6.0442 0.0576,9.0263 0.22413,3.3063 -1.61505,6.6229 -4.76553,8.1675 -3.42411,2.1011 -7.5777,2.9539 -10.80556,5.3665 -0.38957,3.0073 3.34569,4.7888 6.1063,4.5762 1.85483,-0.199 4.46414,-0.1743 5.07748,1.9039 1.13304,2.6263 -1.05051,5.7858 -3.98506,6.1056 -5.27928,2.3791 -10.99445,3.6868 -16.45986,5.6116 -0.0829,3.4002 3.89996,5.4787 7.14842,5.099 19.60729,3.427 39.41478,6.0558 58.68211,11.0064 -14.63875,3.3432 -29.75564,4.3263 -44.5768,6.5118 4.43313,1.0505 9.04129,1.7466 13.52885,2.7144 41.66077,8.307 83.02031,18.5629 125.44142,22.9294 35.81124,1.159 71.39831,-4.6549 106.09107,-12.5149 5.80796,-2.9844 8.51494,-9.1225 13.69372,-12.8039 6.49803,-6.6742 11.09029,-15.041 19.04327,-20.4037 6.35526,-4.988 12.43938,-10.5786 16.1717,-17.631 8.33176,-12.9198 14.29756,-27.7941 13.65882,-43.1043 -0.69055,-10.213 -6.29022,-19.4734 -7.12659,-29.6534 -0.22145,-7.3973 3.51318,-14.3362 8.37302,-19.9455 7.90905,-10.1649 17.57898,-18.9572 25.97282,-28.7457 1.3758,-0.9595 1.8779,-2.7521 0.90734,-4.1295 -1.83154,-4.2192 -6.9267,-6.2436 -11.52845,-6.0898 -7.00031,-0.9663 -14.02884,-1.9172 -20.85487,-3.7139 12.41271,-5.9012 26.76794,-6.8428 39.07241,-12.9922 1.63242,0.1634 1.41811,-2.5951 -0.17666,-2.3188 -5.72063,-2.0978 -11.40661,-4.2777 -17.1003,-6.439 2.99918,-4.1518 8.11029,-6.104 12.3143,-8.9317 1.68363,-0.01 1.21032,-2.8039 -0.36945,-2.457 -10.60629,-3.8649 -22.65879,-3.5576 -32.60704,-9.125 -1.68071,-1.7733 0.22636,-4.3771 2.32368,-4.8378 1.89317,-1.0375 4.03353,-1.6499 5.80836,-2.8829 -4.54499,-1.1505 -9.31158,-0.7919 -13.95022,-1.3147 -46.68657,-2.5378 -93.16832,4.2941 -139.82255,4.3877 -17.68555,-0.034 -35.39229,-2.0921 -52.45648,-6.5062 -9.8332,-2.0002 -19.84718,-3.4692 -29.93417,-3.35 z"
       style="display:inline;fill:#ffffff;fill-rule:evenodd;stroke:none;stroke-width:1.3455596px;stroke-linecap:butt;stroke-linejoin:miter;stroke-opacity:1" />
    <path
       sodipodi:nodetypes="cccccccccccccccccccccccccccccccccccc"
       inkscape:connector-curvature="0"
       id="path4197"
       d="m 376.45418,2860.0205 c -28.26931,3.0725 -57.00392,5.3763 -84.05499,14.4748 -4.5074,1.5783 -9.00856,3.1731 -13.50427,4.7823 -2.94987,7.4509 -10.43116,12.2462 -13.04485,19.8759 -1.45319,3.0672 -4.37367,5.0419 -7.07338,6.9847 -9.5579,8.5412 -14.44586,26.783 -16.35374,33.1197 -1.42233,6.1704 1.60216,12.5685 -2.44576,18.5775 -3.76907,6.1135 -12.09793,11.1835 -16.32464,17.1949 -0.83456,1.049 -1.17527,2.3751 0.64627,3.2271 2.38,1.4163 6.21503,1.8838 9.27651,2.618 1.68908,0.5715 1.64837,1.9527 -0.7108,2.2039 -4.06447,0.8523 -9.26083,0.7853 -12.41558,2.3474 -2.32367,0.9029 -4.07967,2.6502 -1.55522,3.766 1.7001,0.6989 4.67717,1.3488 4.07232,2.5452 -0.40356,0.589 -1.52176,1.0743 -2.88619,1.2688 12.09075,1.6406 24.66339,2.4871 37.12371,3.441 18.42563,1.2502 37.30486,1.4067 55.76259,0.1806 18.53293,-0.9 37.03305,-1.9319 55.45215,-3.1885 -3.07937,-0.4405 -6.15875,-0.881 -9.23812,-1.3214 0.69102,-0.7905 1.38201,-1.581 2.07303,-2.3713 -1.28168,-0.2967 -2.56336,-0.5933 -3.84504,-0.8899 12.43591,-2.8038 25.6589,-5.0034 34.98875,-10.4698 9.74608,-6.2325 18.14542,-12.9631 25.90829,-19.8521 2.27348,-0.8497 4.59112,-1.6799 6.63476,-2.6704 -4.23215,-2.408 -5.90879,-6.1065 -2.82995,-9.0311 4.1757,-6.2643 4.83896,-17.945 4.37994,-30.5788 0.33228,-3.3166 3.88653,-5.8108 3.26243,-9.2574 -0.99834,-2.5686 -4.46638,-4.3643 -3.56845,-7.4702 0.47214,-3.9429 6.08196,-5.0494 6.0555,-9.1496 -0.0321,-2.8273 -2.91685,-4.3236 -5.02492,-5.7357 -3.84916,-2.1967 -8.21131,-3.398 -12.12336,-5.4547 -1.10063,-0.054 -1.25026,-1.1866 -0.33132,-1.6206 3.65562,-4.0808 9.12797,-5.7834 13.86032,-8.3563 0.85285,-1.6219 -1.30004,-2.6341 -2.67145,-2.6518 -7.76219,-2.6138 -16.07759,-2.8392 -24.05297,-4.5561 -8.41751,-1.2244 -16.91849,-2.1026 -25.44157,-1.9821 z"
       style="display:inline;fill:#ffffff;fill-rule:evenodd;stroke:none;stroke-width:0.9862px;stroke-linecap:butt;stroke-linejoin:miter;stroke-opacity:1" />
    <path
       sodipodi:nodetypes="cccccccccccccccccccccccc"
       inkscape:connector-curvature="0"
       id="path4656"
       d="m 811.38361,2128.3429 c 191.90329,0.4798 399.15619,5.2364 535.64359,2.5998 -27.1517,0.7274 -23.3482,25.2265 24.9669,8.8721 -26.2515,30.8162 -4.6133,32.3673 73.3075,36.3545 -62.2126,8.6676 -93.7494,38.0934 -29.8342,50.9041 -34.5075,8.612 -70.4719,19.1106 -24.5274,34.0618 -69.2204,-15.67 -67.1055,2.4352 -52.2311,19.0643 -11.3893,0.7928 -32.0989,-12.9088 -28.6837,10.9071 -31.8795,-13.6988 -62.7432,-33.0493 -39.0475,19.0044 -53.7301,-44.9038 -53.9309,-21.0433 -57.1979,-7.6939 -59.6193,-42.197 -47.6375,-23.6185 -41.5412,-2.1049 -17.3909,-15.8158 -47.007,-19.9671 -43.1603,-1.8487 -16.7916,-18.639 -31.5798,-25.4585 -41.233,-1.9832 -10.4576,-10.2002 -20.9153,-24.844 -31.3729,-1.9831 -14.3005,-11.5924 -29.046,-15.803 -45.7148,11.8987 -8.258,-15.9318 -29.82865,-32.3548 -76.79408,-16.3539 16.45843,-23.3926 -0.13418,-27.745 -39.54954,-7.1449 15.96841,-15.5033 21.549,-38.8333 -23.43229,-4.7337 22.52895,-23.2753 2.07327,-21.172 -25.60504,-16.4406 27.21595,-34.9516 10.66601,-26.6034 -26.03392,-23.9793 48.0579,-23.27 20.78235,-26.964 -25.50665,-24.5537 30.84108,-24.6813 30.46983,-26.5104 7.17102,-34.7044 23.04794,-9.5174 62.64161,-8.9405 -2.68915,-19.831 75.28166,-6.1682 22.41152,-19.6846 13.06566,-30.3115 z"
       style="fill:#ffffff;fill-rule:evenodd;stroke:none;stroke-width:1.10815418px;stroke-linecap:butt;stroke-linejoin:miter;stroke-opacity:1" />
    <path
       sodipodi:nodetypes="cccccccc"
       inkscape:connector-curvature="0"
       id="path5066-9"
       d="m 967.89989,2272.9045 c -21.93532,9.6253 -54.38701,29.5889 -58.62353,35.4743 7.65037,3.4334 13.95567,8.1772 18.92328,11.7669 -8.6586,10.0195 -66.94384,33.9255 -80.07482,33.1337 32.085,3.8238 91.45067,-12.2157 104.5459,-30.0725 -5.9168,-6.1766 -10.12106,-8.9291 -13.17409,-12.2766 6.16567,-9.3462 41.71559,-19.3924 41.71559,-19.3924 z"
       style="color:#000000;display:inline;overflow:visible;visibility:visible;fill:#ffffff;fill-opacity:1;fill-rule:nonzero;stroke:none;stroke-width:0.937697px;marker:none;enable-background:accumulate" />
    <path
       sodipodi:nodetypes="csssc"
       inkscape:connector-curvature="0"
       id="path3280-8-90"
       d="m 1349.9201,2522.5228 c -0.9059,-17.8323 15.3381,-62.4733 94.5763,-59.1158 79.2384,3.3576 104.0386,22.9726 106.3608,54.6693 3.6732,50.1437 -38.014,63.5441 -97.873,67.258 -61.7081,3.8289 -104.0218,-30.5912 -103.0641,-62.8115 z"
       style="fill:#ffffff;stroke:none;stroke-width:0.640235" />
    <path
       sodipodi:nodetypes="csccc"
       inkscape:connector-curvature="0"
       id="path3072-5-5"
       d="m 1327.707,2590.6993 c 51.9208,7.0854 82.4162,-5.7476 93.871,-59.3544 10.0989,-47.2601 31.6187,-39.1416 31.6187,-39.1416 l 8.3834,32.7178 c 0,0 -40.4124,109.7129 -133.8731,65.7782 z"
       style="color:#000000;display:inline;overflow:visible;visibility:visible;fill:#ffffff;fill-opacity:1;fill-rule:nonzero;stroke:none;stroke-width:1px;marker:none;enable-background:accumulate" />
  </g>
  <g
     style="display:inline"
     inkscape:label="txt"
     id="layer1"
     inkscape:groupmode="layer">
    <text
       y="1245.0809"
       x="-607.91235"
       transform="matrix(0.45061052,-0.08588961,-0.18791098,0.54548663,2275.9528,764.65175)"
       id="text4580-6-0-0-0-9-3-3-2-4-8-6"
       style="font-style:normal;font-variant:normal;font-weight:normal;font-stretch:normal;font-size:131.375px;line-height:1.25;font-family:Lavi;-inkscape-font-specification:Lavi;letter-spacing:0px;word-spacing:0px;fill:#ffffff;fill-opacity:1;stroke:#ffffff;stroke-width:0.66877401;stroke-miterlimit:4;stroke-dasharray:none;stroke-opacity:1;filter:url(#filter4375-4-1-1-1-9-5-8-8-5-5-3-3-3-4-9-6)"
       xml:space="preserve">¡PAF!</text>
    <text
       id="text4246-3-2-2-6-3-7-9-3"
       y="164.20363"
       x="271.4985"
       style="font-style:normal;font-variant:normal;font-weight:normal;font-stretch:normal;font-size:45px;line-height:1.25;font-family:Lavi;-inkscape-font-specification:Lavi;text-align:center;letter-spacing:0px;word-spacing:0px;text-anchor:middle;fill:#000000;fill-opacity:1;stroke:none"
       xml:space="preserve"><tspan
         id="tspan861"
         y="164.20363"
         x="278.52975"
         sodipodi:role="line"
         style="font-size:45px">Shichimi, </tspan><tspan
         id="tspan197"
         y="220.45363"
         x="278.52975"
         sodipodi:role="line"
         style="font-size:45px">por favor, </tspan><tspan
         id="tspan199"
         y="276.70361"
         x="271.4985"
         sodipodi:role="line"
         style="font-size:45px">cálm...</tspan></text>
    <text
       y="435.11505"
       x="181.50571"
       transform="matrix(0.81079821,-0.712007,0.28741856,1.0365543,1066.0427,-12.598858)"
       id="text4580-6-0-0-0-9-3-3"
       style="font-style:normal;font-variant:normal;font-weight:normal;font-stretch:normal;font-size:179.14900208px;line-height:1.25;font-family:Lavi;-inkscape-font-specification:Lavi;letter-spacing:0.15651099px;word-spacing:0px;fill:#ffffff;fill-opacity:1;stroke:#ffffff;stroke-width:0.74171901;stroke-miterlimit:4;stroke-dasharray:none;stroke-opacity:1;filter:url(#filter4375-4-1-1-1-9-5-8-8-5-5-3-3)"
       xml:space="preserve"><textPath
         style="font-size:179.14900208px;stroke-width:0.74171901"
         id="textPath2837"
         xlink:href="#path974"><tspan
   id="tspan936"
   style="font-size:228.21000671px">B</tspan>ADuu<tspan
   id="tspan203"
   style="letter-spacing:4.89097023px">M!</tspan></textPath></text>
    <text
       transform="matrix(0.8260961,-0.36001498,0.07999197,1.1756522,0,0)"
       id="text4246-3-2-2-6-3-7-9-3-3-56-9-3-20-2-3-1-9"
       y="724.41235"
       x="1715.5295"
       style="font-style:normal;font-variant:normal;font-weight:normal;font-stretch:normal;font-size:75.77819824px;line-height:1.25;font-family:Lavi;-inkscape-font-specification:Lavi;text-align:center;letter-spacing:0px;word-spacing:0px;text-anchor:middle;fill:#000000;fill-opacity:1;stroke:none;stroke-width:1.22221994"
       xml:space="preserve"><tspan
         id="tspan1348"
         y="724.41235"
         x="1715.5295"
         sodipodi:role="line"
         style="font-style:normal;font-variant:normal;font-weight:bold;font-stretch:normal;font-size:75.77819824px;font-family:Lavi;-inkscape-font-specification:'Lavi Bold';stroke-width:1.22221994">¡¡¡VETE!!!</tspan></text>
    <path
       sodipodi:nodetypes="cc"
       id="path974"
       d="M -686.67373,0.90523332 C -568.76657,-0.73394668 -204.63364,132.58339 -16.133022,353.49759"
       style="fill:none;fill-rule:evenodd;stroke:none;stroke-width:1.13654px;stroke-linecap:butt;stroke-linejoin:miter;stroke-opacity:1" />
    <text
       transform="matrix(0.86135921,-0.17592636,-0.03745732,1.1686062,0,0)"
       id="text4246-3-2-2-6-3-7-9-3-3-56-9-3-20-2-3-1-9-3"
       y="1276.8705"
       x="1301.4633"
       style="font-style:normal;font-variant:normal;font-weight:normal;font-stretch:normal;font-size:58.11840057px;line-height:1.25;font-family:Lavi;-inkscape-font-specification:Lavi;text-align:center;letter-spacing:0px;word-spacing:0px;text-anchor:middle;fill:#000000;fill-opacity:1;stroke:none;stroke-width:0.937388"
       xml:space="preserve"><tspan
         id="tspan1348-6"
         y="1276.8705"
         x="1301.4633"
         sodipodi:role="line"
         style="font-style:normal;font-variant:normal;font-weight:bold;font-stretch:normal;font-size:58.11840057px;font-family:Lavi;-inkscape-font-specification:'Lavi Bold';stroke-width:0.937388">¡¡¡VETE!!!</tspan></text>
    <text
       transform="matrix(0.86056162,-0.22496289,0.02853311,1.1545729,0,0)"
       id="text4246-3-2-2-6-3-7-9-3-3-56-9-3-20-2-3-1-9-3-7"
       y="1450.1998"
       x="1325.8551"
       style="font-style:normal;font-variant:normal;font-weight:normal;font-stretch:normal;font-size:50.457901px;line-height:1.25;font-family:Lavi;-inkscape-font-specification:Lavi;text-align:center;letter-spacing:0px;word-spacing:0px;text-anchor:middle;fill:#000000;fill-opacity:1;stroke:none;stroke-width:0.81383097"
       xml:space="preserve"><tspan
         id="tspan1348-6-5"
         y="1450.1998"
         x="1325.8551"
         sodipodi:role="line"
         style="font-style:normal;font-variant:normal;font-weight:bold;font-stretch:normal;font-size:50.457901px;font-family:Lavi;-inkscape-font-specification:'Lavi Bold';stroke-width:0.81383097">¡¡¡VETE!!!</tspan></text>
    <text
       y="1245.0809"
       x="-607.91235"
       transform="matrix(0.98036614,-0.39223296,-0.53756803,0.90481848,1667.7584,648.06357)"
       id="text4580-6-0-0-0-9-3-3-2"
       style="font-style:normal;font-variant:normal;font-weight:normal;font-stretch:normal;font-size:80px;line-height:1.25;font-family:Lavi;-inkscape-font-specification:Lavi;letter-spacing:0px;word-spacing:0px;fill:#ffffff;fill-opacity:1;stroke:#ffffff;stroke-width:0.66877401;stroke-miterlimit:4;stroke-dasharray:none;stroke-opacity:1;filter:url(#filter4375-4-1-1-1-9-5-8-8-5-5-3-3-3)"
       xml:space="preserve"><tspan
         id="tspan1073"
         style="font-size:110px"><tspan
   style="font-size:129.71513691px"
   id="tspan196">¡</tspan><tspan
   style="font-size:116.74362322px"
   id="tspan194">¡</tspan>¡C</tspan><tspan
         style="font-size:99.05200195px"
         id="tspan1510">R</tspan><tspan
         style="font-size:88.10399628px"
         id="tspan1514">E</tspan><tspan
         style="font-size:77.15599823px"
         id="tspan1518">E</tspan><tspan
         style="font-size:66.20800018px"
         id="tspan1522">E</tspan><tspan
         style="font-size:55.25999832px"
         id="tspan1526">E</tspan><tspan
         style="font-size:44.31200027px"
         id="tspan1530">E!</tspan><tspan
         style="font-size:61.33710098px"
         id="tspan1534">!!</tspan></text>
    <text
       transform="scale(0.96063492,1.0409782)"
       id="text4246-3-2-2-6-3-7-9-3-3"
       y="1192.864"
       x="2114.8765"
       style="font-style:normal;font-variant:normal;font-weight:normal;font-stretch:normal;font-size:56.97510147px;line-height:1.25;font-family:Lavi;-inkscape-font-specification:Lavi;text-align:center;letter-spacing:0px;word-spacing:0px;text-anchor:middle;fill:#000000;fill-opacity:1;stroke:none;stroke-width:1.26610994"
       xml:space="preserve"><tspan
         id="tspan861-4"
         y="1192.864"
         x="2114.8765"
         sodipodi:role="line"
         style="font-size:56.97510147px;stroke-width:1.26610994">¡Ay!</tspan></text>
    <text
       transform="matrix(0.96542494,0,-0.15822218,1.0358133,0,0)"
       id="text4246-3-2-2-6-3-7-9-3-3-7"
       y="1291.8102"
       x="2422.3325"
       style="font-style:normal;font-variant:normal;font-weight:normal;font-stretch:normal;font-size:45px;line-height:1.25;font-family:Lavi;-inkscape-font-specification:Lavi;text-align:center;letter-spacing:0px;word-spacing:0px;text-anchor:middle;fill:#000000;fill-opacity:1;stroke:none;stroke-width:0.96542501"
       xml:space="preserve"><tspan
         id="tspan1236"
         y="1291.8102"
         x="2429.3638"
         sodipodi:role="line"
         style="font-size:45px;stroke-width:0.96542501">¡Eh! ¡Esto... </tspan><tspan
         id="tspan210"
         y="1348.0602"
         x="2429.3638"
         sodipodi:role="line"
         style="font-size:45px;stroke-width:0.96542501">n-NO... es... </tspan><tspan
         id="tspan212"
         y="1404.3102"
         x="2429.3638"
         sodipodi:role="line"
         style="font-size:45px;stroke-width:0.96542501">agradable! </tspan></text>
    <text
       y="1245.0809"
       x="-607.91235"
       transform="matrix(0.52711832,-0.15981063,-0.17435696,0.64729748,2672.6758,794.5647)"
       id="text4580-6-0-0-0-9-3-3-2-4"
       style="font-style:normal;font-variant:normal;font-weight:normal;font-stretch:normal;font-size:131.375px;line-height:1.25;font-family:Lavi;-inkscape-font-specification:Lavi;letter-spacing:0px;word-spacing:0px;fill:#ffffff;fill-opacity:1;stroke:#ffffff;stroke-width:0.66877401;stroke-miterlimit:4;stroke-dasharray:none;stroke-opacity:1;filter:url(#filter4375-4-1-1-1-9-5-8-8-5-5-3-3-3-4)"
       xml:space="preserve">¡POF!</text>
    <text
       y="1245.0809"
       x="-607.91235"
       transform="matrix(0.53051157,-0.11435771,-0.18857697,0.63128406,1994.6316,826.53325)"
       id="text4580-6-0-0-0-9-3-3-2-4-8"
       style="font-style:normal;font-variant:normal;font-weight:normal;font-stretch:normal;font-size:131.375px;line-height:1.25;font-family:Lavi;-inkscape-font-specification:Lavi;letter-spacing:0px;word-spacing:0px;fill:#ffffff;fill-opacity:1;stroke:#ffffff;stroke-width:0.66877401;stroke-miterlimit:4;stroke-dasharray:none;stroke-opacity:1;filter:url(#filter4375-4-1-1-1-9-5-8-8-5-5-3-3-3-4-9)"
       xml:space="preserve">¡POF!</text>
    <text
       y="1245.0809"
       x="-607.91235"
       transform="matrix(0.55959564,-0.12001132,-0.19891527,0.6787384,2053.839,1100.5323)"
       id="text4580-6-0-0-0-9-3-3-2-4-8-1"
       style="font-style:normal;font-variant:normal;font-weight:normal;font-stretch:normal;font-size:131.375px;line-height:1.25;font-family:Lavi;-inkscape-font-specification:Lavi;letter-spacing:0px;word-spacing:0px;fill:#ffffff;fill-opacity:1;stroke:#ffffff;stroke-width:0.66877401;stroke-miterlimit:4;stroke-dasharray:none;stroke-opacity:1;filter:url(#filter4375-4-1-1-1-9-5-8-8-5-5-3-3-3-4-9-64)"
       xml:space="preserve">¡PAF!</text>
    <text
       transform="skewX(-7.1285625)"
       id="text4246-3-2-2-6-3-7-9-3-3-56-9-3-20-3-3"
       y="2190.0793"
       x="1368.2677"
       style="font-style:normal;font-variant:normal;font-weight:normal;font-stretch:normal;font-size:40px;line-height:1.25;font-family:Lavi;-inkscape-font-specification:Lavi;text-align:center;letter-spacing:0px;word-spacing:0px;text-anchor:middle;fill:#000000;fill-opacity:1;stroke:none;stroke-width:0.98970401"
       xml:space="preserve"><tspan
         id="tspan1024"
         y="2190.0793"
         x="1374.5177"
         sodipodi:role="line"
         style="font-style:normal;font-variant:normal;font-weight:bold;font-stretch:normal;font-size:40px;font-family:Lavi;-inkscape-font-specification:'Lavi Bold';stroke-width:0.98970401">¡SHICHIMI! ¡PEPPER! </tspan><tspan
         id="tspan216"
         y="2240.0793"
         x="1368.2677"
         sodipodi:role="line"
         style="font-style:normal;font-variant:normal;font-weight:bold;font-stretch:normal;font-size:40px;font-family:Lavi;-inkscape-font-specification:'Lavi Bold';stroke-width:0.98970401">¡PARAD, POR FAVOR!</tspan><tspan
         id="tspan218"
         y="2290.0793"
         x="1368.2677"
         sodipodi:role="line"
         style="font-style:normal;font-variant:normal;font-weight:bold;font-stretch:normal;font-size:40px;font-family:Lavi;-inkscape-font-specification:'Lavi Bold';stroke-width:0.98970401" /></text>
    <text
       id="text4246-3-2-2-6-3-7-9-3-3-56-9-3-20-3-36"
       y="2537.0627"
       x="1454.755"
       style="font-style:normal;font-variant:normal;font-weight:normal;font-stretch:normal;font-size:45px;line-height:1.25;font-family:Lavi;-inkscape-font-specification:Lavi;text-align:center;letter-spacing:0px;word-spacing:0px;text-anchor:middle;fill:#000000;fill-opacity:1;stroke:none"
       xml:space="preserve"><tspan
         id="tspan1032"
         y="2537.0627"
         x="1454.755"
         sodipodi:role="line"
         style="font-size:45px">Espera.</tspan></text>
    <text
       transform="matrix(0.96542494,0,-0.15822218,1.0358133,0,0)"
       id="text4246-3-2-2-6-3-7-9-3-3-7-0"
       y="2665.2209"
       x="2300.9597"
       style="font-style:normal;font-variant:normal;font-weight:normal;font-stretch:normal;font-size:45px;line-height:1.25;font-family:Lavi;-inkscape-font-specification:Lavi;text-align:center;letter-spacing:0px;word-spacing:0px;text-anchor:middle;fill:#000000;fill-opacity:1;stroke:none;stroke-width:0.96542501"
       xml:space="preserve"><tspan
         id="tspan1573"
         y="2665.2209"
         x="2300.9597"
         sodipodi:role="line"
         style="font-size:45px;stroke-width:0.96542501">¡Humm!</tspan></text>
    <text
       id="text4246-3-2-2-6-3-7-9-3-9"
       y="2946.7305"
       x="339.71271"
       style="font-style:normal;font-variant:normal;font-weight:normal;font-stretch:normal;font-size:45px;line-height:1.25;font-family:Lavi;-inkscape-font-specification:Lavi;text-align:center;letter-spacing:0px;word-spacing:0px;text-anchor:middle;fill:#000000;fill-opacity:1;stroke:none"
       xml:space="preserve"><tspan
         id="tspan1611"
         y="2946.7305"
         x="339.71271"
         sodipodi:role="line"
         style="font-size:45px">¡Grrr!</tspan></text>
    <text
       id="text4246-3-2-2-6-3-7-9-3-9-9"
       y="3060.019"
       x="315.70981"
       style="font-style:normal;font-variant:normal;font-weight:normal;font-stretch:normal;font-size:49.6053009px;line-height:1.25;font-family:Lavi;-inkscape-font-specification:Lavi;text-align:center;letter-spacing:0px;word-spacing:0px;text-anchor:middle;fill:#000000;fill-opacity:1;stroke:none;stroke-width:1.10233998"
       xml:space="preserve"><tspan
         id="tspan1031"
         y="3060.019"
         x="323.46063"
         sodipodi:role="line"
         style="font-size:49.6053009px;stroke-width:1.10233998">OK, </tspan><tspan
         id="tspan227"
         y="3122.0256"
         x="323.46063"
         sodipodi:role="line"
         style="font-size:49.6053009px;stroke-width:1.10233998">¡tú te lo has </tspan><tspan
         id="tspan225"
         y="3184.0322"
         x="315.70981"
         sodipodi:role="line"
         style="font-size:49.6053009px;stroke-width:1.10233998">buscado!</tspan></text>
    <text
       y="1245.0809"
       x="-607.91235"
       transform="matrix(1.4640851,-0.3812188,-0.80280752,2.6992234,3645.3529,-405.18199)"
       id="text4580-6-0-0-0-9-3-3-2-0"
       style="font-style:normal;font-variant:normal;font-weight:normal;font-stretch:normal;font-size:80px;line-height:1.25;font-family:Lavi;-inkscape-font-specification:Lavi;letter-spacing:0px;word-spacing:0px;fill:#ffffff;fill-opacity:1;stroke:#ffffff;stroke-width:0.66877401;stroke-miterlimit:4;stroke-dasharray:none;stroke-opacity:1;filter:url(#filter4375-4-1-1-1-9-5-8-8-5-5-3-3-3-0)"
       xml:space="preserve"><tspan
         style="font-size:61.33710098px"
         id="tspan1534-6"><tspan
   id="tspan200"
   style="font-size:82.2858963px">¡¡B</tspan><tspan
   id="tspan202"
   style="font-size:71.81150055px">R</tspan><tspan
   id="tspan1814"
   style="font-size:66.57430267px">Z</tspan>OO!!</tspan></text>
  </g>
</svg>
