<?xml version="1.0" encoding="UTF-8" standalone="no"?>
<!-- Created with Inkscape (http://www.inkscape.org/) -->

<svg
   xmlns:dc="http://purl.org/dc/elements/1.1/"
   xmlns:cc="http://creativecommons.org/ns#"
   xmlns:rdf="http://www.w3.org/1999/02/22-rdf-syntax-ns#"
   xmlns:svg="http://www.w3.org/2000/svg"
   xmlns="http://www.w3.org/2000/svg"
   xmlns:xlink="http://www.w3.org/1999/xlink"
   xmlns:sodipodi="http://sodipodi.sourceforge.net/DTD/sodipodi-0.dtd"
   xmlns:inkscape="http://www.inkscape.org/namespaces/inkscape"
   id="svg2"
   version="1.1"
   inkscape:version="0.92.3 (2405546, 2018-03-11)"
   width="2481"
   height="3503"
   sodipodi:docname="E17P01.svg">
  <sodipodi:namedview
     pagecolor="#ffffff"
     bordercolor="#666666"
     inkscape:pageopacity="0"
     inkscape:pageshadow="2"
     inkscape:window-width="1920"
     inkscape:window-height="1022"
     id="namedview70"
     showgrid="false"
     inkscape:zoom="0.56568542"
     inkscape:cx="1285.8386"
     inkscape:cy="422.55668"
     inkscape:current-layer="layer1"
     inkscape:window-x="0"
     inkscape:window-y="0"
     inkscape:window-maximized="1" />
  <metadata
     id="metadata8">
    <rdf:RDF>
      <cc:Work
         rdf:about="">
        <dc:format>image/svg+xml</dc:format>
        <dc:type
           rdf:resource="http://purl.org/dc/dcmitype/StillImage" />
        <dc:title />
      </cc:Work>
    </rdf:RDF>
  </metadata>
  <defs
     id="defs6">
    <filter
       style="color-interpolation-filters:sRGB"
       id="filter4375-4-1-1-1"
       inkscape:label="deevad outline effect">
      <feFlood
         id="feFlood4377-7-9-0-8"
         flood-opacity="1"
         flood-color="rgb(0,0,0)"
         result="flood" />
      <feComposite
         id="feComposite4379-3-8-8-2"
         in2="SourceGraphic"
         in="flood"
         operator="in"
         result="composite1" />
      <feMorphology
         id="feMorphology4393-1-0-49-8"
         operator="dilate"
         radius="4"
         result="result3" />
      <feComposite
         id="feComposite4385-9-5-7-0"
         in2="result3"
         in="SourceGraphic"
         operator="over"
         result="composite2" />
    </filter>
  </defs>
  <sodipodi:namedview
     pagecolor="#ffffff"
     bordercolor="#666666"
     borderopacity="1"
     objecttolerance="10"
     gridtolerance="10"
     guidetolerance="10"
     inkscape:pageopacity="0"
     inkscape:pageshadow="2"
     inkscape:window-width="1920"
     inkscape:window-height="1025"
     id="namedview4"
     showgrid="false"
     inkscape:zoom="0.74389472"
     inkscape:cx="1692.5409"
     inkscape:cy="901.90755"
     inkscape:window-x="0"
     inkscape:window-y="26"
     inkscape:window-maximized="1"
     inkscape:current-layer="layer1" />
  <g
     inkscape:groupmode="layer"
     id="layer2"
     inkscape:label="artwork"
     sodipodi:insensitive="true">
    <image
       xlink:href="../gfx_Pepper-and-Carrot_by-David-Revoy_E17P01.png"
       y="0"
       x="0"
       id="image10"
       height="3503"
       width="2481" />
  </g>
  <g
     inkscape:groupmode="layer"
     id="layer3"
     inkscape:label="speechbubbles">
    <path
       style="fill:#ffffff;stroke:none;stroke-width:1.02280259"
       d="m 1827.9675,2417.8139 c 5.9303,-58.8046 25.5387,-93.5377 79.1989,-129.28 46.0979,-30.7052 292.2148,-28.1439 361.7688,-16.6931 50.9013,8.38 151.3998,32.4751 155.4965,85.3615 3.893,50.2583 16.7755,159.3093 -25.1983,191.7058 -44.2893,34.184 -315.7142,24.0832 -416.7846,13.3469 -135.091,-14.35 -149.5044,-99.5929 -154.4813,-144.4411 z"
       id="path3021"
       inkscape:connector-curvature="0"
       sodipodi:nodetypes="csssssc" />
    <path
       style="color:#000000;display:inline;overflow:visible;visibility:visible;fill:#ffffff;fill-opacity:1;fill-rule:nonzero;stroke:none;stroke-width:1px;marker:none;enable-background:accumulate"
       d="m 1781.9829,2275.3363 c 43.0673,8.2854 66.1639,39.6775 70.6387,48.3686 4.4748,8.691 18.2521,35.9003 53.2109,40.6343 34.9589,4.7342 34.6065,23.736 34.6065,23.736 l -43.5145,10.2041 c 0,0 -39.462,-19.6878 -54.101,-39.0809 -14.6389,-19.3932 -22.7941,-50.3705 -31.7823,-59.1151 -8.9881,-8.7446 -15.6524,-19.837 -29.0583,-24.747 z"
       id="path4018"
       inkscape:connector-curvature="0"
       sodipodi:nodetypes="cssccssc" />
    <path
       style="fill:#ffffff;fill-rule:evenodd;stroke:none;stroke-width:1.18187702"
       d="m 943.00925,1786.0318 c 45.6672,13.4479 86.94715,21.8089 72.91275,-33.9688 80.834,75.7265 69.2386,23.8641 82.0269,5.6614 48.0588,53.493 89.4094,45.8698 125.319,-11.3228 20.3003,82.4976 62.7806,42.5269 100.255,30.1945 -0.091,23.1995 -10.3234,49.802 100.2552,35.8559 -31.6172,20.9531 -43.4107,39.9748 27.3422,50.9531 -49.1481,16.847 -76.1396,34.7736 -22.7852,56.6146 -28.3441,31.8172 -9.3865,50.726 29.6209,64.1633 -91.3324,1.8607 -69.3374,19.3651 -54.6848,35.8559 -77.7596,-33.905 -88.639,-20.3307 -82.0267,5.6614 -36.1927,-14.9103 -62.9436,-50.1524 -127.5975,-3.7742 -19.2286,-15.3922 -36.9534,-34.8327 -79.7483,13.21 -3.0189,-41.9063 -34.3073,-40.3299 -79.7484,-16.9843 -11.9854,-39.3005 -56.99072,-19.3463 -104.8122,5.6615 39.03327,-38.358 16.21734,-52.4887 -36.00963,-91.4523 55.37134,-31.5898 23.63581,-31.3753 15.41365,-53.8586 28.02999,-15.9589 64.62332,-33.3433 -9.02485,-64.1633 43.06026,4.7915 88.90941,10.9687 43.29198,-28.3073 z"
       id="path4582"
       inkscape:connector-curvature="0"
       sodipodi:nodetypes="ccccccccccccccccccc" />
    <path
       style="color:#000000;display:inline;overflow:visible;visibility:visible;fill:#ffffff;fill-opacity:1;fill-rule:nonzero;stroke:none;stroke-width:1px;marker:none;enable-background:accumulate"
       d="m 1371.538,1973.2048 c 14.2255,23.7239 43.044,61.9488 59.624,76.2655 -13.8639,3.0955 -25.7793,8.4416 -35.1298,12.4353 12.1296,16.784 73.1169,90.9257 94.759,100.8209 -54.5674,-22.0361 -104.9506,-74.3748 -122.6017,-103.7006 11.6229,-7.5332 19.4636,-10.4968 25.5024,-14.6173 -2.5419,-25.4071 -44.4327,-56.6177 -44.9452,-56.8452 z"
       id="path5066"
       inkscape:connector-curvature="0"
       sodipodi:nodetypes="cccccccc" />
    <path
       style="color:#000000;display:inline;overflow:visible;visibility:visible;fill:#ffffff;fill-opacity:1;fill-rule:nonzero;stroke:none;stroke-width:1.03540385px;marker:none;enable-background:accumulate"
       d="m 568.33164,2290.7702 c -32.28412,-18.4643 -38.28023,-46.2163 -35.05169,-56.7674 3.22838,-10.551 32.28397,-64.6251 67.79632,-71.2196 35.51251,-6.5944 127.52192,-14.5076 148.50662,-7.9132 20.98472,6.5943 80.71016,50.1175 80.71016,72.5384 0,22.421 -11.29941,65.944 -43.58353,79.1327 -32.28397,13.1889 -179.63714,31.7088 -218.37788,-15.7709 z"
       id="path3349"
       inkscape:connector-curvature="0"
       sodipodi:nodetypes="ccccscc" />
    <path
       style="fill:#ffffff;stroke:none;stroke-width:1.09806812"
       d="m 527.34528,2370.3699 c -0.88397,-20.9903 27.64462,-79.0617 149.91889,-72.3805 122.27426,6.6812 160.00771,30.5914 162.67793,67.9264 4.2242,59.0629 -41.98101,71.606 -153.09279,75.6733 -95.37485,3.4912 -152.51841,-0.45 -159.50403,-71.2192 z"
       id="path3280"
       inkscape:connector-curvature="0"
       sodipodi:nodetypes="csssc" />
    <path
       style="fill:#ffffff;stroke:none"
       d="m 462.7487,2323.4218 c 19.54312,23.3799 27.8615,17.4813 37.10761,9.6978 9.24609,-7.7835 17.24434,-16.2258 23.0997,-13.9259 5.85539,2.3001 11.36723,10.3556 14.79931,17.3132 3.4321,6.9575 9.3438,2.994 16.07856,-0.5744 6.73479,-3.5684 43.2244,-10.0681 43.2244,-10.0681 0,0 -22.57858,29.6369 -31.0169,35.8681 -8.43834,6.2309 -11.50973,8.5673 -15.17309,9.7994 -3.66342,1.232 -12.74208,2.3755 -17.72582,-3.0266 -4.98374,-5.4019 -7.3681,-14.5768 -10.32818,-20.0976 -2.95996,-5.5207 -11.05253,-6.3898 -18.65118,-2.486 -7.59863,3.9039 -25.24054,9.1542 -32.47234,-0.9969 -7.2318,-10.1511 -8.94207,-21.503 -8.94207,-21.503 z"
       id="path3023"
       inkscape:connector-curvature="0"
       sodipodi:nodetypes="csssscssssssc" />
  </g>
  <g
     inkscape:groupmode="layer"
     id="layer1"
     inkscape:label="txt">
    <text
       xml:space="preserve"
       style="font-style:normal;font-variant:normal;font-weight:normal;font-stretch:normal;line-height:0%;font-family:Lavi;-inkscape-font-specification:Lavi;text-align:center;letter-spacing:0px;word-spacing:0px;text-anchor:middle;fill:#000000;fill-opacity:1;stroke:none"
       x="684.38007"
       y="2212.8169"
       id="text4246"><tspan
         sodipodi:role="line"
         style="font-size:45px;line-height:1.25"
         x="691.41132"
         y="2212.8169"
         id="tspan4146">Ach </tspan><tspan
         sodipodi:role="line"
         style="font-size:45px;line-height:1.25"
         x="684.38007"
         y="2269.0669"
         id="tspan46">a Pheabar...</tspan></text>
    <text
       xml:space="preserve"
       style="font-style:normal;font-variant:normal;font-weight:normal;font-stretch:normal;line-height:0%;font-family:Lavi;-inkscape-font-specification:Lavi;text-align:center;letter-spacing:0px;word-spacing:0px;text-anchor:middle;fill:#000000;fill-opacity:1;stroke:#000000;stroke-width:2.65554738;stroke-miterlimit:4;stroke-dasharray:none;stroke-opacity:1"
       x="1167.3823"
       y="1899.1561"
       id="text4246-7"><tspan
         sodipodi:role="line"
         style="font-style:normal;font-variant:normal;font-weight:bold;font-stretch:normal;font-size:53.33333206px;line-height:1.25;font-family:Lavi;-inkscape-font-specification:'Lavi Bold';stroke:#000000;stroke-width:2.65554738;stroke-miterlimit:4;stroke-dasharray:none;stroke-opacity:1"
         x="1167.3823"
         y="1899.1561"
         id="tspan72">CHAN FHUIRICH!</tspan><tspan
         sodipodi:role="line"
         style="font-style:normal;font-variant:normal;font-weight:bold;font-stretch:normal;font-size:42.66666794px;line-height:1.25;font-family:Lavi;-inkscape-font-specification:'Lavi Bold';stroke:#000000;stroke-width:2.65554738;stroke-miterlimit:4;stroke-dasharray:none;stroke-opacity:1"
         x="1167.3823"
         y="1956.0472"
         id="tspan4190">THA MI ’gur FÀGAIL!!</tspan></text>
    <text
       xml:space="preserve"
       style="font-style:normal;font-variant:normal;font-weight:normal;font-stretch:normal;line-height:0%;font-family:Lavi;-inkscape-font-specification:Lavi;text-align:center;letter-spacing:0px;word-spacing:0px;text-anchor:middle;fill:#000000;fill-opacity:1;stroke:none"
       x="2110.7527"
       y="2348.5093"
       id="text4246-9"><tspan
         sodipodi:role="line"
         style="font-size:45px;line-height:1.25"
         x="2117.7839"
         y="2348.5093"
         id="tspan3342">Chan ionnsaich sibh </tspan><tspan
         sodipodi:role="line"
         style="font-size:45px;line-height:1.25"
         x="2110.7527"
         y="2404.7593"
         id="tspan87">buidseachas ceart dhomh!</tspan><tspan
         sodipodi:role="line"
         style="font-size:45px;line-height:1.25"
         x="2110.7527"
         y="2461.0093"
         id="tspan85">Falbhaidh mi – gu bana-</tspan><tspan
         sodipodi:role="line"
         style="font-size:45px;line-height:1.25"
         x="2110.7527"
         y="2517.2593"
         id="tspan89">bhuidsichean an Achd!</tspan></text>
    <text
       xml:space="preserve"
       style="font-style:normal;font-variant:normal;font-weight:normal;font-stretch:normal;line-height:0%;font-family:Lavi;-inkscape-font-specification:Lavi;letter-spacing:0px;word-spacing:0px;fill:#000000;fill-opacity:1;stroke:#000000;stroke-width:0.99236238;stroke-miterlimit:4;stroke-dasharray:none;stroke-opacity:1;filter:url(#filter4375-4-1-1-1)"
       x="787.65729"
       y="1584.5073"
       id="text4580"
       transform="matrix(0.64545612,-0.14502854,-0.28870948,0.70997447,753.86791,2340.5307)"><tspan
         sodipodi:role="line"
         id="tspan4582"
         x="787.65729"
         y="1584.5073"
         style="font-size:70px;line-height:1.25;fill:#ffffff"><tspan
           id="tspan4938"
           style="font-size:62.03222656px">Fru</tspan><tspan
           style="font-size:80.40014648px"
           id="tspan4617">ui</tspan><tspan
           id="tspan4942"
           style="font-size:100.29872894px">s</tspan><tspan
           id="tspan93"
           style="font-size:115.71204594px">s</tspan><tspan
           id="tspan4940"
           style="font-size:123.25863647px"> !</tspan></tspan></text>
    <text
       id="text58"
       y="2356.8169"
       x="684.38007"
       style="font-style:normal;font-variant:normal;font-weight:normal;font-stretch:normal;line-height:0%;font-family:Lavi;-inkscape-font-specification:Lavi;text-align:center;letter-spacing:0px;word-spacing:0px;text-anchor:middle;fill:#000000;fill-opacity:1;stroke:none"
       xml:space="preserve"><tspan
         id="tspan54"
         y="2356.8169"
         x="691.41132"
         style="font-size:45px;line-height:1.25"
         sodipodi:role="line">Nach </tspan><tspan
         id="tspan56"
         y="2413.0669"
         x="684.38007"
         style="font-size:45px;line-height:1.25"
         sodipodi:role="line">fuirich thu...</tspan></text>
  </g>
</svg>
