<?xml version="1.0" encoding="UTF-8" standalone="no"?>
<!-- Created with Inkscape (http://www.inkscape.org/) -->

<svg
   xmlns:dc="http://purl.org/dc/elements/1.1/"
   xmlns:cc="http://creativecommons.org/ns#"
   xmlns:rdf="http://www.w3.org/1999/02/22-rdf-syntax-ns#"
   xmlns:svg="http://www.w3.org/2000/svg"
   xmlns="http://www.w3.org/2000/svg"
   xmlns:xlink="http://www.w3.org/1999/xlink"
   xmlns:sodipodi="http://sodipodi.sourceforge.net/DTD/sodipodi-0.dtd"
   xmlns:inkscape="http://www.inkscape.org/namespaces/inkscape"
   id="svg2"
   version="1.1"
   inkscape:version="0.92.4 5da689c313, 2019-01-14"
   width="2481"
   height="3503"
   sodipodi:docname="E29P03.svg">
  <metadata
     id="metadata8">
    <rdf:RDF>
      <cc:Work
         rdf:about="">
        <dc:format>image/svg+xml</dc:format>
        <dc:type
           rdf:resource="http://purl.org/dc/dcmitype/StillImage" />
        <dc:title />
      </cc:Work>
    </rdf:RDF>
  </metadata>
  <defs
     id="defs6" />
  <sodipodi:namedview
     pagecolor="#ffffff"
     bordercolor="#666666"
     borderopacity="1"
     objecttolerance="10"
     gridtolerance="10"
     guidetolerance="10"
     inkscape:pageopacity="0"
     inkscape:pageshadow="2"
     inkscape:window-width="1920"
     inkscape:window-height="1027"
     id="namedview4"
     showgrid="false"
     inkscape:zoom="0.52900002"
     inkscape:cx="2084.6889"
     inkscape:cy="2230.4191"
     inkscape:window-x="1920"
     inkscape:window-y="26"
     inkscape:window-maximized="1"
     inkscape:current-layer="layer1" />
  <g
     inkscape:groupmode="layer"
     id="layer2"
     inkscape:label="artwork"
     sodipodi:insensitive="true">
    <image
       sodipodi:absref="/home/midgard/git/peppercarrot/comics/new-ep29_Destroyer-of-Worlds/lang/nl/../gfx_Pepper-and-Carrot_by-David-Revoy_E29P03.png"
       xlink:href="../gfx_Pepper-and-Carrot_by-David-Revoy_E29P03.png"
       width="2481"
       height="3503"
       id="image10"
       x="0"
       y="0" />
  </g>
  <g
     inkscape:groupmode="layer"
     id="layer3"
     inkscape:label="speechbubbles">
    <path
       style="color:#000000;display:inline;overflow:visible;visibility:visible;fill:#ffffff;fill-opacity:1;fill-rule:nonzero;stroke:none;stroke-width:0.99999994px;marker:none;enable-background:accumulate"
       d="m 136.11403,205.96901 c 3.42925,-26.62382 5.26904,-60.59843 45.36245,-75.62622 40.0934,-15.02779 124.92093,-17.7922 213.03998,-12.51509 47.2013,2.8267 125.26957,-0.0987 161.44652,15.19077 23.63642,9.98947 35.73969,33.31133 31.26449,72.31502 -4.4752,39.00365 -25.86969,59.31682 -69.53635,68.66575 -43.66667,9.34893 -87.43701,9.03196 -125.55457,8.59783 -36.80377,-0.41917 -65.34693,-0.87465 -114.30123,-6.15834 -48.95431,-5.28369 -103.94553,-7.42879 -118.12029,-20.74391 -8.87305,-8.33494 -15.00629,-16.64272 -18.80476,-24.9286 -3.79849,-8.28588 -5.26221,-16.54986 -4.79624,-24.79721 z"
       id="path4546-6"
       inkscape:connector-curvature="0"
       sodipodi:nodetypes="csssssssssc" />
    <path
       style="color:#000000;display:inline;overflow:visible;visibility:visible;fill:#ffffff;fill-opacity:1;fill-rule:nonzero;stroke:none;stroke-width:1px;marker:none;enable-background:accumulate"
       d="m 1768.3237,153.47088 c 35.5427,-35.7225 498.6003,-57.751438 562.8361,19.47099 40.7616,49.0024 24.8125,234.3177 -27.234,269.827 -61.2533,41.79071 -403.6037,30.46494 -489.7048,7.17083 -81.9165,-22.16198 -84.9425,-98.07112 -89.0738,-171.81292 -1.6862,-30.0969 7.6335,-88.9333 43.1765,-124.6559 z"
       id="path4040-4"
       inkscape:connector-curvature="0"
       sodipodi:nodetypes="zssssz" />
    <path
       style="color:#000000;display:inline;overflow:visible;visibility:visible;fill:#ffffff;fill-opacity:1;fill-rule:nonzero;stroke:none;stroke-width:0.99999994px;marker:none;enable-background:accumulate"
       d="m 1898.3224,514.70008 c 2.9996,-27.92669 9.7623,-50.08154 46.9681,-62.36647 37.206,-12.28493 104.8552,-20.04669 190.6807,-15.21408 45.9729,2.58861 111.2959,6.35815 147.9325,18.02744 36.6367,11.6693 44.5869,36.58512 40.7265,77.49314 -3.8604,40.908 -17.3613,62.69956 -59.7396,72.842 -42.3783,10.14243 -113.6342,8.63574 -129.1451,9.66758 -40.5568,-3.24918 -118.7588,1.35913 -168.4731,-7.24059 -49.7144,-8.59972 -70.9408,-30.40745 -68.95,-93.20902 z"
       id="path4546-6-0"
       inkscape:connector-curvature="0"
       sodipodi:nodetypes="cssssscsc" />
    <path
       style="color:#000000;display:inline;overflow:visible;visibility:visible;fill:#ffffff;fill-opacity:1;fill-rule:nonzero;stroke:none;stroke-width:1px;marker:none;enable-background:accumulate"
       d="m 148.38416,1705.8866 c 3.92745,-29.2705 4.4912,-57.5293 56.43862,-74.7103 51.94744,-17.181 143.46478,-21.9375 258.41672,-17.6701 61.57446,2.2858 139.14233,5.3668 188.24313,17.2475 49.10079,11.8807 69.73454,32.5612 64.69584,75.4326 -5.03869,42.8714 -32.22966,61.6021 -88.94965,72.6138 -56.71997,11.0122 -142.969,14.3056 -163.73764,15.5293 -20.76862,1.2237 -85.18371,0.1693 -149.09282,-4.782 -63.90911,-4.9513 -107.62264,-8.4129 -126.36742,-22.777 -29.3855,-18.1907 -41.43374,-39.5791 -39.64678,-60.8838 z"
       id="path4546-6-2"
       inkscape:connector-curvature="0"
       sodipodi:nodetypes="cssssssscc" />
    <path
       style="color:#000000;display:inline;overflow:visible;visibility:visible;fill:#ffffff;fill-opacity:1;fill-rule:nonzero;stroke:none;stroke-width:1px;marker:none;enable-background:accumulate"
       d="m 521.869,1649.1001 c 16.11108,-12.2669 15.86616,-23.0299 15.86632,-28.1369 10e-5,-5.107 -4.54529,-18.6761 -3.34265,-24.7247 1.02193,-4.995 3.12956,-18.1154 7.70997,-16.7463 4.58049,1.369 41.01203,26.2432 51.36903,17.3665 10.35713,-8.8768 11.10734,-20.8369 5.69423,-31.5145 -5.41309,-10.6777 -12.30128,-24.7121 -5.30101,-32.1137 7.00027,-7.4017 18.59276,-5.447 23.97197,-2.6844 5.3792,2.7626 35.49917,23.7296 45.22292,25.6243 9.7237,1.8947 23.71407,1.7027 43.50196,-19.9526 -14.8657,10.0411 -26.23617,15.9908 -34.47171,12.561 -8.23568,-3.4298 -23.77359,-8.4777 -30.56794,-16.4657 -6.79439,-7.9881 -19.06179,-24.7851 -27.96463,-25.3584 -8.9028,-0.5734 -30.44585,-2.3321 -37.17011,6.2487 -6.72431,8.5806 -9.50599,21.5672 -1.38826,37.7993 4.40691,11.1306 5.56687,16.9279 3.01621,18.7834 -2.55071,1.8553 -15.98612,-1.694 -23.40319,-10.6812 -7.41712,-8.9873 -15.67928,-14.4795 -30.30826,-9.5821 -15.5687,3.9577 -23.51473,25.3051 -27.43064,29.9131 -2.73121,11.1832 -10.25128,59.7905 -19.09981,53.7189 z"
       id="path5058"
       inkscape:connector-curvature="0"
       sodipodi:nodetypes="cscsssssscssssccscccc" />
    <path
       style="color:#000000;display:inline;overflow:visible;visibility:visible;fill:#ffffff;fill-opacity:1;fill-rule:nonzero;stroke:none;stroke-width:0.99999994px;marker:none;enable-background:accumulate"
       d="m 617.87118,1965.2715 c 35.24403,-13.11 326.42102,-14.3109 379.9788,-10.0923 41.04942,3.2334 89.79802,3.4328 122.14502,15.0166 32.347,11.5838 44.2441,29.4422 44.4061,65.8453 0.1633,36.6866 -17.804,69.1108 -56.02,76.8197 -38.2159,7.7089 -74.6444,8.4353 -88.541,8.8636 -9.2447,0.2849 -48.18124,1.056 -74.58341,1.2458 -31.25403,0.2248 -267.44904,1.4365 -316.32599,-11.6226 -53.76814,-18.5519 -63.35678,-34.6609 -66.69076,-66.361 -3.00278,-53.5613 32.5576,-70.5119 55.63124,-79.7151 z"
       id="path4546-6-28"
       inkscape:connector-curvature="0"
       sodipodi:nodetypes="cssssssccc" />
    <path
       style="fill:#ffffff;fill-rule:evenodd;stroke:none;stroke-width:1px;stroke-linecap:butt;stroke-linejoin:miter;stroke-opacity:1"
       d="m 1323.8016,1984.7216 c 28.8356,-4.5331 58.196,-6.8902 29.1661,-39.0973 40.2304,15.9013 101.614,24.7011 127.3674,-9.3315 21.0416,32.4151 72.5215,18.1393 103.6089,9.2863 -22.7459,39.1099 18.3414,35.1498 48.6838,26.2972 -58.1387,44.4003 -27.6095,58.521 -4.7008,75.2441 -57.1366,-12.3727 -96.278,-0.2731 -77.1628,27.9538 -47.2189,-29.2045 -101.7044,-23.5745 -85.7998,4.2937 -11.7134,-13.2298 -10.4746,-40.9431 -73.6465,1.7915 19.9656,-44.5555 -6.2049,-39.8788 -48.5754,-17.9152 6.6404,-15.1762 46.1072,-38.2538 -20.3703,-35.8306 41.5231,-14.4273 55.9482,-25.3946 1.4294,-42.692 z"
       id="path4584"
       inkscape:connector-curvature="0"
       sodipodi:nodetypes="cccccccccccc" />
    <path
       style="color:#000000;display:inline;overflow:visible;visibility:visible;fill:#ffffff;fill-opacity:1;fill-rule:nonzero;stroke:none;stroke-width:1px;marker:none;enable-background:accumulate"
       d="m 1472.7384,2047.3416 c 0.2312,29.9074 3.2778,68.8487 8.7074,74.7102 -9.1366,-3.6864 -17.8817,-5.2616 -24.6773,-6.6173 -2.08,14.7875 9.0067,61.8116 14.5567,88.5609 -25.1053,-37.9041 -39.0273,-94.4 -38.8725,-117.7051 8.4834,5.8822 16.5056,8.882 21.4065,8.8433 5.497,-10.4938 -6.7061,-51.3933 -7.3939,-51.6226 z"
       id="path5066"
       inkscape:connector-curvature="0"
       sodipodi:nodetypes="cccccccc" />
    <path
       style="color:#000000;display:inline;overflow:visible;visibility:visible;fill:#ffffff;fill-opacity:1;fill-rule:nonzero;stroke:none;stroke-width:1px;marker:none;enable-background:accumulate"
       d="m 227.65602,2864.4648 c 30.35267,-25.7362 413.19457,-45.617 468.0505,10.0178 34.8095,35.3037 56.43947,152.7736 11.99292,178.3562 -52.30893,30.108 -379.90911,28.6319 -453.43749,11.8497 -69.95484,-15.9666 -62.46751,-46.595 -65.99555,-99.7221 -1.43997,-21.6833 9.0367,-74.7653 39.38962,-100.5016 z"
       id="path4040-4-0"
       inkscape:connector-curvature="0"
       sodipodi:nodetypes="zssssz" />
    <path
       style="color:#000000;display:inline;overflow:visible;visibility:visible;fill:#ffffff;fill-opacity:1;fill-rule:nonzero;stroke:none;stroke-width:0.99999994px;marker:none;enable-background:accumulate"
       d="m 241.15423,3059.0458 c 44.29668,-23.4332 402.85012,-32.3841 484.50966,10.7208 63.20487,33.3633 34.59447,226.8857 -26.85523,260.1308 -59.20244,32.0294 -360.89774,28.5226 -437.88833,6.7138 -73.24878,-20.749 -75.9546,-91.818 -79.64876,-160.8579 -1.50777,-28.1778 15.58597,-93.2743 59.88266,-116.7075 z"
       id="path4040-4-0-6"
       inkscape:connector-curvature="0"
       sodipodi:nodetypes="zssssz" />
    <path
       style="color:#000000;display:inline;overflow:visible;visibility:visible;fill:#ffffff;fill-opacity:1;fill-rule:nonzero;stroke:none;stroke-width:1px;marker:none;enable-background:accumulate"
       d="m 1735.6459,2895.4613 c 35.3116,-33.1455 486.6274,-42.5963 567.1974,14.0563 64.6627,45.4674 33.1973,221.4244 -35.0773,254.3721 -65.7774,31.7428 -400.9799,28.2674 -486.5213,6.6537 -81.3839,-20.5633 -84.3903,-90.9965 -88.4947,-159.4187 -1.6752,-27.9257 7.5839,-82.5178 42.8959,-115.6634 z"
       id="path4040-4-0-6-3"
       inkscape:connector-curvature="0"
       sodipodi:nodetypes="zssssz" />
    <path
       style="display:inline;fill:#ffffff;fill-rule:evenodd;stroke:none;stroke-width:1px;stroke-linecap:butt;stroke-linejoin:miter;stroke-opacity:1"
       d="m 1736.956,3166.2871 c 62.9816,23.6939 78.8455,18.3468 77.7644,-36.7289 30.0482,59.516 74.4997,61.3918 86.8664,32.0679 39.7816,25.2051 64.6287,18.1349 84.3556,0 7.3527,23.3227 23.1208,13.9112 36.767,12.7527 4.4946,5.2766 45.0046,16.9566 107.37,-0.5097 4.0396,6.9841 9.4816,12.9986 46.012,-2.4859 9.464,28.3478 39.8285,-1.5711 70.9356,-33.5595 -19.3806,39.327 -11.3442,44.8817 13.4203,29.8306 -11.3221,16.1952 -18.094,28.7321 24.923,1.243 -14.7267,29.893 23.9092,9.3746 86.273,-33.5594 -31.1953,31.7365 -113.9183,85.226 -59.4323,80.7912 -7.5985,9.356 -34.7016,17.5077 46.012,32.3165 -15.0681,6.3488 -61.0707,-2.9287 -22.6963,23.9523 5.1415,3.1422 -12.0707,5.061 20.7793,13.3359 -19.3918,-0.5629 -31.2842,1.4482 -13.4203,13.6724 -35.397,-0.661 -22.1529,12.1929 3.8343,28.5876 -51.2598,-21.0297 -54.0806,-13.3866 -55.5981,-4.9717 -64.2434,-28.6707 -85.682,-18.2145 -72.27,4.9096 -28.3692,-31.2227 -95.018,-14.8219 -98.3586,10.0057 -9.8988,-24.0089 -120.1327,-28.9731 -145.4715,-2.548 15.7049,-28.1589 -17.2766,-14.8988 -50.4289,-4.4746 18.1549,-31.6061 -27.9199,-22.2982 -86.273,8.452 32.6775,-34.902 -4.4364,-22.2946 -59.4324,2.4859 20.7793,-34.2877 -13.0617,-50.8697 -93.9415,-52.2036 38.7116,-12.368 61.2859,-27.9328 21.0891,-55.9324 45.3133,8.2446 33.8008,-15.1367 1.8114,-45.5538 49.425,24.9661 48.394,11.6241 29.1095,-21.8758 z"
       id="path4508"
       inkscape:connector-curvature="0"
       sodipodi:nodetypes="cccccccccccccccccccccccccccc" />
    <path
       style="color:#000000;display:inline;overflow:visible;visibility:visible;fill:#ffffff;fill-opacity:1;fill-rule:nonzero;stroke:none;stroke-width:1px;marker:none;enable-background:accumulate"
       d="m 721.14816,2944.5981 c 58.74459,-31.8831 133.6737,-22.4689 151.46532,-4.8409 -26.0629,-31.5484 -110.87474,-48.9787 -156.02352,-29.9411 -36.86673,19.522 4.5582,34.782 4.5582,34.782 z"
       id="path4480"
       inkscape:connector-curvature="0"
       sodipodi:nodetypes="cccc" />
    <path
       style="color:#000000;display:inline;overflow:visible;visibility:visible;fill:#ffffff;fill-opacity:1;fill-rule:nonzero;stroke:none;stroke-width:0.99999994px;marker:none;enable-background:accumulate"
       d="m 1721.525,3105.1967 c -45.0341,26.3761 -102.4755,18.588 -116.1149,4.0048 19.9802,26.0992 84.9979,40.5188 119.6093,24.7695 28.2623,-16.1501 -3.4944,-28.7743 -3.4944,-28.7743 z"
       id="path4480-2"
       inkscape:connector-curvature="0"
       sodipodi:nodetypes="cccc"
       inkscape:transform-center-x="-155.62645"
       inkscape:transform-center-y="34.210293" />
    <path
       style="fill:#ffffff;stroke:none;stroke-width:1"
       d="m 240.20205,385.0669 c -58.13838,-27.45721 -59.25417,-104.2317 6.40363,-135.1495 33.25786,-15.66089 31.21798,-5.00947 31.21798,-5.00947 l -6.80518,-52.3863 c 0,0 17.27652,-20.93641 -34.72953,12.43271 -52.00605,33.36911 -110.96723,129.16604 3.9131,180.11256 z"
       id="path3063"
       inkscape:connector-curvature="0"
       sodipodi:nodetypes="cscczc" />
    <path
       style="color:#000000;display:inline;overflow:visible;visibility:visible;fill:#ffffff;fill-opacity:1;fill-rule:nonzero;stroke:none;stroke-width:0.99999994px;marker:none;enable-background:accumulate"
       d="m 1452.7839,260.97042 c 32.5901,-37.14844 120.5249,-77.58678 199.7918,-73.40468 42.0311,2.21755 81.2853,18.77332 113.3871,43.73164 54.8474,16.58165 18.1095,-34.39627 18.1095,-34.39627 -9.1911,-10.4538 -45.1517,-22.91599 -79.6603,-28.40181 -77.1713,-12.26787 -186.4105,2.0063 -251.6281,92.47112 z"
       id="path3984"
       inkscape:connector-curvature="0"
       sodipodi:nodetypes="csccsc" />
    <path
       style="color:#000000;display:inline;overflow:visible;visibility:visible;fill:#ffffff;fill-opacity:1;fill-rule:nonzero;stroke:none;stroke-width:1px;marker:none;enable-background:accumulate"
       d="m 876.44075,2262.2076 c 27.46212,-10.0522 29.72719,-13.3589 28.53705,-27.8918 -1.19034,-14.5328 -9.92446,-26.5364 7.13822,-46.8557 17.0627,-20.3194 23.42581,-21.4269 33.84191,-22.8653 -10.7962,-15.1116 -24.19769,-37.3822 -37.83781,-39.5812 -13.64004,-2.1992 45.1695,-29.6441 45.1695,-29.6441 0,0 22.75583,46.3627 21.99513,70.4189 -5.53179,28.827 -31.7847,25.0277 -45.6068,37.2789 -13.82198,12.2511 -2.66123,31.1992 -11.63877,43.0536 -8.97788,11.8543 -27.71027,14.1688 -41.59843,16.0867 z"
       id="path4538"
       inkscape:connector-curvature="0"
       sodipodi:nodetypes="cccccccscc" />
    <path
       style="color:#000000;display:inline;overflow:visible;visibility:visible;fill:#ffffff;fill-opacity:1;fill-rule:nonzero;stroke:none;stroke-width:0.94894397px;marker:none;enable-background:accumulate"
       d="m 1767.1629,1057.5724 c 5.9699,-9.7115 20.2374,-19.0866 52.7108,-24.3851 32.4732,-5.2987 72.5033,-4.0664 115.7682,-2.9399 43.2647,1.1265 43.0908,0.2368 82.4414,0.2459 41.8782,0.012 73.4193,5.1689 98.4112,35.5575 24.992,30.3885 26.6215,63.5073 26.7893,101.5365 0.3381,76.612 -83.0567,134.3824 -154.8666,142.3313 -44.8839,4.9684 -124.234,18.3113 -178.8181,-7.8875 -54.5844,-26.1992 -61.1229,-58.7503 -63.8986,-138.9388 -1.1328,-32.7283 -2.4167,-66.6742 21.4624,-105.5199 z"
       id="path4040"
       inkscape:connector-curvature="0"
       sodipodi:nodetypes="sssszsssss" />
    <path
       style="color:#000000;display:inline;overflow:visible;visibility:visible;fill:#ffffff;fill-opacity:1;fill-rule:nonzero;stroke:none;stroke-width:1.0653249px;marker:none;enable-background:accumulate"
       d="m 1896.6758,1219.0726 c -41.8665,122.7323 -35.3869,185.6777 42.5567,264.4098 -47.4291,-53.5721 -48.443,-140.458 -27.8836,-196.5656 17.5953,-48.018 24.528,-47.5096 24.528,-47.5096 z"
       id="path4440"
       inkscape:connector-curvature="0"
       sodipodi:nodetypes="ccscc" />
  </g>
  <g
     inkscape:groupmode="layer"
     id="layer1"
     inkscape:label="txt">
    <text
       xml:space="preserve"
       style="font-style:normal;font-variant:normal;font-weight:normal;font-stretch:normal;line-height:0%;font-family:Lavi;-inkscape-font-specification:Lavi;text-align:center;letter-spacing:0px;word-spacing:0px;text-anchor:middle;fill:#000000;fill-opacity:1;stroke:none"
       x="366.06174"
       y="187.27153"
       id="text4246"><tspan
         sodipodi:role="line"
         style="font-size:45px;line-height:1.20000005"
         x="366.06174"
         y="187.27153"
         id="tspan78">Haha, dat is niet</tspan><tspan
         sodipodi:role="line"
         style="font-size:45px;line-height:1.20000005"
         x="366.06174"
         y="241.27153"
         id="tspan81">zo eenvoudig.</tspan></text>
    <text
       xml:space="preserve"
       style="font-style:normal;font-variant:normal;font-weight:normal;font-stretch:normal;line-height:0%;font-family:Lavi;-inkscape-font-specification:Lavi;text-align:center;letter-spacing:0px;word-spacing:0px;text-anchor:middle;fill:#000000;fill-opacity:1;stroke:none"
       x="2039.5255"
       y="195.06209"
       id="text4246-3"><tspan
         sodipodi:role="line"
         style="font-size:45px;line-height:1.20000005"
         x="2039.5255"
         y="195.06209"
         id="tspan823-7">Je zou kunnen zeggen</tspan><tspan
         sodipodi:role="line"
         style="font-size:45px;line-height:1.20000005"
         x="2039.5255"
         y="249.0621"
         id="tspan96">dat het in principe</tspan><tspan
         sodipodi:role="line"
         style="font-size:45px;line-height:1.20000005"
         x="2039.5255"
         y="303.0621"
         id="tspan84">gebaseerd is op een begrip</tspan><tspan
         sodipodi:role="line"
         style="font-size:45px;line-height:1.20000005"
         x="2039.5255"
         y="357.0621"
         id="tspan854">van de fysische wetten</tspan><tspan
         sodipodi:role="line"
         style="font-size:45px;line-height:1.20000005"
         x="2039.5255"
         y="411.0621"
         id="tspan102">van chaotische systemen…</tspan></text>
    <text
       xml:space="preserve"
       style="font-style:normal;font-variant:normal;font-weight:normal;font-stretch:normal;line-height:0%;font-family:Lavi;-inkscape-font-specification:Lavi;text-align:center;letter-spacing:0px;word-spacing:0px;text-anchor:middle;fill:#000000;fill-opacity:1;stroke:none"
       x="2113.001"
       y="514.42065"
       id="text4246-3-5"><tspan
         sodipodi:role="line"
         style="font-size:45px;line-height:1.20000005"
         x="2113.001"
         y="514.42065"
         id="tspan854-9">…van de kleinste</tspan><tspan
         sodipodi:role="line"
         style="font-size:45px;line-height:1.20000005"
         x="2113.001"
         y="568.42065"
         id="tspan900">tot de grootste.</tspan></text>
    <text
       xml:space="preserve"
       style="font-style:normal;font-variant:normal;font-weight:normal;font-stretch:normal;line-height:0%;font-family:Lavi;-inkscape-font-specification:Lavi;text-align:center;letter-spacing:0px;word-spacing:0px;text-anchor:middle;fill:#000000;fill-opacity:1;stroke:none"
       x="432.75098"
       y="1684.2605"
       id="text4246-3-5-1"><tspan
         sodipodi:role="line"
         style="font-size:45px;line-height:1.20000005"
         x="432.75098"
         y="1684.2605"
         id="tspan131">Aha. Nu is alles</tspan><tspan
         sodipodi:role="line"
         style="font-size:45px;line-height:1.20000005"
         x="432.75098"
         y="1738.2605"
         id="tspan133">opeens veel duidelijker.</tspan></text>
    <text
       xml:space="preserve"
       style="font-style:normal;font-variant:normal;font-weight:normal;font-stretch:normal;line-height:0%;font-family:Lavi;-inkscape-font-specification:Lavi;text-align:center;letter-spacing:0px;word-spacing:0px;text-anchor:middle;fill:#000000;fill-opacity:1;stroke:none"
       x="1937.2441"
       y="1103.3893"
       id="text4246-3-5-1-0"><tspan
         sodipodi:role="line"
         style="font-size:45px;line-height:1.20000005"
         x="1937.2441"
         y="1103.3893"
         id="tspan962">Boeh! Wacht,</tspan><tspan
         sodipodi:role="line"
         style="font-size:45px;line-height:1.20000005"
         x="1937.2441"
         y="1157.3893"
         id="tspan154">ik geef jullie</tspan><tspan
         sodipodi:role="line"
         style="font-size:45px;line-height:1.20000005"
         x="1937.2441"
         y="1211.3893"
         id="tspan158">een eenvoudig</tspan><tspan
         sodipodi:role="line"
         style="font-size:45px;line-height:1.20000005"
         x="1937.2441"
         y="1265.3893"
         id="tspan160">voorbeeld.</tspan></text>
    <text
       xml:space="preserve"
       style="font-style:normal;font-variant:normal;font-weight:normal;font-stretch:normal;line-height:0%;font-family:Lavi;-inkscape-font-specification:Lavi;text-align:center;letter-spacing:0px;word-spacing:0px;text-anchor:middle;fill:#000000;fill-opacity:1;stroke:none"
       x="867.66803"
       y="2019.2604"
       id="text4246-3-5-1-0-0"><tspan
         sodipodi:role="line"
         style="font-size:45px;line-height:1.20000005"
         x="867.66803"
         y="2019.2604"
         id="tspan1006">Ik gebruik even</tspan><tspan
         sodipodi:role="line"
         style="font-size:45px;line-height:1.20000005"
         x="867.66803"
         y="2073.2605"
         id="tspan167">mijn Chaosah-buikgevoel…</tspan></text>
    <text
       xml:space="preserve"
       style="font-style:normal;font-variant:normal;font-weight:normal;font-stretch:normal;line-height:0%;font-family:Lavi;-inkscape-font-specification:Lavi;text-align:center;letter-spacing:0px;word-spacing:0px;text-anchor:middle;fill:#000000;fill-opacity:1;stroke:none"
       x="1479.0964"
       y="2022.1494"
       id="text4246-3-5-1-0-0-8"><tspan
         sodipodi:role="line"
         style="font-size:45px;line-height:1.20000005"
         x="1479.0964"
         y="2022.1494"
         id="tspan1006-2">Daar!</tspan></text>
    <text
       xml:space="preserve"
       style="font-style:normal;font-variant:normal;font-weight:normal;font-stretch:normal;font-size:10.15074348px;line-height:0%;font-family:Lavi;-inkscape-font-specification:Lavi;text-align:center;letter-spacing:0px;word-spacing:0px;text-anchor:middle;opacity:0.5;fill:#000000;fill-opacity:1;stroke:none;stroke-width:1"
       x="1565.6989"
       y="1755.6455"
       id="text4246-37"
       transform="matrix(0.95687977,-0.3398346,0.04566864,1.0288442,0,0)"><tspan
         sodipodi:role="line"
         style="font-style:normal;font-variant:normal;font-weight:bold;font-stretch:normal;font-size:38.06529236px;line-height:1.20000005;font-family:Lavi;-inkscape-font-specification:'Lavi Bold';stroke-width:1"
         x="1565.6989"
         y="1755.6455"
         id="tspan4252-5">SKRR</tspan></text>
    <text
       xml:space="preserve"
       style="font-style:normal;font-variant:normal;font-weight:normal;font-stretch:normal;font-size:8.30989456px;line-height:0%;font-family:Lavi;-inkscape-font-specification:Lavi;text-align:center;letter-spacing:0px;word-spacing:0px;text-anchor:middle;opacity:0.5;fill:#000000;fill-opacity:1;stroke:none;stroke-width:0.99999994"
       x="1771.7487"
       y="1590.5714"
       id="text4246-37-9"
       transform="matrix(1.0008589,-0.17574317,-0.12562566,1.0212007,0,0)"><tspan
         sodipodi:role="line"
         style="font-style:normal;font-variant:normal;font-weight:bold;font-stretch:normal;font-size:31.16210556px;line-height:1.20000005;font-family:Lavi;-inkscape-font-specification:'Lavi Bold';stroke-width:0.99999994"
         x="1771.7487"
         y="1590.5714"
         id="tspan4252-5-2">SKRR</tspan></text>
    <text
       xml:space="preserve"
       style="font-style:normal;font-variant:normal;font-weight:normal;font-stretch:normal;line-height:0%;font-family:Lavi;-inkscape-font-specification:Lavi;text-align:center;letter-spacing:0px;word-spacing:0px;text-anchor:middle;fill:#000000;fill-opacity:1;stroke:none"
       x="461.76913"
       y="2924.1687"
       id="text4246-3-5-1-0-0-8-9"><tspan
         sodipodi:role="line"
         style="font-size:45px;line-height:1.20000005"
         x="461.76913"
         y="2924.1687"
         id="tspan1200">Ziehier een prikkertje</tspan><tspan
         sodipodi:role="line"
         style="font-size:45px;line-height:1.20000005"
         x="461.76913"
         y="2978.1687"
         id="tspan174">dat tussen twee</tspan><tspan
         sodipodi:role="line"
         style="font-size:45px;line-height:1.20000005"
         x="461.76913"
         y="3032.1687"
         id="tspan180">klinkers vastzat.</tspan></text>
    <text
       xml:space="preserve"
       style="font-style:normal;font-variant:normal;font-weight:normal;font-stretch:normal;line-height:0%;font-family:Lavi;-inkscape-font-specification:Lavi;text-align:center;letter-spacing:0px;word-spacing:0px;text-anchor:middle;fill:#000000;fill-opacity:1;stroke:none"
       x="473.62576"
       y="3127.5759"
       id="text4246-3-5-1-0-0-8-9-3"><tspan
         sodipodi:role="line"
         style="font-size:45px;line-height:1.20000005"
         x="473.62576"
         y="3127.5759"
         id="tspan1237">Door het op te rapen,</tspan><tspan
         sodipodi:role="line"
         style="font-size:45px;line-height:1.20000005"
         x="473.62576"
         y="3181.5759"
         id="tspan206">heb ik er sowieso voor</tspan><tspan
         sodipodi:role="line"
         style="font-size:45px;line-height:1.20000005"
         x="473.62576"
         y="3235.5759"
         id="tspan212">gezorgd dat iemand er</tspan><tspan
         sodipodi:role="line"
         style="font-size:45px;line-height:1.20000005"
         x="473.62576"
         y="3289.5759"
         id="tspan220">nu niet op zal stappen.</tspan></text>
    <text
       xml:space="preserve"
       style="font-style:normal;font-variant:normal;font-weight:normal;font-stretch:normal;line-height:0%;font-family:Lavi;-inkscape-font-specification:Lavi;text-align:center;letter-spacing:0px;word-spacing:0px;text-anchor:middle;fill:#000000;fill-opacity:1;stroke:none"
       x="2014.1622"
       y="2960.1514"
       id="text4246-3-5-1-0-0-8-9-3-9"><tspan
         sodipodi:role="line"
         style="font-size:45px;line-height:1.20000005"
         x="2014.1622"
         y="2960.1514"
         id="tspan241">Kleine, positieve wijzigingen</tspan><tspan
         sodipodi:role="line"
         style="font-size:45px;line-height:1.20000005"
         x="2014.1622"
         y="3014.1514"
         id="tspan235">in het chaotische systeem</tspan><tspan
         sodipodi:role="line"
         style="font-size:45px;line-height:1.20000005"
         x="2014.1622"
         y="3068.1514"
         id="tspan251">van ons bestaan kunnen</tspan><tspan
         sodipodi:role="line"
         style="font-size:45px;line-height:1.20000005"
         x="2014.1622"
         y="3122.1514"
         id="tspan255">grootse gevolgen hebben.</tspan></text>
    <text
       xml:space="preserve"
       style="font-style:normal;font-variant:normal;font-weight:normal;font-stretch:normal;font-size:11.48328495px;line-height:0%;font-family:Lavi;-inkscape-font-specification:Lavi;text-align:center;letter-spacing:0px;word-spacing:0px;text-anchor:middle;fill:#000000;fill-opacity:1;stroke:none;stroke-width:1"
       x="2022.8721"
       y="3267.3684"
       id="text4246-3-5-1-0-0-8-9-3-9-8"><tspan
         sodipodi:role="line"
         style="font-size:61.24419022px;line-height:1.20000005;stroke-width:1"
         x="2022.8721"
         y="3267.3684"
         id="tspan1289-6">Dat is Chaosah!</tspan></text>
    <text
       xml:space="preserve"
       style="font-style:normal;font-variant:normal;font-weight:normal;font-stretch:normal;font-size:66.66666412px;line-height:100%;font-family:sans-serif;-inkscape-font-specification:'sans-serif, Normal';font-variant-ligatures:normal;font-variant-caps:normal;font-variant-numeric:normal;font-feature-settings:normal;text-align:center;letter-spacing:0px;word-spacing:0px;writing-mode:lr-tb;text-anchor:middle;fill:#000000;fill-opacity:1;stroke:none;stroke-width:1px;stroke-linecap:butt;stroke-linejoin:miter;stroke-opacity:1"
       x="1578.4498"
       y="1310.1833"
       id="text76"><tspan
         sodipodi:role="line"
         id="tspan74"
         x="1578.4498"
         y="1360.8344" /></text>
  </g>
</svg>
