<?xml version="1.0" encoding="UTF-8" standalone="no"?>
<!-- Created with Inkscape (http://www.inkscape.org/) -->

<svg
   xmlns:dc="http://purl.org/dc/elements/1.1/"
   xmlns:cc="http://creativecommons.org/ns#"
   xmlns:rdf="http://www.w3.org/1999/02/22-rdf-syntax-ns#"
   xmlns:svg="http://www.w3.org/2000/svg"
   xmlns="http://www.w3.org/2000/svg"
   xmlns:xlink="http://www.w3.org/1999/xlink"
   xmlns:sodipodi="http://sodipodi.sourceforge.net/DTD/sodipodi-0.dtd"
   xmlns:inkscape="http://www.inkscape.org/namespaces/inkscape"
   id="svg2"
   version="1.1"
   inkscape:version="0.92.3 (2405546, 2018-03-11)"
   width="2481"
   height="3503"
   sodipodi:docname="E23P06.svg">
  <metadata
     id="metadata8">
    <rdf:RDF>
      <cc:Work
         rdf:about="">
        <dc:format>image/svg+xml</dc:format>
        <dc:type
           rdf:resource="http://purl.org/dc/dcmitype/StillImage" />
        <dc:title />
      </cc:Work>
    </rdf:RDF>
  </metadata>
  <defs
     id="defs6" />
  <sodipodi:namedview
     pagecolor="#ffffff"
     bordercolor="#666666"
     borderopacity="1"
     objecttolerance="10"
     gridtolerance="10"
     guidetolerance="10"
     inkscape:pageopacity="0"
     inkscape:pageshadow="2"
     inkscape:window-width="1366"
     inkscape:window-height="715"
     id="namedview4"
     showgrid="false"
     inkscape:zoom="0.24734685"
     inkscape:cx="1930.6641"
     inkscape:cy="1182.6539"
     inkscape:window-x="1592"
     inkscape:window-y="124"
     inkscape:window-maximized="1"
     inkscape:current-layer="layer1"
     inkscape:document-rotation="0"
     showguides="false" />
  <g
     inkscape:groupmode="layer"
     id="layer2"
     inkscape:label="artwork"
     sodipodi:insensitive="true"
     style="display:inline">
    <image
       sodipodi:absref="G:\Aslan's Works &amp; Design Projects\2. Personal Projects\3. Translation Projects\1. Pepper &amp; Carrot Translation Project\Episode 23\lang\fa\../gfx_Pepper-and-Carrot_by-David-Revoy_E23P06.png"
       xlink:href="../gfx_Pepper-and-Carrot_by-David-Revoy_E23P06.png"
       width="2481"
       height="3503"
       id="image10"
       x="0"
       y="0" />
  </g>
  <g
     inkscape:groupmode="layer"
     id="layer3"
     inkscape:label="speechbubbles"
     style="display:inline">
    <path
       style="fill:#ffffff;fill-rule:evenodd;stroke:none;stroke-width:0.99999994px;stroke-linecap:butt;stroke-linejoin:miter;stroke-opacity:1"
       d="m 125.37445,2081.3114 c 6.50621,-58.4563 40.66382,-95.1613 74.82146,-99.2397 34.15761,-4.0783 367.60105,0 400.13211,9.5161 32.53109,9.5161 79.70113,48.9401 78.07457,78.848 -1.62656,29.9078 4.51925,74.9097 -45.54349,110.1152 -35.58647,25.0253 -240.7299,19.0323 -274.88753,19.0323 -34.15762,0 -128.29019,13.2272 -182.17398,-20.3917 -54.38102,-33.9291 -50.42314,-97.8802 -50.42314,-97.8802 z"
       id="path4272"
       inkscape:connector-curvature="0"
       sodipodi:nodetypes="cssssssc" />
    <path
       style="fill:#ffffff;fill-rule:evenodd;stroke:none;stroke-width:1px;stroke-linecap:butt;stroke-linejoin:miter;stroke-opacity:1"
       d="m 1347.7006,2089.9481 c -5.1458,62.4102 -44.3507,98.9803 -75.7458,103.8615 -31.3949,4.8811 -346.78649,8.8341 -376.88035,-0.8007 -30.09375,-9.6346 -90.66383,-52.4632 -89.59854,-84.3674 1.06539,-31.9042 1.65656,-78.2317 47.24763,-116.5397 32.40786,-27.2308 231.06256,-24.0495 262.51636,-24.5836 31.4541,-0.5339 137.2686,-0.6654 187.3736,34.3268 50.5673,35.3148 45.0871,88.1031 45.0871,88.1031 z"
       id="path4272-6"
       inkscape:connector-curvature="0"
       sodipodi:nodetypes="cssssssc" />
    <path
       style="fill:#ffffff;fill-rule:evenodd;stroke:none;stroke-width:1px;stroke-linecap:butt;stroke-linejoin:miter;stroke-opacity:1"
       d="m 1174.8502,2374.625 c 53.2945,-58.4181 71.3886,-137.4736 64.8491,-196.709 -6.4438,-58.3689 -35.667,-20.5356 -35.667,-20.5356 0,0 -7.6853,2.1941 0,30.2629 7.8496,28.6688 31.1185,75.2067 -29.1821,186.9817 z"
       id="path4289"
       inkscape:connector-curvature="0"
       sodipodi:nodetypes="cscsc" />
    <path
       style="fill:#ffffff;fill-rule:evenodd;stroke:none;stroke-width:0.95183671px;stroke-linecap:butt;stroke-linejoin:miter;stroke-opacity:1"
       d="m 1858.5859,2035.12 c 19.7682,-35.4245 57.0467,-58.9166 96.6257,-69.5015 39.5747,-11.0752 81.3344,-11.9139 122.162,-9.1723 61.8588,-2.1936 125.4332,-7.4303 185.6419,9.8305 26.6497,7.9842 52.6958,20.428 72.5157,39.6232 26.4517,30.0872 36.2679,73.0526 25.974,111.1275 -6.5196,24.8542 -26.074,46.7741 -52.1169,53.8367 -50.2811,13.0852 -102.26,19.2931 -154.2641,20.9878 -45.4202,1.5207 -90.9071,1.0481 -136.3252,0.076 -40.2851,-2.9921 -82.3454,-7.4152 -117.746,-27.6892 -22.7569,-12.8014 -39.2536,-35.2941 -43.2452,-60.4593 -5.3917,-22.5252 -4.7778,-46.2228 0.7781,-68.6597 z"
       id="path4291"
       inkscape:connector-curvature="0" />
    <path
       style="fill:#ffffff;fill-rule:evenodd;stroke:none;stroke-width:1px;stroke-linecap:butt;stroke-linejoin:miter;stroke-opacity:1"
       d="m 2064.9587,2367.1575 c 85.5504,-62.8829 112.322,-138.9575 103.3436,-179.057 -8.9784,-40.0995 -31.8164,-49.0097 -31.7823,-17.5409 0.034,31.4688 34.0662,86.4163 -71.5613,196.5979 z"
       id="path4293"
       inkscape:connector-curvature="0" />
  </g>
  <g
     inkscape:groupmode="layer"
     id="layer1"
     inkscape:label="txt"
     style="display:inline">
    <text
       xml:space="preserve"
       style="font-style:normal;font-variant:normal;font-weight:normal;font-stretch:normal;line-height:0%;font-family:Midan;-inkscape-font-specification:Midan;text-align:center;letter-spacing:0px;word-spacing:0px;text-anchor:middle;fill:#000000;fill-opacity:1;stroke:#000000;stroke-width:0.41015574;stroke-miterlimit:4;stroke-dasharray:none;stroke-opacity:1"
       x="1953.8499"
       y="1522.0504"
       id="text4246-8"
       transform="matrix(0.76133526,-0.51280204,0.4098681,1.0374126,0,0)"><tspan
         sodipodi:role="line"
         style="font-style:normal;font-variant:normal;font-weight:normal;font-stretch:normal;font-size:60px;line-height:100%;font-family:'XP Vosta';-inkscape-font-specification:'XP Vosta';fill:#000000;stroke:#000000;stroke-width:0.41015574;stroke-miterlimit:4;stroke-dasharray:none;stroke-opacity:1;direction:rtl"
         x="1953.8499"
         y="1522.0504"
         id="tspan4150-8">جیک!</tspan></text>
    <text
       xml:space="preserve"
       style="font-style:normal;font-variant:normal;font-weight:normal;font-stretch:normal;line-height:0%;font-family:Midan;-inkscape-font-specification:Midan;text-align:center;letter-spacing:0px;word-spacing:0px;text-anchor:middle;fill:#000000;fill-opacity:1;stroke:none"
       x="407.28793"
       y="2067.5989"
       id="text4246"><tspan
         sodipodi:role="line"
         style="font-style:normal;font-variant:normal;font-weight:normal;font-stretch:normal;font-size:74.66666667px;line-height:100%;font-family:Midan;-inkscape-font-specification:Midan;direction:rtl"
         x="413.64536"
         y="2067.5989"
         id="tspan4200">می دونی هویج، به نظرم </tspan><tspan
         sodipodi:role="line"
         style="font-style:normal;font-variant:normal;font-weight:normal;font-stretch:normal;font-size:74.66666667px;line-height:100%;font-family:Midan;-inkscape-font-specification:Midan;direction:rtl"
         x="407.28793"
         y="2137.5989"
         id="tspan4202">همین یعنی بزرگ شدن.</tspan></text>
    <text
       xml:space="preserve"
       style="font-style:normal;font-variant:normal;font-weight:normal;font-stretch:normal;line-height:0%;font-family:Midan;-inkscape-font-specification:Midan;text-align:center;letter-spacing:0px;word-spacing:0px;text-anchor:middle;fill:#000000;fill-opacity:1;stroke:none"
       x="1083.3129"
       y="2037.9417"
       id="text4246-2"><tspan
         sodipodi:role="line"
         style="font-style:normal;font-variant:normal;font-weight:normal;font-stretch:normal;font-size:53.33333333px;line-height:100%;font-family:Midan;-inkscape-font-specification:Midan;direction:rtl"
         x="1083.3129"
         y="2037.9417"
         id="tspan54">برای بدست آوردن چیزایی که</tspan><tspan
         sodipodi:role="line"
         style="font-style:normal;font-variant:normal;font-weight:normal;font-stretch:normal;font-size:53.33333333px;line-height:100%;font-family:Midan;-inkscape-font-specification:Midan;direction:rtl"
         x="1083.3129"
         y="2090.4417"
         id="tspan4215">میخوای تلاش خیلی زیادی بکنی و</tspan><tspan
         sodipodi:role="line"
         style="font-style:normal;font-variant:normal;font-weight:normal;font-stretch:normal;font-size:53.33333333px;line-height:100%;font-family:Midan;-inkscape-font-specification:Midan;direction:rtl"
         x="1083.3129"
         y="2142.9417"
         id="tspan4217">ارزش این تلاش رو هم بفهمی.</tspan></text>
    <text
       xml:space="preserve"
       style="font-style:normal;font-variant:normal;font-weight:normal;font-stretch:normal;line-height:0%;font-family:Midan;-inkscape-font-specification:Midan;text-align:center;letter-spacing:0px;word-spacing:0px;text-anchor:middle;fill:#000000;fill-opacity:1;stroke:none"
       x="2112.6797"
       y="2044.2068"
       id="text4246-2-7"><tspan
         sodipodi:role="line"
         style="font-style:normal;font-variant:normal;font-weight:normal;font-stretch:normal;font-size:74.66666412px;line-height:100%;font-family:Midan;-inkscape-font-specification:Midan;direction:rtl"
         x="2112.6797"
         y="2044.2068"
         id="tspan67">حسادت به موفقیت </tspan><tspan
         sodipodi:role="line"
         style="font-style:normal;font-variant:normal;font-weight:normal;font-stretch:normal;font-size:74.66666412px;line-height:100%;font-family:Midan;-inkscape-font-specification:Midan;direction:rtl"
         x="2112.6797"
         y="2118.8735"
         id="tspan4232">بقیه هیچ ارزشی ندارہ.</tspan></text>
    <text
       xml:space="preserve"
       style="font-style:normal;font-variant:normal;font-weight:normal;font-stretch:normal;line-height:0%;font-family:Midan;-inkscape-font-specification:Midan;text-align:center;letter-spacing:0px;word-spacing:0px;text-anchor:middle;display:inline;fill:#000000;fill-opacity:1;stroke:#000000;stroke-width:0.41015574;stroke-miterlimit:4;stroke-dasharray:none;stroke-opacity:1"
       x="1883.8336"
       y="1632.3098"
       id="text4246-8-3"
       transform="matrix(0.76133526,-0.51280204,0.4098681,1.0374126,0,0)"><tspan
         sodipodi:role="line"
         style="font-style:normal;font-variant:normal;font-weight:normal;font-stretch:normal;font-size:40px;line-height:100%;font-family:'XP Vosta';-inkscape-font-specification:'XP Vosta';fill:#000000;stroke:#000000;stroke-width:0.41015574;stroke-miterlimit:4;stroke-dasharray:none;stroke-opacity:1;direction:rtl"
         x="1883.8336"
         y="1632.3098"
         id="tspan4150-8-6">جیک!</tspan></text>
    <text
       xml:space="preserve"
       style="font-style:normal;font-variant:normal;font-weight:normal;font-stretch:normal;line-height:0%;font-family:Midan;-inkscape-font-specification:Midan;text-align:center;letter-spacing:0px;word-spacing:0px;text-anchor:middle;display:inline;fill:#000000;fill-opacity:1;stroke:#000000;stroke-width:0.41015574;stroke-miterlimit:4;stroke-dasharray:none;stroke-opacity:1"
       x="1965.265"
       y="1592.6476"
       id="text4246-8-38"
       transform="matrix(0.76133526,-0.51280204,0.4098681,1.0374126,0,0)"><tspan
         sodipodi:role="line"
         style="font-style:normal;font-variant:normal;font-weight:normal;font-stretch:normal;font-size:45px;line-height:100%;font-family:'XP Vosta';-inkscape-font-specification:'XP Vosta';fill:#000000;stroke:#000000;stroke-width:0.41015574;stroke-miterlimit:4;stroke-dasharray:none;stroke-opacity:1;direction:rtl"
         x="1965.265"
         y="1592.6476"
         id="tspan4150-8-0">جیک!</tspan></text>
    <text
       xml:space="preserve"
       style="font-style:normal;font-variant:normal;font-weight:normal;font-stretch:normal;line-height:0%;font-family:Midan;-inkscape-font-specification:Midan;text-align:center;letter-spacing:0px;word-spacing:0px;text-anchor:middle;display:inline;fill:#000000;fill-opacity:1;stroke:#000000;stroke-width:0.41015574;stroke-miterlimit:4;stroke-dasharray:none;stroke-opacity:1"
       x="1856.5396"
       y="1560.9491"
       id="text4246-8-5"
       transform="matrix(0.76133526,-0.51280204,0.4098681,1.0374126,0,0)"><tspan
         sodipodi:role="line"
         style="font-style:normal;font-variant:normal;font-weight:normal;font-stretch:normal;font-size:50px;line-height:100%;font-family:'XP Vosta';-inkscape-font-specification:'XP Vosta';fill:#000000;stroke:#000000;stroke-width:0.41015574;stroke-miterlimit:4;stroke-dasharray:none;stroke-opacity:1;direction:rtl"
         x="1856.5396"
         y="1560.9491"
         id="tspan4150-8-09">جیک!</tspan></text>
    <flowRoot
       xml:space="preserve"
       id="flowRoot4219"
       style="font-style:normal;font-variant:normal;font-weight:normal;font-stretch:normal;line-height:0.01%;font-family:midan;-inkscape-font-specification:'midan, Normal';text-align:center;letter-spacing:0px;word-spacing:0px;writing-mode:lr-tb;text-anchor:middle;fill:#000000;fill-opacity:1;stroke:none;stroke-width:1px;stroke-linecap:butt;stroke-linejoin:miter;stroke-opacity:1"><flowRegion
         id="flowRegion4221"><rect
           id="rect4223"
           width="408.80356"
           height="105.77435"
           x="841.90662"
           y="2032.1648" /></flowRegion><flowPara
         id="flowPara4225"
         style="font-size:45px;line-height:1"> </flowPara></flowRoot>  </g>
</svg>
