<?xml version="1.0" encoding="UTF-8" standalone="no"?>
<svg
   id="svg2"
   version="1.1"
   inkscape:version="1.1 (1:1.1+202105261517+ce6663b3b7)"
   width="2481"
   height="3503"
   sodipodi:docname="E35P07.svg"
   xmlns:inkscape="http://www.inkscape.org/namespaces/inkscape"
   xmlns:sodipodi="http://sodipodi.sourceforge.net/DTD/sodipodi-0.dtd"
   xmlns:xlink="http://www.w3.org/1999/xlink"
   xmlns="http://www.w3.org/2000/svg"
   xmlns:svg="http://www.w3.org/2000/svg"
   xmlns:rdf="http://www.w3.org/1999/02/22-rdf-syntax-ns#"
   xmlns:cc="http://creativecommons.org/ns#"
   xmlns:dc="http://purl.org/dc/elements/1.1/">
  <metadata
     id="metadata8">
    <rdf:RDF>
      <cc:Work
         rdf:about="">
        <dc:format>image/svg+xml</dc:format>
        <dc:type
           rdf:resource="http://purl.org/dc/dcmitype/StillImage" />
        <dc:title />
      </cc:Work>
    </rdf:RDF>
  </metadata>
  <defs
     id="defs6">
    <filter
       style="color-interpolation-filters:sRGB"
       id="filter4375-4-1-1-1-9-5-8-8-5-5-3-8"
       inkscape:label="soundFX1"
       x="-0.070195139"
       y="-0.0022487338"
       width="1.073956"
       height="1.0421748">
      <feFlood
         id="feFlood4377-7-9-0-8-1-7-3-1-2-7-6-7"
         flood-opacity="1"
         flood-color="rgb(255,255,255)"
         result="flood" />
      <feComposite
         id="feComposite4379-3-8-8-2-77-4-1-0-6-4-7-9"
         in2="SourceGraphic"
         in="flood"
         operator="in"
         result="composite1"
         baseFrequency="0.053999999999999999 0.053999999999999999" />
      <feMorphology
         id="feMorphology4393-1-0-49-8-9-3-0-1-9-9-5-2"
         operator="dilate"
         radius="2.9756367599225957"
         result="result3" />
      <feComposite
         id="feComposite4385-9-5-7-0-8-8-7-5-4-9-3-0"
         in2="result3"
         in="SourceGraphic"
         operator="over"
         result="fbSourceGraphic" />
      <feColorMatrix
         result="fbSourceGraphicAlpha"
         in="fbSourceGraphic"
         values="0 0 0 -1 0 0 0 0 -1 0 0 0 0 -1 0 0 0 0 1 0"
         id="feColorMatrix4544-9-4-4-5-2" />
      <feTurbulence
         id="feTurbulence4546-3-6-5-6-3"
         type="fractalNoise"
         numOctaves="5"
         seed="174"
         baseFrequency="0.053999999999999999 0.054054054054054057"
         result="turbulence" />
      <feDisplacementMap
         id="feDisplacementMap4548-8-0-9-2-7"
         in2="turbulence"
         in="fbSourceGraphic"
         scale="6.6"
         yChannelSelector="G"
         xChannelSelector="R"
         result="fbSourceGraphic" />
      <feColorMatrix
         result="fbSourceGraphicAlpha"
         in="fbSourceGraphic"
         values="0 0 0 -1 0 0 0 0 -1 0 0 0 0 -1 0 0 0 0 1 0"
         id="feColorMatrix4670-7-7-3-9-5" />
      <feFlood
         id="feFlood4672-4-4-5-1-9"
         flood-opacity="1"
         flood-color="rgb(255,255,255)"
         result="flood"
         in="fbSourceGraphic" />
      <feComposite
         id="feComposite4674-8-3-7-2-22"
         in2="fbSourceGraphic"
         in="flood"
         operator="in"
         result="composite1" />
      <feGaussianBlur
         id="feGaussianBlur4676-3-7-08-7-8"
         in="composite1"
         stdDeviation="0"
         result="blur" />
      <feOffset
         id="feOffset4678-6-9-1-0-9"
         dx="-6.3258232761971414"
         dy="6"
         result="offset" />
      <feComposite
         id="feComposite4680-4-0-9-9-7"
         in2="offset"
         in="fbSourceGraphic"
         operator="over"
         result="composite2" />
    </filter>
  </defs>
  <sodipodi:namedview
     pagecolor="#ffffff"
     bordercolor="#666666"
     borderopacity="1"
     objecttolerance="10"
     gridtolerance="10"
     guidetolerance="10"
     inkscape:pageopacity="0"
     inkscape:pageshadow="2"
     inkscape:window-width="1276"
     inkscape:window-height="756"
     id="namedview4"
     showgrid="false"
     inkscape:zoom="0.30299981"
     inkscape:cx="1962.0474"
     inkscape:cy="2141.9155"
     inkscape:window-x="18"
     inkscape:window-y="182"
     inkscape:window-maximized="0"
     inkscape:current-layer="layer1"
     inkscape:document-rotation="0"
     inkscape:snap-global="false"
     inkscape:pagecheckerboard="0" />
  <g
     inkscape:groupmode="layer"
     id="layer2"
     inkscape:label="artwork"
     sodipodi:insensitive="true">
    <image
       xlink:href="../gfx_Pepper-and-Carrot_by-David-Revoy_E35P07.png"
       width="2481"
       height="3503"
       id="image10"
       x="0"
       y="0" />
  </g>
  <g
     inkscape:groupmode="layer"
     id="layer3"
     inkscape:label="speechbubbles">
    <path
       style="fill:#ffffff;stroke:none;stroke-width:1.04404"
       d="M 1995.7988 260.05078 C 1964.8346 260.68883 1933.4501 271.39102 1910.6133 292.73828 C 1888.6705 313.52792 1875.0946 341.75982 1867.9607 370.82996 C 1863.1314 390.04456 1860.5327 410.65588 1866.2429 429.98279 C 1873.1158 452.45457 1890.1535 470.66452 1910.1292 482.41553 C 1939.7119 500.17313 1974.8788 506.73328 2009.0641 505.6364 C 2044.8756 504.7705 2080.9843 501.72957 2115.5211 491.72609 C 2133.2854 485.94833 2150.5115 475.62925 2160.4501 459.36364 C 2169.7522 444.241 2172.0749 425.91436 2170.8756 408.47888 C 2169.8345 379.11925 2161.0415 350.15566 2145.8673 325.01991 C 2134.923 306.49222 2121.3087 288.66745 2102.579 277.46552 C 2086.4303 267.59598 2067.3769 264.4517 2048.8552 262.48287 C 2031.2503 260.46136 2013.5062 260.00006 1995.7988 260.05078 z "
       id="path3280-8"
       inkscape:connector-curvature="0"
       sodipodi:nodetypes="csssc" />
    <path
       style="fill:#ffffff;fill-rule:evenodd;stroke:none;stroke-width:0.934796px;stroke-linecap:butt;stroke-linejoin:miter;stroke-opacity:1"
       d="m 1937.2471,432.07438 c -6.2176,11.12141 -85.6078,33.31577 -108.1931,83.17757 30.1276,-36.25015 118.0705,-48.01797 132.9745,-62.07815 51.3058,-16.19189 -3.5494,-23.72277 -24.7814,-21.09942 z"
       id="path4186"
       inkscape:connector-curvature="0"
       sodipodi:nodetypes="cccc" />
    <path
       style="fill:#ffffff;fill-rule:evenodd;stroke:none;stroke-width:1px;stroke-linecap:butt;stroke-linejoin:miter;stroke-opacity:1"
       d="m 1557.7613,1692.8906 134.1326,-31.6108 -24.0947,-23.8017 91.2177,-24.1969 -16.3502,-24.7111 -106.501,38.013 26.5589,28.0558 z"
       id="path4667"
       inkscape:connector-curvature="0" />
    <path
       style="color:#000000;fill:#ffffff;fill-opacity:1;fill-rule:nonzero;stroke:none;stroke-width:1.12843001px;marker:none;visibility:visible;display:inline;overflow:visible;enable-background:accumulate"
       d="m 421.48523,3180.6153 c -6.22714,14.269 -44.78675,7.8887 -57.71617,4.6402 26.0627,16.7727 25.15407,26.7746 -10.23172,27.4624 57.35043,25.6128 14.42274,26.0479 -3.76415,22.1681 29.40512,13.5739 31.15096,25.9726 1.24296,32.2202 53.55633,1.7402 40.59113,11.6567 20.31476,25.8871 23.71253,-9.0607 60.29149,-15.097 61.58935,10.145 34.35758,-21.1804 52.08442,-20.3165 64.50872,4.8917 10.3782,-21.2199 45.71648,-24.4858 59.22909,-0.9952 11.64026,-31.0573 53.17401,-25.6258 77.89755,-9.8292 -13.87864,-11.0609 -4.41468,-28.4811 42.90256,-23.7506 -3.80859,-9.9207 2.18081,-22.1773 26.07549,-19.9534 -27.52371,-6.6109 -32.59618,-12.8588 18.5091,-18.1944 -38.88813,-1.5906 -75.15162,-3.7863 -29.52737,-25.1384 -14.31356,-0.8949 -50.47623,23.4811 -34.64255,-31.0036 -41.92138,15.1522 -83.77039,15.8845 -81.60309,-18.0499 -15.58522,18.0015 -42.61745,26.4352 -54.37788,3.1843 -9.70822,21.212 -39.19578,11.5067 -54.51405,-3.5096 -10.12155,14.2808 -16.77716,40.3643 -45.8926,19.8253 z"
       id="path3549-3-7-8"
       inkscape:connector-curvature="0"
       sodipodi:nodetypes="ccccccccccccccccccc" />
    <path
       style="color:#000000;fill:#ffffff;fill-opacity:1;fill-rule:nonzero;stroke:none;stroke-width:1.09607005px;marker:none;visibility:visible;display:inline;overflow:visible;enable-background:accumulate"
       d="m 397.38332,2975.4078 c 48.69118,39.5643 -49.02702,25.8033 -67.77048,20.3484 48.98939,13.9247 38.00566,37.127 -12.77498,44.4056 87.67376,38.1056 18.91227,50.7954 1.60255,51.3527 58.17689,16.0556 45.43804,28.361 35.08052,48.2524 113.75355,-22.7539 34.40766,39.1472 34.51382,65.6393 5.66884,-11.9162 92.74832,-124.1226 34.22036,-7.8011 44.22967,-38.5377 97.50315,-63.4309 101.73322,4.01 17.82087,-33.9278 35.58822,-48.2668 34.22034,-7.8011 44.15453,-52.6309 108.19662,-38.7674 148.11071,-23.892 -51.82394,-39.9639 -20.24105,-36.9872 37.33433,-25.8675 -66.98771,-27.4046 -61.29984,-39.9172 16.48004,-36.6173 -34.36518,-9.5112 -40.69859,-19.3218 23.10985,-29.8795 -49.03677,-1.7213 -102.89394,-16.2701 -36.86689,-39.1182 -24.86759,2.0044 -117.83564,-2.7768 -40.50397,-58.7502 -60.69319,21.0637 -123.17256,29.5795 -104.63643,-15.2788 -51.73798,27.2431 -57.16342,43.7606 -67.8943,7.2391 -18.29926,31.6956 -42.06692,12.0637 -68.06436,-3.4809 18.91749,24.7818 -23.33832,39.3935 -67.89433,7.2391 z"
       id="path3549-3-7"
       inkscape:connector-curvature="0"
       sodipodi:nodetypes="ccccccccccccccccccc" />
    <path
       style="fill:#ffffff;fill-rule:evenodd;stroke:none;stroke-width:1.61403px;stroke-linecap:butt;stroke-linejoin:miter;stroke-opacity:1"
       d="m 559.65143,2966.4499 c 7.81388,-49.8207 8.23157,-62.9667 6.02019,-75.0728 -2.2114,-12.106 -16.03862,-8.1385 -26.02653,-3.643 -6.53887,2.9161 -28.34548,24.9309 -13.34891,-11.2886 14.99673,-36.2194 33.04009,-86.6247 37.65555,-102.5126 -15.5946,27.8024 -42.45502,71.0937 -50.25242,84.9947 -7.79723,13.9012 -19.54665,39.459 -22.39666,47.151 -3.46707,9.3577 -1.1372,19.0591 14.63013,17.8664 24.66487,-3.6362 41.86312,-37.8298 13.23772,21.5203 -28.62567,59.3501 4.95095,150.5651 4.95095,150.5651 z"
       id="path1089"
       inkscape:connector-curvature="0"
       sodipodi:nodetypes="csccccscccc" />
    <path
       style="color:#000000;fill:#ffffff;fill-opacity:1;fill-rule:nonzero;stroke:none;stroke-width:1.16869998px;marker:none;visibility:visible;display:inline;overflow:visible;enable-background:accumulate"
       d="m 1747.357,1475.4618 c -2.0762,39.3562 -41.4148,13.8841 -60.0956,3.8653 22.2655,22.1753 39.1671,51.777 -9.8993,49.9172 55.0994,39.3017 18.2641,37.3789 9.383,47.3439 43.2632,13.5445 30.8296,30.8892 3.0602,40.3253 49.7267,0.5764 37.6886,14.4096 18.8621,34.3158 22.0171,-13.0326 55.9804,-22.4042 57.1855,11.6703 31.9008,-29.767 48.3601,-29.1872 59.896,4.4729 9.6361,-29.0252 42.4475,-34.6113 54.9939,-3.3088 10.808,-42.3636 49.3719,-36.3993 72.3275,-15.8681 -12.8862,-14.49 -4.0989,-38.3493 39.835,-33.5242 -3.5363,-13.2829 2.0248,-30.0478 24.2109,-27.834 -25.5557,-8.0229 -30.2654,-16.2995 17.1856,-25.2057 -36.1074,-0.8606 -69.778,-2.626 -27.4161,-32.9988 -13.29,-0.7349 -44.8223,24.609 -30.1207,-49.5587 -38.9238,21.8696 -79.8251,33.0497 -77.8128,-12.8888 -14.4708,24.8479 -39.5701,37.1432 -50.4896,6.1069 -9.0141,28.9924 -36.3932,16.8521 -50.6161,-2.9362 -9.3977,19.6377 -23.4559,32.9013 -50.4895,6.1057 z"
       id="path3549-3-7-8-6"
       inkscape:connector-curvature="0"
       sodipodi:nodetypes="ccccccccccccccccccc" />
  </g>
  <g
     inkscape:groupmode="layer"
     id="layer1"
     inkscape:label="txt">
    <text
       xml:space="preserve"
       style="font-style:normal;font-variant:normal;font-weight:normal;font-stretch:normal;line-height:0%;font-family:ComicSpice;-inkscape-font-specification:ComicSpice;text-align:center;letter-spacing:0px;word-spacing:0px;text-anchor:middle;fill:#000000;fill-opacity:1;stroke:none"
       x="2020.3785"
       y="336.14099"
       id="text4246-3-2-2"><tspan
         style="font-style:normal;font-variant:normal;font-weight:normal;font-stretch:normal;font-size:45px;line-height:1.25;font-family:ComicSpice;-inkscape-font-specification:ComicSpice"
         sodipodi:role="line"
         x="2020.3785"
         y="336.14099"
         id="tspan873">Tuyệt vời! </tspan><tspan
         style="font-style:normal;font-variant:normal;font-weight:normal;font-stretch:normal;font-size:45px;line-height:1.25;font-family:ComicSpice;-inkscape-font-specification:ComicSpice"
         sodipodi:role="line"
         x="2020.3785"
         y="392.39099"
         id="tspan886">Họ vẫn đi theo</tspan><tspan
         style="font-style:normal;font-variant:normal;font-weight:normal;font-stretch:normal;font-size:45px;line-height:1.25;font-family:ComicSpice;-inkscape-font-specification:ComicSpice"
         sodipodi:role="line"
         x="2020.3785"
         y="448.64099"
         id="tspan7219">chúng tôi!</tspan></text>
    <text
       xml:space="preserve"
       style="font-style:normal;font-variant:normal;font-weight:normal;font-stretch:normal;line-height:0%;font-family:ComicSpice;-inkscape-font-specification:ComicSpice;text-align:center;letter-spacing:0px;word-spacing:0px;text-anchor:middle;fill:#000000;fill-opacity:1;stroke:none"
       x="1847.5864"
       y="1553.5004"
       id="text4246-3-2-2-3"><tspan
         style="font-style:normal;font-variant:normal;font-weight:normal;font-stretch:normal;font-size:45px;line-height:1.25;font-family:ComicSpice;-inkscape-font-specification:ComicSpice"
         sodipodi:role="line"
         x="1847.5864"
         y="1553.5004"
         id="tspan922">Chúng tôi sắp</tspan><tspan
         style="font-style:normal;font-variant:normal;font-weight:normal;font-stretch:normal;font-size:45px;line-height:1.25;font-family:ComicSpice;-inkscape-font-specification:ComicSpice"
         sodipodi:role="line"
         x="1847.5864"
         y="1609.7504"
         id="tspan7223">thoát họ.</tspan></text>
    <text
       xml:space="preserve"
       style="font-style:normal;font-variant:normal;font-weight:bold;font-stretch:normal;line-height:0%;font-family:ComicSpice;-inkscape-font-specification:'ComicSpice Bold';text-align:center;letter-spacing:0px;word-spacing:0px;text-anchor:middle;fill:#000000;fill-opacity:1;stroke:none"
       x="531.13611"
       y="3067.8477"
       id="text4246-3-2-2-3-3"><tspan
         style="font-style:normal;font-variant:normal;font-weight:bold;font-stretch:normal;font-size:50.2786px;line-height:1.25;font-family:ComicSpice;-inkscape-font-specification:'ComicSpice Bold'"
         sodipodi:role="line"
         x="531.13611"
         y="3067.8477"
         id="tspan896">Tôi không thể chờ</tspan><tspan
         style="font-style:normal;font-variant:normal;font-weight:bold;font-stretch:normal;font-size:50.2786px;line-height:1.25;font-family:ComicSpice;-inkscape-font-specification:'ComicSpice Bold'"
         sodipodi:role="line"
         x="531.13611"
         y="3130.6958"
         id="tspan7227">đợi coi kết qủa!</tspan></text>
    <text
       xml:space="preserve"
       style="font-style:normal;font-variant:normal;font-weight:bold;font-stretch:normal;line-height:0%;font-family:ComicSpice;-inkscape-font-specification:'ComicSpice Bold';text-align:center;letter-spacing:0px;word-spacing:0px;text-anchor:middle;fill:#000000;fill-opacity:1;stroke:none"
       x="517.26379"
       y="3258.7009"
       id="text4246-3-2-2-3-3-3"><tspan
         style="font-style:normal;font-variant:normal;font-weight:bold;font-stretch:normal;font-size:57.3248px;line-height:1.25;font-family:ComicSpice;-inkscape-font-specification:'ComicSpice Bold'"
         sodipodi:role="line"
         x="517.26379"
         y="3258.7009"
         id="tspan1015">Ha ha ha ha!</tspan></text>
    <text
       xml:space="preserve"
       style="font-style:normal;font-variant:normal;font-weight:normal;font-stretch:normal;line-height:0%;font-family:ComicSpice;-inkscape-font-specification:ComicSpice;letter-spacing:0px;word-spacing:0px;fill:#000000;fill-opacity:1;stroke:#030303;stroke-width:0.716208;stroke-miterlimit:4;stroke-dasharray:none;stroke-opacity:1;filter:url(#filter4375-4-1-1-1-9-5-8-8-5-5-3-8)"
       x="787.65729"
       y="1584.5073"
       id="text4580-6-0-0-0-9-3-36"
       transform="matrix(1.0545214,-0.26714456,-0.41513081,1.2309466,1890.7199,857.1408)"><tspan
         style="font-style:normal;font-variant:normal;font-weight:normal;font-stretch:normal;font-size:195.17px;line-height:1.25;font-family:ComicSpice;-inkscape-font-specification:ComicSpice;fill:#000000;fill-opacity:1;stroke:#030303;stroke-width:0.716208;stroke-miterlimit:4;stroke-dasharray:none;stroke-opacity:1"
         sodipodi:role="line"
         id="tspan876-6-1"
         x="787.65729"
         y="1584.5073">!<tspan
   style="font-style:normal;font-variant:normal;font-weight:normal;font-stretch:normal;font-size:173.821px;font-family:ComicSpice;-inkscape-font-specification:ComicSpice;fill:#000000;stroke:#030303;stroke-opacity:1"
   id="tspan1317">!</tspan><tspan
   id="tspan1322"
   style="font-style:normal;font-variant:normal;font-weight:normal;font-stretch:normal;font-size:152.472px;font-family:ComicSpice;-inkscape-font-specification:ComicSpice;fill:#000000;stroke:#030303;stroke-opacity:1">!</tspan></tspan></text>
  </g>
</svg>
