<?xml version="1.0" encoding="UTF-8" standalone="no"?>
<svg
   id="svg2"
   version="1.1"
   inkscape:version="1.1 (1:1.1+202105261517+ce6663b3b7)"
   width="2481"
   height="3503"
   sodipodi:docname="E35P11.svg"
   xmlns:inkscape="http://www.inkscape.org/namespaces/inkscape"
   xmlns:sodipodi="http://sodipodi.sourceforge.net/DTD/sodipodi-0.dtd"
   xmlns:xlink="http://www.w3.org/1999/xlink"
   xmlns="http://www.w3.org/2000/svg"
   xmlns:svg="http://www.w3.org/2000/svg"
   xmlns:rdf="http://www.w3.org/1999/02/22-rdf-syntax-ns#"
   xmlns:cc="http://creativecommons.org/ns#"
   xmlns:dc="http://purl.org/dc/elements/1.1/">
  <metadata
     id="metadata8">
    <rdf:RDF>
      <cc:Work
         rdf:about="">
        <dc:format>image/svg+xml</dc:format>
        <dc:type
           rdf:resource="http://purl.org/dc/dcmitype/StillImage" />
        <dc:title />
      </cc:Work>
    </rdf:RDF>
  </metadata>
  <defs
     id="defs6">
    <filter
       style="color-interpolation-filters:sRGB"
       id="filter4375-4-1-1-1-9-3-2-3-8-7-6-4-9"
       inkscape:label="deevad outline effect"
       x="-0.0025729268"
       y="-0.00936547"
       width="1.0051459"
       height="1.0187309">
      <feFlood
         id="feFlood4377-7-9-0-8-1-6-9-6-7-5-32-7-4"
         flood-opacity="1"
         flood-color="rgb(95,141,211)"
         result="flood" />
      <feComposite
         id="feComposite4379-3-8-8-2-77-7-1-0-9-9-0-6-8"
         in2="SourceGraphic"
         in="flood"
         operator="in"
         result="composite1" />
      <feMorphology
         id="feMorphology4393-1-0-49-8-9-5-2-6-2-2-6-5-1"
         operator="dilate"
         radius="4"
         result="result3" />
      <feComposite
         id="feComposite4385-9-5-7-0-8-3-7-2-0-2-1-6-2"
         in2="result3"
         in="SourceGraphic"
         operator="over"
         result="composite2" />
    </filter>
  </defs>
  <sodipodi:namedview
     pagecolor="#ffffff"
     bordercolor="#666666"
     borderopacity="1"
     objecttolerance="10"
     gridtolerance="10"
     guidetolerance="10"
     inkscape:pageopacity="0"
     inkscape:pageshadow="2"
     inkscape:window-width="1276"
     inkscape:window-height="756"
     id="namedview4"
     showgrid="false"
     inkscape:zoom="0.49513699"
     inkscape:cx="1307.7189"
     inkscape:cy="2249.8824"
     inkscape:window-x="194"
     inkscape:window-y="5"
     inkscape:window-maximized="0"
     inkscape:current-layer="layer3"
     inkscape:document-rotation="0"
     inkscape:snap-global="false"
     inkscape:pagecheckerboard="0" />
  <g
     inkscape:groupmode="layer"
     id="layer2"
     inkscape:label="artwork"
     sodipodi:insensitive="true">
    <image
       xlink:href="../gfx_Pepper-and-Carrot_by-David-Revoy_E35P11.png"
       y="0"
       x="0"
       id="image10"
       height="3503"
       width="2481" />
  </g>
  <g
     inkscape:groupmode="layer"
     id="layer3"
     inkscape:label="speechbubbles">
    <path
       style="color:#000000;fill:#ffffff;fill-opacity:1;fill-rule:nonzero;stroke:none;stroke-width:1.05825996px;marker:none;visibility:visible;display:inline;overflow:visible;enable-background:accumulate"
       d="m 714.32336,1526.6704 c 24.272,-24.9106 234.40642,-35.5556 290.06584,7.541 46.4576,35.9724 28.3315,122.5341 -12.98558,141.6334 -41.31677,19.099 -178.76252,13.6696 -239.00188,3.2265 -57.35621,-9.9423 -66.98728,-36.2614 -69.80859,-88.8787 -1.15148,-21.4761 7.45806,-38.612 31.73021,-63.5222 z"
       id="path4040-4-9-2"
       inkscape:connector-curvature="0"
       sodipodi:nodetypes="zssssz" />
    <path
       style="color:#000000;display:inline;overflow:visible;visibility:visible;fill:#ffffff;fill-opacity:1;fill-rule:nonzero;stroke:none;stroke-width:1.36564px;marker:none;enable-background:accumulate"
       d="m 672.15106,325.81422 c 33.46845,54.26318 16.77932,109.75225 -42.25383,148.97796 101.91057,-50.70471 112.5118,-145.0271 95.84592,-167.01491 -16.31806,-21.52888 -53.59209,18.03695 -53.59209,18.03695 z"
       id="path5010-4"
       inkscape:connector-curvature="0"
       sodipodi:nodetypes="ccsc" />
    <path
       style="fill:#ffffff;stroke:none;display:inline"
       d="m 1200.1636,57.299 c -30.2748,0.291165 -61.0865,5.226017 -88.9715,20.596138 -15.2593,9.035479 -27.8901,26.398282 -31.2093,47.340992 -3.1969,20.62219 -2.0247,42.19634 2.8115,62.27217 5.7789,18.83833 18.6418,33.143 33.069,41.62797 21.237,13.35548 45.1138,18.26676 68.6329,20.41751 31.8903,3.26547 63.9815,6.45676 95.9637,3.28382 24.4794,-2.53403 49.0135,-10.51405 69.9277,-26.93945 11.9716,-9.57802 23.1704,-21.8084 29.6083,-37.87408 5.4316,-13.08567 6.6971,-28.38022 4.945,-42.81545 -2.1394,-17.3016 -9.405,-33.4704 -20.0957,-44.85659 -12.799,-14.191543 -29.188,-21.85208 -45.3827,-27.88553 -22.0343,-7.963814 -44.9297,-11.472072 -67.7586,-13.544453 -17.1547,-1.406949 -34.3534,-1.66886 -51.5403,-1.623047 z"
       id="path3280-8-1"
       inkscape:connector-curvature="0"
       sodipodi:nodetypes="csssc" />
    <path
       style="color:#000000;fill:#ffffff;fill-opacity:1;fill-rule:nonzero;stroke:none;stroke-width:0.76831901px;marker:none;visibility:visible;display:inline;overflow:visible;enable-background:accumulate"
       d="m 1962.1916,80.045098 c -34.9911,0.451121 -70.9579,7.291058 -99.7941,24.650372 -24.035,14.61334 -44.1617,35.09515 -52.2691,59.42558 -4.5071,14.47327 -5.9976,29.70107 -3.9567,44.57772 3.4737,23.43062 17.4358,45.22817 36.6786,62.16407 16.0432,14.09807 36.6267,24.55364 59.1336,29.38632 54.6337,13.70193 111.5706,19.90751 168.4041,22.02725 54.0177,1.68795 108.8273,-1.66673 160.7669,-14.90937 34.0714,-9.82878 66.2282,-27.08791 86.7394,-52.46383 16.7171,-21.51584 21.5905,-47.96125 20.5866,-73.25334 -0.6585,-23.8046 -8.4152,-48.52002 -27.5541,-66.63011 -18.12,-16.790386 -44.7943,-25.391766 -71.2105,-27.350948 -65.2375,-8.444234 -131.4241,-5.638196 -197.157,-7.085893 -26.7878,-0.300434 -53.5767,-0.673938 -80.3677,-0.537821 z"
       id="path4546-6-7"
       inkscape:connector-curvature="0"
       sodipodi:nodetypes="cscssssc" />
    <path
       style="color:#000000;fill:#ffffff;fill-opacity:1;fill-rule:nonzero;stroke:none;stroke-width:0.98582298px;marker:none;visibility:visible;display:inline;overflow:visible;enable-background:accumulate"
       d="m 615.37394,1388.2962 c 20.61733,-25.3329 199.11172,-39.6345 246.3902,2.4936 39.46265,35.164 24.06566,122.0411 -11.03017,141.8593 -35.09566,19.818 -151.84608,16.7802 -203.01515,7.3854 -48.72002,-8.9443 -56.90094,-35.0958 -59.29745,-87.6639 -0.97808,-21.4561 6.33509,-38.7418 26.95257,-64.0744 z"
       id="path4040-4-9"
       inkscape:connector-curvature="0"
       sodipodi:nodetypes="zssssz" />
    <path
       style="fill:#ffffff;fill-rule:evenodd;stroke:none"
       d="m 1099.9969,1635.3711 c -27.001,0.6543 -53.9775,2.353 -80.9311,4.3311 -16.7774,1.4962 -33.76385,3.2443 -49.84193,9.6027 -20.71093,9.0393 -37.20206,29.6983 -45.71641,54.0143 -3.92051,11.34 -6.66597,23.2441 -8.70438,35.2698 -1.86063,12.1244 -1.5978,25.0145 2.40934,36.5008 4.62062,14.094 12.38734,26.2836 20.68271,37.4942 15.68011,20.2167 36.87867,34.5045 59.70329,38.256 19.69328,3.9234 39.59458,6.0371 59.47138,8.0593 33.1222,2.6716 66.3543,3.2248 99.5334,2.0946 27.9082,-1.0429 55.8127,-3.334 83.4911,-7.8518 14.7112,-2.8512 29.7148,-7.3645 42.063,-17.8946 12.0002,-10.4824 20.1344,-26.7383 23.237,-44.1386 3.1264,-13.2549 5.791,-27.3799 3.2087,-41.1126 -3.2173,-16.4468 -10.3696,-31.1746 -17.073,-45.8225 -6.9822,-14.3178 -16.0519,-27.8098 -28.3289,-35.817 -14.8586,-10.2598 -31.6728,-15.0007 -47.9861,-20.6173 -25.7977,-8.1391 -52.5281,-10.6826 -79.1004,-11.4662 -12.0336,-0.5451 -24.0736,-1.0294 -36.1177,-0.9022 z"
       id="path1079"
       inkscape:connector-curvature="0" />
    <path
       style="color:#000000;display:inline;overflow:visible;visibility:visible;fill:#ffffff;fill-opacity:1;fill-rule:nonzero;stroke:none;stroke-width:0.939237px;marker:none;enable-background:accumulate"
       d="m 1404.4998,1793.8153 c -45.9909,-29.4273 -78.0349,-27.5278 -104.8526,-18.0354 -25.7868,9.1275 -19.8278,10.3608 -19.8278,10.3608 l 10.5667,-48.0852 c -3.1179,-4.3789 71.5596,-1.8389 114.1137,55.7598 z"
       id="path3072-12"
       inkscape:connector-curvature="0"
       sodipodi:nodetypes="csccc" />
    <path
       style="fill:#ffffff;stroke:none;display:inline"
       d="m 1243.6721,234.28477 c -30.6905,14.72346 -46.121,33.91846 -54.7236,68.1424 -5.5956,23.65481 -5.0635,59.54547 -4.7516,83.72038 1.4157,27.48788 14.8647,53.12096 33.4123,72.29288 10.9606,11.56167 24.4581,20.19057 38.7293,26.62198 32.1656,14.95785 67.4626,21.61885 102.5539,22.71583 26.3708,0.62238 52.7429,-0.35586 79.1067,-0.89667 32.7282,-1.11449 65.6864,-2.8754 97.7006,-10.52136 17.795,-4.45128 35.7639,-10.9321 49.9039,-23.4157 18.5662,-16.39771 30.5458,-39.66668 36.6855,-63.91693 6.2973,-25.4728 4.7565,-52.45008 -1.4072,-77.77889 -5.314,-24.21068 -15.4217,-48.09164 -32.9188,-65.48722 -18.1003,-18.22222 -41.7076,-29.33403 -65.8101,-36.05933 -37.0938,-10.81437 -75.7762,-13.58512 -114.1078,-15.07107 -54.6146,0.15075 -117.4847,0.77118 -164.3731,19.6537 z"
       id="path3280-8-1-3"
       inkscape:connector-curvature="0"
       sodipodi:nodetypes="csscccccccccccc" />
    <path
       style="display:inline;fill:#ffffff;stroke:none;stroke-width:1.03185"
       d="m 2020.2208,272.01367 c -50.3245,0.45126 -101.5416,8.09962 -147.8939,31.92128 -25.3648,14.00379 -46.3604,40.91385 -51.8779,73.37227 -5.314,31.96166 -3.3655,65.39875 4.6736,96.51361 9.6062,29.19693 30.9874,51.36726 54.9692,64.51785 35.3013,20.69922 74.9906,28.31106 114.0857,31.64445 53.01,5.06103 106.3539,10.0071 159.5165,5.08946 40.6913,-3.92741 81.4734,-16.29537 116.2384,-41.75257 19.8998,-14.84466 38.5151,-33.80013 49.2165,-58.69981 9.0289,-20.28105 11.1324,-43.98558 8.2201,-66.35828 -3.5564,-26.81518 -15.6338,-51.8747 -33.4046,-69.52177 -21.275,-21.99502 -48.5178,-33.86781 -75.4377,-43.21888 -36.6268,-12.34286 -74.6848,-17.78019 -112.6324,-20.99212 -28.5156,-2.18059 -57.1044,-2.58651 -85.6735,-2.51549 z"
       id="path3280-8-1-1"
       inkscape:connector-curvature="0"
       sodipodi:nodetypes="csssc" />
    <path
       style="fill:#ffffff;stroke:none;display:inline"
       d="m 2029.9812,512.43116 c -46.7434,0.20647 -94.0121,7.06453 -137.3196,24.69011 -11.7977,4.736 -23.147,10.67109 -33.0045,18.61777 -24.4806,19.13571 -41.7493,47.35958 -45.3611,77.86979 -4.5143,29.86617 1.2956,62.12536 20.2827,86.53688 20.0038,25.8903 49.6762,43.29741 80.9374,53.43341 33.7523,11.79961 69.7621,15.40208 105.3765,16.99606 53.866,4.28665 108.0843,3.34253 161.8919,-1.26829 25.1626,-2.14623 50.5856,-5.1844 74.3287,-14.00977 25.0688,-9.1991 47.5489,-25.02327 64.4652,-45.2116 14.358,-17.26086 24.5515,-38.29626 26.3804,-60.6038 3.7449,-38.91759 -13.4689,-79.79832 -46.0895,-103.16946 -28.0649,-20.83914 -62.3497,-31.51114 -96.2887,-39.38514 -57.4751,-12.97526 -116.8465,-14.69278 -175.5994,-14.49596 z"
       id="path3280-8-1-1-8"
       inkscape:connector-curvature="0"
       sodipodi:nodetypes="csssc" />
    <path
       style="fill:#ffffff;fill-rule:evenodd;stroke:none;stroke-width:1px;stroke-linecap:butt;stroke-linejoin:miter;stroke-opacity:1"
       d="m 1917.1509,703.14914 c -35.1448,34.55495 -40.918,43.76621 -48.2945,59.20991 -7.3765,15.44359 -1.4166,45.82505 15.3336,59.77726 16.7502,13.95231 20.6476,39.75145 6.4656,51.09426 -14.1819,11.34295 -70.6572,56.04997 -12.3413,98.68519 -52.1304,-50.93005 4.6214,-80.3316 15.046,-87.77901 10.4245,-7.44749 30.9525,-25.50425 13.4446,-59.50485 -17.5082,-34.00062 -21.7713,-50.818 31.7495,-83.72489 53.5207,-32.90685 -21.4035,-37.75787 -21.4035,-37.75787 z"
       id="path1081"
       inkscape:connector-curvature="0"
       sodipodi:nodetypes="ccccccssc" />
    <path
       style="color:#000000;display:inline;overflow:visible;visibility:visible;fill:#ffffff;fill-opacity:1;fill-rule:nonzero;stroke:none;stroke-width:1.4638px;marker:none;enable-background:accumulate"
       d="m 1446.9857,482.25247 c 38.5518,83.9689 2.5856,139.06018 -54.1917,168.09629 98.918,-30.2652 116.1188,-134.92733 86.7076,-167.77583 -23.1309,-25.83416 -32.5159,-0.32046 -32.5159,-0.32046 z"
       id="path5010-4-3"
       inkscape:connector-curvature="0"
       sodipodi:nodetypes="ccsc" />
    <path
       style="color:#000000;fill:#ffffff;fill-opacity:1;fill-rule:nonzero;stroke:none;stroke-width:0.86150599px;marker:none;visibility:visible;display:inline;overflow:visible;enable-background:accumulate"
       d="m 1742.6381,2345.4503 c 0.931,-9.7192 19.1777,-58.1986 126.0694,-53.971 55.3437,2.1888 121.1711,7.2387 115.9048,107.2622 -4.1627,79.0631 -105.5261,75.1766 -124.3671,77.4135 -18.7218,2.2226 -95.1041,-11.3634 -111.7105,-42.5058 -10.3954,-19.4946 -9.5384,-50.1789 -5.8966,-88.1989 z"
       id="path4546-6-59"
       inkscape:connector-curvature="0"
       sodipodi:nodetypes="ssssss" />
    <path
       style="fill:#ffffff;stroke:none"
       d="m 700.88012,103.71299 c -35.53755,0.66222 -70.27463,10.3952 -105.2259,16.69385 -22.14407,3.99063 -44.11485,12.04535 -62.3737,26.49155 -11.60804,9.18415 -20.28402,22.41637 -24.7721,37.24507 -6.39381,21.12527 -7.08909,43.91069 -3.59027,65.66027 2.58564,16.07302 8.33779,32.2494 19.33506,43.78773 21.55915,22.61985 48.85007,33.19309 77.05729,38.28943 29.60791,5.34941 59.72153,8.17565 89.65317,6.5994 42.60956,-2.24389 101.95748,-5.394 133.73954,-29.21982 13.913,-10.43005 24.89808,-25.36438 31.25334,-42.30599 2.80958,-7.48968 4.06498,-15.53842 4.40492,-23.59281 0.43721,-10.35911 0.24044,-45.37018 -1.11585,-55.64879 -6.72068,-50.93264 -74.52289,-85.56224 -158.3655,-83.99989 z"
       id="path3100-2"
       inkscape:connector-curvature="0"
       sodipodi:nodetypes="sssssssssssss" />
    <path
       style="fill:#ffffff;fill-rule:evenodd;stroke:none;display:inline"
       d="m 1876.2442,2440.9246 c 29.6781,34.3855 -48.3918,61.0872 -32.7914,98.1006 6.1219,14.5249 50.1858,21.814 59.4409,88.3499 -23.107,-54.5774 -70.7535,-56.808 -83.5614,-79.4341 -24.3256,-42.971 15.5983,-74.4437 22.7675,-83.4264 9.5884,-12.0136 34.1444,-23.59 34.1444,-23.59 z"
       id="path4186-80"
       inkscape:connector-curvature="0"
       sodipodi:nodetypes="cscssc" />
    <path
       style="color:#000000;display:inline;overflow:visible;visibility:visible;fill:#ffffff;fill-opacity:1;fill-rule:nonzero;stroke:none;stroke-width:0.472467px;marker:none;enable-background:accumulate"
       d="m 266.97992,2086.542 c 13.37453,-13.964 129.16447,-22.406 159.83419,0.5429 25.59955,19.1552 15.61147,66.8586 -7.1553,77.8463 -22.76671,10.9877 -98.5031,9.7123 -131.69666,4.7305 -31.60485,-4.7428 -36.91183,-19.0595 -38.46644,-47.8849 -0.63452,-11.7653 4.10957,-21.2709 17.48421,-35.2348 z"
       id="path4040-4-9-3"
       inkscape:connector-curvature="0"
       sodipodi:nodetypes="zssssz" />
    <path
       style="color:#000000;display:inline;overflow:visible;visibility:visible;fill:#ffffff;fill-opacity:1;fill-rule:nonzero;stroke:none;stroke-width:0.816531px;marker:none;enable-background:accumulate"
       d="m 354.58902,2078.2586 c 35.58146,-4.2267 52.48817,-58.2989 28.13393,-95.1145 44.43236,49.6051 29.57055,64.2564 4.74971,120.5184 -6.58837,14.934 -32.88364,-25.4039 -32.88364,-25.4039 z"
       id="path5010-4-5"
       inkscape:connector-curvature="0"
       sodipodi:nodetypes="ccsc" />
  </g>
  <g
     inkscape:groupmode="layer"
     id="layer1"
     inkscape:label="txt">
    <text
       xml:space="preserve"
       style="font-style:normal;font-variant:normal;font-weight:normal;font-stretch:normal;line-height:0%;font-family:ComicSpice;-inkscape-font-specification:ComicSpice;text-align:center;letter-spacing:0px;word-spacing:0px;text-anchor:middle;fill:#000000;fill-opacity:1;stroke:none"
       x="690.90973"
       y="179.30602"
       id="text4246-3-2-2"><tspan
         style="font-style:normal;font-variant:normal;font-weight:normal;font-stretch:normal;font-size:45px;line-height:1.25;font-family:ComicSpice;-inkscape-font-specification:ComicSpice"
         sodipodi:role="line"
         x="690.90973"
         y="179.30602"
         id="tspan908">Cám ơn cho Củ Đỏ</tspan><tspan
         style="font-style:normal;font-variant:normal;font-weight:normal;font-stretch:normal;font-size:45px;line-height:1.25;font-family:ComicSpice;-inkscape-font-specification:ComicSpice"
         sodipodi:role="line"
         x="690.90973"
         y="235.55602"
         id="tspan8441">đi lấy giùm một</tspan><tspan
         style="font-style:normal;font-variant:normal;font-weight:normal;font-stretch:normal;font-size:45px;line-height:1.25;font-family:ComicSpice;-inkscape-font-specification:ComicSpice"
         sodipodi:role="line"
         x="690.90973"
         y="291.80603"
         id="tspan8443">bộ quần áo sạch.</tspan></text>
    <text
       xml:space="preserve"
       style="font-style:normal;font-variant:normal;font-weight:normal;font-stretch:normal;line-height:0%;font-family:ComicSpice;-inkscape-font-specification:ComicSpice;text-align:center;letter-spacing:0px;word-spacing:0px;text-anchor:middle;fill:#000000;fill-opacity:1;stroke:none"
       x="1235.6431"
       y="179.79465"
       id="text4246-3-2-2-3-3-3"><tspan
         style="font-style:normal;font-variant:normal;font-weight:normal;font-stretch:normal;font-size:45px;line-height:1.25;font-family:ComicSpice;-inkscape-font-specification:ComicSpice"
         sodipodi:role="line"
         x="1235.6431"
         y="179.79465"
         id="tspan876-3">Chẳng phiền gì.</tspan></text>
    <text
       xml:space="preserve"
       style="font-style:normal;font-variant:normal;font-weight:normal;font-stretch:normal;line-height:0%;font-family:ComicSpice;-inkscape-font-specification:ComicSpice;text-align:center;letter-spacing:0px;word-spacing:0px;text-anchor:middle;fill:#000000;fill-opacity:1;stroke:none"
       x="1403.865"
       y="288.4176"
       id="text4246-3-2-2-3-3"><tspan
         style="font-style:normal;font-variant:normal;font-weight:normal;font-stretch:normal;font-size:45px;line-height:1.25;font-family:ComicSpice;-inkscape-font-specification:ComicSpice"
         sodipodi:role="line"
         x="1403.865"
         y="288.4176"
         id="tspan933">Bạn đã làm việc của</tspan><tspan
         style="font-style:normal;font-variant:normal;font-weight:normal;font-stretch:normal;font-size:45px;line-height:1.25;font-family:ComicSpice;-inkscape-font-specification:ComicSpice"
         sodipodi:role="line"
         x="1403.865"
         y="344.6676"
         id="tspan8449">tôi dễ dàng hơn, cho nên</tspan><tspan
         style="font-style:normal;font-variant:normal;font-weight:normal;font-stretch:normal;font-size:45px;line-height:1.25;font-family:ComicSpice;-inkscape-font-specification:ComicSpice"
         sodipodi:role="line"
         x="1403.865"
         y="400.9176"
         id="tspan941">tôi muốn đáp trả ơn lại</tspan><tspan
         style="font-style:normal;font-variant:normal;font-weight:normal;font-stretch:normal;font-size:45px;line-height:1.25;font-family:ComicSpice;-inkscape-font-specification:ComicSpice"
         sodipodi:role="line"
         x="1408.1606"
         y="457.1676"
         id="tspan8453">bằng giúp bạn. </tspan></text>
    <text
       xml:space="preserve"
       style="font-style:normal;font-variant:normal;font-weight:normal;font-stretch:normal;line-height:0%;font-family:ComicSpice;-inkscape-font-specification:ComicSpice;text-align:center;letter-spacing:0px;word-spacing:0px;text-anchor:middle;fill:#000000;fill-opacity:1;stroke:none"
       x="2070.6965"
       y="162.92047"
       id="text4246-3-2-2-3-3-67"><tspan
         style="font-style:normal;font-variant:normal;font-weight:normal;font-stretch:normal;font-size:45px;line-height:1.25;font-family:ComicSpice;-inkscape-font-specification:ComicSpice"
         sodipodi:role="line"
         x="2070.6965"
         y="162.92047"
         id="tspan898">Nhưng bạn có biết không,</tspan><tspan
         style="font-style:normal;font-variant:normal;font-weight:normal;font-stretch:normal;font-size:45px;line-height:1.25;font-family:ComicSpice;-inkscape-font-specification:ComicSpice"
         sodipodi:role="line"
         x="2070.6965"
         y="219.17047"
         id="tspan8465">bạn đã làm Su Phụ Cải Ngựa</tspan><tspan
         style="font-style:normal;font-variant:normal;font-weight:normal;font-stretch:normal;font-size:45px;line-height:1.25;font-family:ComicSpice;-inkscape-font-specification:ComicSpice"
         sodipodi:role="line"
         x="2070.6965"
         y="275.42047"
         id="tspan8467">rất tức giận.</tspan></text>
    <text
       xml:space="preserve"
       style="font-style:normal;font-variant:normal;font-weight:normal;font-stretch:normal;line-height:0%;font-family:ComicSpice;-inkscape-font-specification:ComicSpice;text-align:center;letter-spacing:0px;word-spacing:0px;text-anchor:middle;fill:#000000;fill-opacity:1;stroke:none"
       x="2069.8462"
       y="354.0451"
       id="text4246-3-2-2-3-3-67-2"><tspan
         style="font-style:normal;font-variant:normal;font-weight:normal;font-stretch:normal;font-size:45px;line-height:1.25;font-family:ComicSpice;-inkscape-font-specification:ComicSpice"
         sodipodi:role="line"
         x="2069.8462"
         y="354.0451"
         id="tspan1004-2">Bà ấy yêu cầu mỗi thứ </tspan><tspan
         style="font-style:normal;font-variant:normal;font-weight:normal;font-stretch:normal;font-size:45px;line-height:1.25;font-family:ComicSpice;-inkscape-font-specification:ComicSpice"
         sodipodi:role="line"
         x="2069.8462"
         y="410.2951"
         id="tspan1010-7">phải hoàn hảo. Bạn đã quấy</tspan><tspan
         style="font-style:normal;font-variant:normal;font-weight:normal;font-stretch:normal;font-size:45px;line-height:1.25;font-family:ComicSpice;-inkscape-font-specification:ComicSpice"
         sodipodi:role="line"
         x="2069.8462"
         y="466.5451"
         id="tspan912">rối cái đó bằng ở dơ, quần áo,</tspan><tspan
         style="font-style:normal;font-variant:normal;font-weight:normal;font-stretch:normal;font-size:45px;line-height:1.25;font-family:ComicSpice;-inkscape-font-specification:ComicSpice"
         sodipodi:role="line"
         x="2069.8462"
         y="522.7951"
         id="tspan8498">kiểu tiếp xúc của bạn..</tspan></text>
    <text
       xml:space="preserve"
       style="font-style:normal;font-variant:normal;font-weight:normal;font-stretch:normal;line-height:0%;font-family:ComicSpice;-inkscape-font-specification:ComicSpice;text-align:center;letter-spacing:0px;word-spacing:0px;text-anchor:middle;fill:#000000;fill-opacity:1;stroke:none"
       x="2084.2942"
       y="614.01355"
       id="text4246-3-2-2-3-3-67-2-3"><tspan
         style="font-style:normal;font-variant:normal;font-weight:normal;font-stretch:normal;font-size:45px;line-height:1.25;font-family:ComicSpice;-inkscape-font-specification:ComicSpice"
         sodipodi:role="line"
         x="2084.2942"
         y="614.01355"
         id="tspan1134">Và bạn đã tấn công bà ấy</tspan><tspan
         style="font-style:normal;font-variant:normal;font-weight:normal;font-stretch:normal;font-size:45px;line-height:1.25;font-family:ComicSpice;-inkscape-font-specification:ComicSpice"
         sodipodi:role="line"
         x="2084.2942"
         y="670.26355"
         id="tspan8475">nữa! Bà ấy sẽ không dễ tha</tspan><tspan
         style="font-style:normal;font-variant:normal;font-weight:normal;font-stretch:normal;font-size:45px;line-height:1.25;font-family:ComicSpice;-inkscape-font-specification:ComicSpice"
         sodipodi:role="line"
         x="2084.2942"
         y="726.51355"
         id="tspan8483">thứ cho lỗi lầm của bạn đâu.</tspan></text>
    <text
       xml:space="preserve"
       style="font-style:normal;font-variant:normal;font-weight:normal;font-stretch:normal;line-height:0%;font-family:ComicSpice;-inkscape-font-specification:ComicSpice;text-align:center;letter-spacing:0px;word-spacing:0px;text-anchor:middle;fill:#000000;fill-opacity:1;stroke:none"
       x="349.56961"
       y="2138.6455"
       id="text4246-3-2-2-3-3-6-67"><tspan
         style="font-style:normal;font-variant:normal;font-weight:normal;font-stretch:normal;font-size:45px;line-height:1.25;font-family:ComicSpice;-inkscape-font-specification:ComicSpice"
         sodipodi:role="line"
         x="349.56961"
         y="2138.6455"
         id="tspan1191-3">Tôi biết.</tspan></text>
    <text
       xml:space="preserve"
       style="font-style:normal;font-variant:normal;font-weight:normal;font-stretch:normal;line-height:0%;font-family:ComicSpice;-inkscape-font-specification:ComicSpice;text-align:center;letter-spacing:0px;word-spacing:0px;text-anchor:middle;fill:#000000;fill-opacity:1;stroke:none"
       x="743.62054"
       y="1442.3682"
       id="text4246-3-2-2-3-3-6"><tspan
         style="font-style:normal;font-variant:normal;font-weight:normal;font-stretch:normal;font-size:45px;line-height:1.25;font-family:ComicSpice;-inkscape-font-specification:ComicSpice"
         sodipodi:role="line"
         x="743.62054"
         y="1442.3682"
         id="tspan909">Nhưng tôi cần</tspan><tspan
         style="font-style:normal;font-variant:normal;font-weight:normal;font-stretch:normal;font-size:45px;line-height:1.25;font-family:ComicSpice;-inkscape-font-specification:ComicSpice"
         sodipodi:role="line"
         x="747.9162"
         y="1498.6182"
         id="tspan8510">ngủ một lát. </tspan></text>
    <text
       xml:space="preserve"
       style="font-style:normal;font-variant:normal;font-weight:normal;font-stretch:normal;line-height:0%;font-family:ComicSpice;-inkscape-font-specification:ComicSpice;text-align:center;letter-spacing:0px;word-spacing:0px;text-anchor:middle;fill:#000000;fill-opacity:1;stroke:none"
       x="863.08191"
       y="1579.2286"
       id="text4246-3-2-2-3-3-6-6"><tspan
         style="font-style:normal;font-variant:normal;font-weight:normal;font-stretch:normal;font-size:45px;line-height:1.25;font-family:ComicSpice;-inkscape-font-specification:ComicSpice"
         sodipodi:role="line"
         x="863.08191"
         y="1579.2286"
         id="tspan949">Chúng tôi sẽ đi</tspan><tspan
         style="font-style:normal;font-variant:normal;font-weight:normal;font-stretch:normal;font-size:45px;line-height:1.25;font-family:ComicSpice;-inkscape-font-specification:ComicSpice"
         sodipodi:role="line"
         x="867.37756"
         y="1635.4786"
         id="tspan8514">khi tôi thức dậy . </tspan></text>
    <text
       xml:space="preserve"
       style="font-style:normal;font-variant:normal;font-weight:normal;font-stretch:normal;line-height:0%;font-family:ComicSpice;-inkscape-font-specification:ComicSpice;text-align:center;letter-spacing:0px;word-spacing:0px;text-anchor:middle;fill:#000000;fill-opacity:1;stroke:none"
       x="1106.4032"
       y="1711.861"
       id="text4246-3-2-2-3-3-6-2"><tspan
         style="font-style:normal;font-variant:normal;font-weight:normal;font-stretch:normal;font-size:45px;line-height:1.25;font-family:ComicSpice;-inkscape-font-specification:ComicSpice"
         sodipodi:role="line"
         x="1106.4032"
         y="1711.861"
         id="tspan958">Bạn cứ làm gì tùy ý</tspan><tspan
         style="font-style:normal;font-variant:normal;font-weight:normal;font-stretch:normal;font-size:45px;line-height:1.25;font-family:ComicSpice;-inkscape-font-specification:ComicSpice"
         sodipodi:role="line"
         x="1106.4032"
         y="1768.111"
         id="tspan8521">bạn nhưng đừng</tspan><tspan
         style="font-style:normal;font-variant:normal;font-weight:normal;font-stretch:normal;font-size:45px;line-height:1.25;font-family:ComicSpice;-inkscape-font-specification:ComicSpice"
         sodipodi:role="line"
         x="1106.4032"
         y="1824.361"
         id="tspan8527">đi đâu xa nhe....</tspan></text>
    <text
       xml:space="preserve"
       style="font-style:normal;font-variant:normal;font-weight:normal;font-stretch:normal;line-height:0%;font-family:ComicSpice;-inkscape-font-specification:ComicSpice;letter-spacing:0px;word-spacing:0px;display:inline;fill:#ffffff;fill-opacity:1;stroke:#5f8dd3;stroke-width:0.992362;stroke-miterlimit:4;stroke-dasharray:none;stroke-opacity:1;filter:url(#filter4375-4-1-1-1-9-3-2-3-8-7-6-4-9)"
       x="787.65729"
       y="1584.5073"
       id="text4580-5-0-6-2-8-5-9-9"
       transform="matrix(0.71138619,-0.38856964,0.42362052,1.0933045,-1095.3818,1936.127)"><tspan
         sodipodi:role="line"
         id="tspan4582-6-9-1-3-9-5-3-3"
         x="787.65729"
         y="1584.5073"
         style="font-style:normal;font-variant:normal;font-weight:normal;font-stretch:normal;font-size:70px;line-height:1.25;font-family:ComicSpice;-inkscape-font-specification:ComicSpice;fill:#ffffff;stroke:#5f8dd3">Tủủủủm</tspan></text>
    <text
       xml:space="preserve"
       style="font-style:normal;font-variant:normal;font-weight:normal;font-stretch:normal;line-height:0%;font-family:ComicSpice;-inkscape-font-specification:ComicSpice;text-align:center;letter-spacing:0px;word-spacing:0px;text-anchor:middle;fill:#000000;fill-opacity:1;stroke:none"
       x="1861.7039"
       y="2364.5269"
       id="text4246-3-2-2-3-3-6-2-9"><tspan
         style="font-style:normal;font-variant:normal;font-weight:normal;font-stretch:normal;font-size:45px;line-height:1.25;font-family:ComicSpice;-inkscape-font-specification:ComicSpice"
         sodipodi:role="line"
         x="1861.7039"
         y="2364.5269"
         id="tspan1080">Phù thủy</tspan><tspan
         style="font-style:normal;font-variant:normal;font-weight:normal;font-stretch:normal;font-size:45px;line-height:1.25;font-family:ComicSpice;-inkscape-font-specification:ComicSpice"
         sodipodi:role="line"
         x="1861.7039"
         y="2420.7769"
         id="tspan8534">này rất ky lạ.</tspan></text>
  </g>
</svg>
