<?xml version="1.0" encoding="UTF-8" standalone="no"?>
<svg
   id="svg2"
   version="1.1"
   inkscape:version="1.1 (1:1.1+202105261517+ce6663b3b7)"
   width="2481"
   height="3503"
   sodipodi:docname="E35P09.svg"
   xmlns:inkscape="http://www.inkscape.org/namespaces/inkscape"
   xmlns:sodipodi="http://sodipodi.sourceforge.net/DTD/sodipodi-0.dtd"
   xmlns:xlink="http://www.w3.org/1999/xlink"
   xmlns="http://www.w3.org/2000/svg"
   xmlns:svg="http://www.w3.org/2000/svg"
   xmlns:rdf="http://www.w3.org/1999/02/22-rdf-syntax-ns#"
   xmlns:cc="http://creativecommons.org/ns#"
   xmlns:dc="http://purl.org/dc/elements/1.1/">
  <metadata
     id="metadata8">
    <rdf:RDF>
      <cc:Work
         rdf:about="">
        <dc:format>image/svg+xml</dc:format>
        <dc:type
           rdf:resource="http://purl.org/dc/dcmitype/StillImage" />
        <dc:title />
      </cc:Work>
    </rdf:RDF>
  </metadata>
  <defs
     id="defs6">
    <filter
       style="color-interpolation-filters:sRGB"
       id="filter4375-4-1-1-1-9-5-8-8-5-5-3-3"
       inkscape:label="soundFX1"
       x="-0.035758104"
       y="-0.0015496642"
       width="1.0369854"
       height="1.0047303">
      <feFlood
         id="feFlood4377-7-9-0-8-1-7-3-1-2-7-6-6"
         flood-opacity="1"
         flood-color="rgb(52,52,52)"
         result="flood" />
      <feComposite
         id="feComposite4379-3-8-8-2-77-4-1-0-6-4-7-7"
         in2="SourceGraphic"
         in="flood"
         operator="in"
         result="composite1"
         baseFrequency="0.053999999999999999 0.053999999999999999" />
      <feMorphology
         id="feMorphology4393-1-0-49-8-9-3-0-1-9-9-5-5"
         operator="dilate"
         radius="4.0330969769021738"
         result="result3" />
      <feComposite
         id="feComposite4385-9-5-7-0-8-8-7-5-4-9-3-3"
         in2="result3"
         in="SourceGraphic"
         operator="over"
         result="fbSourceGraphic" />
      <feColorMatrix
         result="fbSourceGraphicAlpha"
         in="fbSourceGraphic"
         values="0 0 0 -1 0 0 0 0 -1 0 0 0 0 -1 0 0 0 0 1 0"
         id="feColorMatrix4544-9-4-4-5-5" />
      <feTurbulence
         id="feTurbulence4546-3-6-5-6-6"
         type="fractalNoise"
         numOctaves="4"
         seed="147"
         baseFrequency="0.053999999999999999 0.054054054054054057"
         result="turbulence" />
      <feDisplacementMap
         id="feDisplacementMap4548-8-0-9-2-2"
         in2="turbulence"
         in="fbSourceGraphic"
         scale="10.561763"
         yChannelSelector="G"
         xChannelSelector="R"
         result="fbSourceGraphic" />
      <feColorMatrix
         result="fbSourceGraphicAlpha"
         in="fbSourceGraphic"
         values="0 0 0 -1 0 0 0 0 -1 0 0 0 0 -1 0 0 0 0 1 0"
         id="feColorMatrix4670-7-7-3-9-9" />
      <feFlood
         id="feFlood4672-4-4-5-1-1"
         flood-opacity="1"
         flood-color="rgb(28,28,28)"
         result="flood"
         in="fbSourceGraphic" />
      <feComposite
         id="feComposite4674-8-3-7-2-2"
         in2="fbSourceGraphic"
         in="flood"
         operator="in"
         result="composite1" />
      <feGaussianBlur
         id="feGaussianBlur4676-3-7-08-7-7"
         in="composite1"
         stdDeviation="0"
         result="blur" />
      <feOffset
         id="feOffset4678-6-9-1-0-0"
         dx="-10.48377497279229"
         dy="0.39217365321829334"
         result="offset" />
      <feComposite
         id="feComposite4680-4-0-9-9-9"
         in2="offset"
         in="fbSourceGraphic"
         operator="over"
         result="composite2" />
    </filter>
  </defs>
  <sodipodi:namedview
     pagecolor="#ffffff"
     bordercolor="#666666"
     borderopacity="1"
     objecttolerance="10"
     gridtolerance="10"
     guidetolerance="10"
     inkscape:pageopacity="0"
     inkscape:pageshadow="2"
     inkscape:window-width="1276"
     inkscape:window-height="756"
     id="namedview4"
     showgrid="false"
     inkscape:zoom="0.19904892"
     inkscape:cx="1374.0341"
     inkscape:cy="1914.1023"
     inkscape:window-x="0"
     inkscape:window-y="0"
     inkscape:window-maximized="0"
     inkscape:current-layer="layer1"
     inkscape:document-rotation="0"
     inkscape:snap-global="false"
     inkscape:pagecheckerboard="0" />
  <g
     inkscape:groupmode="layer"
     id="layer2"
     inkscape:label="artwork"
     sodipodi:insensitive="true">
    <image
       xlink:href="../gfx_Pepper-and-Carrot_by-David-Revoy_E35P09.png"
       y="0"
       x="0"
       id="image10"
       height="3503"
       width="2481" />
  </g>
  <g
     inkscape:groupmode="layer"
     id="layer3"
     inkscape:label="speechbubbles">
    <path
       style="fill:#ffffff;fill-rule:evenodd;stroke:none;display:inline"
       d="m 325.48792,814.38125 c 44.65724,13.12958 47.95212,24.23792 8.11696,33.23954 42.82286,4.09246 35.40304,10.95001 16.26386,18.45118 63.21983,40.40127 55.28761,71.34297 45.68194,102.06212 53.19396,-19.49539 59.52192,2.16338 59.26592,23.34222 15.29719,-29.97327 34.39935,-13.89562 33.05457,12.16329 15.8338,-30.19616 37.88468,-45.70038 39.60367,-15.55465 19.76259,-24.27406 19.09856,-34.33732 40.88267,-27.43044 31.51088,-30.04752 53.51238,4.07493 78.58716,17.45682 2.67185,-30.18086 19.52815,-32.90467 40.90678,-26.87305 6.81837,-13.38319 10.26879,-32.15342 40.35934,-8.30877 0.90609,-24.77738 16.78752,-9.03127 28.06721,-5.73833 -15.38774,-12.31681 5.85514,-18.57917 69.2326,-17.87959 -25.35762,-4.55937 -40.27774,-27.77411 4.49022,-50.78848 -61.68758,14.49855 -40.96392,-2.82895 -24.63903,-21.02165 -45.8523,-19.52935 -9.17415,-47.15383 6.91101,-72.75806 -45.98347,16.01187 -104.8724,20.72347 -87.39612,-15.48361 -58.05229,34.4931 -51.53356,18.35889 -47.95893,4.53281 -32.9069,37.48512 -36.24615,8.08614 -48.39041,-1.39584 -99.97078,52.74884 -104.09043,10.54099 -130.63384,-9.45209 0.26535,48.85578 -25.92244,32.96535 -52.21967,16.80787 8.53473,40.36146 -7.43181,30.15787 -22.88608,21.01189 1.59437,17.65047 -10.77503,24.2572 -41.97146,15.97278 23.42411,11.94797 11.10449,15.87107 -55.32837,7.64404 z"
       id="path4289-9-2"
       inkscape:connector-curvature="0"
       sodipodi:nodetypes="cccccccccccccccccccccccc" />
    <path
       style="display:inline;fill:#ffffff;fill-rule:evenodd;stroke:none;stroke-width:0.988989px;stroke-linecap:butt;stroke-linejoin:miter;stroke-opacity:1"
       d="M 963.27671,1015.5732 C 855.1456,974.16786 728.54706,920.87912 712.01736,938.41898 l -4.63952,-34.71076 c 24.01825,-8.63206 180.13442,72.14698 255.89887,111.86498 z"
       id="path1881"
       sodipodi:nodetypes="cccc" />
    <text
       xml:space="preserve"
       style="font-style:normal;font-variant:normal;font-weight:normal;font-stretch:normal;font-size:145.675px;line-height:0%;font-family:ComicSpice;-inkscape-font-specification:ComicSpice;letter-spacing:0px;word-spacing:0px;fill:#ffffff;fill-opacity:1;stroke:#ffffff;stroke-width:0.74524;stroke-miterlimit:4;stroke-dasharray:none;stroke-opacity:1;filter:url(#filter4375-4-1-1-1-9-5-8-8-5-5-3-3)"
       id="text4580-6-0-0-0-9-3-3"
       transform="matrix(0.6234491,0.267428,-0.65521393,1.0449346,2153.6335,-849.35717)"
       x="662.92181"
       y="1440.271"
       inkscape:transform-center-x="-7.7973551"
       inkscape:transform-center-y="-49.154777"><tspan
         style="font-style:normal;font-variant:normal;font-weight:normal;font-stretch:normal;font-size:145.675px;font-family:ComicSpice;-inkscape-font-specification:ComicSpice;fill:#ffffff;fill-opacity:1;stroke:#ffffff;stroke-width:0.74524;stroke-miterlimit:4;stroke-dasharray:none;stroke-opacity:1"
         id="tspan876-6-6"
         rotate="0 0 0 0 0 0 0 0"><tspan
           id="tspan2853"
           style="font-style:normal;font-variant:normal;font-weight:normal;font-stretch:normal;font-size:117.986px;font-family:ComicSpice;-inkscape-font-specification:ComicSpice;stroke-width:0.74524"
           dy="0 20 25 30 35 40 50">QUơơơ!</tspan></tspan><textPath
         xlink:href="#path974"
         id="textPath2837"
         style="font-style:normal;font-variant:normal;font-weight:normal;font-stretch:normal;font-family:ComicSpice;-inkscape-font-specification:ComicSpice;stroke-width:0.74524" /></text>
    <path
       style="display:inline;fill:#ffffff;fill-rule:evenodd;stroke:none;stroke-width:1.06911px;stroke-linecap:butt;stroke-linejoin:miter;stroke-opacity:1"
       d="m 830.98632,1467.8029 c -110.00088,59.6481 -103.75718,47.6179 -81.84245,-5.9733 -75.66079,65.4772 -78.17014,40.2091 -66.44348,10.0029 -49.6501,49.4268 -71.56484,39.2386 -77.67766,0.4461 -0.30256,53.4934 -23.56008,32.5037 -33.81722,16.4964 -3.09951,15.8163 -19.302,44.0053 -47.34925,1.4481 0.24657,13.8906 15.45144,46.9079 -42.37712,-2.9345 14.53244,55.0382 -36.6803,-1.7984 -65.42264,-42.5255 17.96666,50.1704 10.58353,57.3143 -12.26655,38.2053 10.47544,20.6429 16.74949,36.6339 -22.94624,1.7201 13.65243,38.1353 -5.74139,33.5754 -48.55886,-7.2334 28.7504,40.4758 65.96155,81.0472 23.9877,67.7541 7.02548,11.92 32.00787,22.1971 -42.27063,41.5547 13.8946,8.0369 56.22703,-4.0668 20.97274,30.4996 -4.72471,4.0439 11.1307,6.4062 -19.09332,17.1582 17.85477,-0.8233 28.8119,1.6857 12.39968,17.4061 32.5927,-1.0312 20.43653,15.4705 -3.44339,36.5651 47.13738,-27.1542 100.5493,-50.3876 67.13753,-11.0192 59.0698,-36.9914 65.3468,-10.3542 54.73403,7.1441 35.41051,-29.855 57.54342,-25.3179 86.47626,15.3904 7.49062,-25.4658 22.58357,-45.1218 86.43982,-27.5077 -28.09629,-32.1822 11.81354,-11.8048 42.37335,1.3451 -16.81438,-40.3078 25.67632,-14.0347 79.50396,24.9663 -30.19735,-44.4441 4.29796,-49.0263 55.01601,-17.6393 -26.77155,-47.0261 -43.89295,-57.1918 86.19865,-13.7994 -109.90594,-44.0942 -86.65475,-73.128 -19.72546,-104.3178 -68.2127,-1.7261 -73.59782,-8.1023 -24.80689,-37.9922 -95.91853,7.9176 -37.8949,-20.5002 -7.19857,-57.1603 z"
       id="path4508-2"
       inkscape:connector-curvature="0"
       sodipodi:nodetypes="cccccccccccccccccccccccccccc" />
    <path
       style="fill:#ffffff;fill-rule:evenodd;stroke:none;stroke-width:0.999998px;stroke-linecap:butt;stroke-linejoin:miter;stroke-opacity:1"
       d="m 981.01706,1712.6543 -82.47964,-69.3619 -21.73828,-20.9157 -3.89619,33.8993 c -113.19185,-60.793 -107.41261,-104.6482 -123.16199,-63.0392 -19.42613,51.3227 45.72551,35.5105 135.52361,93.9205 4.43214,-8.2819 5.06237,-18.0952 6.91438,-27.2171 z"
       id="path1111-3-3"
       inkscape:connector-curvature="0"
       sodipodi:nodetypes="ccccsccc" />
  </g>
  <g
     inkscape:groupmode="layer"
     id="layer1"
     inkscape:label="txt">
    <text
       xml:space="preserve"
       style="font-style:normal;font-variant:normal;font-weight:bold;font-stretch:normal;line-height:0%;font-family:ComicSpice;-inkscape-font-specification:'ComicSpice Bold';text-align:center;letter-spacing:0px;word-spacing:0px;text-anchor:middle;fill:#ffffff;fill-opacity:1;stroke:none"
       x="330.38358"
       y="306.20593"
       id="text4246-3-2-2"
       transform="scale(0.96891819,1.0320789)"><tspan
         style="font-style:normal;font-variant:normal;font-weight:bold;font-stretch:normal;font-size:64.9135px;line-height:1.25;font-family:ComicSpice;-inkscape-font-specification:'ComicSpice Bold';fill:#ffffff"
         sodipodi:role="line"
         x="330.38358"
         y="306.20593"
         id="tspan915">KHÔNG!</tspan><tspan
         style="font-style:normal;font-variant:normal;font-weight:bold;font-stretch:normal;font-size:64.9135px;line-height:1.25;font-family:ComicSpice;-inkscape-font-specification:'ComicSpice Bold';fill:#ffffff"
         sodipodi:role="line"
         x="336.58014"
         y="387.34781"
         id="tspan905"> </tspan></text>
    <text
       xml:space="preserve"
       style="font-style:normal;font-variant:normal;font-weight:bold;font-stretch:normal;line-height:0%;font-family:ComicSpice;-inkscape-font-specification:'ComicSpice Bold';text-align:center;letter-spacing:0px;word-spacing:0px;text-anchor:middle;fill:#ffffff;fill-opacity:1;stroke:none"
       x="2086.762"
       y="299.48114"
       id="text4246-3-2-2-3"><tspan
         style="font-style:normal;font-variant:normal;font-weight:bold;font-stretch:normal;font-size:45px;line-height:1.25;font-family:ComicSpice;-inkscape-font-specification:'ComicSpice Bold';fill:#ffffff"
         sodipodi:role="line"
         x="2086.762"
         y="299.48114"
         id="tspan906">Tôi không</tspan><tspan
         style="font-style:normal;font-variant:normal;font-weight:bold;font-stretch:normal;font-size:45px;line-height:1.25;font-family:ComicSpice;-inkscape-font-specification:'ComicSpice Bold';fill:#ffffff"
         sodipodi:role="line"
         x="2086.762"
         y="355.73114"
         id="tspan7742">phải là người</tspan><tspan
         style="font-style:normal;font-variant:normal;font-weight:bold;font-stretch:normal;font-size:45px;line-height:1.25;font-family:ComicSpice;-inkscape-font-specification:'ComicSpice Bold';fill:#ffffff"
         sodipodi:role="line"
         x="2086.762"
         y="411.98114"
         id="tspan7744">như vậy!</tspan></text>
    <text
       xml:space="preserve"
       style="font-style:normal;font-variant:normal;font-weight:bold;font-stretch:normal;line-height:0%;font-family:ComicSpice;-inkscape-font-specification:'ComicSpice Bold';text-align:center;letter-spacing:0px;word-spacing:0px;text-anchor:middle;fill:#000000;fill-opacity:1;stroke:none"
       x="615.79883"
       y="896.21271"
       id="text4246-3-2-2-3-5"
       transform="matrix(0.95619489,-0.06824752,0,1.0458119,0,0)"><tspan
         sodipodi:role="line"
         x="622.37079"
         y="896.21271"
         id="tspan906-6"
         style="font-style:normal;font-variant:normal;font-weight:bold;font-stretch:normal;font-size:68.846px;line-height:1.25;font-family:ComicSpice;-inkscape-font-specification:'ComicSpice Bold'">DỪNG LẠI!!! </tspan></text>
    <text
       xml:space="preserve"
       style="font-style:normal;font-variant:normal;font-weight:bold;font-stretch:normal;line-height:0%;font-family:ComicSpice;-inkscape-font-specification:'ComicSpice Bold';text-align:center;letter-spacing:0px;word-spacing:0px;text-anchor:middle;fill:#000000;fill-opacity:1;stroke:none"
       x="592.07495"
       y="1609.231"
       id="text4246-3-2-2-3-1"><tspan
         style="font-style:normal;font-variant:normal;font-weight:bold;font-stretch:normal;font-size:56.8892px;line-height:1.25;font-family:ComicSpice;-inkscape-font-specification:'ComicSpice Bold'"
         sodipodi:role="line"
         x="592.07495"
         y="1609.231"
         id="tspan1006">TÔI ĐẦU HÀNG!</tspan></text>
  </g>
</svg>
