<?xml version="1.0" encoding="UTF-8" standalone="no"?>
<svg
   xmlns:dc="http://purl.org/dc/elements/1.1/"
   xmlns:cc="http://creativecommons.org/ns#"
   xmlns:rdf="http://www.w3.org/1999/02/22-rdf-syntax-ns#"
   xmlns:svg="http://www.w3.org/2000/svg"
   xmlns="http://www.w3.org/2000/svg"
   xmlns:xlink="http://www.w3.org/1999/xlink"
   xmlns:sodipodi="http://sodipodi.sourceforge.net/DTD/sodipodi-0.dtd"
   xmlns:inkscape="http://www.inkscape.org/namespaces/inkscape"
   sodipodi:docname="E09P05.svg"
   height="3503"
   width="2481"
   inkscape:version="1.0 (4035a4f, 2020-05-01)"
   version="1.1"
   id="svg2">
  <sodipodi:namedview
     inkscape:window-maximized="0"
     inkscape:window-y="23"
     inkscape:window-x="0"
     inkscape:document-rotation="0"
     inkscape:current-layer="layer1"
     inkscape:cy="2963.4352"
     inkscape:cx="1315.5342"
     inkscape:zoom="0.38571429"
     showgrid="false"
     id="namedview70"
     inkscape:window-height="782"
     inkscape:window-width="1440"
     inkscape:pageshadow="2"
     inkscape:pageopacity="0"
     bordercolor="#666666"
     pagecolor="#ffffff" />
  <metadata
     id="metadata8">
    <rdf:RDF>
      <cc:Work
         rdf:about="">
        <dc:format>image/svg+xml</dc:format>
        <dc:type
           rdf:resource="http://purl.org/dc/dcmitype/StillImage" />
        <dc:title />
      </cc:Work>
    </rdf:RDF>
  </metadata>
  <defs
     id="defs6">
    <filter
       inkscape:label="deevad outline effect"
       id="filter4375-4-1-1-1"
       style="color-interpolation-filters:sRGB">
      <feFlood
         result="flood"
         flood-color="rgb(0,0,0)"
         flood-opacity="1"
         id="feFlood4377-7-9-0-8" />
      <feComposite
         result="composite1"
         operator="in"
         in="flood"
         in2="SourceGraphic"
         id="feComposite4379-3-8-8-2" />
      <feMorphology
         result="result3"
         radius="4"
         operator="dilate"
         id="feMorphology4393-1-0-49-8" />
      <feComposite
         result="composite2"
         operator="over"
         in="SourceGraphic"
         in2="result3"
         id="feComposite4385-9-5-7-0" />
    </filter>
    <filter
       inkscape:label="deevad outline effect"
       id="filter4375-4-1-1-1-3"
       style="color-interpolation-filters:sRGB">
      <feFlood
         result="flood"
         flood-color="rgb(0,0,0)"
         flood-opacity="1"
         id="feFlood4377-7-9-0-8-3" />
      <feComposite
         result="composite1"
         operator="in"
         in="flood"
         in2="SourceGraphic"
         id="feComposite4379-3-8-8-2-7" />
      <feMorphology
         result="result3"
         radius="4"
         operator="dilate"
         id="feMorphology4393-1-0-49-8-2" />
      <feComposite
         result="composite2"
         operator="over"
         in="SourceGraphic"
         in2="result3"
         id="feComposite4385-9-5-7-0-5" />
    </filter>
    <filter
       inkscape:label="deevad outline effect"
       id="filter4375-4-1-1-1-8"
       style="color-interpolation-filters:sRGB">
      <feFlood
         result="flood"
         flood-color="rgb(0,0,0)"
         flood-opacity="1"
         id="feFlood4377-7-9-0-8-1" />
      <feComposite
         result="composite1"
         operator="in"
         in="flood"
         in2="SourceGraphic"
         id="feComposite4379-3-8-8-2-1" />
      <feMorphology
         result="result3"
         radius="4"
         operator="dilate"
         id="feMorphology4393-1-0-49-8-4" />
      <feComposite
         result="composite2"
         operator="over"
         in="SourceGraphic"
         in2="result3"
         id="feComposite4385-9-5-7-0-6" />
    </filter>
    <filter
       inkscape:label="deevad outline effect"
       id="filter4375-4-1-1-1-9"
       style="color-interpolation-filters:sRGB">
      <feFlood
         result="flood"
         flood-color="rgb(0,0,0)"
         flood-opacity="1"
         id="feFlood4377-7-9-0-8-5" />
      <feComposite
         result="composite1"
         operator="in"
         in="flood"
         in2="SourceGraphic"
         id="feComposite4379-3-8-8-2-74" />
      <feMorphology
         result="result3"
         radius="4"
         operator="dilate"
         id="feMorphology4393-1-0-49-8-3" />
      <feComposite
         result="composite2"
         operator="over"
         in="SourceGraphic"
         in2="result3"
         id="feComposite4385-9-5-7-0-8" />
    </filter>
  </defs>
  <sodipodi:namedview
     inkscape:current-layer="layer1"
     inkscape:window-maximized="1"
     inkscape:window-y="26"
     inkscape:window-x="0"
     inkscape:cy="1207.6762"
     inkscape:cx="1168.1701"
     inkscape:zoom="0.3478261"
     showgrid="false"
     id="namedview4"
     inkscape:window-height="1025"
     inkscape:window-width="1920"
     inkscape:pageshadow="2"
     inkscape:pageopacity="0"
     guidetolerance="10"
     gridtolerance="10"
     objecttolerance="10"
     borderopacity="1"
     bordercolor="#666666"
     pagecolor="#ffffff" />
  <g
     sodipodi:insensitive="true"
     inkscape:label="artwork"
     id="layer2"
     inkscape:groupmode="layer">
    <image
       sodipodi:absref="/Users/julienj-mauduit/Downloads/lang-2/gfx_Pepper-and-Carrot_by-David-Revoy_E09P05.png"
       xlink:href="../gfx_Pepper-and-Carrot_by-David-Revoy_E09P05.png"
       width="2481"
       height="3503"
       id="image10"
       x="0"
       y="0" />
  </g>
  <g
     inkscape:label="speechbubbles"
     id="layer3"
     inkscape:groupmode="layer" />
  <g
     inkscape:label="txt"
     id="layer1"
     inkscape:groupmode="layer">
    <path
       sodipodi:nodetypes="ccccccccccccccccccccccccccccc"
       inkscape:connector-curvature="0"
       id="path3549"
       d="m 1311.0327,2668.4656 c 50.6118,17.9366 102.2253,35.6747 12.2222,81.4808 85.4642,-11.8136 33.1768,13.5287 12.2222,30.4195 134.1204,-3.8326 -23.6623,71.4844 -61.1197,104.1917 34.0105,-13.0351 156.738,-84.2802 145.5637,-49.871 10.8133,-2.3383 23.5367,-9.0348 28.8889,1.0864 13.7776,-6.9891 17.6958,-9.7183 23.6824,-5.2801 13.5409,-12.719 30.1875,-17.9369 24.3281,-3.5746 23.331,-18.889 20.956,-4.5355 24.2114,0.1634 21.9713,-22.4959 30.177,-16.1498 38.8888,-10.8641 12.4398,-13.5068 26.9975,-10.4476 43.3332,6.5184 16.7141,-22.9716 34.6744,-21.574 53.3331,-6.5184 5.4801,-5.659 31.6356,-16.0711 39.8766,4.9231 9.2492,-8.7424 33.2308,-27.9269 57.2126,-0.8075 19.2501,-20.747 65.3214,-22.5977 91.7989,3.4892 7.5197,-14.6166 35.1194,-28.4869 69.9997,-15.2096 3.2606,-13.5579 21.963,-19.0629 54.4442,-17.3827 -33.3152,-16.3621 -35.0291,-25.677 42.2221,-17.3826 -53.8445,-13.3991 -103.4649,-26.7981 -19.9999,-40.1972 -19.5485,-5.3195 -83.4439,7.1942 -13.3334,-56.4934 -49.7853,14.0563 -94.981,17.7084 -108.8884,-39.1108 -26.8583,14.9425 -56.5963,22.3447 -79.9996,-11.9506 -21.3161,16.0691 -51.1413,12.2112 -66.6664,4.3456 -4.2006,17.5989 -35.9213,44.5895 -78.8886,-4.3456 9.4273,27.8138 2.2917,72.1151 -47.7776,-1.0864 -0.993,12.7338 19.6253,81.9829 -119.9995,-1.0865 17.4171,55.7329 -28.9417,23.3035 -65.5555,4.3456 18.1564,34.9432 -9.1681,37.6454 -68.8885,17.3826 46.0702,33.179 -1.3005,24.0185 -31.111,22.8148 z"
       style="color:#000000;display:inline;overflow:visible;visibility:visible;fill:#ffffff;fill-opacity:1;fill-rule:nonzero;stroke:none;stroke-width:1.06146px;marker:none;enable-background:accumulate" />
    <flowRoot
       transform="matrix(0.94497198,-0.30283318,0.33037145,1.0309034,866.21843,878.47873)"
       style="color:#000000;font-style:normal;font-variant:normal;font-weight:normal;font-stretch:normal;line-height:0.01%;font-family:Arial;-inkscape-font-specification:Arial;letter-spacing:0px;word-spacing:0px;display:inline;overflow:visible;visibility:visible;fill:#ffd42a;fill-opacity:1;fill-rule:nonzero;stroke:#ffd42a;stroke-width:4.38198;stroke-opacity:1;marker:none;enable-background:accumulate"
       id="flowRoot3063-8"
       xml:space="preserve"><flowRegion
         style="stroke-width:4.38198"
         id="flowRegion3065-8"><rect
           style="color:#000000;font-size:72px;display:inline;overflow:visible;visibility:visible;fill:#ffd42a;fill-opacity:1;fill-rule:nonzero;stroke:#ffd42a;stroke-width:4.3819828;stroke-opacity:1;marker:none;enable-background:accumulate"
           y="425.30325"
           x="92.642677"
           height="90.046997"
           width="248.66193"
           id="rect3067-6" /></flowRegion><flowPara
         id="flowPara3188"
         style="color:#000000;font-style:normal;font-variant:normal;font-weight:normal;font-stretch:normal;font-size:64px;line-height:1.25;font-family:Lavi;-inkscape-font-specification:Lavi;text-align:center;text-anchor:middle;display:inline;overflow:visible;visibility:visible;fill:#ffd42a;fill-opacity:1;fill-rule:nonzero;stroke:#ffd42a;stroke-width:3.45423;stroke-miterlimit:4;stroke-dasharray:none;stroke-opacity:1;marker:none;enable-background:accumulate">Glap</flowPara></flowRoot>
    <flowRoot
       transform="matrix(0.7449843,-0.21593102,0.2604538,0.73507145,1009.8852,1048.4176)"
       style="color:#000000;font-style:normal;font-variant:normal;font-weight:normal;font-stretch:normal;line-height:0.01%;font-family:Arial;-inkscape-font-specification:Arial;letter-spacing:0px;word-spacing:0px;display:inline;overflow:visible;visibility:visible;fill:#ffd42a;fill-opacity:1;fill-rule:nonzero;stroke:#ffd42a;stroke-width:4.38198;stroke-opacity:1;marker:none;enable-background:accumulate"
       id="flowRoot3063-8-0"
       xml:space="preserve"><flowRegion
         style="stroke-width:4.38198"
         id="flowRegion3065-8-3"><rect
           style="color:#000000;font-size:72px;display:inline;overflow:visible;visibility:visible;fill:#ffd42a;fill-opacity:1;fill-rule:nonzero;stroke:#ffd42a;stroke-width:4.3819828;stroke-opacity:1;marker:none;enable-background:accumulate"
           y="425.30325"
           x="92.642677"
           height="90.046997"
           width="248.66193"
           id="rect3067-6-9" /></flowRegion><flowPara
         id="flowPara3188-4"
         style="color:#000000;font-style:normal;font-variant:normal;font-weight:normal;font-stretch:normal;font-size:64px;line-height:1.25;font-family:Lavi;-inkscape-font-specification:Lavi;text-align:center;text-anchor:middle;display:inline;overflow:visible;visibility:visible;fill:#ffd42a;fill-opacity:1;fill-rule:nonzero;stroke:#ffd42a;stroke-width:3.45423;stroke-miterlimit:4;stroke-dasharray:none;stroke-opacity:1;marker:none;enable-background:accumulate">Glap</flowPara></flowRoot>
    <flowRoot
       transform="matrix(0.69985809,-0.7034761,0.76744698,0.76349997,-251.97938,298.69889)"
       style="color:#000000;font-style:normal;font-variant:normal;font-weight:normal;font-stretch:normal;line-height:0.01%;font-family:Arial;-inkscape-font-specification:Arial;letter-spacing:0px;word-spacing:0px;display:inline;overflow:visible;visibility:visible;fill:#ffc022;fill-opacity:1;fill-rule:nonzero;stroke:#ffc022;stroke-width:4.38198;stroke-opacity:1;marker:none;enable-background:accumulate"
       id="flowRoot3063-8-03"
       xml:space="preserve"><flowRegion
         style="stroke-width:4.38198"
         id="flowRegion3065-8-1"><rect
           style="color:#000000;font-size:72px;display:inline;overflow:visible;visibility:visible;fill:#ffc022;fill-opacity:1;fill-rule:nonzero;stroke:#ffc022;stroke-width:4.3819828;stroke-opacity:1;marker:none;enable-background:accumulate"
           y="425.30325"
           x="92.642677"
           height="143.73161"
           width="423.32761"
           id="rect3067-6-8" /></flowRegion><flowPara
         id="flowPara3188-8"
         style="color:#000000;font-style:normal;font-variant:normal;font-weight:normal;font-stretch:normal;font-size:64px;line-height:1.25;font-family:Lavi;-inkscape-font-specification:Lavi;text-align:center;text-anchor:middle;display:inline;overflow:visible;visibility:visible;fill:#ffc022;fill-opacity:1;fill-rule:nonzero;stroke:#ffc022;stroke-width:3.45423;stroke-miterlimit:4;stroke-dasharray:none;stroke-opacity:1;marker:none;enable-background:accumulate">Miaaaoouu  !</flowPara></flowRoot>
    <flowRoot
       transform="matrix(0.90934859,-0.39719657,0.43331581,0.99204057,323.39674,1108.6169)"
       style="color:#000000;font-style:normal;font-variant:normal;font-weight:normal;font-stretch:normal;line-height:0.01%;font-family:Arial;-inkscape-font-specification:Arial;letter-spacing:0px;word-spacing:0px;display:inline;overflow:visible;visibility:visible;fill:#ffccaa;fill-opacity:1;fill-rule:nonzero;stroke:#ffccaa;stroke-width:4.38198;stroke-opacity:1;marker:none;enable-background:accumulate"
       id="flowRoot3063-8-03-1"
       xml:space="preserve"><flowRegion
         style="stroke-width:4.38198"
         id="flowRegion3065-8-1-9"><rect
           style="color:#000000;font-size:72px;display:inline;overflow:visible;visibility:visible;fill:#ffccaa;fill-opacity:1;fill-rule:nonzero;stroke:#ffccaa;stroke-width:4.3819828;stroke-opacity:1;marker:none;enable-background:accumulate"
           y="425.30325"
           x="92.642677"
           height="120.68928"
           width="352.97433"
           id="rect3067-6-8-6" /></flowRegion><flowPara
         id="flowPara3188-8-3"
         style="color:#000000;font-style:normal;font-variant:normal;font-weight:normal;font-stretch:normal;font-size:64px;line-height:1.25;font-family:Lavi;-inkscape-font-specification:Lavi;text-align:center;text-anchor:middle;display:inline;overflow:visible;visibility:visible;fill:#ffccaa;fill-opacity:1;fill-rule:nonzero;stroke:#ffccaa;stroke-width:3.45423;stroke-miterlimit:4;stroke-dasharray:none;stroke-opacity:1;marker:none;enable-background:accumulate">Miii</flowPara></flowRoot>
    <flowRoot
       transform="matrix(0.77642497,-0.31599775,0.33354997,0.75284562,462.6793,1234.6959)"
       style="color:#000000;font-style:normal;font-variant:normal;font-weight:normal;font-stretch:normal;line-height:0.01%;font-family:Arial;-inkscape-font-specification:Arial;letter-spacing:0px;word-spacing:0px;display:inline;overflow:visible;visibility:visible;fill:#ffccaa;fill-opacity:1;fill-rule:nonzero;stroke:#ffccaa;stroke-width:4.38198;stroke-opacity:1;marker:none;enable-background:accumulate"
       id="flowRoot3063-8-03-1-0"
       xml:space="preserve"><flowRegion
         style="stroke-width:4.38198"
         id="flowRegion3065-8-1-9-3"><rect
           style="color:#000000;font-size:72px;display:inline;overflow:visible;visibility:visible;fill:#ffccaa;fill-opacity:1;fill-rule:nonzero;stroke:#ffccaa;stroke-width:4.3819828;stroke-opacity:1;marker:none;enable-background:accumulate"
           y="425.30325"
           x="92.642677"
           height="120.68928"
           width="352.97433"
           id="rect3067-6-8-6-1" /></flowRegion><flowPara
         id="flowPara3188-8-3-5"
         style="color:#000000;font-style:normal;font-variant:normal;font-weight:normal;font-stretch:normal;font-size:64px;line-height:1.25;font-family:Lavi;-inkscape-font-specification:Lavi;text-align:center;text-anchor:middle;display:inline;overflow:visible;visibility:visible;fill:#ffccaa;fill-opacity:1;fill-rule:nonzero;stroke:#ffccaa;stroke-width:3.45423;stroke-miterlimit:4;stroke-dasharray:none;stroke-opacity:1;marker:none;enable-background:accumulate">Miii</flowPara></flowRoot>
    <flowRoot
       transform="matrix(0.94497198,-0.30283318,0.33037145,1.0309034,1001.1473,1741.5055)"
       style="color:#000000;font-style:normal;font-variant:normal;font-weight:normal;font-stretch:normal;line-height:0.01%;font-family:Arial;-inkscape-font-specification:Arial;letter-spacing:0px;word-spacing:0px;display:inline;overflow:visible;visibility:visible;fill:#6c6753;fill-opacity:1;fill-rule:nonzero;stroke:#6c6753;stroke-width:4.38198;stroke-opacity:1;marker:none;enable-background:accumulate"
       id="flowRoot3063-8-9"
       xml:space="preserve"><flowRegion
         style="stroke-width:4.38198"
         id="flowRegion3065-8-34"><rect
           style="color:#000000;font-size:72px;display:inline;overflow:visible;visibility:visible;fill:#6c6753;fill-opacity:1;fill-rule:nonzero;stroke:#6c6753;stroke-width:4.3819828;stroke-opacity:1;marker:none;enable-background:accumulate"
           y="425.30325"
           x="92.642677"
           height="90.046997"
           width="248.66193"
           id="rect3067-6-0" /></flowRegion><flowPara
         id="flowPara3188-0"
         style="color:#000000;font-style:normal;font-variant:normal;font-weight:normal;font-stretch:normal;font-size:64px;line-height:1.25;font-family:Lavi;-inkscape-font-specification:Lavi;text-align:center;text-anchor:middle;display:inline;overflow:visible;visibility:visible;fill:#6c6753;fill-opacity:1;fill-rule:nonzero;stroke:#6c6753;stroke-width:3.45423;stroke-miterlimit:4;stroke-dasharray:none;stroke-opacity:1;marker:none;enable-background:accumulate">Cot</flowPara></flowRoot>
    <flowRoot
       transform="matrix(0.78901976,-0.0275263,0.03366822,0.76773924,1211.2058,1869.8971)"
       style="color:#000000;font-style:normal;font-variant:normal;font-weight:normal;font-stretch:normal;line-height:0.01%;font-family:Arial;-inkscape-font-specification:Arial;letter-spacing:0px;word-spacing:0px;display:inline;overflow:visible;visibility:visible;fill:#6c6753;fill-opacity:1;fill-rule:nonzero;stroke:#6c6753;stroke-width:4.38198;stroke-opacity:1;marker:none;enable-background:accumulate"
       id="flowRoot3063-8-9-1"
       xml:space="preserve"><flowRegion
         style="stroke-width:4.38198"
         id="flowRegion3065-8-34-7"><rect
           style="color:#000000;font-size:72px;display:inline;overflow:visible;visibility:visible;fill:#6c6753;fill-opacity:1;fill-rule:nonzero;stroke:#6c6753;stroke-width:4.3819828;stroke-opacity:1;marker:none;enable-background:accumulate"
           y="425.30325"
           x="92.642677"
           height="90.046997"
           width="248.66193"
           id="rect3067-6-0-3" /></flowRegion><flowPara
         id="flowPara3188-0-2"
         style="color:#000000;font-style:normal;font-variant:normal;font-weight:normal;font-stretch:normal;font-size:64px;line-height:1.25;font-family:Lavi;-inkscape-font-specification:Lavi;text-align:center;text-anchor:middle;display:inline;overflow:visible;visibility:visible;fill:#6c6753;fill-opacity:1;fill-rule:nonzero;stroke:#6c6753;stroke-width:3.45423;stroke-miterlimit:4;stroke-dasharray:none;stroke-opacity:1;marker:none;enable-background:accumulate">Cot</flowPara></flowRoot>
    <flowRoot
       transform="translate(1135.7727,2410.8593)"
       style="font-style:normal;font-variant:normal;font-weight:normal;font-stretch:normal;line-height:0.01%;font-family:Lavi;-inkscape-font-specification:Lavi;text-align:center;letter-spacing:0px;word-spacing:0px;text-anchor:middle;fill:#000000;fill-opacity:1;stroke:none"
       id="flowRoot2987-4-9-3"
       xml:space="preserve"><flowRegion
         id="flowRegion2989-5-4-5"><rect
           style="font-style:normal;font-variant:normal;font-weight:normal;font-stretch:normal;font-family:Lavi;-inkscape-font-specification:Lavi;text-align:center;text-anchor:middle"
           y="265.53046"
           x="120.55251"
           height="138.23993"
           width="807.40167"
           id="rect2991-7-9-6" /></flowRegion><flowPara
         id="flowPara4218"
         style="font-size:48px;line-height:1.25;text-align:center;text-anchor:middle">À mén laboratouère, </flowPara><flowPara
         id="flowPara4222"
         style="font-size:48px;line-height:1.25;text-align:center;text-anchor:middle">i peuvent ptête mouori !</flowPara></flowRoot>
    <path
       sodipodi:nodetypes="ccccccccccccccc"
       inkscape:connector-curvature="0"
       id="path3549-3"
       d="m 908.5297,2832.6873 c 3.92184,-14.401 31.627,-79.1758 172.444,9.6387 -106.30128,-88.9784 -84.32688,-91.5724 -46.791,-90.1023 -16.3741,-10.2271 -21.4871,-35.0817 11.175,-45.218 -16.1717,-9.7431 -15.0582,-22.681 1.4783,-38.4698 -35.9778,7.4939 -48.83608,2.8436 -3.9229,-32.1531 -41.2004,19.8653 -80.53458,37.5475 -61.05708,-13.5538 -15.549,6.9417 -27.52875,47.4025 -79.28071,-26.685 -3.74049,34.0852 -18.96852,59.6144 -98.92625,33.0327 7.54235,22.7622 4.01697,42.5313 -50.87714,34.2441 11.45503,20.5674 -23.56788,40.6323 -40.64636,43.9815 47.13451,5.4882 58.66038,17.9599 23.82594,38.5935 97.80318,3.3292 41.96463,23.8053 41.18996,37.7052 60.87116,-12.7208 54.68743,13.246 61.49804,32.5075 56.17983,-27.8984 47.84523,-1.2965 69.8902,16.4788 z"
       style="color:#000000;display:inline;overflow:visible;visibility:visible;fill:#ffffff;fill-opacity:1;fill-rule:nonzero;stroke:none;stroke-width:1.16921px;marker:none;enable-background:accumulate" />
    <flowRoot
       transform="matrix(1.2398641,0,0,1.2398641,372.66647,2352.9673)"
       style="font-style:normal;font-variant:normal;font-weight:normal;font-stretch:normal;line-height:0.01%;font-family:Lavi;-inkscape-font-specification:Lavi;text-align:center;letter-spacing:0px;word-spacing:0px;text-anchor:middle;fill:#000000;fill-opacity:1;stroke:none"
       id="flowRoot2987-4-9-3-0"
       xml:space="preserve"><flowRegion
         id="flowRegion2989-5-4-5-1"><rect
           style="font-style:normal;font-variant:normal;font-weight:normal;font-stretch:normal;font-family:Lavi;-inkscape-font-specification:Lavi;text-align:center;text-anchor:middle"
           y="265.53046"
           x="120.55251"
           height="310.73996"
           width="602.40173"
           id="rect2991-7-9-6-4" /></flowRegion><flowPara
         id="flowPara3030-8-7"
         style="font-size:48px;line-height:1.25;text-align:center;letter-spacing:1.5px;text-anchor:middle;stroke:#000000;stroke-width:1.1;stroke-miterlimit:4;stroke-dasharray:none;stroke-opacity:1">À coup !</flowPara></flowRoot>
    <flowRoot
       transform="matrix(0.7887004,-0.76050837,0.82966552,0.86042118,-238.14966,365.78067)"
       style="color:#000000;font-style:normal;font-variant:normal;font-weight:normal;font-stretch:normal;line-height:0.01%;font-family:Arial;-inkscape-font-specification:Arial;letter-spacing:0px;word-spacing:0px;display:inline;overflow:visible;visibility:visible;fill:#ffd42a;fill-opacity:1;fill-rule:nonzero;stroke:#ffd42a;stroke-width:4.38198;stroke-opacity:1;marker:none;enable-background:accumulate"
       id="flowRoot3063-8-4"
       xml:space="preserve"><flowRegion
         style="stroke-width:4.38198"
         id="flowRegion3065-8-5"><rect
           style="color:#000000;font-size:72px;display:inline;overflow:visible;visibility:visible;fill:#ffd42a;fill-opacity:1;fill-rule:nonzero;stroke:#ffd42a;stroke-width:4.3819828;stroke-opacity:1;marker:none;enable-background:accumulate"
           y="425.30325"
           x="92.642677"
           height="90.046997"
           width="248.66193"
           id="rect3067-6-3" /></flowRegion><flowPara
         id="flowPara3188-9"
         style="color:#000000;font-style:normal;font-variant:normal;font-weight:normal;font-stretch:normal;font-size:64px;line-height:1.25;font-family:Lavi;-inkscape-font-specification:Lavi;text-align:center;text-anchor:middle;display:inline;overflow:visible;visibility:visible;fill:#ffd42a;fill-opacity:1;fill-rule:nonzero;stroke:#ffd42a;stroke-width:3.45423;stroke-miterlimit:4;stroke-dasharray:none;stroke-opacity:1;marker:none;enable-background:accumulate">Glap</flowPara></flowRoot>
    <flowRoot
       transform="matrix(0.59099277,-0.50234983,0.53889606,0.56369962,52.383887,352.37512)"
       style="color:#000000;font-style:normal;font-variant:normal;font-weight:normal;font-stretch:normal;line-height:0.01%;font-family:Arial;-inkscape-font-specification:Arial;letter-spacing:0px;word-spacing:0px;display:inline;overflow:visible;visibility:visible;fill:#ffd42a;fill-opacity:1;fill-rule:nonzero;stroke:#ffd42a;stroke-width:4.38198;stroke-opacity:1;marker:none;enable-background:accumulate"
       id="flowRoot3063-8-0-2"
       xml:space="preserve"><flowRegion
         style="stroke-width:4.38198"
         id="flowRegion3065-8-3-4"><rect
           style="color:#000000;font-size:72px;display:inline;overflow:visible;visibility:visible;fill:#ffd42a;fill-opacity:1;fill-rule:nonzero;stroke:#ffd42a;stroke-width:4.3819828;stroke-opacity:1;marker:none;enable-background:accumulate"
           y="425.30325"
           x="92.642677"
           height="90.046997"
           width="248.66193"
           id="rect3067-6-9-9" /></flowRegion><flowPara
         id="flowPara3188-4-0"
         style="color:#000000;font-style:normal;font-variant:normal;font-weight:normal;font-stretch:normal;font-size:64px;line-height:1.25;font-family:Lavi;-inkscape-font-specification:Lavi;text-align:center;text-anchor:middle;display:inline;overflow:visible;visibility:visible;fill:#ffd42a;fill-opacity:1;fill-rule:nonzero;stroke:#ffd42a;stroke-width:3.45423;stroke-miterlimit:4;stroke-dasharray:none;stroke-opacity:1;marker:none;enable-background:accumulate">Glap</flowPara></flowRoot>
    <flowRoot
       transform="matrix(0.98240648,-0.13984811,0.15256526,1.071742,1583.9812,1224.0391)"
       style="color:#000000;font-style:normal;font-variant:normal;font-weight:normal;font-stretch:normal;line-height:0.01%;font-family:Arial;-inkscape-font-specification:Arial;letter-spacing:0px;word-spacing:0px;display:inline;overflow:visible;visibility:visible;fill:#ffc022;fill-opacity:1;fill-rule:nonzero;stroke:#ffc022;stroke-width:4.38198;stroke-opacity:1;marker:none;enable-background:accumulate"
       id="flowRoot3063-8-03-4"
       xml:space="preserve"><flowRegion
         style="stroke-width:4.38198"
         id="flowRegion3065-8-1-0"><rect
           style="color:#000000;font-size:72px;display:inline;overflow:visible;visibility:visible;fill:#ffc022;fill-opacity:1;fill-rule:nonzero;stroke:#ffc022;stroke-width:4.3819828;stroke-opacity:1;marker:none;enable-background:accumulate"
           y="425.30325"
           x="92.642677"
           height="120.68928"
           width="352.97433"
           id="rect3067-6-8-8" /></flowRegion><flowPara
         id="flowPara3188-8-31"
         style="color:#000000;font-style:normal;font-variant:normal;font-weight:normal;font-stretch:normal;font-size:64px;line-height:1.25;font-family:Lavi;-inkscape-font-specification:Lavi;text-align:center;text-anchor:middle;display:inline;overflow:visible;visibility:visible;fill:#ffc022;fill-opacity:1;fill-rule:nonzero;stroke:#ffc022;stroke-width:3.45423;stroke-miterlimit:4;stroke-dasharray:none;stroke-opacity:1;marker:none;enable-background:accumulate">Miaaaoouu</flowPara></flowRoot>
    <flowRoot
       transform="matrix(1.0286168,-0.76308527,0.78008336,0.98704604,-252.8807,428.79751)"
       style="color:#000000;font-style:normal;font-variant:normal;font-weight:normal;font-stretch:normal;line-height:0.01%;font-family:Arial;-inkscape-font-specification:Arial;letter-spacing:0px;word-spacing:0px;display:inline;overflow:visible;visibility:visible;fill:#ffccaa;fill-opacity:1;fill-rule:nonzero;stroke:#ffccaa;stroke-width:4.38198;stroke-opacity:1;marker:none;enable-background:accumulate"
       id="flowRoot3063-8-03-1-0-2"
       xml:space="preserve"><flowRegion
         style="stroke-width:4.38198"
         id="flowRegion3065-8-1-9-3-6"><rect
           style="color:#000000;font-size:72px;display:inline;overflow:visible;visibility:visible;fill:#ffccaa;fill-opacity:1;fill-rule:nonzero;stroke:#ffccaa;stroke-width:4.3819828;stroke-opacity:1;marker:none;enable-background:accumulate"
           y="425.30325"
           x="92.642677"
           height="120.68928"
           width="352.97433"
           id="rect3067-6-8-6-1-9" /></flowRegion><flowPara
         id="flowPara3188-8-3-5-4"
         style="color:#000000;font-style:normal;font-variant:normal;font-weight:normal;font-stretch:normal;font-size:64px;line-height:1.25;font-family:Lavi;-inkscape-font-specification:Lavi;text-align:center;text-anchor:middle;display:inline;overflow:visible;visibility:visible;fill:#ffccaa;fill-opacity:1;fill-rule:nonzero;stroke:#ffccaa;stroke-width:3.45423;stroke-miterlimit:4;stroke-dasharray:none;stroke-opacity:1;marker:none;enable-background:accumulate">Miii</flowPara></flowRoot>
    <flowRoot
       transform="matrix(0.77195084,-0.62351574,0.6802154,0.8421485,-34.960884,383.55763)"
       style="color:#000000;font-style:normal;font-variant:normal;font-weight:normal;font-stretch:normal;line-height:0.01%;font-family:Arial;-inkscape-font-specification:Arial;letter-spacing:0px;word-spacing:0px;display:inline;overflow:visible;visibility:visible;fill:#ffccaa;fill-opacity:1;fill-rule:nonzero;stroke:#ffccaa;stroke-width:4.38198;stroke-opacity:1;marker:none;enable-background:accumulate"
       id="flowRoot3063-8-03-1-05"
       xml:space="preserve"><flowRegion
         style="stroke-width:4.38198"
         id="flowRegion3065-8-1-9-9"><rect
           style="color:#000000;font-size:72px;display:inline;overflow:visible;visibility:visible;fill:#ffccaa;fill-opacity:1;fill-rule:nonzero;stroke:#ffccaa;stroke-width:4.3819828;stroke-opacity:1;marker:none;enable-background:accumulate"
           y="425.30325"
           x="92.642677"
           height="120.68928"
           width="352.97433"
           id="rect3067-6-8-6-15" /></flowRegion><flowPara
         id="flowPara3188-8-3-0"
         style="color:#000000;font-style:normal;font-variant:normal;font-weight:normal;font-stretch:normal;font-size:64px;line-height:1.25;font-family:Lavi;-inkscape-font-specification:Lavi;text-align:center;text-anchor:middle;display:inline;overflow:visible;visibility:visible;fill:#ffccaa;fill-opacity:1;fill-rule:nonzero;stroke:#ffccaa;stroke-width:3.45423;stroke-miterlimit:4;stroke-dasharray:none;stroke-opacity:1;marker:none;enable-background:accumulate">Miii</flowPara></flowRoot>
    <flowRoot
       transform="matrix(0.94974412,-0.62604982,0.68297993,1.0361095,-86.856923,433.45781)"
       style="color:#000000;font-style:normal;font-variant:normal;font-weight:normal;font-stretch:normal;line-height:0.01%;font-family:Arial;-inkscape-font-specification:Arial;letter-spacing:0px;word-spacing:0px;display:inline;overflow:visible;visibility:visible;fill:#483e37;fill-opacity:1;fill-rule:nonzero;stroke:#483e37;stroke-width:4.38198;stroke-opacity:1;marker:none;enable-background:accumulate"
       id="flowRoot3063-8-9-4"
       xml:space="preserve"><flowRegion
         style="stroke-width:4.38198"
         id="flowRegion3065-8-34-1"><rect
           style="color:#000000;font-size:72px;display:inline;overflow:visible;visibility:visible;fill:#483e37;fill-opacity:1;fill-rule:nonzero;stroke:#483e37;stroke-width:4.3819828;stroke-opacity:1;marker:none;enable-background:accumulate"
           y="425.30325"
           x="92.642677"
           height="90.046997"
           width="248.66193"
           id="rect3067-6-0-6" /></flowRegion><flowPara
         id="flowPara3188-0-3"
         style="color:#000000;font-style:normal;font-variant:normal;font-weight:normal;font-stretch:normal;font-size:64px;line-height:1.25;font-family:Lavi;-inkscape-font-specification:Lavi;text-align:center;text-anchor:middle;display:inline;overflow:visible;visibility:visible;fill:#483e37;fill-opacity:1;fill-rule:nonzero;stroke:#483e37;stroke-width:3.45423;stroke-miterlimit:4;stroke-dasharray:none;stroke-opacity:1;marker:none;enable-background:accumulate">Cot</flowPara></flowRoot>
    <flowRoot
       inkscape:transform-center-y="50.987355"
       inkscape:transform-center-x="-43.097021"
       transform="matrix(0.68487433,-0.4571937,0.49486606,0.76023252,159.33923,467.03243)"
       style="color:#000000;font-style:normal;font-variant:normal;font-weight:normal;font-stretch:normal;line-height:0.01%;font-family:Arial;-inkscape-font-specification:Arial;letter-spacing:0px;word-spacing:0px;display:inline;overflow:visible;visibility:visible;fill:#483e37;fill-opacity:1;fill-rule:nonzero;stroke:#483e37;stroke-width:4.38198;stroke-opacity:1;marker:none;enable-background:accumulate"
       id="flowRoot3063-8-9-4-4"
       xml:space="preserve"><flowRegion
         style="stroke-width:4.38198"
         id="flowRegion3065-8-34-1-4"><rect
           style="color:#000000;font-size:72px;display:inline;overflow:visible;visibility:visible;fill:#483e37;fill-opacity:1;fill-rule:nonzero;stroke:#483e37;stroke-width:4.3819828;stroke-opacity:1;marker:none;enable-background:accumulate"
           y="425.30325"
           x="92.642677"
           height="90.046997"
           width="248.66193"
           id="rect3067-6-0-6-9" /></flowRegion><flowPara
         id="flowPara3188-0-3-3"
         style="color:#000000;font-style:normal;font-variant:normal;font-weight:normal;font-stretch:normal;font-size:64px;line-height:1.25;font-family:Lavi;-inkscape-font-specification:Lavi;text-align:center;text-anchor:middle;display:inline;overflow:visible;visibility:visible;fill:#483e37;fill-opacity:1;fill-rule:nonzero;stroke:#483e37;stroke-width:3.45423;stroke-miterlimit:4;stroke-dasharray:none;stroke-opacity:1;marker:none;enable-background:accumulate">Cot</flowPara></flowRoot>
    <flowRoot
       transform="matrix(0.56474589,-0.45615334,0.49763383,0.61610128,194.20975,381.8921)"
       style="color:#000000;font-style:normal;font-variant:normal;font-weight:normal;font-stretch:normal;line-height:0.01%;font-family:Arial;-inkscape-font-specification:Arial;letter-spacing:0px;word-spacing:0px;display:inline;overflow:visible;visibility:visible;fill:#ffccaa;fill-opacity:1;fill-rule:nonzero;stroke:#ffccaa;stroke-width:4.38198;stroke-opacity:1;marker:none;enable-background:accumulate"
       id="flowRoot3063-8-03-1-05-8"
       xml:space="preserve"><flowRegion
         style="stroke-width:4.38198"
         id="flowRegion3065-8-1-9-9-6"><rect
           style="color:#000000;font-size:72px;display:inline;overflow:visible;visibility:visible;fill:#ffccaa;fill-opacity:1;fill-rule:nonzero;stroke:#ffccaa;stroke-width:4.3819828;stroke-opacity:1;marker:none;enable-background:accumulate"
           y="425.30325"
           x="92.642677"
           height="120.68928"
           width="352.97433"
           id="rect3067-6-8-6-15-7" /></flowRegion><flowPara
         id="flowPara3188-8-3-0-9"
         style="color:#000000;font-style:normal;font-variant:normal;font-weight:normal;font-stretch:normal;font-size:64px;line-height:1.25;font-family:Lavi;-inkscape-font-specification:Lavi;text-align:center;text-anchor:middle;display:inline;overflow:visible;visibility:visible;fill:#ffccaa;fill-opacity:1;fill-rule:nonzero;stroke:#ffccaa;stroke-width:3.45423;stroke-miterlimit:4;stroke-dasharray:none;stroke-opacity:1;marker:none;enable-background:accumulate">Miii  !</flowPara></flowRoot>
    <flowRoot
       inkscape:transform-center-y="41.91695"
       inkscape:transform-center-x="-35.428547"
       transform="matrix(0.56307455,-0.37588521,0.40685782,0.62503084,323.95837,455.54213)"
       style="color:#000000;font-style:normal;font-variant:normal;font-weight:normal;font-stretch:normal;line-height:0.01%;font-family:Arial;-inkscape-font-specification:Arial;letter-spacing:0px;word-spacing:0px;display:inline;overflow:visible;visibility:visible;fill:#483e37;fill-opacity:1;fill-rule:nonzero;stroke:#483e37;stroke-width:4.38198;stroke-opacity:1;marker:none;enable-background:accumulate"
       id="flowRoot3063-8-9-4-4-9"
       xml:space="preserve"><flowRegion
         style="stroke-width:4.38198"
         id="flowRegion3065-8-34-1-4-1"><rect
           style="color:#000000;font-size:72px;display:inline;overflow:visible;visibility:visible;fill:#483e37;fill-opacity:1;fill-rule:nonzero;stroke:#483e37;stroke-width:4.3819828;stroke-opacity:1;marker:none;enable-background:accumulate"
           y="425.30325"
           x="92.642677"
           height="90.046997"
           width="248.66193"
           id="rect3067-6-0-6-9-0" /></flowRegion><flowPara
         id="flowPara3188-0-3-3-1"
         style="color:#000000;font-style:normal;font-variant:normal;font-weight:normal;font-stretch:normal;font-size:64px;line-height:1.25;font-family:Lavi;-inkscape-font-specification:Lavi;text-align:center;text-anchor:middle;display:inline;overflow:visible;visibility:visible;fill:#483e37;fill-opacity:1;fill-rule:nonzero;stroke:#483e37;stroke-width:3.45423;stroke-miterlimit:4;stroke-dasharray:none;stroke-opacity:1;marker:none;enable-background:accumulate">Cot !</flowPara></flowRoot>
    <flowRoot
       transform="matrix(0.5016147,-0.42637756,0.45739677,0.4784492,212.14382,296.1275)"
       style="color:#000000;font-style:normal;font-variant:normal;font-weight:normal;font-stretch:normal;line-height:0.01%;font-family:Arial;-inkscape-font-specification:Arial;letter-spacing:0px;word-spacing:0px;display:inline;overflow:visible;visibility:visible;fill:#ffd42a;fill-opacity:1;fill-rule:nonzero;stroke:#ffd42a;stroke-width:4.38198;stroke-opacity:1;marker:none;enable-background:accumulate"
       id="flowRoot3063-8-0-2-7"
       xml:space="preserve"><flowRegion
         style="stroke-width:4.38198"
         id="flowRegion3065-8-3-4-2"><rect
           style="color:#000000;font-size:72px;display:inline;overflow:visible;visibility:visible;fill:#ffd42a;fill-opacity:1;fill-rule:nonzero;stroke:#ffd42a;stroke-width:4.3819828;stroke-opacity:1;marker:none;enable-background:accumulate"
           y="425.30325"
           x="92.642677"
           height="90.046997"
           width="248.66193"
           id="rect3067-6-9-9-9" /></flowRegion><flowPara
         id="flowPara3188-4-0-3"
         style="color:#000000;font-style:normal;font-variant:normal;font-weight:normal;font-stretch:normal;font-size:64px;line-height:1.25;font-family:Lavi;-inkscape-font-specification:Lavi;text-align:center;text-anchor:middle;display:inline;overflow:visible;visibility:visible;fill:#ffd42a;fill-opacity:1;fill-rule:nonzero;stroke:#ffd42a;stroke-width:3.45423;stroke-miterlimit:4;stroke-dasharray:none;stroke-opacity:1;marker:none;enable-background:accumulate">Glap !</flowPara></flowRoot>
  </g>
</svg>
