<?xml version="1.0" encoding="UTF-8" standalone="no"?>
<!-- Created with Inkscape (http://www.inkscape.org/) -->

<svg
   xmlns:dc="http://purl.org/dc/elements/1.1/"
   xmlns:cc="http://creativecommons.org/ns#"
   xmlns:rdf="http://www.w3.org/1999/02/22-rdf-syntax-ns#"
   xmlns:svg="http://www.w3.org/2000/svg"
   xmlns="http://www.w3.org/2000/svg"
   xmlns:xlink="http://www.w3.org/1999/xlink"
   xmlns:sodipodi="http://sodipodi.sourceforge.net/DTD/sodipodi-0.dtd"
   xmlns:inkscape="http://www.inkscape.org/namespaces/inkscape"
   id="svg2"
   version="1.1"
   inkscape:version="0.92.4 (5da689c313, 2019-01-14)"
   width="2481"
   height="3503"
   sodipodi:docname="E24P06.svg">
  <metadata
     id="metadata8">
    <rdf:RDF>
      <cc:Work
         rdf:about="">
        <dc:format>image/svg+xml</dc:format>
        <dc:type
           rdf:resource="http://purl.org/dc/dcmitype/StillImage" />
        <dc:title />
      </cc:Work>
    </rdf:RDF>
  </metadata>
  <defs
     id="defs6">
    <filter
       style="color-interpolation-filters:sRGB"
       id="filter4375-4-1-1-1-9"
       inkscape:label="deevad outline effect">
      <feFlood
         id="feFlood4377-7-9-0-8-1"
         flood-opacity="1"
         flood-color="rgb(0,0,0)"
         result="flood" />
      <feComposite
         id="feComposite4379-3-8-8-2-77"
         in2="SourceGraphic"
         in="flood"
         operator="in"
         result="composite1" />
      <feMorphology
         id="feMorphology4393-1-0-49-8-9"
         operator="dilate"
         radius="4"
         result="result3" />
      <feComposite
         id="feComposite4385-9-5-7-0-8"
         in2="result3"
         in="SourceGraphic"
         operator="over"
         result="composite2" />
    </filter>
    <filter
       inkscape:label="deevad trembling effect"
       inkscape:menu="Distort"
       inkscape:menu-tooltip="Paint objects with a transparent turbulence which wraps around color edges"
       height="1.4"
       y="-0.2"
       width="1.4"
       x="-0.2"
       style="color-interpolation-filters:sRGB;"
       id="filter1125">
      <feGaussianBlur
         stdDeviation="0.01"
         result="result10"
         id="feGaussianBlur1107"
         baseFrequency="0.019" />
      <feBlend
         in2="result10"
         mode="normal"
         in="result10"
         result="fbSourceGraphic"
         id="feBlend1109" />
      <feGaussianBlur
         stdDeviation="0.01"
         result="result8"
         in="fbSourceGraphic"
         id="feGaussianBlur1111" />
      <feTurbulence
         seed="0"
         result="result7"
         type="fractalNoise"
         numOctaves="1"
         baseFrequency="0.0040000000000000001"
         id="feTurbulence1113" />
      <feComposite
         in2="result8"
         result="result6"
         operator="in"
         in="result8"
         id="feComposite1115"
         baseFrequency="0.0089999999999999993" />
      <feDisplacementMap
         in2="result6"
         in="result7"
         xChannelSelector="R"
         yChannelSelector="G"
         scale="41.013071895424837"
         result="result4"
         id="feDisplacementMap1117" />
      <feComposite
         in2="result4"
         result="result2"
         operator="arithmetic"
         in="result8"
         k1="1"
         k3="1"
         id="feComposite1119"
         scale="41" />
      <feComposite
         in2="result2"
         result="fbSourceGraphic"
         in="fbSourceGraphic"
         operator="in"
         id="feComposite1121" />
      <feDisplacementMap
         in2="result4"
         yChannelSelector="G"
         scale="49.700000000000003"
         xChannelSelector="R"
         id="feDisplacementMap1123" />
    </filter>
    <filter
       style="color-interpolation-filters:sRGB"
       id="filter4375-4-1-1-1-9-5-8"
       inkscape:label="Drop Shadow">
      <feFlood
         id="feFlood4377-7-9-0-8-1-7-3"
         flood-opacity="1"
         flood-color="rgb(200,55,55)"
         result="flood" />
      <feComposite
         id="feComposite4379-3-8-8-2-77-4-1"
         in2="SourceGraphic"
         in="flood"
         operator="in"
         result="composite1" />
      <feMorphology
         id="feMorphology4393-1-0-49-8-9-3-0"
         operator="dilate"
         radius="6.2000000000000002"
         result="result3" />
      <feComposite
         id="feComposite4385-9-5-7-0-8-8-7"
         in2="result3"
         in="SourceGraphic"
         operator="over"
         result="fbSourceGraphic" />
      <feColorMatrix
         result="fbSourceGraphicAlpha"
         in="fbSourceGraphic"
         values="0 0 0 -1 0 0 0 0 -1 0 0 0 0 -1 0 0 0 0 1 0"
         id="feColorMatrix4544" />
      <feTurbulence
         id="feTurbulence4546"
         type="fractalNoise"
         numOctaves="3"
         seed="37"
         baseFrequency="0.129 0.0050000000000000001"
         result="turbulence" />
      <feDisplacementMap
         id="feDisplacementMap4548"
         in2="turbulence"
         in="fbSourceGraphic"
         scale="6.6"
         yChannelSelector="G"
         xChannelSelector="R"
         result="fbSourceGraphic" />
      <feColorMatrix
         result="fbSourceGraphicAlpha"
         in="fbSourceGraphic"
         values="0 0 0 -1 0 0 0 0 -1 0 0 0 0 -1 0 0 0 0 1 0"
         id="feColorMatrix4670" />
      <feFlood
         id="feFlood4672"
         flood-opacity="1"
         flood-color="rgb(80,22,22)"
         result="flood"
         in="fbSourceGraphic" />
      <feComposite
         id="feComposite4674"
         in2="fbSourceGraphic"
         in="flood"
         operator="in"
         result="composite1" />
      <feGaussianBlur
         id="feGaussianBlur4676"
         in="composite1"
         stdDeviation="0"
         result="blur" />
      <feOffset
         id="feOffset4678"
         dx="6"
         dy="6"
         result="offset" />
      <feComposite
         id="feComposite4680"
         in2="offset"
         in="fbSourceGraphic"
         operator="over"
         result="composite2" />
    </filter>
    <filter
       inkscape:label="deevad trembling effect"
       inkscape:menu="Distort"
       inkscape:menu-tooltip="Paint objects with a transparent turbulence which wraps around color edges"
       height="1.4"
       y="-0.2"
       width="1.4"
       x="-0.2"
       style="color-interpolation-filters:sRGB"
       id="filter1125-2">
      <feGaussianBlur
         stdDeviation="0.01"
         result="result10"
         id="feGaussianBlur1107-0"
         baseFrequency="0.019" />
      <feBlend
         in2="result10"
         mode="normal"
         in="result10"
         result="fbSourceGraphic"
         id="feBlend1109-2" />
      <feGaussianBlur
         stdDeviation="0.01"
         result="result8"
         in="fbSourceGraphic"
         id="feGaussianBlur1111-3" />
      <feTurbulence
         seed="0"
         result="result7"
         type="fractalNoise"
         numOctaves="1"
         baseFrequency="0.0040000000000000001"
         id="feTurbulence1113-7" />
      <feComposite
         in2="result8"
         result="result6"
         operator="in"
         in="result8"
         id="feComposite1115-5"
         baseFrequency="0.0089999999999999993" />
      <feDisplacementMap
         in2="result6"
         in="result7"
         xChannelSelector="R"
         yChannelSelector="G"
         scale="41.013072"
         result="result4"
         id="feDisplacementMap1117-9" />
      <feComposite
         k4="0"
         k2="0"
         in2="result4"
         result="result2"
         operator="arithmetic"
         in="result8"
         k1="1"
         k3="1"
         id="feComposite1119-2"
         scale="41" />
      <feComposite
         in2="result2"
         result="fbSourceGraphic"
         in="fbSourceGraphic"
         operator="in"
         id="feComposite1121-2" />
      <feDisplacementMap
         in2="result4"
         yChannelSelector="G"
         scale="49.7"
         xChannelSelector="R"
         id="feDisplacementMap1123-8" />
    </filter>
    <filter
       inkscape:label="deevad trembling effect"
       inkscape:menu="Distort"
       inkscape:menu-tooltip="Paint objects with a transparent turbulence which wraps around color edges"
       height="1.4"
       y="-0.2"
       width="1.4"
       x="-0.2"
       style="color-interpolation-filters:sRGB"
       id="filter1125-1">
      <feGaussianBlur
         stdDeviation="0.01"
         result="result10"
         id="feGaussianBlur1107-2"
         baseFrequency="0.019" />
      <feBlend
         in2="result10"
         mode="normal"
         in="result10"
         result="fbSourceGraphic"
         id="feBlend1109-9" />
      <feGaussianBlur
         stdDeviation="0.01"
         result="result8"
         in="fbSourceGraphic"
         id="feGaussianBlur1111-31" />
      <feTurbulence
         seed="0"
         result="result7"
         type="fractalNoise"
         numOctaves="1"
         baseFrequency="0.0040000000000000001"
         id="feTurbulence1113-9" />
      <feComposite
         in2="result8"
         result="result6"
         operator="in"
         in="result8"
         id="feComposite1115-4"
         baseFrequency="0.0089999999999999993" />
      <feDisplacementMap
         in2="result6"
         in="result7"
         xChannelSelector="R"
         yChannelSelector="G"
         scale="41.013072"
         result="result4"
         id="feDisplacementMap1117-7" />
      <feComposite
         k4="0"
         k2="0"
         in2="result4"
         result="result2"
         operator="arithmetic"
         in="result8"
         k1="1"
         k3="1"
         id="feComposite1119-8"
         scale="41" />
      <feComposite
         in2="result2"
         result="fbSourceGraphic"
         in="fbSourceGraphic"
         operator="in"
         id="feComposite1121-4" />
      <feDisplacementMap
         in2="result4"
         yChannelSelector="G"
         scale="49.7"
         xChannelSelector="R"
         id="feDisplacementMap1123-5" />
    </filter>
    <filter
       inkscape:label="deevad trembling effect"
       inkscape:menu="Distort"
       inkscape:menu-tooltip="Paint objects with a transparent turbulence which wraps around color edges"
       height="1.4"
       y="-0.2"
       width="1.4"
       x="-0.2"
       style="color-interpolation-filters:sRGB"
       id="filter1125-1-1">
      <feGaussianBlur
         stdDeviation="0.01"
         result="result10"
         id="feGaussianBlur1107-2-0"
         baseFrequency="0.019" />
      <feBlend
         in2="result10"
         mode="normal"
         in="result10"
         result="fbSourceGraphic"
         id="feBlend1109-9-6" />
      <feGaussianBlur
         stdDeviation="0.01"
         result="result8"
         in="fbSourceGraphic"
         id="feGaussianBlur1111-31-3" />
      <feTurbulence
         seed="0"
         result="result7"
         type="fractalNoise"
         numOctaves="1"
         baseFrequency="0.0040000000000000001"
         id="feTurbulence1113-9-2" />
      <feComposite
         in2="result8"
         result="result6"
         operator="in"
         in="result8"
         id="feComposite1115-4-0"
         baseFrequency="0.0089999999999999993" />
      <feDisplacementMap
         in2="result6"
         in="result7"
         xChannelSelector="R"
         yChannelSelector="G"
         scale="41.013072"
         result="result4"
         id="feDisplacementMap1117-7-6" />
      <feComposite
         k4="0"
         k2="0"
         in2="result4"
         result="result2"
         operator="arithmetic"
         in="result8"
         k1="1"
         k3="1"
         id="feComposite1119-8-1"
         scale="41" />
      <feComposite
         in2="result2"
         result="fbSourceGraphic"
         in="fbSourceGraphic"
         operator="in"
         id="feComposite1121-4-5" />
      <feDisplacementMap
         in2="result4"
         yChannelSelector="G"
         scale="49.7"
         xChannelSelector="R"
         id="feDisplacementMap1123-5-5" />
    </filter>
  </defs>
  <sodipodi:namedview
     pagecolor="#ffffff"
     bordercolor="#666666"
     borderopacity="1"
     objecttolerance="10"
     gridtolerance="10"
     guidetolerance="10"
     inkscape:pageopacity="0"
     inkscape:pageshadow="2"
     inkscape:window-width="1600"
     inkscape:window-height="847"
     id="namedview4"
     showgrid="false"
     inkscape:zoom="0.52900001"
     inkscape:cx="1226.2522"
     inkscape:cy="350.02462"
     inkscape:window-x="-8"
     inkscape:window-y="-8"
     inkscape:window-maximized="1"
     inkscape:current-layer="layer3" />
  <g
     inkscape:groupmode="layer"
     id="layer2"
     inkscape:label="artwork"
     sodipodi:insensitive="true">
    <image
       sodipodi:absref="D:\Pepper&amp;Carrot\ep24_The-Unity-Tree_lang-pack\lang\ro\../gfx_Pepper-and-Carrot_by-David-Revoy_E24P06.png"
       xlink:href="../gfx_Pepper-and-Carrot_by-David-Revoy_E24P06.png"
       y="0"
       x="0"
       id="image10"
       height="3503"
       width="2481" />
  </g>
  <g
     inkscape:groupmode="layer"
     id="layer3"
     inkscape:label="speechbubbles"
     style="display:inline">
    <path
       style="color:#000000;display:inline;overflow:visible;visibility:visible;fill:#ffffff;fill-opacity:1;fill-rule:nonzero;stroke:none;stroke-width:0.98655379px;marker:none;enable-background:accumulate"
       d="m 1137.9389,499.93138 c -90.252,0.81698 -224.22199,-14.36659 -255.03565,-67.79679 -30.81353,-53.43024 -33.71818,-141.43292 15.37681,-178.27092 49.09483,-36.83799 137.88884,-55.95842 216.33914,-54.29346 78.4502,1.66496 183.4206,28.22054 212.4083,78.37282 28.9877,50.15216 17.6419,165.18187 -80.0061,198.16865 -97.6483,32.98692 -109.0825,23.8197 -109.0825,23.8197 z"
       id="path3970"
       inkscape:connector-curvature="0"
       sodipodi:nodetypes="cccscsc" />
    <path
       style="color:#000000;display:inline;overflow:visible;visibility:visible;fill:#ffffff;fill-opacity:1;fill-rule:nonzero;stroke:none;stroke-width:0.94246924px;marker:none;enable-background:accumulate"
       d="m 1073.1525,612.07864 c -1.831,-66.05544 17.3338,-145.64823 204.7416,-153.7612 129.3587,-5.59999 250.3198,57.07134 232.3504,133.26116 -15.9623,67.68002 -77.1889,134.38882 -185.2145,136.66658 -108.0254,2.27776 -240.8919,-15.94451 -251.8775,-116.16654 z"
       id="path3565"
       inkscape:connector-curvature="0"
       sodipodi:nodetypes="csssc" />
    <path
       style="fill:#ffffff;fill-rule:evenodd;stroke:none;stroke-width:1px;stroke-linecap:butt;stroke-linejoin:miter;stroke-opacity:1"
       d="m 1029.5807,224.52905 c -28.8926,-1.88303 -70.79102,11.5448 -46.48972,50.296 -53.0586,-25.39403 -127.52131,-34.5111 -145.04103,7.79105 -2.94844,-51.73967 -38.51107,-37.69039 -67.86306,-25.2315 27.93459,-21.24192 -23.43985,-31.70774 -50.94374,-32.16467 56.996,-45.85796 26.11899,-59.20123 2.79436,-75.339 57.43147,10.92223 42.98257,-13.7893 49.44589,-28.13373 49.81198,30.86852 85.25268,22.34544 112.64798,-8.22912 15.1349,15.86671 20.6066,49.31402 73.5776,-3.65542 -18.8313,45.04669 7.2124,39.70893 49.01332,16.67968 -6.2541,15.33945 -45.12392,39.40883 21.271,35.30341 -41.14472,15.47391 -49.35472,35.23169 1.5874,62.6833 z"
       id="path4584"
       inkscape:connector-curvature="0"
       sodipodi:nodetypes="cccccccccccc" />
    <path
       style="fill:#ffffff;fill-rule:evenodd;stroke:none;stroke-width:1px;stroke-linecap:butt;stroke-linejoin:miter;stroke-opacity:1"
       d="m 1498.9644,721.69787 c 0,0 -18.7783,34.21336 -32.6212,27.91452 -13.843,-6.29892 -20.1572,-51.27318 -20.1572,-51.27318 0,0 -32.4046,35.857 -65.1595,12.26987 -32.7549,-23.58713 -32.8885,-75.08869 -12.3448,-56.25529 20.5438,18.83335 46.1365,71.22989 89.4202,2.96484 3.1607,69.22326 7.7961,64.32775 13.5666,66.07787 5.7706,1.75017 32.6213,-27.91444 40.3036,-37.66207 0.7828,49.71 2.2491,82.99287 66.864,59.24511 -31.5265,23.16855 -74.9291,26.8574 -79.8717,-23.28167 z"
       id="path4394"
       inkscape:connector-curvature="0"
       sodipodi:nodetypes="cscsscsccc" />
    <path
       style="color:#000000;display:inline;overflow:visible;visibility:visible;fill:#ffffff;fill-opacity:1;fill-rule:nonzero;stroke:none;stroke-width:1px;marker:none;enable-background:accumulate"
       d="m 305.70819,2324.3406 c 3.646,-50.9841 54.92648,-89.1272 189.49396,-81.8777 72.08158,3.8832 153.90315,5.8319 149.39762,80.5055 -4.50561,74.6734 -122.07753,74.792 -146.32561,76.9563 -24.24807,2.1645 -150.72738,-3.4677 -173.11298,-28.4549 -14.01287,-15.6412 -19.6739,-31.355 -19.45299,-47.1292 z"
       id="path4546-6"
       inkscape:connector-curvature="0"
       sodipodi:nodetypes="cssssc" />
    <path
       style="color:#000000;display:inline;overflow:visible;visibility:visible;fill:#ffffff;fill-opacity:1;fill-rule:nonzero;stroke:none;stroke-width:1px;marker:none;enable-background:accumulate"
       d="m 534.38829,2463.1918 c -5.60468,-24.2441 -12.05036,-25.1738 -25.83978,-29.9145 -13.78934,-4.7407 -29.4176,-13.271 -41.18387,-37.0527 -10.53976,-33.3197 -47.6517,-107.184 10.02392,-71.238 21.72968,10.3487 11.80541,52.372 17.48145,69.9483 5.67608,17.5761 30.50929,21.843 37.76565,34.8227 7.25638,12.9796 5.56819,19.9435 1.75263,33.4342 z"
       id="path4538"
       inkscape:connector-curvature="0"
       sodipodi:nodetypes="ccccccc" />
    <text
       xml:space="preserve"
       style="font-style:normal;font-variant:normal;font-weight:normal;font-stretch:normal;font-size:7.70020866px;line-height:0%;font-family:Lavi;-inkscape-font-specification:Lavi;text-align:center;letter-spacing:0px;word-spacing:0px;text-anchor:middle;fill:#d16044;fill-opacity:1;stroke:none;stroke-width:1;filter:url(#filter1125)"
       x="410.73367"
       y="1900.4603"
       id="text4246-3-7-9-5-1-6-2-1"
       transform="matrix(0.85125208,-0.62031869,0.33985863,0.92708066,7.5614365,3.7807182)"><tspan
         sodipodi:role="line"
         style="font-size:28.87578011px;line-height:1.25;fill:#d16044;fill-opacity:1;stroke-width:0.82425153"
         x="410.73367"
         y="1900.4603"
         id="tspan1222-5">BRRrrr</tspan></text>
    <text
       xml:space="preserve"
       style="font-style:normal;font-variant:normal;font-weight:normal;font-stretch:normal;font-size:7.70020866px;line-height:0%;font-family:Lavi;-inkscape-font-specification:Lavi;text-align:center;letter-spacing:0px;word-spacing:0px;text-anchor:middle;fill:#d16044;fill-opacity:1;stroke:none;stroke-width:1;filter:url(#filter1125)"
       x="1985.7361"
       y="1448.5387"
       id="text4246-3-7-9-5-1-6-2-1-2"
       transform="matrix(1.0442184,0.1379611,-0.3933369,0.90568678,0,0)"><tspan
         sodipodi:role="line"
         style="font-size:28.87578011px;line-height:1.25;fill:#d16044;fill-opacity:1;stroke-width:0.82425153"
         x="1985.7361"
         y="1448.5387"
         id="tspan1222-5-7">BRRr</tspan></text>
    <text
       xml:space="preserve"
       style="font-style:normal;font-variant:normal;font-weight:normal;font-stretch:normal;font-size:7.70020866px;line-height:0%;font-family:Lavi;-inkscape-font-specification:Lavi;text-align:center;letter-spacing:0px;word-spacing:0px;text-anchor:middle;fill:#d16044;fill-opacity:1;stroke:none;stroke-width:1;filter:url(#filter1125)"
       x="655.12885"
       y="1771.0082"
       id="text4246-3-7-9-5-1-6-2-1-2-0"
       transform="matrix(0.87668998,-0.58381506,0.30040284,0.94060651,1.8903591,-5.6710774)"><tspan
         sodipodi:role="line"
         style="font-size:28.87578011px;line-height:1.25;fill:#d16044;fill-opacity:1;stroke-width:0.82425153"
         x="655.12885"
         y="1771.0082"
         id="tspan1222-5-7-9">BRRrrr</tspan></text>
    <text
       xml:space="preserve"
       style="font-style:normal;font-variant:normal;font-weight:normal;font-stretch:normal;font-size:7.70020866px;line-height:0%;font-family:Lavi;-inkscape-font-specification:Lavi;text-align:center;letter-spacing:0px;word-spacing:0px;text-anchor:middle;fill:#d16044;fill-opacity:1;stroke:none;stroke-width:1;filter:url(#filter1125)"
       x="777.14801"
       y="1966.9062"
       id="text4246-3-7-9-5-1-6-2-1-2-0-3"
       transform="matrix(0.98150035,-0.38220729,0.09168173,0.98314644,15.122873,-5.6710774)"><tspan
         sodipodi:role="line"
         style="font-size:28.87578011px;line-height:1.25;fill:#d16044;fill-opacity:1;stroke-width:0.82425153"
         x="777.14801"
         y="1966.9062"
         id="tspan1222-5-7-9-6">BRRrrr</tspan></text>
    <text
       xml:space="preserve"
       style="font-style:normal;font-variant:normal;font-weight:normal;font-stretch:normal;font-size:7.70020866px;line-height:0%;font-family:Lavi;-inkscape-font-specification:Lavi;text-align:center;letter-spacing:0px;word-spacing:0px;text-anchor:middle;fill:#d16044;fill-opacity:1;stroke:none;stroke-width:1;filter:url(#filter1125)"
       x="1923.7697"
       y="875.89478"
       id="text4246-3-7-9-5-1-6-2-1-2-06"
       transform="matrix(0.99644593,0.34135151,-0.56436057,0.8102343,1.8903591,-1.8903591)"><tspan
         sodipodi:role="line"
         style="font-size:28.87578011px;line-height:1.25;fill:#d16044;fill-opacity:1;stroke-width:0.82425153"
         x="1923.7697"
         y="875.89478"
         id="tspan1222-5-7-2">BRRrrr</tspan></text>
    <text
       xml:space="preserve"
       style="font-style:normal;font-variant:normal;font-weight:normal;font-stretch:normal;font-size:7.70020866px;line-height:0%;font-family:Lavi;-inkscape-font-specification:Lavi;text-align:center;letter-spacing:0px;word-spacing:0px;text-anchor:middle;fill:#d16044;fill-opacity:1;stroke:none;stroke-width:1;filter:url(#filter1125)"
       x="2065.241"
       y="1539.2544"
       id="text4246-3-7-9-5-1-6-2-1-2-06-6"
       transform="matrix(1.0442184,0.1379611,-0.3933369,0.90568678,0,0)"><tspan
         sodipodi:role="line"
         style="font-size:28.87578011px;line-height:1.25;fill:#d16044;fill-opacity:1;stroke-width:0.82425153"
         x="2065.241"
         y="1539.2544"
         id="tspan1222-5-7-2-1">BRrr</tspan></text>
    <text
       xml:space="preserve"
       style="font-style:normal;font-variant:normal;font-weight:normal;font-stretch:normal;font-size:14.55866337px;line-height:0%;font-family:Lavi;-inkscape-font-specification:Lavi;text-align:center;letter-spacing:0px;word-spacing:0px;text-anchor:middle;fill:#ebe9e2;fill-opacity:1;stroke:none;stroke-width:1"
       x="1686.5544"
       y="2585.2935"
       id="text4246-3-7-9-5-1-6-2-1-8"
       transform="matrix(1.0600479,-0.23035956,-0.08957656,0.96281952,0,0)"><tspan
         sodipodi:role="line"
         style="font-size:54.59498596px;line-height:1.25;fill:#ebe9e2;fill-opacity:1;stroke-width:0.82425153"
         x="1686.5544"
         y="2585.2935"
         id="tspan1222-5-79">?</tspan></text>
    <text
       xml:space="preserve"
       style="font-style:normal;font-variant:normal;font-weight:normal;font-stretch:normal;font-size:14.55866337px;line-height:0%;font-family:Lavi;-inkscape-font-specification:Lavi;text-align:center;letter-spacing:0px;word-spacing:0px;text-anchor:middle;fill:#ebe9e2;fill-opacity:1;stroke:none;stroke-width:1"
       x="2356.5422"
       y="2734.1533"
       id="text4246-3-7-9-5-1-6-2-1-8-3"
       transform="matrix(1.0600479,-0.23035956,-0.08957656,0.96281952,0,0)"><tspan
         sodipodi:role="line"
         style="font-size:54.59498596px;line-height:1.25;fill:#ebe9e2;fill-opacity:1;stroke-width:0.82425153"
         x="2356.5422"
         y="2734.1533"
         id="tspan1222-5-79-6">!!</tspan></text>
    <text
       xml:space="preserve"
       style="font-style:normal;font-variant:normal;font-weight:normal;font-stretch:normal;font-size:7.70020866px;line-height:0%;font-family:Lavi;-inkscape-font-specification:Lavi;text-align:center;letter-spacing:0px;word-spacing:0px;text-anchor:middle;opacity:0.62599996;fill:#d0be4d;fill-opacity:1;stroke:none;stroke-width:0.61150527;filter:url(#filter1125-1)"
       x="1985.7361"
       y="1448.5387"
       id="text4246-3-7-9-5-1-6-2-1-2-03"
       transform="matrix(1.652839,0.44181846,-0.82392782,1.3977215,-1562.5452,-302.4474)"><tspan
         sodipodi:role="line"
         style="font-size:28.87578011px;line-height:1.25;fill:#d0be4d;fill-opacity:1;stroke-width:0.5040341"
         x="1985.7361"
         y="1448.5387"
         id="tspan1222-5-7-6">BRRr</tspan></text>
    <text
       xml:space="preserve"
       style="font-style:normal;font-variant:normal;font-weight:normal;font-stretch:normal;font-size:7.70020866px;line-height:0%;font-family:Lavi;-inkscape-font-specification:Lavi;text-align:center;letter-spacing:0px;word-spacing:0px;text-anchor:middle;opacity:0.75199998;fill:#d0be4d;fill-opacity:1;stroke:none;stroke-width:0.63964999;filter:url(#filter1125-1-1)"
       x="1985.7361"
       y="1448.5387"
       id="text4246-3-7-9-5-1-6-2-1-2-03-4"
       transform="matrix(1.5358218,0.41629511,-0.77005201,1.3826539,-1269.5728,-224.41367)"><tspan
         sodipodi:role="line"
         style="font-size:28.87578011px;line-height:1.25;fill:#d0be4d;fill-opacity:1;stroke-width:0.52723247"
         x="1985.7361"
         y="1448.5387"
         id="tspan1222-5-7-6-7">BRRrrrr</tspan></text>
    <text
       xml:space="preserve"
       style="font-style:normal;font-variant:normal;font-weight:normal;font-stretch:normal;font-size:12.0068264px;line-height:0%;font-family:Lavi;-inkscape-font-specification:Lavi;text-align:center;letter-spacing:0px;word-spacing:0px;text-anchor:middle;fill:#d5b179;fill-opacity:1;stroke:none;stroke-width:1"
       x="1044.0333"
       y="3546.3018"
       id="text4246-3-7-9-5-1-6-2-1-8-3-6"
       transform="matrix(1.2153283,-0.20092692,-0.10269811,0.83980175,0,0)"><tspan
         sodipodi:role="line"
         style="font-size:45.02560043px;line-height:1.25;fill:#d5b179;fill-opacity:1;stroke-width:0.82425153"
         x="1044.0333"
         y="3546.3018"
         id="tspan1222-5-79-6-5">!!</tspan></text>
    <path
       style="fill:#ffffff;stroke:none;stroke-width:0.89448875"
       d="m 1550.2609,2684.1699 c -2.2663,-45.4207 2.351,-144.1247 249.1994,-140.6057 248.6148,3.5442 268.7221,72.453 282.8812,152.5401 25.1493,142.2473 -151.5613,138.6253 -301.5752,138.0843 -205.0121,-0.7391 -232.9011,-67.9508 -230.5054,-150.0187 z"
       id="path3280-8"
       inkscape:connector-curvature="0"
       sodipodi:nodetypes="csssc" />
    <path
       style="color:#000000;display:inline;overflow:visible;visibility:visible;fill:#ffffff;fill-opacity:1;fill-rule:nonzero;stroke:none;stroke-width:1.02452004px;marker:none;enable-background:accumulate"
       d="m 1563.4977,2876.4779 c 6.0228,-65.4632 82.4356,-113.6602 281.6415,-102.1856 106.7054,6.1462 227.8594,9.9627 220.2741,105.8564 -7.5854,95.8937 -181.7111,94.1608 -217.6489,96.5534 -35.9378,2.3928 -223.185,-6.8735 -256.0327,-39.3444 -20.5619,-20.326 -28.7538,-40.6112 -28.234,-60.8798 z"
       id="path4546"
       inkscape:connector-curvature="0"
       sodipodi:nodetypes="cssssc" />
    <path
       style="color:#000000;display:inline;overflow:visible;visibility:visible;fill:#ffffff;fill-opacity:1;fill-rule:nonzero;stroke:none;stroke-width:1px;marker:none;enable-background:accumulate"
       d="m 1405.2078,2785.0833 c 27.2189,10.6931 31.1073,9.721 39.8563,-1.9442 8.7489,-11.6652 17.4978,-31.1073 43.7446,-34.9957 26.2468,-3.8884 38.8841,5.8326 47.633,11.6652 1.9442,-18.4699 21.8114,-47.3326 13.0625,-58.0257 -8.7489,-10.6932 23.8774,9.4206 23.8774,9.4206 0,0 8.749,47.633 -7.7768,65.1309 -16.5257,17.4978 -53.4656,-4.8605 -71.9356,-4.8605 -18.4699,0 -32.0794,26.2467 -46.6609,29.163 -14.5816,2.9163 -30.1352,-7.7768 -41.8005,-15.5536 z"
       id="path4538-7"
       inkscape:connector-curvature="0"
       sodipodi:nodetypes="ccscccsscc" />
  </g>
  <g
     inkscape:groupmode="layer"
     id="layer1"
     inkscape:label="txt"
     style="display:inline">
    <text
       xml:space="preserve"
       style="font-style:normal;font-variant:normal;font-weight:normal;font-stretch:normal;font-size:13.6880064px;line-height:0%;font-family:Lavi;-inkscape-font-specification:Lavi;text-align:center;letter-spacing:0px;word-spacing:0px;text-anchor:middle;fill:#000000;fill-opacity:1;stroke:#000000;stroke-width:1.79999995;stroke-miterlimit:4;stroke-dasharray:none;stroke-opacity:1"
       x="979.13965"
       y="200.43517"
       id="text4246-3-7-9-5-1-6-2"
       transform="matrix(0.92840736,0,-0.16338778,1.0771134,0,0)"><tspan
         sodipodi:role="line"
         style="font-size:51.3300209px;line-height:1.25;stroke:#000000;stroke-width:1.79999995;stroke-miterlimit:4;stroke-dasharray:none;stroke-opacity:1"
         x="979.13965"
         y="200.43517"
         id="tspan1222">CARROT!</tspan></text>
    <text
       xml:space="preserve"
       style="font-style:normal;font-variant:normal;font-weight:normal;font-stretch:normal;line-height:0%;font-family:Lavi;-inkscape-font-specification:Lavi;text-align:center;letter-spacing:0px;word-spacing:0px;text-anchor:middle;fill:#000000;fill-opacity:1;stroke:none"
       x="1100.7209"
       y="294.43301"
       id="text4246-7-6-1-7-6"><tspan
         sodipodi:role="line"
         style="font-size:45px;line-height:1.25"
         x="1100.7209"
         y="294.43301"
         id="tspan844">Mă întorc în câteva</tspan><tspan
         sodipodi:role="line"
         style="font-size:45px;line-height:1.25"
         x="1100.7209"
         y="350.68301"
         id="tspan129">minute împreună cu</tspan><tspan
         sodipodi:role="line"
         style="font-size:45px;line-height:1.25"
         x="1100.7209"
         y="406.93301"
         id="tspan848">Thyme, Cayenne</tspan><tspan
         sodipodi:role="line"
         style="font-size:45px;line-height:1.25"
         x="1100.7209"
         y="463.18301"
         id="tspan852"> și Cumin.</tspan></text>
    <text
       xml:space="preserve"
       style="font-style:normal;font-variant:normal;font-weight:normal;font-stretch:normal;line-height:0%;font-family:Lavi;-inkscape-font-specification:Lavi;text-align:center;letter-spacing:0px;word-spacing:0px;text-anchor:middle;fill:#000000;fill-opacity:1;stroke:none"
       x="1286.4092"
       y="541.24622"
       id="text4246-7-6-1-7-6-3"><tspan
         sodipodi:role="line"
         style="font-size:45px;line-height:1.25"
         x="1286.4092"
         y="541.24622"
         id="tspan894">Să nu faci</tspan><tspan
         sodipodi:role="line"
         style="font-size:45px;line-height:1.25"
         x="1286.4092"
         y="597.49622"
         id="tspan140">nimic cu copacul</tspan><tspan
         sodipodi:role="line"
         style="font-size:45px;line-height:1.25"
         x="1286.4092"
         y="653.74622"
         id="tspan142">până revin, OK?</tspan></text>
    <text
       xml:space="preserve"
       style="font-style:normal;font-variant:normal;font-weight:normal;font-stretch:normal;line-height:0%;font-family:Lavi;-inkscape-font-specification:Lavi;text-align:center;letter-spacing:0px;word-spacing:0px;text-anchor:middle;fill:#000000;fill-opacity:1;stroke:none"
       x="475.09189"
       y="2316.6829"
       id="text4246-7-6-1-7-6-3-5"><tspan
         sodipodi:role="line"
         style="font-size:45px;line-height:1.25"
         x="475.09189"
         y="2316.6829"
         id="tspan980">OK, mă întorc</tspan><tspan
         sodipodi:role="line"
         style="font-size:45px;line-height:1.25"
         x="482.12314"
         y="2372.9329"
         id="tspan146">repede! </tspan></text>
    <text
       xml:space="preserve"
       style="font-style:normal;font-variant:normal;font-weight:normal;font-stretch:normal;line-height:0%;font-family:Lavi;-inkscape-font-specification:Lavi;text-align:center;letter-spacing:0px;word-spacing:0px;text-anchor:middle;fill:#000000;fill-opacity:1;stroke:none"
       x="1813.8191"
       y="2624.7676"
       id="text4246-7-6-1-7-6-3-5-6"><tspan
         sodipodi:role="line"
         style="font-size:45px;line-height:1.25"
         x="1813.8191"
         y="2624.7676"
         id="tspan783">Pregătiți-vă să fiți</tspan><tspan
         sodipodi:role="line"
         style="font-size:45px;line-height:1.25"
         x="1813.8191"
         y="2681.2031"
         id="tspan150">uimite și fermecate!</tspan><tspan
         sodipodi:role="line"
         style="font-size:45px;line-height:1.25"
         x="1813.8191"
         y="2737.6387"
         id="tspan775">Nu ați văzut niciodată</tspan><tspan
         sodipodi:role="line"
         style="font-size:45px;line-height:1.25"
         x="1813.8191"
         y="2794.0745"
         id="tspan154">așa ceva.</tspan></text>
    <text
       xml:space="preserve"
       style="font-style:normal;font-variant:normal;font-weight:normal;font-stretch:normal;line-height:0%;font-family:Lavi;-inkscape-font-specification:Lavi;text-align:center;letter-spacing:0px;word-spacing:0px;text-anchor:middle;fill:#000000;fill-opacity:1;stroke:none"
       x="1819.1066"
       y="2825.541"
       id="text4246-7-6-1-7-6-3-5-6-4"><tspan
         sodipodi:role="line"
         style="font-size:45px;line-height:1.25"
         x="1819.1066"
         y="2829.0386"
         id="tspan1456-4" /><tspan
         sodipodi:role="line"
         style="font-size:45px;line-height:1.25"
         x="1819.1066"
         y="2866.7815"
         id="tspan1458-4">Vă rog să mă urmați</tspan><tspan
         sodipodi:role="line"
         style="font-size:45px;line-height:1.25"
         x="1819.1066"
         y="2923.217"
         id="tspan158">aici sus ca să vedeți...</tspan><tspan
         sodipodi:role="line"
         style="font-size:45px;line-height:1.25"
         x="1819.1066"
         y="2941.9097"
         id="tspan1454-4" /></text>
    <text
       xml:space="preserve"
       style="font-style:normal;font-variant:normal;font-weight:normal;font-stretch:normal;font-size:7.70020866px;line-height:0%;font-family:Lavi;-inkscape-font-specification:Lavi;text-align:center;letter-spacing:0px;word-spacing:0px;text-anchor:middle;fill:#653b1f;fill-opacity:1;stroke:none;stroke-width:0.32808393;stroke-miterlimit:4;stroke-dasharray:none;stroke-opacity:1;filter:url(#filter1125-2)"
       x="1985.7361"
       y="1448.5387"
       id="text4246-3-7-9-5-1-6-2-1-2-9"
       transform="matrix(3.1180716,-0.69723004,-0.16135131,3.0155836,-3916.2401,-1479.3735)"
       inkscape:transform-center-x="-27.787838"
       inkscape:transform-center-y="38.482173"><tspan
         sodipodi:role="line"
         style="font-size:28.87578011px;line-height:1.25;fill:#653b1f;fill-opacity:1;stroke:none;stroke-width:0.32808393;stroke-miterlimit:4;stroke-dasharray:none;stroke-opacity:1"
         x="1985.7361"
         y="1448.5387"
         id="tspan1222-5-7-7">Șruuf!!</tspan></text>
  </g>
</svg>
