<?xml version="1.0" encoding="UTF-8" standalone="no"?>
<!-- Created with Inkscape (http://www.inkscape.org/) -->

<svg
   xmlns:dc="http://purl.org/dc/elements/1.1/"
   xmlns:cc="http://creativecommons.org/ns#"
   xmlns:rdf="http://www.w3.org/1999/02/22-rdf-syntax-ns#"
   xmlns:svg="http://www.w3.org/2000/svg"
   xmlns="http://www.w3.org/2000/svg"
   xmlns:xlink="http://www.w3.org/1999/xlink"
   xmlns:sodipodi="http://sodipodi.sourceforge.net/DTD/sodipodi-0.dtd"
   xmlns:inkscape="http://www.inkscape.org/namespaces/inkscape"
   id="svg2"
   version="1.1"
   inkscape:version="0.92.2 5c3e80d, 2017-08-06"
   width="2481"
   height="3503"
   sodipodi:docname="E24P04.svg">
  <metadata
     id="metadata8">
    <rdf:RDF>
      <cc:Work
         rdf:about="">
        <dc:format>image/svg+xml</dc:format>
        <dc:type
           rdf:resource="http://purl.org/dc/dcmitype/StillImage" />
        <dc:title />
      </cc:Work>
    </rdf:RDF>
  </metadata>
  <defs
     id="defs6">
    <filter
       style="color-interpolation-filters:sRGB"
       id="filter4375-4-1-1-1-9-5-8"
       inkscape:label="Drop Shadow">
      <feFlood
         id="feFlood4377-7-9-0-8-1-7-3"
         flood-opacity="1"
         flood-color="rgb(200,55,55)"
         result="flood" />
      <feComposite
         id="feComposite4379-3-8-8-2-77-4-1"
         in2="SourceGraphic"
         in="flood"
         operator="in"
         result="composite1" />
      <feMorphology
         id="feMorphology4393-1-0-49-8-9-3-0"
         operator="dilate"
         radius="6.2000000000000002"
         result="result3" />
      <feComposite
         id="feComposite4385-9-5-7-0-8-8-7"
         in2="result3"
         in="SourceGraphic"
         operator="over"
         result="fbSourceGraphic" />
      <feColorMatrix
         result="fbSourceGraphicAlpha"
         in="fbSourceGraphic"
         values="0 0 0 -1 0 0 0 0 -1 0 0 0 0 -1 0 0 0 0 1 0"
         id="feColorMatrix4544" />
      <feTurbulence
         id="feTurbulence4546"
         type="fractalNoise"
         numOctaves="3"
         seed="37"
         baseFrequency="0.129 0.0050000000000000001"
         result="turbulence" />
      <feDisplacementMap
         id="feDisplacementMap4548"
         in2="turbulence"
         in="fbSourceGraphic"
         scale="6.6"
         yChannelSelector="G"
         xChannelSelector="R"
         result="fbSourceGraphic" />
      <feColorMatrix
         result="fbSourceGraphicAlpha"
         in="fbSourceGraphic"
         values="0 0 0 -1 0 0 0 0 -1 0 0 0 0 -1 0 0 0 0 1 0"
         id="feColorMatrix4670" />
      <feFlood
         id="feFlood4672"
         flood-opacity="1"
         flood-color="rgb(80,22,22)"
         result="flood"
         in="fbSourceGraphic" />
      <feComposite
         id="feComposite4674"
         in2="fbSourceGraphic"
         in="flood"
         operator="in"
         result="composite1" />
      <feGaussianBlur
         id="feGaussianBlur4676"
         in="composite1"
         stdDeviation="0"
         result="blur" />
      <feOffset
         id="feOffset4678"
         dx="6"
         dy="6"
         result="offset" />
      <feComposite
         id="feComposite4680"
         in2="offset"
         in="fbSourceGraphic"
         operator="over"
         result="composite2" />
    </filter>
    <filter
       style="color-interpolation-filters:sRGB"
       id="filter4375-4-1-1-1-9-5-8-0"
       inkscape:label="Drop Shadow">
      <feFlood
         id="feFlood4377-7-9-0-8-1-7-3-9"
         flood-opacity="1"
         flood-color="rgb(200,55,55)"
         result="flood" />
      <feComposite
         id="feComposite4379-3-8-8-2-77-4-1-3"
         in2="SourceGraphic"
         in="flood"
         operator="in"
         result="composite1" />
      <feMorphology
         id="feMorphology4393-1-0-49-8-9-3-0-6"
         operator="dilate"
         radius="6.2000000000000002"
         result="result3" />
      <feComposite
         id="feComposite4385-9-5-7-0-8-8-7-0"
         in2="result3"
         in="SourceGraphic"
         operator="over"
         result="fbSourceGraphic" />
      <feColorMatrix
         result="fbSourceGraphicAlpha"
         in="fbSourceGraphic"
         values="0 0 0 -1 0 0 0 0 -1 0 0 0 0 -1 0 0 0 0 1 0"
         id="feColorMatrix4544-6" />
      <feTurbulence
         id="feTurbulence4546-2"
         type="fractalNoise"
         numOctaves="3"
         seed="37"
         baseFrequency="0.129 0.0050000000000000001"
         result="turbulence" />
      <feDisplacementMap
         id="feDisplacementMap4548-6"
         in2="turbulence"
         in="fbSourceGraphic"
         scale="6.6"
         yChannelSelector="G"
         xChannelSelector="R"
         result="fbSourceGraphic" />
      <feColorMatrix
         result="fbSourceGraphicAlpha"
         in="fbSourceGraphic"
         values="0 0 0 -1 0 0 0 0 -1 0 0 0 0 -1 0 0 0 0 1 0"
         id="feColorMatrix4670-1" />
      <feFlood
         id="feFlood4672-8"
         flood-opacity="1"
         flood-color="rgb(80,22,22)"
         result="flood"
         in="fbSourceGraphic" />
      <feComposite
         id="feComposite4674-7"
         in2="fbSourceGraphic"
         in="flood"
         operator="in"
         result="composite1" />
      <feGaussianBlur
         id="feGaussianBlur4676-9"
         in="composite1"
         stdDeviation="0"
         result="blur" />
      <feOffset
         id="feOffset4678-2"
         dx="6"
         dy="6"
         result="offset" />
      <feComposite
         id="feComposite4680-0"
         in2="offset"
         in="fbSourceGraphic"
         operator="over"
         result="composite2" />
    </filter>
    <filter
       style="color-interpolation-filters:sRGB"
       id="filter4375-4-1-1-1-9-5-8-0-9"
       inkscape:label="Drop Shadow">
      <feFlood
         id="feFlood4377-7-9-0-8-1-7-3-9-2"
         flood-opacity="1"
         flood-color="rgb(200,55,55)"
         result="flood" />
      <feComposite
         id="feComposite4379-3-8-8-2-77-4-1-3-2"
         in2="SourceGraphic"
         in="flood"
         operator="in"
         result="composite1" />
      <feMorphology
         id="feMorphology4393-1-0-49-8-9-3-0-6-8"
         operator="dilate"
         radius="6.2000000000000002"
         result="result3" />
      <feComposite
         id="feComposite4385-9-5-7-0-8-8-7-0-9"
         in2="result3"
         in="SourceGraphic"
         operator="over"
         result="fbSourceGraphic" />
      <feColorMatrix
         result="fbSourceGraphicAlpha"
         in="fbSourceGraphic"
         values="0 0 0 -1 0 0 0 0 -1 0 0 0 0 -1 0 0 0 0 1 0"
         id="feColorMatrix4544-6-7" />
      <feTurbulence
         id="feTurbulence4546-2-3"
         type="fractalNoise"
         numOctaves="3"
         seed="37"
         baseFrequency="0.129 0.0050000000000000001"
         result="turbulence" />
      <feDisplacementMap
         id="feDisplacementMap4548-6-6"
         in2="turbulence"
         in="fbSourceGraphic"
         scale="6.6"
         yChannelSelector="G"
         xChannelSelector="R"
         result="fbSourceGraphic" />
      <feColorMatrix
         result="fbSourceGraphicAlpha"
         in="fbSourceGraphic"
         values="0 0 0 -1 0 0 0 0 -1 0 0 0 0 -1 0 0 0 0 1 0"
         id="feColorMatrix4670-1-1" />
      <feFlood
         id="feFlood4672-8-2"
         flood-opacity="1"
         flood-color="rgb(80,22,22)"
         result="flood"
         in="fbSourceGraphic" />
      <feComposite
         id="feComposite4674-7-9"
         in2="fbSourceGraphic"
         in="flood"
         operator="in"
         result="composite1" />
      <feGaussianBlur
         id="feGaussianBlur4676-9-3"
         in="composite1"
         stdDeviation="0"
         result="blur" />
      <feOffset
         id="feOffset4678-2-1"
         dx="6"
         dy="6"
         result="offset" />
      <feComposite
         id="feComposite4680-0-9"
         in2="offset"
         in="fbSourceGraphic"
         operator="over"
         result="composite2" />
    </filter>
  </defs>
  <sodipodi:namedview
     pagecolor="#ffffff"
     bordercolor="#666666"
     borderopacity="1"
     objecttolerance="10"
     gridtolerance="10"
     guidetolerance="10"
     inkscape:pageopacity="0"
     inkscape:pageshadow="2"
     inkscape:window-width="1680"
     inkscape:window-height="1001"
     id="namedview4"
     showgrid="false"
     inkscape:zoom="0.44990009"
     inkscape:cx="1216.35"
     inkscape:cy="817.78442"
     inkscape:window-x="0"
     inkscape:window-y="1"
     inkscape:window-maximized="1"
     inkscape:current-layer="layer3"
     inkscape:snap-global="false" />
  <g
     inkscape:groupmode="layer"
     id="layer2"
     inkscape:label="artwork"
     sodipodi:insensitive="true">
    <image
       sodipodi:absref="/Users/gand/Downloads/lang/it/../gfx_Pepper-and-Carrot_by-David-Revoy_E24P04.png"
       xlink:href="../gfx_Pepper-and-Carrot_by-David-Revoy_E24P04.png"
       width="2481"
       height="3503"
       id="image10"
       x="0"
       y="0" />
  </g>
  <g
     inkscape:groupmode="layer"
     id="layer3"
     inkscape:label="speechbubbles"
     style="display:inline">
    <path
       style="color:#000000;display:inline;overflow:visible;visibility:visible;fill:#ffffff;fill-opacity:1;fill-rule:nonzero;stroke:none;stroke-width:1.07170713px;marker:none;enable-background:accumulate"
       d="m 262.0697,175.91178 c -7.08863,18.3782 -47.06947,19.91929 -61.78752,16.1836 29.66818,20.5594 28.63388,33.33329 -11.64716,35.31667 67.552,37.05342 12.34942,31.44637 1.46109,40.84206 53.04083,12.76942 29.30982,28.6613 19.86671,44.48137 60.96517,0.54339 41.01405,25.90245 43.58362,46.09931 5.16836,-9.47726 29.72189,-38.33026 31.19927,-6.20439 40.32492,-30.64981 88.89525,-50.44806 92.75187,3.18923 16.24759,-26.98345 32.44642,-38.38776 31.19928,-6.20439 40.25643,-41.85853 76.43241,-26.79142 112.82277,-14.96063 9.55775,-12.63389 10.6714,-32.04321 41.59294,-27.49474 -4.33555,-12.52246 6.10484,-21.13035 29.68275,-26.24207 -31.33129,-7.56446 -37.10555,-15.36702 21.06964,-23.76378 -44.2679,-0.8122 -85.54803,-2.47623 -33.61213,-31.11163 -16.29374,-0.6929 -54.95234,23.20127 -36.92817,-46.72553 -28.01799,22.38601 -57.91067,34.74151 -95.39878,-12.15147 -17.74128,23.4268 -48.51311,35.01932 -61.90039,5.75738 -4.81165,12.47488 -24.76335,17.16648 -41.70086,17.73544 -6.54977,-4.95527 -13.30508,-11.68577 -20.35457,-20.50381 -11.52179,18.51555 -28.75714,31.02013 -61.90036,5.75738 z"
       id="path3549-3-7"
       inkscape:connector-curvature="0"
       sodipodi:nodetypes="cccccccccccccccccccc" />
    <path
       style="fill:#ffffff;fill-opacity:1;stroke:none;stroke-width:1.00887251"
       d="M 123.06509,483.31933 C 114.33179,340.6295 204.23411,267.73321 447.02004,274.21912 689.80596,280.7049 710.0555,337.52641 746.21725,385.2047 779.70823,471.69365 738.61102,570.67343 588.39816,625.80364 438.1853,680.93363 256.10501,636.73877 200.62854,596.20185 158.84323,565.66912 124.81174,520.61318 123.06509,483.31933 Z"
       id="path3238"
       inkscape:connector-curvature="0"
       sodipodi:nodetypes="csccsc" />
    <path
       style="color:#000000;display:inline;overflow:visible;visibility:visible;fill:#ffffff;fill-opacity:1;fill-rule:nonzero;stroke:none;stroke-width:0.99999994px;marker:none;enable-background:accumulate"
       d="M 596.21217,741.80339 C 501.79196,722.52725 437.83691,642.18346 443.09216,578.88932 l -19.71491,23.41057 c -31.12393,-38.05864 -21.85913,123.01364 172.83492,139.5035 z"
       id="path3072-1"
       inkscape:connector-curvature="0"
       sodipodi:nodetypes="cccc" />
    <path
       style="fill:#ffffff;fill-opacity:1;stroke:none;stroke-width:0.99999994"
       d="m 2318.3619,1747.9316 c 2.3138,68.9684 -41.3001,105.8216 -212.7057,107.4166 -107.7686,1.0027 -180.1756,-38.8541 -197.6094,-86.5465 -17.4337,-47.6925 -28.8447,-111.9626 76.7553,-149.5261 105.6001,-37.5633 252.8973,-5.7154 292.3493,20.8181 29.7156,19.9853 38.8968,38.8697 41.2105,107.8379 z"
       id="path3238-4"
       inkscape:connector-curvature="0"
       sodipodi:nodetypes="zszcsz" />
    <path
       style="color:#000000;display:inline;overflow:visible;visibility:visible;fill:#ffffff;fill-opacity:1;fill-rule:nonzero;stroke:none;stroke-width:0.99999994px;marker:none;enable-background:accumulate"
       d="m 1974.4716,1474.8738 c 77.6678,42.426 102.483,122.4068 71.5737,169.065 l 27.5491,-12.0352 c 12.5064,38.13 70.6344,-87.2598 -99.1228,-157.0298 z"
       id="path3072-1-7"
       inkscape:connector-curvature="0"
       sodipodi:nodetypes="cccc" />
    <path
       style="color:#000000;display:inline;overflow:visible;visibility:visible;fill:#ffffff;fill-opacity:1;fill-rule:nonzero;stroke:none;stroke-width:0.99999988px;marker:none;enable-background:accumulate"
       d="m 51.513484,2108.0075 c 8.550619,-83.8718 80.269296,-142.3584 260.794616,-118.5774 96.69909,12.7383 210.42112,26.9996 199.02033,149.9154 -11.4009,122.9155 -186.33389,105.1387 -219.11139,106.5848 -32.77751,1.4462 -195.2424,4.1505 -223.572835,-39.0761 -17.734199,-27.0587 -18.555806,-72.8174 -17.130721,-98.8467 z"
       id="path4546"
       inkscape:connector-curvature="0"
       sodipodi:nodetypes="cssssc" />
    <path
       style="fill:#ffffff;fill-opacity:1;fill-rule:evenodd;stroke:none;stroke-width:1px;stroke-linecap:butt;stroke-linejoin:miter;stroke-opacity:1"
       d="m 793.02377,3297.9669 c -10.17786,-14.0334 11.78616,-25.0634 23.79905,-28.0093 16.18132,-1.6312 34.70347,2.2361 46.83938,-11.1211 12.085,-10.9608 30.72326,-13.9637 45.74036,-6.9114 11.25357,4.8376 24.71983,9.9387 36.44928,3.2875 14.98987,-5.8141 34.74267,-7.5795 47.15686,4.1939 20.258,6.8184 38.8539,-9.1766 59.229,-7.3925 16.8252,1.2425 38.6041,2.9266 47.225,18.9217 6.1468,16.4411 22.0578,16.318 39.265,18.9973 18.1582,4.7819 10.9267,33.3096 4.1342,44.2483 -8.5337,12.8305 -26.5682,9.6028 -40.1114,9.1078 -17.957,-2.2789 -34.9536,4.9004 -50.0954,13.2436 -15.5247,6.869 -33.2621,1.5973 -49.5457,5.5923 -21.70478,4.8458 -44.73333,4.9683 -65.32616,13.9265 -22.55542,6.1272 -47.27802,0.2035 -65.66795,-13.1194 -15.89596,-7.4466 -36.90659,4.1886 -50.41855,-9.3099 -8.62377,-12.2754 -20.80475,-20.5144 -31.88957,-30.0556 -7.8949,-9.29 3.9372,-16.5857 3.2166,-25.5997 z"
       id="path4367"
       inkscape:connector-curvature="0"
       sodipodi:nodetypes="cccccccccccccccccc" />
    <path
       style="fill:#ffffff;fill-rule:evenodd;stroke:none;stroke-width:0.99999994px;stroke-linecap:butt;stroke-linejoin:miter;stroke-opacity:1"
       d="m 1617.4359,3246.9359 c -12.9289,11.4769 -27.1925,24.3584 -46.9026,28 -16.0286,1.9565 -28.2876,-9.6392 -33.8364,-20.2344 -1.7787,-3.1554 -3.3157,-6.3912 -4.8145,-9.6347 -4.6569,12.0165 -11.0935,26.6343 -27.561,31.1093 -6.2137,1.0411 -12.9291,-2.367 -17.3137,-4.0683 -13.7854,32.1359 -21.835,22.5138 -39.9888,7.2398 10.3538,26.7848 -9.269,38.1323 -23.8947,36.7289 -1.6704,0.1445 -6.0494,-1.4271 -3.3511,0.8223 28.9952,6.283 28.0715,19.5504 4.4203,31.2285 12.4301,-3.697 29.9258,-3.7176 37.488,6.4297 3.2283,4.2736 4.1358,9.3395 4.6124,14.2246 9.8036,-7.8534 26.8925,-13.4118 39.2669,-5.9141 8.7192,4.4462 13.4205,13.5829 17.634,19.5371 7.9704,-10.2823 19.1124,-22.6899 36.0072,-22.6679 7.2288,0.7087 12.7891,5.1892 16.4169,9.8965 7.6629,-10.2342 25.2348,-17.3179 39.3385,-10.8789 7.2737,2.7743 12.9837,7.4356 18.8411,11.7148 0.3277,-11.3584 11.7911,-23.4604 27.231,-22.4121 3.128,-0.216 7.8111,0.6738 9.715,0.5058 -10.5668,-9.5522 -13.6021,-25.0864 -2.7052,-35.2578 0.9175,-1.9073 6.7587,-5.1257 4.8019,-5.8379 -19.2145,1.5435 -38.5629,-5.929 -24.6757,-22.4257 -26.18,5.429 -39.1565,-12.8191 -28.4824,-40.1485 -0.749,0.681 -1.498,1.362 -2.2471,2.043 z"
       id="path1331"
       inkscape:connector-curvature="0"
       sodipodi:nodetypes="ccccccccccccccccccccccccc" />
    <path
       style="display:inline;fill:#ffffff;fill-rule:evenodd;stroke:none;stroke-width:1px;stroke-linecap:butt;stroke-linejoin:miter;stroke-opacity:1"
       d="m 1898.0036,3200.4328 c 49.5569,27.5237 77.7851,16.331 76.9345,-47.6471 23.6433,69.1361 40.0507,84.5986 49.7812,50.5348 31.3021,29.2792 50.853,21.0662 66.375,0 5.7854,27.0926 18.1924,16.1598 28.93,14.814 3.5365,6.1295 -8.61,21.3579 40.4619,1.0684 3.1787,8.113 7.4605,15.0997 36.2044,-2.8877 7.4467,32.9299 31.3389,-1.825 55.8154,-38.984 -15.2495,45.6837 -8.9262,52.1363 10.5596,34.6524 -8.9088,18.8129 -14.237,33.3763 19.6108,1.4439 -11.5878,34.7248 18.8127,10.8898 67.8834,-38.9839 -24.5459,36.8663 -89.6361,99.0018 -46.7641,93.8501 -5.9787,10.8684 -27.3047,20.3376 36.2045,37.5401 -11.8563,7.3751 -48.0533,-3.4021 -17.8585,27.824 4.0455,3.6501 -9.4979,5.879 16.35,15.4914 -15.2583,-0.6538 -24.6158,1.6824 -10.5597,15.8825 -27.8519,-0.7678 -17.4309,14.1637 3.017,33.2085 -40.3335,-24.429 -42.5531,-15.5505 -43.7472,-5.7754 -50.5496,-33.305 -53.5169,-22.8191 -60.3406,-15.8823 -24.6392,0.2598 -49.2785,-3.9343 -73.9177,33.2085 -6.4526,-23.1019 -19.3895,-40.8842 -73.9174,-24.5454 23.942,-29.3896 -10.1186,-10.6653 -36.2044,1.4438 14.2851,-36.7149 -21.9687,-12.619 -67.8836,23.1016 25.7122,-40.5435 -3.4908,-25.8982 -46.7641,2.8877 16.3499,-39.8299 -10.2776,-59.0922 -73.9176,-60.6416 30.4601,-14.3672 48.2226,-32.4479 16.5938,-64.9734 35.6547,9.5773 46.2901,0.6814 21.1193,-34.6523 38.8898,29.0016 21.208,-13.0639 6.0341,-51.9786 z"
       id="path4508"
       inkscape:connector-curvature="0"
       sodipodi:nodetypes="cccccccccccccccccccccccccccc" />
    <path
       style="fill:#ffffff;stroke:none;stroke-width:1"
       d="m 1841.9291,2295.937 c -1.4451,-30.402 25.0904,-111.7647 225.1191,-118.4101 203.5054,-6.7609 296.0172,57.8837 300.382,111.9588 6.9052,85.5453 -109.8483,72.9718 -261.1374,76.3023 -155.9628,3.4335 -255.8342,7.0453 -264.3637,-69.851 z"
       id="path3280"
       inkscape:connector-curvature="0"
       sodipodi:nodetypes="csssc" />
    <path
       style="fill:#ffffff;stroke:none;stroke-width:1"
       d="m 254.96442,2324.1509 c -54.38249,-17.8219 -66.33148,-52.9511 -74.01784,-123.2551 -4.65716,-42.5973 9.48134,-57.6606 9.48134,-57.6606 l -35.68519,18.4405 -0.11203,17.0646 c 0,0 -15.3368,56.7167 16.55537,100.1244 15.1088,20.5643 40.81747,38.1415 83.77835,45.2862 z"
       id="path3063"
       inkscape:connector-curvature="0"
       sodipodi:nodetypes="cscccsc" />
  </g>
  <g
     inkscape:groupmode="layer"
     id="layer1"
     inkscape:label="txt"
     style="display:inline">
    <text
       xml:space="preserve"
       style="font-style:normal;font-variant:normal;font-weight:normal;font-stretch:normal;font-size:16.23249817px;line-height:0%;font-family:Lavi;-inkscape-font-specification:Lavi;text-align:center;letter-spacing:0px;word-spacing:0px;text-anchor:middle;fill:#000000;fill-opacity:1;stroke:none;stroke-width:1"
       x="381.57074"
       y="275.12958"
       id="text4246"><tspan
         sodipodi:role="line"
         style="font-size:60.87186813px;line-height:1.25;stroke-width:1"
         x="381.57074"
         y="275.12958"
         id="tspan4252">Fantastico!</tspan></text>
    <text
       xml:space="preserve"
       style="font-style:normal;font-variant:normal;font-weight:normal;font-stretch:normal;line-height:0%;font-family:Lavi;-inkscape-font-specification:Lavi;text-align:center;letter-spacing:0px;word-spacing:0px;text-anchor:middle;fill:#000000;fill-opacity:1;stroke:none"
       x="437.78906"
       y="365.34122"
       id="text4246-3"><tspan
         sodipodi:role="line"
         style="font-size:45px;line-height:1.25"
         x="437.78906"
         y="365.34122"
         id="tspan913">È come un contenitore,</tspan><tspan
         sodipodi:role="line"
         style="font-size:45px;line-height:1.25"
         x="437.78906"
         y="421.59122"
         id="tspan851">con solo la parte della</tspan><tspan
         sodipodi:role="line"
         style="font-size:45px;line-height:1.25"
         x="437.78906"
         y="477.84122"
         id="tspan929">libreria che mi interessa.</tspan><tspan
         sodipodi:role="line"
         style="font-size:45px;line-height:1.25"
         x="437.78906"
         y="534.09119"
         id="tspan931">Ed è totalmente isolato</tspan><tspan
         sodipodi:role="line"
         style="font-size:45px;line-height:1.25"
         x="437.78906"
         y="590.34125"
         id="tspan855">dal resto del mondo.</tspan></text>
    <text
       xml:space="preserve"
       style="font-style:normal;font-variant:normal;font-weight:normal;font-stretch:normal;line-height:0%;font-family:Lavi;-inkscape-font-specification:Lavi;text-align:center;letter-spacing:0px;word-spacing:0px;text-anchor:middle;fill:#000000;fill-opacity:1;stroke:none"
       x="2111.3555"
       y="1687.1895"
       id="text4246-3-7"><tspan
         sodipodi:role="line"
         style="font-size:45px;line-height:1.25"
         x="2111.3555"
         y="1687.1895"
         id="tspan958">È il posto ideale</tspan><tspan
         sodipodi:role="line"
         style="font-size:45px;line-height:1.25"
         x="2111.3555"
         y="1743.4395"
         id="tspan972">per provare</tspan><tspan
         sodipodi:role="line"
         style="font-size:45px;line-height:1.25"
         x="2111.3555"
         y="1799.6895"
         id="tspan974">gli incantesimi.</tspan></text>
    <text
       xml:space="preserve"
       style="font-style:normal;font-variant:normal;font-weight:normal;font-stretch:normal;line-height:0%;font-family:Lavi;-inkscape-font-specification:Lavi;text-align:center;letter-spacing:0px;word-spacing:0px;text-anchor:middle;fill:#000000;fill-opacity:1;stroke:none"
       x="290.16486"
       y="2080.0325"
       id="text4246-3-7-9"><tspan
         sodipodi:role="line"
         style="font-size:45px;line-height:1.25"
         x="290.16486"
         y="2080.0325"
         id="tspan938">È tempo di</tspan><tspan
         sodipodi:role="line"
         style="font-size:45px;line-height:1.25"
         x="290.16486"
         y="2136.2825"
         id="tspan940">concentrarsi sul</tspan><tspan
         sodipodi:role="line"
         style="font-size:45px;line-height:1.25"
         x="290.16486"
         y="2192.5325"
         id="tspan1007">mio capolavoro!</tspan></text>
    <text
       xml:space="preserve"
       style="font-style:normal;font-variant:normal;font-weight:normal;font-stretch:normal;font-size:51.73136902px;line-height:0.01%;font-family:Arial;-inkscape-font-specification:Arial;letter-spacing:0.0088361px;word-spacing:0px;display:inline;fill:#faedf6;fill-opacity:1;stroke:#fff3fa;stroke-width:1.62600005;stroke-miterlimit:4;stroke-dasharray:none;stroke-opacity:1"
       x="1308.5319"
       y="3636.3977"
       id="text1105"
       transform="matrix(1.1211525,-0.41389973,-0.28840838,0.99841201,0,0)"><tspan
         sodipodi:role="line"
         x="1329.4746"
         y="3636.3977"
         id="tspan1103"
         style="font-style:normal;font-variant:normal;font-weight:normal;font-stretch:normal;font-family:Lavi;-inkscape-font-specification:Lavi;fill:#faedf6;fill-opacity:1;stroke:#fff3fa;stroke-width:1.62600005;stroke-miterlimit:4;stroke-dasharray:none;stroke-opacity:1"><tspan
           x="1329.4746"
           y="3636.3977"
           style="font-style:normal;font-variant:normal;font-weight:normal;font-stretch:normal;font-size:42.71826553px;font-family:Lavi;-inkscape-font-specification:Lavi;fill:#faedf6;fill-opacity:1;stroke:#fff3fa;stroke-width:1.62600005;stroke-miterlimit:4;stroke-dasharray:none;stroke-opacity:1"
           id="tspan1095">StiiING</tspan></tspan></text>
    <text
       xml:space="preserve"
       style="font-style:normal;font-variant:normal;font-weight:normal;font-stretch:normal;line-height:0%;font-family:Lavi;-inkscape-font-specification:Lavi;letter-spacing:0px;word-spacing:0px;fill:#ffffff;fill-opacity:1;stroke:#c83737;stroke-width:0.99236238;stroke-miterlimit:4;stroke-dasharray:none;stroke-opacity:1;filter:url(#filter4375-4-1-1-1-9-5-8)"
       x="787.65729"
       y="1584.5073"
       id="text4580-6-0"
       transform="matrix(0.83434398,-0.14790328,-0.40858731,0.88612324,768.47254,904.8039)"><tspan
         sodipodi:role="line"
         id="tspan4582-1-1"
         x="787.65729"
         y="1584.5073"
         style="font-size:70px;line-height:1.25;fill:#ffffff;fill-opacity:1;stroke:#c83737;stroke-opacity:1"><tspan
           style="font-size:93.14950562px;fill:#ffffff;fill-opacity:1;stroke:#c83737;stroke-opacity:1"
           id="tspan4315-8">PLUuuum!</tspan><tspan
           style="font-size:114.73223114px;fill:#ffffff;fill-opacity:1;stroke:#c83737;stroke-opacity:1"
           id="tspan4313-2">!</tspan></tspan></text>
    <text
       xml:space="preserve"
       style="font-style:normal;font-variant:normal;font-weight:normal;font-stretch:normal;line-height:0%;font-family:Lavi;-inkscape-font-specification:Lavi;letter-spacing:0px;word-spacing:0px;fill:#ffffff;fill-opacity:1;stroke:#c83737;stroke-width:0.99236238;stroke-miterlimit:4;stroke-dasharray:none;stroke-opacity:1;filter:url(#filter4375-4-1-1-1-9-5-8-0)"
       x="787.65729"
       y="1584.5073"
       id="text4580-6-0-2"
       transform="matrix(0.83434398,-0.14790328,-0.40858731,0.88612324,1358.123,876.325)"><tspan
         sodipodi:role="line"
         id="tspan4582-1-1-3"
         x="787.65729"
         y="1584.5073"
         style="font-size:70px;line-height:1.25;fill:#ffffff;fill-opacity:1;stroke:#c83737;stroke-opacity:1"><tspan
           style="font-size:93.14950562px;fill:#ffffff;fill-opacity:1;stroke:#c83737;stroke-opacity:1"
           id="tspan4315-8-7">Dhiuuff!</tspan><tspan
           style="font-size:114.73223114px;fill:#ffffff;fill-opacity:1;stroke:#c83737;stroke-opacity:1"
           id="tspan4313-2-5">!</tspan></tspan></text>
    <text
       xml:space="preserve"
       style="font-style:normal;font-variant:normal;font-weight:normal;font-stretch:normal;line-height:0%;font-family:Lavi;-inkscape-font-specification:Lavi;letter-spacing:0px;word-spacing:0px;fill:#ffffff;fill-opacity:1;stroke:#c83737;stroke-width:0.99236238;stroke-miterlimit:4;stroke-dasharray:none;stroke-opacity:1;filter:url(#filter4375-4-1-1-1-9-5-8-0-9)"
       x="787.65729"
       y="1584.5073"
       id="text4580-6-0-2-4"
       transform="matrix(0.83434398,-0.14790328,-0.40858731,0.88612324,1943.5394,867.70579)"><tspan
         sodipodi:role="line"
         id="tspan4582-1-1-3-7"
         x="787.65729"
         y="1584.5073"
         style="font-size:70px;line-height:1.25;fill:#ffffff;fill-opacity:1;stroke:#c83737;stroke-opacity:1"><tspan
           style="font-size:93.14950562px;fill:#ffffff;fill-opacity:1;stroke:#c83737;stroke-opacity:1"
           id="tspan4315-8-7-8">Ctingh!</tspan><tspan
           style="font-size:114.73223114px;fill:#ffffff;fill-opacity:1;stroke:#c83737;stroke-opacity:1"
           id="tspan4313-2-5-4">!</tspan></tspan></text>
    <text
       xml:space="preserve"
       style="font-style:normal;font-variant:normal;font-weight:normal;font-stretch:normal;line-height:0%;font-family:Lavi;-inkscape-font-specification:Lavi;text-align:center;letter-spacing:0px;word-spacing:0px;text-anchor:middle;fill:#000000;fill-opacity:1;stroke:none"
       x="970.4834"
       y="3324.7639"
       id="text4246-3-7-9-5"><tspan
         sodipodi:role="line"
         style="font-size:45px;line-height:1.25"
         x="970.4834"
         y="3324.7639"
         id="tspan1157">Heh. Uh, no no.</tspan></text>
    <text
       xml:space="preserve"
       style="font-style:normal;font-variant:normal;font-weight:normal;font-stretch:normal;line-height:0%;font-family:Lavi;-inkscape-font-specification:Lavi;text-align:center;letter-spacing:0px;word-spacing:0px;text-anchor:middle;fill:#000000;fill-opacity:1;stroke:none"
       x="1547.7905"
       y="3333.6245"
       id="text4246-3-7-9-5-1"><tspan
         sodipodi:role="line"
         style="font-size:45px;line-height:1.25"
         x="1547.7905"
         y="3333.6245"
         id="tspan1157-0">Oppsss!</tspan></text>
    <text
       xml:space="preserve"
       style="font-style:normal;font-variant:normal;font-weight:normal;font-stretch:normal;line-height:0%;font-family:Lavi;-inkscape-font-specification:Lavi;text-align:center;letter-spacing:0px;word-spacing:0px;text-anchor:middle;fill:#000000;fill-opacity:1;stroke:none"
       x="2107.2458"
       y="2256.656"
       id="text4246-3-7-9-5-1-6"><tspan
         sodipodi:role="line"
         style="font-size:45px;line-height:1.25"
         x="2107.2458"
         y="2256.656"
         id="tspan1157-0-3">Si! Non è male,</tspan><tspan
         sodipodi:role="line"
         style="font-size:45px;line-height:1.25"
         x="2107.2458"
         y="2312.906"
         id="tspan1197">ma è troppo piccolo...</tspan></text>
    <text
       xml:space="preserve"
       style="font-style:normal;font-variant:normal;font-weight:normal;font-stretch:normal;font-size:11.64131737px;line-height:0%;font-family:Lavi;-inkscape-font-specification:Lavi;text-align:center;letter-spacing:0px;word-spacing:0px;text-anchor:middle;fill:#000000;fill-opacity:1;stroke:#000000;stroke-width:1.79999995;stroke-miterlimit:4;stroke-dasharray:none;stroke-opacity:1"
       x="2697.5513"
       y="3249.49"
       id="text4246-3-7-9-5-1-6-2"
       transform="matrix(0.987836,0,-0.17384645,1.0123138,0,0)"><tspan
         sodipodi:role="line"
         style="font-size:43.65493774px;line-height:1.25;stroke:#000000;stroke-width:1.79999995;stroke-miterlimit:4;stroke-dasharray:none;stroke-opacity:1"
         x="2697.5513"
         y="3249.49"
         id="tspan1197-6">CARROT! NON</tspan><tspan
         sodipodi:role="line"
         style="font-size:43.65493774px;line-height:1.25;stroke:#000000;stroke-width:1.79999995;stroke-miterlimit:4;stroke-dasharray:none;stroke-opacity:1"
         x="2697.5513"
         y="3304.0586"
         id="tspan1222">TOCCARLO!</tspan></text>
    <text
       xml:space="preserve"
       style="font-style:normal;font-variant:normal;font-weight:normal;font-stretch:normal;font-size:14.55866337px;line-height:0%;font-family:Lavi;-inkscape-font-specification:Lavi;text-align:center;letter-spacing:0px;word-spacing:0px;text-anchor:middle;fill:#f49474;fill-opacity:1;stroke:none;stroke-width:1"
       x="2459.8232"
       y="3396.968"
       id="text4246-3-7-9-5-1-6-2-1"
       transform="matrix(1.0600479,-0.23035956,-0.08957656,0.9628195,0,0)"><tspan
         sodipodi:role="line"
         style="font-size:54.59498596px;line-height:1.25;fill:#f49474;fill-opacity:1;stroke-width:0.82425153"
         x="2459.8232"
         y="3396.968"
         id="tspan1222-5">?</tspan></text>
    <flowRoot
       xml:space="preserve"
       id="flowRoot915"
       style="fill:black;stroke:none;stroke-opacity:1;stroke-width:1px;stroke-linejoin:miter;stroke-linecap:butt;fill-opacity:1;font-family:Sans;font-style:normal;font-weight:normal;font-size:40px;line-height:1000%;letter-spacing:0px;word-spacing:0px;-inkscape-font-specification:Sans"><flowRegion
         id="flowRegion917"><rect
           id="rect919"
           width="29.999998"
           height="102.49999"
           x="477.49997"
           y="355.50015" /></flowRegion><flowPara
         id="flowPara921" /></flowRoot>    <flowRoot
       xml:space="preserve"
       id="flowRoot988"
       style="fill:black;stroke:none;stroke-opacity:1;stroke-width:1px;stroke-linejoin:miter;stroke-linecap:butt;fill-opacity:1;font-family:Sans;font-style:normal;font-weight:normal;font-size:40px;line-height:1000%;letter-spacing:0px;word-spacing:0px;-inkscape-font-specification:Sans"><flowRegion
         id="flowRegion990"><rect
           id="rect992"
           width="117.49999"
           height="130"
           x="305"
           y="2070.5" /></flowRegion><flowPara
         id="flowPara994" /></flowRoot>  </g>
</svg>
