<?xml version="1.0" encoding="UTF-8" standalone="no"?>
<svg
   id="svg2"
   version="1.1"
   inkscape:version="1.1 (c68e22c387, 2021-05-23)"
   width="2481"
   height="3503"
   sodipodi:docname="E04P07.svg"
   xmlns:inkscape="http://www.inkscape.org/namespaces/inkscape"
   xmlns:sodipodi="http://sodipodi.sourceforge.net/DTD/sodipodi-0.dtd"
   xmlns:xlink="http://www.w3.org/1999/xlink"
   xmlns="http://www.w3.org/2000/svg"
   xmlns:svg="http://www.w3.org/2000/svg"
   xmlns:rdf="http://www.w3.org/1999/02/22-rdf-syntax-ns#"
   xmlns:cc="http://creativecommons.org/ns#"
   xmlns:dc="http://purl.org/dc/elements/1.1/">
  <sodipodi:namedview
     pagecolor="#ffffff"
     bordercolor="#666666"
     inkscape:pageopacity="0"
     inkscape:pageshadow="2"
     inkscape:window-width="1366"
     inkscape:window-height="745"
     id="namedview70"
     showgrid="false"
     inkscape:zoom="0.56568542"
     inkscape:cx="1599.8291"
     inkscape:cy="3235.8974"
     inkscape:current-layer="layer1"
     inkscape:window-x="-8"
     inkscape:window-y="-8"
     inkscape:window-maximized="1"
     inkscape:document-rotation="0"
     borderopacity="1.0"
     inkscape:pagecheckerboard="0" />
  <metadata
     id="metadata8">
    <rdf:RDF>
      <cc:Work
         rdf:about="">
        <dc:format>image/svg+xml</dc:format>
        <dc:type
           rdf:resource="http://purl.org/dc/dcmitype/StillImage" />
        <dc:title />
      </cc:Work>
    </rdf:RDF>
  </metadata>
  <defs
     id="defs6" />
  <sodipodi:namedview
     pagecolor="#ffffff"
     bordercolor="#666666"
     borderopacity="1"
     objecttolerance="10"
     gridtolerance="10"
     guidetolerance="10"
     inkscape:pageopacity="0"
     inkscape:pageshadow="2"
     inkscape:window-width="1920"
     inkscape:window-height="1025"
     id="namedview4"
     showgrid="false"
     inkscape:zoom="0.27255257"
     inkscape:cx="1528.4552"
     inkscape:cy="2135.3742"
     inkscape:window-x="0"
     inkscape:window-y="26"
     inkscape:window-maximized="1"
     inkscape:current-layer="layer1" />
  <g
     inkscape:groupmode="layer"
     id="layer2"
     inkscape:label="artwork"
     sodipodi:insensitive="true">
    <image
       xlink:href="../gfx_Pepper-and-Carrot_by-David-Revoy_E04P07.png"
       width="2481"
       height="3503"
       id="image10"
       x="0"
       y="0" />
  </g>
  <g
     inkscape:groupmode="layer"
     id="layer3"
     inkscape:label="speechbubbles">
    <path
       style="display:inline;fill:#ffffff;stroke:none;stroke-width:0.932488"
       d="m 176.62973,66.503189 23.21263,37.250441 -13.4783,18.14766 6.73915,10.50654 -10.48312,10.50653 20.96624,7.64112 c -13.52767,23.33129 -31.7411,43.07639 -50.91802,62.08407 l 28.45419,-5.73083 c -1.39504,13.40465 -7.67806,25.25056 -13.47829,37.25044 l 29.95177,-16.23737 c 0.78268,9.05927 -5.0907,14.72244 -9.73433,21.01306 l 21.71504,-5.73084 -2.99518,7.64112 c 8.77818,-2.60093 17.1212,-4.64677 26.9566,-8.59625 l -12.7295,25.78877 26.20781,-16.23737 6.73915,10.50653 6.73915,-11.46168 7.48794,39.16073 14.22709,-41.07101 9.41196,24.15264 7.81031,-22.24236 c 9.64732,10.99877 14.5027,23.4385 17.97107,36.29531 7.63382,-15.28223 15.23429,-30.56447 26.2078,-45.84671 4.70177,4.54876 11.34328,14.87079 19.46866,29.60934 l 5.24157,-20.05794 c 14.1517,13.40401 26.36403,27.63263 33.69574,43.93643 v -41.071 l 18.71986,21.01306 5.99035,-32.47474 16.47348,22.92335 1.49759,-26.74391 21.71505,19.1028 -0.74881,-16.23739 21.71504,12.41683 c 0,0 -5.41357,-26.23669 -1.81655,-31.38255 3.59703,-5.14585 29.52195,7.50406 29.52195,7.50406 0,0 -8.55356,-19.19428 -5.99035,-22.92335 2.56319,-3.72908 28.45418,0.95513 28.45418,0.95513 l -21.71504,-31.51961 c 16.09931,-10.34706 32.22225,-20.66396 51.66682,-26.7439 0,0 -24.25035,-20.16417 -24.92342,-24.96852 -0.67308,-4.80436 11.44512,-10.37164 11.44512,-10.37164 l -23.21093,-14.05297 26.20611,-17.466643 -44.92768,1.910279 20.21746,-33.429891 -33.69575,28.654187 14.2271,-62.084073 C 496.49493,44.382382 474.56217,63.844216 451.4373,81.785422 l 8.23673,-21.96821 -29.95177,25.788768 -2.99519,-50.622398 -11.9807,39.160724 C 404.26461,53.085253 398.52306,30.298643 396.0265,6.3293942 393.9343,27.979225 386.27554,49.629055 375.06026,71.278887 l -8.23673,-47.75698 -17.97107,37.250445 -9.73433,-28.654189 -16.47348,35.340166 -17.97107,-54.442958 -3.74397,51.577538 -10.48312,-21.013071 -5.99036,24.83363 -16.47347,-35.340166 3.74397,39.160724 c -16.80929,-18.57601 -28.15905,-30.188 -41.93248,-44.891561 l 14.97588,50.622398 -23.21263,-23.878488 8.98553,35.340164 -19.46866,-13.371956 2.99519,21.968213 z"
       id="path3497"
       inkscape:connector-curvature="0"
       sodipodi:nodetypes="ccccccccccccccccccccccccccccccccccczczccczccccccccccccccccccccccccccccccc" />
    <path
       style="color:#000000;display:inline;overflow:visible;visibility:visible;fill:#ffffff;fill-opacity:1;fill-rule:nonzero;stroke:none;stroke-width:1px;stroke-linecap:butt;stroke-linejoin:miter;stroke-opacity:1;marker:none;enable-background:accumulate"
       d="m 208.59272,300.64828 c -0.90692,-40.81162 28.11467,-66.20552 34.46315,-68.92629 6.34847,-2.72078 215.84812,-15.41773 239.42816,1.81385 23.58005,17.23157 29.0216,29.02159 26.30082,44.43931 -2.72077,15.41773 -17.23157,56.22935 -50.78779,68.01937 -33.55622,11.79002 -111.55176,17.23157 -152.36338,8.16232 -40.81162,-9.06924 -100.66866,-18.13849 -97.04096,-53.50856 z"
       id="path3517"
       inkscape:connector-curvature="0" />
    <path
       style="color:#000000;display:inline;overflow:visible;visibility:visible;fill:#ffffff;fill-opacity:1;fill-rule:nonzero;stroke:none;stroke-width:1.10871px;stroke-linecap:butt;stroke-linejoin:miter;stroke-opacity:1;marker:none;enable-background:accumulate"
       d="m 386.68031,381.36459 c -6.689,-29.0216 11.14835,-106.11021 148.27288,-99.76174 137.12455,6.34848 159.42123,42.62547 162.76572,53.50857 3.34451,10.8831 32.33018,72.55399 -74.69385,88.87864 -107.02403,16.32465 -202.89973,-0.90693 -236.34475,-42.62547 z"
       id="path3525"
       inkscape:connector-curvature="0" />
    <path
       style="color:#000000;display:inline;overflow:visible;visibility:visible;fill:#ffffff;fill-opacity:1;fill-rule:nonzero;stroke:none;stroke-width:0.850142px;stroke-linecap:butt;stroke-linejoin:miter;stroke-opacity:1;marker:none;enable-background:accumulate"
       d="m 785.56594,403.52296 c 24.20858,-31.33336 75.13009,-57.68187 141.91239,-68.36369 66.7823,-10.68184 190.32957,-7.83336 212.03377,-4.27274 21.7043,3.56061 141.0777,16.3788 166.9558,34.18185 25.8781,17.80305 60.9388,39.87882 68.4518,62.66673 7.5131,22.78789 0.8349,77.62128 -23.3738,89.72735 -24.2086,12.10609 -134.3994,38.4546 -198.6773,39.87884 -64.2779,1.42425 -213.70336,-9.96971 -256.27708,-17.80305 C 854.0178,531.7049 808.93975,521.7352 795.58328,496.81093 782.22683,471.88667 757.18346,439.12906 785.56594,403.52296 Z"
       id="path3533"
       inkscape:connector-curvature="0" />
    <path
       style="color:#000000;display:inline;overflow:visible;visibility:visible;fill:#ffffff;fill-opacity:1;fill-rule:nonzero;stroke:none;stroke-width:1px;stroke-linecap:butt;stroke-linejoin:miter;stroke-opacity:1;marker:none;enable-background:accumulate"
       d="M 950.45727,823.94393 C 1121.8661,759.55226 1165.3985,589.05039 1147.26,494.7302 c -18.1385,-94.32019 -40.8117,-38.99777 -40.8117,-38.99777 l -4.5346,33.55622 c 0,0 70.7402,243.05587 -151.45643,334.65528 z"
       id="path3541"
       inkscape:connector-curvature="0" />
    <path
       style="color:#000000;display:inline;overflow:visible;visibility:visible;fill:#ffffff;fill-opacity:1;fill-rule:nonzero;stroke:none;stroke-width:1px;stroke-linecap:butt;stroke-linejoin:miter;stroke-opacity:1;marker:none;enable-background:accumulate"
       d="m 1772.1312,1416.1659 c 41.3111,14.9733 83.4399,29.7809 9.9762,68.0193 69.7589,-9.8619 27.08,11.2936 9.9761,25.3939 124.591,-27.8993 44.1779,17.1356 13.6039,44.4393 27.7606,-10.8815 72.0018,-41.5396 55.3224,0.907 8.8262,-1.952 19.2115,-7.5421 23.5801,0.9069 11.2458,-5.8344 19.6007,-7.3326 24.487,-3.6277 11.0527,-10.6176 18.1944,-13.4132 18.1385,-1.8138 10.4494,-8.747 13.6675,-5.7365 16.3246,-1.8139 17.9337,-18.7794 24.6315,-13.4817 31.7424,-9.0692 10.1538,-11.2754 22.0363,-8.7216 35.37,5.4415 13.6427,-19.1765 28.3025,-18.0098 43.5324,-5.4415 4.4732,-4.7241 8.5356,-12.7337 14.5108,-5.4416 6.0462,-2.5224 12.0923,-8.9861 18.1385,-2.7208 63.8142,-24.8239 91.6486,-3.8551 121.528,14.5108 16.6601,-8.1084 28.6656,-23.7806 57.1362,-12.6969 2.6614,-11.3179 17.927,-15.9134 44.4393,-14.5108 -27.1931,-13.6589 -28.5921,-21.4349 34.4632,-14.5108 -43.9498,-11.1854 -84.4517,-22.3708 -16.3247,-33.5562 -15.9561,-4.4407 -68.1098,6.0056 -10.8831,-47.1601 -40.6366,11.7341 -77.5269,14.7828 -88.8786,-32.6493 -21.9228,12.4739 -46.196,18.6532 -65.2986,-9.9762 -17.399,13.4143 -41.7433,10.1938 -54.4155,3.6277 -3.4286,14.6914 -29.3201,37.2228 -64.3916,-3.6277 7.6949,23.2186 1.8706,60.2009 -38.9978,-0.9069 -0.8105,10.63 16.0189,68.4385 -97.9479,-0.907 14.2165,46.5252 -23.6232,19.4535 -53.5086,3.6277 14.8199,29.1701 -7.4834,31.4259 -56.2293,14.5108 37.6041,27.6974 -1.0616,20.0503 -25.3939,19.0455 z"
       id="path3549"
       inkscape:connector-curvature="0"
       sodipodi:nodetypes="ccccccccccccccccccccccccccccc" />
    <path
       style="color:#000000;display:inline;overflow:visible;visibility:visible;fill:#ffffff;fill-opacity:1;fill-rule:nonzero;stroke:none;stroke-width:0.84826px;marker:none;enable-background:accumulate"
       d="m 1756.2884,2038.9036 c 17.0872,2.3728 10.9037,-15.3286 0.7595,-36.4465 3.9656,0.9126 12.7006,24.2663 8.3534,-13.9355 9.1451,3.9494 16.6206,2.3017 13.6692,-34.3026 7.4602,-1.1294 26.9589,18.9828 12.1505,-21.4392 16.0364,13.6616 26.5141,13.1986 34.9325,7.5038 28.608,28.5917 29.2182,12.0165 37.9701,8.5757 9.489,8.0643 20.1077,8.1564 32.6543,-5.3598 2.8781,10.7726 13.8079,8.5559 27.3384,2.1439 9.9539,25.3753 38.3436,11.7154 59.2335,13.9354 26.3408,24.9668 67.2745,5.3023 101.7599,5.3598 28.2382,-4.0899 63.9261,2.3364 79.7372,-19.2952 -3.5795,19.2227 7.5989,9.2806 18.9851,-1.072 2.234,3.7535 -12.2851,21.6962 25.0603,-4.2878 -1.0083,8.8845 -5.0999,20.4894 17.4662,8.5757 2.5634,5.4962 -15.7149,27.1259 30.3762,-1.072 0.2459,7.7695 -8.4846,23.0265 23.5414,4.2878 -25.9803,46.1618 -11.581,41.2212 6.0752,32.1587 -9.6038,21.3309 -33.4597,48.4098 -3.0376,53.5979 -27.3563,6.2909 -20.3814,21.8124 -16.7068,36.4465 -34.2864,-29.4686 -38.3149,-7.0735 -53.1583,-3.2159 -15.67,-4.9023 -30.1061,-22.8673 -48.6017,2.144 -28.3341,-10.2926 -33.9517,-0.8521 -43.2859,5.3598 -49.5021,-19.7519 -48.3327,-3.7407 -70.6245,-4.2879 -13.1797,-24.433 -42.9218,-6.0043 -64.5492,-8.5756 -27.3385,-20.0352 -60.9933,-7.5561 -82.0154,2.1439 -8.5942,-8.2795 -14.693,-20.8639 -36.4513,-6.4317 -14.1852,-15.8736 -29.0885,-16.5456 -44.8047,0 -4.1149,-9.9754 -15.5238,-11.5851 -44.0454,6.4317 12.8617,-16.5226 -4.099,-23.0222 -22.7821,-28.9429 z"
       id="path3557"
       inkscape:connector-curvature="0"
       sodipodi:nodetypes="cccccccccccccccccccccccccccccc" />
    <path
       style="color:#000000;display:inline;overflow:visible;visibility:visible;fill:#ffffff;fill-opacity:1;fill-rule:nonzero;stroke:none;stroke-width:1px;stroke-linecap:butt;stroke-linejoin:miter;stroke-opacity:1;marker:none;enable-background:accumulate"
       d="m 40.779877,2160.8623 c -1.199408,-34.7828 47.976326,-69.5657 129.536083,-71.9645 81.55975,-2.3988 151.12542,25.1876 158.32187,61.1698 7.19645,35.9823 -71.96449,70.7651 -142.72957,71.9645 -70.76508,1.1994 -137.931934,-8.3959 -145.128383,-61.1698 z"
       id="path3565"
       inkscape:connector-curvature="0" />
    <path
       style="color:#000000;display:inline;overflow:visible;visibility:visible;fill:#ffffff;fill-opacity:1;fill-rule:nonzero;stroke:none;stroke-width:0.875641px;stroke-linecap:butt;stroke-linejoin:miter;stroke-opacity:1;marker:none;enable-background:accumulate"
       d="m 273.26382,2303.1148 c 12.36135,-60.8563 56.18792,-97.1737 269.70206,-110.9155 213.51413,-13.7417 241.6081,56.9301 248.35065,92.266 6.74255,35.3358 1.12376,87.3581 -58.43545,113.86 -59.5592,26.5019 -189.9152,32.3913 -237.11306,25.5204 -47.19785,-6.8709 -130.35599,-14.7233 -157.32621,-37.299 -26.9702,-22.5757 -61.80671,-30.4282 -65.17799,-83.4319 z"
       id="path3573"
       inkscape:connector-curvature="0" />
    <path
       style="color:#000000;display:inline;overflow:visible;visibility:visible;fill:#ffffff;fill-opacity:1;fill-rule:nonzero;stroke:none;stroke-width:1px;stroke-linecap:butt;stroke-linejoin:miter;stroke-opacity:1;marker:none;enable-background:accumulate"
       d="m 892.35966,2295.196 c -49.17574,-37.1817 -124.73845,26.387 -124.73845,26.387 l 21.58935,11.9941 c 0,0 59.97041,-49.1758 103.1491,-38.3811 z"
       id="path3581"
       inkscape:connector-curvature="0" />
    <path
       style="color:#000000;display:inline;overflow:visible;visibility:visible;fill:#ffffff;fill-opacity:1;fill-rule:nonzero;stroke:none;stroke-width:1px;stroke-linecap:butt;stroke-linejoin:miter;stroke-opacity:1;marker:none;enable-background:accumulate"
       d="m 257.09349,2188.3533 49.68371,70.188 18.13849,-21.293 -52.0496,-57.57 -11.82945,7.0977 z"
       id="path3589"
       inkscape:connector-curvature="0" />
    <path
       style="color:#000000;display:inline;overflow:visible;visibility:visible;fill:#ffffff;fill-opacity:1;fill-rule:nonzero;stroke:none;stroke-width:1.02317px;stroke-linecap:butt;stroke-linejoin:miter;stroke-opacity:1;marker:none;enable-background:accumulate"
       d="m 1568.9892,3046.2205 c -8.7398,-36.3753 17.4796,-85.2734 41.2018,-92.4292 23.7222,-7.1558 106.1256,-21.4675 160.4371,-17.8896 54.3113,3.578 102.38,1.789 111.1197,46.5128 8.7399,44.7239 -25.5949,89.4477 -60.554,108.5299 -34.9591,19.0822 -107.9985,30.4122 -157.3157,21.4674 -49.3173,-8.9447 -89.2704,-36.3754 -94.8889,-66.1913 z"
       id="path3064"
       inkscape:connector-curvature="0" />
    <path
       style="color:#000000;display:inline;overflow:visible;visibility:visible;fill:#ffffff;fill-opacity:1;fill-rule:nonzero;stroke:none;stroke-width:1px;stroke-linecap:butt;stroke-linejoin:miter;stroke-opacity:1;marker:none;enable-background:accumulate"
       d="m 1503.9136,2986.5888 c 25.0453,32.7974 35.779,42.9348 82.2918,29.8159 46.5128,-13.119 50.0907,4.7705 50.0907,4.7705 l -22.6601,25.0453 c 0,0 -100.7777,20.8712 -109.7224,-59.6317 z"
       id="path3072"
       inkscape:connector-curvature="0" />
  </g>
  <g
     inkscape:groupmode="layer"
     id="layer1"
     inkscape:label="txt"
     style="display:inline">
    <flowRoot
       xml:space="preserve"
       id="flowRoot2987"
       style="font-style:normal;font-variant:normal;font-weight:normal;font-stretch:normal;font-size:66.6667px;line-height:0.01%;font-family:'linja sike';-inkscape-font-specification:'linja sike';letter-spacing:0px;word-spacing:0px;fill:#000000;fill-opacity:1;stroke:none"
       transform="translate(-159.63305,-149.61037)"><flowRegion
         id="flowRegion2989"
         style="font-size:66.6667px"><rect
           id="rect2991"
           width="816.64679"
           height="333.42978"
           x="120.55251"
           y="265.53046"
           style="font-style:normal;font-variant:normal;font-weight:normal;font-stretch:normal;font-family:'linja sike';-inkscape-font-specification:'linja sike';font-size:66.66666667px" /></flowRegion><flowPara
         style="font-size:66.6667px;line-height:1.25;text-align:center;text-anchor:middle"
         id="flowPara97">ni ante li seme?</flowPara></flowRoot>
    <flowRoot
       xml:space="preserve"
       id="flowRoot2987-9"
       style="font-style:normal;font-variant:normal;font-weight:normal;font-stretch:normal;font-size:66.6667px;line-height:0.01%;font-family:'linja sike';-inkscape-font-specification:'linja sike';letter-spacing:0px;word-spacing:0px;fill:#000000;fill-opacity:1;stroke:none"
       transform="translate(-169.72842,-9.076719)"><flowRegion
         id="flowRegion2989-8"
         style="font-size:66.6667px"><rect
           id="rect2991-8"
           width="816.64679"
           height="333.42978"
           x="120.55251"
           y="265.53046"
           style="font-style:normal;font-variant:normal;font-weight:normal;font-stretch:normal;font-family:'linja sike';-inkscape-font-specification:'linja sike';font-size:66.66666667px" /></flowRegion><flowPara
         style="font-size:66.6667px;line-height:1.25;text-align:center;text-anchor:middle"
         id="flowPara2993-6">nimi+mun anu seme</flowPara></flowRoot>
    <flowRoot
       xml:space="preserve"
       id="flowRoot2987-9-2"
       style="font-style:normal;font-variant:normal;font-weight:normal;font-stretch:normal;font-size:66.6667px;line-height:0.01%;font-family:'linja sike';-inkscape-font-specification:'linja sike';letter-spacing:0px;word-spacing:0px;fill:#000000;fill-opacity:1;stroke:none"
       transform="translate(19.690198,57.94534)"><flowRegion
         id="flowRegion2989-8-1"
         style="font-size:66.6667px"><rect
           id="rect2991-8-9"
           width="816.64679"
           height="333.42978"
           x="120.55252"
           y="265.53046"
           style="font-style:normal;font-variant:normal;font-weight:normal;font-stretch:normal;font-family:'linja sike';-inkscape-font-specification:'linja sike';stroke-width:1;font-size:66.66666667px" /></flowRegion><flowPara
         style="font-size:66.6667px;line-height:1.25;text-align:center;text-anchor:middle"
         id="flowPara2993-6-2">nimi+moku anu seme</flowPara></flowRoot>
    <flowRoot
       xml:space="preserve"
       id="flowRoot2987-9-2-0"
       style="font-style:normal;font-variant:normal;font-weight:normal;font-stretch:normal;font-size:66.6667px;line-height:0.01%;font-family:'linja sike';-inkscape-font-specification:'linja sike';letter-spacing:0px;word-spacing:0px;fill:#000000;fill-opacity:1;stroke:none"
       transform="translate(551.66536,93.2693)"><flowRegion
         id="flowRegion2989-8-1-0"
         style="font-size:66.6667px"><rect
           id="rect2991-8-9-5"
           width="816.64679"
           height="333.42978"
           x="120.55251"
           y="265.53046"
           style="font-style:normal;font-variant:normal;font-weight:normal;font-stretch:normal;font-family:'linja sike';-inkscape-font-specification:'linja sike';font-size:66.66666667px" /></flowRegion><flowPara
         style="font-size:66.6667px;line-height:1.25;text-align:center;text-anchor:middle"
         id="flowPara103">soweli [_kili+anpa_wile+awen]otoki+nimi mi li </flowPara><flowPara
         style="font-size:66.6667px;line-height:1.25;text-align:center;text-anchor:middle"
         id="flowPara3089">kama pini.ni li nasa mutea</flowPara></flowRoot>
    <flowRoot
       xml:space="preserve"
       id="flowRoot2987-9-2-0-6"
       style="font-style:normal;font-variant:normal;font-weight:normal;font-stretch:normal;font-size:66.6667px;line-height:0.01%;font-family:'linja sike';-inkscape-font-specification:'linja sike';letter-spacing:0px;word-spacing:0px;display:inline;fill:#ffffff;fill-opacity:1;stroke:none"
       transform="translate(-56.385028,1182.239)"><flowRegion
         id="flowRegion2989-8-1-0-6"
         style="font-size:66.6667px"><rect
           id="rect2991-8-9-5-7"
           width="816.64679"
           height="333.42978"
           x="120.55251"
           y="265.53046"
           style="font-style:normal;font-variant:normal;font-weight:normal;font-stretch:normal;font-family:'linja sike';-inkscape-font-specification:'linja sike';fill:#ffffff;font-size:66.66666667px" /></flowRegion><flowPara
         style="font-size:66.6667px;line-height:1.25;text-align:center;text-anchor:middle;fill:#ffffff"
         id="flowPara3211">… ni li jo e kon ala a …</flowPara></flowRoot>
    <flowRoot
       xml:space="preserve"
       id="flowRoot2987-9-2-0-6-6"
       style="font-style:normal;font-variant:normal;font-weight:normal;font-stretch:normal;font-size:52.4112px;line-height:0.01%;font-family:'linja sike';-inkscape-font-specification:'linja sike';letter-spacing:0px;word-spacing:0px;display:inline;fill:#000000;fill-opacity:1;stroke:none"
       transform="matrix(1.5197253,0,0,1.5330849,1257.5688,1015.7836)"><flowRegion
         id="flowRegion2989-8-1-0-6-9"
         style="font-size:52.4112px"><rect
           id="rect2991-8-9-5-7-5"
           width="816.64679"
           height="333.42978"
           x="120.55251"
           y="265.53046"
           style="font-style:normal;font-variant:normal;font-weight:normal;font-stretch:normal;font-family:'linja sike';-inkscape-font-specification:'linja sike';font-size:52.41122821px" /></flowRegion><flowPara
         style="font-size:52.4112px;line-height:1.25;text-align:center;text-anchor:middle"
         id="flowPara3211-4">ike ike ike a&gt;__</flowPara></flowRoot>
    <flowRoot
       xml:space="preserve"
       id="flowRoot2987-9-2-0-6-0"
       style="font-style:normal;font-variant:normal;font-weight:normal;font-stretch:normal;font-size:66.6667px;line-height:0.01%;font-family:'linja sike';-inkscape-font-specification:'linja sike';letter-spacing:0px;word-spacing:0px;display:inline;fill:#000000;fill-opacity:1;stroke:none"
       transform="translate(1483.8732,1705.0029)"><flowRegion
         id="flowRegion2989-8-1-0-6-3"
         style="font-size:66.6667px"><rect
           id="rect2991-8-9-5-7-9"
           width="816.64679"
           height="333.42978"
           x="120.55251"
           y="265.53046"
           style="font-style:normal;font-variant:normal;font-weight:normal;font-stretch:normal;font-family:'linja sike';-inkscape-font-specification:'linja sike';font-size:66.66666667px" /></flowRegion><flowPara
         style="font-size:66.6667px;line-height:1.25;text-align:center;text-anchor:middle"
         id="flowPara3211-0">tenpo ala la palimi li palia</flowPara></flowRoot>
    <flowRoot
       xml:space="preserve"
       id="flowRoot2987-9-2-0-6-0-6"
       style="font-style:normal;font-variant:normal;font-weight:normal;font-stretch:normal;font-size:66.6667px;line-height:0.01%;font-family:'linja sike';-inkscape-font-specification:'linja sike';letter-spacing:0px;word-spacing:0px;display:inline;fill:#000000;fill-opacity:1;stroke:none"
       transform="translate(-335.4565,1855.8694)"><flowRegion
         id="flowRegion2989-8-1-0-6-3-4"
         style="font-size:66.6667px"><rect
           id="rect2991-8-9-5-7-9-1"
           width="816.64679"
           height="333.42978"
           x="120.55251"
           y="265.53046"
           style="font-style:normal;font-variant:normal;font-weight:normal;font-stretch:normal;font-family:'linja sike';-inkscape-font-specification:'linja sike';font-size:66.66666667px" /></flowRegion><flowPara
         style="font-size:66.6667px;line-height:1.25;text-align:center;text-anchor:middle"
         id="flowPara3211-0-7">a&gt;____</flowPara></flowRoot>
    <flowRoot
       xml:space="preserve"
       id="flowRoot2987-9-2-0-6-0-6-3"
       style="font-style:normal;font-variant:normal;font-weight:normal;font-stretch:normal;font-size:66.6667px;line-height:0.01%;font-family:'linja sike';-inkscape-font-specification:'linja sike';letter-spacing:0px;word-spacing:0px;display:inline;fill:#000000;fill-opacity:1;stroke:none"
       transform="translate(18.968498,1979.689)"><flowRegion
         id="flowRegion2989-8-1-0-6-3-4-7"
         style="font-size:66.6667px"><rect
           id="rect2991-8-9-5-7-9-1-9"
           width="816.64679"
           height="333.42978"
           x="120.55251"
           y="265.53046"
           style="font-style:normal;font-variant:normal;font-weight:normal;font-stretch:normal;font-family:'linja sike';-inkscape-font-specification:'linja sike';font-size:66.66666667px" /></flowRegion><flowPara
         style="font-size:66.6667px;line-height:1.25;text-align:center;text-anchor:middle"
         id="flowPara3333">pali telo la </flowPara><flowPara
         style="font-size:66.6667px;line-height:1.25;text-align:center;text-anchor:middle"
         id="flowPara112">tenpo li lon</flowPara></flowRoot>
    <flowRoot
       xml:space="preserve"
       id="flowRoot2987-9-2-0-6-0-6-8"
       style="font-style:normal;font-variant:normal;font-weight:normal;font-stretch:normal;font-size:60.9614px;line-height:0.01%;font-family:'linja sike';-inkscape-font-specification:'linja sike';letter-spacing:0px;word-spacing:0px;display:inline;fill:#ffffff;fill-opacity:1;stroke:none"
       transform="matrix(1.4153204,-0.2891204,-0.04384836,1.6651425,1316.8803,2127.5164)"><flowRegion
         id="flowRegion2989-8-1-0-6-3-4-1"
         style="font-size:60.9614px"><rect
           id="rect2991-8-9-5-7-9-1-8"
           width="816.64679"
           height="333.42978"
           x="120.55251"
           y="265.53046"
           style="font-style:normal;font-variant:normal;font-weight:normal;font-stretch:normal;font-family:'linja sike';-inkscape-font-specification:'linja sike';fill:#ffffff;font-size:60.96140169px" /></flowRegion><flowPara
         style="font-size:60.9614px;line-height:1.25;text-align:center;text-anchor:middle;fill:#ffffff"
         id="flowPara3211-0-7-0">a&gt;_pakala_pakala_pakala]</flowPara></flowRoot>
    <flowRoot
       xml:space="preserve"
       id="flowRoot2987-9-2-0-6-0-6-3-9"
       style="font-style:normal;font-variant:normal;font-weight:normal;font-stretch:normal;font-size:68.4191px;line-height:0.01%;font-family:'linja sike';-inkscape-font-specification:'linja sike';letter-spacing:0px;word-spacing:0px;display:inline;fill:#000000;fill-opacity:1;stroke:none"
       transform="matrix(0.8245878,0,0,0.85157493,1277.9405,2745.5837)"><flowRegion
         id="flowRegion2989-8-1-0-6-3-4-7-5"
         style="font-size:68.4191px"><rect
           id="rect2991-8-9-5-7-9-1-9-4"
           width="816.64679"
           height="333.42978"
           x="120.55251"
           y="265.53046"
           style="font-style:normal;font-variant:normal;font-weight:normal;font-stretch:normal;font-family:'linja sike';-inkscape-font-specification:'linja sike';font-size:68.41909194px" /></flowRegion><flowPara
         style="font-size:68.4191px;line-height:1.25;text-align:center;text-anchor:middle"
         id="flowPara3427">soweli[_kili+anpa_wile+awen]o</flowPara><flowPara
         style="font-size:68.4191px;line-height:1.25;text-align:center;text-anchor:middle"
         id="flowPara85">lape pona</flowPara></flowRoot>
    <flowRoot
       xml:space="preserve"
       id="flowRoot2987-9-2-0-6-0-6-3-3"
       style="font-style:normal;font-variant:normal;font-weight:normal;font-stretch:normal;font-size:66.6667px;line-height:0.01%;font-family:'linja sike';-inkscape-font-specification:'linja sike';letter-spacing:0px;word-spacing:0px;display:inline;fill:#000000;fill-opacity:1;stroke:none"
       transform="translate(1604.9819,3136.4042)"><flowRegion
         id="flowRegion2989-8-1-0-6-3-4-7-7"
         style="font-size:66.6667px"><rect
           id="rect2991-8-9-5-7-9-1-9-3"
           width="816.64679"
           height="333.42978"
           x="120.55252"
           y="265.53046"
           style="font-style:normal;font-variant:normal;font-weight:normal;font-stretch:normal;font-family:'linja sike';-inkscape-font-specification:'linja sike';stroke-width:1;font-size:66.66666667px" /></flowRegion><flowPara
         style="font-size:66.6667px;line-height:1.25;text-align:center;text-anchor:middle"
         id="flowPara3333-0">lipu+kama la toki+ni li awen…</flowPara></flowRoot>
    <text
       xml:space="preserve"
       style="font-style:normal;font-variant:normal;font-weight:normal;font-stretch:normal;font-size:12.0121px;line-height:0.01%;font-family:Lavi;-inkscape-font-specification:Lavi;letter-spacing:0px;word-spacing:0px;display:inline;opacity:0.4;fill:#3fd7f8;fill-opacity:1;stroke:none;stroke-width:1.00101"
       x="3051.2427"
       y="3447.9692"
       id="text25105"
       transform="matrix(1.031235,0,-0.28639181,0.96971107,0,0)"><tspan
         sodipodi:role="line"
         x="3051.2427"
         y="3447.9692"
         id="tspan25103"
         style="font-style:normal;font-variant:normal;font-weight:normal;font-stretch:normal;font-size:32.8503px;line-height:1.25;font-family:Lavi;-inkscape-font-specification:Lavi;text-align:end;text-anchor:end;fill:#3fd7f8;fill-opacity:1;stroke-width:1.00101">David Revoy</tspan><tspan
         sodipodi:role="line"
         x="3051.2427"
         y="3485.8088"
         style="font-style:normal;font-variant:normal;font-weight:normal;font-stretch:normal;font-size:29.3333px;line-height:1.25;font-family:Lavi;-inkscape-font-specification:Lavi;text-align:end;text-anchor:end;fill:#3fd7f8;fill-opacity:1;stroke-width:1.00101"
         id="tspan25111">11/2014</tspan></text>
  </g>
</svg>
