<?xml version="1.0" encoding="UTF-8" standalone="no"?>
<svg
   xmlns:dc="http://purl.org/dc/elements/1.1/"
   xmlns:cc="http://creativecommons.org/ns#"
   xmlns:rdf="http://www.w3.org/1999/02/22-rdf-syntax-ns#"
   xmlns:svg="http://www.w3.org/2000/svg"
   xmlns="http://www.w3.org/2000/svg"
   xmlns:xlink="http://www.w3.org/1999/xlink"
   xmlns:sodipodi="http://sodipodi.sourceforge.net/DTD/sodipodi-0.dtd"
   xmlns:inkscape="http://www.inkscape.org/namespaces/inkscape"
   id="svg2"
   version="1.1"
   inkscape:version="0.92.4 (5da689c313, 2019-01-14)"
   width="2481"
   height="3503"
   sodipodi:docname="E34P07.svg">
  <metadata
     id="metadata8">
    <rdf:RDF>
      <cc:Work
         rdf:about="">
        <dc:format>image/svg+xml</dc:format>
        <dc:type
           rdf:resource="http://purl.org/dc/dcmitype/StillImage" />
        <dc:title />
      </cc:Work>
    </rdf:RDF>
  </metadata>
  <defs
     id="defs6">
    <filter
       style="color-interpolation-filters:sRGB"
       id="filter3018-9-9"
       inkscape:label="Lapping"
       inkscape:menu="Distort"
       inkscape:menu-tooltip="Something like a water noise"
       height="1.3"
       y="-0.15000001"
       width="1.3"
       x="-0.15000001">
      <feTurbulence
         id="feTurbulence3020-3-0"
         numOctaves="5"
         seed="0"
         type="fractalNoise"
         baseFrequency="0.045999999999999999"
         result="result1" />
      <feGaussianBlur
         id="feGaussianBlur3022-77-9"
         stdDeviation="2"
         result="result2" />
      <feDisplacementMap
         id="feDisplacementMap3024-6-9"
         in2="result2"
         scale="50"
         yChannelSelector="B"
         xChannelSelector="R"
         in="SourceGraphic" />
    </filter>
    <filter
       style="color-interpolation-filters:sRGB"
       id="filter4375-4-1-1-1-9-5-8-8-5-5-3-3"
       inkscape:label="soundFX1">
      <feFlood
         id="feFlood4377-7-9-0-8-1-7-3-1-2-7-6-6"
         flood-opacity="1"
         flood-color="rgb(255,255,255)"
         result="flood" />
      <feComposite
         id="feComposite4379-3-8-8-2-77-4-1-0-6-4-7-7"
         in2="SourceGraphic"
         in="flood"
         operator="in"
         result="composite1"
         baseFrequency="0.053999999999999999 0.053999999999999999" />
      <feMorphology
         id="feMorphology4393-1-0-49-8-9-3-0-1-9-9-5-5"
         operator="dilate"
         radius="7.5999999999999996"
         result="result3" />
      <feComposite
         id="feComposite4385-9-5-7-0-8-8-7-5-4-9-3-3"
         in2="result3"
         in="SourceGraphic"
         operator="over"
         result="fbSourceGraphic" />
      <feColorMatrix
         result="fbSourceGraphicAlpha"
         in="fbSourceGraphic"
         values="0 0 0 -1 0 0 0 0 -1 0 0 0 0 -1 0 0 0 0 1 0"
         id="feColorMatrix4544-9-4-4-5-5" />
      <feTurbulence
         id="feTurbulence4546-3-6-5-6-6"
         type="fractalNoise"
         numOctaves="2"
         seed="143"
         baseFrequency="0.063613027137887024"
         result="turbulence" />
      <feDisplacementMap
         id="feDisplacementMap4548-8-0-9-2-2"
         in2="turbulence"
         in="fbSourceGraphic"
         scale="13.690758453556365"
         yChannelSelector="G"
         xChannelSelector="R"
         result="fbSourceGraphic" />
      <feColorMatrix
         result="fbSourceGraphicAlpha"
         in="fbSourceGraphic"
         values="0 0 0 -1 0 0 0 0 -1 0 0 0 0 -1 0 0 0 0 1 0"
         id="feColorMatrix4670-7-7-3-9-9" />
      <feFlood
         id="feFlood4672-4-4-5-1-1"
         flood-opacity="1"
         flood-color="rgb(28,28,28)"
         result="flood"
         in="fbSourceGraphic" />
      <feComposite
         id="feComposite4674-8-3-7-2-2"
         in2="fbSourceGraphic"
         in="flood"
         operator="in"
         result="composite1" />
      <feGaussianBlur
         id="feGaussianBlur4676-3-7-08-7-7"
         in="composite1"
         stdDeviation="0"
         result="blur" />
      <feOffset
         id="feOffset4678-6-9-1-0-0"
         dx="5.2324892869636273"
         dy="12.957991414995334"
         result="offset" />
      <feComposite
         id="feComposite4680-4-0-9-9-9"
         in2="offset"
         in="fbSourceGraphic"
         operator="over"
         result="composite2" />
    </filter>
    <filter
       style="color-interpolation-filters:sRGB"
       id="filter4375-4-1-1-1-9-5-8-8-5-5-3-3-3-0"
       inkscape:label="soundFX1">
      <feFlood
         id="feFlood4377-7-9-0-8-1-7-3-1-2-7-6-6-5-96"
         flood-opacity="1"
         flood-color="rgb(52,52,52)"
         result="flood" />
      <feComposite
         id="feComposite4379-3-8-8-2-77-4-1-0-6-4-7-7-6-3"
         in2="SourceGraphic"
         in="flood"
         operator="in"
         result="composite1"
         baseFrequency="0.053999999999999999 0.053999999999999999" />
      <feMorphology
         id="feMorphology4393-1-0-49-8-9-3-0-1-9-9-5-5-2-8"
         operator="dilate"
         radius="5.1135076992753623"
         result="result3" />
      <feComposite
         id="feComposite4385-9-5-7-0-8-8-7-5-4-9-3-3-9-5"
         in2="result3"
         in="SourceGraphic"
         operator="over"
         result="fbSourceGraphic" />
      <feColorMatrix
         result="fbSourceGraphicAlpha"
         in="fbSourceGraphic"
         values="0 0 0 -1 0 0 0 0 -1 0 0 0 0 -1 0 0 0 0 1 0"
         id="feColorMatrix4544-9-4-4-5-5-1-6" />
      <feTurbulence
         id="feTurbulence4546-3-6-5-6-6-2-1"
         type="fractalNoise"
         numOctaves="4"
         seed="147"
         baseFrequency="0.046080819231719368"
         result="turbulence" />
      <feDisplacementMap
         id="feDisplacementMap4548-8-0-9-2-2-7-1"
         in2="turbulence"
         in="fbSourceGraphic"
         scale="13.20326"
         yChannelSelector="G"
         xChannelSelector="R"
         result="fbSourceGraphic" />
      <feColorMatrix
         result="fbSourceGraphicAlpha"
         in="fbSourceGraphic"
         values="0 0 0 -1 0 0 0 0 -1 0 0 0 0 -1 0 0 0 0 1 0"
         id="feColorMatrix4670-7-7-3-9-9-0-5" />
      <feFlood
         id="feFlood4672-4-4-5-1-1-9-9"
         flood-opacity="1"
         flood-color="rgb(28,28,28)"
         result="flood"
         in="fbSourceGraphic" />
      <feComposite
         id="feComposite4674-8-3-7-2-2-3-8"
         in2="fbSourceGraphic"
         in="flood"
         operator="in"
         result="composite1" />
      <feGaussianBlur
         id="feGaussianBlur4676-3-7-08-7-7-6-4"
         in="composite1"
         stdDeviation="0"
         result="blur" />
      <feOffset
         id="feOffset4678-6-9-1-0-0-0-8"
         dx="1.0219896610696537"
         dy="-3.6141922224813356"
         result="offset" />
      <feComposite
         id="feComposite4680-4-0-9-9-9-6-1"
         in2="offset"
         in="fbSourceGraphic"
         operator="over"
         result="composite2" />
    </filter>
    <filter
       style="color-interpolation-filters:sRGB"
       id="filter4375-4-1-1-1-9-5-8-8-5-5-3-3-3-4"
       inkscape:label="soundFX1">
      <feFlood
         id="feFlood4377-7-9-0-8-1-7-3-1-2-7-6-6-5-5"
         flood-opacity="1"
         flood-color="rgb(52,52,52)"
         result="flood" />
      <feComposite
         id="feComposite4379-3-8-8-2-77-4-1-0-6-4-7-7-6-0"
         in2="SourceGraphic"
         in="flood"
         operator="in"
         result="composite1"
         baseFrequency="0.053999999999999999 0.053999999999999999" />
      <feMorphology
         id="feMorphology4393-1-0-49-8-9-3-0-1-9-9-5-5-2-3"
         operator="dilate"
         radius="1.8999624943387681"
         result="result3" />
      <feComposite
         id="feComposite4385-9-5-7-0-8-8-7-5-4-9-3-3-9-6"
         in2="result3"
         in="SourceGraphic"
         operator="over"
         result="fbSourceGraphic" />
      <feColorMatrix
         result="fbSourceGraphicAlpha"
         in="fbSourceGraphic"
         values="0 0 0 -1 0 0 0 0 -1 0 0 0 0 -1 0 0 0 0 1 0"
         id="feColorMatrix4544-9-4-4-5-5-1-1" />
      <feTurbulence
         id="feTurbulence4546-3-6-5-6-6-2-0"
         type="fractalNoise"
         numOctaves="3"
         seed="88"
         baseFrequency="0.03818384303719944"
         result="turbulence" />
      <feDisplacementMap
         id="feDisplacementMap4548-8-0-9-2-2-7-6"
         in2="turbulence"
         in="fbSourceGraphic"
         scale="9.6365525"
         yChannelSelector="G"
         xChannelSelector="R"
         result="fbSourceGraphic" />
      <feColorMatrix
         result="fbSourceGraphicAlpha"
         in="fbSourceGraphic"
         values="0 0 0 -1 0 0 0 0 -1 0 0 0 0 -1 0 0 0 0 1 0"
         id="feColorMatrix4670-7-7-3-9-9-0-3" />
      <feFlood
         id="feFlood4672-4-4-5-1-1-9-20"
         flood-opacity="1"
         flood-color="rgb(28,28,28)"
         result="flood"
         in="fbSourceGraphic" />
      <feComposite
         id="feComposite4674-8-3-7-2-2-3-6"
         in2="fbSourceGraphic"
         in="flood"
         operator="in"
         result="composite1" />
      <feGaussianBlur
         id="feGaussianBlur4676-3-7-08-7-7-6-1"
         in="composite1"
         stdDeviation="0"
         result="blur" />
      <feOffset
         id="feOffset4678-6-9-1-0-0-0-5"
         dx="-5.6583689219916096"
         dy="0.39217365321829334"
         result="offset" />
      <feComposite
         id="feComposite4680-4-0-9-9-9-6-5"
         in2="offset"
         in="fbSourceGraphic"
         operator="over"
         result="composite2" />
    </filter>
    <filter
       style="color-interpolation-filters:sRGB"
       id="filter4375-4-1-1-1-9-5-8-8-5-5-3-3-3-4-2"
       inkscape:label="soundFX1">
      <feFlood
         id="feFlood4377-7-9-0-8-1-7-3-1-2-7-6-6-5-5-6"
         flood-opacity="1"
         flood-color="rgb(52,52,52)"
         result="flood" />
      <feComposite
         id="feComposite4379-3-8-8-2-77-4-1-0-6-4-7-7-6-0-1"
         in2="SourceGraphic"
         in="flood"
         operator="in"
         result="composite1"
         baseFrequency="0.053999999999999999 0.053999999999999999" />
      <feMorphology
         id="feMorphology4393-1-0-49-8-9-3-0-1-9-9-5-5-2-3-8"
         operator="dilate"
         radius="1.8999624943387681"
         result="result3" />
      <feComposite
         id="feComposite4385-9-5-7-0-8-8-7-5-4-9-3-3-9-6-7"
         in2="result3"
         in="SourceGraphic"
         operator="over"
         result="fbSourceGraphic" />
      <feColorMatrix
         result="fbSourceGraphicAlpha"
         in="fbSourceGraphic"
         values="0 0 0 -1 0 0 0 0 -1 0 0 0 0 -1 0 0 0 0 1 0"
         id="feColorMatrix4544-9-4-4-5-5-1-1-9" />
      <feTurbulence
         id="feTurbulence4546-3-6-5-6-6-2-0-2"
         type="fractalNoise"
         numOctaves="3"
         seed="88"
         baseFrequency="0.03818384303719944"
         result="turbulence" />
      <feDisplacementMap
         id="feDisplacementMap4548-8-0-9-2-2-7-6-0"
         in2="turbulence"
         in="fbSourceGraphic"
         scale="9.6365525"
         yChannelSelector="G"
         xChannelSelector="R"
         result="fbSourceGraphic" />
      <feColorMatrix
         result="fbSourceGraphicAlpha"
         in="fbSourceGraphic"
         values="0 0 0 -1 0 0 0 0 -1 0 0 0 0 -1 0 0 0 0 1 0"
         id="feColorMatrix4670-7-7-3-9-9-0-3-2" />
      <feFlood
         id="feFlood4672-4-4-5-1-1-9-20-3"
         flood-opacity="1"
         flood-color="rgb(28,28,28)"
         result="flood"
         in="fbSourceGraphic" />
      <feComposite
         id="feComposite4674-8-3-7-2-2-3-6-7"
         in2="fbSourceGraphic"
         in="flood"
         operator="in"
         result="composite1" />
      <feGaussianBlur
         id="feGaussianBlur4676-3-7-08-7-7-6-1-5"
         in="composite1"
         stdDeviation="0"
         result="blur" />
      <feOffset
         id="feOffset4678-6-9-1-0-0-0-5-9"
         dx="-5.6583689219916096"
         dy="0.39217365321829334"
         result="offset" />
      <feComposite
         id="feComposite4680-4-0-9-9-9-6-5-2"
         in2="offset"
         in="fbSourceGraphic"
         operator="over"
         result="composite2" />
    </filter>
    <filter
       style="color-interpolation-filters:sRGB"
       id="filter4375-4-1-1-1-9-5-8-8-5-5-3-3-3-4-3"
       inkscape:label="soundFX1">
      <feFlood
         id="feFlood4377-7-9-0-8-1-7-3-1-2-7-6-6-5-5-67"
         flood-opacity="1"
         flood-color="rgb(52,52,52)"
         result="flood" />
      <feComposite
         id="feComposite4379-3-8-8-2-77-4-1-0-6-4-7-7-6-0-5"
         in2="SourceGraphic"
         in="flood"
         operator="in"
         result="composite1"
         baseFrequency="0.053999999999999999 0.053999999999999999" />
      <feMorphology
         id="feMorphology4393-1-0-49-8-9-3-0-1-9-9-5-5-2-3-3"
         operator="dilate"
         radius="1.8999624943387681"
         result="result3" />
      <feComposite
         id="feComposite4385-9-5-7-0-8-8-7-5-4-9-3-3-9-6-5"
         in2="result3"
         in="SourceGraphic"
         operator="over"
         result="fbSourceGraphic" />
      <feColorMatrix
         result="fbSourceGraphicAlpha"
         in="fbSourceGraphic"
         values="0 0 0 -1 0 0 0 0 -1 0 0 0 0 -1 0 0 0 0 1 0"
         id="feColorMatrix4544-9-4-4-5-5-1-1-6" />
      <feTurbulence
         id="feTurbulence4546-3-6-5-6-6-2-0-29"
         type="fractalNoise"
         numOctaves="3"
         seed="88"
         baseFrequency="0.03818384303719944"
         result="turbulence" />
      <feDisplacementMap
         id="feDisplacementMap4548-8-0-9-2-2-7-6-1"
         in2="turbulence"
         in="fbSourceGraphic"
         scale="9.6365525"
         yChannelSelector="G"
         xChannelSelector="R"
         result="fbSourceGraphic" />
      <feColorMatrix
         result="fbSourceGraphicAlpha"
         in="fbSourceGraphic"
         values="0 0 0 -1 0 0 0 0 -1 0 0 0 0 -1 0 0 0 0 1 0"
         id="feColorMatrix4670-7-7-3-9-9-0-3-27" />
      <feFlood
         id="feFlood4672-4-4-5-1-1-9-20-0"
         flood-opacity="1"
         flood-color="rgb(28,28,28)"
         result="flood"
         in="fbSourceGraphic" />
      <feComposite
         id="feComposite4674-8-3-7-2-2-3-6-9"
         in2="fbSourceGraphic"
         in="flood"
         operator="in"
         result="composite1" />
      <feGaussianBlur
         id="feGaussianBlur4676-3-7-08-7-7-6-1-3"
         in="composite1"
         stdDeviation="0"
         result="blur" />
      <feOffset
         id="feOffset4678-6-9-1-0-0-0-5-6"
         dx="-5.6583689219916096"
         dy="0.39217365321829334"
         result="offset" />
      <feComposite
         id="feComposite4680-4-0-9-9-9-6-5-0"
         in2="offset"
         in="fbSourceGraphic"
         operator="over"
         result="composite2" />
    </filter>
  </defs>
  <sodipodi:namedview
     pagecolor="#ffffff"
     bordercolor="#666666"
     borderopacity="1"
     objecttolerance="10"
     gridtolerance="10"
     guidetolerance="10"
     inkscape:pageopacity="0"
     inkscape:pageshadow="2"
     inkscape:window-width="1600"
     inkscape:window-height="847"
     id="namedview4"
     showgrid="false"
     inkscape:zoom="0.4"
     inkscape:cx="998.53142"
     inkscape:cy="468.3944"
     inkscape:window-x="-8"
     inkscape:window-y="-8"
     inkscape:window-maximized="1"
     inkscape:current-layer="layer1"
     inkscape:document-rotation="0"
     inkscape:snap-global="false" />
  <g
     inkscape:groupmode="layer"
     id="layer2"
     inkscape:label="artwork"
     sodipodi:insensitive="true">
    <image
       sodipodi:absref="D:\Pepper&amp;Carrot\code\ep34_The-Knighting-of-Shichimi\lang\ro\../gfx_Pepper-and-Carrot_by-David-Revoy_E34P07.png"
       xlink:href="../gfx_Pepper-and-Carrot_by-David-Revoy_E34P07.png"
       width="2481"
       height="3503"
       id="image10"
       x="0"
       y="0" />
  </g>
  <g
     inkscape:groupmode="layer"
     id="layer3"
     inkscape:label="speechbubbles"
     style="display:inline">
    <path
       style="fill:#ffffff;fill-rule:evenodd;stroke:none;stroke-width:0.93844521px;stroke-linecap:butt;stroke-linejoin:miter;stroke-opacity:1"
       d="m 1693.9472,2515.5223 c 14.5508,-14.2776 53.6101,-24.9772 5.5757,-48.3922 25.6481,-1.3334 52.3476,-15.674 28.4501,-44.8163 6.3392,-14.9077 18.8186,-12.8663 -15.0554,-51.9157 26.0112,7.9803 63.3502,16.9637 31.4852,-32.6867 26.1572,10.7989 61.706,-0.1174 63.0864,-18.6227 37.0584,30.3478 58.8927,19.2951 60.1602,-6.6441 41.9709,38.6969 68.6685,27.0153 81.8233,6.5953 23.7653,18.481 45.4429,21.2584 78.9224,-3.7913 -10.6087,26.6516 13.8196,20.6263 44.3605,3.3693 -7.1378,25.9874 16.0012,20.0216 42.2353,-7.2761 -36.5528,39.6893 7.4062,32.4742 62.4387,16.8211 -6.0974,12.7459 -10.2822,24.3252 37.5412,4.1842 -5.0189,4.738 -47.2065,40.2056 28.8652,22.6804 -22.1129,15.8 -5.3746,26.898 31.3073,28.2804 -20.9816,14.3447 -14.9647,30.8941 14.8231,38.4672 -32.2102,24.8671 3.8307,28.388 18.6029,38.561 -23.5752,9.7323 -70.2,26.5599 -5.7416,49.0862 -69.214,1.0674 -44.6994,30.6657 -17.8567,53.5718 -83.9528,-18.611 -75.7576,15.8685 -42.5456,38.3355 -44.4484,-6.7725 -62.0536,-1.9313 -54.9101,13.6174 -41.5158,-16.4074 -45.3492,-9.7166 -45.8273,-0.9694 -45.302,-19.6645 -40.6154,-4.4606 -46.7189,3.2172 -23.8053,-18.53 -40.4659,-19.6685 -49.5332,-2.3219 -18.0117,-7.2284 -39.8432,-18.4281 -54.0802,11.2086 -13.1934,-29.4523 -32.3555,-30.6372 -43.9784,-4.1146 -3.5411,-37.1372 -50.8286,-17.0046 -51.5429,1.3794 -3.4338,-19.2325 -11.5025,-42.6991 -47.7408,-14.4474 -9.1977,-8.6677 0.7258,-34.8014 -58.0167,12.9887 33.5829,-48.1244 -6.0959,-22.8823 -22.355,-14.1121 5.4757,-15.9752 16.2976,-37.3845 -32.51,-25.7045 26.8554,-24.3098 -19.3514,-8.5656 -35.5823,-6.1736 45.1961,-22.472 27.7273,-27.6803 12.493,-33.5049 23.9085,-9.6244 -1.2064,-18.1565 -18.1754,-26.8702 z"
       id="path1421"
       sodipodi:nodetypes="cccccccccccccccccccccccccccccccccc"
       inkscape:connector-curvature="0" />
    <path
       style="fill:#ffffff;fill-rule:evenodd;stroke:none;stroke-width:1px;stroke-linecap:butt;stroke-linejoin:miter;stroke-opacity:1"
       d="m 1334.1166,2234.6868 c 25.4015,54.7414 43.2457,117.8561 85.6932,153.7108 l -76.0086,-3.8011 c 22.6984,-22.0351 0.7056,-92.223 -9.6846,-149.9097 z"
       id="path1397-8"
       sodipodi:nodetypes="cccc" />
    <path
       style="fill:#ffffff;fill-rule:evenodd;stroke:none;stroke-width:0.98444283px;stroke-linecap:butt;stroke-linejoin:miter;stroke-opacity:1"
       d="m 1188.7389,2367.4088 c 60.551,30.3129 44.4954,-8.1374 45.6099,-31.1754 23.9639,28.6666 47.8407,56.8765 55.2852,-1.169 15.0588,40.2993 32.0873,64.6578 58.9415,9.4997 11.6913,32.7785 18.7769,42.2504 90.8746,-29.0531 -6.4436,27.1841 -26.8262,79.822 70.9946,18.4925 3.919,7.3787 -92.3289,100.3077 58.0873,-6.3673 -30.2596,35.69 -86.5307,87.4492 9.1707,45.3232 -45.4802,39.4491 -60.6838,70.0257 25.5816,70.8673 -34.32,25.5945 -67.7274,51.0259 4.0896,57.6586 -28.4672,13.0572 -69.3043,26.8715 -7.0825,34.3779 -56.1909,10.9817 -51.7665,22.4932 -21.634,34.2294 -66.3976,-5.8773 -62.5621,9.0525 -28.2591,33.0085 -100.9166,-35.9645 -101.7527,-14.5046 -104.4652,5.8784 -82.3423,-38.2838 -53.2779,-0.9083 -59.5163,12.4919 -29.9163,-33.4287 -64.4778,-39.6445 -106.3023,-3.3123 -24.6789,-12.4028 -36.2812,-41.1517 -96.5838,-10.6116 14.3062,-25.4899 -9.5166,-42.2945 -57.4871,-24.1666 35.5985,-32.4111 3.8785,-39.4276 -43.7922,-23.9527 32.3302,-29.2654 31.2445,-41.2179 0.4763,-44.6954 51.9912,-25.8894 16.0183,-42.2005 -38.4929,-56.493 38.6494,-6.6901 88.4423,-10.7155 24.8114,-41.8638 50.8094,5.8618 76.462,3.6139 27.5524,-22.6704 33.6578,9.9067 58.9235,11.1537 46.6412,-26.3458 62.4144,27.8595 47.8535,10.3576 45.4991,0.049 z"
       id="path1399"
       sodipodi:nodetypes="cccccccccccccccccccccccccc"
       inkscape:connector-curvature="0" />
    <path
       style="fill:#ffffff;fill-rule:evenodd;stroke:none;stroke-width:0.999996px;stroke-linecap:butt;stroke-linejoin:miter;stroke-opacity:1"
       d="m 647.0071,2309.6592 c 14.8329,72.713 20.49189,156.5482 56.01714,204.174 l -75.27475,-5.049 c 26.95263,-29.2692 18.51062,-122.4998 19.25761,-199.125 z"
       id="path1397"
       sodipodi:nodetypes="cccc" />
    <path
       style="fill:#ffffff;fill-rule:evenodd;stroke:none;stroke-width:0.98933667px;stroke-linecap:butt;stroke-linejoin:miter;stroke-opacity:1"
       d="m 441.56969,2473.2098 c 45.2215,24.2482 71.11189,37.3253 75.99588,-3.0014 22.65488,14.6743 47.51832,4.9835 36.66354,-43.811 30.33109,46.2307 53.37301,46.838 62.54474,16.0808 31.38384,42.8937 43.03093,26.1413 56.2142,14.0315 18.36869,27.2767 34.0273,18.7859 48.06003,-11.1631 20.14174,57.9202 32.44768,35.5328 47.93495,9.4836 11.23271,63.5936 30.32109,22.8553 49.4728,13.3573 -8.64895,56.4584 21.35178,31.8349 37.65491,35.9472 l 0.56099,152.9681 -428.04633,-1.9655 c 23.36271,-17.3097 43.5826,-35.5685 10.50724,-69.9241 13.56388,-6.5487 30.69591,-11.3929 -15.96926,-46.7137 34.14366,-1.645 53.90312,-13.6222 18.40631,-65.2897 z"
       id="path1395"
       sodipodi:nodetypes="cccccccccccccc"
       inkscape:connector-curvature="0" />
    <path
       style="fill:#ffffff;fill-rule:evenodd;stroke:none;stroke-width:1px;stroke-linecap:butt;stroke-linejoin:miter;stroke-opacity:1"
       d="m 499.11056,1834.7339 -139.22494,-175.3756 -41.36363,4.3518 c 67.65771,69.4613 71.1147,77.1365 180.58857,171.0238 z"
       id="path1111-7"
       inkscape:connector-curvature="0"
       sodipodi:nodetypes="cccc" />
    <path
       style="fill:#ffffff;fill-rule:evenodd;stroke:none;stroke-width:0.93882275px;stroke-linecap:butt;stroke-linejoin:miter;stroke-opacity:1"
       d="m 98.254085,1705.7715 c 34.428685,-21.1398 66.065055,-36.6956 39.936485,63.2655 31.8015,-33.3825 63.31823,-66.006 61.10817,-8.7453 17.33219,-10.8416 30.536,-9.7565 39.02497,4.9496 8.41207,-17.6951 17.82803,-27.3165 31.18119,-5.2731 24.3847,-53.9101 37.49311,-19.6846 49.63935,22.061 3.36448,-19.4661 6.84722,-38.4243 18.56526,-22.0103 12.24799,-30.4697 32.37773,-28.1468 46.43186,-5.3256 l 12.2843,34.3937 c -6.92839,-44.019 -11.80588,-72.0807 43.82899,-44.4741 -9.6963,-24.1487 16.83156,-33.4837 55.28362,-21.3635 -10.6374,-27.4612 -21.35829,-54.9498 45.29525,-56.9206 -34.35449,-41.0199 0.72631,-51.5702 73.38735,-45.6294 -60.05047,-32.148 -36.18799,-55.5791 -22.20963,-80.0368 -35.89063,-22.4752 -3.98306,-46.3389 36.30664,-70.3743 -68.13989,-8.8889 -20.24288,-23.8087 -15.59142,-36.4809 l -534.230568,-10.2139 4.953413,270.0557 z"
       id="path1384"
       sodipodi:nodetypes="ccccccccccccccccccc"
       inkscape:connector-curvature="0" />
    <path
       style="fill:#ffffff;fill-rule:evenodd;stroke:none;stroke-width:1.05426px;stroke-linecap:butt;stroke-linejoin:miter;stroke-opacity:1"
       d="m 384.27217,922.69956 c 21.53575,6.49155 35.46157,4.81198 36.513,-10.69129 10.02795,-1.18503 23.06298,15.92161 25.83873,-29.37752 11.94117,10.62975 22.50689,14.96474 30.58788,7.92835 8.40151,7.47577 12.08305,-0.81548 15.71349,-9.27737 6.79315,8.37603 13.58628,13.51234 20.37941,2.34182 2.69853,23.30423 12.2313,27.26525 18.85386,29.84951 10.30127,-0.86923 32.92748,-1.90176 42.47459,-21.69449 -7.12829,26.89996 10.52436,11.38146 24.2423,0.29127 -16.0159,32.78954 -4.84724,37.2347 38.43846,28.78931 -19.44306,7.68079 -52.06655,18.36993 -16.06603,13.39607 -35.74034,19.5955 -4.87911,20.39351 12.40223,17.60984 0.41364,5.99794 -23.91345,13.10451 11.25719,27.66631 -7.34748,4.26475 -32.857,-5.95478 -11.85367,20.91983 -40.76749,-14.83362 -47.0999,-8.58029 -26.90995,15.8762 -48.42235,-30.5077 -37.58934,2.1972 -38.6229,22.2431 -10.051,-21.7373 -20.09102,-42.75834 -29.45136,-19.4057 -5.11002,-13.4432 -13.6596,7.1759 -21.68712,22.625 1.57506,-26.0869 -2.85941,-40.2343 -21.30295,-26.5489 -5.75219,-5.0165 -3.77431,-19.27263 -37.10976,8.6812 3.02342,-16.5667 -2.82728,-14.7846 -9.73297,-10.821 -7.10082,-2.2653 -5.72545,-12.6407 -31.44685,2.9106 9.84562,-16.81363 7.41488,-25.29079 -0.12521,-30.29835 -14.50977,-10.5268 -31.00995,-14.31827 -49.17586,-12.47297 11.08413,-4.29786 24.62332,-5.4901 25.3894,-22.84055 6.54522,-4.42169 5.30967,-12.8204 -8.60591,-27.70027 z"
       id="path1373"
       sodipodi:nodetypes="cccccccccccccccccccccccccc" />
    <path
       style="color:#000000;display:inline;overflow:visible;visibility:visible;fill:#0f0f0f;fill-opacity:1;fill-rule:nonzero;stroke:none;stroke-width:0.73643px;marker:none;filter:url(#filter3018-9-9);enable-background:accumulate"
       d="m 181.47423,238.56133 c 0,-59.7361 13.09665,-137.30912 101.52845,-142.909522 88.4319,-5.6002 170.85502,11.959242 209.60612,31.560142 38.751,19.601 47.37342,84.70884 30.92692,121.28253 -14.89463,33.12265 5.84895,86.38003 -82.58285,83.57993 -88.4319,-2.8002 -142.20375,16.08508 -189.89735,2.08438 -47.6936,-14.0007 -65.60679,-47.99526 -69.58129,-95.59746 z"
       id="path3986-45"
       inkscape:connector-curvature="0"
       sodipodi:nodetypes="csssssc"
       transform="matrix(1.2353531,-0.09540406,0,1.2562259,-87.04811,189.50525)" />
    <path
       style="color:#000000;display:inline;overflow:visible;visibility:visible;fill:#000000;fill-opacity:1;fill-rule:nonzero;stroke:none;stroke-width:1px;marker:none;enable-background:accumulate"
       d="m 599.80325,583.95304 c -58.57262,16.45031 -71.19089,3.0084 -90.27717,-5.94076 0.66082,-5.50351 28.21165,-20.15792 28.21165,-20.15792 0,0 -70.59135,-2.22142 -84.00623,-11.8735 -13.41411,-9.65269 3.85672,-34.87348 3.85672,-34.87348 0,0 89.58291,33.39635 107.09398,35.23393 -2.52266,14.92714 -19.90063,20.9447 -23.37713,25.61838 9.48121,8.01825 37.46946,17.19211 58.49818,11.99335 z"
       id="path4456-10"
       inkscape:connector-curvature="0"
       sodipodi:nodetypes="cccscccc" />
    <path
       style="color:#000000;display:inline;overflow:visible;visibility:visible;fill:#ffffff;fill-opacity:1;fill-rule:nonzero;stroke:none;stroke-width:0.770015px;marker:none;enable-background:accumulate"
       d="m 588.58428,985.1883 c 13.46613,13.42935 32.4998,36.5734 34.47564,41.4721 -5.75056,-0.7967 -8.85791,2.3627 -12.80297,2.624 4.35005,8.8618 38.46116,40.8692 47.5395,45.1566 -22.47583,-9.3947 -66.25773,-37.7705 -72.41706,-52.7204 4.994,-1.3996 8.98317,-2.4672 11.58492,-3.2811 -2.75433,-7.5763 -26.75978,-25.87314 -26.75978,-25.87314 z"
       id="path5066-9"
       inkscape:connector-curvature="0"
       sodipodi:nodetypes="cccccccc" />
    <path
       style="fill:#ffffff;fill-rule:evenodd;stroke:none;stroke-width:0.999998px;stroke-linecap:butt;stroke-linejoin:miter;stroke-opacity:1"
       d="m 2095.0948,2168.3594 c 19.7952,7.2511 39.7188,16.9216 58.4942,32.5036 0.659,1.7153 -0.1184,13.4045 -13.9816,24.4813 9.7805,8.8999 26.9757,29.0069 28.9063,45.8339 -16.6424,26.5415 -70.6514,82.155 -100.4085,101.6665 -0.9778,0.6412 -10.8485,3.4463 -2.9062,1.7643 l -69.1777,-2.7281 c 42.2436,-18.4462 118.0005,-73.0054 143.0167,-106.7279 -6.354,-10.1375 -18.5646,-37.9872 -35.5242,-41.5593 48.805,-19.7239 7.6056,-42.2189 -8.419,-55.2343 z"
       id="path1423"
       sodipodi:nodetypes="ccccsccccc" />
    <path
       style="color:#000000;display:inline;overflow:visible;visibility:visible;fill:#ffffff;fill-opacity:1;fill-rule:nonzero;stroke:none;stroke-width:0.976411px;marker:none;enable-background:accumulate"
       d="m 1772.9159,2771.3502 c -41.7532,0.4604 -84.128,7.1149 -122.1443,25.0345 -16.1422,7.81 -31.111,19.9498 -38.3344,36.7614 -8.5633,18.7007 -9.8959,39.7067 -9.4373,59.9854 1.1483,15.8494 8.897,31.0541 21.0792,41.2668 17.008,15.5871 39.3909,23.2639 61.3494,28.8696 41.5455,10.4264 84.8299,11.5623 127.4004,8.9857 37.6378,-2.4065 75.6304,-8.2732 110.4955,-23.2287 20.4178,-10.16 36.2779,-30.211 39.1598,-53.1068 4.481,-26.605 -3.6677,-55.8409 -23.6735,-74.442 -15.9068,-14.4209 -36.1478,-22.5007 -55.6489,-30.7632 -35.0051,-13.6417 -72.7471,-19.7144 -110.2459,-19.3627 z"
       id="path3525-0"
       inkscape:connector-curvature="0" />
    <path
       style="fill:#ffffff;fill-rule:evenodd;stroke:none;stroke-width:1px;stroke-linecap:butt;stroke-linejoin:miter;stroke-opacity:1"
       d="m 1696.1492,2922.6747 c -4.9424,15.7994 -8.5741,32.3607 -17.5078,46.5371 -5.7283,8.1716 -15.2584,12.5651 -24.6347,15.0798 -5.6543,1.5241 -11.7641,3.905 -14.8497,9.2288 -2.7865,6.0841 -0.4659,13.2551 3.5433,18.2155 5.0949,7.3005 11.4587,13.6871 15.902,21.4447 -1.1158,4.5821 -5.7661,6.9174 -9.8551,8.3524 -9.2915,3.1977 -19.3098,2.3975 -28.9183,1.8976 1.7343,1.225 3.9299,1.9165 5.9242,2.7369 10.3208,3.8115 22.2678,4.033 32.2472,-0.9403 7.5898,-2.9189 12.1516,-11.4958 10.9704,-19.4422 -0.4723,-4.1648 -2.5775,-7.8778 -4.8639,-11.2964 -1.8832,-3.3454 -3.6942,-6.7307 -5.5357,-10.0991 1.4457,-3.516 5.4974,-4.9482 8.9822,-5.444 3.951,-0.4545 8.0141,-0.6502 11.6917,-2.3226 12.9323,-4.6802 23.7976,-13.8407 32.4428,-24.3579 5.2226,-6.772 8.8363,-15.5171 7.1723,-24.1743 -1.9937,-11.8066 -11.0027,-22.2669 -22.5879,-25.5371 z m -80.1426,118.8203 v -0.1758 z"
       id="path1085"
       inkscape:connector-curvature="0"
       sodipodi:nodetypes="cscscsccc" />
    <path
       style="color:#000000;display:inline;overflow:visible;visibility:visible;fill:#ffffff;fill-opacity:1;fill-rule:nonzero;stroke:none;stroke-width:0.821064px;marker:none;enable-background:accumulate"
       d="m 1554.3747,2879.3599 c 3.0461,-8.1499 19.3164,-33.3934 24.078,-6.6884 35.0592,-35.7584 78.3251,-23.1582 87.9154,-17.9476 -4.4255,-10.586 4.4971,-29.614 29.9809,-24.9355 -4.8419,-10.2267 2.4688,-17.9058 20.6227,-23.3107 -25.7272,-4.7844 -31.1649,-11.0078 14.0988,-20.8321 -35.2473,1.4728 -68.2401,2.0884 -30.1923,-24.3013 -13.0174,0.2138 -41.049,22.0077 -34.5452,-37.152 -19.7508,20.0194 -42.1028,31.7672 -77.1127,-5.4978 -7.0823,15.9924 -19.3624,27.2492 -48.5056,7.8015 -3.5769,15.6625 -35.1687,18.8726 -47.2749,16.4738 25.8583,15.695 26.4754,26.389 -5.2934,29.9985 57.7871,27.6041 13.3224,25.6281 5.7246,33.9881 43.5499,8.0678 26.4753,22.4483 20.7426,36.0923 48.478,-2.5073 35.4645,19.6018 39.7611,36.3112 z"
       id="path3549-3-8"
       inkscape:connector-curvature="0"
       sodipodi:nodetypes="ccccccccccccccc" />
  </g>
  <g
     inkscape:groupmode="layer"
     id="layer1"
     inkscape:label="txt">
    <text
       xml:space="preserve"
       style="font-style:normal;font-variant:normal;font-weight:normal;font-stretch:normal;font-size:13.9734px;line-height:0%;font-family:Lavi;-inkscape-font-specification:Lavi;text-align:center;letter-spacing:0px;word-spacing:0px;text-anchor:middle;fill:#ffffff;fill-opacity:1;stroke:none;stroke-width:1.16445"
       x="360.53488"
       y="361.98544"
       id="text4180"
       transform="scale(0.97214513,1.028653)"><tspan
         sodipodi:role="line"
         id="tspan4182"
         x="360.53488"
         y="361.98544"
         style="font-style:normal;font-variant:normal;font-weight:normal;font-stretch:normal;font-size:58.7426px;line-height:1.25;font-family:'Drukaatie burti';-inkscape-font-specification:'Drukaatie burti';stroke-width:1.16445">CURSUS</tspan><tspan
         sodipodi:role="line"
         x="360.53488"
         y="435.4137"
         style="font-style:normal;font-variant:normal;font-weight:normal;font-stretch:normal;font-size:58.7426px;line-height:1.25;font-family:'Drukaatie burti';-inkscape-font-specification:'Drukaatie burti';stroke-width:1.16445"
         id="tspan845">CANCELLARE</tspan><tspan
         sodipodi:role="line"
         x="360.53488"
         y="508.84195"
         style="font-style:normal;font-variant:normal;font-weight:normal;font-stretch:normal;font-size:58.7426px;line-height:1.25;font-family:'Drukaatie burti';-inkscape-font-specification:'Drukaatie burti';stroke-width:1.16445"
         id="tspan847">MAXIMUS!!!</tspan></text>
    <text
       xml:space="preserve"
       style="font-style:normal;font-variant:normal;font-weight:normal;font-stretch:normal;font-size:140px;line-height:1.25;font-family:Lavi;-inkscape-font-specification:Lavi;letter-spacing:0px;word-spacing:0px;fill:#000000;fill-opacity:1;stroke:#000000;stroke-width:0.76769698;stroke-miterlimit:4;stroke-dasharray:none;stroke-opacity:1;filter:url(#filter4375-4-1-1-1-9-5-8-8-5-5-3-3)"
       id="text4580-6-0-0-0-9-3-3"
       transform="matrix(0.78930062,-0.13614632,0.09898673,1.1655785,2474.7436,272.30868)"
       x="313.77448"
       y="979.88452"><textPath
         xlink:href="#path974"
         id="textPath2837"
         style="font-size:140px;fill:#000000;stroke:#000000;stroke-width:0.76769698;stroke-opacity:1"
         rotate="0 0 0 0 0 30 0"><tspan
   style="font-size:164.50900269px;fill:#000000;stroke:#000000;stroke-width:0.76769698;stroke-opacity:1"
   id="tspan921">ȘKLAK</tspan>!</textPath></text>
    <path
       style="fill:none;fill-rule:evenodd;stroke:none;stroke-width:1.13654px;stroke-linecap:butt;stroke-linejoin:miter;stroke-opacity:1"
       d="M -782.19308,325.4414 C -589.01028,245.86428 -187.91734,67.856922 -31.335687,8.6587174"
       id="path974"
       sodipodi:nodetypes="cc" />
    <text
       xml:space="preserve"
       style="font-style:normal;font-variant:normal;font-weight:normal;font-stretch:normal;font-size:55.74150085px;line-height:1.25;font-family:Lavi;-inkscape-font-specification:Lavi;text-align:center;letter-spacing:0px;word-spacing:0px;text-anchor:middle;fill:#000000;fill-opacity:1;stroke:none;stroke-width:1.15534997"
       x="702.73871"
       y="914.20453"
       id="text4246-3-2-2-6-3-7-9-3-3-56-9-3-20"
       transform="matrix(0.93489145,0,-0.16751518,1.0696429,0,0)"><tspan
         style="font-style:normal;font-variant:normal;font-weight:bold;font-stretch:normal;font-size:55.74150085px;font-family:Lavi;-inkscape-font-specification:'Lavi Bold';stroke-width:1.15534997"
         sodipodi:role="line"
         x="702.73871"
         y="914.20453"
         id="tspan334">Auci!</tspan></text>
    <text
       xml:space="preserve"
       style="font-style:normal;font-variant:normal;font-weight:normal;font-stretch:normal;font-size:80px;line-height:1.25;font-family:Lavi;-inkscape-font-specification:Lavi;letter-spacing:0px;word-spacing:0px;fill:#ffffff;fill-opacity:1;stroke:#ffffff;stroke-width:0.822276;stroke-miterlimit:4;stroke-dasharray:none;stroke-opacity:1;filter:url(#filter4375-4-1-1-1-9-5-8-8-5-5-3-3-3-0)"
       id="text4580-6-0-0-0-9-3-3-2-0"
       transform="matrix(1.296644,-0.59261719,-0.5584343,2.1151802,2801.1166,-1940.1494)"
       x="-607.91235"
       y="1245.0809"><tspan
         id="tspan1534-6"
         style="font-size:61.3371px;stroke-width:0.822276">P<tspan
   style="font-size:52.4338px;stroke-width:0.822276"
   id="tspan1009">AF</tspan>!!</tspan></text>
    <text
       xml:space="preserve"
       style="font-style:normal;font-variant:normal;font-weight:normal;font-stretch:normal;font-size:49.67950058px;line-height:1.25;font-family:Lavi;-inkscape-font-specification:Lavi;text-align:center;letter-spacing:0px;word-spacing:0px;text-anchor:middle;fill:#000000;fill-opacity:1;stroke:none;stroke-width:1.10398996"
       x="313.05811"
       y="1510.8746"
       id="text4246-3-2-2-6-3-7-9-3-3-56-9-3-20-3"><tspan
         style="font-size:49.67950058px;stroke-width:1.10398996"
         sodipodi:role="line"
         x="313.05811"
         y="1510.8746"
         id="tspan962">Nici cea mai puternică</tspan><tspan
         style="font-size:49.67950058px;stroke-width:1.10398996"
         sodipodi:role="line"
         x="313.05811"
         y="1572.974"
         id="tspan147">vrajă a ta de anulare</tspan><tspan
         style="font-size:49.67950058px;stroke-width:1.10398996"
         sodipodi:role="line"
         x="320.82053"
         y="1635.0734"
         id="tspan149">nu are efect </tspan><tspan
         style="font-size:49.67950058px;stroke-width:1.10398996"
         sodipodi:role="line"
         x="313.05811"
         y="1697.1727"
         id="tspan151">asupra mea!</tspan></text>
    <text
       xml:space="preserve"
       style="font-style:normal;font-variant:normal;font-weight:normal;font-stretch:normal;font-size:45px;line-height:1.25;font-family:Lavi;-inkscape-font-specification:Lavi;text-align:center;letter-spacing:0px;word-spacing:0px;text-anchor:middle;fill:#000000;fill-opacity:1;stroke:none"
       x="659.58832"
       y="2547.5586"
       id="text4246-3-2-2-6-3-7-9-3-3-56-9-3-20-3-7"><tspan
         style="font-size:45px"
         sodipodi:role="line"
         x="659.58832"
         y="2547.5586"
         id="tspan1107">Renunță, Pepper,</tspan><tspan
         style="font-size:45px"
         sodipodi:role="line"
         x="659.58832"
         y="2603.9941"
         id="tspan968"> și pleacă!</tspan></text>
    <text
       xml:space="preserve"
       style="font-style:normal;font-variant:normal;font-weight:normal;font-stretch:normal;font-size:58.66009903px;line-height:1.25;font-family:Lavi;-inkscape-font-specification:Lavi;text-align:center;letter-spacing:0px;word-spacing:0px;text-anchor:middle;fill:#000000;fill-opacity:1;stroke:#000000;stroke-width:0.64709598;stroke-miterlimit:4;stroke-dasharray:none;stroke-opacity:1"
       x="1572.1621"
       y="2473.8064"
       id="text4246-3-2-2-6-3-7-9-3-3-56-9-3-20-3-7-9"
       transform="matrix(1.004667,0,-0.09777912,0.99535468,0,0)"><tspan
         style="font-size:58.66009903px;stroke:#000000;stroke-width:0.64709598;stroke-miterlimit:4;stroke-dasharray:none;stroke-opacity:1"
         sodipodi:role="line"
         x="1572.1621"
         y="2473.8064"
         id="tspan975">Nu mă mai forța</tspan><tspan
         style="font-size:58.66009903px;stroke:#000000;stroke-width:0.64709598;stroke-miterlimit:4;stroke-dasharray:none;stroke-opacity:1"
         sodipodi:role="line"
         x="1572.1621"
         y="2547.3735"
         id="tspan159">să te rănesc!</tspan></text>
    <text
       xml:space="preserve"
       style="font-style:normal;font-variant:normal;font-weight:normal;font-stretch:normal;font-size:50px;line-height:1.25;font-family:Lavi;-inkscape-font-specification:Lavi;text-align:center;letter-spacing:0px;word-spacing:0px;text-anchor:middle;fill:#000000;fill-opacity:1;stroke:none"
       x="2009.5503"
       y="2413.4648"
       id="text4246-3-2-2-6-3-7-9-3-3-56-9-3-20-3-7-7"><tspan
         sodipodi:role="line"
         x="2017.3628"
         y="2413.4648"
         style="font-size:50px"
         id="tspan982">Oh, vraja mea a </tspan><tspan
         sodipodi:role="line"
         x="2017.3628"
         y="2475.9648"
         style="font-size:50px"
         id="tspan163">funcțonat perfect, doar </tspan><tspan
         sodipodi:role="line"
         x="2009.5503"
         y="2538.6711"
         style="font-size:50px"
         id="tspan8463">că nu erai tu ținta.</tspan></text>
    <text
       xml:space="preserve"
       style="font-style:normal;font-variant:normal;font-weight:normal;font-stretch:normal;font-size:50px;line-height:1.25;font-family:Lavi;-inkscape-font-specification:Lavi;text-align:center;letter-spacing:0px;word-spacing:0px;text-anchor:middle;fill:#000000;fill-opacity:1;stroke:none"
       x="1592.5446"
       y="2812.7163"
       id="text4246-3-2-2-6-3-7-9-3-3-56-9-3-20-3-7-7-3-3"><tspan
         sodipodi:role="line"
         x="1592.5446"
         y="2812.7163"
         style="font-size:50px"
         id="tspan1234-7">Hă?</tspan></text>
    <text
       xml:space="preserve"
       style="font-style:normal;font-variant:normal;font-weight:normal;font-stretch:normal;font-size:50px;line-height:1.25;font-family:Lavi;-inkscape-font-specification:Lavi;text-align:center;letter-spacing:0px;word-spacing:0px;text-anchor:middle;fill:#000000;fill-opacity:1;stroke:none"
       x="1786.558"
       y="2857.2175"
       id="text4246-3-2-2-6-3-7-9-3-3-56-9-3-20-3-7-7-3"><tspan
         sodipodi:role="line"
         x="1786.558"
         y="2857.2175"
         style="font-size:50px"
         id="tspan1234">Ce vrei să</tspan><tspan
         sodipodi:role="line"
         x="1786.558"
         y="2919.7175"
         style="font-size:50px"
         id="tspan186">spui?!</tspan></text>
    <text
       xml:space="preserve"
       style="font-style:normal;font-variant:normal;font-weight:normal;font-stretch:normal;font-size:131.375px;line-height:1.25;font-family:Lavi;-inkscape-font-specification:Lavi;letter-spacing:0px;word-spacing:0px;fill:#ffffff;fill-opacity:1;stroke:#ffffff;stroke-width:0.792768;stroke-miterlimit:4;stroke-dasharray:none;stroke-opacity:1;filter:url(#filter4375-4-1-1-1-9-5-8-8-5-5-3-3-3-4)"
       id="text4580-6-0-0-0-9-3-3-2-4"
       transform="matrix(0.40673393,-0.14739048,-0.13453696,0.59699085,2175.9236,2308.7188)"
       x="-607.91235"
       y="1245.0809">Psș...</text>
    <text
       xml:space="preserve"
       style="font-style:normal;font-variant:normal;font-weight:normal;font-stretch:normal;font-size:131.375px;line-height:1.25;font-family:Lavi;-inkscape-font-specification:Lavi;letter-spacing:0px;word-spacing:0px;fill:#ffffff;fill-opacity:1;stroke:#ffffff;stroke-width:0.792768;stroke-miterlimit:4;stroke-dasharray:none;stroke-opacity:1;filter:url(#filter4375-4-1-1-1-9-5-8-8-5-5-3-3-3-4-3)"
       id="text4580-6-0-0-0-9-3-3-2-4-6"
       transform="matrix(0.40673393,-0.14739048,-0.13453696,0.59699085,1023.5679,2296.8448)"
       x="-607.91235"
       y="1245.0809">Psș...</text>
  </g>
</svg>
