<?xml version="1.0" encoding="UTF-8" standalone="no"?>
<!-- Created with Inkscape (http://www.inkscape.org/) -->

<svg
   xmlns:dc="http://purl.org/dc/elements/1.1/"
   xmlns:cc="http://creativecommons.org/ns#"
   xmlns:rdf="http://www.w3.org/1999/02/22-rdf-syntax-ns#"
   xmlns:svg="http://www.w3.org/2000/svg"
   xmlns="http://www.w3.org/2000/svg"
   xmlns:xlink="http://www.w3.org/1999/xlink"
   xmlns:sodipodi="http://sodipodi.sourceforge.net/DTD/sodipodi-0.dtd"
   xmlns:inkscape="http://www.inkscape.org/namespaces/inkscape"
   id="svg2"
   version="1.1"
   inkscape:version="0.92.2 2405546, 2018-03-11"
   width="2481"
   height="3503"
   sodipodi:docname="E27P03.svg"
   inkscape:export-filename="C:\Users\ruden\Desktop\E27P03.png"
   inkscape:export-xdpi="96"
   inkscape:export-ydpi="96">
  <metadata
     id="metadata8">
    <rdf:RDF>
      <cc:Work
         rdf:about="">
        <dc:format>image/svg+xml</dc:format>
        <dc:type
           rdf:resource="http://purl.org/dc/dcmitype/StillImage" />
        <dc:title />
      </cc:Work>
    </rdf:RDF>
  </metadata>
  <defs
     id="defs6">
    <filter
       style="color-interpolation-filters:sRGB"
       id="filter4375-4-1-1-1-9"
       inkscape:label="deevad outline effect">
      <feFlood
         id="feFlood4377-7-9-0-8-1"
         flood-opacity="1"
         flood-color="rgb(0,0,0)"
         result="flood" />
      <feComposite
         id="feComposite4379-3-8-8-2-77"
         in2="SourceGraphic"
         in="flood"
         operator="in"
         result="composite1" />
      <feMorphology
         id="feMorphology4393-1-0-49-8-9"
         operator="dilate"
         radius="4"
         result="result3" />
      <feComposite
         id="feComposite4385-9-5-7-0-8"
         in2="result3"
         in="SourceGraphic"
         operator="over"
         result="composite2" />
    </filter>
    <filter
       style="color-interpolation-filters:sRGB"
       id="filter4375-4-1-1-1-9-5"
       inkscape:label="deevad outline effect">
      <feFlood
         id="feFlood4377-7-9-0-8-1-8"
         flood-opacity="1"
         flood-color="rgb(0,0,0)"
         result="flood" />
      <feComposite
         id="feComposite4379-3-8-8-2-77-0"
         in2="SourceGraphic"
         in="flood"
         operator="in"
         result="composite1" />
      <feMorphology
         id="feMorphology4393-1-0-49-8-9-0"
         operator="dilate"
         radius="4"
         result="result3" />
      <feComposite
         id="feComposite4385-9-5-7-0-8-0"
         in2="result3"
         in="SourceGraphic"
         operator="over"
         result="composite2" />
    </filter>
  </defs>
  <sodipodi:namedview
     pagecolor="#ffffff"
     bordercolor="#666666"
     borderopacity="1"
     objecttolerance="10"
     gridtolerance="10"
     guidetolerance="10"
     inkscape:pageopacity="0"
     inkscape:pageshadow="2"
     inkscape:window-width="1280"
     inkscape:window-height="972"
     id="namedview4"
     showgrid="false"
     inkscape:zoom="0.42773946"
     inkscape:cx="1210.0681"
     inkscape:cy="2588.4446"
     inkscape:window-x="0"
     inkscape:window-y="26"
     inkscape:window-maximized="1"
     inkscape:current-layer="layer1"
     inkscape:snap-global="false" />
  <g
     inkscape:groupmode="layer"
     id="layer2"
     inkscape:label="artwork"
     sodipodi:insensitive="true">
    <image
       sodipodi:absref="/home/zveryok/Downloads/webcomics-master/ep27_Coriander-s-Invention/lang/ru-mv/../gfx_Pepper-and-Carrot_by-David-Revoy_E27P03.png"
       xlink:href="../gfx_Pepper-and-Carrot_by-David-Revoy_E27P03.png"
       y="0"
       x="0"
       id="image10"
       height="3503"
       width="2481" />
  </g>
  <g
     inkscape:groupmode="layer"
     id="layer3"
     inkscape:label="speechbubbles">
    <path
       style="fill:#ffffff;fill-rule:evenodd;stroke:none;stroke-width:0.91090298px;stroke-linecap:butt;stroke-linejoin:miter;stroke-opacity:1"
       d="m 1130.6215,1541.3629 c 3.1159,-40.1307 1.1677,-67.5615 26.107,-77.2821 24.9395,-9.7205 214.4227,-10.0092 229.7083,-9.2719 15.2857,0.7375 47.7009,5.2598 61.1428,2.9496 13.4418,-2.3099 52.3768,-3.0488 72.8416,-0.3547 20.4648,2.6941 108.8574,3.0533 119.4169,11.0726 10.5595,8.0196 36.9397,30.0863 36.4548,54.755 -0.4851,24.6687 -12.6054,37.6055 -25.4937,51.2073 -12.8884,13.6018 -59.1997,33.1588 -86.3352,32.6463 -27.1354,-0.5126 -117.6856,1.7096 -132.921,1.9987 -15.2354,0.2891 -109.8822,5.1675 -142.0459,5.7779 -32.1635,0.6103 -81.204,-9.0173 -114.0723,-22.7783 -32.868,-13.761 -44.8033,-50.7204 -44.8033,-50.7204 z"
       id="path263"
       inkscape:connector-curvature="0"
       sodipodi:nodetypes="ccccccccssccc" />
    <path
       style="fill:#ffffff;fill-rule:evenodd;stroke:none;stroke-width:1px;stroke-linecap:butt;stroke-linejoin:miter;stroke-opacity:1"
       d="m 1252.6692,1467.8179 c 0,0 -14.7372,-14.1832 -28.1318,-24.3459 -13.1591,-9.9839 -23.1743,-37.0399 -19.4243,-57.7963 -18.1089,29.447 -5.815,53.6299 11.889,81.0614 15.1315,24.8588 35.6671,1.0808 35.6671,1.0808 z"
       id="path265"
       inkscape:connector-curvature="0"
       sodipodi:nodetypes="csccc" />
    <path
       style="fill:#ffffff;fill-rule:evenodd;stroke:none;stroke-width:0.90507984px;stroke-linecap:butt;stroke-linejoin:miter;stroke-opacity:1"
       d="m 1936.3476,1861.7554 c 25.5075,-29.7125 81.719,-45.2554 125.7775,-46.0808 44.0583,-0.8253 160.0012,8.2535 198.2624,22.2845 38.2611,14.0307 73.6444,30.3991 70.1661,70.8409 -3.4783,40.442 -13.9132,82.5345 -20.8697,97.3909 -6.9566,14.8561 -28.9857,37.9658 -51.0149,51.1712 -22.0292,13.2056 -97.3921,16.507 -124.059,16.507 -26.6668,0 -119.4211,-9.9042 -139.1314,-22.2844 -19.7103,-12.3801 -60.2904,-33.0138 -67.247,-70.1542 -6.9565,-37.1406 -3.4782,-97.3908 8.116,-119.6751 z"
       id="path267"
       inkscape:connector-curvature="0"
       sodipodi:nodetypes="csccccscsc" />
    <path
       style="fill:#ffffff;fill-rule:evenodd;stroke:none;stroke-width:1px;stroke-linecap:butt;stroke-linejoin:miter;stroke-opacity:1"
       d="m 1825.1743,1897.7489 c 53.571,-19.7367 111.3904,-9.3727 131.1271,16.0031 19.7367,25.3757 16.4282,45.0866 16.4282,45.0866 l -21.6164,9.3985 c 0,14.3171 5.8835,-17.1392 -7.2743,-30.7446 -12.9359,-13.376 -35.6882,-34.1046 -57.3046,-37.8639 -21.6164,-3.7594 -50.0819,-2.8196 -61.36,-1.8797 z"
       id="path269"
       inkscape:connector-curvature="0"
       sodipodi:nodetypes="ccccscc" />
    <path
       style="fill:#ffffff;fill-rule:evenodd;stroke:none;stroke-width:1.0997411px;stroke-linecap:butt;stroke-linejoin:miter;stroke-opacity:1"
       d="m 252.33025,2430.8205 c 24.09077,-19.9395 79.49954,-25.8041 103.59029,-32.8416 24.09078,-7.0374 56.61332,-1.1729 72.27232,-2.3457 15.659,-1.173 59.02237,-7.0375 71.06776,-5.8646 12.04539,1.1729 89.13585,7.0374 104.79484,8.2103 15.659,1.173 83.11315,7.0375 90.34039,29.323 7.22724,22.2852 28.90893,65.6831 18.06809,86.7956 -10.84085,21.1124 -24.09078,57.4727 -55.40878,70.3748 -31.31801,12.9021 -79.49952,34.0146 -136.11284,36.3603 -56.61332,2.3458 -134.90831,-7.0375 -146.95368,-7.0375 -12.04539,0 -75.88593,1.173 -101.18123,-28.1499 -25.29532,-29.3227 -43.36339,-62.1645 -39.74978,-91.4873 3.61362,-29.3228 19.27262,-63.3374 19.27262,-63.3374 z"
       id="path271"
       inkscape:connector-curvature="0" />
    <path
       style="fill:#ffffff;fill-rule:evenodd;stroke:none;stroke-width:1px;stroke-linecap:butt;stroke-linejoin:miter;stroke-opacity:1"
       d="m 549.40558,2567.868 c 0,0 -6.17962,40.1675 -4.9437,48.819 1.23593,8.6515 12.35924,48.201 19.77478,58.0884 -19.15682,-22.2466 -31.51605,-51.2908 -33.9879,-61.1782 -2.47184,-9.8874 -1.23592,-50.0549 -1.23592,-50.0549 z"
       id="path273"
       inkscape:connector-curvature="0" />
    <path
       style="fill:#ffffff;fill-rule:evenodd;stroke:none;stroke-width:1px;stroke-linecap:butt;stroke-linejoin:miter;stroke-opacity:1"
       d="m 922.04751,2413.7504 c 36.95412,-5.6852 28.42624,7.8173 60.40576,7.1066 31.97953,-0.7106 97.35983,-7.8172 112.99433,-14.2131 8.5278,-3.5533 9.2385,2.132 9.2385,2.132 0,0 26.2943,1.4213 31.2689,2.8426 4.9745,1.4213 24.1623,10.6598 31.2688,8.5279 7.1066,-2.132 19.1877,-5.6853 19.1877,-5.6853 0,0 -0.7106,47.614 -1.4213,51.1672 -0.7106,3.5533 -5.6852,30.5582 -5.6852,39.7968 0,9.2385 4.2639,23.4516 3.5532,27.7156 -0.7106,4.2639 9.2386,14.9237 9.2386,14.9237 l -27.005,0.7107 -18.477,2.132 -7.8172,-2.132 -33.4009,2.8426 -19.1877,0.7107 1.4213,-4.264 -82.436,4.264 3.5533,-6.3959 -28.42629,1.4213 -10.65984,6.3959 -3.55328,-5.6853 -24.16231,0.7107 -12.79181,6.3959 7.10656,-13.5025 -10.65984,-7.8172 -2.13196,-104.4664 6.3959,-4.264 z"
       id="path275"
       inkscape:connector-curvature="0" />
    <path
       style="fill:#ffffff;fill-rule:evenodd;stroke:none;stroke-width:0.8789717px;stroke-linecap:butt;stroke-linejoin:miter;stroke-opacity:1"
       d="m 1166.5149,2437.016 c 25.3259,-4.9746 42.2099,9.2385 48.4008,7.8172 6.1909,-1.4213 26.4517,-10.6598 33.2052,-9.9492 6.7536,0.7107 49.5264,8.5279 62.4707,5.6853 12.9444,-2.8427 41.6473,0 46.1497,-0.7107 4.5023,-0.7106 22.5119,-14.2131 27.5772,-14.2131 5.0652,0 13.5072,6.3959 32.0797,-9.2385 -7.8793,18.477 -12.3817,31.2688 -12.3817,31.2688 0,0 19.698,-7.1065 27.5771,-7.1065 7.8792,0 14.0701,3.5532 18.0097,1.4213 3.9395,-2.132 25.326,-2.8426 28.7028,-2.8426 3.3769,0 11.8187,-3.5533 15.7584,-3.5533 3.9395,0 39.9588,4.2639 45.024,4.2639 5.0651,0 52.3403,-7.1066 57.4055,-7.1066 5.0652,0 28.14,2.132 37.7077,-2.8426 1.1255,14.2131 -2.2512,48.3246 -2.2512,56.1418 0,7.8173 0.5627,17.7664 0.5627,24.1624 -8.4419,7.1065 -14.6329,21.3196 -14.6329,21.3196 0,0 14.0702,3.5533 18.0097,0.7107 3.9395,-2.8426 1.6884,52.5885 2.2512,63.2484 0.5629,10.6598 -6.7536,0.7106 -6.7536,0.7106 0,0 -1.1255,7.8172 -5.628,9.2386 -4.5024,1.4213 -83.8571,-0.7107 -92.8619,-0.7107 -9.0049,0 -11.8189,3.5533 -11.8189,3.5533 h -38.8332 l -1.1256,-6.3959 -17.4467,4.2639 -23.6377,4.9746 -14.07,3.5533 -7.8791,-2.8426 -38.8333,0.7106 -33.7679,1.4213 8.4419,-10.6598 -87.7966,7.8172 -40.5218,1.4213 -37.1447,6.3959 -7.3164,-22.741 -3.9396,-49.0352 c 0,0 -2.2512,-13.5026 3.9396,-15.6345 6.1908,-2.1319 -4.5024,-4.2639 -5.628,-17.0557 -1.1256,-12.7918 -4.5023,-45.482 -4.5023,-45.482 l 7.3163,-2.8426 -9.0047,-7.1066 z"
       id="path277"
       inkscape:connector-curvature="0" />
    <path
       style="fill:#ffffff;fill-rule:evenodd;stroke:none;stroke-width:0.99999994px;stroke-linecap:butt;stroke-linejoin:miter;stroke-opacity:1"
       d="m 1327.3521,2751.2587 c 32.6788,-36.3054 55.3539,-80.3905 55.3539,-94.0051 8.6697,12.9662 8.0028,10.373 8.0028,10.373 0,0 14.6721,-38.8987 14.0051,-62.8862 -0.6667,-23.9875 26.6766,-24.6358 30.0111,-19.4493 3.3345,5.1864 9.47,23.9875 9.47,23.9875 l -4.1347,13.6145 -4.0015,-3.2415 c 0,0 -15.3389,40.1952 -17.3397,44.7334 -2.0008,4.5382 -10.6705,23.9876 -10.6705,23.9876 l -2.6677,-11.6696 -14.6721,10.373 0.6669,16.2077 -8.003,-7.1314 c 0,0 -0.6667,9.7247 -4.0014,14.9112 -3.3346,5.1864 -24.0089,27.8774 -26.6765,31.1189 -2.6676,3.2415 -25.3427,9.0763 -25.3427,9.0763 z"
       id="path279"
       inkscape:connector-curvature="0" />
    <path
       style="fill:#ffffff;fill-rule:evenodd;stroke:none;stroke-width:1px;stroke-linecap:butt;stroke-linejoin:miter;stroke-opacity:1"
       d="m 1864.4187,2412.5674 7.2398,7.358 36.7802,-4.3215 7.3553,-8.3665 c 0,0 16.3451,8.3665 21.2486,5.5777 4.9035,-2.7889 24.5176,-4.6481 24.5176,-4.6481 l 7.3553,7.4369 17.9796,-2.7888 c 0,0 41.68,7.4369 51.487,6.5072 9.8071,-0.9295 26.9694,-10.2256 26.9694,-10.2256 0,0 33.5075,10.2256 38.411,8.3664 4.9035,-1.8592 13.8933,-2.7887 13.8933,-2.7887 l 10.6243,20.4515 c 0,0 21.2486,-19.522 21.2486,-28.8181 13.8934,-0.9297 32.6902,0 35.9592,-1.8593 3.2691,-1.8592 4.9036,11.1554 4.9036,11.1554 l 9.807,6.5073 c 0,0 24.5176,-20.4515 26.9694,-24.1699 2.4518,-3.7185 18.7969,-2.789 18.7969,-2.789 0,0 22.8831,0.9297 26.1521,0 3.269,-0.9295 17.1623,0.9297 29.4212,1.8592 12.2588,0.9298 24.5176,0.9298 33.5074,-2.7887 2.4518,15.8034 0,72.51 -0.8173,79.0173 -8.9898,15.8034 -17.9796,45.5512 -25.3348,51.1289 19.6141,-11.1555 19.6141,-14.8739 26.9693,-22.3108 -0.8172,23.2405 -7.3552,72.51 -8.1725,78.0878 13.0761,-12.085 11.4416,-9.2962 9.8071,-4.6481 -1.6346,4.6481 -6.5381,18.5923 -8.1726,29.7476 -1.6345,11.1554 0,25.0997 -1.6345,32.5366 -1.6345,7.437 -3.269,17.6628 -3.269,17.6628 0,0 -32.6902,11.1553 -38.411,13.0146 -5.7208,1.8592 -56.3905,1.8592 -69.4666,1.8592 -13.0761,0 -32.6902,2.7888 -41.68,1.8592 4.9036,-10.2257 8.1726,-17.6627 8.1726,-17.6627 0,0 -40.8627,4.6481 -50.6698,6.5074 -9.8071,1.8592 -50.6698,-8.3666 -59.6596,-7.4369 -8.9898,0.9295 -58.8423,2.7887 -71.9184,3.7184 -13.076,0.9295 -45.7662,2.7888 -58.025,5.5777 -12.2588,2.7888 -49.0353,4.648 -57.2078,4.648 -8.1726,0 -23.7004,0.9297 -23.7004,0.9297 0,0 -1.6345,-33.4661 -1.6345,-45.5512 0,-12.085 -4.0863,-71.5804 -0.8173,-78.0877 3.269,-6.5074 5.7208,-52.0586 5.7208,-56.7066 0,-4.6481 -7.7109,-40.4078 -7.7109,-40.4078 z"
       id="path283"
       inkscape:connector-curvature="0"
       sodipodi:nodetypes="ccccscccccsccccccccccccccccccccscccccsscssscc" />
    <path
       style="fill:#ffffff;fill-rule:evenodd;stroke:none;stroke-width:0.99999994px;stroke-linecap:butt;stroke-linejoin:miter;stroke-opacity:1"
       d="m 1928.0456,2832.7023 c -13.1433,-30.6118 9.2927,-109.1953 20.1114,-126.6745 0,-10.6243 -4.641,-22.8831 -4.641,-22.8831 0,0 -11.6028,4.9035 -14.6968,10.6243 -3.0941,5.7208 13.1497,-34.3247 22.4319,-40.8627 9.2823,-6.538 -6.9616,-37.5937 -6.9616,-37.5937 0,0 -31.7143,26.1521 -33.2613,37.5937 -1.547,11.4416 -10.0557,70.2839 -6.1881,80.9082 3.8676,10.6243 6.1881,4.9035 9.2821,0.8172 3.0942,-4.0862 11.6029,-12.2588 16.244,-15.5278 -7.7353,19.6141 -20.1115,84.1772 -2.3206,113.5984 z"
       id="path285"
       inkscape:connector-curvature="0"
       sodipodi:nodetypes="ccccccssccc" />
  </g>
  <g
     inkscape:groupmode="layer"
     id="layer1"
     inkscape:label="txt">
    <text
       xml:space="preserve"
       style="font-style:normal;font-variant:normal;font-weight:normal;font-stretch:normal;line-height:0%;font-family:Lavi;-inkscape-font-specification:Lavi;text-align:center;letter-spacing:0px;word-spacing:0px;text-anchor:middle;fill:#000000;fill-opacity:1;stroke:none"
       x="1404.0492"
       y="1516.4214"
       id="text4246"><tspan
         sodipodi:role="line"
         style="font-size:45px;line-height:1.20000005"
         x="1404.0492"
         y="1516.4214"
         id="tspan794">Сейчас поймёте</tspan><tspan
         sodipodi:role="line"
         style="font-size:45px;line-height:1.20000005"
         x="1404.0492"
         y="1570.4214"
         id="tspan67">зачем я его придумала.</tspan></text>
    <text
       xml:space="preserve"
       style="font-style:normal;font-variant:normal;font-weight:normal;font-stretch:normal;line-height:0%;font-family:Lavi;-inkscape-font-specification:Lavi;text-align:center;letter-spacing:0px;word-spacing:0px;text-anchor:middle;fill:#000000;fill-opacity:1;stroke:none"
       x="2130.2939"
       y="1880.7177"
       id="text4246-3"><tspan
         sodipodi:role="line"
         style="font-size:45px;line-height:1.20000005"
         x="2130.2939"
         y="1880.7177"
         id="tspan66">Это связано с</tspan><tspan
         sodipodi:role="line"
         style="font-size:45px;line-height:1.20000005"
         x="2130.2939"
         y="1934.7177"
         id="tspan78">моими опасениями</tspan><tspan
         sodipodi:role="line"
         style="font-size:45px;line-height:1.20000005"
         x="2130.2939"
         y="1988.7177"
         id="tspan80">по поводу</tspan><tspan
         sodipodi:role="line"
         style="font-size:45px;line-height:1.20000005"
         x="2130.2939"
         y="2042.7177"
         id="tspan82">коронации.</tspan></text>
    <text
       xml:space="preserve"
       style="font-style:normal;font-variant:normal;font-weight:normal;font-stretch:normal;line-height:0%;font-family:Lavi;-inkscape-font-specification:Lavi;text-align:center;letter-spacing:0px;word-spacing:0px;text-anchor:middle;fill:#000000;fill-opacity:1;stroke:none"
       x="472.8826"
       y="2435.0122"
       id="text4246-3-3"><tspan
         sodipodi:role="line"
         style="font-size:45px;line-height:1.20000005"
         x="472.8826"
         y="2435.0122"
         id="tspan113">Позвольте</tspan><tspan
         sodipodi:role="line"
         style="font-size:45px;line-height:1.20000005"
         x="472.8826"
         y="2489.0122"
         id="tspan89">представить вас</tspan><tspan
         sodipodi:role="line"
         style="font-size:45px;line-height:1.20000005"
         x="472.8826"
         y="2543.0122"
         id="tspan91">моему новому</tspan><tspan
         sodipodi:role="line"
         style="font-size:45px;line-height:1.20000005"
         x="472.8826"
         y="2597.0122"
         id="tspan93">изобретению...</tspan></text>
    <text
       xml:space="preserve"
       style="font-style:normal;font-variant:normal;font-weight:normal;font-stretch:normal;line-height:0%;font-family:Lavi;-inkscape-font-specification:Lavi;text-align:center;letter-spacing:0px;word-spacing:0px;text-anchor:middle;fill:#000000;fill-opacity:1;stroke:none"
       x="1062.9331"
       y="2477.6311"
       id="text4246-3-3-2"><tspan
         sodipodi:role="line"
         style="font-style:normal;font-variant:normal;font-weight:normal;font-stretch:normal;font-size:32px;line-height:1.39999998;font-family:'Press Start 2P';-inkscape-font-specification:'Press Start 2P'"
         x="1062.9331"
         y="2477.6311"
         id="tspan144">Привет,</tspan><tspan
         sodipodi:role="line"
         style="font-style:normal;font-variant:normal;font-weight:normal;font-stretch:normal;font-size:32px;line-height:1.39999998;font-family:'Press Start 2P';-inkscape-font-specification:'Press Start 2P'"
         x="1062.9331"
         y="2522.4312"
         id="tspan97">мир.</tspan></text>
    <text
       xml:space="preserve"
       style="font-style:normal;font-variant:normal;font-weight:normal;font-stretch:normal;line-height:0%;font-family:Lavi;-inkscape-font-specification:Lavi;text-align:center;letter-spacing:0px;word-spacing:0px;text-anchor:middle;fill:#000000;fill-opacity:1;stroke:none"
       x="1414.7773"
       y="2493.4602"
       id="text4246-3-3-2-2"><tspan
         sodipodi:role="line"
         style="font-style:normal;font-variant:normal;font-weight:normal;font-stretch:normal;font-size:32px;line-height:1.39999998;font-family:'Press Start 2P';-inkscape-font-specification:'Press Start 2P'"
         x="1414.7773"
         y="2493.4602"
         id="tspan110">Я ваш</tspan><tspan
         sodipodi:role="line"
         style="font-style:normal;font-variant:normal;font-weight:normal;font-stretch:normal;font-size:32px;line-height:1.39999998;font-family:'Press Start 2P';-inkscape-font-specification:'Press Start 2P'"
         x="1430.7773"
         y="2538.2603"
         id="tspan116">ПСИХОЛОГ-БОТ, </tspan><tspan
         sodipodi:role="line"
         style="font-style:normal;font-variant:normal;font-weight:normal;font-stretch:normal;font-size:32px;line-height:1.39999998;font-family:'Press Start 2P';-inkscape-font-specification:'Press Start 2P'"
         x="1414.7773"
         y="2583.0603"
         id="tspan114">блип-блуп!</tspan></text>
    <text
       xml:space="preserve"
       style="font-style:normal;font-variant:normal;font-weight:normal;font-stretch:normal;line-height:0%;font-family:Lavi;-inkscape-font-specification:Lavi;text-align:center;letter-spacing:0px;word-spacing:0px;text-anchor:middle;fill:#000000;fill-opacity:1;stroke:none"
       x="2094.053"
       y="2469.551"
       id="text4246-3-3-2-2-7"><tspan
         sodipodi:role="line"
         style="font-style:normal;font-variant:normal;font-weight:normal;font-stretch:normal;font-size:32px;line-height:1.29999995;font-family:'Press Start 2P';-inkscape-font-specification:'Press Start 2P'"
         x="2110.053"
         y="2469.551"
         id="tspan140">Пожалуйста, </tspan><tspan
         sodipodi:role="line"
         style="font-style:normal;font-variant:normal;font-weight:normal;font-stretch:normal;font-size:32px;line-height:1.29999995;font-family:'Press Start 2P';-inkscape-font-specification:'Press Start 2P'"
         x="2094.053"
         y="2511.1511"
         id="tspan138">прилягте на</tspan><tspan
         sodipodi:role="line"
         style="font-style:normal;font-variant:normal;font-weight:normal;font-stretch:normal;font-size:32px;line-height:1.29999995;font-family:'Press Start 2P';-inkscape-font-specification:'Press Start 2P'"
         x="2094.053"
         y="2552.751"
         id="tspan147">кушетку для</tspan><tspan
         sodipodi:role="line"
         style="font-style:normal;font-variant:normal;font-weight:normal;font-stretch:normal;font-size:32px;line-height:1.29999995;font-family:'Press Start 2P';-inkscape-font-specification:'Press Start 2P'"
         x="2094.053"
         y="2594.3511"
         id="tspan157"> бесплатного</tspan><tspan
         sodipodi:role="line"
         style="font-style:normal;font-variant:normal;font-weight:normal;font-stretch:normal;font-size:32px;line-height:1.29999995;font-family:'Press Start 2P';-inkscape-font-specification:'Press Start 2P'"
         x="2094.053"
         y="2635.9509"
         id="tspan149"> анализа.</tspan></text>
    <text
       xml:space="preserve"
       style="font-style:normal;font-variant:normal;font-weight:normal;font-stretch:normal;line-height:0%;font-family:Lavi;-inkscape-font-specification:Lavi;letter-spacing:0px;word-spacing:0px;fill:#000000;fill-opacity:1;stroke:#000000;stroke-width:2.15795588;stroke-miterlimit:4;stroke-dasharray:none;stroke-opacity:1;filter:url(#filter4375-4-1-1-1-9)"
       x="787.65729"
       y="1584.5073"
       id="text4580"
       transform="matrix(0.46879428,-0.12606586,-0.08654633,0.61214652,623.13411,2085.4411)"><tspan
         sodipodi:role="line"
         id="tspan4582"
         x="787.65729"
         y="1584.5073"
         style="font-style:normal;font-variant:normal;font-weight:bold;font-stretch:normal;font-size:80.40014648px;line-height:1.25;font-family:Lavi;-inkscape-font-specification:'Lavi Bold';fill:#ffffff;stroke-width:2.15795588">Клик</tspan></text>
    <text
       xml:space="preserve"
       style="font-style:normal;font-variant:normal;font-weight:normal;font-stretch:normal;line-height:0%;font-family:Lavi;-inkscape-font-specification:Lavi;letter-spacing:0px;word-spacing:0px;fill:#000000;fill-opacity:1;stroke:#000000;stroke-width:2.15795588;stroke-miterlimit:4;stroke-dasharray:none;stroke-opacity:1;filter:url(#filter4375-4-1-1-1-9-5)"
       x="787.65729"
       y="1584.5073"
       id="text4580-4"
       transform="matrix(0.46879428,-0.12606586,-0.08654633,0.61214652,2027.5227,1975.6976)"><tspan
         sodipodi:role="line"
         id="tspan4582-7"
         x="787.65729"
         y="1584.5073"
         style="font-style:normal;font-variant:normal;font-weight:bold;font-stretch:normal;font-size:80.40014648px;line-height:1.25;font-family:Lavi;-inkscape-font-specification:'Lavi Bold';fill:#ffffff;stroke-width:2.15795588">Щёлк!</tspan></text>
    <text
       xml:space="preserve"
       style="font-style:normal;font-weight:normal;font-size:40px;line-height:1.25;font-family:sans-serif;letter-spacing:0px;word-spacing:0px;fill:#000000;fill-opacity:1;stroke:none"
       x="1539.0594"
       y="2479.7156"
       id="text106"><tspan
         sodipodi:role="line"
         id="tspan104"
         x="1539.0594"
         y="2515.1062" /><tspan
         sodipodi:role="line"
         x="1539.0594"
         y="2565.1062"
         id="tspan108" /></text>
    <text
       xml:space="preserve"
       style="font-style:normal;font-weight:normal;font-size:40px;line-height:1.25;font-family:sans-serif;letter-spacing:0px;word-spacing:0px;fill:#000000;fill-opacity:1;stroke:none"
       x="1775.4562"
       y="2471.45"
       id="text134"><tspan
         sodipodi:role="line"
         id="tspan132"
         x="1775.4562"
         y="2506.8406" /><tspan
         sodipodi:role="line"
         x="1775.4562"
         y="2556.8406"
         id="tspan136" /></text>
    <text
       xml:space="preserve"
       style="font-style:normal;font-weight:normal;font-size:40px;line-height:1.25;font-family:sans-serif;letter-spacing:0px;word-spacing:0px;fill:#000000;fill-opacity:1;stroke:none"
       x="2246.6948"
       y="1887.5306"
       id="text161"><tspan
         sodipodi:role="line"
         id="tspan159"
         x="2246.6948"
         y="1887.5306"> </tspan></text>
  </g>
</svg>
