<?xml version="1.0" encoding="UTF-8" standalone="no"?>
<!-- Created with Inkscape (http://www.inkscape.org/) -->

<svg
   xmlns:dc="http://purl.org/dc/elements/1.1/"
   xmlns:cc="http://creativecommons.org/ns#"
   xmlns:rdf="http://www.w3.org/1999/02/22-rdf-syntax-ns#"
   xmlns:svg="http://www.w3.org/2000/svg"
   xmlns="http://www.w3.org/2000/svg"
   xmlns:xlink="http://www.w3.org/1999/xlink"
   xmlns:sodipodi="http://sodipodi.sourceforge.net/DTD/sodipodi-0.dtd"
   xmlns:inkscape="http://www.inkscape.org/namespaces/inkscape"
   id="svg2"
   version="1.1"
   inkscape:version="0.92.4 (5da689c313, 2019-01-14)"
   width="2481"
   height="3503"
   sodipodi:docname="E27P02.svg">
  <metadata
     id="metadata8">
    <rdf:RDF>
      <cc:Work
         rdf:about="">
        <dc:format>image/svg+xml</dc:format>
        <dc:type
           rdf:resource="http://purl.org/dc/dcmitype/StillImage" />
        <dc:title />
      </cc:Work>
    </rdf:RDF>
  </metadata>
  <defs
     id="defs6" />
  <sodipodi:namedview
     pagecolor="#ffffff"
     bordercolor="#666666"
     borderopacity="1"
     objecttolerance="10"
     gridtolerance="10"
     guidetolerance="10"
     inkscape:pageopacity="0"
     inkscape:pageshadow="2"
     inkscape:window-width="1920"
     inkscape:window-height="1019"
     id="namedview4"
     showgrid="false"
     inkscape:zoom="0.4574026"
     inkscape:cx="1293.9708"
     inkscape:cy="3114.3572"
     inkscape:window-x="0"
     inkscape:window-y="27"
     inkscape:window-maximized="1"
     inkscape:current-layer="layer3"
     inkscape:snap-global="false" />
  <g
     inkscape:groupmode="layer"
     id="layer2"
     inkscape:label="artwork"
     sodipodi:insensitive="true">
    <image
       sodipodi:absref="/felles/omsetting/pepper-carrot/webcomics/ep27_Coriander-s-Invention/lang/nn/../gfx_Pepper-and-Carrot_by-David-Revoy_E27P02.png"
       xlink:href="../gfx_Pepper-and-Carrot_by-David-Revoy_E27P02.png"
       width="2481"
       height="3503"
       id="image10"
       x="0"
       y="0" />
  </g>
  <g
     inkscape:groupmode="layer"
     id="layer3"
     inkscape:label="speechbubbles">
    <path
       style="fill:#ffffff;fill-rule:evenodd;stroke:none;stroke-width:1px;stroke-linecap:butt;stroke-linejoin:miter;stroke-opacity:1"
       d="m 469.27972,195.57139 c 5.98584,1.63451 62.42379,0 67.5545,-0.81725 5.13073,-0.81726 43.61114,-7.35529 53.01747,-5.72078 9.40633,1.63451 74.39546,10.6243 86.36715,11.44156 11.97168,0.81725 69.26473,2.45176 79.52618,7.35529 10.26145,4.90352 23.94338,9.80705 31.63947,17.9796 7.69608,8.17254 18.81264,33.50743 17.95751,39.22821 -0.85512,5.72078 -12.8268,44.94899 -19.66776,50.66977 -6.84096,5.72078 -30.78433,24.51763 -37.62529,26.9694 -6.84097,2.45176 -22.23313,8.98979 -29.92922,11.44156 -7.69608,2.45176 -182.14062,4.90352 -203.51863,5.72078 -21.37801,0.81725 -104.32469,-4.90353 -118.86174,-5.72078 -14.53704,-0.81726 -48.74186,1.63451 -70.97497,-6.53804 -22.23314,-8.17254 -37.62531,-38.41095 -44.46627,-44.13174 -6.84097,-5.72078 -18.81265,-30.23841 -17.95752,-39.22821 0.85511,-8.9898 17.95752,-30.23841 26.50872,-32.69017 8.5512,-2.45177 43.61114,-22.88313 64.13402,-26.9694 20.5229,-4.08627 70.11988,-13.89332 79.52619,-13.07607 12.87544,1.64213 11.52276,0.16304 36.77019,4.08627 z"
       id="path1323"
       inkscape:connector-curvature="0"
       sodipodi:nodetypes="ccsscscsscsssccsscc" />
    <path
       style="fill:#ffffff;fill-rule:evenodd;stroke:none;stroke-width:1px;stroke-linecap:butt;stroke-linejoin:miter;stroke-opacity:1"
       d="m 189.01421,171.77351 c 6.6988,-19.15682 18.84038,-29.0442 25.1205,-31.51605 6.28012,-2.47185 16.74699,3.08981 22.60845,1.85389 5.86145,-1.23593 28.05122,-12.35924 36.42473,-11.74128 8.37348,0.61796 33.07531,4.32573 41.03014,4.9437 7.95481,0.61796 27.63254,3.0898 34.75002,9.88738 7.11748,6.79758 15.0723,14.21312 16.32832,21.0107 1.25602,6.79758 4.18676,19.77478 1.25602,30.89809 -2.93071,11.12331 -10.04819,30.28013 -19.25904,32.13401 -9.21085,1.85389 -54.84642,8.65147 -64.89462,8.0335 -10.0482,-0.61796 -37.68075,0 -44.37955,0 -6.6988,0 -30.98195,-4.32573 -38.09942,-12.35923 -7.11747,-8.0335 -12.56024,-24.10051 -13.3976,-33.9879 -0.83735,-9.88738 2.51205,-19.15681 2.51205,-19.15681 z"
       id="path1325"
       inkscape:connector-curvature="0" />
    <path
       style="fill:#ffffff;fill-rule:evenodd;stroke:none;stroke-width:1px;stroke-linecap:butt;stroke-linejoin:miter;stroke-opacity:1"
       d="m 544.4243,343.97954 c 6.17962,25.33643 -4.94369,76.0093 4.32573,89.60445 9.26943,13.59516 11.12331,11.74128 19.15682,18.53886 -12.35924,15.44904 -17.92089,33.36993 -16.68497,42.63936 1.23592,9.26942 4.32573,33.36993 35.84178,44.49324 -27.19032,-19.15681 -24.71847,-38.31363 -23.48255,-43.87528 1.23593,-5.56166 6.17962,-34.60586 21.62867,-42.0214 -15.44905,-11.74127 -23.48255,-24.71847 -23.48255,-32.13401 0,-7.41554 8.65146,-82.80688 8.65146,-82.80688 z"
       id="path1327"
       inkscape:connector-curvature="0" />
    <path
       style="fill:#ffffff;fill-rule:evenodd;stroke:none;stroke-width:1px;stroke-linecap:butt;stroke-linejoin:miter;stroke-opacity:1"
       d="m 1028.778,99.513979 c -32.42456,17.031151 -62.38624,30.970451 -66.70952,55.949461 -4.32327,24.97901 -16.21228,45.41639 -17.2931,62.44753 -1.08082,17.03115 -3.15864,86.08313 14.83022,101.87247 37.58276,51.87765 57.4878,64.6526 116.7777,88.10304 17.2931,6.81246 151.2654,28.84415 176.1242,32.25038 24.8589,3.40623 35.0269,-23.54763 65.4377,-24.93673 38.6441,-19.75988 99.48,-39.42032 135.5947,-95.20528 4.3232,-15.89574 4.3232,-64.92975 4.3232,-76.28385 0,-11.3541 -1.0808,-61.31212 -21.6163,-82.8849 -20.5356,-21.57278 -55.1218,-51.09344 -82.1423,-60.17671 -27.0205,-9.083277 -190.2241,-22.708193 -208.598,-23.843603 -18.374,-1.135409 -116.7285,22.708192 -116.7285,22.708192 z"
       id="path1329"
       inkscape:connector-curvature="0"
       sodipodi:nodetypes="cssccsccscssc" />
    <path
       style="fill:#ffffff;fill-rule:evenodd;stroke:none;stroke-width:0.83407223px;stroke-linecap:butt;stroke-linejoin:miter;stroke-opacity:1"
       d="m 1075.741,387.33925 c -21.6642,8.76151 -45.828,16.97544 -50.8275,22.99898 -4.9994,6.02355 -11.6653,22.4514 -8.3324,30.11773 3.333,7.66632 14.1651,39.42684 26.6636,45.45038 12.4986,6.02354 52.4941,24.64177 72.4918,24.64177 19.9977,0 84.157,7.11874 94.9892,6.57114 10.832,-0.5476 80.824,6.02355 99.1554,0.5476 18.3311,-5.47596 41.6618,-15.33266 55.8269,-18.61823 14.1649,-3.28558 48.3276,-4.92836 58.3265,-16.97545 9.9989,-12.04708 14.4731,-33.55883 6.666,-49.28354 -7.5508,-15.20825 -23.3306,-28.47494 -48.3278,-36.68887 -24.9971,-8.21391 -104.9881,-26.28455 -104.9881,-26.28455 l -119.9862,-7.11874 c 0,0 -19.1645,4.92836 -39.1623,12.0471 -19.9976,7.11872 -42.4951,12.59468 -42.4951,12.59468 z"
       id="path1331"
       inkscape:connector-curvature="0"
       sodipodi:nodetypes="csccsccccasccsc" />
    <path
       style="fill:#ffffff;fill-rule:evenodd;stroke:none;stroke-width:1px;stroke-linecap:butt;stroke-linejoin:miter;stroke-opacity:1"
       d="m 1312.6287,481.01652 c 0,0 28.3862,36.51313 37.4697,60.85523 9.0837,24.34207 28.3863,59.11648 23.8444,123.44913 11.3545,-83.45857 11.3545,-107.80065 -21.5734,-187.78179 -32.928,-79.98115 -39.7407,3.47743 -39.7407,3.47743 z"
       id="path1333"
       inkscape:connector-curvature="0" />
    <path
       style="fill:#ffffff;fill-rule:evenodd;stroke:none;stroke-width:1.04007399px;stroke-linecap:butt;stroke-linejoin:miter;stroke-opacity:1"
       d="m 1707.2301,232.44006 c 6.1608,-62.05023 5.8458,-74.56175 26.5974,-91.44241 22.9378,-32.18446 105.7338,-31.16429 117.5919,-32.4628 11.858,-1.29851 47.4319,3.89554 64.2307,3.89554 16.799,0 103.7576,-2.59703 117.5919,-2.59703 13.8344,0 70.1599,0 84.9825,2.59703 14.8224,2.59702 67.1952,18.17916 76.0888,29.86578 8.8934,11.6866 34.5857,61.03006 35.5739,93.49287 0.9882,32.4628 -14.1057,83.51554 -31.8926,104.29173 -17.787,20.77619 -29.1675,52.02453 -56.8362,59.81561 -27.6685,7.79107 -180.0526,13.78881 -195.8631,13.78881 -15.8108,0 -82.3924,-1.27246 -115.6156,-2.59702 -46.5229,-1.85481 -63.5458,-16.69473 -80.3446,-34.8739 -33.6595,-60.31353 -41.5069,-85.14259 -42.105,-143.77421 z"
       id="path1335"
       inkscape:connector-curvature="0"
       sodipodi:nodetypes="ccsssccsccsscc" />
    <path
       style="fill:#ffffff;fill-rule:evenodd;stroke:none;stroke-width:1px;stroke-linecap:butt;stroke-linejoin:miter;stroke-opacity:1"
       d="m 1752.5526,427.03907 c 27.5116,26.61792 42.8588,47.56076 -11.4058,80.71719 49.1355,-0.72812 43.5728,20.05383 34.2174,45.56614 66.8976,-20.5973 113.7421,-7.40942 120.3948,32.54725 43.9171,-32.2476 50.5645,-26.46532 83.6426,-1.30189 39.6321,-49.89404 62.6056,-15.54139 91.2465,-10.41512 -5.8821,-23.03081 13.5288,-43.92498 62.4748,-10.21797 -17.5693,-18.88765 -10.6126,-65.99877 56.6527,-69.19731 -30.151,-10.89059 -73.1985,-22.51429 -22.8117,-69.00017 -77.6206,-8.98442 -39.9485,-27.33589 -51.9598,-41.66048 l -112.7909,-13.0189 -114.0581,7.81134 -58.2964,5.20756 c -1.4105,20.45876 4.4806,42.79545 -77.3061,42.96236 z"
       id="path1337"
       inkscape:connector-curvature="0"
       sodipodi:nodetypes="cccccccccccccc" />
    <path
       style="fill:#ffffff;fill-rule:evenodd;stroke:none;stroke-width:1px;stroke-linecap:butt;stroke-linejoin:miter;stroke-opacity:1"
       d="m 2083.819,528.58622 c 24.8588,19.45474 57.2834,63.76832 55.1217,92.95043 10.8082,-38.90948 -17.2931,-97.27371 -31.3437,-112.40517 -14.0507,-15.13147 -23.778,19.45474 -23.778,19.45474 z"
       id="path1339"
       inkscape:connector-curvature="0" />
    <path
       style="fill:#ffffff;fill-rule:evenodd;stroke:none;stroke-width:1px;stroke-linecap:butt;stroke-linejoin:miter;stroke-opacity:1"
       d="m 890.21141,1435.9803 c 10.99475,-35.1745 32.98428,-51.9972 62.82721,-61.1731 29.84293,-9.1759 108.37698,1.5293 128.79578,1.5293 20.4188,0 102.0943,7.6466 113.089,19.8812 10.9948,12.2347 37.6963,38.2333 29.8429,65.7612 -7.8534,27.5278 -17.2775,55.0557 -59.6858,70.3489 -42.4084,15.2932 -81.6754,0 -97.3823,1.5294 -15.7068,1.5293 -36.1256,9.1759 -80.10461,1.5293 -43.97905,-7.6466 -100.52356,-47.4091 -97.38218,-99.4062 z"
       id="path1341"
       inkscape:connector-curvature="0" />
    <path
       style="fill:#ffffff;fill-rule:evenodd;stroke:none;stroke-width:1px;stroke-linecap:butt;stroke-linejoin:miter;stroke-opacity:1"
       d="m 1321.8416,1549.9601 c -25.1103,-26.3097 -29.3743,-46.7563 -36.94,-53.2412 -7.5658,-6.4849 -52.768,-40.79 -87.3542,-44.0325 -34.5862,-3.2424 -28.1013,24.8589 -28.1013,24.8589 0,0 36.7479,1.0808 51.8793,5.4041 15.1315,4.3232 48.6369,20.5355 54.041,24.8588 5.4041,4.3233 19.4547,27.0205 46.4752,42.1519 z"
       id="path1343"
       inkscape:connector-curvature="0"
       sodipodi:nodetypes="cccccsc" />
    <path
       style="fill:#ffffff;fill-rule:evenodd;stroke:none;stroke-width:1px;stroke-linecap:butt;stroke-linejoin:miter;stroke-opacity:1"
       d="m 1847.0115,1634.8585 c 65.8759,-41.0171 79.5483,-53.4465 129.266,-55.9324 49.7176,-2.4859 59.6612,-29.8306 59.6612,-29.8306 0,0 -34.8024,-1.243 -72.0906,6.2147 -37.2883,7.4576 -95.7066,37.2882 -116.8366,79.5483 z"
       id="path1345"
       inkscape:connector-curvature="0" />
    <path
       style="fill:#ffffff;fill-rule:evenodd;stroke:none;stroke-width:0.99999982px;stroke-linecap:butt;stroke-linejoin:miter;stroke-opacity:1"
       d="m 1980.8334,1513.316 c 19.2086,-21.6512 68.6019,-44.6557 98.7867,-48.7153 30.1847,-4.0595 126.2273,5.4128 146.8079,17.5916 30.9651,13.8716 63.1136,21.6513 61.7415,60.8942 -1.3721,39.2428 5.4882,56.8345 -26.0686,78.4856 -31.5568,21.6513 -142.6918,16.2385 -167.3883,14.8853 -24.6968,-1.3531 -71.346,-6.7659 -96.0426,-31.1237 -24.6967,-24.3575 -35.673,-50.0684 -17.8366,-92.0177 z"
       id="path1347"
       inkscape:connector-curvature="0"
       sodipodi:nodetypes="cccscccc" />
    <path
       style="fill:#ffffff;fill-rule:evenodd;stroke:none;stroke-width:1px;stroke-linecap:butt;stroke-linejoin:miter;stroke-opacity:1"
       d="m 2030.9586,1643.9885 c 18.587,-34.8024 63.8929,-47.2318 74.3482,-47.2318 10.4552,0 91.7736,7.4576 106.8755,7.4576 15.1021,0 46.4677,-7.4576 63.8931,-4.9717 17.4254,2.4859 49.9527,0 63.8929,24.8588 13.9404,24.8588 24.3956,79.5483 20.9106,103.1642 -3.4851,23.6159 4.6467,54.6894 -10.4553,90.7347 -15.1019,36.0453 -20.9104,49.7177 -42.9825,60.9042 -22.0721,11.1865 -126.6244,6.2147 -149.8582,2.4859 -23.2339,-3.7289 -68.5398,0 -88.2886,-6.2147 -19.7487,-6.2148 -51.1143,-27.3448 -46.4676,-53.4465 4.6468,-26.1018 -8.1319,-49.7177 -2.3235,-94.4636 5.8086,-44.7459 10.4554,-83.2771 10.4554,-83.2771 z"
       id="path1349"
       inkscape:connector-curvature="0" />
    <path
       style="fill:#ffffff;fill-rule:evenodd;stroke:none;stroke-width:0.99999994px;stroke-linecap:butt;stroke-linejoin:miter;stroke-opacity:1"
       d="m 112.78107,2411.1151 c 0,-35.8207 27.52006,-41.7908 45.46791,-41.7908 17.94786,0 76.57752,-4.7762 84.9532,-4.7762 8.37567,0 70.59491,7.1642 81.36363,13.1343 10.76871,5.9701 27.52004,10.7462 25.12701,32.2386 -2.39306,21.4925 0,33.4327 -23.93048,39.4028 -23.93049,5.9702 -117.25936,8.3582 -134.0107,7.1642 -16.75132,-1.194 -41.87833,-10.7463 -53.84357,-17.9104 -11.96524,-7.1641 -27.52006,-9.5522 -25.127,-27.4625 z"
       id="path1351"
       inkscape:connector-curvature="0" />
    <path
       style="fill:#ffffff;fill-rule:evenodd;stroke:none;stroke-width:1px;stroke-linecap:butt;stroke-linejoin:miter;stroke-opacity:1"
       d="m 321.59165,2416.2891 c 51.31467,-10.3303 87.59258,-7.8797 102.76654,-6.3472 15.96912,1.6129 56.4318,11.1393 69.10016,19.4881 12.66835,8.3487 28.82334,25.2633 27.67167,35.2818 -1.15167,10.0185 7.36768,37.5465 6.21601,50.9045 -1.15167,13.358 -13.42561,59.2988 -21.48729,78.501 -8.06169,19.2021 -27.64007,41.7436 -114.01526,45.918 -86.37519,4.1744 -139.35197,2.5047 -172.75038,-4.1744 -33.39841,-6.6789 -76.01018,-10.8533 -87.52687,-42.5785 -11.5167,-31.7252 -14.9717,-67.6248 -11.5167,-82.6525 3.45502,-15.0278 6.91003,-48.4227 11.5167,-54.2668 4.60668,-5.8441 18.52156,-28.6029 28.88658,-33.6121 10.36502,-5.0092 161.13884,-6.4619 161.13884,-6.4619 z"
       id="path1353"
       inkscape:connector-curvature="0"
       sodipodi:nodetypes="csssscscsscsc" />
    <path
       style="fill:#ffffff;fill-rule:evenodd;stroke:none;stroke-width:1px;stroke-linecap:butt;stroke-linejoin:miter;stroke-opacity:1"
       d="m 532.84375,2533.5054 c 1.08082,-19.4547 14.05064,-55.1218 33.50539,-61.6067 19.45474,-6.4849 73.49568,-6.4849 84.30387,-3.2424 10.80819,3.2424 28.1013,27.0204 32.42457,36.7478 4.32328,9.7274 16.21229,44.3136 -3.24245,58.3642 -19.45474,14.0507 -38.90949,24.8589 -59.44505,23.778 -20.53556,-1.0808 -61.60668,-8.6465 -71.33405,-21.6163 -9.72737,-12.9699 -16.21228,-32.4246 -16.21228,-32.4246 z"
       id="path1355"
       inkscape:connector-curvature="0" />
    <path
       style="fill:#ffffff;fill-rule:evenodd;stroke:none;stroke-width:1px;stroke-linecap:butt;stroke-linejoin:miter;stroke-opacity:1"
       d="m 352.45031,2631.6666 c 0,0 10.62431,7.3553 12.25882,23.7003 1.63451,16.3451 -0.81725,35.142 -13.89333,54.7561 28.60391,-32.6902 43.31449,-55.5733 34.32469,-83.36 -8.9898,-27.7866 -32.69018,4.9036 -32.69018,4.9036 z"
       id="path1357"
       inkscape:connector-curvature="0" />
    <path
       style="fill:#ffffff;fill-rule:evenodd;stroke:none;stroke-width:1px;stroke-linecap:butt;stroke-linejoin:miter;stroke-opacity:1"
       d="m 609.41023,2578.6689 c 0,0 17.16235,24.5177 9.80706,38.411 -7.35529,13.8933 -8.9898,18.7968 -25.33489,35.1419 26.9694,-17.9796 37.5937,-31.0556 40.86272,-43.3145 3.26902,-12.2588 5.72078,-35.9592 5.72078,-42.4972 0,-6.538 -31.05567,12.2588 -31.05567,12.2588 z"
       id="path1359"
       inkscape:connector-curvature="0" />
    <path
       style="fill:#ffffff;fill-rule:evenodd;stroke:none;stroke-width:1.03840244px;stroke-linecap:butt;stroke-linejoin:miter;stroke-opacity:1"
       d="m 727.6453,2504.0915 c -6.3318,-47.5439 -6.08347,-57.0781 -5.31764,-92.5902 7.59699,-114.4627 130.33575,-76.3213 214.92701,-85.1682 52.41199,3.1974 94.16193,2.4849 154.33313,23.4212 23.975,11.9733 26.9649,24.1961 34.1107,41.1294 11.9923,37.9298 13.8853,72.2286 3.7707,110.7919 -4.8626,17.6569 -28.5892,39.48 -53.8747,45.7117 -55.6894,18.5361 -100.14253,36.7547 -150.38978,33.1084 -49.71213,-2.4571 -64.96466,-6.0668 -124.74028,-23.9582 -44.38349,-20.6444 -56.73491,-29.4444 -72.81914,-52.446 z"
       id="path1361"
       inkscape:connector-curvature="0"
       sodipodi:nodetypes="cccccccccc" />
    <path
       style="fill:#ffffff;fill-rule:evenodd;stroke:none;stroke-width:1px;stroke-linecap:butt;stroke-linejoin:miter;stroke-opacity:1"
       d="m 1014.9773,2537.4751 c 40.4132,37.5937 65.789,69.5483 47.932,102.4428 29.1351,-35.714 14.0976,-69.5483 -24.4359,-117.4803 -38.5336,-47.932 -23.4961,15.0375 -23.4961,15.0375 z"
       id="path1363"
       inkscape:connector-curvature="0" />
    <path
       style="fill:#ffffff;fill-rule:evenodd;stroke:none;stroke-width:1px;stroke-linecap:butt;stroke-linejoin:miter;stroke-opacity:1"
       d="m 1362.7766,2499.8218 c -0.8172,-27.7867 20.4314,-32.6902 31.8729,-34.3247 11.4416,-1.6345 58.8423,-9.807 76.8219,3.269 17.9796,13.0761 22.8832,35.142 14.7106,43.3145 -8.1725,8.1726 -34.3247,20.4314 -50.6698,21.2486 -16.345,0.8173 -51.487,-4.0862 -62.9285,-15.5278 -11.4416,-11.4416 -9.8071,-17.9796 -9.8071,-17.9796 z"
       id="path1365"
       inkscape:connector-curvature="0" />
    <path
       style="fill:#ffffff;fill-rule:evenodd;stroke:none;stroke-width:1px;stroke-linecap:butt;stroke-linejoin:miter;stroke-opacity:1"
       d="m 1445.7231,2523.112 c 0,0 19.6141,10.6243 24.5176,19.6141 4.9035,8.9898 13.0761,31.0556 8.9898,45.7662 13.0761,-26.1521 8.1725,-42.4972 4.9035,-49.8525 -3.269,-7.3553 -23.7004,-34.3247 -23.7004,-34.3247 z"
       id="path1367"
       inkscape:connector-curvature="0" />
    <path
       style="fill:#ffffff;fill-rule:evenodd;stroke:none;stroke-width:0.99999994px;stroke-linecap:butt;stroke-linejoin:miter;stroke-opacity:1"
       d="m 1831.3524,2478.9239 c -8.5628,-75.1147 16.8605,-98.4744 35.0748,-108.1691 18.2141,-9.6946 107.4241,-13.7057 133.1383,-12.3208 25.7139,1.3848 134.1879,7.5824 150.2593,8.9672 16.0712,1.3851 38.2021,26.6799 41.4162,34.9895 3.2144,8.3097 22.6085,44.6794 18.3226,69.6084 -4.2855,24.9289 -28.9281,58.1676 -52.4995,70.6321 -23.5713,12.4644 -117.856,22.159 -136.0702,19.3891 -18.2142,-2.7698 -49.2854,-6.9247 -67.4996,-6.9247 -18.214,0 -67.8722,-0.2918 -88.3379,-14.433 -26.3677,-19.2479 -29.4836,-23.8389 -33.804,-61.7387 z"
       id="path1369"
       inkscape:connector-curvature="0"
       sodipodi:nodetypes="ssccccccscs" />
    <path
       style="fill:#ffffff;fill-rule:evenodd;stroke:none;stroke-width:1px;stroke-linecap:butt;stroke-linejoin:miter;stroke-opacity:1"
       d="m 1931.8835,2544.0198 c 22.0441,24.1512 8.6664,34.5534 -28.6409,35.6671 28.8544,9.9586 64.8716,15.5923 57.2814,47.556 32.035,-0.375 52.3006,-19.937 103.4249,10.8082 30.2317,-25.3561 60.4636,-13.281 90.6956,-2.1617 14.5002,-11.3113 41.198,-12.0311 97.0602,-6.4849 -4.3136,-25.0109 30.7421,-36.1565 63.6461,-44.3136 -27.86,-13.1763 -52.9548,-27.5479 -35.0055,-60.5258 -40.4857,7.2773 -74.5313,6.6803 -93.8778,-11.889 -40.1665,4.157 -70.3376,21.8927 -125.7009,5.4041 -29.8134,19.9279 -63.0435,21.2885 -97.0603,18.3739 7.7521,17.7643 -1.3986,21.4958 -31.8228,7.5657 z"
       id="path1371"
       inkscape:connector-curvature="0"
       sodipodi:nodetypes="cccccccccccc" />
    <path
       style="fill:#ffffff;fill-rule:evenodd;stroke:none;stroke-width:1px;stroke-linecap:butt;stroke-linejoin:miter;stroke-opacity:1"
       d="m 2108.1832,2617.3341 c -3.2425,28.1012 8.6465,79.9806 34.5862,113.4859 -3.2425,16.2123 1.0808,33.5054 15.1315,47.5561 -12.9699,-29.1821 -7.5658,-36.7479 -1.0809,-50.7985 -12.9698,-20.5356 -31.3437,-69.1724 -34.5862,-109.1627 -3.2424,-39.9903 -14.0506,-1.0808 -14.0506,-1.0808 z"
       id="path1373"
       inkscape:connector-curvature="0" />
  </g>
  <g
     inkscape:groupmode="layer"
     id="layer1"
     inkscape:label="txt">
    <text
       xml:space="preserve"
       style="font-style:normal;font-variant:normal;font-weight:normal;font-stretch:normal;line-height:0%;font-family:Lavi;-inkscape-font-specification:Lavi;text-align:center;letter-spacing:0px;word-spacing:0px;text-anchor:middle;fill:#000000;fill-opacity:1;stroke:none"
       x="280.3981"
       y="201.67375"
       id="text4246"><tspan
         sodipodi:role="line"
         style="font-size:45px;line-height:1.20000005"
         x="280.3981"
         y="201.67375"
         id="tspan4252">Du ...</tspan></text>
    <text
       xml:space="preserve"
       style="font-style:normal;font-variant:normal;font-weight:normal;font-stretch:normal;line-height:0%;font-family:Lavi;-inkscape-font-specification:Lavi;text-align:center;letter-spacing:0px;word-spacing:0px;text-anchor:middle;fill:#000000;fill-opacity:1;stroke:none"
       x="536.04688"
       y="269.45801"
       id="text4246-3"><tspan
         sodipodi:role="line"
         style="font-size:45px;line-height:1.20000005"
         x="536.04688"
         y="269.45801"
         id="tspan841">Eg går og grublar over</tspan><tspan
         sodipodi:role="line"
         style="font-size:45px;line-height:1.20000005"
         x="536.04688"
         y="323.45801"
         id="tspan899">tryggleiken igjen ...</tspan></text>
    <text
       xml:space="preserve"
       style="font-style:normal;font-variant:normal;font-weight:normal;font-stretch:normal;line-height:0%;font-family:Lavi;-inkscape-font-specification:Lavi;text-align:center;letter-spacing:0px;word-spacing:0px;text-anchor:middle;fill:#000000;fill-opacity:1;stroke:none"
       x="1203.0967"
       y="167.41882"
       id="text4246-3-7"><tspan
         sodipodi:role="line"
         style="font-size:45px;line-height:1.20000005"
         x="1203.0967"
         y="167.41882"
         id="tspan872">Det er så mange</tspan><tspan
         sodipodi:role="line"
         style="font-size:45px;line-height:1.20000005"
         x="1203.0967"
         y="221.41882"
         id="tspan915">kongar og dronningar</tspan><tspan
         sodipodi:role="line"
         style="font-size:45px;line-height:1.20000005"
         x="1203.0967"
         y="275.41882"
         id="tspan917">som har blitt snikmyrda</tspan><tspan
         sodipodi:role="line"
         style="font-size:45px;line-height:1.20000005"
         x="1203.0967"
         y="329.41882"
         id="tspan919">under kronings-</tspan><tspan
         sodipodi:role="line"
         style="font-size:45px;line-height:1.20000005"
         x="1203.0967"
         y="383.41882"
         id="tspan933">seremonien.</tspan></text>
    <text
       xml:space="preserve"
       style="font-style:normal;font-variant:normal;font-weight:normal;font-stretch:normal;line-height:0%;font-family:Lavi;-inkscape-font-specification:Lavi;text-align:center;letter-spacing:0px;word-spacing:0px;text-anchor:middle;fill:#000000;fill-opacity:1;stroke:none"
       x="1222.4489"
       y="461.01553"
       id="text4246-3-7-7"><tspan
         sodipodi:role="line"
         style="font-size:45px;line-height:1.20000005"
         x="1222.4489"
         y="461.01553"
         id="tspan746">Også i slekta mi.</tspan></text>
    <text
       xml:space="preserve"
       style="font-style:normal;font-variant:normal;font-weight:normal;font-stretch:normal;line-height:0%;font-family:Lavi;-inkscape-font-specification:Lavi;text-align:center;letter-spacing:0px;word-spacing:0px;text-anchor:middle;fill:#000000;fill-opacity:1;stroke:none"
       x="1963.5282"
       y="168.76515"
       id="text4246-3-7-7-6"><tspan
         sodipodi:role="line"
         style="font-size:45px;line-height:1.20000005"
         x="1963.5282"
         y="168.76515"
         id="tspan996">Og om berre nokre</tspan><tspan
         sodipodi:role="line"
         style="font-size:45px;line-height:1.20000005"
         x="1963.5282"
         y="222.76515"
         id="tspan956">timar får me tusenvis</tspan><tspan
         sodipodi:role="line"
         style="font-size:45px;line-height:1.20000005"
         x="1963.5282"
         y="276.76517"
         id="tspan900">av gjestar frå heile</tspan><tspan
         sodipodi:role="line"
         style="font-size:45px;line-height:1.20000005"
         x="1963.5282"
         y="330.76517"
         id="tspan958">verda – og eg</tspan><tspan
         sodipodi:role="line"
         style="font-size:45px;line-height:1.20000005"
         x="1963.5282"
         y="384.76517"
         id="tspan914">vert midtpunktet.</tspan></text>
    <text
       xml:space="preserve"
       style="font-style:normal;font-variant:normal;font-weight:normal;font-stretch:normal;line-height:0%;font-family:Lavi;-inkscape-font-specification:Lavi;text-align:center;letter-spacing:0px;word-spacing:0px;text-anchor:middle;fill:#000000;fill-opacity:1;stroke:none"
       x="1057.9727"
       y="1443.7167"
       id="text4246-3-7-7-6-7"><tspan
         sodipodi:role="line"
         style="font-size:45px;line-height:1.20000005"
         x="1057.9727"
         y="1443.7167"
         id="tspan1067">Ta det roleg,</tspan><tspan
         sodipodi:role="line"
         style="font-size:45px;line-height:1.20000005"
         x="1057.9727"
         y="1497.7167"
         id="tspan966">Koriander.</tspan></text>
    <text
       xml:space="preserve"
       style="font-style:normal;font-variant:normal;font-weight:normal;font-stretch:normal;line-height:0%;font-family:Lavi;-inkscape-font-specification:Lavi;text-align:center;letter-spacing:0px;word-spacing:0px;text-anchor:middle;fill:#000000;fill-opacity:1;stroke:none"
       x="1955.3252"
       y="465.72366"
       id="text4246-3-7-7-6-7-7"><tspan
         sodipodi:role="line"
         style="font-size:45px;line-height:1.20000005"
         x="1955.3252"
         y="465.72366"
         id="tspan1042-9">Det gjer meg</tspan><tspan
         sodipodi:role="line"
         style="font-size:45px;line-height:1.20000005"
         x="1955.3252"
         y="519.72369"
         id="tspan962">skikkeleg redd!</tspan></text>
    <text
       xml:space="preserve"
       style="font-style:normal;font-variant:normal;font-weight:normal;font-stretch:normal;line-height:0%;font-family:Lavi;-inkscape-font-specification:Lavi;text-align:center;letter-spacing:0px;word-spacing:0px;text-anchor:middle;fill:#000000;fill-opacity:1;stroke:none"
       x="2129.4336"
       y="1533.2563"
       id="text4246-3-7-7-6-7-2"><tspan
         sodipodi:role="line"
         style="font-size:45px;line-height:1.20000005"
         x="2129.4336"
         y="1533.2563"
         id="tspan1092">Me følgjer</tspan><tspan
         sodipodi:role="line"
         style="font-size:45px;line-height:1.20000005"
         x="2129.4336"
         y="1587.2563"
         id="tspan970">planen vår.</tspan></text>
    <text
       xml:space="preserve"
       style="font-style:normal;font-variant:normal;font-weight:normal;font-stretch:normal;line-height:0%;font-family:Lavi;-inkscape-font-specification:Lavi;text-align:center;letter-spacing:0px;word-spacing:0px;text-anchor:middle;fill:#000000;fill-opacity:1;stroke:none"
       x="2186.6404"
       y="1677.4915"
       id="text4246-3-7-7-6-7-2-9"><tspan
         sodipodi:role="line"
         style="font-size:45px;line-height:1.20000005"
         x="2186.6404"
         y="1677.4915"
         id="tspan1121">Shichimi og</tspan><tspan
         sodipodi:role="line"
         style="font-size:45px;line-height:1.20000005"
         x="2186.6404"
         y="1731.4915"
         id="tspan981">eg skal vera</tspan><tspan
         sodipodi:role="line"
         style="font-size:45px;line-height:1.20000005"
         x="2186.6404"
         y="1785.4915"
         id="tspan985">livvaktene</tspan><tspan
         sodipodi:role="line"
         style="font-size:45px;line-height:1.20000005"
         x="2186.6404"
         y="1839.4915"
         id="tspan983">dine, veit du.</tspan></text>
    <text
       xml:space="preserve"
       style="font-style:normal;font-variant:normal;font-weight:normal;font-stretch:normal;line-height:0%;font-family:Lavi;-inkscape-font-specification:Lavi;text-align:center;letter-spacing:0px;word-spacing:0px;text-anchor:middle;fill:#000000;fill-opacity:1;stroke:none"
       x="236.1396"
       y="2419.7466"
       id="text4246-3-7-7-6-7-2-9-6"><tspan
         sodipodi:role="line"
         style="font-size:45px;line-height:1.20000005"
         x="236.1396"
         y="2419.7466"
         id="tspan1121-3">Akkurat.</tspan></text>
    <text
       xml:space="preserve"
       style="font-style:normal;font-variant:normal;font-weight:normal;font-stretch:normal;line-height:0%;font-family:Lavi;-inkscape-font-specification:Lavi;text-align:center;letter-spacing:0px;word-spacing:0px;text-anchor:middle;fill:#000000;fill-opacity:1;stroke:none"
       x="322.09656"
       y="2491.2615"
       id="text4246-3-7-7-6-7-2-9-6-1"><tspan
         sodipodi:role="line"
         style="font-size:45px;line-height:1.20000005"
         x="322.09656"
         y="2491.2615"
         id="tspan1183">Ta ein pause no –</tspan><tspan
         sodipodi:role="line"
         style="font-size:45px;line-height:1.20000005"
         x="322.09656"
         y="2545.2615"
         id="tspan1027">og tenk på noko</tspan><tspan
         sodipodi:role="line"
         style="font-size:45px;line-height:1.20000005"
         x="322.09656"
         y="2599.2615"
         id="tspan1029">anna ei stund.</tspan></text>
    <text
       xml:space="preserve"
       style="font-style:normal;font-variant:normal;font-weight:normal;font-stretch:normal;line-height:0%;font-family:Lavi;-inkscape-font-specification:Lavi;text-align:center;letter-spacing:0px;word-spacing:0px;text-anchor:middle;fill:#000000;fill-opacity:1;stroke:none"
       x="608.41107"
       y="2540.4858"
       id="text4246-3-7-7-6-7-2-9-6-1-4"><tspan
         sodipodi:role="line"
         style="font-size:45px;line-height:1.20000005"
         x="608.41107"
         y="2540.4858"
         id="tspan1183-0">OK.</tspan></text>
    <text
       xml:space="preserve"
       style="font-style:normal;font-variant:normal;font-weight:normal;font-stretch:normal;line-height:0%;font-family:Lavi;-inkscape-font-specification:Lavi;text-align:center;letter-spacing:0px;word-spacing:0px;text-anchor:middle;fill:#000000;fill-opacity:1;stroke:none"
       x="928.98529"
       y="2394.084"
       id="text4246-3-7-7-6-7-2-9-6-1-4-3"><tspan
         sodipodi:role="line"
         style="font-size:45px;line-height:1.20000005"
         x="928.98529"
         y="2394.084"
         id="tspan1249">Forresten – kan</tspan><tspan
         sodipodi:role="line"
         style="font-size:45px;line-height:1.20000005"
         x="928.98529"
         y="2448.084"
         id="tspan1036">eg visa dykk den</tspan><tspan
         sodipodi:role="line"
         style="font-size:45px;line-height:1.20000005"
         x="928.98529"
         y="2502.084"
         id="tspan1038">siste oppfinninga</tspan><tspan
         sodipodi:role="line"
         style="font-size:45px;line-height:1.20000005"
         x="928.98529"
         y="2556.084"
         id="tspan1048">mi?</tspan></text>
    <text
       xml:space="preserve"
       style="font-style:normal;font-variant:normal;font-weight:normal;font-stretch:normal;line-height:0%;font-family:Lavi;-inkscape-font-specification:Lavi;text-align:center;letter-spacing:0px;word-spacing:0px;text-anchor:middle;fill:#000000;fill-opacity:1;stroke:none"
       x="1429.6105"
       y="2501.0703"
       id="text4246-3-7-7-6-7-2-9-6-1-4-3-1"><tspan
         sodipodi:role="line"
         style="font-size:45px;line-height:1.20000005"
         x="1429.6105"
         y="2501.0703"
         id="tspan1249-3">...</tspan></text>
    <text
       xml:space="preserve"
       style="font-style:normal;font-variant:normal;font-weight:normal;font-stretch:normal;line-height:0%;font-family:Lavi;-inkscape-font-specification:Lavi;text-align:center;letter-spacing:0px;word-spacing:0px;text-anchor:middle;fill:#000000;fill-opacity:1;stroke:none"
       x="2014.7648"
       y="2419.7151"
       id="text4246-3-7-7-6-7-2-9-6-1-4-3-1-2"><tspan
         sodipodi:role="line"
         style="font-size:45px;line-height:1.20000005"
         x="2014.7648"
         y="2419.7151"
         id="tspan1298">Eg har henne i</tspan><tspan
         sodipodi:role="line"
         style="font-size:45px;line-height:1.20000005"
         x="2014.7648"
         y="2473.7151"
         id="tspan1052">arbeidsrommet</tspan><tspan
         sodipodi:role="line"
         style="font-size:45px;line-height:1.20000005"
         x="2014.7648"
         y="2527.7151"
         id="tspan1054">i kjellaren.</tspan></text>
    <text
       xml:space="preserve"
       style="font-style:normal;font-variant:normal;font-weight:normal;font-stretch:normal;line-height:0%;font-family:Lavi;-inkscape-font-specification:Lavi;text-align:center;letter-spacing:0px;word-spacing:0px;text-anchor:middle;fill:#000000;fill-opacity:1;stroke:none"
       x="2118.0996"
       y="2595.5225"
       id="text4246-3-7-7-6-7-2-9-6-1-4-3-1-2-6"><tspan
         sodipodi:role="line"
         style="font-size:45px;line-height:1.20000005"
         x="2118.0996"
         y="2595.5225"
         id="tspan1298-5">Denne vegen.</tspan></text>
  </g>
</svg>
