<?xml version="1.0" encoding="UTF-8" standalone="no"?>
<!-- Created with Inkscape (http://www.inkscape.org/) -->

<svg
   xmlns:dc="http://purl.org/dc/elements/1.1/"
   xmlns:cc="http://creativecommons.org/ns#"
   xmlns:rdf="http://www.w3.org/1999/02/22-rdf-syntax-ns#"
   xmlns:svg="http://www.w3.org/2000/svg"
   xmlns="http://www.w3.org/2000/svg"
   xmlns:xlink="http://www.w3.org/1999/xlink"
   xmlns:sodipodi="http://sodipodi.sourceforge.net/DTD/sodipodi-0.dtd"
   xmlns:inkscape="http://www.inkscape.org/namespaces/inkscape"
   id="svg2"
   version="1.1"
   inkscape:version="0.92.3 (2405546, 2018-03-11)"
   width="2481"
   height="3503"
   sodipodi:docname="E28P06.svg">
  <metadata
     id="metadata8">
    <rdf:RDF>
      <cc:Work
         rdf:about="">
        <dc:format>image/svg+xml</dc:format>
        <dc:type
           rdf:resource="http://purl.org/dc/dcmitype/StillImage" />
        <dc:title />
      </cc:Work>
    </rdf:RDF>
  </metadata>
  <defs
     id="defs6" />
  <sodipodi:namedview
     pagecolor="#ffffff"
     bordercolor="#666666"
     borderopacity="1"
     objecttolerance="10"
     gridtolerance="10"
     guidetolerance="10"
     inkscape:pageopacity="0"
     inkscape:pageshadow="2"
     inkscape:window-width="1920"
     inkscape:window-height="1022"
     id="namedview4"
     showgrid="false"
     inkscape:zoom="0.37405949"
     inkscape:cx="641.98185"
     inkscape:cy="1211.619"
     inkscape:window-x="0"
     inkscape:window-y="0"
     inkscape:window-maximized="1"
     inkscape:current-layer="layer3" />
  <g
     inkscape:groupmode="layer"
     id="layer2"
     inkscape:label="artwork"
     sodipodi:insensitive="true">
    <image
       xlink:href="../gfx_Pepper-and-Carrot_by-David-Revoy_E28P06.png"
       width="2481"
       height="3503"
       id="image10"
       x="0"
       y="0" />
  </g>
  <g
     inkscape:groupmode="layer"
     id="layer3"
     inkscape:label="speechbubbles">
    <path
       style="fill:#ffffff;fill-rule:evenodd;stroke:none;stroke-width:1.06911314px;stroke-linecap:butt;stroke-linejoin:miter;stroke-opacity:1"
       d="m 143.06572,1834.4118 c 0,-45.5432 48.71082,-54.8854 69.007,-57.221 20.29618,-2.3355 125.83628,-4.6711 147.48554,0 21.64925,4.6712 55.47621,21.02 55.47621,46.711 0,25.691 -9.47154,52.5499 -54.12314,63.0598 -44.65158,10.51 -142.07322,2.3355 -170.48788,-3.5033 -28.41463,-5.8389 -46.00466,-24.5233 -47.35773,-49.0465 z"
       id="path845"
       inkscape:connector-curvature="0" />
    <path
       style="fill:#ffffff;fill-rule:evenodd;stroke:none;stroke-width:0.99999994px;stroke-linecap:butt;stroke-linejoin:miter;stroke-opacity:1"
       d="m 352.8238,1860.5331 c 1.94468,22.7539 17.89104,36.1625 31.89273,36.5688 14.00168,0.4063 23.72508,-0.4063 22.94721,14.6275 -0.77787,15.0338 4.66723,30.474 21.7804,24.7855 17.11317,-5.6885 24.55788,-5.5709 29.61405,-0.2887 5.05616,5.2821 -1.50347,14.7385 14.67146,21.4164 -8.61418,-6.0374 -6.00236,-11.8397 -6.3913,-15.4966 -0.38894,-3.6568 -0.55638,-19.446 -20.78104,-16.6017 -20.22466,2.8442 -27.2255,0 -25.66975,-14.6275 1.55573,-14.6276 -2.33362,-23.9729 -19.83573,-30.474 -17.5021,-6.5011 -26.44763,-12.5959 -28.78124,-26.8171 -2.33362,-14.2212 -18.27998,-19.9097 -18.27998,-19.9097 z"
       id="path849"
       inkscape:connector-curvature="0"
       sodipodi:nodetypes="cssscccccsscc" />
    <path
       style="fill:#ffffff;fill-rule:evenodd;stroke:none;stroke-width:0.95493615px;stroke-linecap:butt;stroke-linejoin:miter;stroke-opacity:1"
       d="m 1312.0785,1817.8943 c 4.2695,-54.4053 27.752,-78.2076 43.7627,-80.4744 16.0108,-2.2669 92.8624,-6.8007 106.7384,-5.6673 13.8759,1.1335 165.4444,-1.1334 180.3878,0 14.9434,1.1335 58.7061,10.201 70.4473,30.603 11.7413,20.4019 28.8193,54.4052 18.1455,81.6079 -10.6738,27.2025 -42.6953,65.7396 -140.8946,63.4727 -98.1992,-2.2669 -203.8704,5.6672 -235.8917,-13.6013 -32.0216,-19.2685 -41.628,-55.5386 -42.6954,-75.9406 z"
       id="path851"
       inkscape:connector-curvature="0" />
    <path
       style="fill:#ffffff;fill-rule:evenodd;stroke:none;stroke-width:1px;stroke-linecap:butt;stroke-linejoin:miter;stroke-opacity:1"
       d="m 1475.2162,2033.0397 c -52.2036,-22.3729 -69.6048,-103.1642 -44.7459,-169.0401 -1.243,-90.7348 -57.1753,-16.1582 -57.1753,-16.1582 0,0 13.6723,3.7288 13.6723,39.7741 0,36.0453 13.6724,124.2942 88.2489,145.4242 z"
       id="path853"
       inkscape:connector-curvature="0"
       sodipodi:nodetypes="cccsc" />
  </g>
  <g
     inkscape:groupmode="layer"
     id="layer1"
     inkscape:label="txt">
    <text
       xml:space="preserve"
       style="font-style:normal;font-variant:normal;font-weight:normal;font-stretch:normal;line-height:0%;font-family:Lavi;-inkscape-font-specification:Lavi;text-align:center;letter-spacing:0px;word-spacing:0px;text-anchor:middle;fill:#000000;fill-opacity:1;stroke:none"
       x="279.12814"
       y="1847.413"
       id="text4246"><tspan
         sodipodi:role="line"
         style="font-size:45px;line-height:1.20000005"
         x="279.12814"
         y="1847.413"
         id="tspan4252">A Pheabar?</tspan></text>
    <text
       xml:space="preserve"
       style="font-style:normal;font-variant:normal;font-weight:normal;font-stretch:normal;line-height:0%;font-family:Lavi;-inkscape-font-specification:Lavi;text-align:center;letter-spacing:0px;word-spacing:0px;text-anchor:middle;fill:#000000;fill-opacity:1;stroke:none"
       x="1520.3032"
       y="1787.8528"
       id="text4246-3"><tspan
         sodipodi:role="line"
         style="font-size:37.33333206px;line-height:1.20000005"
         x="1526.1366"
         y="1787.8528"
         id="tspan7147">Shiolp mi cuid bìdh </tspan><tspan
         sodipodi:role="line"
         style="font-size:37.33333206px;line-height:1.20000005"
         x="1526.1366"
         y="1832.6528"
         id="tspan25">a-mach. A bheil thu ag </tspan><tspan
         sodipodi:role="line"
         style="font-size:37.33333206px;line-height:1.20000005"
         x="1520.3032"
         y="1877.4528"
         id="tspan31">iarraidh gin dheth?</tspan></text>
  </g>
</svg>
